30
3
0 0 0
28 18 25
93 43 99
48 33 77
71 45 77
68 77 84
26 10 48
20 41 43
100 88 58
90 16 85
40 36 45
88 48 89
90 70 44
40 19 45
31 49 90
11 78 37
94 47 36
74 21 94
45 38 81
13 77 41
17 94 78
29 35 51
77 72 14
99 70 19
35 22 62
54 67 10
38 47 57
95 70 57
32 72 47
49 23 91
1.50679
0.993504
0.531625
0.644296
1.9588
2.40184
1.45282
1.01237
1.96859
1.12832
0.581145
0.626625
0.752315
1.09238
1.9027
1.39482
1.4713
0.804017
0.708871
1.67996
1.64403
2.34543
1.17001
1.00288
1.32286
0.927963
1.02615
1.59225
2.35165
2.14305
85 278
272 228
211 133
293 287
60 241
229 50
374 317
359 202
361 81
396 2
450 9
154 92
444 374
230 55
64 213
246 278
283 17
246 193
400 356
249 468
24 286
148 8
475 229
69 428
234 430
241 311
163 493
131 486
287 31
374 226
7840
1
