30
11
0 0 0 0 0 0 0 0 0 0 0
70 75 92 69 42 15 60 45 100 65 52
81 53 96 90 90 52 41 66 14 40 18
46 40 25 19 75 18 81 88 69 30 90
58 46 20 66 100 92 32 32 10 73 98
28 50 72 94 12 75 97 68 88 31 20
64 81 87 46 49 20 92 63 28 50 82
53 74 20 92 91 45 48 75 92 96 64
13 18 30 28 30 98 90 72 85 77 49
80 47 16 15 59 46 69 75 12 24 36
45 86 88 18 29 38 14 70 23 56 10
23 51 40 53 80 19 15 25 77 23 41
50 88 41 42 78 63 66 74 11 30 55
70 83 94 83 24 15 82 40 84 56 10
48 20 99 19 14 43 93 70 27 11 42
67 11 69 63 63 10 92 70 88 70 84
93 71 27 68 26 15 24 43 33 58 44
15 16 14 39 44 39 29 83 27 55 21
78 49 23 42 50 38 50 76 26 55 96
56 95 33 32 45 91 84 67 71 80 43
59 47 14 88 62 14 83 73 28 26 40
98 34 72 38 64 15 45 20 43 58 46
90 18 67 71 36 32 72 53 60 80 72
32 29 66 44 71 72 34 34 56 69 31
15 59 41 12 76 10 44 99 47 81 91
66 73 97 59 30 59 51 49 37 89 38
99 34 62 49 12 69 38 56 46 38 63
42 96 77 35 79 97 36 67 81 63 91
94 91 76 19 23 88 72 26 74 28 10
16 17 28 67 87 13 33 41 78 37 29
1.23447
0.590162
0.470452
1.00404
1.15843
0.891232
1.11095
0.938183
0.510637
1.12261
0.573215
1.19251
0.343556
1.02925
0.624639
1.3907
0.779192
1.44801
0.491006
1.02712
0.606648
0.877417
1.44116
0.849053
0.661009
1.42938
0.545425
1.45813
0.7218
1.03048
23 117
179 292
223 451
120 224
99 175
289 266
397 227
34 154
491 206
455 347
95 308
104 285
19 53
86 248
494 377
469 457
45 438
33 294
127 163
325 244
459 165
414 61
84 454
185 196
472 355
139 373
105 44
228 144
101 125
9 19
7730
1
