30
7
0 0 0 0 0 0 0
40 24 70 92 43 33 67
48 79 71 15 71 20 64
40 50 24 26 19 51 67
89 59 66 93 40 84 75
97 74 97 56 16 87 70
65 10 27 20 68 27 81
44 66 16 27 100 29 45
89 34 34 99 44 77 77
55 52 91 31 82 33 20
68 63 57 31 60 65 59
70 53 86 57 41 53 85
19 13 20 60 93 56 11
42 43 48 11 77 53 91
61 67 48 32 23 33 88
52 60 32 57 80 16 96
60 11 15 59 98 47 39
12 30 69 39 78 33 15
21 17 64 85 58 65 68
86 47 42 54 42 94 86
23 77 91 80 57 37 49
53 10 45 84 14 10 67
96 56 79 88 29 44 73
19 92 28 59 38 28 99
69 64 75 64 70 79 78
80 41 56 67 69 53 75
68 61 43 78 58 27 47
34 11 99 82 18 70 20
84 47 82 87 38 65 85
46 90 21 89 76 15 77
0.284087
0.299598
0.157198
0.259166
0.462044
0.279031
0.30777
0.189613
0.401858
0.497593
0.215373
0.425325
0.483298
0.110521
0.487704
0.336006
0.277652
0.16134
0.438766
0.307645
0.163776
0.128746
0.381049
0.200813
0.423102
0.142934
0.375929
0.360136
0.128582
0.352346
440 4
197 261
182 207
196 33
144 117
73 4
135 442
82 167
456 393
176 38
419 164
437 490
452 292
458 414
19 370
138 11
410 113
173 307
212 461
349 400
315 69
72 302
254 35
152 205
219 163
255 285
362 68
197 333
39 414
355 482
1601
5
