30
9
0 0 0 0 0 0 0 0 0
39 63 30 41 42 19 23 29 23
17 88 77 98 32 47 49 52 93
44 93 10 29 96 45 66 89 84
14 75 69 99 91 11 86 21 86
20 53 49 41 31 21 44 55 32
16 39 10 82 100 70 77 29 65
81 78 21 95 71 24 29 34 23
16 23 29 61 56 72 91 63 92
64 82 84 26 45 51 47 50 38
57 43 21 82 63 11 60 31 17
73 93 32 57 36 79 69 63 19
42 39 59 53 80 69 78 100 11
35 59 35 91 66 45 75 89 95
29 53 97 77 99 97 22 38 53
57 33 26 38 74 48 47 38 10
65 86 11 93 31 30 18 27 15
55 63 23 27 28 100 49 34 54
55 93 96 34 14 96 92 55 80
78 46 37 58 36 79 52 14 65
55 95 39 30 67 27 36 39 83
52 91 46 96 36 46 72 53 43
58 98 54 27 98 54 63 80 85
69 72 91 13 95 87 74 77 70
76 86 37 21 33 67 97 86 51
77 61 45 34 21 30 51 72 37
33 15 98 98 18 52 20 28 78
80 37 30 48 16 80 64 98 83
59 80 15 98 91 62 32 40 30
29 59 13 41 13 75 23 80 66
1.31465
0.630755
0.674844
0.536166
0.303397
1.40116
0.393115
0.494445
0.377605
1.38194
0.660028
0.796991
1.10303
1.30116
0.782859
1.34762
0.983874
0.540633
0.611546
0.94248
0.968919
0.691948
0.648248
1.48328
0.846883
0.410493
1.29244
0.855103
1.05678
0.805313
246 109
360 247
172 57
194 140
321 292
466 422
106 5
18 452
437 307
75 73
149 23
13 40
456 449
84 166
258 219
371 96
127 131
298 280
414 306
210 243
55 0
224 499
386 50
97 65
61 118
121 375
122 397
452 129
386 391
121 234
1976.25
4
