30
7
0 0 0 0 0 0 0
61 31 51 91 41 11 79
69 94 94 60 12 98 51
50 73 21 65 98 99 78
88 73 25 58 47 16 56
97 56 85 53 58 90 35
61 51 97 11 71 74 33
81 42 54 68 66 98 47
26 47 11 49 43 43 11
78 24 37 70 62 49 21
18 53 32 71 16 43 61
15 51 32 51 92 72 52
63 79 37 13 75 13 77
56 18 58 51 64 86 89
99 78 31 46 50 93 18
93 69 31 40 61 33 71
10 20 66 68 71 12 72
14 13 57 53 60 86 96
64 54 55 97 42 64 53
29 42 50 45 42 17 48
35 54 62 56 84 55 45
76 83 32 83 46 12 55
78 55 87 24 63 26 50
53 96 53 95 83 59 24
50 54 10 46 42 82 47
44 11 36 84 38 78 75
96 54 33 79 41 56 74
49 21 34 79 39 26 96
21 70 14 31 86 70 12
63 18 30 68 60 37 85
0.437322
0.367985
0.551429
0.206642
0.223338
0.372748
0.938343
0.431082
0.658267
0.407008
0.319753
0.883027
0.844021
0.616162
0.575146
0.390557
0.501214
0.44126
0.69768
0.612659
0.878329
0.812612
0.686883
0.232648
0.62513
0.890066
0.456631
0.496857
0.300941
0.406003
268 280
52 373
70 203
157 376
416 94
27 10
145 270
140 143
320 114
239 69
79 435
271 291
120 337
345 21
410 184
259 293
278 62
151 383
50 420
180 39
1 200
75 198
208 377
192 221
324 225
426 252
337 81
277 59
123 454
424 18
2618.33
3
