30
9
0 0 0 0 0 0 0 0 0
93 30 32 95 89 58 92 46 88
54 42 94 100 34 41 25 35 53
65 41 29 90 10 30 42 80 73
52 62 97 25 10 54 93 18 53
53 28 24 89 61 13 86 95 79
44 21 96 41 99 51 49 53 38
16 96 22 67 67 45 84 16 83
11 22 88 91 70 73 57 93 98
95 85 43 26 52 79 22 48 79
72 87 24 52 70 32 45 62 36
97 72 30 89 12 92 93 84 95
15 63 90 40 50 23 74 71 62
64 80 20 29 57 93 52 45 25
63 55 60 80 33 29 43 47 93
94 95 18 96 42 54 89 13 98
50 39 70 24 62 27 80 86 41
50 25 49 78 78 17 76 81 27
77 100 52 85 12 23 43 79 50
100 11 20 11 91 86 79 84 29
83 20 11 51 17 58 47 10 15
20 56 63 42 37 75 59 45 38
99 93 18 80 25 48 45 72 81
42 70 95 69 82 81 79 40 58
87 70 72 90 67 50 39 89 87
80 22 98 38 37 62 34 67 88
38 77 73 79 39 100 80 82 13
94 65 76 56 94 65 20 97 27
44 97 75 20 38 96 13 78 94
80 30 68 54 24 22 100 73 40
0.401185
0.351645
0.185061
0.471289
0.400887
0.115306
0.435014
0.141032
0.286498
0.293768
0.171746
0.20563
0.265476
0.490717
0.307792
0.384243
0.274277
0.475539
0.36051
0.404635
0.11887
0.215389
0.331052
0.186513
0.332193
0.369144
0.262983
0.343656
0.112658
0.325552
25 349
98 456
421 483
412 451
285 408
102 20
165 496
474 44
497 114
123 426
386 234
498 333
364 236
385 436
153 161
451 90
291 229
377 144
32 305
351 273
177 71
292 244
247 189
127 35
458 175
385 83
197 478
72 484
7 211
80 112
4217.5
2
