30
5
0 0 0 0 0
67 98 65 39 42
65 34 35 43 66
56 31 36 70 25
13 19 66 13 50
69 39 25 10 62
79 16 34 80 96
59 67 70 10 91
44 69 15 15 90
67 40 47 52 15
65 62 65 20 27
40 43 74 65 12
31 49 19 87 59
22 53 87 37 71
48 83 98 48 52
84 21 93 63 19
71 30 78 30 14
14 28 39 31 89
36 18 23 46 96
60 66 91 10 53
48 21 70 91 64
79 12 62 55 14
42 28 47 91 24
80 48 70 24 82
100 29 35 93 20
51 12 74 100 74
62 50 52 30 70
91 75 41 85 86
29 26 62 61 65
12 84 37 38 62
0.753732
0.550566
0.734202
0.461452
0.712844
0.530144
0.259224
0.912538
0.398249
0.357846
0.609896
0.794501
0.874477
0.64421
0.70961
0.559964
0.218629
0.421147
0.451762
0.734602
0.594034
0.213074
0.209233
0.807055
0.411537
0.891606
0.627743
0.506426
0.939167
0.582215
46 360
116 266
384 126
492 171
222 290
394 71
67 238
86 379
325 433
168 111
470 98
389 155
478 292
128 149
9 171
305 223
44 90
187 471
443 410
365 116
401 19
413 236
185 457
99 216
348 306
219 64
76 402
139 230
318 93
141 403
1494
5
