30
3
0 0 0
54 21 67
34 100 97
32 14 80
93 20 42
66 51 38
45 93 49
78 64 25
24 52 37
10 52 38
75 28 24
75 37 45
71 93 42
51 73 74
55 78 32
16 73 26
88 76 99
83 39 26
89 95 56
31 22 65
58 19 10
33 94 61
10 86 88
37 60 26
38 60 73
18 64 52
45 89 34
29 28 81
33 19 73
27 29 39
0.505409
0.364841
0.83397
0.701908
0.611136
0.743253
0.842723
0.896405
0.935995
0.362187
0.780679
0.92855
0.26722
0.51217
0.235173
0.366672
0.213835
0.583954
0.301698
0.950651
0.929447
0.753718
0.697439
0.230428
0.811306
0.824341
0.949449
0.438314
0.677049
0.960396
334 86
409 337
273 315
137 128
103 290
499 45
227 470
39 440
349 124
203 270
194 394
137 136
167 313
361 249
54 237
471 409
281 118
140 199
122 196
212 45
228 224
178 20
189 151
212 305
387 470
148 108
479 16
306 419
40 192
416 178
3770
2
