30
11
0 0 0 0 0 0 0 0 0 0 0
34 96 78 64 31 77 73 93 57 79 65
61 77 64 40 12 45 74 50 20 36 26
36 21 75 99 65 54 26 58 45 55 87
37 63 34 12 44 83 44 70 64 10 82
45 11 14 13 88 76 24 80 71 30 33
29 62 87 27 90 62 32 22 17 94 95
21 99 17 90 59 44 24 56 37 76 72
74 61 20 54 48 70 49 20 88 20 47
95 51 94 77 99 71 11 36 19 85 92
52 74 82 81 47 35 63 77 46 76 71
58 55 13 21 66 38 36 39 47 14 15
39 25 94 67 45 72 87 73 57 56 63
45 75 96 46 100 20 69 79 82 89 50
56 95 65 83 92 73 27 18 45 34 29
98 84 61 21 52 24 65 87 49 72 47
36 86 97 99 23 97 76 45 41 22 38
37 35 61 83 54 36 74 81 58 19 63
63 83 52 58 67 29 89 45 39 28 44
36 65 70 79 75 17 43 30 82 11 57
46 74 21 89 71 84 69 93 95 54 57
18 22 43 64 96 13 67 74 98 77 76
62 59 63 48 81 10 72 77 26 82 30
35 72 55 73 43 69 89 23 92 94 79
63 50 83 96 31 59 49 88 22 69 39
52 15 65 91 14 46 93 68 22 30 36
70 99 89 93 81 66 48 83 65 44 37
34 44 31 63 17 71 94 52 62 40 85
98 60 28 50 50 79 42 32 54 45 79
80 33 59 50 34 98 49 68 91 25 40
1.23355
1.44845
1.20806
2.28773
0.827326
1.95732
2.15448
0.96727
1.15048
1.40252
2.40036
1.86202
2.00608
1.15815
0.538561
1.3253
1.84256
0.88504
1.65193
2.34893
2.14426
0.868105
2.02051
2.0959
1.82999
1.16122
0.967636
1.64166
1.34693
1.8252
491 159
31 226
248 84
117 130
203 473
474 472
123 234
221 299
25 229
191 473
141 342
69 455
427 282
468 179
352 434
59 356
325 76
275 489
99 454
214 492
261 264
333 319
331 169
393 411
97 206
487 136
370 120
480 461
222 186
6 154
1650
5
