30
7
0 0 0 0 0 0 0
75 17 23 33 34 66 79
41 48 74 25 37 15 48
37 53 77 16 82 26 74
73 40 92 97 35 50 17
70 40 57 22 18 31 39
41 86 45 55 85 67 58
41 24 11 82 80 14 70
78 88 23 36 91 89 59
90 72 10 52 89 68 75
98 69 27 100 15 74 56
73 78 91 34 83 86 87
25 28 55 34 84 43 60
33 76 31 92 100 28 77
29 45 46 60 48 54 10
46 73 49 68 80 36 10
92 31 89 91 38 61 41
64 92 79 83 41 56 52
14 57 80 45 84 98 87
71 42 69 10 10 45 94
18 22 47 49 18 85 79
41 30 65 88 60 31 39
96 81 98 64 86 64 30
92 28 83 62 99 98 77
56 63 38 90 16 70 73
51 83 61 79 56 56 40
37 63 19 58 43 63 99
17 87 84 99 70 45 17
23 91 23 55 41 53 28
40 57 71 82 47 73 38
1.49505
1.9673
2.28469
0.827901
1.4365
0.888063
2.14909
0.651793
2.08902
2.44605
1.14064
0.949998
1.931
1.8986
1.62776
2.1666
1.3425
1.77606
1.5599
0.812384
1.9345
1.01059
1.15076
2.16321
2.04886
0.55942
0.775994
2.08287
1.93714
1.99127
443 344
299 245
149 94
194 181
41 242
124 328
481 52
331 425
450 209
437 155
453 354
60 348
71 308
235 214
2 257
350 424
311 213
130 426
14 210
256 228
458 11
367 86
17 81
408 233
243 201
228 231
174 139
178 310
176 216
119 330
4117.5
2
