30
7
0 0 0 0 0 0 0
70 84 44 23 36 75 35
89 16 62 96 40 94 75
100 11 28 26 19 88 66
35 82 30 39 29 11 77
11 85 93 53 84 85 84
47 12 21 27 56 47 88
26 81 61 28 35 20 39
77 92 27 82 10 28 53
33 52 74 18 76 38 74
89 28 11 54 52 18 87
26 49 31 30 62 71 27
93 48 88 69 51 23 38
65 39 14 37 85 97 20
77 26 82 62 66 71 46
56 13 38 71 76 91 20
83 30 60 37 64 22 76
65 60 63 15 50 62 33
83 96 85 37 57 96 25
16 17 61 45 82 79 83
24 67 90 73 35 96 83
46 76 93 57 98 35 15
88 29 29 20 30 98 54
71 30 21 30 54 99 100
48 75 73 15 45 68 10
86 86 71 36 44 23 98
97 36 18 73 11 47 28
23 73 85 80 10 100 60
64 62 64 77 50 25 75
32 32 11 21 44 57 80
1.07114
0.581106
0.595189
2.34106
2.22503
2.14626
0.636629
1.2706
2.47787
2.43784
2.03728
1.78418
1.28611
2.07462
2.48555
1.9359
2.28413
1.6485
2.40387
2.4132
1.647
1.03459
0.507204
2.43318
1.46133
0.788555
1.05287
2.0075
1.05439
2.39684
63 212
54 182
406 227
224 87
69 120
85 344
314 429
348 54
119 74
336 210
428 277
69 496
291 396
98 43
386 176
177 418
245 188
463 446
42 286
347 321
124 476
380 49
307 290
125 45
247 178
20 288
373 219
170 158
97 114
164 62
3902.5
2
