30
3
0 0 0
25 86 84
69 99 43
58 17 36
43 73 55
50 96 62
47 37 86
61 46 82
26 66 73
40 12 12
34 27 63
87 73 95
51 78 24
99 89 45
81 52 14
100 85 74
51 20 36
19 13 57
26 79 32
10 15 100
64 65 69
61 44 84
17 37 91
56 27 25
14 60 97
27 95 10
65 62 15
93 79 79
39 55 34
68 47 48
0.212118
0.492946
0.417524
0.445414
0.192323
0.328015
0.453686
0.291496
0.198408
0.404671
0.111049
0.416
0.308472
0.153041
0.412992
0.2079
0.404558
0.347199
0.227723
0.217004
0.163305
0.340183
0.459979
0.210662
0.20511
0.390643
0.496847
0.422529
0.415678
0.463035
354 116
466 92
211 447
362 358
306 329
14 68
226 374
453 448
225 227
458 409
381 237
228 188
391 301
327 293
437 275
2 421
212 1
18 490
439 469
351 421
193 252
134 305
44 400
53 400
33 143
400 77
75 307
200 115
160 162
38 147
3950
2
