30
5
0 0 0 0 0
83 81 38 67 92
52 91 94 21 33
38 59 80 49 48
94 97 40 86 32
93 90 73 21 52
45 34 27 96 94
11 28 38 41 85
70 69 100 84 74
49 78 37 34 34
58 100 15 42 36
64 75 50 37 70
85 45 44 91 22
20 91 43 16 78
88 22 42 36 99
75 23 100 91 91
46 72 76 48 28
16 18 80 15 35
47 32 61 16 32
17 75 97 88 69
32 21 14 31 96
88 13 90 20 67
88 75 44 91 96
91 73 10 92 97
14 18 25 94 23
27 80 79 79 14
93 30 94 67 54
58 37 88 36 52
80 35 75 100 98
52 12 53 36 28
0.344107
0.409042
0.410022
0.9349
1.4614
0.849879
1.07336
1.22424
0.387728
0.797513
1.3534
1.26982
0.844478
0.486858
1.37869
0.922166
0.80984
0.731143
1.17231
0.662522
1.4737
0.833401
0.389077
0.63572
0.750052
1.44502
1.21726
1.4765
1.18448
1.49982
356 330
415 7
156 221
118 47
443 459
429 170
319 175
240 413
11 32
199 99
366 65
99 192
55 221
481 474
56 399
493 319
434 466
227 28
452 122
323 381
37 141
447 190
418 295
373 103
456 189
24 394
160 131
459 376
300 450
451 479
8305
1
