30
5
0 0 0 0 0
84 43 34 77 70
35 23 15 41 34
48 93 34 53 60
45 80 36 50 62
89 55 70 66 35
99 60 30 90 26
74 24 88 66 89
66 86 10 52 87
14 59 64 99 27
24 31 67 36 22
56 90 43 46 20
24 66 43 21 18
100 60 31 65 75
47 23 63 53 94
91 20 50 16 28
12 31 40 55 25
36 46 93 75 80
79 16 81 58 59
48 77 30 11 74
25 22 56 61 41
96 87 35 80 79
21 61 11 44 81
86 53 19 39 15
81 28 33 99 97
67 98 41 77 97
61 58 99 53 37
40 70 55 17 61
14 98 84 86 25
23 14 42 77 68
1.67879
0.907609
1.70424
1.41989
1.38315
1.52867
1.93076
1.41157
0.493124
1.23377
1.46824
1.42887
0.621366
1.09171
1.21162
0.608273
1.61614
1.00217
1.16328
0.44698
0.736426
1.32153
1.00439
0.976991
0.53004
1.51152
1.97642
0.75594
1.49521
0.454205
185 40
394 347
169 28
424 178
203 90
457 313
269 492
472 45
314 280
240 123
166 431
177 108
442 471
210 56
99 1
11 435
489 190
178 22
408 225
299 243
360 230
313 277
358 257
431 14
438 286
343 177
318 301
14 340
273 297
382 41
7800
1
