30
9
0 0 0 0 0 0 0 0 0
63 61 90 55 88 77 12 16 69
68 58 75 17 10 16 26 51 94
97 16 98 99 84 17 72 74 17
84 91 16 82 17 65 25 43 77
100 22 92 57 63 39 18 41 49
55 82 12 12 20 23 96 10 79
82 96 22 59 30 39 78 10 57
90 44 12 53 95 46 54 66 36
53 36 95 11 56 45 73 26 94
82 78 20 73 41 67 13 25 84
17 20 69 69 79 70 13 78 81
76 60 99 35 36 65 27 72 54
40 69 44 35 32 61 92 16 89
53 13 20 22 46 42 48 29 85
57 97 78 90 35 31 90 15 47
28 21 92 49 96 61 20 29 49
38 96 64 57 10 74 93 71 80
65 33 22 39 96 32 25 26 88
44 47 26 68 34 40 66 19 67
72 76 41 93 53 87 10 30 36
71 67 20 84 40 82 97 63 20
71 29 77 22 13 56 78 94 85
44 89 12 63 79 34 43 88 69
100 12 30 18 96 17 66 89 20
32 64 48 81 43 64 95 87 22
25 18 95 79 70 23 96 36 82
95 50 84 21 35 45 21 55 68
39 42 100 54 90 21 51 73 11
64 96 99 59 42 23 33 79 48
0.738054
0.735086
0.864001
0.478594
0.654609
0.985462
0.562169
0.532163
0.595095
0.448392
0.267491
0.254591
0.371757
0.228887
0.754376
0.290369
0.356058
0.717056
0.247421
0.292139
0.221063
0.36899
0.738506
0.940261
0.304109
0.437049
0.993064
0.534142
0.805879
0.65535
58 442
87 262
88 385
311 100
138 448
424 365
63 289
499 321
49 238
81 432
447 205
228 65
253 414
396 212
174 204
442 336
305 104
204 413
370 278
288 447
209 203
212 90
97 311
203 292
289 409
350 15
276 258
20 469
294 349
456 451
3940
2
