30
11
0 0 0 0 0 0 0 0 0 0 0
18 28 77 47 64 49 27 76 12 75 34
78 22 87 23 99 85 90 37 77 35 49
48 37 85 97 45 34 44 79 35 53 85
37 38 40 25 70 74 14 41 89 39 48
22 97 54 100 88 84 21 44 65 88 37
88 67 18 96 93 51 85 76 79 89 55
72 31 86 63 53 20 29 19 84 10 48
29 51 60 43 73 97 60 18 50 83 76
73 22 48 30 63 17 42 89 68 75 44
30 89 32 43 21 16 37 27 12 95 88
62 83 65 39 18 62 14 40 63 76 80
68 47 54 95 13 53 90 30 24 99 58
79 79 64 85 87 44 61 81 19 61 39
16 35 39 10 77 87 82 62 89 62 31
82 53 79 71 98 95 99 98 73 68 26
39 64 30 94 56 77 90 27 69 50 35
83 37 76 41 87 85 33 59 85 82 46
50 66 12 39 71 56 28 55 31 98 97
18 17 78 43 29 71 45 64 31 37 96
80 41 31 22 52 47 84 63 36 100 14
15 47 45 99 34 51 47 61 94 77 36
57 10 67 27 86 10 76 25 71 77 45
49 36 10 88 10 27 92 62 60 37 41
17 86 29 65 70 29 14 18 41 50 86
39 91 56 82 66 81 22 44 64 69 31
64 44 100 19 41 80 91 57 85 90 55
81 95 14 38 25 30 72 31 47 71 28
31 48 62 79 41 79 92 10 61 16 53
81 58 15 44 74 22 100 92 64 20 13
1.89331
1.19853
1.21663
1.64163
1.65824
0.563587
0.936552
1.69587
0.868662
0.818176
0.660183
1.9935
1.01164
0.866285
1.55064
1.57797
1.03713
0.46659
0.714401
1.6388
0.777279
1.73395
1.02495
1.90792
1.88321
0.604266
1.94019
1.91603
1.10834
0.928282
199 472
241 222
429 65
298 477
80 333
474 456
208 470
209 484
361 2
243 288
220 103
454 91
60 45
183 268
466 124
256 423
136 79
203 370
284 130
361 117
356 387
149 46
249 298
137 326
159 320
88 290
476 232
452 71
77 196
412 362
1609
5
