30
11
0 0 0 0 0 0 0 0 0 0 0
16 42 77 79 46 71 98 100 65 46 13
23 50 73 72 83 29 45 81 37 41 65
47 36 22 53 30 61 46 40 29 13 49
41 80 54 43 25 33 93 62 77 70 43
71 92 15 95 15 33 66 99 12 81 56
54 90 66 68 43 68 38 70 52 89 69
73 86 55 36 73 85 16 94 79 60 13
55 74 98 77 18 34 24 80 18 51 86
96 86 71 89 27 52 97 89 21 59 76
31 33 85 36 57 62 21 88 91 31 61
34 82 62 24 18 95 80 34 28 62 48
99 24 42 21 13 54 56 58 12 89 70
24 20 30 67 33 80 56 13 89 85 31
79 63 24 65 24 40 79 94 40 28 83
26 95 11 87 64 49 17 54 78 99 62
78 11 35 94 69 62 70 89 41 75 85
17 96 98 66 98 55 76 22 26 75 19
37 78 69 44 47 85 29 60 82 20 73
19 43 90 82 25 11 39 17 27 85 23
10 61 26 19 59 73 61 59 93 65 26
25 50 58 76 92 100 49 57 40 57 20
35 84 35 69 78 38 32 62 81 81 55
51 53 100 44 48 70 51 83 93 57 31
91 91 40 30 79 76 84 38 10 53 42
15 75 53 59 11 20 95 31 13 74 30
66 37 42 74 33 82 40 46 48 50 86
81 20 30 77 57 69 58 88 12 33 75
51 17 51 99 81 52 26 24 45 84 41
81 47 41 82 78 44 39 55 10 100 24
2.26031
0.629025
1.53385
0.856819
1.93036
2.38019
0.567207
0.900515
0.743007
2.38789
1.71836
1.96278
2.26228
1.60245
1.23307
1.47256
2.26971
1.3599
1.73142
1.64739
1.54129
1.39035
2.16519
2.13429
1.17969
1.11474
1.33878
1.08706
0.807936
1.6664
58 90
318 137
86 17
455 344
274 92
250 278
12 382
485 8
346 184
181 113
215 472
30 186
209 287
214 219
442 124
11 309
75 73
150 116
109 29
56 209
103 42
444 278
172 11
493 461
238 81
214 495
85 373
36 347
239 375
240 343
8005
1
