30
7
0 0 0 0 0 0 0
86 73 18 38 75 68 18
92 15 98 45 21 65 36
97 62 99 51 70 87 54
93 56 42 92 62 75 29
20 22 30 57 57 38 46
54 57 84 42 71 21 13
100 63 10 46 75 45 33
17 96 100 57 77 46 70
76 11 73 99 95 70 94
33 80 93 33 37 19 17
12 31 51 95 22 37 42
22 74 28 90 26 79 77
89 53 42 84 90 56 13
98 10 30 33 46 92 46
57 42 56 50 79 87 91
70 25 82 30 37 27 26
37 46 27 34 34 35 95
90 73 18 14 66 12 56
54 53 99 91 76 14 46
86 19 34 12 37 20 68
64 20 44 64 99 57 27
26 99 62 95 27 47 52
40 17 81 13 70 42 18
48 24 34 29 70 53 26
49 91 79 72 75 84 31
71 45 87 22 21 98 37
27 25 36 100 69 62 64
31 91 60 79 63 19 80
68 24 75 32 89 16 35
0.344689
0.488325
1.00066
1.32068
0.976782
0.742465
0.954955
1.1154
0.479983
0.659664
1.42253
1.33905
1.34092
1.13939
0.701589
0.491565
0.931705
0.380758
0.332049
0.377311
1.33254
0.326961
1.35329
1.35558
0.365994
1.40885
0.615133
0.948667
1.24412
0.765474
375 254
55 391
152 424
233 64
382 253
412 393
184 156
74 496
156 291
5 245
210 159
492 188
118 490
251 123
377 369
167 176
223 338
93 30
94 140
91 97
313 80
382 194
289 140
52 78
445 1
403 498
500 88
75 61
340 447
208 165
1560
5
