30
5
0 0 0 0 0
92 77 36 41 97
85 32 27 19 19
96 64 74 66 95
39 43 48 74 32
21 84 25 15 14
87 21 95 61 50
69 58 62 80 48
55 76 100 99 68
48 34 28 86 84
64 75 74 40 30
65 46 83 41 29
13 80 39 67 92
15 90 33 54 38
14 59 59 16 60
99 58 71 19 95
53 10 73 98 79
65 73 15 44 30
90 68 14 29 97
66 70 15 96 18
97 25 18 100 74
89 63 20 35 68
27 11 16 42 14
82 89 42 61 57
52 58 77 57 72
80 48 55 10 85
14 27 44 51 87
41 10 50 26 41
27 21 60 55 68
52 93 58 28 51
0.266472
0.943247
0.52803
0.65744
0.210532
0.622752
0.43956
0.670173
0.577363
0.379711
0.527367
0.816462
0.529708
0.361068
0.308233
0.271969
0.668394
0.979793
0.396097
0.44762
0.751209
0.459815
0.803371
0.354812
0.579762
0.819826
0.961905
0.386619
0.232081
0.507509
360 440
141 479
65 471
281 427
120 105
147 393
41 257
488 225
208 278
405 190
362 286
316 220
176 43
60 2
160 462
434 118
30 101
482 324
470 186
17 400
219 382
447 199
469 301
341 132
83 161
452 296
317 218
370 120
39 356
414 367
3935
2
