30
7
0 0 0 0 0 0 0
68 30 83 42 36 49 17
79 37 87 27 94 22 19
46 29 57 65 51 77 82
19 97 82 57 59 70 19
37 64 29 73 100 74 64
20 43 15 16 48 28 54
14 19 77 66 72 60 59
43 50 35 76 89 73 80
20 71 54 61 10 17 85
79 63 82 61 20 53 36
78 42 71 24 65 61 23
42 21 28 25 80 32 48
48 28 97 87 27 89 65
81 92 40 64 97 43 76
31 24 32 23 73 36 13
92 16 30 67 64 10 66
98 42 22 22 96 43 99
57 70 66 11 18 69 99
75 54 21 24 25 50 38
16 48 90 17 21 71 40
24 27 49 13 41 37 73
92 50 75 44 41 27 86
26 34 100 35 23 77 82
56 72 45 25 43 93 90
20 79 41 61 92 94 98
94 64 13 71 88 31 29
24 14 47 14 85 96 98
78 33 98 62 33 24 76
42 96 95 79 97 77 37
0.607776
0.623347
0.612537
0.846504
0.776455
0.712361
0.805949
0.732337
0.735029
0.259238
0.718619
0.778516
0.578423
0.383159
0.327605
0.7408
0.500696
0.754139
0.709829
0.512168
0.411626
0.435247
0.428447
0.550965
0.810371
0.207871
0.727479
0.819609
0.758696
0.970436
171 40
358 220
221 342
9 343
254 234
356 377
270 313
226 439
469 132
416 368
412 477
255 327
58 4
115 93
481 81
490 176
168 301
177 236
440 98
261 474
384 325
394 100
471 12
309 420
259 183
340 411
285 327
434 192
289 437
117 202
1946.25
4
