30
3
0 0 0
15 44 52
30 20 27
91 89 21
20 72 54
14 27 31
58 21 48
39 80 41
43 37 92
26 12 50
53 97 69
95 52 76
97 32 40
97 60 98
15 51 12
49 16 62
98 48 93
72 73 77
10 60 36
97 20 41
35 93 28
21 47 86
29 76 68
49 38 32
56 94 33
38 25 54
26 35 100
100 97 24
48 64 98
24 87 89
1.25875
0.965709
0.552366
1.38187
1.39666
1.09985
1.45936
1.11659
0.553292
1.04289
1.40342
1.29926
1.42268
0.83893
1.46539
1.05045
1.03946
1.47046
1.14653
1.06981
1.29631
1.40656
0.719481
1.01123
1.28595
1.02743
1.13275
1.46263
0.358608
0.590556
102 332
128 74
69 98
456 307
342 343
442 49
170 201
405 82
260 406
164 184
52 153
18 448
128 371
189 492
194 28
259 392
425 120
130 264
456 423
46 134
237 117
104 460
319 498
280 450
400 265
446 469
457 136
405 90
136 284
332 239
1548
5
