30
11
0 0 0 0 0 0 0 0 0 0 0
63 46 59 52 71 26 98 90 69 11 87
41 79 97 37 84 57 54 37 57 79 41
50 90 90 95 33 100 22 70 97 63 98
85 68 62 24 42 69 89 35 32 51 12
90 53 48 64 75 82 14 52 97 65 19
83 87 57 98 95 19 47 40 25 20 78
55 19 67 46 81 68 33 92 92 33 63
19 78 57 86 67 65 58 24 39 39 96
12 80 69 11 15 73 82 69 41 59 16
75 55 13 35 88 12 43 74 55 93 91
40 57 74 83 30 10 82 50 75 53 35
88 89 48 89 74 24 55 41 78 33 72
89 26 51 15 93 21 87 78 77 36 60
20 15 45 26 58 39 99 100 98 62 37
23 69 68 21 71 61 93 40 51 49 69
100 47 14 24 16 52 21 50 43 89 51
19 77 10 49 95 22 83 79 91 82 75
67 87 29 19 20 18 67 42 72 72 48
72 74 92 15 53 19 74 12 54 81 21
82 88 82 12 10 55 24 25 57 79 25
95 23 13 20 36 86 38 82 23 60 53
78 34 89 59 61 91 76 50 95 44 16
54 36 73 36 65 40 32 88 74 24 61
18 39 15 76 75 90 65 34 41 14 63
20 30 62 69 35 12 11 62 66 69 51
11 94 93 39 26 47 61 12 46 44 33
82 45 54 77 35 61 72 45 33 74 26
28 27 33 30 13 76 96 42 22 61 78
57 96 85 63 39 49 57 31 29 43 89
0.383474
0.60758
0.544825
0.879944
0.27562
0.809669
0.365623
0.203454
0.286163
0.759866
0.944871
0.480602
0.909706
0.710048
0.990555
0.805141
0.219302
0.219811
0.858888
0.926531
0.268288
0.448189
0.662964
0.734757
0.55572
0.855619
0.782142
0.917838
0.749953
0.503484
114 370
398 204
27 244
330 320
459 185
315 182
220 452
376 337
434 68
441 234
180 83
235 449
434 91
279 433
369 160
115 379
363 348
5 375
478 98
455 175
200 408
401 228
32 183
130 323
480 473
163 437
326 352
458 130
366 460
323 269
2650
3
