30
5
0 0 0 0 0
42 95 45 96 13
52 84 53 32 10
54 81 35 31 89
11 22 60 73 83
99 79 19 73 86
57 99 84 73 88
23 32 26 99 77
83 51 27 10 58
64 24 68 72 14
43 14 75 58 69
53 85 27 35 57
39 29 71 52 26
13 18 86 45 66
49 94 80 91 11
17 10 80 88 38
72 27 51 50 73
65 62 31 13 19
83 47 97 30 10
66 37 14 48 78
84 93 24 26 11
16 39 51 57 57
67 74 97 10 26
35 84 14 79 30
65 47 91 95 67
32 86 21 87 39
88 66 26 77 44
95 51 61 60 48
47 55 77 89 26
44 73 84 84 93
1.68602
1.00401
1.27746
2.11408
1.64674
1.77032
2.41928
1.37013
1.06525
1.98421
0.681711
2.44433
2.33849
2.3075
0.970482
1.15123
2.01518
2.20283
1.93316
2.26559
1.73794
1.06771
1.26347
1.80521
2.20567
0.53906
1.88497
2.23751
1.50014
1.08213
363 85
346 456
226 146
30 12
473 401
497 90
100 39
296 347
422 145
251 191
349 42
467 471
15 423
0 55
387 22
406 446
483 478
416 175
412 389
39 6
130 269
261 92
403 24
294 210
54 11
64 318
240 119
304 15
130 405
295 477
7930
1
