30
9
0 0 0 0 0 0 0 0 0
37 10 65 94 56 33 91 65 75
51 78 10 70 32 88 19 63 20
88 39 24 72 38 14 22 69 55
45 47 40 12 49 83 36 43 92
21 95 12 60 71 81 81 24 86
22 44 22 65 100 12 44 57 78
39 26 49 61 39 44 26 35 46
50 44 73 88 38 84 46 87 65
37 63 89 90 17 91 61 15 26
13 65 20 47 92 29 92 93 46
54 63 87 55 90 11 20 64 88
16 58 62 65 64 24 38 85 49
50 33 61 95 75 90 25 18 30
99 57 78 18 76 37 68 32 80
39 50 90 50 19 91 94 30 77
75 89 96 82 47 52 64 73 97
76 98 61 61 75 32 49 91 89
63 76 14 17 19 29 13 60 53
58 31 38 70 27 63 67 27 26
79 12 84 19 28 72 97 53 40
83 30 20 25 97 44 34 85 91
26 54 59 23 23 79 28 18 77
76 51 64 31 43 47 47 29 91
75 94 68 48 57 92 88 57 18
65 78 44 18 57 37 76 17 91
80 99 86 73 93 21 13 74 57
87 47 10 84 63 44 67 61 66
85 38 63 79 24 17 97 77 98
66 17 45 73 86 20 18 72 100
1.29968
0.489737
1.3623
1.2034
1.00428
0.558614
1.70657
1.15226
1.8277
1.70413
1.41941
1.17996
0.934468
1.90214
0.62063
0.655139
1.09569
1.3801
0.729569
1.90637
1.83904
0.705224
1.85629
0.688106
1.32222
0.439669
0.805692
0.696791
1.15015
0.677302
212 317
188 262
485 111
404 255
449 485
409 404
428 82
118 193
500 401
8 131
332 129
499 302
276 248
446 475
375 119
26 75
130 465
50 291
126 241
125 140
242 181
41 467
69 91
132 199
371 336
383 183
286 220
69 291
177 215
201 180
1608
5
