30
7
0 0 0 0 0 0 0
77 89 27 29 70 80 49
33 36 47 63 67 99 42
46 72 25 86 42 87 47
71 48 22 75 42 30 44
76 24 45 77 47 73 69
43 96 75 60 97 40 44
69 92 74 13 61 93 57
87 89 89 22 66 34 84
66 21 73 38 34 85 84
75 64 31 26 76 91 43
49 41 100 69 38 95 16
72 36 37 33 51 61 35
19 84 57 55 26 78 16
21 73 99 97 58 79 33
47 83 95 20 99 64 18
18 69 88 93 83 49 26
20 33 81 34 18 17 99
15 54 14 96 24 90 23
82 48 91 98 84 32 53
85 63 46 52 96 75 17
98 38 63 33 56 13 76
71 33 74 37 17 42 67
55 56 98 22 61 83 34
55 43 98 34 76 85 42
78 70 87 38 92 16 67
47 19 79 16 91 66 17
23 28 26 52 30 18 83
25 67 45 93 62 29 73
84 62 69 61 43 25 68
0.696077
2.45812
0.548574
0.655516
0.776974
1.04972
1.52253
0.987842
0.640275
1.80786
1.20592
2.48347
2.06073
1.72829
1.63167
1.01849
0.64065
0.678372
2.31986
1.91113
1.7055
1.91823
1.6628
1.06858
1.33954
2.00319
1.56877
2.43176
2.26572
1.42737
453 59
90 430
67 251
455 287
348 272
12 393
43 207
55 2
174 280
231 463
87 431
22 216
305 164
69 469
344 287
254 410
250 263
126 186
484 465
382 274
155 497
469 214
415 290
436 132
477 3
43 287
342 20
164 249
308 80
275 454
4097.5
2
