30
7
0 0 0 0 0 0 0
87 53 41 22 73 70 88
50 12 20 12 78 19 91
86 99 71 83 71 81 23
36 68 52 60 25 43 25
70 55 76 100 11 96 25
52 22 42 21 33 63 71
62 47 98 72 27 58 42
28 85 92 70 15 91 59
55 38 47 79 28 22 69
94 37 72 48 13 62 88
87 33 11 62 92 27 70
93 63 84 74 63 44 44
16 58 31 31 60 85 11
66 75 19 43 75 58 77
98 19 77 83 47 63 87
18 55 60 83 47 76 34
28 87 71 22 26 67 47
73 55 69 79 60 27 44
63 92 51 30 98 24 81
44 42 28 73 11 42 97
34 40 85 90 19 57 27
99 55 29 28 50 43 95
71 83 43 78 34 48 48
99 62 15 68 92 50 93
81 73 85 44 27 67 96
61 35 60 22 42 11 26
36 32 43 89 61 86 42
66 90 37 100 41 50 31
74 13 90 52 99 32 73
0.483161
0.595555
0.95306
0.885206
0.881679
0.844403
0.809324
0.599278
0.288591
0.769521
0.455481
0.313796
0.662112
0.820274
0.918885
0.303269
0.996858
0.72381
0.411772
0.693713
0.985559
0.381196
0.998218
0.516247
0.263869
0.566786
0.508923
0.938893
0.764079
0.727243
177 189
326 52
335 62
21 371
426 154
2 222
40 212
41 159
163 475
235 108
231 450
363 64
227 333
33 251
169 420
163 32
219 95
159 384
428 428
424 74
282 11
303 213
43 137
6 290
234 386
71 337
398 348
355 433
410 217
393 421
4072.5
2
