30
7
0 0 0 0 0 0 0
40 82 28 57 11 98 89
84 79 50 35 49 58 45
34 54 13 67 42 15 21
19 71 36 58 19 68 81
20 56 91 26 73 53 53
80 100 47 32 96 27 46
28 29 16 62 51 45 60
87 26 33 98 54 56 93
94 77 66 33 51 51 87
89 35 26 60 90 77 30
22 30 31 73 66 63 36
97 85 18 20 24 95 13
99 98 22 56 18 70 10
90 46 26 18 56 29 49
30 24 51 22 50 84 85
10 68 66 14 47 100 94
89 77 14 50 32 66 83
37 64 85 47 47 16 66
54 39 31 42 80 35 93
84 65 91 96 73 51 91
81 68 65 59 15 76 75
23 100 20 38 92 70 10
18 35 69 23 70 69 74
83 12 63 65 15 94 79
98 74 64 88 60 55 86
27 32 22 81 100 14 40
59 59 74 88 81 71 77
89 24 86 79 33 96 35
74 47 30 49 50 37 77
0.502427
0.554486
0.561705
1.49712
0.895997
1.00812
0.390915
1.4621
1.3057
0.601799
1.13867
1.08883
0.82656
0.592786
1.24708
0.588076
0.516903
1.02619
0.325461
0.384904
1.21792
0.510098
1.32785
1.30367
0.404424
0.511345
0.990815
0.716633
0.46659
0.731188
159 262
41 87
94 174
431 28
444 27
248 260
443 130
122 431
305 142
126 42
326 126
341 138
351 262
147 402
288 210
499 388
386 417
130 426
475 315
433 68
263 222
101 400
23 73
339 68
111 1
470 198
430 91
486 179
153 47
309 272
8090
1
