30
9
0 0 0 0 0 0 0 0 0
22 38 50 99 91 98 67 74 26
45 18 13 84 30 77 35 23 37
21 28 70 93 57 10 33 64 46
23 43 27 67 48 78 31 23 97
28 49 56 27 36 29 86 59 65
29 32 12 21 93 33 14 100 22
75 58 26 76 63 40 66 63 74
78 50 43 76 12 54 86 13 13
37 91 30 17 85 15 63 52 78
40 98 43 46 19 31 14 75 80
54 81 20 36 30 10 80 35 30
93 58 31 69 50 31 50 18 54
80 67 92 73 90 30 65 25 44
17 22 51 54 20 99 60 75 66
45 49 54 32 13 45 98 73 27
66 19 70 59 58 19 34 55 49
62 19 57 23 20 86 12 93 78
94 11 38 61 49 46 44 23 14
44 90 35 81 83 97 46 84 57
83 71 41 86 77 90 99 80 31
57 11 98 19 53 100 68 68 47
15 36 94 49 20 33 25 68 92
22 43 87 91 89 55 68 83 90
49 38 85 37 99 81 70 55 15
21 89 79 83 25 87 95 30 75
38 85 92 25 45 38 28 27 15
48 89 40 19 30 100 19 19 56
11 29 15 28 82 78 82 39 10
42 13 87 59 80 11 24 40 39
0.299352
0.352194
0.173913
0.48792
0.369788
0.309269
0.420476
0.250328
0.48393
0.175292
0.348162
0.429969
0.328592
0.219356
0.479322
0.159879
0.258705
0.425314
0.342608
0.199034
0.264605
0.112547
0.171967
0.43233
0.465641
0.214534
0.108338
0.19062
0.207462
0.141496
426 449
371 70
340 297
433 349
426 429
86 380
38 43
387 331
435 90
325 122
66 284
121 101
120 162
36 282
326 299
109 422
149 376
474 66
107 258
41 51
239 332
278 315
242 405
152 61
304 348
304 225
264 4
181 169
489 247
78 320
7535
1
