30
5
0 0 0 0 0
56 92 15 29 30
79 30 65 20 31
74 13 24 96 82
21 50 23 26 82
29 92 66 79 73
97 75 38 27 83
18 83 12 10 96
40 90 76 87 63
97 100 24 38 82
51 51 76 26 22
69 63 75 23 20
83 30 11 88 55
76 98 73 32 66
14 58 17 51 71
31 53 41 27 32
84 47 54 25 47
37 74 32 61 13
29 68 53 76 10
78 30 13 76 75
98 32 11 19 33
27 60 21 19 43
77 13 22 69 55
94 25 92 19 75
96 59 36 24 10
24 93 28 16 16
70 72 96 61 100
23 13 94 47 64
53 22 38 75 71
61 22 40 97 53
0.425704
0.192392
0.210743
0.26854
0.238174
0.49654
0.458516
0.400839
0.231323
0.238266
0.317868
0.14329
0.214676
0.272618
0.138832
0.19596
0.124605
0.232727
0.44424
0.248234
0.205046
0.376898
0.420974
0.382475
0.370641
0.447107
0.416431
0.351164
0.223233
0.402743
349 327
341 338
305 207
276 116
27 68
112 344
129 420
410 16
419 216
64 427
390 391
72 340
483 485
334 432
431 414
252 6
50 316
256 226
194 281
263 451
73 152
298 234
448 267
219 333
64 482
402 436
258 282
42 121
25 173
152 407
2485
3
