30
5
0 0 0 0 0
23 19 71 42 36
89 61 12 42 86
35 61 70 43 79
80 35 50 66 56
95 54 13 26 63
30 83 37 79 46
51 36 74 62 79
16 59 42 32 14
76 78 82 95 15
72 66 30 81 87
85 18 63 84 82
68 65 24 100 99
57 91 48 54 24
83 50 92 79 99
97 34 43 80 36
29 14 53 16 24
54 72 49 100 36
92 43 20 15 70
51 51 42 12 59
99 55 100 100 57
24 67 83 47 23
40 35 51 71 85
51 25 48 22 14
54 23 47 56 69
97 97 59 12 94
95 28 49 50 16
52 30 47 80 38
73 80 75 33 24
79 19 84 26 98
1.38835
0.688825
1.49729
0.861131
1.57941
0.501312
1.39808
1.99478
1.26846
0.886851
1.55965
0.641615
0.877728
0.869629
0.973949
1.07055
0.477879
0.433799
0.817318
1.35273
1.27981
1.32314
1.30825
0.797581
1.53661
1.65928
0.676741
0.675532
1.93403
1.80134
325 422
398 409
6 284
303 449
358 488
460 454
285 57
339 311
92 411
370 157
286 297
271 151
56 141
128 401
263 383
488 37
30 328
205 374
87 363
57 496
161 423
315 72
252 45
33 377
389 30
451 52
390 259
281 203
171 61
287 305
8065
1
