30
9
0 0 0 0 0 0 0 0 0
68 26 31 71 56 53 62 47 23
20 44 32 13 32 86 78 100 16
100 90 40 71 38 58 30 77 97
46 100 74 84 70 40 63 72 19
83 24 88 29 11 81 26 32 24
16 39 100 26 53 44 41 29 75
52 45 48 95 51 12 11 63 16
80 77 82 29 30 47 77 42 85
86 63 48 47 84 71 81 96 32
90 50 53 43 46 42 26 94 46
82 69 57 79 85 71 58 83 80
14 59 76 28 34 55 80 21 17
45 34 17 83 91 79 49 32 96
65 28 65 87 70 43 61 94 18
71 57 37 17 14 53 96 22 54
25 59 53 94 46 35 65 92 47
23 24 60 88 48 50 24 40 51
86 97 88 29 87 62 12 81 69
86 22 19 100 46 39 30 100 58
54 86 99 59 86 89 24 63 44
17 54 95 96 39 33 71 85 84
71 77 41 60 63 51 57 63 47
40 60 48 22 23 51 34 40 92
95 92 48 86 52 55 95 57 61
23 18 100 99 22 44 55 63 79
43 67 68 73 20 84 27 38 99
68 19 34 73 77 18 83 75 36
84 52 68 26 75 69 16 98 93
82 11 31 32 74 93 33 39 78
1.40634
0.364949
1.43033
0.981829
0.377252
1.47365
0.589635
0.654221
1.03541
0.418687
0.529752
0.394244
0.321224
0.607028
1.15702
1.00578
0.769604
0.933352
0.676314
0.63938
1.36947
0.663471
0.505375
0.483996
1.42387
0.807736
1.04148
0.891235
0.806894
1.18397
410 462
101 488
138 47
36 141
88 97
387 379
14 159
234 35
452 399
359 153
184 216
52 313
484 227
449 402
301 286
227 420
181 46
243 273
309 85
181 159
60 331
274 498
327 58
1 156
216 304
284 472
325 172
296 22
74 148
271 10
1640
5
