30
7
0 0 0 0 0 0 0
98 82 86 88 41 22 48
33 71 28 41 92 31 75
98 30 25 82 21 72 30
100 26 10 58 34 67 91
76 65 42 47 72 78 99
20 32 62 33 25 78 17
26 87 94 40 13 22 91
11 60 58 75 74 51 26
75 23 16 46 89 93 86
49 97 50 13 29 23 34
97 43 83 72 18 38 18
64 43 27 80 41 99 73
18 99 34 54 23 98 26
83 87 55 82 58 12 66
74 96 86 76 94 67 44
82 23 16 65 100 79 33
57 78 10 70 92 89 53
40 39 38 43 47 30 19
61 92 78 56 25 39 10
70 75 65 84 34 56 60
38 50 57 31 95 74 38
72 68 51 30 75 49 45
52 87 15 86 66 61 92
86 21 46 14 66 56 31
96 30 38 37 38 83 69
39 49 73 36 43 97 56
79 91 51 96 89 87 35
12 76 42 59 38 50 38
36 28 43 55 22 12 43
0.127675
0.44463
0.136307
0.42109
0.152416
0.392953
0.211448
0.456554
0.453075
0.265983
0.458419
0.135761
0.470423
0.309917
0.210397
0.351513
0.232119
0.281629
0.162404
0.132463
0.215101
0.405424
0.187764
0.26467
0.283321
0.201853
0.368443
0.119347
0.446395
0.436878
143 476
397 462
360 14
17 473
247 142
39 344
113 111
83 203
346 286
367 421
173 498
428 171
41 364
3 356
391 372
20 454
119 72
190 89
104 440
300 475
204 413
217 168
345 436
114 118
172 42
314 192
43 403
215 342
446 135
103 173
2005
4
