30
9
0 0 0 0 0 0 0 0 0
78 79 30 48 60 46 73 78 37
20 34 64 88 48 61 83 51 19
60 12 29 71 35 79 49 10 20
52 57 21 61 56 86 58 87 62
75 55 52 38 66 72 23 78 32
64 52 45 16 30 23 90 69 98
64 44 84 18 22 73 38 51 95
55 84 61 99 60 37 32 35 56
69 24 75 12 80 66 86 74 36
79 71 70 37 43 16 38 94 39
20 10 90 97 52 23 51 43 60
87 84 36 74 70 82 47 49 97
93 96 31 84 15 40 19 89 48
89 93 59 19 39 92 71 75 81
67 64 87 79 51 18 29 28 66
79 81 97 43 89 49 45 15 14
24 31 37 63 59 88 93 34 73
55 89 44 12 92 30 56 96 85
46 99 43 81 12 63 11 17 27
54 39 59 34 55 86 95 29 52
30 96 90 58 57 98 90 45 89
55 92 43 70 57 95 85 75 41
83 81 40 80 84 20 54 24 39
15 37 28 88 68 96 72 41 11
20 25 50 71 79 58 97 12 89
49 94 77 75 97 46 16 24 92
49 78 60 80 14 97 74 31 86
46 88 75 15 91 79 20 68 82
57 76 97 51 50 57 53 92 59
1.31621
1.93098
0.592715
1.73957
1.51024
2.21711
2.3375
2.12742
2.4703
1.00281
1.32136
0.981081
1.31368
0.518184
0.708744
2.0632
1.22552
0.518651
1.4178
1.02246
2.48946
2.37239
1.48897
1.99915
0.891212
1.25699
0.854352
1.69073
1.32935
2.02395
203 39
416 131
406 430
16 318
83 26
207 261
9 16
19 206
343 289
182 47
136 280
39 41
280 106
26 354
112 61
288 438
270 322
272 14
325 115
284 77
121 54
476 148
126 80
448 21
211 335
64 393
263 235
157 231
250 449
1 218
4190
2
