30
11
0 0 0 0 0 0 0 0 0 0 0
46 32 64 33 44 28 21 93 48 63 60
52 54 10 13 43 24 38 43 99 75 91
93 85 59 57 17 96 87 97 24 63 85
85 52 22 34 96 10 38 22 64 67 50
59 63 13 91 98 93 93 90 19 87 11
60 41 31 75 22 40 60 69 10 22 82
61 83 89 80 35 54 30 24 39 12 80
36 44 65 33 83 64 49 68 21 76 82
85 24 49 94 61 56 33 53 86 74 48
37 29 34 12 95 34 16 68 72 65 32
76 97 37 76 73 17 28 38 55 76 15
55 32 90 18 54 10 100 86 21 47 21
29 87 93 81 41 57 93 88 96 46 62
79 55 91 91 56 77 41 61 99 48 48
53 56 53 64 85 62 43 68 56 11 48
94 45 27 99 62 43 29 28 20 77 60
15 60 33 72 88 19 93 70 54 63 68
62 67 12 87 30 91 52 79 42 53 29
30 97 91 35 41 45 89 54 68 17 100
40 99 18 36 87 80 32 61 29 54 64
80 42 81 51 16 77 72 73 15 56 43
18 74 96 70 35 59 31 43 63 58 68
82 94 65 32 99 26 38 81 92 53 65
24 52 74 52 90 33 11 63 16 77 82
49 22 35 47 35 98 64 82 35 85 16
64 91 62 68 97 17 91 55 17 17 93
78 95 39 75 79 100 97 99 48 93 21
13 99 67 46 99 16 73 95 23 70 97
14 49 42 19 15 54 15 66 56 77 42
1.06794
0.809539
1.42366
0.507575
1.20496
0.943053
1.0099
1.20398
0.316047
1.42714
1.27004
1.39798
0.34882
1.30976
0.980174
0.536896
1.11359
0.986974
0.978684
1.43871
0.475696
0.635812
1.19702
0.494266
1.17211
1.32761
1.07871
0.39946
0.358694
0.475929
237 26
483 405
163 452
160 347
48 96
490 251
395 421
370 360
129 10
280 439
126 30
265 178
77 191
39 62
12 421
218 240
388 79
412 107
253 64
354 288
424 16
180 193
424 244
492 19
460 101
210 75
343 222
124 286
307 435
470 401
8195
1
