30
5
0 0 0 0 0
59 40 83 57 77
43 41 53 26 58
38 19 10 80 73
82 38 52 86 21
65 79 14 79 14
13 87 40 23 63
84 71 95 69 80
84 87 63 89 99
87 12 57 13 49
67 90 93 36 55
67 55 23 85 19
75 23 86 42 52
30 52 100 21 95
65 63 45 52 35
23 52 33 59 36
54 58 13 25 76
43 30 54 15 70
68 73 98 80 81
65 19 42 59 77
29 63 55 62 19
79 63 34 86 71
66 35 31 19 38
94 33 91 19 93
68 40 46 42 91
71 42 64 58 19
64 84 28 49 29
16 47 44 47 41
23 29 49 98 50
30 24 12 67 64
2.39352
1.19003
1.69761
0.56194
0.542844
0.843324
1.92872
1.83338
0.67528
2.19475
1.01942
1.38661
1.95637
0.749843
1.48094
1.7766
1.9364
1.08739
2.21091
1.03109
0.839163
0.828072
0.630362
0.904206
0.812466
0.912329
0.538312
0.995372
2.02112
2.23695
498 270
54 156
434 181
63 441
348 113
185 5
425 283
187 377
173 26
484 159
327 428
186 348
238 81
487 101
170 489
166 353
204 341
278 374
135 82
177 81
110 314
363 160
42 376
344 255
83 297
191 240
266 284
367 235
395 10
202 353
2598.33
3
