30
9
0 0 0 0 0 0 0 0 0
33 99 21 62 62 55 46 69 38
93 59 54 10 73 25 56 14 19
28 90 29 79 97 44 50 31 40
46 19 89 51 85 63 39 93 57
49 40 96 28 87 44 20 75 29
40 76 24 36 33 92 69 96 10
76 76 91 39 16 24 44 69 24
29 82 44 71 37 75 63 81 93
95 89 26 60 73 11 77 47 53
34 14 44 81 27 59 77 88 68
85 34 40 55 90 81 51 12 78
61 44 46 66 91 96 47 31 30
81 58 96 39 46 92 54 30 75
59 97 63 18 16 12 32 84 98
23 82 96 89 26 53 50 21 97
77 33 45 46 30 96 78 88 56
58 12 89 50 33 74 66 83 32
90 68 72 14 80 82 54 14 22
67 74 18 31 96 38 69 79 20
94 86 35 43 61 91 64 61 86
88 67 12 62 64 90 60 93 44
13 89 62 24 94 76 54 25 13
47 71 31 67 74 24 39 78 63
94 96 12 27 81 83 78 40 43
43 96 28 85 20 98 18 61 91
58 39 62 82 77 75 82 69 52
46 93 61 32 68 93 43 96 52
28 10 100 96 72 24 59 45 52
99 85 24 66 68 44 83 48 78
0.205435
0.231158
0.220842
0.266395
0.438432
0.31904
0.471246
0.406696
0.197108
0.39826
0.456395
0.391704
0.414383
0.214952
0.38266
0.372359
0.1203
0.255941
0.475742
0.399099
0.241233
0.15292
0.273793
0.14938
0.112728
0.211688
0.122814
0.38341
0.338555
0.312404
276 202
273 124
436 475
469 46
463 388
75 333
185 385
237 56
150 215
149 444
182 292
482 338
305 96
260 357
343 178
332 471
218 300
474 118
203 368
205 82
323 322
175 19
316 201
12 397
152 482
433 35
340 21
152 133
483 14
334 346
8375
1
