30
5
0 0 0 0 0
55 53 33 21 63
74 16 30 51 41
48 12 47 81 60
76 91 36 24 86
89 59 66 24 88
86 39 35 88 55
36 96 12 66 47
73 92 30 79 87
29 42 88 39 38
64 20 84 31 96
67 80 10 28 52
15 51 56 23 34
83 94 76 54 72
26 42 98 24 28
15 55 70 24 94
58 13 99 71 100
79 28 22 68 68
10 87 43 70 36
41 98 72 48 66
52 76 67 80 38
39 39 39 94 21
60 77 89 95 12
65 27 94 62 86
91 21 58 29 57
15 40 35 92 86
64 30 33 60 61
100 34 28 59 97
62 90 13 75 43
70 99 21 19 83
0.211102
0.23486
0.234139
0.288053
0.256321
0.170032
0.310693
0.157473
0.422082
0.485417
0.214386
0.296682
0.349399
0.323257
0.266899
0.109222
0.294839
0.433662
0.327529
0.366652
0.413918
0.117076
0.218272
0.164101
0.247838
0.362958
0.135188
0.496849
0.222859
0.368828
168 196
345 358
328 169
409 10
426 419
421 290
415 107
147 152
417 84
464 25
455 207
159 495
457 350
320 178
195 105
184 266
479 81
76 210
292 170
219 460
189 120
413 411
341 173
493 247
366 352
471 174
468 181
347 106
119 95
50 17
2025
4
