30
3
0 0 0
58 66 11
94 60 59
100 36 96
16 63 32
38 79 24
71 100 34
85 33 60
56 91 48
13 59 76
85 41 64
24 12 90
30 19 57
37 43 35
92 56 54
41 45 19
60 79 62
25 33 24
56 97 85
52 12 26
13 14 10
33 76 20
94 17 26
79 70 48
10 37 97
58 82 98
93 51 22
74 31 11
60 12 84
54 42 100
1.20798
0.877575
0.955438
1.1496
1.74566
0.926269
2.40912
0.80363
1.63258
0.722878
1.89457
1.20688
1.65689
1.05209
1.22467
0.911819
1.09905
0.954426
0.753301
0.87685
1.90694
2.23811
1.45545
0.953453
2.11778
1.42666
1.83959
1.12679
1.00119
0.998433
163 486
237 138
364 57
99 494
443 414
211 296
303 108
161 252
227 247
343 496
403 83
60 7
225 494
294 186
307 92
388 83
489 275
35 464
246 414
264 77
63 2
428 21
210 340
325 453
233 248
299 391
136 90
451 140
5 373
79 0
1886.25
4
