30
11
0 0 0 0 0 0 0 0 0 0 0
50 100 75 87 56 80 16 49 60 72 64
25 31 74 83 68 61 61 27 47 45 98
87 71 25 92 66 40 87 21 82 92 33
67 13 95 85 11 83 51 79 54 49 98
71 41 73 20 36 31 89 16 91 35 53
12 48 20 40 35 56 59 64 68 45 62
71 92 82 87 65 34 89 87 75 33 59
62 75 18 15 63 25 38 50 47 32 74
28 37 45 86 94 30 72 55 54 91 61
17 12 58 87 11 36 29 16 75 27 83
77 41 67 70 99 31 93 16 51 69 22
78 73 22 88 10 95 25 45 57 10 52
41 24 42 19 28 74 27 25 54 22 95
18 19 13 98 38 96 92 80 71 87 43
100 37 47 43 81 68 60 96 15 28 68
58 17 37 21 91 31 60 45 64 77 15
60 50 90 87 42 54 99 94 94 28 73
73 17 35 30 68 53 30 84 33 85 64
90 27 54 49 22 13 43 94 24 75 61
81 87 48 84 15 92 100 77 66 36 77
17 59 41 28 65 12 95 46 78 35 28
95 16 41 97 20 95 37 50 34 16 64
59 19 83 25 93 60 100 26 53 66 24
84 66 77 81 24 75 92 48 46 57 93
21 90 40 30 28 43 77 41 50 13 82
71 37 45 84 85 89 59 11 39 46 12
69 95 63 37 63 26 10 20 22 58 63
59 64 42 41 18 100 35 66 36 87 72
42 24 70 88 26 44 45 51 39 60 83
0.614828
1.128
1.0264
1.27313
0.7778
1.42215
1.35677
0.522856
1.4627
0.652185
0.745401
0.446921
0.722169
0.312019
1.4472
1.03897
0.740886
0.321565
0.441408
0.579103
0.799561
0.781976
1.27483
1.48713
0.737048
0.369441
0.41115
0.400611
1.47096
0.709379
181 412
81 326
438 206
66 396
354 300
144 460
456 132
293 181
367 467
203 121
3 1
359 362
265 197
252 285
489 197
81 433
155 23
436 234
208 4
109 263
332 3
280 308
293 493
389 347
67 365
408 458
265 261
273 44
347 312
61 201
1590
5
