30
7
0 0 0 0 0 0 0
63 16 87 77 26 52 72
55 48 62 78 27 11 46
94 32 92 57 54 58 13
49 57 41 27 54 49 90
80 87 80 86 29 56 36
59 44 72 85 35 94 88
40 52 71 92 84 53 13
93 39 10 11 65 42 49
52 35 29 60 47 20 93
50 13 86 37 61 71 55
87 10 47 37 15 23 50
56 73 43 28 57 22 100
33 36 100 97 38 19 16
27 92 38 13 58 97 63
51 48 43 73 93 26 86
60 54 54 92 26 42 40
52 10 12 60 29 49 78
65 78 29 46 83 81 32
44 80 98 97 36 83 68
74 97 15 24 32 73 88
80 38 89 13 37 43 92
28 57 46 68 31 37 95
32 64 89 61 85 87 80
42 32 33 79 44 20 17
15 64 47 88 45 46 39
22 48 27 36 94 90 38
95 40 64 49 47 95 95
61 80 92 26 30 83 20
73 61 20 74 26 51 55
1.02324
0.906685
0.477805
0.743146
0.407184
0.630204
0.910613
0.445972
1.46752
1.17494
0.85828
0.621505
0.354868
1.23333
0.527177
0.927963
0.550676
0.976103
0.979239
0.801963
1.23261
0.623187
1.28588
0.438739
0.768277
0.330609
0.839498
0.573911
1.40499
1.45767
77 182
183 490
24 395
239 53
496 38
478 223
192 114
85 234
477 55
30 316
129 340
399 415
434 1
80 89
126 5
468 447
91 240
238 285
57 200
124 171
328 386
468 417
487 16
360 332
366 138
276 198
246 408
138 74
448 22
237 357
1581
5
