30
9
0 0 0 0 0 0 0 0 0
44 87 31 47 12 85 67 96 84
11 85 34 80 72 52 97 75 57
49 99 42 97 66 19 70 66 16
67 14 34 65 22 94 83 43 11
74 73 11 14 50 33 63 10 75
30 47 87 12 58 74 28 16 41
65 36 53 97 17 65 49 95 59
69 69 56 45 95 67 45 58 21
10 31 59 75 52 13 32 41 88
86 76 58 27 60 62 74 43 21
64 30 33 59 90 66 97 26 36
31 22 58 83 71 83 37 31 64
41 60 96 36 34 14 49 28 27
58 49 100 28 70 99 83 97 80
33 14 95 46 85 40 49 37 40
89 43 51 79 33 70 89 46 70
46 84 35 26 32 85 24 24 39
93 54 18 61 13 58 24 63 60
55 48 50 32 43 60 94 23 10
41 29 87 19 36 44 35 35 85
71 63 88 42 86 83 13 14 45
38 43 32 77 12 70 18 92 27
60 55 43 36 55 33 35 18 63
98 49 77 38 78 97 45 31 19
56 24 90 78 18 69 19 41 73
95 71 95 86 25 51 99 20 96
64 38 56 12 56 24 24 64 20
44 14 69 16 87 33 65 27 25
31 67 49 20 45 21 36 81 84
0.875628
1.90778
0.530093
0.627104
0.873983
0.996723
2.47422
0.803555
1.12969
0.935693
0.852588
1.95403
2.06598
1.32187
1.2198
0.595941
1.63794
0.527865
0.869661
1.74741
1.86073
1.34463
1.37824
1.88182
1.78213
2.20325
1.36091
1.82253
2.33172
0.949059
47 296
27 185
12 469
20 119
365 407
238 89
9 493
163 188
496 129
173 215
162 321
207 467
329 174
7 340
105 320
374 412
489 115
389 355
401 241
302 76
307 452
201 298
298 22
288 235
109 256
105 377
325 406
78 418
256 406
266 127
1897.5
4
