30
5
0 0 0 0 0
38 13 13 13 22
93 96 96 10 37
67 74 29 10 93
89 29 24 12 58
58 69 41 96 10
11 55 39 45 83
56 54 83 12 46
12 11 58 82 82
39 21 34 97 75
34 19 33 76 12
70 37 42 31 16
83 15 86 10 58
19 39 64 63 70
77 49 23 49 22
10 94 95 63 74
32 69 78 61 96
58 64 58 41 40
31 83 33 61 58
50 60 97 16 99
43 29 38 78 61
56 27 58 39 71
19 45 83 69 64
18 80 88 84 61
85 86 41 32 14
31 56 57 79 61
78 84 18 47 73
66 11 74 90 15
72 44 41 98 30
72 79 62 20 62
2.20982
1.51093
2.3885
0.774177
2.18006
2.39691
2.12096
0.76872
1.67576
0.919839
1.27347
2.42252
0.81988
2.30339
1.05829
1.0949
1.70852
0.885731
1.03013
2.28717
1.18422
1.33357
0.754151
0.592684
1.3243
2.33481
2.12689
0.775821
0.774822
2.40169
361 364
479 307
210 442
225 434
382 493
396 323
157 217
447 52
2 404
231 289
109 99
365 494
11 226
267 350
351 157
390 295
82 218
461 326
341 79
490 116
99 130
102 444
290 101
139 59
11 246
451 76
5 100
158 151
275 412
298 127
1518
5
