30
11
0 0 0 0 0 0 0 0 0 0 0
42 68 23 22 68 65 97 90 41 57 20
62 89 81 74 21 88 57 20 88 62 85
22 57 46 67 70 69 47 87 38 41 37
54 66 81 71 20 93 72 90 61 86 55
75 87 55 24 30 36 69 79 38 92 89
73 96 18 28 39 10 93 77 21 49 95
69 71 24 23 25 68 89 67 26 25 41
91 98 24 36 87 95 10 94 84 74 94
51 91 75 98 92 41 23 25 100 14 63
75 37 75 82 20 67 38 55 46 30 60
51 20 81 26 66 60 38 42 81 36 97
81 63 77 86 11 75 58 55 73 23 88
64 16 32 93 76 33 64 54 28 35 41
68 30 71 51 97 20 40 16 36 53 38
94 17 70 28 28 28 33 82 85 58 94
61 45 82 24 77 14 27 24 58 53 72
14 16 33 24 69 33 89 66 27 35 99
28 61 61 46 59 92 42 49 98 48 84
65 57 100 76 95 10 36 37 16 68 70
87 50 95 24 53 34 94 32 83 90 78
86 78 65 49 30 21 90 17 79 98 16
54 36 56 43 86 37 84 54 42 71 39
20 25 33 15 57 50 31 20 10 41 92
45 21 51 62 53 61 24 58 32 47 70
35 27 15 51 71 28 11 53 78 53 56
27 34 29 31 72 68 23 15 45 56 97
99 41 81 93 32 96 94 90 22 23 20
66 49 77 96 78 80 48 82 31 72 11
38 37 32 47 47 31 70 54 18 52 53
0.423568
0.315351
0.294981
0.449091
0.173322
0.291204
0.402766
0.134556
0.118843
0.173667
0.165022
0.315495
0.415692
0.361614
0.24604
0.133609
0.178864
0.428034
0.163112
0.237086
0.474557
0.424911
0.19607
0.150506
0.141728
0.101468
0.416661
0.459555
0.364408
0.191687
269 183
397 109
365 270
68 409
252 431
213 107
378 358
108 139
72 471
494 114
313 64
1 445
380 382
470 455
198 81
74 393
123 305
420 110
467 85
421 480
110 251
154 75
144 267
478 89
1 310
233 90
230 460
10 73
68 184
313 412
1591
5
