30
9
0 0 0 0 0 0 0 0 0
97 62 75 73 62 56 52 47 61
81 55 39 29 51 38 44 65 55
91 29 14 27 100 26 99 26 96
90 13 72 90 26 72 16 88 38
77 100 65 21 55 60 49 68 97
57 23 88 86 22 70 59 83 88
39 68 19 33 60 90 83 70 73
48 24 81 32 87 61 47 58 43
60 45 91 44 60 56 15 70 56
38 25 51 98 44 17 27 77 69
17 84 33 20 33 79 35 64 21
48 50 61 93 59 26 19 81 15
72 56 81 78 13 33 21 79 81
89 48 52 30 90 51 29 37 70
71 82 23 59 43 79 62 99 32
48 24 52 68 87 95 35 87 79
58 12 44 20 19 61 47 78 78
14 37 18 61 97 84 39 19 16
43 41 20 81 84 60 13 47 30
67 46 77 55 19 58 83 94 60
22 73 71 90 65 72 72 27 26
53 61 31 88 82 18 66 70 37
42 90 95 25 64 48 34 78 91
29 74 26 20 37 53 41 98 96
51 76 30 67 86 22 36 42 71
43 72 61 56 75 49 62 12 49
53 39 33 74 64 19 13 92 17
38 50 25 13 18 21 87 21 80
65 62 47 38 10 33 67 91 94
0.793276
1.81841
0.531073
0.82041
1.63246
0.730171
0.808232
1.81419
1.41328
0.541817
1.75087
1.88402
0.863509
0.756488
0.604305
1.25152
1.45488
0.447144
1.84048
0.851545
1.80671
0.700578
0.533658
1.43509
0.512246
1.51178
1.84738
0.748353
1.68122
0.687674
357 416
484 79
388 234
148 319
172 76
480 123
182 212
127 268
288 470
148 489
350 158
409 211
393 377
377 210
415 383
473 54
304 36
338 421
464 57
483 81
112 79
267 334
233 384
233 379
264 440
373 326
226 234
457 315
293 194
183 83
1975
4
