30
5
0 0 0 0 0
52 25 18 79 51
52 19 87 45 67
74 95 56 74 70
72 75 32 88 36
15 82 85 22 36
71 57 98 34 62
10 43 24 78 53
66 85 17 80 72
22 67 63 93 97
73 63 63 55 55
29 93 21 43 42
67 24 12 77 45
63 96 87 63 44
78 21 86 63 23
67 45 33 42 53
71 94 32 13 95
98 64 74 49 72
63 85 18 99 86
51 15 38 35 17
34 28 79 81 33
31 78 27 88 83
10 80 78 53 50
39 18 35 96 25
44 26 69 70 38
86 83 33 73 68
92 38 75 74 76
41 82 80 40 79
39 71 89 33 34
28 70 81 20 67
1.4957
1.40346
0.850521
1.78213
1.64222
1.26108
0.837869
1.24474
1.65839
1.54001
1.52764
1.6176
1.99177
2.09561
0.689292
1.93058
1.37105
1.03233
2.06362
1.11501
1.24519
0.534403
1.5132
1.80804
1.10606
2.18634
1.22923
1.60093
1.7109
1.02092
382 10
371 169
499 91
314 233
455 186
280 355
449 279
165 74
374 397
420 199
261 468
384 321
167 117
289 378
494 447
359 23
303 63
7 295
196 303
121 467
73 406
66 267
295 376
356 49
383 291
47 48
54 258
371 192
339 375
370 118
2745
3
