30
7
0 0 0 0 0 0 0
42 28 41 27 47 68 33
34 84 30 53 84 59 84
69 84 96 43 84 50 66
30 52 86 19 10 30 30
45 20 24 96 35 13 97
55 25 49 49 88 59 90
15 51 90 12 83 60 89
67 49 79 56 86 40 56
51 90 71 95 28 86 30
87 30 95 85 52 38 88
48 60 14 80 91 52 92
72 83 22 97 89 76 50
42 92 45 28 15 66 39
27 90 19 51 90 39 15
43 72 40 50 26 73 48
30 71 78 35 11 70 10
42 78 42 81 64 70 97
20 73 86 88 54 40 36
91 55 32 90 15 51 95
29 75 62 83 67 12 28
70 13 95 98 97 73 16
70 26 42 21 53 73 30
10 44 78 42 66 83 13
71 52 72 79 61 18 20
87 81 52 73 74 46 15
11 52 41 89 53 85 39
98 39 61 66 54 16 100
87 25 37 19 60 56 32
41 58 12 67 89 59 71
0.205425
0.209921
0.369968
0.41011
0.472928
0.149937
0.45105
0.490917
0.38816
0.351168
0.356058
0.323767
0.367425
0.350165
0.364436
0.3041
0.280153
0.308745
0.193162
0.212148
0.213186
0.203117
0.106565
0.331494
0.209462
0.24641
0.134772
0.490574
0.145315
0.464343
439 75
456 438
495 4
51 318
383 439
132 102
108 34
325 400
483 171
196 418
428 292
86 359
486 224
277 350
170 381
366 263
222 309
495 362
80 414
271 499
242 180
321 102
151 270
420 59
261 238
39 58
304 269
480 132
326 44
93 144
2688.33
3
