30
7
0 0 0 0 0 0 0
95 58 59 18 55 15 59
38 68 58 92 95 72 53
56 27 83 48 45 12 96
58 95 12 54 40 26 40
74 76 89 96 18 93 15
87 57 27 33 100 25 17
97 44 52 34 45 96 31
12 36 31 59 35 41 73
48 62 59 33 17 63 39
55 27 65 72 65 96 69
91 49 26 56 33 14 52
14 52 28 30 89 17 38
97 62 94 41 51 94 59
30 34 51 72 21 80 59
19 27 27 35 55 47 31
45 48 39 43 16 67 38
74 57 41 95 27 83 23
19 48 29 61 37 72 54
94 14 10 95 96 94 16
81 14 99 19 80 96 72
86 70 96 55 15 20 35
10 87 77 18 91 36 99
50 99 36 47 67 100 28
75 17 56 99 84 59 39
11 70 43 77 42 87 86
47 26 64 67 76 13 25
10 51 34 39 40 97 87
33 99 90 13 21 60 83
72 20 80 89 94 78 42
0.230928
0.229263
0.497074
0.886304
0.878283
0.747149
0.429359
0.757629
0.673928
0.865933
0.507454
0.537529
0.745471
0.487899
0.937938
0.601943
0.302381
0.370195
0.692721
0.839839
0.483921
0.934749
0.583712
0.429919
0.768421
0.572078
0.703844
0.543983
0.644403
0.798514
134 4
336 67
51 37
324 382
283 214
228 186
60 453
252 72
282 269
377 52
365 81
130 76
441 7
149 111
86 367
7 261
216 87
281 429
232 256
202 189
275 112
408 252
49 179
19 341
32 207
332 213
137 94
395 178
384 172
375 172
1568
5
