30
9
0 0 0 0 0 0 0 0 0
16 95 73 83 51 51 46 73 39
95 49 93 35 68 24 87 30 31
23 56 85 87 52 72 91 57 78
69 95 99 47 26 16 94 85 32
91 83 99 87 39 46 14 59 36
17 53 32 36 33 46 76 41 68
11 95 10 37 11 35 45 18 45
15 38 66 51 52 33 10 53 91
63 29 19 86 95 65 57 96 13
35 16 29 98 59 97 90 85 92
38 39 45 43 89 21 51 71 53
31 93 39 99 77 31 80 83 48
27 57 77 13 51 66 95 75 27
74 68 10 39 61 32 50 22 46
71 25 44 62 21 76 67 61 30
33 35 47 99 17 35 70 69 56
81 43 71 68 38 85 41 73 40
23 99 72 19 31 71 22 38 68
65 17 56 33 97 65 55 92 40
12 87 66 56 62 85 77 76 94
45 66 98 57 11 52 24 42 25
36 85 20 30 52 79 43 47 48
31 12 91 86 42 29 79 93 38
28 70 86 97 61 36 81 10 32
98 40 13 52 95 59 93 10 97
21 24 94 95 32 53 74 100 85
61 96 60 22 29 76 98 61 67
42 25 89 65 73 22 11 36 99
25 93 96 71 16 76 80 86 86
2.42782
1.57008
0.833389
1.41112
1.80656
1.9958
1.59374
1.66069
2.32438
2.26366
1.31799
1.91664
1.08438
1.68948
2.07316
1.70751
1.88579
2.29904
1.10283
1.40751
1.95189
0.748463
0.709331
1.83939
1.66672
1.64754
2.05688
0.642092
0.793611
0.973954
78 257
380 172
72 178
1 477
208 176
492 420
181 282
472 491
58 96
431 282
178 136
464 353
315 351
314 252
75 439
323 424
500 148
479 278
468 308
435 375
379 43
207 464
291 44
293 64
78 17
466 53
281 345
369 221
229 116
36 4
8115
1
