30
11
0 0 0 0 0 0 0 0 0 0 0
92 20 58 94 63 12 40 14 48 31 25
75 28 42 29 55 43 47 100 61 43 95
81 15 44 71 89 46 91 93 98 19 53
100 67 44 10 19 38 22 47 43 11 97
88 36 64 55 62 22 91 41 50 12 82
42 41 42 29 24 48 64 68 61 42 52
73 73 49 55 94 85 54 92 51 24 47
16 75 63 73 10 14 96 82 59 35 34
48 21 14 10 19 65 99 42 42 13 87
65 32 86 38 52 46 98 66 77 39 63
60 55 37 99 12 38 62 80 74 33 99
39 77 89 11 25 21 94 19 68 24 17
32 26 37 21 87 39 23 74 43 77 83
57 11 36 98 67 49 90 70 89 35 79
36 54 46 83 75 21 76 26 62 53 38
77 94 51 17 37 69 53 87 17 98 32
46 44 15 26 82 70 37 56 49 16 76
37 83 68 62 14 62 16 11 84 48 83
99 93 68 39 82 79 82 72 68 34 27
10 49 46 40 55 39 89 99 59 27 47
86 84 44 20 70 81 25 69 35 56 45
25 94 63 52 57 53 93 34 68 96 59
75 21 16 48 18 74 40 19 94 66 95
19 65 65 25 91 35 49 26 99 33 79
83 88 77 65 75 87 87 69 46 41 72
37 71 21 42 34 36 57 60 56 57 62
92 45 93 31 75 97 72 30 50 59 27
33 56 69 70 11 37 57 86 61 99 52
91 47 80 44 97 77 98 78 68 33 60
2.45303
1.35613
0.691192
2.13527
1.34774
1.7608
1.48434
1.60777
0.580224
2.10225
1.22565
0.525109
1.63382
1.4443
1.69311
1.48408
1.46939
0.934738
1.87216
1.73736
2.39448
1.72758
1.81296
2.00068
2.33686
1.27828
1.99819
1.60109
1.52812
2.27466
335 405
273 227
189 286
189 226
324 85
64 364
43 212
284 417
351 221
60 114
463 373
314 498
342 238
352 317
148 274
490 1
403 229
367 307
74 200
166 197
186 500
477 425
303 387
137 338
298 263
219 287
294 431
112 142
433 128
487 408
1600
5
