30
11
0 0 0 0 0 0 0 0 0 0 0
32 67 36 98 66 81 60 28 23 65 70
67 71 96 72 96 23 38 28 86 88 27
53 72 88 48 63 85 17 20 44 97 26
55 50 42 62 76 51 39 15 91 17 64
31 37 99 17 72 75 93 10 28 46 36
68 90 63 94 22 40 76 80 35 51 58
34 34 81 57 52 99 52 16 94 43 69
37 13 66 34 39 74 29 97 49 89 35
11 39 22 90 68 78 65 96 37 11 61
77 15 31 90 22 79 29 36 27 26 85
22 83 56 35 21 98 21 53 70 17 32
59 23 51 43 57 42 43 37 29 59 22
14 97 39 27 90 18 29 10 42 54 14
46 68 87 89 75 52 25 72 26 29 11
94 17 42 60 95 78 45 66 75 30 89
20 91 46 23 15 99 63 59 60 12 77
83 46 89 46 48 28 61 73 86 21 43
80 64 36 70 81 50 74 50 15 34 45
65 19 77 53 16 69 39 87 79 55 62
20 45 98 17 98 63 47 29 74 79 38
98 12 50 13 55 40 88 67 41 70 54
15 50 46 13 70 41 67 17 44 45 33
13 13 13 50 42 85 32 60 78 26 61
33 57 49 33 26 28 46 30 21 77 88
25 38 73 58 14 14 81 13 26 94 72
29 51 46 31 76 38 37 15 57 97 67
32 87 53 88 37 44 58 82 47 80 19
40 12 32 20 30 61 54 20 73 58 58
61 65 64 38 88 79 39 81 65 44 45
1.38914
0.467166
1.23133
0.339254
1.46851
1.18659
0.329214
1.04632
0.849701
1.04732
1.21006
1.23027
0.847015
0.388337
1.00164
1.46977
1.11812
1.28745
0.391936
1.04367
0.727563
0.589087
1.36532
0.857241
1.03759
1.37162
0.387575
0.307693
0.894726
0.550147
224 339
256 255
172 495
119 400
457 489
341 309
292 347
291 429
436 322
1 284
67 304
409 361
377 41
277 436
312 135
44 293
51 234
177 365
327 181
429 201
68 31
393 173
430 374
295 240
184 167
0 263
432 420
108 281
411 308
229 165
1499
5
