30
9
0 0 0 0 0 0 0 0 0
45 59 56 16 12 13 31 74 26
70 75 97 50 18 99 46 30 61
88 53 51 46 66 60 14 35 87
37 62 38 43 41 17 78 99 30
37 37 73 16 45 31 41 63 52
29 42 12 56 13 70 56 71 59
67 50 96 80 59 90 69 65 18
29 39 100 81 48 36 98 73 35
52 36 25 32 10 72 95 13 54
36 75 90 65 36 59 38 88 67
80 98 33 87 38 25 55 63 46
31 35 68 64 62 88 41 98 36
66 49 68 91 21 31 70 10 70
34 43 75 55 75 36 58 55 12
40 72 43 82 66 91 36 70 25
49 28 35 17 56 27 13 48 90
90 52 78 16 32 83 12 85 29
45 57 74 33 22 73 50 23 18
14 24 77 15 100 43 85 78 92
72 83 14 91 10 29 24 21 56
97 90 76 54 54 45 94 80 28
74 33 46 96 85 89 20 47 11
11 60 14 63 60 37 76 40 11
40 25 49 15 88 25 50 24 48
57 16 100 80 82 88 79 59 18
64 90 55 70 95 36 73 90 43
36 48 96 96 10 23 59 20 40
39 29 61 18 65 41 82 38 43
72 49 22 11 43 79 53 32 15
1.39171
1.03197
0.627951
1.15966
0.658925
1.26031
0.655137
1.61952
0.720547
0.650208
1.84334
1.39037
0.983689
1.81427
1.34344
1.70626
0.709932
1.85253
1.09755
0.421845
1.50541
1.92028
0.515937
1.06913
0.913594
0.583627
0.649628
1.96641
0.476006
1.52048
55 431
184 345
389 8
114 74
7 257
133 181
430 251
44 278
207 497
93 38
23 217
164 363
390 210
343 450
470 322
461 22
481 33
473 202
278 73
451 29
184 97
482 460
201 150
223 189
297 96
237 330
490 375
427 342
204 317
370 465
7570
1
