30
3
0 0 0
81 34 81
45 74 16
16 88 68
18 14 75
83 14 82
96 46 80
23 61 43
58 90 60
36 20 66
65 39 96
67 56 14
60 74 52
99 80 44
50 71 14
83 15 67
90 47 40
54 13 79
91 28 76
70 40 66
14 33 38
100 42 14
63 14 71
38 54 61
64 51 73
50 96 93
87 87 15
70 68 67
31 88 87
19 75 32
1.93703
1.57117
1.53468
1.60627
1.76519
0.961075
1.64882
0.794003
1.36703
0.730084
1.77689
0.533095
1.33956
0.421119
1.30095
0.896386
1.78424
1.81869
1.2925
1.04832
1.14715
1.42107
1.78815
1.90613
1.53962
1.3391
0.897146
1.50768
0.793759
1.65373
147 21
458 484
170 32
265 322
320 72
496 499
17 183
471 122
458 497
360 375
355 397
190 476
205 32
73 228
124 333
425 373
250 465
427 434
320 291
338 10
337 411
468 210
204 230
146 142
386 446
7 196
484 88
395 12
427 220
428 500
8170
1
