30
5
0 0 0 0 0
42 65 73 17 29
81 11 99 76 71
70 59 20 51 28
16 42 40 61 74
18 63 15 57 73
99 22 14 24 12
98 87 38 96 21
12 79 82 48 97
91 95 58 39 34
16 28 12 59 98
16 72 64 19 69
28 87 26 48 67
42 42 30 79 55
83 90 27 70 51
19 22 45 32 25
15 18 10 17 56
56 60 82 14 12
60 38 16 93 23
14 29 48 33 22
51 56 41 72 88
91 48 18 67 27
44 100 88 74 70
43 50 41 63 48
68 55 74 22 94
79 83 44 45 14
69 18 22 63 12
66 40 76 20 36
42 38 82 86 71
49 31 72 29 42
2.02786
0.90197
1.01941
2.12822
1.18679
1.57531
0.755882
1.9137
1.0076
1.38111
1.71701
1.09917
1.2151
1.21719
2.0139
1.6368
1.15595
0.573888
1.55055
2.16814
1.06251
1.08546
1.21515
0.641165
0.628812
2.48862
1.47545
0.952976
2.02634
1.69153
87 492
211 235
224 436
350 336
157 270
68 31
194 8
152 255
353 158
399 313
173 12
485 223
196 99
128 46
447 276
361 111
212 63
329 284
476 25
486 345
265 198
315 192
159 487
401 130
34 92
407 422
245 126
137 358
277 92
435 231
3627.5
2
