30
5
0 0 0 0 0
40 98 23 90 68
81 33 32 41 57
75 31 80 35 33
48 88 25 39 35
34 53 99 79 41
78 39 31 58 51
55 49 99 25 100
87 23 80 76 75
29 33 81 40 54
79 91 35 18 24
85 71 38 72 41
99 41 97 34 55
60 46 92 26 89
89 49 65 30 29
32 16 67 84 38
60 58 86 26 93
32 47 71 81 53
93 63 68 100 62
10 68 23 45 55
36 96 32 63 41
64 47 41 80 92
96 13 51 20 57
46 54 95 60 29
50 62 96 16 33
99 78 25 81 78
100 84 41 23 93
23 23 95 78 17
58 27 26 13 51
95 33 76 17 41
0.47063
0.322167
1.06874
0.424142
1.12114
0.391436
0.31333
0.368317
0.641466
0.547061
1.43323
1.30871
0.647441
0.929407
0.892791
1.45826
0.99531
1.39106
0.766847
0.938414
0.733712
0.938726
1.36057
0.515141
1.47833
1.18018
0.588141
0.578685
1.35467
0.405911
473 338
112 450
27 149
409 244
217 246
304 75
126 233
475 32
154 131
77 350
153 33
312 86
298 442
194 439
355 346
33 426
54 139
173 86
205 372
324 20
84 451
140 324
313 235
328 243
413 123
402 395
287 265
152 197
251 294
28 79
1630
5
