30
11
0 0 0 0 0 0 0 0 0 0 0
21 13 77 85 48 88 29 68 32 38 40
72 39 93 26 32 61 48 58 31 92 74
35 30 78 66 99 50 78 28 49 17 84
88 58 60 93 56 78 84 85 48 94 52
95 83 37 11 39 10 100 45 24 61 78
68 92 81 83 65 28 47 100 20 91 47
72 56 25 11 62 56 58 31 31 45 69
25 62 19 76 43 23 59 94 56 65 60
46 44 64 54 47 37 36 32 52 72 80
55 72 24 95 28 66 53 29 20 74 87
81 55 28 15 36 93 75 12 24 50 43
24 13 94 14 85 90 46 85 48 96 89
98 15 76 66 98 60 64 29 62 24 76
75 63 41 94 68 42 17 11 96 100 46
44 13 31 74 89 35 30 43 44 26 76
66 91 54 87 76 30 18 55 43 97 13
88 32 18 41 43 61 10 60 26 96 34
63 83 85 96 20 28 64 89 58 43 100
17 77 24 96 23 57 89 92 70 69 18
27 95 56 98 39 18 42 72 24 91 92
34 30 59 85 30 42 51 19 88 60 30
40 59 18 45 44 29 99 59 57 72 95
24 94 12 11 20 59 44 90 81 93 19
54 30 20 19 62 74 85 91 23 65 57
35 63 17 45 84 94 26 71 87 92 21
66 81 23 45 39 80 87 73 73 32 91
82 99 29 72 74 88 21 33 42 94 88
42 72 68 55 43 91 90 73 73 98 62
54 51 24 54 98 26 82 13 37 84 19
0.121491
0.215356
0.325062
0.172822
0.260211
0.398624
0.339672
0.299267
0.164661
0.134654
0.380091
0.462969
0.236407
0.371189
0.111554
0.145581
0.403952
0.309753
0.106517
0.172507
0.451785
0.415731
0.169794
0.464195
0.109354
0.366601
0.387985
0.360563
0.433097
0.46901
349 391
79 297
470 85
213 429
366 107
443 168
331 316
126 103
257 67
289 215
7 328
46 300
102 55
485 164
343 457
328 197
135 379
188 20
24 115
350 285
198 166
492 277
200 426
150 38
114 138
277 40
359 435
342 55
274 499
254 164
1631
5
