30
9
0 0 0 0 0 0 0 0 0
46 33 54 60 72 21 37 94 24
79 68 73 24 73 86 25 11 80
26 34 93 55 15 20 51 75 71
30 56 10 78 98 18 46 44 81
76 96 34 80 53 23 42 82 45
48 31 86 97 13 84 19 50 27
33 61 92 57 31 97 90 91 36
62 97 66 22 51 20 44 76 52
14 55 74 80 56 40 91 51 87
82 100 26 99 76 82 30 11 62
43 34 56 74 37 36 13 33 98
34 33 19 57 55 89 24 24 18
29 64 44 60 77 18 28 79 50
19 25 98 57 53 51 20 90 46
67 26 100 51 43 23 96 100 60
16 98 63 47 38 38 54 30 13
97 33 94 68 86 28 15 80 59
56 66 21 29 89 27 99 77 44
47 30 68 24 25 10 48 74 27
48 89 68 83 86 23 16 74 97
82 75 47 12 61 52 99 37 68
29 78 46 46 15 80 30 96 37
65 19 97 56 100 35 66 82 61
45 74 50 15 85 55 93 87 24
91 95 89 37 33 86 80 58 92
100 31 14 97 21 84 30 94 73
25 84 68 36 31 96 100 60 56
56 31 10 79 55 52 51 47 40
74 48 25 60 40 26 22 79 78
1.37649
0.634018
0.953174
0.341722
0.980837
1.17945
1.02179
0.51805
0.607465
1.40921
1.38201
0.580255
0.756606
1.14642
0.56445
1.31187
0.709043
0.964174
0.78429
1.2358
0.476128
1.32733
0.686976
1.25903
0.580693
0.719918
1.03683
0.616293
0.703586
1.24525
241 439
362 148
433 72
140 453
453 457
196 268
55 87
190 42
390 330
88 93
450 467
468 61
73 177
438 68
190 114
285 283
265 144
317 369
99 488
161 302
465 26
499 122
438 165
162 65
357 235
212 489
441 151
148 465
205 257
21 267
2671.67
3
