30
7
0 0 0 0 0 0 0
63 79 93 14 39 41 56
61 69 17 51 66 16 69
20 34 30 48 15 31 99
30 67 80 35 39 44 85
41 14 60 26 27 81 83
87 37 54 92 16 37 43
82 48 25 63 85 96 50
52 33 32 99 56 88 63
88 28 47 49 70 98 90
84 21 35 97 78 58 88
99 52 36 28 56 29 41
85 14 11 57 27 77 24
63 10 83 75 13 62 46
17 48 43 12 46 28 100
66 25 74 98 51 100 48
49 42 99 57 100 33 85
60 64 12 57 69 50 87
66 75 61 13 54 71 19
45 67 57 46 22 95 38
49 66 25 13 78 39 29
50 84 70 52 45 92 13
11 11 91 86 39 24 32
22 78 72 60 73 15 35
47 64 47 13 85 89 14
26 40 21 33 18 74 61
30 91 14 71 66 16 47
92 93 91 51 11 16 55
11 83 39 80 70 53 12
35 76 93 81 40 61 23
0.214415
0.167654
0.482015
0.469153
0.315978
0.246732
0.130643
0.425229
0.310271
0.131412
0.17475
0.305821
0.100791
0.275412
0.308685
0.374062
0.487538
0.38688
0.482648
0.456454
0.20237
0.304893
0.479018
0.405214
0.135252
0.101086
0.141652
0.367855
0.178355
0.217676
313 487
143 444
245 385
224 384
17 388
266 299
395 184
74 155
408 388
466 91
402 204
279 189
458 198
379 143
449 227
26 433
481 330
476 301
280 355
450 54
298 242
226 418
480 376
201 289
125 497
369 284
185 486
388 355
186 157
48 382
2550
3
