30
9
0 0 0 0 0 0 0 0 0
62 23 84 94 73 98 10 73 41
97 100 11 68 68 37 30 50 60
38 45 100 18 87 59 88 85 84
40 21 68 62 45 59 34 28 18
64 19 96 28 63 66 41 27 52
29 76 10 34 28 95 50 42 22
22 43 42 42 28 73 33 89 59
88 55 43 39 78 69 95 63 58
94 25 37 26 35 27 67 87 53
71 24 79 22 43 84 83 42 67
19 92 40 20 58 81 100 38 93
59 96 81 28 54 99 22 62 52
48 34 10 76 73 36 87 45 72
77 22 97 60 21 71 99 53 70
62 43 81 83 54 15 32 83 44
91 44 53 15 53 37 62 70 96
67 15 55 22 58 24 55 42 61
54 94 26 96 70 15 44 49 37
98 45 20 46 30 52 11 73 31
45 24 48 28 33 22 98 41 42
63 41 93 70 17 95 72 48 75
30 17 36 50 86 100 18 27 97
47 54 35 30 45 86 15 41 20
16 65 53 55 69 51 40 10 72
33 50 77 69 17 31 69 22 15
50 62 53 83 59 25 85 70 77
75 51 39 50 80 89 87 50 27
15 31 68 16 55 90 99 93 24
68 40 97 90 24 29 64 37 81
1.12859
1.22088
0.364721
1.4916
1.46852
0.631127
0.580088
0.830912
1.46531
0.611405
0.944058
0.442482
1.28941
1.39349
1.10145
1.48277
0.354979
0.890192
1.42402
1.49304
0.439247
1.1377
0.377594
0.55547
1.14254
0.742774
1.34043
0.820501
0.353005
1.16803
354 176
97 152
285 120
192 209
46 370
240 442
158 169
464 354
49 427
136 366
60 496
335 65
93 116
324 488
443 128
341 194
338 423
188 148
42 386
113 137
353 415
368 125
218 26
339 145
383 298
430 110
32 240
486 183
455 238
238 195
1953.75
4
