30
5
0 0 0 0 0
51 27 38 30 49
51 16 33 89 82
53 29 35 17 15
60 30 71 78 75
55 15 98 98 50
96 31 27 20 10
16 63 48 45 47
68 49 83 45 67
94 94 38 34 54
15 64 29 45 26
32 58 66 19 93
89 37 61 18 52
13 94 11 84 37
21 39 34 23 22
71 28 51 95 97
64 39 97 14 66
25 31 81 43 34
71 62 78 91 78
88 15 99 82 39
72 30 53 21 71
75 84 16 57 12
31 31 39 59 25
15 36 51 30 67
67 28 59 31 77
50 53 16 100 15
27 59 96 88 36
51 65 25 93 97
63 35 28 70 56
78 17 99 34 40
1.23052
1.04694
0.726949
1.27727
1.3509
0.625171
0.631787
1.39644
0.682337
0.838904
1.28878
1.13537
0.764572
1.20621
1.49266
0.641154
0.869448
0.820391
0.819064
0.590349
1.26242
0.355551
0.991383
1.48009
1.18295
0.593609
1.01664
0.713671
0.522094
1.29565
440 370
275 320
24 43
285 33
119 64
461 233
330 100
183 186
474 356
416 350
145 216
403 488
423 306
368 473
369 386
466 204
306 112
277 353
390 207
475 300
112 232
450 263
78 470
435 375
3 448
215 28
125 462
373 307
325 8
66 263
2473.33
3
