30
11
0 0 0 0 0 0 0 0 0 0 0
62 69 53 46 98 61 29 80 46 18 76
74 36 10 12 93 90 73 80 81 15 92
64 96 43 27 95 16 29 24 65 40 18
22 21 18 39 29 32 66 39 75 25 71
64 35 51 35 25 54 81 18 43 69 15
81 71 60 62 14 68 89 28 62 93 81
78 68 62 95 50 68 53 48 66 48 27
18 100 100 32 58 53 13 55 79 78 45
74 29 61 92 81 72 68 49 70 26 50
76 18 66 36 100 85 35 80 79 23 92
49 78 65 73 11 23 48 22 63 38 44
99 24 94 96 74 93 33 11 72 56 91
15 82 28 53 44 40 44 53 46 83 71
18 40 68 81 84 29 47 57 55 47 70
33 17 27 48 25 13 78 78 24 28 35
69 75 78 68 60 76 97 11 74 21 87
92 87 71 63 25 90 51 76 78 60 27
86 50 31 77 27 36 68 92 48 47 56
26 77 13 68 16 21 11 75 18 67 91
98 14 50 30 13 86 76 51 64 48 54
50 72 53 83 22 43 35 28 10 16 42
57 91 70 89 46 65 92 54 45 65 59
57 63 11 69 32 69 82 49 40 92 79
34 57 32 93 62 42 79 76 53 25 27
28 84 29 13 59 63 82 88 34 89 17
90 95 96 14 76 20 56 99 72 93 50
53 98 82 32 34 24 57 79 31 36 18
88 34 34 12 59 63 75 27 27 35 34
100 97 80 24 25 17 21 77 49 70 76
0.404511
1.50514
0.449737
0.483853
1.73376
1.1349
0.752587
0.539241
0.962081
1.19512
1.25851
1.11086
0.635276
1.48374
1.64826
0.944777
0.451127
1.86845
0.532966
1.91285
1.04039
0.912971
0.509153
1.28961
1.97509
1.36505
1.77478
0.825431
0.934743
0.561088
72 32
272 351
112 338
26 315
358 480
164 198
488 494
419 278
364 343
183 62
415 283
173 93
91 367
293 484
106 228
324 322
190 435
220 497
491 206
56 458
224 287
431 287
74 69
164 360
430 310
10 72
81 34
384 441
423 107
84 461
7935
1
