30
11
0 0 0 0 0 0 0 0 0 0 0
17 49 48 23 80 47 44 14 93 59 88
21 54 69 34 28 46 12 48 45 74 63
85 15 47 57 99 20 75 88 31 50 100
60 43 89 46 71 43 45 19 71 49 74
28 27 77 97 12 19 10 59 26 16 82
53 46 12 23 56 41 29 58 46 74 80
89 37 82 82 57 35 68 22 70 22 84
30 60 98 43 26 34 52 72 77 24 46
46 87 53 39 57 31 22 11 10 74 95
42 45 83 74 47 57 61 36 77 37 60
31 41 10 58 28 58 12 91 64 22 76
56 10 88 65 32 87 63 23 23 76 61
69 81 55 42 55 21 27 18 28 18 39
58 24 68 56 64 24 22 36 29 81 62
45 57 100 79 16 42 71 43 57 87 85
23 14 17 53 61 40 70 29 71 84 44
28 87 89 27 99 41 54 75 46 73 49
24 23 62 15 16 63 37 40 84 64 18
36 69 70 98 17 49 76 21 94 26 39
51 71 17 100 56 58 12 28 47 58 74
27 66 40 23 67 16 74 42 76 92 38
69 91 71 29 21 42 81 46 83 57 86
91 100 79 43 17 97 70 29 27 58 46
44 50 36 38 56 38 96 40 62 51 56
16 87 38 23 57 70 92 66 88 28 11
43 18 80 39 70 61 35 46 47 96 46
85 85 33 96 83 16 64 60 47 32 10
98 11 91 20 82 25 82 78 82 84 67
90 44 42 84 18 85 38 23 38 43 75
0.869321
0.919099
1.2351
1.2821
1.80608
1.27571
0.932227
1.90227
1.15238
0.995963
1.26168
1.42968
1.98553
0.84432
1.86271
1.50196
1.62694
1.07623
0.858833
0.459144
1.24437
1.02248
1.28409
1.06656
1.0217
1.45551
1.19635
0.895202
1.9567
0.680397
203 279
210 292
3 155
107 88
375 84
207 291
176 245
282 320
312 444
420 466
127 317
222 145
151 29
226 430
20 335
180 222
287 412
296 284
94 101
335 16
451 400
306 391
490 289
171 402
441 136
412 43
82 366
219 390
220 161
421 441
2530
3
