30
9
0 0 0 0 0 0 0 0 0
44 37 81 35 15 47 92 64 37
84 35 69 61 21 49 92 26 85
38 50 22 44 58 63 52 48 98
93 22 69 96 15 21 98 44 83
75 16 67 45 47 71 77 46 32
92 33 16 19 85 20 15 37 79
94 88 25 78 63 54 53 83 93
14 56 38 30 70 34 94 28 54
56 77 93 33 94 95 92 61 28
99 88 82 82 18 77 50 70 19
26 86 97 59 52 53 31 83 94
53 13 54 61 91 25 94 36 46
18 19 39 84 11 29 89 89 99
25 84 53 33 56 12 11 14 24
66 10 17 80 91 90 85 80 38
65 23 72 69 24 52 74 56 47
34 90 23 73 32 23 74 55 77
40 11 45 57 27 87 35 14 41
66 67 11 20 31 63 23 63 48
60 80 26 60 32 22 44 54 17
92 60 40 73 67 97 16 31 19
72 93 19 81 80 65 84 97 89
47 44 38 83 75 18 28 99 97
48 68 83 46 72 72 82 91 92
59 27 24 85 28 53 97 64 28
95 30 29 90 47 42 43 98 70
93 78 26 21 30 72 99 45 21
46 54 52 58 35 70 68 11 82
58 27 95 84 73 96 86 36 97
2.4962
2.32653
1.90274
0.586598
1.55622
0.554115
2.42074
0.502709
1.74491
0.873491
2.45491
1.99913
1.30068
1.29944
1.36865
2.0779
2.454
1.55493
0.584952
0.921742
2.00252
2.33407
0.986372
1.94674
2.08309
1.13289
2.16476
1.90416
0.73418
0.628451
184 202
119 122
109 83
302 386
363 153
39 111
101 380
465 496
241 134
1 406
34 435
319 211
253 34
440 486
195 16
330 19
451 438
64 105
303 103
170 25
457 186
157 485
188 156
124 152
493 230
293 40
25 464
258 183
378 140
142 175
2028.75
4
