30
9
0 0 0 0 0 0 0 0 0
46 60 24 35 58 20 11 97 89
17 22 89 28 39 39 17 17 82
86 57 19 79 83 53 39 20 58
81 82 28 81 57 54 48 86 12
91 95 50 73 61 99 89 50 85
19 20 39 19 64 50 86 29 82
71 79 81 14 41 16 37 92 64
36 86 72 40 96 54 84 100 42
44 36 69 21 19 85 64 72 90
100 37 22 18 48 11 24 62 11
66 88 95 13 28 49 59 48 23
45 95 69 19 88 61 34 69 73
45 83 78 35 14 80 45 11 40
75 54 96 85 35 25 38 99 59
36 87 97 74 35 33 89 58 64
97 90 45 31 85 74 12 52 62
29 78 26 85 34 75 16 56 42
100 79 31 45 42 59 13 43 60
23 37 98 40 89 60 70 77 100
88 22 80 87 58 12 24 84 61
10 32 38 90 76 67 34 57 74
85 63 81 83 13 89 84 89 12
51 48 56 34 100 41 15 31 14
35 69 21 27 68 87 31 27 96
43 30 52 65 69 31 17 31 74
79 43 97 76 45 64 30 87 86
64 27 60 43 77 61 64 86 45
96 43 76 37 50 13 17 24 83
93 56 91 59 12 60 82 94 57
0.664604
0.295637
0.836984
0.277588
0.826159
0.733734
0.498544
0.43894
0.514455
0.712724
0.808272
0.926671
0.411194
0.764162
0.518352
0.963807
0.806293
0.693293
0.942781
0.967471
0.721471
0.619326
0.225779
0.252273
0.415559
0.648578
0.754478
0.502691
0.611798
0.702267
453 28
181 279
34 66
300 178
328 435
70 263
414 289
290 228
431 296
453 175
117 111
120 409
350 416
345 164
322 227
216 189
245 282
191 426
115 194
173 184
448 202
33 95
114 275
183 398
198 228
468 344
212 101
53 415
471 361
321 497
8070
1
