30
11
0 0 0 0 0 0 0 0 0 0 0
78 43 95 56 67 64 11 69 88 96 94
68 66 33 87 12 98 67 32 58 90 61
35 36 53 75 95 37 68 92 37 55 99
96 93 60 73 44 22 70 10 30 19 79
22 86 92 94 18 41 85 56 97 23 34
19 15 23 94 15 96 39 48 52 84 65
34 90 54 59 11 30 20 91 33 32 69
38 31 92 99 52 12 22 37 59 48 14
11 69 100 14 78 28 51 80 53 27 36
36 24 62 34 36 52 26 63 88 29 84
36 49 78 65 29 86 50 40 28 57 50
50 34 71 51 41 78 94 85 81 62 27
94 21 50 24 87 54 61 90 36 86 64
62 61 91 28 42 92 58 98 90 52 81
33 78 38 31 70 89 96 84 19 16 95
16 56 30 86 40 92 16 17 95 95 28
77 96 35 95 79 87 77 66 12 69 33
94 40 77 85 77 10 14 29 17 68 43
37 89 21 50 87 36 39 100 90 87 63
18 82 65 91 29 75 34 90 71 45 70
12 12 30 17 64 35 19 35 27 36 85
31 10 63 59 70 36 91 48 42 87 54
36 99 63 28 48 21 82 20 100 19 87
69 83 37 52 94 86 97 22 43 78 81
65 32 14 86 97 50 24 61 87 72 57
84 45 10 74 10 42 23 20 52 53 88
46 72 84 41 37 34 90 23 91 59 78
55 62 12 83 14 74 46 83 81 63 86
97 76 25 41 85 61 15 78 87 13 70
1.43898
0.9986
1.63041
1.67493
0.749463
1.95154
0.405623
1.73714
1.0312
1.22797
1.5188
1.52505
1.15018
0.854554
1.82825
0.603561
0.832794
1.37493
0.495644
1.79827
1.17406
0.751189
1.94012
1.81591
1.6353
0.54743
0.872976
1.43447
1.16821
0.466913
465 122
381 414
300 315
337 486
199 14
282 386
93 332
42 264
7 414
440 370
124 185
128 271
103 423
478 480
128 181
289 188
467 346
466 380
208 227
499 207
75 86
359 9
377 395
326 198
62 494
407 411
430 276
227 391
155 470
346 500
1633
5
