30
11
0 0 0 0 0 0 0 0 0 0 0
84 65 28 86 49 11 95 24 51 65 85
32 53 32 92 23 96 88 79 99 15 11
31 93 57 59 65 44 24 56 74 52 81
82 15 71 68 77 22 97 17 15 84 67
93 80 73 91 81 39 78 25 35 17 34
27 33 41 98 32 53 18 21 36 84 97
21 71 46 80 47 82 23 39 10 25 45
85 16 20 42 87 77 32 86 71 83 12
38 97 52 24 72 72 37 63 10 40 83
84 25 45 16 81 24 55 23 36 49 49
100 79 55 99 43 76 48 78 76 85 60
85 46 79 31 76 42 96 33 96 72 24
33 66 82 30 94 62 21 93 74 73 57
64 78 28 85 26 96 41 26 45 52 32
91 64 61 13 22 89 18 62 67 98 36
76 53 83 50 32 62 27 25 96 38 50
10 69 12 61 33 74 25 19 86 61 91
61 11 95 34 34 60 41 54 49 65 66
82 73 27 75 90 92 82 37 12 50 90
34 94 30 38 93 14 68 79 100 39 42
87 52 19 85 46 68 91 100 88 52 35
89 85 20 19 61 33 11 14 77 47 66
18 41 69 38 20 83 99 24 59 72 44
91 12 43 97 62 61 74 72 15 76 47
47 27 87 40 59 85 52 13 87 49 99
14 49 24 79 61 10 74 38 18 79 21
96 64 78 45 46 52 14 20 64 33 59
60 43 30 29 31 68 75 26 91 81 99
42 52 39 87 30 79 72 28 24 98 90
1.25027
1.22677
0.610644
1.15674
1.26258
0.395979
0.865004
0.657056
0.351087
1.49765
0.595074
0.865729
0.808037
0.569394
0.369217
1.47313
1.13154
1.48573
0.778049
0.85881
1.14997
0.428298
0.368263
0.352824
1.3541
1.01279
1.49232
1.41247
1.31901
0.51127
21 121
130 323
164 324
129 116
353 88
277 269
54 169
166 278
263 279
448 365
127 393
38 244
193 490
393 294
13 295
417 485
59 445
374 144
110 458
383 267
166 169
163 343
212 247
192 411
40 1
254 152
418 114
384 132
370 232
63 370
2010
4
