30
9
0 0 0 0 0 0 0 0 0
55 38 16 100 65 92 14 58 25
95 19 73 54 39 100 76 18 26
52 89 82 95 45 55 57 23 15
19 51 72 17 81 43 58 81 77
38 99 15 94 58 100 27 80 49
61 99 55 29 59 38 18 83 18
80 55 59 73 91 49 92 62 39
62 79 60 38 98 65 15 71 46
33 46 60 56 34 48 77 24 20
14 10 42 87 66 83 25 97 38
53 95 15 83 14 85 58 69 57
63 11 89 52 16 82 23 71 76
93 99 58 26 40 39 31 82 50
53 47 19 91 91 31 63 46 100
47 38 50 64 69 52 37 78 31
68 77 51 53 40 39 55 19 38
89 12 89 99 75 30 75 68 18
98 40 24 81 44 81 100 44 59
83 29 28 50 92 68 65 100 76
54 93 80 13 26 21 56 64 17
73 50 38 18 81 93 68 12 78
21 29 67 48 42 64 95 33 12
65 28 26 89 62 55 48 100 98
56 61 81 45 24 94 72 66 96
44 48 71 64 40 30 28 80 21
26 26 51 71 42 11 98 13 17
13 90 67 20 51 24 12 18 29
35 99 14 54 26 18 33 36 55
94 64 73 36 80 96 63 11 33
0.495787
0.339641
0.183198
0.146634
0.393909
0.424459
0.245841
0.462956
0.475524
0.10676
0.12233
0.452218
0.397083
0.258134
0.237236
0.227132
0.446614
0.338135
0.426916
0.313887
0.191276
0.410412
0.160708
0.355508
0.448888
0.387166
0.266164
0.397636
0.130279
0.260806
346 74
158 54
227 401
404 193
471 80
243 126
258 432
488 422
146 167
242 445
309 178
338 343
485 417
189 253
455 430
349 66
242 221
194 474
50 251
140 177
112 354
458 376
254 179
492 411
446 483
347 271
390 317
304 427
286 436
253 108
7900
1
