30
11
0 0 0 0 0 0 0 0 0 0 0
24 53 14 60 48 34 50 69 79 67 55
28 64 35 65 76 89 89 75 77 13 55
10 63 29 39 61 78 33 40 41 96 76
84 29 86 14 76 72 70 16 35 49 100
79 80 87 52 99 100 41 31 58 18 34
75 44 58 86 12 54 89 54 77 92 37
49 20 30 79 70 72 61 21 54 18 16
38 29 74 73 22 77 11 15 89 62 89
55 92 86 99 41 73 39 76 36 55 61
98 10 70 74 65 59 82 54 77 85 30
78 72 67 76 78 89 40 29 90 64 14
84 79 42 99 39 41 14 89 89 84 99
51 78 71 67 48 31 45 100 21 23 69
50 80 27 71 75 54 74 86 96 45 60
58 51 91 91 48 80 96 69 30 18 37
46 73 35 93 35 87 82 67 100 70 70
62 67 25 49 45 30 95 97 96 38 46
71 57 93 50 47 59 90 28 30 49 62
74 96 97 95 99 74 78 87 95 16 94
86 27 11 48 43 55 69 49 94 73 61
21 93 76 30 29 81 39 67 98 30 49
78 77 25 76 49 86 41 29 30 72 65
49 34 26 37 63 20 23 36 94 58 33
51 56 80 43 35 86 78 93 20 63 69
52 95 74 39 34 40 42 79 47 27 10
86 49 98 48 79 51 38 82 18 32 40
97 53 24 29 66 51 99 90 89 44 81
12 95 62 93 28 45 56 62 59 84 49
43 19 65 21 70 49 61 41 20 66 56
2.27635
2.2825
0.920056
2.10733
2.15866
1.89186
0.520923
0.995911
1.98613
1.03725
1.69545
1.81166
2.37204
0.862971
1.66724
1.30347
0.555313
1.25067
1.60662
1.65873
2.13486
1.63406
1.49863
1.19126
1.44371
1.0069
1.13803
1.74612
1.72014
0.832523
385 106
173 60
49 52
354 320
342 305
134 105
81 434
420 357
405 243
73 476
490 391
383 477
470 109
99 182
234 16
399 83
253 337
412 304
14 477
9 22
358 163
285 381
461 271
350 262
57 146
455 376
416 375
445 337
127 130
414 106
2831.67
3
