30
3
0 0 0
71 100 70
51 67 29
28 18 28
42 100 40
30 32 21
91 14 34
51 22 55
36 77 95
14 75 40
21 30 81
97 88 16
26 56 68
36 78 42
40 50 82
33 30 50
14 65 24
51 32 40
36 76 26
14 68 67
36 27 20
30 100 52
83 27 34
33 73 99
78 61 77
73 29 50
95 11 51
85 20 23
78 96 30
42 43 97
0.69948
0.534211
0.243555
0.413731
0.71798
0.32352
0.398607
0.952252
0.497528
0.426587
0.898849
0.970183
0.242717
0.777383
0.754579
0.425093
0.898679
0.226655
0.831241
0.681205
0.235267
0.503562
0.68757
0.388945
0.397875
0.596857
0.598913
0.506245
0.255591
0.559151
208 345
171 444
143 327
224 434
465 218
370 213
127 202
239 344
355 178
241 431
458 435
142 112
102 378
136 272
127 123
201 42
243 363
5 83
73 14
353 500
322 191
282 4
421 79
21 32
394 132
270 444
295 233
85 204
153 382
135 278
1473
5
