30
9
0 0 0 0 0 0 0 0 0
51 35 52 22 24 11 68 85 42
26 98 84 39 27 64 54 64 87
74 99 95 59 73 26 10 79 61
43 30 11 94 94 57 28 46 25
43 93 79 27 74 46 74 56 27
17 41 12 97 47 98 89 36 71
20 14 90 89 42 80 41 67 72
80 50 27 10 24 94 12 12 72
29 99 63 17 19 93 46 86 67
72 50 10 69 83 30 20 66 16
54 71 64 62 67 56 23 85 86
15 72 16 43 35 82 63 92 89
25 92 97 17 23 64 51 84 72
80 69 100 43 33 73 58 96 31
63 27 41 68 70 86 64 89 74
64 19 25 43 90 70 87 34 12
50 65 100 44 58 25 49 41 57
60 19 31 38 51 35 66 81 10
40 71 27 96 94 36 18 82 50
100 81 15 32 45 50 83 13 13
54 28 64 74 25 73 36 92 73
61 49 44 15 45 63 46 64 46
56 78 24 28 59 30 59 96 73
69 99 19 10 12 11 88 67 60
19 78 20 63 59 68 41 64 75
96 56 34 28 88 28 43 15 16
15 11 47 12 17 97 43 84 32
47 92 23 64 12 80 83 82 45
96 22 63 42 87 67 89 82 65
2.25553
2.24149
1.88105
0.716595
2.42277
2.02788
0.597606
1.10687
0.922195
0.52688
1.90964
1.49143
0.855229
1.17259
1.10252
1.43887
1.29255
1.86292
0.820464
2.37034
0.683676
0.99407
1.41377
1.04196
0.949227
1.57323
1.3869
0.749379
1.78688
2.1627
285 149
371 209
371 247
275 490
201 227
427 228
324 141
100 459
226 496
326 62
219 116
15 181
473 499
100 335
160 295
332 491
303 477
387 17
38 97
346 281
413 446
424 312
209 481
92 138
204 221
185 420
358 444
414 305
354 77
495 414
2611.67
3
