30
9
0 0 0 0 0 0 0 0 0
53 28 51 58 97 20 23 47 90
62 89 57 55 33 38 72 36 88
27 39 64 14 65 49 91 17 84
45 85 43 66 76 91 51 27 21
81 45 12 77 70 75 28 75 96
44 12 11 60 66 78 32 16 16
14 89 64 86 44 14 40 80 45
59 84 34 24 51 16 22 48 74
16 22 68 89 34 81 81 50 56
84 81 80 50 80 48 97 57 80
47 27 90 95 14 90 82 86 27
25 20 13 69 78 12 24 10 86
98 16 36 33 17 42 45 86 32
28 42 68 19 47 15 91 74 80
49 11 56 96 80 94 63 75 60
33 24 63 41 30 64 83 89 27
84 68 48 36 34 80 64 21 86
38 79 98 52 50 11 74 29 20
100 19 100 41 22 42 14 85 85
65 94 67 81 77 28 79 32 10
72 86 12 51 40 93 32 58 94
64 97 32 41 70 60 17 25 35
17 96 38 70 39 66 77 60 40
23 59 33 25 99 65 69 63 71
45 73 100 38 28 42 39 74 58
67 76 53 23 53 67 46 71 54
64 89 34 63 95 45 44 64 47
26 60 16 35 22 26 93 56 53
75 89 59 37 26 31 79 93 60
1.67043
1.34839
2.33116
0.741352
1.5208
1.1928
0.721419
0.90421
1.00092
0.858559
0.93509
2.15928
0.719592
1.89708
1.45089
1.42116
2.08984
0.781597
1.36426
0.599904
1.01282
1.2536
1.44883
2.41203
2.28125
1.49843
2.39106
1.59583
1.85876
0.677977
180 147
102 350
92 466
17 356
176 462
136 217
65 239
111 56
25 289
361 116
392 346
262 63
274 159
215 440
129 401
28 66
128 241
217 148
132 121
206 275
118 72
398 131
200 428
290 115
362 354
317 405
324 312
303 497
347 489
294 18
7875
1
