30
7
0 0 0 0 0 0 0
65 61 10 68 15 13 30
96 39 19 36 49 95 62
13 66 66 82 21 72 58
33 33 65 62 73 73 75
22 14 58 35 59 77 37
46 68 88 62 74 16 55
18 14 71 43 33 98 97
64 60 21 89 73 55 100
84 71 52 19 25 91 28
69 26 32 45 81 13 11
12 74 68 80 79 52 42
57 53 64 88 77 18 77
18 43 84 38 64 41 34
23 80 37 78 35 56 72
67 18 64 19 50 82 64
21 36 99 61 80 89 87
94 42 66 22 52 66 88
73 68 95 68 86 12 10
95 30 56 59 93 77 93
73 61 27 69 95 87 66
81 30 75 68 38 26 51
98 11 62 63 96 57 81
82 98 51 64 19 51 24
32 27 88 71 19 64 18
46 49 16 84 28 78 70
91 90 55 40 56 98 13
18 35 43 10 63 97 33
24 84 84 53 70 97 80
54 68 33 81 23 78 46
0.698519
0.47704
0.953222
0.410799
0.658428
0.611439
0.837095
0.994204
0.590966
0.807173
0.564597
0.301882
0.875564
0.270072
0.503409
0.916899
0.68928
0.892584
0.898589
0.498272
0.564974
0.832743
0.712774
0.749812
0.823104
0.21956
0.74562
0.797592
0.256023
0.443359
171 286
178 309
479 269
349 80
312 289
293 15
262 41
434 271
34 142
343 462
343 115
311 337
189 496
397 151
448 389
434 450
208 327
429 221
177 351
302 280
437 497
346 246
14 202
67 40
38 72
343 303
303 18
119 228
477 142
371 181
2031.25
4
