30
3
0 0 0
13 35 32
68 54 35
25 80 43
74 39 70
40 81 54
88 48 47
22 89 95
43 15 89
79 91 13
61 23 34
93 91 46
96 55 38
75 69 69
45 70 84
91 60 41
56 35 25
38 12 72
51 35 11
95 88 16
69 94 65
30 64 96
58 53 11
36 51 38
87 99 18
83 11 18
33 79 32
11 26 97
89 36 14
29 64 27
0.349505
0.959403
0.655967
0.987467
0.235369
0.596601
0.818787
0.959569
0.784492
0.302504
0.916373
0.90814
0.546753
0.524376
0.76909
0.208298
0.607488
0.513043
0.734871
0.959045
0.497513
0.724122
0.290414
0.47364
0.522309
0.523682
0.569718
0.613887
0.214178
0.93311
43 404
274 384
354 202
336 483
171 477
247 132
400 148
63 276
451 4
186 449
184 380
369 286
490 259
256 78
97 48
431 358
15 440
337 333
138 321
191 421
306 417
310 430
327 269
445 232
450 215
497 16
63 83
303 462
17 433
219 1
1551
5
