30
7
0 0 0 0 0 0 0
95 15 58 76 64 51 49
43 58 71 100 75 88 49
71 25 44 75 97 78 64
95 18 43 99 95 23 43
72 94 54 82 74 49 31
65 87 58 36 88 43 13
85 82 70 24 11 98 26
75 90 39 49 75 96 23
60 30 15 97 89 73 18
93 20 62 95 84 37 72
41 65 44 76 52 60 30
80 64 79 87 21 54 53
43 67 38 95 82 27 43
85 76 35 70 56 73 30
42 79 48 59 33 26 96
70 52 66 19 62 55 44
39 39 74 93 37 64 84
41 41 48 37 32 28 47
66 59 63 77 30 95 72
77 50 41 46 16 43 62
43 28 20 40 12 89 20
76 47 31 10 27 24 85
94 48 91 14 76 29 72
40 55 43 26 27 29 39
55 50 27 32 23 22 100
31 93 30 68 30 88 60
95 47 95 13 26 29 57
87 75 64 33 59 34 56
11 86 10 20 54 60 75
0.124269
0.464959
0.25563
0.157069
0.46124
0.267401
0.318595
0.136432
0.109755
0.103518
0.381197
0.246852
0.415383
0.268092
0.451844
0.296361
0.469121
0.473504
0.480846
0.20604
0.113066
0.39413
0.447486
0.295324
0.359302
0.179467
0.160874
0.4814
0.251395
0.124763
263 385
163 335
362 221
362 216
310 265
421 107
7 246
419 461
191 476
63 94
28 412
118 28
261 247
306 335
23 479
393 159
202 23
21 478
252 334
33 369
271 19
469 207
163 352
412 155
154 448
127 416
468 223
113 224
21 345
453 183
4000
2
