30
9
0 0 0 0 0 0 0 0 0
97 60 43 93 65 78 82 59 26
31 17 36 39 84 16 71 23 91
35 37 35 23 51 94 92 30 70
57 49 40 35 66 73 98 60 36
76 79 54 17 69 47 40 25 10
65 77 78 96 75 32 76 52 76
58 57 14 79 40 34 14 30 51
80 70 84 21 44 14 93 16 39
80 42 91 69 44 76 81 49 80
77 73 45 97 39 27 42 57 59
45 55 18 19 88 93 93 99 78
97 57 92 71 24 10 49 43 50
98 85 78 45 88 17 36 20 62
70 56 17 99 38 89 87 66 52
23 80 22 19 94 96 95 53 57
50 57 58 32 10 25 71 95 95
87 41 95 50 88 45 38 87 78
47 23 47 98 72 18 84 65 38
54 86 67 56 73 43 21 10 37
19 13 66 69 61 21 17 84 26
47 49 68 54 31 52 96 70 32
56 81 73 24 80 99 52 27 84
88 76 60 74 74 73 42 53 41
58 94 100 69 98 34 69 20 56
81 55 25 65 16 57 23 68 11
37 56 30 82 86 72 38 38 57
49 78 100 63 65 17 97 57 34
89 14 53 41 33 82 48 96 59
66 95 34 13 10 91 31 45 76
1.32784
0.568663
1.68173
1.47655
1.00851
1.80882
1.56262
0.907849
1.25558
1.09045
0.66806
1.79626
0.603608
1.51594
1.33145
1.29721
1.90157
1.14858
0.758686
0.955078
1.37138
1.15785
1.9854
1.65944
0.958302
1.01382
1.20083
0.76405
0.620289
1.81314
169 187
249 61
235 499
380 295
256 204
146 121
72 132
498 132
96 269
428 480
341 123
396 122
205 12
106 363
431 10
284 297
193 214
131 299
457 58
125 138
92 225
307 463
285 70
60 3
187 445
22 131
260 125
333 160
221 333
257 125
1647
5
