30
11
0 0 0 0 0 0 0 0 0 0 0
48 79 96 58 39 33 38 39 13 96 71
77 22 24 27 11 55 24 44 29 41 99
17 17 46 70 23 10 83 52 17 45 43
46 98 89 31 84 79 72 35 50 21 73
71 57 86 55 98 41 100 28 61 100 53
38 61 58 64 82 20 20 84 62 43 82
80 97 77 23 25 84 74 71 75 10 19
42 77 61 10 83 32 67 90 18 36 77
26 61 44 65 99 12 98 83 33 71 60
45 18 96 61 66 38 100 52 17 33 20
99 70 96 62 93 78 59 55 52 37 82
69 30 33 93 92 32 51 86 63 18 16
20 53 53 67 26 11 36 36 20 42 48
24 65 75 29 67 89 92 19 11 32 48
54 31 97 74 36 56 16 60 80 44 98
99 71 28 77 29 66 24 47 98 50 68
25 90 17 32 97 69 90 69 89 32 63
70 53 26 82 33 13 96 71 52 39 45
62 86 53 32 80 90 21 50 97 79 28
80 57 81 60 15 93 27 73 21 43 43
31 14 45 23 51 64 29 48 70 93 40
21 39 68 30 100 16 35 54 71 10 88
77 29 61 64 80 64 23 68 75 47 53
14 100 85 51 94 67 53 38 91 60 73
87 98 17 21 42 10 96 36 26 98 60
12 33 28 46 58 90 26 12 44 95 14
94 95 14 54 89 49 17 30 88 10 38
28 91 54 96 25 49 22 44 20 25 43
60 97 32 76 16 27 82 97 56 24 12
1.97132
1.21928
1.58822
1.44073
0.579756
1.03836
1.56179
1.8483
0.868172
0.692262
1.74911
0.640456
1.76136
1.18728
0.975693
1.94183
1.03614
1.56843
1.99976
1.94656
0.9105
0.78169
1.82522
0.627692
1.50829
1.57895
1.38237
0.786773
1.06375
1.57335
174 80
357 71
83 48
67 73
185 303
407 265
102 292
110 20
264 228
154 325
230 156
60 491
262 4
332 67
193 151
274 168
268 202
394 127
95 471
76 175
364 442
96 58
362 314
457 336
82 42
221 477
1 278
384 388
11 479
414 232
3912.5
2
