30
3
0 0 0
84 56 58
46 59 31
72 14 98
13 62 72
96 91 43
57 58 83
28 82 86
100 54 47
94 32 54
50 10 26
71 48 39
94 21 49
67 46 26
13 70 15
77 59 87
28 20 74
46 20 43
85 12 13
32 88 48
48 88 86
18 85 50
12 49 67
27 52 26
37 15 34
79 24 42
12 39 62
75 71 99
46 96 37
47 87 14
1.39937
1.36121
0.968389
1.78247
1.12672
1.35213
0.421841
0.432827
1.83152
0.539365
1.81302
0.880352
1.41957
0.815658
0.905318
1.58317
0.569486
1.61145
1.29638
0.558984
0.641752
1.17003
1.52383
1.17842
0.553113
1.12089
1.16838
1.3154
0.902412
1.7366
145 145
351 234
294 424
307 318
363 128
42 285
110 449
130 192
410 106
422 204
54 249
362 205
386 27
439 114
287 279
102 415
477 496
182 79
256 334
296 60
44 398
237 3
440 397
191 332
365 313
51 108
462 399
248 172
403 129
209 57
1903.75
4
