30
5
0 0 0 0 0
96 27 68 44 86
84 44 46 26 97
76 47 84 23 69
42 71 50 100 18
66 44 40 59 81
70 86 30 61 71
68 61 38 46 71
68 54 47 19 47
50 39 79 33 84
59 27 33 26 35
85 92 48 32 42
54 91 23 52 23
53 47 75 15 58
21 89 38 50 52
37 65 79 47 69
68 52 60 28 51
24 26 23 60 29
46 21 39 72 92
54 23 81 32 99
67 39 69 60 44
26 14 99 26 11
13 87 35 94 23
79 24 41 31 49
69 40 47 87 54
84 92 34 95 16
91 59 52 47 19
77 42 82 52 27
37 12 14 65 12
12 56 86 89 14
0.695621
0.321694
0.963506
0.559634
0.477294
0.493557
0.701391
0.9107
0.987225
0.224234
0.256575
0.335228
0.549099
0.61908
0.805486
0.694152
0.66685
0.738328
0.96218
0.587866
0.654462
0.362841
0.536298
0.616655
0.803071
0.847641
0.809366
0.53115
0.800694
0.371995
438 193
477 115
30 140
242 303
163 68
425 147
450 223
169 126
51 52
433 254
487 238
194 266
460 348
158 320
162 442
177 374
442 120
459 153
35 264
315 193
343 373
371 138
124 192
167 200
407 390
60 222
465 180
85 406
53 37
406 429
3800
2
