30
3
0 0 0
71 63 17
74 73 23
34 29 82
74 20 83
97 97 48
89 98 31
60 46 58
73 40 33
84 31 59
35 84 96
65 30 82
20 53 51
40 39 57
27 10 90
26 19 19
87 77 88
60 44 98
12 68 21
56 56 97
67 78 50
88 70 67
32 90 87
77 95 81
73 74 61
53 43 77
88 18 31
76 14 54
89 67 65
86 44 69
0.387424
0.118345
0.294337
0.324594
0.122936
0.49204
0.446018
0.267436
0.343047
0.127573
0.163882
0.144733
0.289495
0.357015
0.430094
0.145672
0.494626
0.297201
0.357652
0.248771
0.400967
0.310726
0.215262
0.274696
0.384393
0.317081
0.205922
0.413369
0.155692
0.317896
112 330
387 343
322 489
58 452
360 297
25 243
489 342
5 473
415 19
475 197
264 314
347 113
496 48
419 383
483 197
49 26
401 213
193 231
388 341
30 247
471 261
397 140
259 181
376 276
105 13
392 198
420 374
327 142
446 81
180 478
4297.5
2
