30
11
0 0 0 0 0 0 0 0 0 0 0
75 91 48 26 82 97 11 50 63 36 21
63 27 77 39 70 99 82 60 24 45 10
47 66 51 33 59 17 83 50 60 93 24
30 47 15 51 47 17 44 88 95 78 77
54 22 24 74 65 75 27 63 78 97 89
77 57 43 36 66 93 15 67 84 35 38
17 51 44 52 62 12 100 70 49 98 82
19 19 28 39 23 63 94 47 72 63 27
69 85 48 82 55 37 55 36 73 97 96
12 95 95 71 87 68 60 34 74 96 68
72 66 53 20 10 47 80 32 98 87 17
87 95 24 57 41 90 60 14 98 52 18
45 59 54 42 26 77 56 88 87 17 65
92 47 97 51 67 82 51 30 55 60 51
63 76 96 43 25 78 70 39 45 13 56
43 89 14 79 75 95 58 30 21 66 11
23 86 21 42 64 11 95 39 99 60 69
86 97 11 71 85 89 76 19 72 79 34
14 17 64 10 67 52 13 47 26 25 52
11 55 97 59 90 52 38 43 87 47 95
41 86 74 96 76 93 16 89 77 46 76
60 66 69 42 98 44 94 68 96 90 37
24 12 82 43 59 84 13 44 90 47 94
81 85 98 86 28 95 69 39 57 41 87
62 64 83 15 87 90 16 58 17 38 39
48 55 76 39 96 11 54 42 98 62 99
62 81 99 23 44 50 86 37 52 92 90
95 44 69 91 44 93 60 17 84 98 61
82 27 11 51 22 47 91 56 48 70 93
0.902123
0.668779
0.533255
0.69824
1.45534
1.00985
1.4882
1.12413
1.20503
1.44202
0.489137
1.39397
0.486736
1.08733
0.569834
0.559212
0.729431
0.335965
0.699286
0.600077
1.01788
0.928206
0.634322
0.428934
0.690515
0.566727
1.3285
1.47653
0.664257
1.28141
21 258
2 353
383 184
312 366
407 58
313 216
387 451
294 208
242 354
267 175
203 100
133 96
242 178
190 386
82 383
481 255
18 349
178 198
50 223
335 477
26 213
382 51
402 227
129 474
113 29
93 369
409 299
326 197
168 92
328 221
8440
1
