30
3
0 0 0
39 70 72
38 47 15
69 54 28
89 10 52
87 100 20
42 90 62
28 16 70
47 40 70
27 48 60
39 85 45
72 17 76
91 23 78
68 87 40
29 86 23
96 40 39
73 59 74
87 61 63
20 74 55
80 24 100
45 64 57
38 71 92
84 73 64
17 12 27
43 26 50
70 45 35
58 16 61
23 54 13
80 61 76
74 82 48
1.33867
1.02951
1.62478
1.91212
1.73729
1.34638
0.79473
0.863032
1.53155
0.62655
0.523686
1.42393
1.18838
1.89264
0.707802
0.861795
1.4967
0.603247
1.65241
1.36454
0.727187
0.55813
1.77929
0.401866
0.577718
1.50218
1.81251
0.843242
1.51505
1.60913
346 222
312 28
12 423
139 437
295 459
181 194
73 344
241 311
383 476
16 412
370 261
114 78
56 264
90 293
12 442
295 286
85 314
211 220
235 1
10 65
69 35
101 68
485 372
137 1
413 237
230 65
273 494
102 227
1 174
41 368
1584
5
