30
3
0 0 0
24 42 90
31 28 33
42 14 59
22 86 99
32 34 93
44 41 13
100 90 61
57 99 72
23 54 67
69 18 40
39 91 29
12 62 90
46 65 35
35 94 35
25 58 33
28 46 98
30 57 96
55 31 54
76 10 92
78 26 12
34 63 14
81 86 47
43 28 58
37 80 19
21 68 26
37 72 25
54 89 62
61 90 46
24 24 78
2.37868
2.08292
0.766344
1.96061
2.2232
1.25394
1.68284
0.98899
1.64243
1.17171
1.43452
1.93069
0.609732
1.70352
1.98139
1.54978
0.555911
1.98875
2.03834
2.29721
0.585092
1.67949
0.986575
2.18746
2.34446
1.44216
2.43914
1.60128
1.43993
1.63529
27 406
437 130
55 41
449 107
67 144
150 48
222 105
383 354
237 369
440 381
298 74
454 314
55 65
222 229
136 173
249 177
70 12
60 398
440 384
316 62
301 278
282 188
103 223
433 201
243 426
2 394
305 238
203 259
423 384
116 70
2490
3
