30
5
0 0 0 0 0
49 86 14 24 33
11 58 54 47 76
70 15 73 69 100
59 91 53 16 66
43 21 36 77 43
45 10 68 79 62
21 14 98 29 18
32 85 31 95 28
25 22 62 93 50
100 62 31 89 75
10 43 95 53 37
83 56 94 22 13
33 91 78 48 44
98 21 73 67 30
35 11 92 38 40
50 39 13 36 22
23 59 55 58 27
17 66 20 49 39
28 15 36 96 91
23 10 90 69 97
48 93 96 88 63
12 88 79 25 89
82 44 11 97 47
64 76 64 65 38
55 99 75 36 84
26 64 75 45 37
76 44 78 18 19
91 73 50 26 80
83 74 60 28 75
0.17493
0.338269
0.202663
0.449552
0.285932
0.272113
0.282043
0.381666
0.480433
0.273349
0.123875
0.135541
0.135312
0.463618
0.129886
0.470771
0.31233
0.442558
0.187929
0.407382
0.247493
0.154721
0.391197
0.117709
0.302554
0.165433
0.182216
0.145312
0.362302
0.399119
308 380
218 364
420 4
361 206
444 134
76 180
286 353
456 217
99 482
327 492
322 207
402 261
198 227
284 326
67 425
423 469
55 350
88 357
492 302
244 160
118 294
203 321
278 256
96 175
447 359
109 322
482 259
426 329
79 1
49 134
3890
2
