30
5
0 0 0 0 0
26 81 84 32 82
39 78 14 63 99
48 73 88 100 64
72 58 44 26 13
14 23 60 48 49
73 15 99 35 87
66 90 66 79 72
92 73 16 10 62
40 55 88 92 91
18 80 98 46 33
26 60 76 64 64
76 95 16 32 34
75 23 78 16 49
51 73 24 62 50
23 43 39 54 93
81 83 60 39 89
87 92 94 31 43
47 90 10 42 42
67 93 59 75 76
61 83 97 72 33
27 98 29 98 100
80 17 44 67 80
13 76 16 78 98
77 20 89 100 99
57 67 81 40 95
67 37 14 19 25
45 40 16 18 86
47 44 88 72 81
39 79 81 90 93
1.83967
1.99007
0.876185
0.57174
0.413903
1.90685
1.78109
0.497609
1.40211
1.17264
1.85901
0.962743
1.96678
0.990255
1.44276
1.38721
1.89151
1.76519
1.4524
1.59493
0.437417
1.21125
1.46666
0.625467
1.59276
1.9103
1.87266
1.0648
1.60584
0.762083
174 168
324 375
64 29
244 77
85 209
431 247
281 423
489 330
358 224
476 178
128 185
65 385
167 278
378 247
232 55
318 448
163 101
21 120
379 310
310 494
81 360
226 241
350 180
274 420
46 29
256 60
408 388
335 286
273 167
447 231
2873.33
3
