30
3
0 0 0
11 73 89
34 91 33
15 30 53
75 24 33
70 55 37
69 58 45
75 55 32
21 51 92
19 84 32
28 31 20
61 50 95
31 30 58
73 55 93
69 31 18
24 69 87
69 84 75
22 85 63
13 59 23
13 69 91
43 48 96
37 26 56
50 43 30
18 64 21
77 18 32
85 25 82
49 81 45
80 10 100
16 41 65
90 65 40
1.86862
1.58518
1.29504
1.05541
1.12865
1.39029
0.966194
0.652241
1.54716
1.14918
0.587831
1.29269
0.547747
1.72072
1.99763
1.18123
0.669923
1.41763
1.15909
0.731598
0.763508
1.53917
1.58094
0.845243
0.407564
1.31465
1.86355
1.40347
1.47972
0.926978
72 194
162 27
438 268
247 83
366 456
465 252
151 276
261 418
407 290
420 411
32 181
468 211
42 57
355 436
21 458
261 87
94 378
108 151
455 402
334 164
198 43
296 208
38 472
490 417
99 126
244 188
93 405
7 341
10 231
229 46
1865
4
