30
3
0 0 0
56 93 56
84 62 41
36 67 16
53 62 46
12 28 38
67 78 61
49 17 41
55 15 62
60 60 86
38 75 55
85 54 36
64 22 21
57 96 35
57 36 75
21 97 15
42 21 15
100 48 68
81 38 72
78 48 54
95 93 86
86 24 21
51 17 90
89 82 27
18 65 66
67 12 18
87 100 29
32 15 11
11 76 64
96 36 51
0.815569
0.534456
0.864969
1.8206
1.24955
1.6361
1.14878
1.22225
0.967007
0.441958
1.67634
1.33221
1.65161
1.16385
1.9398
1.80641
1.11065
0.806597
1.48032
0.667441
1.31185
0.553035
1.11933
1.57857
1.35072
0.91021
0.614557
1.08634
1.26752
1.45715
153 388
279 276
153 453
487 349
135 481
247 220
450 451
241 427
311 428
4 475
448 71
152 69
57 229
250 464
438 377
391 484
195 96
327 491
19 199
99 112
191 420
291 335
340 49
18 347
241 247
417 156
150 493
477 53
34 267
409 462
2566.67
3
