30
5
0 0 0 0 0
66 91 79 55 25
32 99 38 12 75
46 54 62 91 83
39 15 76 11 39
42 64 73 54 44
44 27 34 51 68
15 68 52 60 87
32 43 99 72 89
27 50 87 49 93
98 59 96 42 13
58 55 12 38 39
92 76 86 13 67
96 59 53 47 43
25 68 73 96 40
100 47 41 63 100
95 92 59 43 98
62 34 99 18 93
40 71 31 20 67
79 80 28 94 50
88 65 62 92 38
63 49 11 50 37
68 50 59 65 63
66 73 79 98 24
41 60 88 59 13
34 55 62 42 73
27 34 24 79 55
56 55 67 40 58
40 78 76 26 10
81 38 20 76 39
1.09991
1.39886
0.570658
0.863083
0.729136
0.671809
0.717045
0.430473
1.1064
0.312723
0.387703
0.311157
0.781059
1.44461
0.830338
1.37464
1.21195
0.509372
0.778129
1.20657
1.02413
0.386251
1.09107
1.02528
0.504468
0.450401
0.683449
0.965427
0.481664
1.08364
480 188
408 254
68 41
475 159
424 363
119 366
159 346
114 29
315 40
457 16
354 16
119 225
229 82
257 485
74 44
310 213
275 127
433 121
82 417
2 78
365 125
463 439
167 220
236 465
368 14
330 470
478 368
477 488
61 458
15 444
4132.5
2
