30
3
0 0 0
12 67 34
25 42 58
15 28 95
25 15 46
30 37 13
54 33 81
52 23 60
80 98 47
35 45 73
85 18 25
53 20 56
41 17 21
27 63 73
65 70 70
26 76 31
17 82 57
42 13 64
11 59 33
24 27 22
17 60 10
39 82 52
36 43 41
31 100 96
27 42 34
82 54 90
14 74 46
53 45 45
28 88 58
57 21 66
0.541424
0.928502
0.806378
0.641681
0.43275
0.566067
0.777588
0.860993
0.577729
0.80517
0.859987
0.738278
0.609229
0.622135
0.473464
0.464106
0.638224
0.799802
0.888224
0.570144
0.542787
0.897654
0.490093
0.430946
0.873762
0.414941
0.89158
0.362185
0.836992
0.315335
222 360
112 453
449 363
88 8
226 344
445 450
190 373
214 330
369 31
17 242
139 83
380 181
21 42
175 72
153 68
415 3
438 362
111 482
493 192
72 81
152 164
264 328
249 291
208 460
118 280
221 265
107 139
410 153
105 222
373 467
3367.5
2
