30
7
0 0 0 0 0 0 0
94 20 25 69 26 25 32
26 13 84 38 25 46 70
60 45 91 10 53 37 58
82 25 67 45 22 49 55
51 94 48 94 24 42 41
84 81 45 13 87 20 45
35 96 61 18 41 18 73
28 35 63 90 76 69 75
52 62 68 91 88 81 99
60 32 12 12 92 26 82
69 14 31 96 29 12 94
35 42 63 31 83 22 41
15 25 36 70 24 89 94
54 29 67 63 13 62 98
21 75 51 64 37 68 41
18 44 52 25 33 91 93
12 89 34 96 52 100 13
24 63 80 38 57 26 46
54 73 15 15 64 75 37
61 24 21 52 72 24 24
53 96 35 62 90 19 15
98 26 53 35 68 95 91
28 35 32 56 83 90 21
68 51 24 28 80 55 64
49 12 34 87 23 23 69
70 47 51 36 65 84 94
42 46 31 98 57 68 67
88 62 79 72 11 93 93
34 42 76 49 64 77 56
1.919
1.2808
1.96186
0.952053
1.52704
1.81503
1.11015
2.061
1.79482
2.1638
0.544962
2.0371
0.508314
1.6198
1.80665
1.29148
1.59199
0.52039
1.71999
0.837647
0.858177
1.0105
0.84255
1.24019
1.51902
1.56213
2.44493
1.01506
0.806836
1.03816
70 339
177 174
96 455
495 168
112 476
485 182
333 250
474 327
344 239
303 353
205 312
10 229
70 82
152 216
302 207
409 211
190 194
98 135
418 442
60 166
240 144
242 47
369 44
217 284
38 179
226 261
397 31
137 49
36 19
141 41
7675
1
