30
7
0 0 0 0 0 0 0
88 48 56 78 57 68 70
17 98 69 34 14 97 63
65 13 49 91 71 37 100
42 30 65 96 98 86 73
54 69 97 72 99 19 37
43 55 10 16 96 83 38
18 84 24 99 64 45 24
40 80 46 89 44 36 58
21 84 50 92 54 16 62
45 60 33 25 59 18 62
52 24 37 57 68 55 20
85 88 13 82 69 29 59
83 39 50 63 25 58 18
81 61 27 52 92 31 95
17 80 10 34 14 35 76
79 48 68 51 35 99 61
77 52 19 32 13 56 91
18 14 93 94 51 33 96
25 85 83 71 27 51 38
97 27 28 50 57 54 75
94 40 59 85 75 54 10
12 31 56 63 93 61 60
88 25 95 60 38 93 36
76 45 42 23 98 79 53
25 77 80 17 44 82 63
98 30 22 69 86 43 37
97 36 85 34 76 59 89
70 44 98 85 72 79 74
59 51 50 44 85 42 77
0.908946
0.420664
0.479355
0.353084
0.5653
0.769419
0.32869
0.697567
0.853684
0.500016
0.218183
0.338037
0.811696
0.591108
0.702294
0.60183
0.902982
0.301496
0.783798
0.719437
0.273349
0.929031
0.66628
0.993671
0.482398
0.90519
0.763119
0.938904
0.632677
0.266771
456 103
235 132
417 422
63 258
296 158
30 22
135 48
200 211
282 372
244 225
492 131
439 277
483 23
172 431
380 383
382 17
237 482
72 72
408 244
47 73
332 272
32 116
294 131
466 436
366 324
33 432
283 185
298 198
60 482
423 440
2061.25
4
