30
7
0 0 0 0 0 0 0
88 68 78 33 61 34 57
98 99 13 49 90 74 33
94 82 67 76 12 17 56
80 82 29 49 73 31 76
46 96 54 25 90 36 69
25 13 33 91 17 83 53
20 41 92 14 21 44 33
65 92 90 47 26 89 13
42 12 28 27 94 20 49
41 13 66 38 21 46 34
90 18 64 39 57 62 70
31 38 83 68 38 46 74
49 24 59 80 19 95 47
70 21 21 24 15 39 71
100 42 73 100 41 67 11
47 84 95 76 21 43 97
10 39 67 10 43 93 86
87 43 67 26 94 100 83
36 37 21 16 26 21 87
83 87 97 83 30 50 49
66 31 32 83 63 91 88
44 71 28 23 68 33 47
45 10 68 10 80 33 55
26 54 100 28 70 74 47
40 24 34 82 52 36 10
86 18 98 93 66 57 63
71 48 41 19 84 21 10
18 35 74 64 97 97 81
15 78 88 54 83 60 72
0.710255
2.30283
1.97179
1.36361
1.14828
0.600004
2.18744
1.17475
0.620739
2.29467
1.17912
2.16988
1.16057
2.23592
1.8285
2.3219
1.6823
2.27293
0.637881
2.24196
1.80993
2.21652
1.42792
2.29875
1.32494
0.73245
0.999377
1.43334
0.891188
0.769691
337 97
486 157
71 170
379 454
216 276
98 189
233 86
417 65
25 253
149 285
341 445
357 466
395 156
470 232
201 93
165 423
21 495
285 105
437 17
340 54
80 464
385 132
57 336
403 93
319 165
182 241
472 108
312 170
469 84
391 129
1566
5
