30
5
0 0 0 0 0
90 22 100 38 43
62 15 28 36 74
11 90 29 66 74
24 18 33 61 78
79 17 65 36 65
55 81 35 24 70
58 26 57 92 16
74 16 53 68 89
47 48 83 62 50
40 23 72 38 33
57 61 49 21 90
81 79 47 28 77
76 16 75 72 19
76 99 84 82 86
26 62 51 50 100
77 86 21 72 64
36 59 35 65 80
51 71 13 84 39
25 82 37 28 11
88 14 74 54 57
94 72 77 39 41
39 84 57 62 25
78 51 62 49 28
91 29 22 71 58
50 11 15 95 71
81 94 85 53 57
88 81 69 35 85
56 13 42 18 39
50 91 10 83 25
1.92652
1.27253
1.13756
1.43649
0.752589
0.833316
0.62732
1.95732
1.31901
0.497878
0.792667
1.84765
1.98471
1.60647
1.28904
1.96754
0.938531
0.761915
0.744609
1.98668
1.40507
0.611716
1.37091
0.984266
1.73213
1.47088
1.94585
1.15278
1.48413
0.410846
184 73
486 226
163 348
49 393
318 151
67 32
166 437
236 442
281 265
434 224
299 208
79 101
252 126
187 104
242 350
447 195
387 242
290 273
107 247
403 136
496 288
472 450
229 398
26 382
218 328
120 152
436 358
140 166
211 472
103 425
3987.5
2
