30
11
0 0 0 0 0 0 0 0 0 0 0
50 85 81 60 74 95 81 90 55 64 84
77 39 19 12 81 86 24 72 45 94 10
13 94 64 61 79 29 34 60 48 84 69
72 74 44 46 87 28 66 50 45 31 84
29 14 11 94 46 53 39 90 62 89 42
32 22 59 20 81 94 95 87 42 74 86
50 58 29 76 91 70 36 10 100 25 90
49 72 11 60 80 23 41 78 14 21 35
37 89 79 54 29 100 96 22 49 63 39
78 30 48 75 37 36 17 73 45 31 31
77 63 99 52 77 85 28 14 86 20 54
27 14 57 53 57 65 65 55 19 57 53
73 15 56 49 28 56 62 64 23 54 41
25 79 41 30 37 15 88 87 96 89 17
16 98 68 43 62 43 70 15 31 45 76
18 40 35 77 49 14 18 43 47 20 78
75 35 55 43 16 13 32 66 42 95 32
97 68 47 40 17 82 42 87 57 76 64
45 83 74 77 90 27 67 70 58 37 27
34 32 31 81 36 85 32 23 18 78 40
58 52 55 50 82 20 74 54 97 78 70
56 67 19 81 88 71 76 73 33 74 24
78 98 60 86 44 42 46 21 70 61 61
42 89 100 72 33 70 75 29 49 85 46
84 84 20 74 87 100 53 22 55 43 76
29 51 74 85 95 40 19 30 22 97 28
22 85 67 17 58 88 12 32 86 82 48
68 45 94 52 86 58 32 85 36 11 17
13 58 79 75 53 48 30 78 33 70 52
0.472893
0.127521
0.23494
0.4635
0.406882
0.350611
0.419957
0.140341
0.417794
0.295597
0.217957
0.322128
0.373076
0.169308
0.169362
0.362837
0.328052
0.15342
0.135079
0.133258
0.131148
0.485139
0.437958
0.313589
0.428034
0.428994
0.324298
0.45071
0.26665
0.313147
36 468
186 204
58 407
126 360
401 388
447 250
101 407
262 414
380 366
254 243
0 183
362 360
152 173
221 90
369 188
438 232
312 137
79 161
105 328
206 43
198 176
216 180
83 432
78 247
160 154
240 387
55 110
283 412
13 406
276 74
1995
4
