30
3
0 0 0
44 63 100
15 91 74
25 92 94
76 60 54
26 31 30
32 95 17
36 48 15
57 29 54
61 33 30
15 57 20
44 50 85
70 35 80
77 41 50
25 29 100
52 50 14
73 63 35
52 69 57
89 46 48
90 79 45
57 83 89
78 13 71
40 79 97
74 45 70
41 19 73
80 36 84
52 76 55
68 45 24
65 13 62
66 31 77
0.388977
0.155646
0.263144
0.230638
0.261797
0.3403
0.315251
0.377702
0.173689
0.327034
0.186099
0.122143
0.429919
0.457218
0.453519
0.300741
0.432532
0.296108
0.198962
0.163765
0.346707
0.441176
0.156227
0.375673
0.311647
0.123682
0.338209
0.221142
0.257351
0.239625
47 364
273 353
265 229
338 429
203 432
452 316
328 171
162 392
35 35
319 34
37 218
329 424
333 105
489 402
122 358
306 73
86 43
463 211
416 401
465 414
160 220
285 389
102 299
118 100
68 346
375 140
73 233
418 229
157 369
73 281
3987.5
2
