30
7
0 0 0 0 0 0 0
38 67 96 22 12 92 11
56 16 62 15 72 68 20
58 44 72 56 45 90 25
91 43 87 57 68 43 71
31 65 28 13 79 36 12
58 11 64 13 61 54 18
42 56 28 57 75 28 62
78 69 71 25 21 43 10
58 81 90 94 85 50 66
90 18 98 60 10 41 98
92 63 21 33 40 77 31
13 11 31 25 45 95 13
21 32 70 65 47 78 79
78 33 18 97 48 97 63
97 17 50 41 98 38 76
82 98 19 13 80 82 23
54 25 50 68 11 69 91
91 78 23 31 79 36 87
60 90 14 17 72 12 16
50 43 59 44 97 83 45
36 78 24 30 46 60 92
77 52 48 48 98 81 71
39 43 98 48 40 58 28
17 55 61 37 30 83 38
47 17 30 22 69 83 56
77 90 57 67 69 67 17
18 12 35 30 64 26 44
58 65 28 26 86 12 15
84 69 34 55 77 59 25
0.655158
1.42335
1.27728
1.03922
0.351337
0.771904
1.18488
0.476683
1.3671
1.3642
1.1959
1.46549
1.36494
1.4529
0.979119
0.328222
0.603689
0.677397
0.625635
1.08291
1.47172
0.92417
1.49118
0.766611
1.4399
1.32434
0.948115
1.47983
1.17561
1.18812
12 359
12 7
169 39
250 224
40 122
474 76
157 304
6 51
415 42
89 71
436 434
364 156
466 399
411 421
322 317
234 135
326 401
440 365
195 88
210 420
24 14
279 212
198 474
274 144
301 254
121 207
476 123
32 277
55 480
260 257
2516.67
3
