30
11
0 0 0 0 0 0 0 0 0 0 0
14 94 65 84 95 64 52 32 75 63 43
86 55 40 31 58 77 99 79 72 63 24
71 58 63 20 28 64 88 50 79 74 21
81 58 47 48 30 25 53 74 59 57 79
59 19 80 45 80 15 37 42 18 62 15
24 66 93 59 73 46 87 17 78 26 59
61 31 35 39 89 51 75 51 85 47 67
91 24 62 59 26 89 65 70 31 37 91
77 81 18 41 69 68 85 37 36 75 84
52 88 88 90 34 40 37 10 90 51 40
55 72 93 29 17 96 86 74 63 74 69
88 41 73 62 61 36 95 47 11 57 31
42 25 60 60 14 53 23 23 29 86 22
76 13 54 25 88 18 40 51 38 48 15
56 99 74 12 48 80 84 55 79 93 11
23 14 80 76 66 66 69 26 79 67 75
95 58 32 59 19 27 50 55 16 46 43
21 52 79 25 37 58 84 44 84 24 31
30 76 46 18 48 23 29 92 22 46 95
54 48 40 27 38 53 77 19 69 26 66
86 74 15 33 26 97 83 28 49 95 90
52 30 83 54 40 66 68 100 75 67 48
94 16 41 51 33 92 100 30 16 12 28
37 48 48 97 46 94 49 32 53 72 88
73 49 86 10 61 14 74 49 53 79 18
34 29 19 31 58 36 12 31 37 98 69
84 83 46 52 20 66 86 20 65 77 57
71 24 17 59 10 57 49 24 13 84 70
34 73 43 62 12 93 95 83 89 54 17
0.162817
0.139281
0.257141
0.235318
0.110256
0.239104
0.490843
0.412491
0.176375
0.195266
0.227223
0.494599
0.262503
0.226431
0.108092
0.106879
0.144637
0.359635
0.319989
0.496614
0.304716
0.110198
0.449869
0.278522
0.351572
0.173816
0.224668
0.313615
0.404969
0.226986
232 86
359 377
431 333
254 246
329 418
86 274
312 235
361 263
119 36
45 398
305 489
291 303
193 240
193 442
204 262
36 189
388 283
26 113
442 84
274 252
236 349
108 240
307 308
124 171
294 256
281 353
280 373
322 359
398 143
290 448
2613.33
3
