30
3
0 0 0
43 25 25
63 19 95
66 53 26
56 66 64
55 54 78
18 54 58
25 95 44
94 12 59
65 67 17
48 40 15
78 54 14
35 57 10
15 81 27
25 23 76
38 67 67
62 85 23
96 39 60
31 41 44
79 31 65
35 13 100
16 65 15
64 53 30
30 55 80
84 35 32
57 33 95
93 11 100
92 38 60
20 65 99
50 32 20
1.02755
0.943237
1.56554
1.4536
0.857175
1.82684
0.890572
1.13214
0.700244
0.753377
0.701226
0.721358
0.64599
1.82032
1.15194
1.15595
1.57673
0.66281
1.06005
0.470237
1.5862
1.13153
1.43007
0.92119
0.917039
1.46318
1.95355
1.27836
0.578605
0.962119
119 406
178 430
61 216
303 152
377 476
51 363
370 323
210 299
214 257
317 101
45 394
223 498
108 320
389 192
104 126
316 291
150 305
180 381
411 495
460 462
175 62
366 417
266 245
80 310
227 399
432 8
448 457
135 275
364 131
493 489
1464
5
