30
3
0 0 0
17 65 60
34 100 67
78 66 42
93 59 82
80 90 52
30 63 26
55 49 70
55 30 61
33 94 64
46 67 19
77 69 52
90 84 38
36 10 100
84 36 88
66 58 62
88 56 54
23 44 87
91 78 50
98 68 37
92 44 82
35 84 16
26 31 69
61 85 92
81 51 24
87 38 94
13 10 22
86 31 97
98 20 73
50 27 65
0.993849
0.434106
1.41173
0.693904
0.959882
0.569517
0.371659
1.24544
1.4259
1.16336
1.37029
0.795925
0.454507
0.470271
1.23325
0.322999
0.881908
1.33556
1.14461
1.08417
1.22031
1.23858
1.25793
0.447306
0.583219
0.546813
1.15279
0.603594
1.01891
0.908358
179 370
55 369
458 253
420 375
188 35
94 438
439 129
41 101
343 325
497 480
440 336
295 300
154 404
140 46
75 3
304 413
500 295
378 340
330 309
469 55
179 215
115 394
405 485
261 479
99 388
404 172
474 173
307 119
426 54
470 243
2147.5
4
