30
3
0 0 0
77 70 18
94 91 79
20 24 48
91 94 48
87 45 35
32 37 94
39 26 34
83 75 91
67 16 83
35 69 73
96 17 92
52 88 59
86 49 78
95 79 55
70 19 60
36 74 92
75 76 87
22 47 41
41 79 79
59 70 10
74 29 37
33 59 33
13 57 50
62 35 46
16 14 95
33 83 12
25 20 58
63 85 71
26 46 63
0.481166
0.232978
0.330328
0.115775
0.312502
0.455399
0.3424
0.434677
0.356469
0.191736
0.321638
0.126542
0.150271
0.41072
0.440144
0.160729
0.43738
0.161106
0.175327
0.335289
0.257488
0.450572
0.308391
0.406896
0.444146
0.472114
0.381585
0.168501
0.454488
0.150755
87 139
383 152
228 216
370 333
381 364
323 248
291 309
358 317
371 216
70 95
365 132
398 459
83 236
135 298
339 340
341 338
355 478
0 446
421 236
78 203
435 473
389 286
182 424
279 281
191 106
153 436
178 280
68 91
257 459
309 261
2040
4
