30
3
0 0 0
90 75 24
60 41 81
83 15 83
33 35 52
82 31 80
81 41 33
42 99 33
11 88 54
62 19 51
15 68 28
84 38 56
31 84 24
50 27 94
59 61 25
44 56 82
29 71 46
51 38 95
55 21 85
13 31 31
54 51 48
44 61 15
76 74 57
11 52 29
62 60 73
25 18 72
50 86 64
67 38 37
63 70 26
57 89 30
1.82324
1.37265
1.51219
1.64174
1.15584
1.48852
0.795512
1.86757
1.02521
1.48436
0.943889
0.897893
1.79545
1.23304
0.78791
0.998119
1.42745
1.72211
1.43746
1.598
1.10195
1.9592
1.2903
1.76042
1.31528
1.8772
0.79208
1.81112
1.88609
0.709407
333 361
368 64
152 163
444 447
124 260
0 290
130 364
302 395
420 237
393 82
131 492
26 223
127 320
172 365
406 16
197 76
188 44
423 131
207 329
278 284
395 143
138 117
269 371
431 164
335 244
375 212
457 92
332 195
317 102
271 1
3775
2
