30
9
0 0 0 0 0 0 0 0 0
34 34 47 95 44 14 26 31 68
61 31 57 43 93 58 42 22 20
92 76 44 57 94 87 49 82 77
19 74 62 46 64 97 52 93 96
44 46 76 20 38 63 89 46 50
43 83 63 24 80 74 18 50 88
82 24 35 43 76 55 49 52 73
29 35 84 31 29 32 84 26 25
94 42 32 81 20 21 49 89 18
55 74 44 60 26 41 55 74 20
99 59 71 71 55 39 37 49 91
92 95 22 71 13 47 66 79 58
85 80 99 46 87 73 93 67 50
55 14 40 78 48 56 93 31 95
73 71 68 55 12 94 29 41 46
88 50 32 99 80 64 92 56 47
100 90 42 73 29 52 20 77 61
83 22 84 95 92 78 78 65 99
78 22 50 91 14 39 20 49 96
92 41 52 27 63 55 96 98 81
97 98 82 17 89 35 98 40 81
88 13 57 15 25 27 94 15 88
22 45 61 76 16 30 57 20 98
40 19 62 26 96 91 53 39 70
94 17 49 23 34 80 95 66 74
41 30 35 50 50 73 63 79 60
23 95 28 56 89 58 54 78 72
97 96 91 14 96 14 39 71 74
65 94 68 29 30 42 63 82 92
1.72933
1.54196
1.65082
1.54798
1.31374
1.98717
1.5887
1.38062
1.36068
1.79084
1.14221
1.06283
0.712526
1.06397
1.17242
1.75366
0.840384
1.91169
0.410993
1.27106
1.76589
1.35207
0.827799
0.844129
0.531684
1.55365
0.67072
1.05993
1.60059
0.766395
62 108
222 490
211 389
413 91
430 151
281 317
449 371
116 190
98 379
105 133
150 88
10 109
374 43
267 293
23 294
33 73
274 443
451 56
276 65
105 17
489 164
442 301
18 286
329 106
210 432
17 279
274 53
452 121
159 33
3 1
4232.5
2
