30
5
0 0 0 0 0
94 41 80 95 25
57 16 57 79 46
21 95 88 64 66
91 19 39 58 78
58 66 67 12 40
29 19 40 61 53
30 59 37 16 66
15 55 19 20 65
24 15 50 32 16
45 12 48 94 20
39 94 79 70 25
46 54 19 10 79
53 66 70 35 88
80 53 71 93 43
15 86 98 50 74
38 57 23 64 17
47 58 87 17 80
87 57 84 92 97
55 21 52 11 34
38 63 51 67 35
71 87 77 10 70
57 76 38 71 34
95 16 16 73 44
31 25 52 97 53
59 79 34 24 18
62 62 45 38 85
54 76 52 67 75
12 38 19 15 39
65 68 90 44 95
0.721521
1.42106
0.773905
0.559085
0.619444
0.760348
0.659487
0.446034
1.30654
1.08474
1.34552
1.28272
0.738436
1.48064
0.621749
1.29876
1.44212
0.635938
1.22257
0.803376
0.308149
1.16717
0.860426
0.641633
0.385311
1.27736
0.779438
1.16103
0.343714
1.16772
255 288
338 96
52 469
220 80
251 47
472 278
30 133
462 485
262 192
24 304
146 129
292 103
51 138
211 230
213 14
29 170
38 474
238 361
406 393
97 34
102 201
426 1
329 25
386 280
273 44
223 44
15 336
330 333
372 309
164 123
2540
3
