30
3
0 0 0
30 37 57
72 93 68
92 95 89
74 87 11
76 32 59
66 60 54
65 67 25
32 91 55
63 26 27
37 23 87
39 16 16
49 88 61
75 35 69
66 55 33
54 59 49
86 50 86
42 91 72
26 58 91
83 69 60
84 39 23
75 39 22
84 88 82
25 46 83
41 19 81
11 85 18
15 56 91
60 21 34
95 61 51
50 11 76
2.13539
1.36444
1.91005
0.756545
1.89227
2.00497
1.23793
1.80068
1.69914
2.38875
2.18171
1.84167
1.70283
1.58683
2.15734
1.07237
0.848862
0.750759
1.32715
1.55125
0.957323
0.659246
1.35363
1.50659
1.85743
1.51193
0.931852
1.97579
2.10225
1.84245
60 33
216 44
427 134
475 205
17 212
94 262
246 41
398 130
171 197
60 95
180 209
40 484
170 325
285 116
498 362
188 14
270 301
94 496
155 426
217 337
187 54
206 472
468 18
157 475
161 190
21 227
103 52
157 390
257 122
315 269
2718.33
3
