30
5
0 0 0 0 0
69 46 39 18 40
48 37 88 16 16
53 98 91 12 58
38 97 85 83 87
98 27 62 28 84
32 85 52 89 16
79 31 46 60 21
22 19 84 14 98
100 20 50 75 49
30 48 68 62 13
30 40 96 36 53
89 20 43 14 36
93 63 42 41 29
96 51 37 52 89
90 88 82 68 51
19 69 85 73 52
49 93 27 19 63
16 30 54 20 80
64 95 16 93 55
93 43 22 59 43
49 38 65 17 62
84 94 69 74 51
91 20 57 67 75
92 44 50 52 30
73 38 81 52 99
99 49 25 81 89
36 85 81 17 58
22 23 46 52 27
43 54 16 50 44
0.696889
0.7471
1.50045
0.924456
1.81641
1.20774
0.861257
0.744176
0.485394
1.86351
0.701605
1.31449
0.766856
1.28391
0.810149
1.80248
1.11619
1.0447
1.7063
1.64225
0.933682
0.521436
1.02103
1.34688
1.98547
0.816162
1.43366
1.42968
0.765497
0.480877
422 193
294 461
46 284
36 270
249 120
102 373
7 63
124 383
428 280
233 306
266 408
462 29
300 20
142 145
287 430
4 0
257 92
125 185
329 58
16 186
112 165
172 414
290 452
44 341
176 343
471 203
360 233
458 391
376 302
339 481
3980
2
