30
11
0 0 0 0 0 0 0 0 0 0 0
45 80 42 50 46 24 43 13 90 82 65
53 62 59 36 100 100 67 84 79 28 65
24 90 84 80 94 31 79 73 71 50 82
22 11 45 45 69 85 83 40 11 52 45
12 81 62 60 44 50 15 35 10 39 41
49 49 41 52 78 35 34 41 87 31 78
62 65 26 46 14 22 81 100 64 66 68
59 41 37 61 62 34 14 49 11 11 45
40 66 100 46 90 78 62 93 81 44 21
19 38 32 79 21 76 82 31 79 52 55
50 37 21 21 24 41 85 46 91 12 100
17 80 25 25 96 25 42 21 21 62 70
47 74 63 19 97 27 85 75 88 83 98
53 68 21 56 77 59 52 10 81 66 44
11 89 52 53 75 10 98 71 20 72 71
40 69 58 32 20 96 71 94 92 55 93
69 17 99 63 49 47 28 63 19 35 76
54 41 61 11 79 24 61 99 96 86 34
41 29 94 29 83 47 56 94 100 85 47
99 54 49 41 73 79 33 28 92 29 72
64 46 84 53 68 74 97 59 90 41 32
66 42 15 94 81 11 44 24 75 56 38
89 52 50 48 86 42 73 72 99 100 67
33 51 97 69 84 92 38 23 31 12 50
12 59 89 19 14 81 62 23 58 13 65
31 44 40 68 70 62 87 22 82 97 37
47 27 49 35 84 51 99 15 82 16 33
15 57 48 19 57 36 56 56 95 10 79
19 97 90 38 11 45 78 46 12 40 48
0.341168
0.341601
0.259857
0.143673
0.263468
0.413921
0.195791
0.487391
0.237519
0.388314
0.380302
0.488515
0.305295
0.277833
0.491318
0.124407
0.351999
0.352795
0.181437
0.334426
0.35681
0.496111
0.456438
0.381826
0.470365
0.348541
0.434232
0.372759
0.3694
0.451449
80 265
335 179
38 246
254 22
300 317
437 19
17 145
467 64
102 383
228 391
251 216
37 354
422 314
486 498
184 463
271 175
15 259
497 443
418 124
315 216
239 457
473 493
349 366
132 454
246 197
360 473
408 496
389 430
176 355
86 245
7965
1
