30
7
0 0 0 0 0 0 0
74 85 27 65 77 55 31
68 85 69 26 70 26 34
17 98 23 15 86 46 20
81 31 63 81 26 81 95
89 74 12 82 91 18 48
90 65 42 75 76 19 13
24 40 98 32 84 58 64
38 88 64 42 40 10 56
44 95 17 10 11 54 61
67 78 42 98 75 63 77
36 33 91 80 81 87 10
65 71 86 41 66 55 42
80 41 37 42 18 64 40
24 15 57 15 98 15 26
100 25 76 97 22 77 34
58 80 94 87 80 53 38
84 71 50 96 19 90 100
73 35 66 34 40 78 99
32 94 64 51 45 42 69
85 76 86 47 50 73 53
16 14 58 98 72 54 82
68 27 25 53 49 77 56
28 38 16 22 33 57 98
76 91 48 71 16 36 84
24 44 54 45 60 98 39
60 19 94 55 62 97 55
12 32 16 43 65 18 73
72 43 96 55 27 51 58
56 89 96 53 43 14 91
1.93095
1.25866
1.53872
1.76118
1.1877
0.661046
2.01421
1.45668
2.34513
1.06237
2.15766
1.6779
1.75262
1.11468
2.38117
1.25971
1.97387
1.69715
2.20078
2.19217
0.592243
2.07871
2.00086
0.594867
1.23137
1.98213
2.31309
1.02878
2.13931
2.01064
276 195
381 163
297 27
28 271
129 435
151 180
261 190
387 405
301 476
169 172
452 195
165 350
2 308
188 105
394 207
78 232
445 103
494 128
97 260
12 59
59 388
105 460
249 396
112 224
182 42
395 19
52 143
321 229
187 361
400 243
2711.67
3
