30
11
0 0 0 0 0 0 0 0 0 0 0
24 22 42 70 21 93 96 39 13 29 60
10 18 90 25 64 12 40 58 67 25 10
66 37 79 94 95 19 62 25 52 41 16
15 19 13 48 47 55 29 47 79 73 11
29 81 96 97 89 16 72 19 91 98 60
26 89 63 71 14 41 11 33 61 57 33
22 75 79 64 60 66 95 11 96 48 92
67 95 46 83 82 93 50 68 38 95 84
55 71 81 89 25 54 10 34 94 33 17
73 30 16 12 15 100 27 70 67 94 92
56 96 48 67 16 91 28 51 95 49 41
19 40 79 13 67 88 90 55 10 71 100
72 13 99 49 80 58 20 90 56 86 30
32 99 26 67 20 88 36 87 81 55 50
82 75 72 73 88 63 26 68 93 43 71
74 70 18 92 18 18 31 43 43 21 88
92 13 79 26 70 21 24 28 16 73 46
76 45 58 29 15 54 58 80 43 65 21
27 14 96 15 41 10 46 94 77 14 14
98 63 76 60 87 88 68 13 20 65 22
91 13 16 51 10 82 53 62 22 49 73
16 98 63 71 44 23 39 26 61 100 16
16 19 43 94 79 28 35 16 84 51 60
99 51 82 99 87 58 97 73 26 87 79
56 36 100 75 73 50 88 31 18 86 91
93 26 33 77 36 34 36 60 38 73 66
63 100 90 16 86 12 76 73 56 10 20
31 86 46 75 38 28 38 89 72 26 16
33 97 53 96 13 20 74 68 19 53 19
2.15111
0.741692
2.00634
2.45448
0.614834
0.608788
0.649811
2.09302
2.2766
2.27062
1.7717
2.29232
1.0806
2.29174
2.29105
2.12598
2.3885
1.60767
1.76828
0.610992
1.89736
1.49622
1.30478
1.82608
2.07471
1.91719
1.70888
1.44477
2.38511
2.29746
362 194
386 373
162 271
277 474
329 418
303 241
287 144
110 30
227 137
255 68
198 379
239 438
15 93
243 465
388 321
428 374
182 138
395 105
285 268
121 341
357 434
135 435
468 345
74 123
308 421
38 82
217 234
420 397
399 297
100 382
3920
2
