30
7
0 0 0 0 0 0 0
72 18 15 42 36 41 51
76 72 37 56 45 35 45
28 23 64 91 71 15 53
91 65 43 82 99 64 97
69 45 39 87 18 19 73
73 77 73 56 13 74 60
96 86 67 47 62 68 16
46 71 19 58 17 99 80
79 75 66 18 65 53 40
24 21 33 33 25 41 25
50 12 82 62 64 42 87
57 80 59 30 40 86 38
90 30 65 87 65 41 95
66 29 81 95 40 13 73
100 21 67 55 49 81 25
73 71 42 53 64 32 100
22 15 94 72 53 86 85
63 88 44 24 56 15 44
67 45 87 71 36 92 66
26 22 89 13 77 23 67
69 21 33 30 81 83 25
20 42 79 14 63 10 67
69 94 63 28 98 56 51
35 31 31 63 25 61 35
24 99 97 26 12 20 29
74 33 24 66 39 11 23
53 43 78 65 31 88 42
69 93 15 82 88 56 98
65 31 92 58 92 81 92
0.157402
0.310789
0.114836
0.140348
0.344008
0.30587
0.166776
0.164552
0.167685
0.15402
0.390574
0.361902
0.441316
0.444229
0.15055
0.349175
0.192413
0.484311
0.385683
0.207711
0.385139
0.178783
0.244441
0.248797
0.242135
0.301841
0.398216
0.201556
0.204918
0.16157
138 398
192 437
481 229
34 69
200 361
190 339
225 402
63 295
56 147
192 111
450 401
121 72
283 383
451 91
278 98
453 143
259 492
131 489
9 482
356 65
182 488
112 149
262 366
417 471
13 330
234 245
149 340
59 346
50 340
138 479
2650
3
