30
3
0 0 0
66 97 68
87 96 67
81 12 78
76 79 22
89 45 47
10 18 24
65 23 51
42 61 60
14 97 27
44 40 72
46 91 75
43 27 69
11 66 99
60 36 96
72 43 89
63 41 70
76 53 19
16 35 87
99 30 58
45 91 68
87 47 34
90 18 77
73 75 88
69 67 77
16 26 69
10 35 84
23 46 80
23 99 52
77 51 10
0.960178
0.420164
0.607345
0.705378
0.479731
0.966417
0.635849
0.916653
0.441723
0.331058
0.243617
0.618097
0.747627
0.466805
0.347346
0.215032
0.487864
0.729852
0.255831
0.787586
0.762932
0.620854
0.322409
0.958943
0.788848
0.224942
0.874472
0.571159
0.669402
0.474348
479 49
156 73
366 197
328 254
319 112
158 441
389 78
277 400
131 447
495 23
126 215
476 320
300 88
128 336
212 16
146 448
40 82
182 239
181 147
95 142
339 245
25 64
297 351
207 465
280 349
494 454
84 11
79 294
371 42
419 293
2056.25
4
