30
7
0 0 0 0 0 0 0
76 54 94 36 13 73 16
97 38 11 83 45 45 79
86 60 99 63 98 68 16
97 23 36 39 20 94 84
75 67 25 76 59 86 15
21 52 13 23 42 53 90
37 49 94 20 49 86 77
79 89 14 74 72 13 68
23 81 39 41 94 18 86
13 38 27 23 94 96 76
87 96 72 39 16 74 64
68 93 84 25 76 55 80
13 20 52 29 38 81 97
37 58 24 40 70 48 84
19 88 31 74 41 75 65
87 68 12 20 25 38 74
25 41 47 63 86 29 78
97 15 56 35 46 25 87
80 82 38 11 47 47 35
12 85 48 49 75 26 71
53 44 20 67 45 77 31
75 73 78 10 71 61 36
22 38 89 84 40 22 43
81 26 48 52 51 49 61
76 97 66 40 10 86 62
10 82 32 70 46 59 83
80 36 52 12 10 14 86
59 21 79 28 84 17 63
41 100 54 98 29 31 98
0.912184
1.78323
1.77619
1.11989
0.697831
0.575541
1.03099
1.07361
1.40728
0.441654
0.827746
1.23747
0.906711
0.9695
0.953151
1.0059
1.18005
0.706891
0.953647
1.88278
1.02413
1.25894
1.51145
1.88149
0.595716
1.22288
1.29939
0.472465
1.49564
1.21625
19 291
261 48
158 241
387 421
351 245
89 444
185 284
229 261
295 472
261 276
69 310
278 418
160 341
94 301
95 175
216 272
280 474
192 134
368 225
306 258
239 468
79 164
426 0
454 169
375 458
380 188
207 341
87 442
48 368
3 438
1577
5
