30
3
0 0 0
33 88 77
43 52 70
100 50 27
69 70 56
13 17 46
34 99 18
63 33 20
13 98 55
10 55 17
23 38 51
28 14 23
83 23 72
66 37 90
10 83 28
48 12 32
37 57 42
37 14 80
37 68 30
43 49 26
37 97 42
77 75 42
15 97 83
93 58 43
50 91 37
61 56 98
20 30 94
47 13 87
40 85 38
23 25 28
1.18717
1.32989
1.09882
2.08097
1.08563
2.03921
1.98894
1.20036
1.8434
1.87504
0.78019
2.20191
2.1676
0.854701
1.62095
1.94808
2.16424
1.52432
1.46366
0.863855
2.23932
1.24957
1.22175
1.47765
2.47655
0.697447
1.60586
2.24047
2.30172
0.702281
358 259
447 292
74 433
193 438
225 50
151 87
440 362
262 344
135 434
470 388
467 208
241 400
286 465
53 132
47 86
118 463
296 160
376 426
205 56
266 188
378 211
229 6
141 252
157 360
308 323
446 152
156 397
460 47
368 438
101 129
3572.5
2
