30
3
0 0 0
14 84 35
74 58 65
99 92 20
25 90 49
67 51 88
81 55 37
60 67 26
17 97 93
28 31 45
56 45 40
73 95 53
67 27 47
68 86 36
55 12 91
92 15 59
41 92 66
51 38 27
32 62 23
86 19 27
47 26 26
91 53 52
81 23 85
75 59 44
25 28 19
37 10 36
32 51 41
10 88 66
40 42 14
63 53 22
0.980052
0.700279
0.629671
0.707014
0.266339
0.443439
0.467822
0.99618
0.942759
0.578498
0.722323
0.31823
0.218911
0.752907
0.397018
0.480675
0.395705
0.689833
0.39618
0.241158
0.224348
0.912388
0.445814
0.437437
0.516396
0.886858
0.824316
0.713969
0.368844
0.930673
360 222
222 480
69 403
241 128
357 499
389 100
0 472
8 426
494 228
384 301
456 441
57 488
199 377
162 81
239 19
431 304
459 446
467 313
465 18
79 175
301 121
464 417
256 86
257 200
254 39
81 279
25 424
500 297
148 137
38 140
7445
1
