30
5
0 0 0 0 0
64 95 11 69 37
55 64 83 100 89
96 52 84 55 84
67 31 82 38 27
49 82 15 33 41
81 89 96 67 30
86 52 68 75 34
59 65 18 96 29
94 29 95 65 43
51 77 88 85 93
66 48 90 32 69
24 22 81 23 19
66 21 56 78 77
39 39 27 28 44
73 44 87 87 53
77 82 64 57 99
35 90 30 26 38
69 68 83 50 81
72 87 20 44 59
27 94 26 32 59
99 22 78 87 41
66 67 49 15 19
10 77 94 97 55
56 83 17 71 37
82 61 34 84 28
83 85 34 43 77
90 53 24 64 57
94 88 85 64 51
93 23 56 87 40
1.95986
0.869594
1.11997
2.44137
0.724616
1.48735
2.32845
1.47009
0.939489
1.46287
1.86029
0.935268
1.5394
1.14574
1.50924
1.16677
0.791816
0.941894
2.42914
2.47311
2.4828
0.935126
0.559006
2.26541
2.19372
1.25349
1.11816
1.16513
2.35038
1.06808
201 270
41 460
198 470
496 16
344 323
86 380
444 202
269 141
244 348
346 293
243 198
112 38
425 176
102 172
272 448
4 284
164 366
146 447
31 455
227 41
123 101
336 327
291 500
36 487
97 477
315 323
361 159
301 76
400 12
483 496
8650
1
