30
5
0 0 0 0 0
79 95 67 54 53
97 71 52 23 14
38 67 97 70 53
20 63 40 44 73
78 63 19 40 82
93 88 30 15 18
68 48 72 26 54
98 67 37 58 97
72 88 82 76 22
73 50 42 23 47
31 69 67 51 65
18 25 44 20 48
37 75 81 68 55
15 99 89 80 90
98 65 81 91 81
48 96 100 100 71
18 45 24 57 55
88 78 45 49 56
47 26 54 61 16
97 19 44 57 71
62 99 79 42 57
44 83 83 24 33
56 92 81 98 51
61 89 93 12 100
48 84 67 47 50
77 12 76 34 96
79 48 77 80 45
56 88 36 31 40
64 61 61 59 80
0.450232
0.178826
0.395103
0.191058
0.48321
0.451135
0.134096
0.187034
0.496199
0.11732
0.327568
0.26182
0.245393
0.382577
0.365842
0.30472
0.210277
0.487681
0.379722
0.471641
0.261456
0.21656
0.351911
0.267553
0.198693
0.411376
0.405349
0.387234
0.43674
0.228614
33 230
104 373
152 379
460 170
445 288
223 147
483 426
440 287
437 112
217 177
372 390
430 473
306 252
466 252
357 334
287 351
418 7
196 387
370 175
132 60
121 317
54 234
120 207
358 266
20 373
11 352
257 441
388 140
433 338
192 316
8695
1
