30
5
0 0 0 0 0
88 16 21 82 56
45 34 12 80 98
86 53 64 11 45
27 55 43 55 81
61 72 52 63 66
92 21 55 41 67
77 62 100 66 59
58 88 48 58 79
67 34 90 61 97
68 63 47 72 14
73 52 14 85 10
45 22 99 34 55
50 66 100 95 68
12 31 35 34 20
55 20 98 84 49
22 52 97 99 87
59 92 95 32 65
81 23 47 10 13
88 76 94 10 56
17 70 74 80 99
84 28 64 39 44
62 93 80 93 77
90 29 16 35 30
90 99 72 66 37
99 41 39 44 15
100 48 63 28 57
91 86 36 70 89
48 98 30 52 95
38 82 36 43 100
0.430704
0.604252
0.301063
0.658645
0.549
0.830154
0.712144
0.839806
0.279042
0.412465
0.583497
0.406731
0.580331
0.767847
0.916819
0.405577
0.670147
0.257165
0.360921
0.862207
0.699559
0.87667
0.616091
0.600572
0.775481
0.506522
0.314057
0.205087
0.389751
0.792304
132 27
354 315
58 124
319 55
351 298
277 103
106 366
452 265
312 355
261 241
35 213
390 440
362 321
219 201
456 34
269 272
181 442
147 198
190 240
157 208
343 131
59 4
49 433
361 95
172 316
51 440
228 325
57 129
412 349
278 220
2137.5
4
