30
3
0 0 0
18 80 98
27 37 48
98 32 58
48 42 93
17 35 56
25 53 62
14 50 14
29 62 95
97 20 78
12 57 26
66 99 91
17 42 37
82 20 77
67 51 82
68 41 90
40 60 89
40 19 80
57 13 15
54 81 82
57 75 61
60 71 30
26 21 13
58 98 70
17 29 71
21 90 27
80 26 68
29 17 85
23 24 21
42 38 32
1.34472
0.562133
1.43139
0.443133
0.686239
1.29145
1.63997
0.914711
1.98409
0.859448
1.88302
1.85354
1.60528
1.30537
1.51694
1.29602
0.596939
1.47791
1.85987
0.983893
1.14438
0.935726
0.709006
0.998543
1.63582
0.441564
1.09185
0.932075
0.48146
1.66558
1 269
178 15
212 152
440 326
268 244
56 163
366 353
154 354
285 450
321 139
359 105
498 161
406 80
19 497
495 266
139 263
370 265
343 184
176 25
177 80
86 172
386 134
43 56
233 394
66 268
157 255
486 132
275 326
491 45
115 115
2455
3
