30
5
0 0 0 0 0
78 49 11 45 49
15 70 87 95 65
24 41 94 82 25
29 38 76 81 97
73 25 44 49 56
96 48 64 84 76
36 37 51 86 91
52 18 90 96 40
26 93 43 74 57
29 92 15 12 48
15 72 24 26 47
12 61 59 96 57
52 57 98 17 62
15 43 55 100 100
68 14 49 17 66
33 95 86 38 88
77 89 95 93 73
68 17 18 54 77
13 77 76 45 46
82 100 36 93 35
42 23 19 44 91
85 43 16 81 79
98 55 72 98 20
78 74 16 100 25
29 46 66 57 40
92 42 65 34 87
65 100 12 26 10
35 99 58 34 55
31 58 44 68 39
0.879865
1.26958
1.39234
0.841484
0.869465
0.726407
1.42343
1.22928
1.17447
1.7587
1.37174
1.68372
1.71327
1.75784
1.62813
1.66291
1.55873
1.7878
1.9592
0.931271
0.408969
1.57126
0.453929
0.946142
1.14233
0.656393
1.02379
1.70603
1.45403
0.88978
75 223
410 346
302 43
422 161
228 243
316 476
494 457
276 223
57 482
463 412
312 192
135 316
491 34
96 364
487 40
323 86
358 186
264 108
272 178
81 385
171 287
207 150
293 268
480 173
207 37
413 484
116 346
371 15
301 205
158 8
2046.25
4
