30
5
0 0 0 0 0
17 83 79 66 76
79 18 75 20 17
90 85 39 34 57
49 35 35 46 57
72 23 54 91 58
72 89 42 42 75
40 19 65 75 63
53 30 38 49 92
21 94 80 50 32
66 77 36 60 48
53 64 31 95 37
57 26 47 52 58
99 16 59 82 80
67 66 64 34 47
57 66 66 63 49
75 13 34 11 63
41 85 62 58 42
62 64 45 58 53
74 81 57 20 36
73 43 43 49 36
55 25 41 45 85
48 74 90 65 96
68 58 99 52 65
77 49 69 60 19
39 90 36 36 90
58 98 100 27 32
71 77 11 66 48
17 12 25 48 19
46 49 14 53 91
1.66183
1.06227
1.85938
1.97706
1.76367
1.15594
0.449765
1.485
0.738783
1.07113
1.17914
1.28225
1.83802
1.92479
1.3325
1.60436
0.69576
1.63331
1.11752
0.474247
1.60916
0.681553
1.87163
1.86531
1.95727
1.35865
1.93895
1.10361
0.613123
1.79996
249 498
38 173
368 131
255 447
461 292
392 99
203 260
328 286
141 103
50 229
262 250
54 345
328 456
200 129
131 7
38 418
244 395
461 10
259 419
8 410
99 145
120 296
256 286
204 310
90 190
230 211
181 64
245 271
321 26
457 319
2655
3
