30
3
0 0 0
96 35 99
76 23 84
55 87 54
83 63 36
40 76 12
72 77 61
77 27 37
38 84 32
88 93 43
96 17 40
98 23 18
20 79 95
16 74 40
23 51 92
37 76 14
77 71 74
87 48 38
51 26 49
63 74 100
72 86 69
54 21 81
29 56 75
84 53 41
15 63 93
33 33 37
75 14 75
43 70 60
78 51 84
98 80 50
0.435023
0.393664
0.499666
0.294713
0.174122
0.138541
0.273649
0.426262
0.183451
0.238648
0.300753
0.328026
0.196879
0.22844
0.423623
0.339708
0.117849
0.413154
0.244372
0.200625
0.268681
0.174222
0.189533
0.403006
0.400221
0.319068
0.481878
0.380163
0.15793
0.294132
352 346
216 442
395 232
236 434
457 225
81 460
110 21
457 297
170 78
236 260
36 281
314 432
48 229
480 79
477 371
63 96
422 208
40 87
168 376
59 321
145 382
112 426
364 202
115 133
90 232
477 417
315 338
246 109
434 258
314 70
8480
1
