30
11
0 0 0 0 0 0 0 0 0 0 0
99 12 62 24 30 67 21 43 79 63 36
24 38 86 30 43 51 42 27 58 98 57
52 29 18 34 29 84 86 19 10 82 86
41 21 66 86 67 85 26 49 45 84 79
39 21 70 61 61 80 92 66 49 18 15
58 100 89 97 21 36 17 26 42 34 51
61 96 18 95 54 32 85 39 64 22 10
67 90 14 98 24 80 68 94 100 17 76
61 90 84 73 44 60 84 84 23 67 64
43 21 99 38 21 53 91 69 42 44 13
59 45 84 42 93 59 84 34 49 20 38
53 43 91 36 71 21 21 66 92 95 44
93 25 38 39 29 73 69 55 32 90 45
55 25 43 77 20 81 95 86 83 68 50
42 40 52 14 63 38 12 60 18 78 37
19 87 57 58 55 49 46 12 66 100 100
74 55 39 89 37 84 89 71 68 78 10
51 56 70 64 36 22 93 44 39 23 54
18 26 85 88 42 11 71 13 21 96 99
13 78 85 44 81 85 63 57 94 83 61
100 66 17 50 96 14 53 95 84 53 47
10 71 71 59 99 57 39 63 36 61 52
29 14 13 46 84 95 77 100 21 87 40
63 76 32 83 50 33 50 52 46 54 38
72 53 28 92 44 60 15 75 71 35 16
79 66 91 91 25 25 37 58 81 56 51
81 42 85 42 50 53 98 60 58 72 80
82 78 52 45 15 75 55 35 25 20 36
93 90 88 83 59 86 52 24 20 20 88
0.313449
0.1388
0.465451
0.260655
0.35747
0.131044
0.321412
0.283657
0.398532
0.480942
0.183917
0.322104
0.156505
0.328036
0.291931
0.263537
0.201607
0.439873
0.190517
0.344711
0.393357
0.347963
0.312504
0.425426
0.454583
0.40234
0.179843
0.418856
0.455205
0.259992
441 199
264 307
74 358
284 404
394 357
150 331
77 151
391 61
219 374
387 170
112 126
126 171
25 283
94 498
204 317
283 417
323 89
207 342
307 88
133 495
30 418
116 217
250 300
470 360
194 334
188 450
436 10
273 413
486 66
198 102
2695
3
