30
3
0 0 0
23 51 23
90 16 16
47 30 62
57 55 31
44 73 13
31 97 89
69 66 69
68 26 75
81 50 38
59 42 65
75 27 23
71 49 74
31 48 47
32 17 72
68 75 47
86 55 49
58 12 93
72 34 30
10 69 66
39 27 15
53 46 19
95 77 10
31 19 76
66 22 63
29 56 59
57 41 90
72 46 38
82 83 90
32 29 44
0.616587
1.96449
2.04282
1.8752
1.15949
1.75405
1.82639
0.799115
2.19219
2.47105
2.39852
1.25507
2.24144
2.26485
1.52544
1.28526
1.70959
0.951333
0.882265
0.798573
0.714649
0.816236
0.896705
0.506791
1.96343
1.87079
2.20828
1.70436
0.868797
1.15789
155 402
386 22
305 372
490 482
195 240
131 201
165 381
449 434
104 289
219 108
353 262
124 482
364 488
373 299
388 430
455 491
271 398
386 391
131 429
460 70
54 80
305 208
3 235
179 160
330 424
304 271
317 354
473 388
379 111
9 103
2473.33
3
