30
9
0 0 0 0 0 0 0 0 0
77 35 28 23 41 12 64 10 26
13 48 47 44 86 34 29 54 24
27 98 19 13 49 60 61 48 32
50 74 33 72 66 68 85 93 88
45 23 20 64 92 59 21 53 23
22 26 41 58 75 57 11 98 71
45 34 57 72 56 53 49 94 57
51 80 83 13 13 32 17 89 33
33 85 10 79 76 19 92 26 68
82 87 62 58 34 50 90 74 24
78 30 82 64 44 20 35 75 64
24 55 28 48 94 97 61 31 43
46 72 15 73 84 90 84 81 74
47 43 12 61 49 17 56 13 19
42 97 16 10 46 34 60 60 49
63 85 24 68 84 61 99 51 35
17 68 99 97 69 18 86 41 71
52 56 44 77 10 12 17 32 22
62 13 17 86 86 41 80 47 71
40 36 79 22 82 30 25 56 39
10 51 55 35 46 16 99 91 55
26 79 73 27 73 40 13 38 69
81 33 16 62 32 48 100 99 55
59 78 81 66 28 98 29 20 78
100 37 38 82 93 27 55 17 57
86 53 88 100 62 80 44 51 31
64 66 67 47 46 10 40 27 85
18 27 27 80 71 30 94 29 66
72 20 79 66 51 34 76 16 12
1.61734
1.94559
0.474571
0.520746
0.974927
1.60317
0.58517
1.11542
1.56061
1.28231
1.29901
0.437088
0.697692
0.668517
1.69439
0.769046
1.65603
1.6297
0.645227
1.68516
1.03974
1.09504
0.78457
0.856329
0.828231
0.685722
1.7542
0.587066
1.13383
1.41708
61 77
70 28
193 384
185 9
149 342
142 197
20 64
112 61
14 466
342 488
233 325
267 128
51 159
445 323
58 143
372 53
320 374
47 426
307 240
253 274
490 466
9 45
256 177
357 300
58 18
215 446
383 344
429 158
153 316
162 86
3787.5
2
