30
11
0 0 0 0 0 0 0 0 0 0 0
76 79 89 70 63 40 23 24 99 84 97
47 45 41 79 14 75 37 13 38 24 92
20 84 45 68 12 14 15 70 94 89 94
51 77 96 31 86 53 60 76 87 75 49
29 50 96 43 99 34 53 13 40 71 64
57 36 16 69 33 87 72 29 45 62 11
87 65 66 15 71 90 29 93 32 53 12
35 27 98 93 88 80 91 19 95 99 66
57 92 74 58 55 60 34 22 42 20 57
77 72 24 16 73 53 19 63 12 46 70
95 59 87 63 86 57 54 67 58 66 77
87 99 39 72 100 100 61 24 53 41 81
100 93 98 29 27 36 69 48 43 33 32
94 49 70 15 55 13 25 11 76 59 62
19 96 84 28 77 36 96 58 15 20 52
60 55 81 30 100 52 38 16 10 40 33
50 87 93 97 92 58 58 50 38 67 50
20 36 37 24 58 31 88 70 60 42 94
65 79 33 49 58 75 18 99 77 62 52
22 39 68 98 85 90 65 30 88 49 74
86 28 87 41 78 28 65 11 12 29 17
17 96 95 53 54 84 17 68 56 64 99
74 90 39 57 55 76 54 91 53 16 17
28 63 32 83 31 24 13 90 16 58 29
98 34 29 24 79 92 99 54 10 83 54
79 92 63 27 50 84 52 10 47 81 92
79 15 87 20 13 38 40 79 37 50 86
84 52 53 41 23 28 64 57 88 96 30
12 30 32 80 68 35 64 27 23 13 65
0.790472
0.515952
0.4053
0.610704
0.741551
0.481994
0.313462
0.375198
0.967985
0.497733
0.313858
0.901259
0.226333
0.945189
0.897767
0.916218
0.471311
0.327152
0.925472
0.841821
0.285428
0.701552
0.744849
0.524704
0.817862
0.737555
0.246851
0.803873
0.358301
0.735993
169 124
238 105
118 106
68 79
315 200
285 217
155 297
325 177
75 106
73 254
22 186
364 170
129 347
258 309
44 325
497 230
354 257
427 401
131 46
241 473
478 272
99 34
378 18
187 84
435 86
168 319
108 128
337 356
89 282
331 298
4057.5
2
