30
11
0 0 0 0 0 0 0 0 0 0 0
94 35 55 41 76 66 78 43 74 23 24
94 77 84 85 58 83 81 87 80 10 89
20 75 23 81 20 60 85 85 69 40 50
28 24 13 76 58 94 52 81 33 53 38
26 11 85 81 29 28 70 71 54 55 44
94 80 83 57 37 24 89 72 85 18 38
17 39 92 48 98 91 55 71 51 25 47
14 22 15 93 65 52 68 80 92 90 22
16 35 49 55 82 25 12 92 59 88 36
54 94 42 84 59 11 24 71 54 13 58
91 56 82 49 25 10 75 92 47 72 85
93 14 42 76 76 40 40 44 63 53 26
13 20 74 16 36 70 99 10 30 63 17
37 82 98 10 53 63 12 29 87 23 89
71 72 75 18 30 47 58 36 79 31 95
97 73 78 100 44 50 56 60 72 77 25
40 36 77 92 73 17 17 11 26 73 54
96 36 100 41 19 69 67 27 91 99 92
80 98 77 31 20 58 69 79 33 80 60
48 85 71 50 74 90 47 47 19 63 29
74 64 87 45 67 69 11 27 49 51 25
50 59 19 81 22 24 13 66 34 37 47
52 41 36 78 16 26 74 41 26 21 67
62 88 50 94 26 70 19 67 18 69 14
81 66 70 98 37 79 35 100 56 45 98
93 57 17 95 87 86 96 16 94 54 63
92 99 55 24 74 38 16 47 64 20 83
73 46 37 68 58 31 17 13 73 17 54
12 40 95 46 69 82 54 72 49 24 17
0.310279
0.896483
0.944069
0.978093
0.877065
0.974068
0.27626
0.702599
0.728905
0.919095
0.716378
0.554656
0.484467
0.533337
0.81756
0.659992
0.736806
0.53976
0.442274
0.344824
0.482718
0.924912
0.780891
0.429502
0.489201
0.565472
0.689955
0.759733
0.878749
0.350051
351 276
155 368
356 500
431 106
458 483
248 328
309 457
124 404
20 183
470 329
83 434
35 467
447 118
293 260
388 15
222 434
385 331
180 471
90 191
260 313
392 390
88 468
162 374
211 387
400 332
142 436
403 202
230 25
252 449
75 285
2002.5
4
