30
11
0 0 0 0 0 0 0 0 0 0 0
25 96 41 17 16 21 62 90 61 76 100
43 50 96 97 69 12 75 85 47 66 84
18 11 10 98 66 74 69 94 98 19 42
89 27 87 24 46 75 44 12 52 51 68
87 60 43 49 14 37 18 36 33 70 59
59 96 77 52 61 11 57 44 64 17 24
57 23 96 28 70 77 54 24 53 17 16
63 97 50 88 71 95 44 99 93 90 41
42 68 82 47 57 79 38 80 49 59 25
98 100 95 67 78 96 77 72 76 45 39
36 64 78 89 13 28 33 71 54 55 70
73 44 56 14 44 85 36 12 43 35 12
41 19 50 44 84 85 24 67 46 67 46
100 71 94 49 46 24 19 71 50 49 84
43 23 23 78 92 70 69 39 96 97 93
73 11 93 78 88 28 78 68 46 60 27
85 73 20 49 72 99 42 15 93 43 65
74 47 99 91 65 77 88 95 88 74 91
82 18 60 75 95 75 80 74 37 73 92
29 88 91 69 44 71 79 95 51 23 35
29 66 21 48 53 50 42 42 47 31 47
89 52 32 26 13 52 77 82 83 99 42
64 17 23 47 19 33 93 61 81 83 21
45 23 39 34 77 10 100 58 21 66 54
76 98 69 28 71 42 85 69 40 58 84
73 50 56 77 19 87 76 34 94 83 23
48 35 89 17 20 68 44 48 60 49 37
55 77 13 98 21 90 42 67 37 48 78
11 22 66 32 99 29 49 34 97 68 96
1.94317
0.960625
0.717992
1.05006
2.41541
2.08088
1.991
0.544819
1.81069
2.43456
1.0345
1.01525
1.76047
1.3712
1.94742
2.37883
1.59204
1.19524
1.96891
1.05217
2.35428
2.32092
1.17204
2.31953
2.27816
2.48416
1.98397
2.06576
1.9332
1.16247
9 385
261 27
469 166
442 32
469 221
460 422
420 189
39 133
377 292
56 366
96 438
320 459
312 259
32 96
167 15
52 305
203 269
449 233
148 374
454 94
49 232
360 7
196 336
303 128
326 293
459 143
293 284
432 292
13 294
400 88
2778.33
3
