30
9
0 0 0 0 0 0 0 0 0
52 19 73 82 42 48 98 34 70
99 30 70 42 40 51 32 28 55
31 97 89 98 57 60 37 85 61
27 36 87 66 10 39 12 65 59
84 85 89 22 22 17 41 73 78
98 76 72 63 77 18 64 88 89
12 62 45 73 63 40 61 63 87
71 64 27 41 12 72 58 96 91
89 11 76 57 17 49 31 42 35
80 30 43 78 30 14 52 64 99
19 87 62 100 38 72 57 29 68
15 20 16 21 34 42 87 55 30
36 13 15 48 83 54 84 84 50
54 58 42 58 90 59 53 28 14
21 70 46 43 53 58 28 40 46
29 88 66 38 72 14 57 100 16
94 71 96 47 83 26 95 63 74
67 41 76 76 41 54 36 16 63
47 94 75 33 15 63 70 66 66
25 33 53 20 41 36 45 68 91
87 15 41 59 71 97 79 73 25
55 76 23 23 79 51 99 14 33
99 52 81 52 98 73 79 30 15
14 25 14 42 13 66 85 85 85
99 31 40 65 31 77 64 50 30
95 53 27 33 33 13 92 11 16
90 34 84 80 51 20 80 44 62
55 30 13 86 13 37 82 51 53
17 92 84 21 17 94 12 95 41
0.352201
0.881099
1.04611
0.941509
1.18798
1.17011
0.878555
1.25539
0.774915
1.11141
0.644949
1.23811
0.927471
1.45077
0.636506
1.21114
0.588093
0.594215
1.08298
0.848029
0.577728
1.43921
1.05608
1.28172
1.43412
0.920669
0.838203
0.439569
1.13533
1.27454
133 318
482 394
379 402
138 348
423 479
453 132
333 110
469 223
15 462
261 394
380 328
275 62
82 394
252 268
314 63
164 183
32 306
150 137
29 186
24 27
424 135
47 348
215 353
287 483
219 1
444 263
418 278
54 75
195 59
322 341
1566
5
