30
11
0 0 0 0 0 0 0 0 0 0 0
17 48 47 14 18 52 56 94 94 90 99
34 86 93 97 44 52 84 88 77 38 49
65 81 29 72 67 39 96 29 61 85 85
56 66 35 46 88 74 26 15 33 82 22
25 57 10 36 40 42 38 11 77 82 64
32 78 13 37 35 37 95 100 15 27 20
89 54 49 40 50 57 66 50 81 64 37
69 45 34 66 22 20 81 96 47 24 27
58 12 47 33 22 75 76 20 61 95 62
41 39 13 80 63 82 24 33 16 66 60
80 50 15 12 43 22 48 40 38 77 63
93 31 95 61 94 14 24 94 92 69 61
18 63 33 23 93 38 90 41 58 75 39
81 14 52 72 12 12 12 98 85 43 18
42 60 47 92 29 90 88 32 60 61 96
50 68 74 89 54 77 28 35 49 86 41
70 56 59 85 50 90 85 38 24 65 30
10 76 83 75 82 36 80 84 45 29 59
38 32 22 51 80 11 73 48 21 20 32
43 46 53 72 83 18 69 93 88 18 53
86 30 64 37 51 99 82 80 45 64 31
35 23 54 40 14 57 22 36 78 15 87
80 51 63 99 11 69 86 33 57 96 77
87 59 37 78 18 46 23 75 28 34 35
56 68 78 14 42 33 87 97 81 34 28
64 35 83 61 71 63 11 79 41 100 99
20 36 16 100 48 85 26 50 59 92 19
71 58 67 47 73 15 96 32 26 73 83
11 61 32 96 77 16 71 73 96 45 11
1.9829
0.736916
0.959099
1.38178
0.775038
1.74009
1.10824
0.772672
0.754495
0.894027
1.57213
0.892344
0.663459
1.363
1.89377
0.677125
0.727391
1.76577
0.414965
0.623817
0.986962
0.406911
1.13155
1.44047
0.75063
1.72958
1.86279
1.33294
0.856346
0.89246
355 113
385 266
258 13
325 283
388 173
429 389
194 403
445 160
67 51
82 483
195 14
443 466
434 362
289 424
30 233
232 168
321 206
39 163
368 420
99 155
425 169
47 233
199 177
425 249
56 276
122 226
314 458
27 265
440 118
353 89
1968.75
4
