30
9
0 0 0 0 0 0 0 0 0
44 71 100 62 97 98 23 51 16
59 46 35 68 69 30 53 52 24
47 92 36 35 59 86 62 92 71
90 45 19 16 38 68 25 10 39
37 75 81 80 39 33 98 13 82
63 25 38 80 14 70 59 48 83
65 93 99 51 35 52 53 69 42
92 98 39 75 11 66 81 87 95
22 55 90 98 66 47 23 24 77
50 35 30 19 50 86 52 54 86
20 76 70 62 62 88 97 70 64
18 66 95 12 17 91 79 31 37
77 10 73 65 88 26 34 12 31
94 31 78 19 98 81 96 75 37
71 69 99 21 77 42 88 15 37
97 89 20 28 85 62 79 51 32
66 82 30 47 44 13 94 23 66
23 38 25 19 50 10 67 94 61
54 82 23 14 21 41 31 86 83
51 63 12 79 13 88 60 27 71
71 56 45 63 47 69 15 87 85
38 67 37 63 99 52 15 96 32
60 63 84 91 16 21 71 46 81
77 37 56 79 75 33 76 100 55
22 49 81 100 67 74 75 27 77
16 19 13 95 35 72 58 91 59
66 18 16 50 24 42 19 69 44
63 70 84 42 32 78 62 18 22
88 43 52 92 72 59 81 56 16
1.12248
1.17028
0.588868
1.10253
1.5969
1.50315
1.72659
0.45235
1.08222
0.768694
1.4918
0.404622
1.71929
0.746252
1.54773
1.7549
1.10296
0.486717
1.44597
0.577928
0.934689
1.9272
1.44792
1.35864
1.50912
1.31819
0.650365
0.550806
0.776521
0.570104
363 34
247 231
483 3
240 3
448 349
421 454
208 315
407 53
411 164
36 202
86 428
447 377
61 267
483 419
166 478
128 141
317 337
100 424
28 479
254 9
486 488
462 459
265 464
24 1
211 446
54 22
42 226
75 109
14 43
431 17
1619
5
