30
3
0 0 0
39 28 88
26 38 47
72 33 41
43 64 14
75 35 51
69 94 41
11 23 67
48 51 56
12 83 63
19 49 40
63 94 17
97 22 64
48 14 52
85 34 89
46 37 26
10 58 11
33 29 88
23 94 36
54 63 58
31 32 79
74 32 90
88 72 24
42 68 43
90 20 98
67 16 21
57 97 49
36 41 72
18 89 20
42 17 93
0.417827
0.412405
0.204154
0.287962
0.288856
0.343991
0.425757
0.383046
0.162158
0.458663
0.371003
0.228491
0.365472
0.317174
0.115894
0.49308
0.168818
0.227345
0.100376
0.286053
0.111302
0.490146
0.120756
0.462463
0.463107
0.489868
0.13853
0.360718
0.478239
0.326081
483 355
28 84
146 302
20 1
288 360
128 234
439 291
245 377
44 216
270 417
336 203
495 243
148 247
73 363
452 414
364 289
40 400
167 191
115 112
140 348
77 66
191 367
340 230
130 296
110 130
484 193
370 276
189 276
312 398
205 500
3652.5
2
