30
9
0 0 0 0 0 0 0 0 0
52 58 15 39 34 35 55 82 91
69 42 100 28 59 42 82 100 53
15 80 87 14 33 12 29 19 40
23 10 91 20 40 24 39 72 78
42 63 16 38 19 44 41 20 96
36 45 87 61 70 73 64 57 23
50 66 65 66 31 20 25 98 40
68 71 11 73 59 36 28 68 23
70 83 49 49 13 16 89 94 82
10 91 35 24 84 21 68 24 33
66 64 84 45 68 97 61 13 80
11 57 17 59 40 90 26 70 63
15 31 78 86 43 43 27 17 71
85 52 77 97 78 77 56 85 84
52 91 82 45 48 85 70 35 46
88 87 74 76 85 56 60 67 98
17 79 26 36 95 56 43 41 94
33 31 88 49 52 28 18 92 95
24 63 91 82 51 96 41 27 80
69 19 97 47 49 54 50 45 46
31 33 61 23 27 82 13 96 88
34 10 60 88 60 70 38 53 16
87 20 65 62 45 95 78 81 84
36 47 39 79 10 26 86 98 62
37 24 52 13 15 73 63 78 21
78 56 17 99 20 18 95 87 15
38 69 55 47 51 57 96 91 42
43 58 38 87 38 66 17 56 71
51 37 82 61 25 15 70 20 93
1.79485
1.19762
1.7181
1.67574
1.8914
1.16154
0.920421
0.400535
1.20778
1.74709
1.36266
1.21858
1.63511
1.40888
1.74829
0.570414
1.00751
0.689288
1.65554
1.12218
1.10883
0.710854
1.48903
0.65939
1.53393
0.600487
1.06651
1.70044
1.33708
1.81754
76 370
229 336
81 67
278 332
134 275
358 476
182 264
263 205
287 136
460 470
2 280
358 350
266 193
211 392
171 383
206 360
416 175
128 239
439 292
340 256
493 389
435 23
77 44
135 391
471 438
220 249
135 102
23 123
267 278
92 424
7870
1
