30
9
0 0 0 0 0 0 0 0 0
68 57 73 17 84 92 31 80 28
16 48 13 24 94 62 82 63 29
94 49 19 39 43 99 74 16 57
26 60 24 87 31 45 11 31 64
79 98 79 42 64 99 75 75 39
50 25 39 63 31 45 23 90 88
63 90 26 14 93 20 85 56 22
16 37 26 10 57 96 34 23 95
88 23 50 100 34 74 44 40 69
77 88 38 81 71 68 71 73 15
31 11 41 82 67 97 26 88 61
76 84 40 56 18 14 19 92 84
81 99 55 56 29 88 22 61 100
43 95 69 57 58 17 74 46 65
60 17 39 18 61 54 97 64 43
25 50 91 93 71 31 61 79 27
32 69 72 35 79 29 100 84 57
63 20 15 82 87 80 83 48 32
83 14 91 24 55 29 82 78 94
49 57 22 25 86 46 94 46 44
41 91 94 33 51 19 25 90 43
84 49 75 73 57 49 43 91 91
72 72 27 11 99 16 48 14 58
90 31 84 12 20 63 80 85 100
29 15 74 86 82 11 89 24 14
30 40 96 100 48 69 77 69 73
70 44 33 96 77 97 34 57 53
60 67 33 38 66 50 95 92 20
99 81 79 82 34 42 86 22 64
1.30818
0.539992
0.930919
0.911425
1.34871
0.432991
0.989183
1.7702
0.478242
1.0405
1.31676
1.19833
0.770272
0.474902
1.89899
1.33706
0.734966
0.870037
1.94134
0.887537
1.97695
1.66574
1.35347
1.53313
1.03277
0.689253
1.52282
1.31437
1.61191
1.07346
43 313
365 430
176 46
135 28
210 365
463 433
236 350
117 151
57 385
444 206
338 189
142 438
181 36
311 261
101 431
94 495
194 172
62 173
312 3
404 336
57 221
12 328
141 258
68 151
19 390
437 489
144 35
321 144
12 267
140 127
2061.25
4
