30
11
0 0 0 0 0 0 0 0 0 0 0
87 55 55 71 89 38 95 100 13 46 85
28 91 36 39 35 52 17 50 99 58 50
61 21 27 45 20 25 83 50 80 43 39
68 60 43 86 31 73 55 84 29 40 37
50 35 31 53 86 20 89 71 20 42 62
32 50 75 25 11 29 64 62 97 19 94
39 40 19 14 96 98 66 50 59 88 91
66 64 16 83 76 46 85 22 70 44 53
23 57 19 73 52 92 98 66 49 45 69
48 67 45 51 94 77 15 50 84 81 42
46 87 64 44 16 25 44 50 38 68 72
31 95 10 91 74 16 53 69 48 21 14
72 46 88 88 58 38 64 82 82 26 72
72 70 13 11 19 36 62 38 10 17 82
60 86 77 98 53 93 60 10 80 30 42
68 80 97 29 41 76 80 70 51 14 23
62 77 82 31 89 15 74 19 84 77 79
57 20 32 25 40 41 78 12 73 26 27
91 33 56 34 59 77 18 38 49 61 90
100 32 67 96 67 96 18 83 85 34 19
42 98 49 51 15 89 64 78 92 54 94
14 44 54 23 22 98 86 81 40 56 11
48 22 34 36 46 70 84 17 41 85 37
19 30 41 26 32 56 20 25 25 23 41
79 81 74 46 79 13 44 70 17 47 20
21 40 63 37 37 68 34 65 52 25 95
26 61 38 26 73 56 93 66 81 100 17
100 84 92 49 79 45 93 48 61 68 36
91 45 35 56 97 56 51 57 83 31 56
0.456654
0.427557
0.355276
0.489249
0.359286
0.447326
0.456761
0.193537
0.362519
0.282471
0.28851
0.48106
0.472776
0.184517
0.457335
0.212339
0.312502
0.205515
0.447696
0.257827
0.398508
0.177331
0.243768
0.186033
0.156313
0.306827
0.309501
0.407723
0.369648
0.470733
314 204
244 271
205 361
435 364
301 137
36 60
394 168
358 406
112 297
256 66
272 245
43 487
469 458
146 76
14 335
257 473
373 202
72 286
252 394
270 44
175 209
188 289
331 343
287 416
23 476
439 155
139 314
481 276
145 301
52 311
2623.33
3
