30
11
0 0 0 0 0 0 0 0 0 0 0
28 26 62 73 66 81 91 38 66 58 78
33 92 57 93 82 13 49 80 16 64 75
83 66 99 26 74 15 49 97 43 28 21
94 19 14 97 81 15 91 19 38 33 84
59 100 70 95 45 96 65 91 20 13 38
93 20 79 28 71 59 37 31 54 79 86
38 84 36 100 26 77 60 53 87 44 86
65 73 84 40 22 95 80 71 73 30 46
67 50 78 46 17 49 26 23 99 68 52
66 61 59 77 35 64 54 84 60 61 27
89 64 39 56 64 21 31 81 79 10 91
20 47 26 98 70 37 16 40 53 18 72
61 73 99 63 56 70 36 55 85 34 38
51 83 59 11 98 74 61 60 28 61 75
55 93 68 51 31 13 44 16 68 47 72
98 61 29 60 97 78 11 63 22 23 56
47 77 51 30 53 66 57 48 18 54 48
35 87 69 61 17 100 84 98 13 75 67
12 53 67 75 28 66 30 22 70 82 79
47 97 51 95 82 57 57 42 59 41 34
28 35 52 15 97 19 34 43 58 55 40
54 34 74 65 100 37 66 65 85 74 58
18 79 39 57 78 83 63 66 55 50 61
98 77 19 30 88 38 37 94 10 83 25
81 60 31 100 59 87 88 46 63 67 73
56 32 41 12 64 40 32 14 67 62 49
94 18 92 93 93 100 38 13 84 90 80
93 44 47 60 70 37 25 91 33 62 24
13 20 49 14 78 82 15 70 85 76 42
0.335308
0.873217
0.683425
0.222551
0.617044
0.846888
0.838474
0.26248
0.641842
0.59302
0.892133
0.492749
0.37074
0.369266
0.889887
0.920613
0.80678
0.515886
0.954437
0.681208
0.357216
0.418959
0.674594
0.857943
0.689614
0.511812
0.2679
0.660271
0.726614
0.853664
186 148
477 249
340 1
278 111
114 144
405 486
330 359
129 134
233 215
143 149
126 5
476 250
150 154
426 100
364 20
285 463
161 228
86 68
4 446
36 361
1 402
199 236
206 144
225 9
485 369
443 399
464 7
149 320
40 7
287 287
2058.75
4
