30
9
0 0 0 0 0 0 0 0 0
20 63 19 48 48 87 57 26 32
14 49 47 33 95 63 51 83 20
59 74 11 77 99 98 58 67 13
62 26 34 35 19 11 21 75 28
70 38 76 46 51 35 10 12 26
42 84 23 28 47 75 65 99 64
67 19 38 94 44 52 33 80 31
18 70 67 87 38 36 83 61 61
60 77 33 24 15 33 35 82 15
94 48 49 18 85 59 50 23 27
45 33 96 94 36 17 70 24 41
60 23 15 41 89 35 20 17 50
27 45 73 13 79 10 89 13 40
42 78 87 40 56 33 32 24 11
27 27 25 59 33 19 40 22 44
93 79 86 31 68 41 49 28 72
34 71 46 94 71 84 21 36 34
85 75 30 60 42 70 99 72 38
40 76 19 47 63 79 66 57 19
32 61 27 62 74 58 77 28 31
59 91 52 35 94 78 77 51 45
57 42 35 40 53 38 82 20 60
64 23 88 100 100 38 56 82 14
89 53 34 14 16 37 54 11 88
65 98 50 17 43 72 20 60 21
71 75 24 22 15 74 59 42 88
27 17 58 87 57 21 66 74 61
12 83 97 51 53 42 61 76 19
100 69 51 67 99 93 18 32 11
1.9743
1.97151
1.8093
0.803693
1.12045
1.23399
1.36918
0.892442
1.57652
1.3409
1.01666
0.907644
1.04465
1.26961
0.680018
0.808687
1.69069
1.87355
1.32195
1.80762
1.38462
1.69952
1.55151
1.25503
1.66439
0.512612
0.670636
1.94465
1.94262
1.26922
101 125
67 374
234 369
280 474
118 313
300 84
172 370
188 284
484 492
332 463
311 291
80 307
227 427
136 324
143 270
210 339
412 120
346 115
219 170
455 401
2 221
455 428
66 221
48 58
33 185
74 449
182 148
215 443
440 129
282 401
1469
5
