30
5
0 0 0 0 0
89 66 80 48 49
90 39 14 66 44
13 16 69 67 20
68 15 27 37 35
98 36 84 64 63
45 98 39 70 38
83 98 48 33 74
85 83 97 32 35
12 79 88 42 73
54 68 29 39 67
91 46 73 82 52
63 39 78 51 62
61 99 88 70 50
72 90 21 13 54
38 80 24 19 100
78 11 64 71 21
23 93 86 64 52
62 60 95 48 60
55 79 22 59 58
34 59 85 43 92
13 15 12 20 80
26 46 64 19 100
56 27 89 25 79
40 75 23 26 98
22 32 71 96 20
78 91 14 25 57
57 69 87 47 37
92 61 37 68 50
72 81 68 24 94
0.966823
1.48669
0.810257
0.321819
1.30315
1.20816
1.46025
1.3724
1.43523
0.683326
1.25512
1.44113
0.696091
1.33084
1.16427
1.14546
1.44213
1.48983
0.807181
1.47374
1.28542
0.346487
1.40409
0.313034
1.12958
0.446897
0.761289
0.415825
0.970988
0.449169
25 486
439 437
49 168
469 137
92 428
418 384
176 249
81 51
358 442
349 127
367 96
401 463
237 91
413 220
463 372
486 441
177 56
491 128
277 255
81 360
431 55
3 16
149 407
470 210
489 349
482 246
371 106
265 446
214 280
238 418
1635
5
