30
3
0 0 0
78 49 14
27 14 16
74 87 79
84 84 69
99 65 32
39 81 43
38 90 37
100 93 93
42 20 35
31 15 27
28 61 19
27 96 55
21 49 41
68 59 62
92 78 94
78 56 55
83 86 100
37 41 81
26 29 77
71 43 66
28 36 10
45 23 62
30 78 87
56 88 85
97 49 31
15 80 70
38 85 48
22 22 42
96 42 11
2.25157
1.47384
2.42438
0.873146
0.831413
2.30994
1.99788
2.19518
1.87834
0.772817
0.849111
2.00355
1.70972
1.92877
1.18472
1.39576
1.60314
0.828901
1.59074
1.01132
1.3191
0.817997
1.54207
1.46726
0.958701
1.96508
1.34292
1.94134
1.47567
1.60172
260 141
213 416
258 166
368 242
428 108
389 245
187 331
136 124
178 410
341 398
442 156
394 465
346 45
443 185
417 461
277 469
75 34
344 230
374 165
251 433
252 49
185 128
16 290
59 220
140 314
288 89
160 134
252 107
186 169
37 424
2671.67
3
