30
3
0 0 0
70 45 16
87 16 14
73 31 16
15 16 49
87 39 76
73 41 21
47 27 88
33 11 64
76 69 79
19 28 49
36 41 15
24 76 63
20 11 44
92 51 90
59 38 11
69 95 86
44 75 85
90 35 98
30 53 45
10 58 54
24 44 96
64 24 43
59 32 97
45 69 69
89 85 71
70 59 70
31 41 99
64 22 68
97 43 89
1.81529
1.20597
0.663654
1.81932
1.70984
1.16118
1.63736
1.17828
1.45436
1.17919
1.46237
1.25903
1.77892
0.988777
1.53358
1.96923
1.52274
1.23729
1.20695
0.766096
1.80691
1.66248
0.960788
1.54566
0.458624
1.08599
0.756617
1.28995
1.31132
0.674457
375 26
18 287
345 326
113 104
38 454
469 166
65 449
495 145
84 371
388 103
112 190
415 0
460 497
144 74
173 352
438 431
466 95
408 107
471 73
317 253
312 473
429 275
182 135
118 173
212 247
13 320
308 249
355 442
245 210
264 203
1931.25
4
