30
3
0 0 0
96 21 33
15 43 37
63 81 12
100 47 21
74 50 83
72 71 50
70 75 21
43 75 32
47 100 60
51 15 73
62 47 70
45 100 76
12 15 30
27 76 36
40 10 59
95 34 48
82 68 79
57 40 55
68 19 15
66 29 44
80 72 78
71 61 66
47 73 12
62 51 22
36 82 83
15 90 50
65 44 44
56 69 55
44 10 51
2.39613
2.38993
2.05792
1.64161
0.933199
1.45249
1.90503
2.33115
1.82678
0.647359
2.16522
1.80294
1.80101
0.875306
0.775636
2.28405
0.655601
0.843456
0.722744
0.845417
0.513948
0.790156
1.0287
0.715438
1.51339
1.00099
1.73167
1.19893
1.04357
1.10137
283 117
270 174
227 404
35 149
8 99
261 82
388 391
254 171
331 252
97 60
188 188
221 24
434 106
225 183
490 51
71 196
269 454
181 84
41 358
77 368
225 468
500 393
99 223
498 359
459 10
262 359
215 164
214 464
278 237
394 237
3852.5
2
