30
11
0 0 0 0 0 0 0 0 0 0 0
12 80 33 71 81 35 75 97 32 86 11
42 83 85 39 98 60 62 99 80 90 50
95 16 90 21 59 46 37 22 74 42 91
60 39 73 36 41 73 74 72 90 32 39
92 34 43 98 99 52 84 32 58 94 61
59 43 85 70 39 30 62 25 83 95 70
33 32 33 93 64 14 22 76 22 95 71
37 28 53 50 66 45 61 36 30 65 47
46 76 100 49 70 68 64 63 47 73 50
53 81 21 14 54 25 33 72 56 26 24
33 60 61 14 69 67 36 97 26 72 99
68 27 65 98 42 14 62 78 69 90 43
22 18 68 51 49 21 64 35 64 14 47
78 40 65 14 46 12 77 98 88 56 52
88 80 70 23 91 55 16 52 89 79 59
81 22 38 38 51 10 10 75 40 41 92
13 25 51 42 51 51 44 72 33 91 42
97 53 13 53 55 37 67 80 56 17 48
15 66 56 11 10 43 41 52 86 92 93
82 50 25 94 36 51 21 99 76 55 10
66 67 19 13 51 35 91 97 96 12 66
87 54 68 51 19 26 90 21 39 91 61
80 48 38 60 66 100 80 76 94 89 79
86 60 25 47 92 14 63 12 32 20 43
49 86 62 46 29 53 40 39 24 52 50
68 86 89 97 50 45 77 91 53 95 21
39 48 49 60 71 36 59 22 70 37 68
63 12 74 46 85 87 52 45 87 58 66
54 64 15 79 97 10 41 49 55 59 20
1.37416
1.40188
1.33511
1.10346
1.09704
0.729747
1.37141
0.325529
0.569591
0.437991
1.36101
0.62234
0.446211
0.491026
1.44496
0.864462
0.639597
0.939639
1.00755
0.952225
0.871294
0.331939
0.927622
1.13207
0.414282
0.339245
0.388284
0.75536
0.428723
1.20386
246 22
216 459
141 38
271 444
10 322
135 88
432 243
164 456
163 65
486 90
72 103
238 105
19 306
69 159
254 153
106 120
273 227
239 275
422 295
166 9
39 88
325 287
257 267
196 174
158 291
306 33
479 456
379 95
24 336
128 410
8040
1
