30
9
0 0 0 0 0 0 0 0 0
63 32 80 41 68 37 83 88 49
53 67 99 19 65 30 54 33 36
27 14 31 93 93 74 100 25 44
64 68 48 43 56 18 72 23 76
24 78 93 97 62 42 68 32 20
93 61 99 63 99 66 75 13 57
89 40 75 100 93 98 12 31 84
46 11 38 72 34 42 61 77 44
22 12 34 84 83 35 25 29 45
43 59 12 53 36 37 51 27 86
95 56 33 97 71 36 89 38 29
99 32 50 31 77 31 55 73 98
13 63 38 61 26 38 69 56 56
88 46 66 24 90 57 86 61 96
50 75 81 28 94 72 40 98 41
96 59 12 83 12 55 45 21 91
53 66 95 43 54 31 39 10 83
67 61 19 15 35 54 45 60 24
90 65 99 55 54 87 85 34 72
31 34 18 43 69 23 30 93 68
96 54 11 21 80 80 20 50 81
81 62 98 96 41 50 17 54 74
46 28 48 89 63 92 76 50 62
86 41 34 20 65 54 14 47 29
61 51 96 60 60 71 12 88 82
30 47 74 14 46 13 23 48 54
58 14 95 93 26 67 59 81 92
13 13 12 76 78 12 82 43 73
63 74 38 78 24 89 68 13 50
1.0017
1.46994
1.41748
1.27162
1.97839
0.87326
1.99035
0.922993
0.510355
0.943813
1.88991
1.53936
1.52213
0.998633
1.02856
0.79018
1.17908
1.01497
1.62709
0.532998
0.740003
1.65948
0.906389
0.683008
0.663404
1.57565
0.68058
1.16956
0.974365
0.963024
145 195
491 249
349 155
360 391
267 195
363 383
49 201
276 353
244 158
129 437
364 93
294 245
183 336
415 57
451 312
200 150
446 325
297 48
387 215
409 478
376 324
391 131
414 480
418 416
318 140
281 11
6 367
260 388
268 228
5 44
1603
5
