30
5
0 0 0 0 0
65 83 30 69 76
87 86 26 89 13
44 81 65 97 88
54 70 40 37 53
17 51 67 66 64
50 100 55 63 53
22 54 22 96 44
75 70 83 75 63
17 100 19 26 65
73 40 85 76 97
57 17 65 35 30
70 69 51 37 73
77 26 90 98 97
22 80 64 32 82
34 88 85 50 69
15 71 10 34 43
55 70 15 98 16
58 26 14 22 70
47 87 100 85 89
45 29 66 71 26
70 67 14 96 21
69 45 46 50 10
45 76 32 91 66
20 30 96 76 98
87 35 15 97 86
28 39 64 41 90
15 71 32 16 32
35 100 89 96 13
80 40 77 74 43
0.527554
0.77127
0.601495
0.451311
0.569046
0.417185
0.535671
0.588645
0.73702
0.318267
0.788851
0.373556
0.672914
0.295963
0.354943
0.585512
0.51109
0.524577
0.27792
0.953368
0.262051
0.728204
0.539348
0.417556
0.21616
0.365972
0.644813
0.462314
0.321096
0.486189
285 492
170 337
202 135
348 338
388 102
130 340
292 243
155 401
78 254
335 400
361 488
467 319
334 274
192 27
359 286
361 71
107 368
265 496
264 48
497 8
131 130
54 11
267 302
439 80
262 233
415 139
152 104
312 110
184 143
178 94
8310
1
