30
9
0 0 0 0 0 0 0 0 0
44 49 97 52 36 33 79 81 14
71 89 34 51 36 21 94 84 84
32 59 29 83 90 70 48 77 16
93 89 96 34 81 70 100 96 95
52 48 88 70 45 57 32 62 68
73 79 78 78 93 64 98 30 12
88 37 87 98 56 80 69 72 70
100 13 99 14 74 14 17 74 90
68 13 54 81 71 55 57 65 85
15 33 68 26 30 64 28 34 59
80 84 61 17 76 59 10 89 82
87 16 87 24 60 16 91 77 79
42 10 19 86 40 27 76 61 39
50 75 99 88 44 95 26 60 22
37 12 51 92 43 14 17 56 95
49 30 26 71 16 48 19 55 26
46 38 28 31 87 10 82 41 23
93 97 90 15 49 68 100 66 39
68 38 30 56 40 49 20 78 88
23 17 64 20 37 38 67 13 44
58 67 28 54 60 41 91 54 44
35 58 11 47 95 47 50 28 22
24 69 93 19 68 65 94 71 41
43 46 46 88 100 76 77 72 53
59 82 34 60 100 28 61 32 37
20 76 74 58 72 96 90 49 13
97 65 27 38 70 96 89 42 93
65 41 18 44 49 90 100 64 36
97 51 70 16 29 73 25 42 84
0.955061
0.823511
0.357997
0.25666
0.756513
0.894306
0.91321
0.88569
0.911735
0.827607
0.436564
0.659825
0.688418
0.555116
0.856631
0.484568
0.450649
0.593869
0.355064
0.911666
0.667621
0.39067
0.31579
0.838634
0.452609
0.386675
0.202032
0.881307
0.252467
0.246443
419 296
394 16
366 134
491 268
441 278
36 341
6 376
302 133
442 85
252 224
256 310
292 466
214 213
480 208
497 345
172 77
73 215
49 374
487 159
48 75
249 178
126 0
494 112
445 99
219 239
374 369
195 124
293 312
487 298
29 163
2052.5
4
