30
9
0 0 0 0 0 0 0 0 0
12 13 46 33 84 80 18 84 51
33 63 35 73 80 53 31 11 86
73 87 47 62 39 95 94 28 47
67 67 54 86 51 51 21 51 60
73 89 61 89 23 77 56 88 39
31 91 42 53 66 70 13 35 62
21 74 51 31 77 63 80 40 34
23 76 17 32 95 95 75 57 23
26 49 79 84 100 84 90 34 40
53 67 57 28 62 72 14 10 81
19 70 19 12 20 18 38 44 81
14 55 36 38 91 33 84 23 59
90 41 26 88 55 84 37 36 88
49 11 92 47 97 97 39 53 55
32 90 14 48 45 54 22 21 91
37 32 71 16 28 50 13 55 84
53 77 64 62 17 54 76 17 37
73 28 35 14 74 76 83 19 56
33 58 16 93 40 99 45 48 53
59 29 74 81 69 89 57 14 81
12 68 43 35 89 74 16 92 57
92 52 85 72 26 72 75 62 44
11 98 68 36 64 57 58 85 55
40 69 86 21 98 29 54 58 54
34 42 57 27 89 57 55 17 36
62 60 22 26 27 30 59 30 20
55 39 92 70 27 98 71 43 48
36 61 92 35 100 15 57 62 79
70 11 23 56 73 89 64 96 23
0.779759
2.05719
0.564895
2.3699
0.960976
1.92953
2.11751
1.45686
1.07944
1.53533
1.76407
1.64622
2.46891
1.78009
2.12053
1.48394
2.41319
2.39643
2.22425
1.56251
1.26719
1.56833
1.06696
1.81749
2.14353
2.45051
1.1871
2.11357
1.26658
2.1754
140 97
318 391
240 259
256 327
75 400
169 145
390 396
107 330
404 130
236 228
350 449
393 372
467 462
393 10
311 285
127 352
111 162
148 213
318 432
482 154
356 244
171 231
258 0
445 453
448 69
172 185
401 147
411 311
63 360
310 208
3902.5
2
