30
9
0 0 0 0 0 0 0 0 0
84 92 24 87 41 41 55 43 11
75 52 91 58 62 16 20 12 32
28 95 87 12 39 58 22 98 20
81 17 83 13 80 53 35 79 85
26 96 96 12 27 96 95 100 99
24 57 91 23 28 33 22 95 58
35 50 81 56 44 29 39 36 34
43 64 97 55 60 82 34 33 62
79 71 54 80 85 68 78 49 16
84 45 55 27 99 42 32 79 91
96 43 89 65 71 76 71 64 42
35 78 73 69 17 39 24 67 83
84 44 84 96 52 100 21 98 89
93 87 38 86 93 70 80 74 52
67 77 45 78 10 96 71 32 45
48 94 22 67 72 72 13 67 69
63 47 85 14 26 55 25 42 60
26 50 95 20 35 75 12 19 81
12 76 83 61 80 90 79 63 43
84 48 18 65 42 37 61 60 80
51 82 25 89 64 98 49 30 95
61 48 56 75 52 14 99 57 51
44 87 60 96 41 84 31 21 81
46 48 32 34 34 87 15 12 42
14 52 34 98 41 80 38 81 57
21 48 81 21 79 54 60 26 76
41 52 87 54 66 75 33 59 41
48 48 15 22 32 13 33 98 40
52 86 88 40 49 67 65 24 64
0.153013
0.443559
0.137749
0.379926
0.47804
0.419514
0.315359
0.479827
0.36534
0.477632
0.413163
0.277366
0.464444
0.307421
0.184856
0.212747
0.420313
0.371175
0.151879
0.45292
0.410396
0.350441
0.289304
0.426709
0.235402
0.315841
0.134931
0.280113
0.308183
0.386129
487 139
326 56
240 77
293 104
30 4
219 459
61 181
259 189
108 318
470 28
399 344
329 166
348 145
65 369
340 122
279 481
78 70
19 443
408 427
40 221
221 462
371 79
111 333
340 214
58 497
343 125
82 39
435 47
429 148
163 19
4102.5
2
