30
5
0 0 0 0 0
21 100 32 53 25
60 64 83 96 86
24 59 39 12 14
81 96 11 16 57
59 67 75 22 84
35 81 68 73 85
11 11 40 13 47
73 69 36 73 92
70 95 45 100 19
88 56 57 95 45
49 58 54 79 27
18 100 35 83 75
10 20 94 34 70
81 57 97 36 75
45 58 65 70 85
41 32 42 54 18
44 25 29 44 21
13 50 74 15 17
87 45 40 92 32
36 61 100 98 60
55 40 23 19 73
50 60 13 93 91
75 74 83 86 61
56 13 78 68 52
45 24 43 45 14
64 31 43 50 36
54 89 13 86 82
50 91 91 13 74
46 80 76 28 72
0.8178
0.563986
0.866722
0.832106
0.83602
0.853547
0.961121
0.582192
0.449395
0.419555
0.966525
0.992861
0.744664
0.212097
0.995555
0.202582
0.647085
0.60882
0.308394
0.26773
0.377727
0.944759
0.556863
0.387628
0.674099
0.492568
0.489245
0.226733
0.589435
0.918144
358 153
73 336
137 471
134 500
24 39
433 371
488 36
339 495
129 104
0 135
443 309
9 7
254 465
416 294
401 377
59 332
320 447
22 434
444 336
390 244
470 226
394 15
20 107
67 420
490 91
78 309
94 490
160 44
27 153
159 294
1990
4
