30
9
0 0 0 0 0 0 0 0 0
98 63 71 95 86 26 99 67 49
53 21 68 65 92 72 91 11 83
50 52 79 26 17 29 34 57 11
49 18 99 90 57 18 42 58 85
23 88 75 22 79 43 65 48 75
53 58 68 64 70 45 54 25 97
92 25 13 86 27 92 70 66 16
40 28 83 31 94 56 59 39 10
28 89 24 92 78 18 91 67 40
82 96 95 90 91 96 30 73 65
84 66 91 35 10 31 69 87 38
90 37 62 87 34 10 63 44 99
65 44 91 35 17 35 41 26 70
99 37 95 69 36 93 95 46 62
97 65 74 86 18 83 97 86 64
84 56 71 11 42 74 27 66 72
44 66 65 33 93 73 41 76 100
81 36 67 82 52 97 74 40 39
73 20 29 57 47 23 63 17 26
11 70 51 28 15 81 85 67 62
26 77 37 40 97 64 94 80 92
85 98 93 19 54 39 60 97 53
53 89 15 25 14 35 65 20 35
66 20 54 15 65 99 35 43 32
51 60 14 86 10 16 93 22 15
56 23 59 34 56 56 69 11 16
37 23 100 78 27 13 86 99 17
98 82 41 34 68 76 44 98 89
18 66 100 19 85 77 31 72 77
0.79187
1.04144
0.618753
1.34803
1.81592
0.691547
1.6503
1.15544
1.94796
1.32934
0.606572
1.24237
1.58707
0.761863
0.767101
1.62192
1.19116
0.656353
0.479996
0.44105
0.824472
1.32766
1.99699
1.99023
1.04904
0.939278
1.69173
1.95303
1.81882
1.06765
129 153
246 408
132 63
162 466
50 254
184 226
204 178
254 140
394 22
294 460
498 287
451 63
442 172
125 191
499 41
298 393
340 431
360 373
239 186
469 51
159 45
231 331
49 98
322 168
85 465
230 158
269 142
460 15
485 183
92 30
8300
1
