30
11
0 0 0 0 0 0 0 0 0 0 0
53 27 10 75 23 42 49 90 14 23 86
56 88 55 60 78 72 70 77 67 78 100
51 27 31 59 90 94 53 91 38 67 96
20 30 14 16 77 61 94 98 94 87 41
44 22 56 10 27 95 39 56 49 81 72
13 34 61 82 27 74 41 39 17 65 63
97 11 98 54 63 51 80 94 41 82 60
73 30 55 12 18 77 90 22 77 75 51
81 74 76 80 44 87 39 57 32 35 89
84 66 41 87 61 88 94 33 63 37 14
62 97 18 19 62 55 86 51 70 98 38
34 97 99 27 48 94 42 90 96 43 79
31 14 52 53 34 41 91 41 56 92 34
14 19 39 73 11 26 51 29 74 75 62
85 61 77 54 20 63 97 77 97 73 50
39 84 63 31 52 53 63 79 11 40 19
34 64 60 45 90 80 37 93 85 10 83
47 13 33 66 44 90 40 22 87 98 86
43 90 81 14 20 60 97 43 63 97 19
46 54 57 10 39 42 77 65 29 36 53
29 73 10 18 55 14 79 89 98 79 56
96 46 12 39 100 43 20 45 33 45 45
98 27 74 12 80 69 84 92 29 61 57
77 80 31 84 40 11 54 40 86 51 46
16 58 73 27 12 84 95 95 26 97 32
34 48 72 81 39 74 51 93 19 77 23
54 96 47 63 90 22 81 78 53 91 67
91 75 23 77 17 83 97 44 61 51 39
87 23 60 73 49 44 40 47 62 62 59
0.137455
0.492928
0.396773
0.455987
0.129968
0.346032
0.356095
0.238641
0.356205
0.435921
0.254102
0.213647
0.357035
0.302812
0.356924
0.367406
0.375656
0.404828
0.436959
0.168695
0.295172
0.30636
0.139867
0.310213
0.395479
0.167185
0.239886
0.314182
0.164817
0.452899
247 170
250 378
378 119
488 264
290 334
457 114
332 14
426 434
165 174
420 86
337 115
50 215
460 30
499 342
273 365
470 240
235 263
126 390
14 133
444 358
251 413
175 5
353 36
75 435
162 404
211 54
219 244
265 218
306 491
384 249
4122.5
2
