30
11
0 0 0 0 0 0 0 0 0 0 0
83 56 34 44 62 78 13 24 11 44 25
89 87 69 97 72 98 63 26 44 48 46
60 12 58 57 58 91 38 43 46 22 72
17 62 21 35 94 38 67 83 53 45 80
31 69 81 51 26 59 47 71 66 53 72
81 93 98 71 11 16 37 42 14 69 83
25 63 96 73 13 39 33 63 62 50 49
75 13 53 60 63 31 15 50 89 69 44
80 74 92 17 47 24 72 36 100 68 92
11 87 85 37 65 26 19 52 30 73 74
28 50 18 59 38 95 15 33 45 26 24
11 17 98 44 38 100 46 64 57 51 16
90 66 23 83 60 36 58 65 43 50 67
25 26 71 91 11 88 100 16 92 39 83
17 36 68 50 17 37 51 72 56 57 45
85 23 17 82 33 46 92 11 99 82 98
73 60 72 64 75 48 33 62 88 68 79
77 84 57 18 67 77 58 15 50 78 82
43 97 21 37 77 99 24 81 74 84 48
44 20 43 29 27 28 50 52 79 43 95
16 96 47 42 11 42 27 96 88 10 64
32 38 52 11 42 87 75 30 37 19 76
87 58 77 98 93 49 13 92 65 19 10
19 26 69 37 63 67 51 18 11 41 36
71 86 48 84 67 66 92 27 95 61 16
60 74 98 94 25 42 86 62 82 99 71
15 99 75 42 100 37 22 28 96 70 77
90 13 87 97 89 15 26 17 17 67 79
60 93 91 100 23 56 72 95 49 23 89
1.58932
0.639797
1.62276
1.97358
0.938751
1.65049
2.05998
1.40669
0.971469
2.08495
0.606651
1.44621
2.3236
1.57439
1.25507
0.803758
1.16512
1.6531
2.44111
1.0422
0.923337
1.12569
2.07787
2.04617
1.26133
1.7295
1.95113
0.75038
2.36538
1.95484
474 86
338 472
436 278
173 379
142 425
278 321
442 307
122 215
406 86
448 55
384 73
86 87
52 17
432 78
167 241
478 356
431 140
293 491
261 149
174 82
369 272
161 230
489 369
220 185
495 308
39 36
165 40
265 260
457 92
224 258
4012.5
2
