30
11
0 0 0 0 0 0 0 0 0 0 0
44 100 35 18 85 58 32 55 38 37 57
48 45 24 91 54 90 44 88 35 92 81
31 71 68 53 35 29 80 71 50 23 69
31 60 28 57 65 34 33 38 77 20 17
75 59 90 84 60 12 22 70 33 39 55
96 16 59 17 69 99 72 48 16 82 67
84 28 19 56 60 69 85 88 56 82 53
15 42 28 16 41 51 27 29 78 37 79
25 56 73 81 21 25 61 96 88 43 31
67 94 96 77 18 78 59 33 69 31 16
60 35 88 36 17 41 56 77 22 54 28
46 77 23 32 83 81 32 21 49 58 25
48 39 63 16 24 49 73 30 90 12 47
15 20 24 52 74 51 71 74 28 88 74
21 98 14 43 67 85 57 18 55 79 42
18 55 39 43 74 33 65 48 95 78 98
82 96 91 14 26 51 38 54 91 13 89
73 54 71 61 33 57 31 38 68 68 39
78 25 43 39 90 83 24 24 77 53 83
70 39 65 30 55 42 19 18 32 86 45
25 53 61 46 47 56 96 49 23 33 19
83 38 94 67 57 100 11 34 53 28 13
62 85 58 29 56 60 71 56 26 94 34
66 95 94 46 41 88 91 43 23 49 100
26 29 81 35 55 60 53 48 88 64 13
92 29 42 68 33 92 15 83 16 80 18
49 71 68 36 95 93 25 93 47 30 85
69 72 100 42 63 99 77 72 38 15 76
82 13 61 27 26 82 27 59 81 81 10
0.372863
0.667924
0.986123
0.791944
0.836137
0.945504
0.599683
0.394075
0.551442
0.692358
0.947234
0.328343
0.559023
0.595622
0.205039
0.663526
0.674898
0.796702
0.893306
0.690366
0.953557
0.724346
0.947093
0.511164
0.924518
0.486832
0.960994
0.24401
0.719978
0.230782
455 35
49 397
247 150
296 479
341 403
340 430
114 113
58 339
333 112
157 284
400 71
6 284
88 21
373 107
82 269
190 472
424 402
306 293
477 145
324 37
312 147
320 262
164 135
316 188
53 57
58 197
477 212
231 266
94 13
190 424
2591.67
3
