30
3
0 0 0
100 22 73
90 23 87
92 62 45
80 92 38
28 14 70
10 57 57
23 73 32
11 57 77
70 90 91
59 94 22
39 26 12
19 77 70
71 13 56
48 24 15
92 95 81
79 83 69
87 54 46
86 66 87
44 100 43
71 26 35
81 25 90
27 83 67
53 76 23
40 81 88
43 17 22
72 22 90
20 82 72
52 17 75
88 32 90
1.12346
1.8843
1.2533
1.15928
1.04728
0.70644
2.09365
2.48452
2.05109
2.12063
0.844353
1.57337
2.20438
0.792553
1.32798
2.4451
0.931917
2.40207
0.882745
0.843186
1.58725
1.08294
2.15181
1.74309
0.853742
0.978853
0.578999
1.67047
2.2894
2.14412
497 111
357 188
437 204
72 383
243 244
87 339
419 44
33 22
472 368
146 368
320 137
262 388
240 13
305 228
370 381
12 78
374 158
380 25
373 91
217 284
448 236
0 122
179 113
40 295
288 340
90 388
182 423
135 355
457 325
236 185
4150
2
