30
5
0 0 0 0 0
31 83 50 32 92
69 18 62 86 13
56 87 68 21 91
46 50 87 19 84
92 62 24 92 58
52 70 42 79 12
81 95 85 64 51
95 26 21 43 86
21 75 12 91 32
46 87 17 87 41
15 92 88 46 78
12 67 66 65 86
86 58 93 37 44
18 17 31 73 71
54 32 60 46 76
64 16 26 39 45
61 96 92 70 99
67 95 96 47 19
26 85 69 44 43
26 12 51 97 46
39 93 73 21 62
89 49 55 42 10
49 34 18 36 50
54 80 32 39 26
50 35 52 67 35
29 99 31 77 51
36 36 69 32 82
35 91 28 50 32
14 50 21 37 100
1.43969
0.342116
0.756189
1.44162
0.475583
1.01612
0.735776
0.342872
0.733404
1.48664
1.4094
1.02886
1.18674
1.43299
0.391352
0.753037
1.48444
1.01332
0.472566
0.532069
0.846716
1.36379
1.06809
0.944257
1.13518
1.48598
1.36238
0.586855
0.502132
1.32932
13 95
245 249
235 193
161 369
425 63
197 335
163 432
37 335
228 43
323 47
148 297
349 199
25 233
309 219
351 62
150 438
458 208
256 274
497 301
195 63
375 42
295 215
163 330
326 218
345 413
261 152
485 290
477 415
102 455
350 242
3957.5
2
