30
3
0 0 0
85 41 96
39 20 92
31 37 95
40 87 69
19 50 44
46 21 62
23 86 12
32 63 30
89 85 22
91 80 92
30 31 100
73 24 46
55 30 92
26 23 63
70 40 88
64 41 22
20 95 51
44 22 76
38 63 19
94 14 79
97 95 86
59 37 30
77 61 39
98 29 28
36 56 63
77 34 69
31 26 35
88 94 20
83 92 69
1.41326
0.424615
1.28381
1.05865
1.1792
1.23641
1.76262
0.957553
0.416843
0.875542
1.7554
1.63604
1.18712
1.58553
1.2487
1.82728
0.845355
1.11473
1.61056
1.5583
0.533865
1.58841
1.87919
1.33206
1.69197
1.88889
1.82254
1.6656
1.97133
1.32003
222 124
208 200
14 1
355 149
71 371
150 257
97 295
400 372
248 152
496 50
57 297
229 320
301 33
428 334
408 115
310 208
256 370
102 226
63 210
195 389
116 343
93 84
310 135
392 303
80 216
133 221
25 4
340 290
493 391
160 47
2008.75
4
