30
9
0 0 0 0 0 0 0 0 0
88 70 95 39 41 39 93 58 13
35 14 10 39 22 12 98 98 47
30 47 78 19 11 31 46 62 67
57 32 39 60 58 31 82 32 23
71 21 29 39 30 21 87 34 28
85 75 86 85 68 40 61 90 14
49 33 41 25 88 92 27 93 26
96 93 24 72 89 40 78 42 32
95 96 34 68 11 40 46 26 45
21 16 85 90 22 31 67 68 77
58 95 98 25 91 39 66 25 23
25 73 87 43 27 91 94 69 33
24 31 12 71 43 40 39 54 49
77 10 92 50 67 85 18 41 73
85 76 88 77 80 69 40 85 64
29 10 18 99 21 85 34 90 45
78 98 19 73 50 94 64 13 82
67 33 49 41 72 25 23 79 15
71 18 28 97 91 95 57 97 50
87 20 39 95 32 100 96 97 70
92 63 75 94 91 54 59 98 69
81 15 13 88 31 96 55 43 11
69 65 99 39 27 53 48 93 13
53 39 35 87 49 22 55 31 52
93 60 88 20 48 25 32 55 92
69 52 70 54 35 51 95 63 27
44 19 89 93 56 42 10 61 80
11 31 35 50 74 90 65 52 36
65 55 59 66 75 59 90 72 17
1.44832
1.76598
1.43684
1.47082
0.661055
0.54955
0.555696
1.54681
0.740545
0.594713
1.38541
1.80689
1.74912
1.02565
1.69191
0.871088
0.830938
0.636694
0.702749
1.66145
1.67436
1.62005
0.56989
0.808451
1.8323
1.16135
0.500184
0.867016
1.63727
1.41632
253 230
137 92
50 69
22 108
43 149
137 99
206 190
275 187
469 304
160 358
183 362
243 463
70 25
293 138
125 236
314 334
185 169
69 342
215 153
217 201
114 433
303 410
293 92
405 99
431 264
80 359
420 246
395 315
377 27
491 80
4022.5
2
