30
11
0 0 0 0 0 0 0 0 0 0 0
87 98 19 86 72 32 77 75 13 26 37
98 37 18 39 92 63 35 55 47 44 42
69 26 23 49 87 13 68 80 27 25 46
57 62 69 30 21 84 92 63 31 88 80
86 87 28 90 67 54 29 60 93 54 62
96 59 89 59 44 65 78 85 60 24 24
31 78 69 78 46 79 95 33 91 29 27
91 27 31 85 91 74 30 35 85 37 57
34 51 23 21 34 63 56 62 36 76 83
62 35 79 10 66 69 41 71 60 33 36
54 82 86 32 22 86 24 10 33 65 13
14 22 52 32 10 44 22 43 15 66 17
34 94 46 27 68 75 55 38 46 20 53
28 88 98 73 94 56 83 21 70 14 40
55 34 90 45 18 88 24 61 26 73 94
77 67 89 53 90 18 20 96 98 46 80
76 14 75 60 46 85 57 11 95 25 79
17 49 28 43 64 85 55 94 35 72 49
73 85 14 64 11 85 74 46 26 79 87
87 54 25 98 90 91 36 64 44 87 62
31 40 44 54 51 25 99 53 92 100 36
14 49 97 49 57 22 64 86 69 45 62
18 48 83 93 98 27 68 81 79 36 83
39 32 17 22 67 52 96 87 70 31 37
67 60 15 77 100 11 89 44 14 68 19
71 24 28 99 33 27 68 61 64 72 17
71 81 92 16 38 48 42 58 89 61 94
63 78 56 87 20 35 20 17 49 39 79
98 45 23 83 22 73 77 23 72 51 77
0.275613
0.315979
0.417874
0.423361
0.364253
0.317545
0.315812
0.340628
0.19853
0.290729
0.174856
0.115605
0.481139
0.49104
0.129228
0.497574
0.30713
0.477657
0.153113
0.244601
0.43393
0.312013
0.451283
0.177767
0.237901
0.263799
0.185967
0.416339
0.21816
0.108233
117 261
191 275
297 45
285 385
262 175
301 3
443 144
61 22
228 363
7 70
463 201
400 415
262 406
269 171
309 1
115 140
65 468
60 410
47 349
446 360
57 182
460 33
428 486
48 307
166 53
50 20
152 3
495 435
217 219
62 367
1607
5
