30
11
0 0 0 0 0 0 0 0 0 0 0
17 56 90 35 46 62 72 73 30 83 13
68 99 21 70 68 24 92 56 74 13 32
42 59 91 29 10 97 17 52 88 87 76
32 36 37 78 90 65 29 56 35 35 26
28 51 36 83 12 97 76 31 14 83 43
97 25 38 97 64 88 69 80 51 65 68
20 10 95 55 69 30 44 53 40 53 26
20 49 86 33 94 30 87 43 55 22 73
93 56 54 96 43 75 15 79 21 66 11
40 20 71 66 31 65 30 91 38 56 72
55 34 12 10 66 44 18 85 48 17 18
66 25 90 86 60 70 28 57 12 96 72
84 75 97 12 19 89 45 96 83 81 64
27 51 62 83 79 32 44 26 17 77 20
14 33 25 85 18 93 40 84 48 99 49
30 11 24 95 34 36 50 45 35 83 17
61 37 45 69 38 49 28 22 69 91 62
74 16 54 69 75 15 32 29 32 86 53
71 20 25 67 56 63 73 85 100 17 67
68 21 22 94 67 33 85 38 85 47 71
31 62 93 19 31 49 48 65 74 12 18
23 28 84 88 19 15 86 84 32 69 44
57 88 18 62 57 75 68 58 11 61 92
11 45 17 55 47 15 49 51 68 85 14
62 54 87 26 40 90 45 86 41 57 49
26 24 22 44 92 22 31 12 82 69 18
79 78 78 94 29 16 71 95 58 56 14
68 75 48 22 52 75 10 73 32 28 98
90 48 94 91 38 89 14 10 58 28 45
1.54837
1.24507
0.512463
0.918492
1.74249
0.989721
1.72173
1.55344
1.05431
1.0152
1.80995
1.20449
0.840538
0.467303
1.37039
1.075
1.28105
0.532283
1.3682
1.31703
1.94741
0.539126
1.64303
1.59364
1.97407
0.480326
0.606789
1.2713
1.73487
1.49369
384 406
114 152
228 352
356 413
260 129
395 49
359 448
359 5
60 423
134 71
369 313
462 140
67 100
81 444
303 396
493 307
390 112
68 394
475 16
279 150
277 315
221 369
163 130
334 4
451 275
325 221
217 386
399 31
32 478
436 193
1527
5
