30
5
0 0 0 0 0
96 25 69 27 68
60 51 49 98 61
35 79 23 26 76
39 24 45 32 63
71 90 67 17 51
77 22 35 75 66
73 68 18 44 18
43 10 38 72 91
12 40 11 73 31
40 39 75 39 27
29 18 90 63 26
60 89 45 98 100
80 53 78 98 14
98 34 30 43 19
71 56 20 57 19
60 71 97 75 17
28 55 21 46 57
49 23 10 92 44
97 48 24 28 22
31 95 44 40 31
80 52 78 86 56
14 54 33 42 51
60 65 54 12 97
13 15 71 32 64
23 67 91 24 87
70 37 25 44 45
22 61 63 14 39
62 71 39 77 29
77 49 22 20 26
1.20451
0.410656
1.04104
0.498704
1.0985
0.677012
1.59601
0.572326
1.98834
1.626
1.29198
0.7438
1.73275
1.36466
1.3284
0.841969
1.0984
0.616621
1.92047
1.69727
1.4147
1.32674
0.789477
0.542955
1.09932
0.491421
1.29587
1.22764
0.689691
1.01051
366 165
372 368
134 223
438 478
410 338
166 249
406 110
18 293
433 320
215 177
492 371
94 174
304 339
162 205
330 94
294 454
204 17
168 424
105 186
24 268
233 88
420 150
300 7
273 77
137 362
239 500
100 479
384 246
445 198
410 210
2428.33
3
