30
3
0 0 0
70 56 55
55 51 69
38 66 28
36 51 34
13 93 92
29 30 99
39 64 53
30 78 67
47 46 96
12 26 93
71 79 54
99 57 14
86 17 72
80 67 50
30 44 38
77 85 61
19 95 68
69 20 74
96 31 45
93 41 98
19 32 43
14 61 52
56 82 47
28 83 40
21 85 24
36 39 43
91 42 45
30 82 41
62 61 64
0.685872
1.27866
0.627015
1.72071
1.19884
2.21785
1.49242
1.71425
0.519826
0.874471
0.815729
1.5912
1.77445
1.31195
0.958352
2.12636
1.0761
0.519285
2.08003
1.84664
1.98709
2.34729
1.92053
0.957002
0.926049
1.13485
0.5425
1.46525
1.22076
1.06664
124 246
476 270
477 263
185 167
130 1
376 413
309 257
85 157
215 392
21 35
454 72
119 32
365 331
317 265
209 54
338 341
225 138
170 399
307 477
16 142
432 437
239 253
306 304
338 245
373 444
306 334
241 166
282 79
17 140
269 387
1986.25
4
