30
7
0 0 0 0 0 0 0
20 49 57 82 39 49 77
59 59 41 94 74 67 81
21 17 10 74 58 48 95
59 20 15 56 54 59 10
78 73 33 83 66 19 83
92 28 83 39 52 76 69
77 85 19 15 68 57 37
27 47 99 80 43 91 86
81 63 100 11 21 46 98
71 97 100 72 86 100 23
67 18 39 32 43 93 88
49 99 30 91 96 87 13
64 23 93 10 91 65 76
61 60 72 78 35 12 10
32 61 24 100 20 66 16
28 95 98 42 78 50 98
14 17 75 13 96 41 62
87 80 16 99 21 66 16
57 44 13 20 63 40 31
21 69 66 21 44 47 12
12 55 51 54 86 87 87
50 85 93 14 79 77 23
68 98 92 14 38 93 63
19 95 75 39 42 10 94
50 21 26 97 84 50 15
96 23 38 85 46 28 51
90 64 38 75 78 86 17
51 14 24 84 87 94 48
34 87 50 18 30 74 36
1.39207
1.8075
1.63575
1.49739
1.27845
1.86762
1.4742
1.51025
0.475914
1.63587
1.11669
0.535237
1.11057
1.51357
1.32105
1.92819
1.28938
0.617693
1.61734
0.702093
1.91655
0.606354
0.589765
1.80777
1.89428
1.74622
0.731161
1.99941
1.59463
1.62517
426 39
20 319
209 405
210 191
193 74
447 88
41 149
107 293
483 427
20 345
13 422
54 446
227 453
240 34
80 196
456 320
370 456
66 419
370 149
270 37
216 162
287 245
370 416
440 114
17 184
305 72
144 212
33 247
119 208
47 198
2703.33
3
