30
7
0 0 0 0 0 0 0
97 50 60 32 69 28 99
62 99 74 73 25 91 47
43 27 61 46 69 78 18
81 19 70 77 34 91 23
73 38 12 59 13 33 36
94 81 27 21 74 35 26
24 26 40 86 26 67 65
87 48 62 51 80 38 16
79 73 27 86 68 70 74
25 54 41 94 45 59 75
62 76 11 98 26 26 66
24 63 41 43 57 52 63
31 29 76 90 89 64 37
24 92 13 51 89 46 44
24 94 48 73 88 56 86
74 85 34 99 10 25 85
24 77 40 22 10 29 99
87 51 10 79 89 78 28
25 21 60 40 49 59 24
78 34 70 20 94 100 15
64 82 11 89 41 48 42
88 85 41 18 65 54 77
87 83 78 41 28 83 43
77 50 55 96 48 52 52
94 76 79 29 19 83 64
12 80 95 16 61 67 10
71 63 45 33 31 32 26
53 84 50 25 87 51 83
66 50 52 92 66 25 83
1.60545
0.918278
1.35328
2.39311
1.7828
0.978387
1.34184
0.753957
1.45753
0.606474
2.33742
1.35267
1.21508
2.34352
1.95722
1.88843
2.05721
0.99415
1.1771
1.53362
1.3401
1.73764
0.578014
1.18226
1.86553
2.22577
1.18256
1.95143
1.44034
1.96104
405 106
213 448
375 371
160 310
315 13
17 199
485 141
42 46
159 85
204 342
190 339
482 472
398 10
347 146
353 271
184 456
485 426
245 8
220 19
258 303
228 487
404 204
21 92
14 168
500 405
281 466
364 252
421 53
394 483
239 365
8040
1
