30
3
0 0 0
29 11 32
25 71 63
78 83 60
71 47 53
60 20 74
88 14 67
92 41 99
99 48 52
24 44 79
78 11 42
35 93 90
85 58 94
93 82 38
60 74 30
39 36 20
60 20 60
30 39 10
69 10 34
49 61 42
76 20 64
12 83 45
43 67 48
89 17 17
80 57 56
51 67 79
96 18 59
37 81 47
87 82 45
47 71 81
0.533789
0.737676
0.945334
1.08657
0.687083
0.630937
0.536461
0.508428
1.21485
1.19383
1.18704
0.820759
0.407444
0.64013
1.44541
0.858305
0.412724
0.374828
1.38622
1.21287
1.01096
0.698557
1.2014
1.47273
0.772283
0.875608
0.408819
0.927765
1.19767
0.730442
251 363
282 332
398 84
260 54
129 467
37 106
204 197
287 237
83 394
17 40
48 31
499 440
391 303
253 232
268 400
92 376
203 179
341 204
247 156
147 296
340 268
128 481
396 242
171 75
370 341
49 480
204 280
223 216
176 127
161 228
3990
2
