30
9
0 0 0 0 0 0 0 0 0
11 18 16 55 20 10 53 12 52
86 18 55 72 78 100 17 51 45
64 48 72 57 57 56 87 81 47
22 49 11 17 90 48 64 60 91
66 46 62 27 98 28 41 44 74
97 14 40 58 51 44 98 52 28
25 57 12 34 95 81 49 72 90
79 59 81 100 14 95 35 41 85
36 24 12 21 37 52 93 10 94
45 40 50 53 53 66 69 16 97
27 63 87 69 48 42 18 63 34
70 60 69 34 40 13 98 50 86
88 13 21 97 92 74 29 74 20
34 31 96 89 91 64 20 51 22
25 44 15 91 43 69 100 52 27
59 22 15 12 13 44 53 40 95
67 78 39 84 12 24 75 34 92
37 32 97 82 53 30 77 47 83
70 82 43 65 23 68 81 10 57
42 39 85 17 42 45 44 63 18
27 83 100 62 67 64 32 85 44
53 28 26 10 99 41 37 46 60
68 28 15 92 88 14 29 53 93
29 51 73 19 98 84 78 31 35
16 100 37 36 59 70 45 72 17
55 93 23 30 66 97 24 52 38
55 77 50 42 82 59 93 78 29
57 17 33 79 93 59 100 16 100
15 32 35 65 28 48 56 58 37
0.383791
1.48346
0.484669
1.42165
1.19498
0.776149
0.346725
0.824778
0.425724
0.967499
1.39134
1.38448
1.36193
0.792952
0.588754
0.712836
0.735087
0.491323
1.1797
0.412444
0.746746
1.2685
0.92519
1.05478
1.29181
1.35172
1.14201
1.06177
0.324643
0.598167
176 475
297 428
311 464
56 345
433 42
157 165
78 89
135 345
459 101
454 231
47 303
11 157
104 149
108 68
154 410
1 302
325 44
2 260
408 356
97 123
132 44
189 101
276 274
11 44
313 13
139 157
365 296
411 205
163 482
441 140
7680
1
