30
3
0 0 0
89 46 88
61 97 51
98 69 72
37 86 72
37 21 43
24 68 86
62 51 55
60 48 66
31 30 82
72 31 40
64 17 45
34 12 66
32 19 48
57 69 69
55 65 32
57 71 78
12 96 42
35 96 65
13 48 56
45 45 69
91 91 78
18 61 51
47 41 63
11 78 53
83 72 14
23 19 39
20 31 98
43 26 19
37 68 30
0.638544
1.06971
0.426097
0.613571
1.05438
0.766208
1.18029
0.830619
0.642135
0.944496
0.709069
0.589846
0.730162
1.4756
0.955618
0.90644
1.21469
0.664728
0.316832
0.406396
1.22656
0.384252
0.68056
0.741998
1.41875
1.31492
0.46056
1.05351
0.381437
0.467629
412 498
43 430
147 430
113 123
354 128
253 449
108 373
233 304
392 324
173 373
105 446
494 233
450 131
478 22
23 329
497 333
8 464
344 358
206 110
371 361
350 63
94 212
254 225
419 284
293 475
144 38
370 18
310 419
287 25
38 292
7650
1
