30
3
0 0 0
56 62 20
69 89 72
38 81 70
65 48 38
69 19 95
67 19 41
71 87 42
37 68 39
69 68 23
16 48 83
50 78 66
63 55 74
41 25 21
12 14 97
29 71 53
31 85 93
12 80 60
37 68 37
18 31 40
94 46 60
32 78 78
41 85 18
62 97 27
27 72 26
10 65 23
29 12 71
90 83 67
52 46 98
99 100 46
0.880042
1.17904
1.6363
0.603754
1.96601
1.32317
0.777391
1.99887
0.908904
0.773627
1.29185
1.95997
0.709314
0.716651
1.50502
1.09313
1.86592
0.504774
1.138
1.19612
1.69791
1.1176
0.483595
1.5045
1.16075
1.86385
0.880037
1.76404
1.51686
1.51547
289 195
294 56
450 27
388 326
360 307
6 285
184 298
293 400
379 336
195 94
275 209
378 121
130 220
477 359
483 329
429 472
382 443
231 328
29 263
478 235
369 163
301 484
267 36
484 345
108 459
152 205
118 461
496 413
431 255
216 221
1976.25
4
