30
5
0 0 0 0 0
32 93 27 70 87
39 34 53 18 10
92 16 21 68 11
14 45 42 80 11
14 67 96 51 73
56 43 11 22 39
57 34 21 51 46
12 86 62 88 94
97 34 56 78 62
63 74 95 34 11
33 42 89 57 88
65 14 84 83 75
26 36 71 48 30
42 35 84 85 78
99 100 28 82 85
44 14 86 14 90
76 53 89 65 49
80 82 92 89 41
31 64 18 46 43
59 74 55 86 45
80 81 70 13 91
24 29 73 37 92
19 63 13 17 59
18 40 48 40 45
81 45 49 67 93
80 73 75 15 66
35 85 41 13 42
69 82 46 19 11
54 39 96 84 82
0.339345
0.139051
0.281088
0.292055
0.337471
0.494062
0.448977
0.22433
0.331806
0.499689
0.207345
0.33497
0.105772
0.146302
0.408601
0.12256
0.145585
0.157651
0.291343
0.204906
0.142285
0.256144
0.331883
0.365792
0.110847
0.35588
0.348085
0.328291
0.402863
0.172883
104 94
122 402
443 490
363 290
347 46
476 427
336 341
15 216
438 481
254 219
386 38
273 7
320 448
211 94
452 57
207 300
412 133
184 196
198 305
353 58
372 54
266 355
355 354
109 54
338 384
150 132
18 70
209 143
307 274
272 248
3962.5
2
