30
9
0 0 0 0 0 0 0 0 0
99 29 91 34 88 44 36 79 95
36 46 90 47 38 47 49 43 39
95 96 26 59 31 64 97 84 91
29 34 26 100 71 18 16 71 85
47 24 20 41 72 13 66 62 85
63 23 82 98 91 13 28 60 94
23 68 43 49 98 58 86 88 89
41 65 66 52 53 87 69 39 16
27 63 72 23 44 13 78 93 88
35 25 27 42 36 98 80 80 34
34 66 71 76 22 68 83 62 97
79 67 79 68 100 87 63 72 38
88 28 76 13 29 80 85 46 76
66 70 30 37 37 78 62 96 32
92 100 83 72 78 11 68 93 69
51 68 53 56 97 87 63 70 73
49 85 96 39 83 12 35 64 98
27 31 28 22 64 69 82 29 88
86 84 91 20 26 56 29 87 82
61 89 24 17 11 24 28 37 54
33 56 17 64 25 59 14 70 26
35 46 73 51 19 78 49 100 19
20 91 77 78 32 100 20 100 39
35 29 88 55 12 16 80 43 26
92 74 98 46 70 32 12 49 15
80 15 24 91 88 21 76 54 77
86 50 70 46 78 95 85 46 12
20 75 67 98 71 60 39 48 92
54 85 69 10 67 70 32 68 26
0.635042
0.562545
0.409201
1.01319
1.0993
0.400616
1.80583
1.42214
1.44501
1.06189
1.28522
1.2369
0.525849
1.59679
1.88801
0.644035
1.41053
1.43027
0.640363
0.704348
1.08437
1.6551
1.99155
1.92983
1.46036
1.177
0.555069
1.22662
1.47524
1.0533
215 78
473 292
137 121
383 477
427 31
425 225
462 243
368 49
239 393
346 486
312 444
489 397
34 11
26 228
59 306
287 207
142 113
431 120
279 2
406 274
14 170
125 169
330 194
131 260
91 105
346 255
327 207
43 267
253 155
115 303
1668
5
