30
7
0 0 0 0 0 0 0
26 94 48 95 33 72 75
93 65 42 71 99 68 73
13 59 14 87 11 78 91
18 64 53 11 26 80 71
51 44 39 35 41 94 34
95 79 71 57 11 89 10
56 39 26 15 95 98 72
65 17 66 48 85 30 52
39 90 72 64 82 85 45
100 14 76 78 18 76 32
89 58 53 40 21 34 92
32 29 62 98 54 36 61
55 42 45 70 94 28 88
94 28 94 51 87 21 20
99 23 90 34 71 98 97
69 53 57 35 46 16 54
41 28 46 13 12 12 63
14 100 43 89 96 53 28
93 34 48 24 31 65 49
41 77 81 67 90 27 80
62 75 89 18 35 79 92
81 32 75 67 18 39 26
60 70 16 56 87 61 51
78 47 83 99 73 61 24
97 97 63 95 82 56 20
39 35 76 29 64 64 29
52 62 67 100 16 45 69
52 17 64 96 74 32 82
82 35 69 47 36 72 97
2.44891
2.29893
0.754085
1.43527
2.3735
2.33076
1.67094
2.22369
2.03805
1.04783
2.11773
2.27779
0.538446
1.22216
2.28966
1.02454
2.31549
1.60074
1.92487
1.60252
0.852811
1.21036
1.24227
2.05631
2.36749
1.20053
1.93827
1.31688
2.39902
1.18316
94 155
203 189
160 324
179 401
63 424
454 96
81 140
413 315
202 7
91 467
349 13
340 402
483 462
210 113
359 122
373 206
337 180
6 450
200 1
128 107
139 181
469 475
124 361
254 84
185 424
450 75
368 477
258 271
273 272
23 393
1663
5
