30
7
0 0 0 0 0 0 0
66 58 35 61 38 50 21
59 94 18 33 69 94 36
77 67 28 75 20 50 17
52 30 98 27 56 72 29
96 67 60 54 88 13 71
23 36 74 87 76 61 77
62 25 58 45 25 29 66
68 64 28 87 19 41 80
14 93 46 16 50 29 19
76 34 64 58 13 32 95
59 75 19 17 45 89 26
85 81 53 23 87 79 21
95 90 29 35 37 33 94
48 12 40 48 13 21 28
21 92 61 42 68 12 70
59 67 47 97 92 32 43
10 35 25 47 45 66 66
92 62 90 98 47 46 91
100 75 91 65 85 94 22
66 59 14 56 87 53 11
88 21 35 60 55 18 40
79 35 71 55 29 12 24
87 42 64 98 31 18 33
72 71 69 18 63 90 20
65 38 51 41 47 98 88
62 57 92 47 52 88 28
15 42 35 22 53 15 53
19 39 39 76 69 46 50
60 37 25 45 91 81 50
0.8353
1.13282
1.19826
0.862807
1.244
1.82637
1.55972
1.24852
0.619067
1.18908
2.1862
2.05922
2.30471
1.64135
0.841199
1.88869
1.35005
0.847177
1.54141
1.54852
1.88424
1.06636
0.538562
1.39374
0.871826
2.26349
0.550023
2.37923
0.633162
2.34052
36 431
212 202
478 479
21 105
296 41
470 379
399 338
478 41
477 200
348 381
4 129
267 111
76 74
288 370
108 320
206 135
111 160
193 427
312 389
498 218
194 124
42 61
138 322
108 199
291 453
106 111
302 127
424 2
62 302
125 207
1535
5
