30
3
0 0 0
62 39 71
39 78 27
97 92 88
93 12 92
100 84 75
56 72 76
17 66 12
68 69 79
15 59 80
40 30 46
88 98 93
27 12 75
28 67 56
89 10 52
78 22 18
38 97 29
28 33 45
57 33 20
98 55 96
10 82 24
36 58 73
69 28 46
77 66 33
62 23 91
92 83 55
18 52 28
14 69 97
35 79 69
14 87 93
1.87663
1.13511
0.897653
0.453753
1.6121
0.78455
0.404424
0.436265
0.900342
1.81923
1.75801
1.71969
1.28769
1.92912
1.53436
0.545774
1.50567
0.780138
0.543938
0.989013
1.04813
0.797371
1.98574
0.807053
1.19404
0.88228
1.96474
1.56607
1.02067
0.717773
279 464
50 292
118 467
238 458
117 444
464 141
5 351
444 359
423 351
500 463
303 201
141 421
121 347
395 130
168 412
119 166
142 490
193 92
101 289
322 319
403 47
159 462
454 157
333 164
46 470
259 341
486 480
72 176
456 42
122 471
2743.33
3
