30
3
0 0 0
89 97 54
59 48 78
13 18 73
28 87 95
90 47 34
16 69 21
91 58 19
34 90 26
41 17 71
94 62 96
92 90 13
17 99 97
38 100 64
17 37 45
96 12 85
20 81 91
55 46 36
81 53 96
20 75 12
100 11 61
71 83 75
41 61 22
93 83 47
85 96 71
31 51 25
79 98 21
46 22 57
71 32 68
28 66 59
0.920141
0.861938
1.22743
1.72588
1.80238
1.42304
0.652974
0.525534
0.463989
0.912462
0.813432
0.46076
1.20653
0.769778
0.874871
0.826565
0.406165
0.70986
1.44081
0.505215
0.89476
1.80546
1.52817
1.11466
0.586603
1.72724
1.98252
1.67712
1.45996
1.56509
43 25
417 320
29 410
6 426
50 435
413 200
432 286
216 349
293 39
259 138
22 319
140 495
121 25
155 135
322 367
164 15
47 206
252 448
43 3
71 299
472 412
429 281
28 430
2 364
278 68
104 45
51 172
407 79
212 92
54 215
2098.75
4
