30
5
0 0 0 0 0
19 81 62 78 85
60 47 89 43 43
60 94 77 96 56
70 31 35 89 28
73 16 90 74 80
69 38 36 34 19
93 49 26 22 97
82 91 65 63 33
58 49 44 37 27
67 33 48 98 77
38 57 48 69 12
81 86 27 53 32
60 54 98 62 88
73 85 33 27 78
94 53 93 95 57
71 43 49 37 81
71 32 18 16 88
100 72 34 82 83
31 77 93 92 62
14 94 45 49 25
42 83 12 66 34
40 54 10 42 60
56 38 43 57 99
30 53 71 16 91
60 20 42 21 69
44 44 21 49 79
57 20 10 43 68
66 35 46 21 92
31 62 25 64 61
0.125566
0.451452
0.186881
0.216163
0.299498
0.469555
0.366402
0.219697
0.223577
0.272212
0.34623
0.319853
0.116349
0.406535
0.287415
0.359849
0.15728
0.297782
0.310948
0.148257
0.342171
0.210435
0.305879
0.132386
0.310767
0.11736
0.156412
0.295437
0.206387
0.456245
437 209
185 452
439 165
95 372
91 487
484 279
107 140
275 476
319 45
328 24
470 474
39 372
100 406
200 124
374 78
500 123
29 452
306 289
275 226
436 115
312 152
196 415
242 344
356 62
215 286
341 112
300 322
95 486
255 269
78 415
4045
2
