30
5
0 0 0 0 0
43 38 97 87 54
66 79 37 26 57
52 56 85 98 99
87 47 92 92 76
63 82 39 37 91
45 75 57 17 72
83 84 60 70 33
74 47 30 24 32
63 86 36 23 13
59 19 21 47 73
56 74 13 29 83
63 73 78 44 50
71 59 77 86 91
43 23 20 77 16
49 92 95 44 56
74 24 86 11 17
86 29 100 95 34
14 77 79 72 84
76 56 25 37 34
75 29 33 46 42
23 28 32 90 80
16 82 91 84 71
97 10 23 55 89
53 28 60 52 37
85 21 12 32 49
91 72 94 96 77
90 58 75 63 96
21 41 74 36 79
88 74 51 74 32
1.04818
1.41047
1.04154
0.476958
0.851748
0.704159
1.45171
0.375965
1.05737
1.40514
0.656526
0.627438
0.993354
1.15726
0.651929
0.451284
1.48382
0.808445
1.45775
0.877229
0.50755
0.968256
0.77166
1.47262
1.26906
0.3018
0.369171
0.454338
1.33777
0.466532
46 203
56 438
301 270
456 393
335 450
17 341
171 351
266 484
166 73
232 12
224 308
14 338
236 250
217 378
335 87
389 455
344 114
465 403
147 58
15 24
495 210
302 209
44 359
492 389
76 430
30 420
490 197
21 326
294 452
144 196
2800
3
