30
3
0 0 0
26 48 57
25 84 19
88 52 22
24 59 84
42 15 100
56 21 68
31 33 38
14 14 92
17 44 10
74 44 20
53 55 81
72 49 20
21 97 52
38 63 82
96 53 52
37 57 21
70 34 12
12 37 25
86 72 15
89 52 39
10 26 75
92 24 78
41 36 43
59 39 53
62 79 71
55 71 68
44 21 36
45 90 97
25 60 29
0.244648
0.494469
0.306676
0.314296
0.439247
0.277693
0.338073
0.20994
0.37833
0.482686
0.425611
0.488234
0.483251
0.399525
0.47023
0.209924
0.484895
0.429929
0.322443
0.207934
0.161129
0.478697
0.376266
0.374305
0.217402
0.339054
0.334994
0.496451
0.205022
0.416209
204 449
108 332
424 40
336 457
181 293
452 463
463 269
141 271
251 336
372 287
119 259
477 470
436 487
451 48
179 363
151 485
15 74
166 260
236 463
83 234
418 124
241 187
12 268
414 37
486 471
495 210
62 140
438 365
499 90
469 228
1787.5
4
