30
5
0 0 0 0 0
45 31 90 29 80
37 20 33 92 31
64 47 18 69 31
85 72 46 94 27
68 31 68 93 48
94 96 52 38 73
64 68 74 40 34
18 81 86 20 42
85 88 59 29 78
21 41 54 30 72
69 45 14 10 71
13 17 91 67 24
16 100 19 66 59
65 97 13 35 28
63 72 56 62 11
74 15 21 65 30
33 94 48 48 91
89 85 16 36 10
25 12 72 73 55
67 37 21 86 84
41 88 26 91 21
39 74 92 61 37
78 85 89 67 68
72 61 26 93 21
55 35 59 21 44
39 35 88 12 61
14 93 63 72 95
94 26 37 71 83
14 27 11 56 88
1.37803
1.09623
0.796517
0.703624
1.09971
0.97742
0.675563
1.05116
1.02256
1.35264
1.09037
0.692516
0.521559
0.680411
0.871168
1.2038
0.852812
0.67285
0.542855
0.78723
1.2857
0.388969
1.06839
1.14601
1.09664
0.322888
0.693282
1.17157
0.683824
0.875156
438 401
428 127
237 310
89 267
332 164
357 472
299 82
127 207
36 127
458 452
116 98
374 205
243 219
68 149
74 82
298 429
480 439
435 383
335 60
136 164
13 67
65 330
271 282
234 228
33 298
259 339
160 427
72 141
75 85
293 447
1555
5
