30
9
0 0 0 0 0 0 0 0 0
72 51 75 74 11 86 38 79 66
38 12 61 96 61 35 85 59 63
21 29 64 14 28 84 91 12 22
29 15 67 79 19 38 15 18 33
61 59 84 87 84 25 83 23 28
88 14 22 71 69 16 91 78 57
65 27 30 100 71 41 60 45 76
42 82 38 30 79 50 71 96 44
35 24 26 13 14 81 11 64 43
77 23 41 38 73 74 15 86 84
81 81 28 46 58 56 99 17 52
74 57 85 14 22 96 36 74 16
98 27 39 10 51 50 43 91 85
93 96 97 41 35 33 80 60 30
33 40 10 31 38 38 53 14 63
88 53 24 69 60 37 36 22 83
30 64 76 80 42 22 18 62 27
93 28 46 30 79 26 15 79 100
56 76 37 97 41 80 50 10 73
43 82 24 63 74 86 31 53 94
88 82 51 19 48 10 94 66 77
60 57 27 68 85 14 23 26 78
16 68 43 28 37 71 10 53 24
59 79 51 81 29 72 16 55 70
94 32 32 57 97 56 45 32 18
98 46 49 12 26 86 81 68 72
27 64 59 92 41 73 65 62 46
60 26 50 16 95 27 38 55 66
54 28 92 66 87 67 23 95 74
0.126679
0.122562
0.330529
0.134845
0.428626
0.238968
0.133257
0.111722
0.248048
0.497473
0.448708
0.350178
0.316071
0.484879
0.303918
0.252822
0.112952
0.124881
0.449762
0.332457
0.197867
0.336811
0.207186
0.343749
0.192406
0.177657
0.357346
0.357875
0.42625
0.374989
161 383
494 180
438 463
320 160
95 155
398 471
76 360
460 349
11 203
84 70
56 471
187 279
137 249
67 416
185 258
81 294
480 31
36 397
343 226
214 337
110 180
99 342
437 179
342 320
100 498
111 71
383 301
170 251
257 217
435 333
2566.67
3
