30
7
0 0 0 0 0 0 0
38 22 67 17 92 54 48
80 90 19 34 29 80 28
20 64 78 45 44 12 46
92 58 88 15 85 54 12
72 81 34 17 17 72 16
18 39 96 95 41 51 80
53 20 28 97 44 20 84
57 21 22 20 63 64 39
63 53 37 64 45 32 81
73 54 94 90 51 49 66
36 68 91 32 14 60 64
53 39 95 76 82 29 95
26 20 35 88 25 86 80
98 85 48 12 25 56 27
73 80 17 26 41 87 11
55 83 90 54 17 86 67
22 53 54 73 32 24 18
51 78 72 46 67 70 21
28 83 43 25 97 12 18
37 55 43 12 79 34 55
36 71 94 86 46 53 35
83 14 19 46 69 91 67
23 19 47 76 37 68 14
42 53 35 25 61 61 15
39 67 45 10 12 64 20
66 71 24 75 70 88 50
74 14 19 16 41 49 50
29 84 95 59 26 88 70
51 20 25 65 27 71 15
0.415001
0.389577
0.31858
0.212651
0.4275
0.346392
0.438957
0.2497
0.326805
0.104453
0.180665
0.498309
0.1598
0.310541
0.437274
0.359756
0.436431
0.302608
0.107039
0.485748
0.468489
0.327734
0.210379
0.258921
0.251205
0.239724
0.464594
0.161631
0.448152
0.4945
159 166
74 263
20 289
420 10
467 313
375 288
425 215
391 379
495 34
91 178
74 319
126 36
277 93
214 497
299 440
267 197
333 499
403 133
49 85
487 181
63 397
69 255
234 437
92 478
343 345
39 419
224 120
49 285
471 253
99 351
2460
3
