30
9
0 0 0 0 0 0 0 0 0
28 86 63 99 10 44 31 19 42
66 81 95 40 96 38 30 96 23
20 90 67 63 57 50 88 66 87
11 21 17 32 31 49 35 51 32
45 95 17 37 14 32 51 64 45
44 81 95 87 43 34 26 67 37
80 46 62 39 26 43 40 41 27
20 12 19 79 69 67 55 70 74
22 15 70 48 10 48 38 100 89
38 57 40 48 14 76 10 12 51
91 24 26 34 25 41 83 99 46
35 96 81 48 48 38 100 37 12
73 68 100 15 77 67 14 100 82
18 21 52 95 85 21 70 94 57
92 20 26 85 12 41 50 88 74
31 25 63 54 76 18 59 82 34
93 69 87 20 86 21 53 43 23
23 27 94 96 47 11 25 76 30
43 87 53 19 99 19 39 52 49
18 97 65 69 76 42 48 28 78
20 63 71 29 95 46 96 18 81
91 90 33 18 78 17 97 95 93
56 92 31 84 11 83 79 21 42
11 33 12 42 50 92 70 59 83
62 57 30 54 79 84 42 81 64
55 33 61 92 84 15 78 14 48
37 77 40 50 90 74 58 48 60
98 31 75 78 24 95 18 33 79
57 89 83 22 18 88 31 78 98
0.282367
0.929986
0.341721
0.54432
0.359067
0.585401
0.256001
0.282414
0.720859
0.764914
0.570039
0.617274
0.256228
0.916191
0.724715
0.521059
0.272342
0.820761
0.571341
0.497955
0.487788
0.307429
0.710785
0.78423
0.570881
0.78992
0.43517
0.253236
0.671011
0.58114
441 289
163 140
413 75
185 442
10 227
362 145
370 7
55 472
408 50
479 435
132 372
239 158
128 457
98 108
229 276
35 197
248 161
219 109
117 329
434 413
241 223
488 492
186 302
176 155
324 16
178 140
64 403
152 398
325 175
382 333
2605
3
