30
11
0 0 0 0 0 0 0 0 0 0 0
53 79 72 63 34 12 81 40 22 31 88
41 82 93 20 75 48 27 48 87 86 82
17 21 70 37 61 53 58 29 93 41 23
87 94 59 81 45 88 52 75 22 68 72
25 46 74 92 24 91 55 95 17 25 73
45 88 20 26 26 74 24 48 15 74 100
43 95 98 50 74 82 14 94 47 74 86
72 37 26 83 82 100 45 17 15 77 20
25 58 68 53 44 19 50 11 73 62 31
18 61 40 33 98 61 54 40 83 78 27
26 15 50 86 12 32 96 19 55 42 70
36 13 88 88 48 44 19 92 86 72 13
85 100 61 38 94 53 52 51 22 84 88
73 11 69 18 56 79 100 21 21 34 33
46 87 10 34 50 68 52 47 67 64 75
12 13 65 76 90 91 15 71 76 89 49
73 67 23 90 67 42 87 95 50 27 82
76 41 57 76 68 39 55 51 85 17 28
95 32 45 79 18 58 10 71 90 61 31
66 20 55 50 58 78 99 97 86 14 25
100 59 93 41 41 99 29 71 76 36 73
19 84 81 46 94 97 52 23 70 59 94
91 35 10 92 37 18 55 79 60 17 29
54 96 31 88 73 26 43 84 31 20 58
13 52 39 85 53 24 89 72 39 57 77
84 40 88 80 38 65 40 96 95 65 24
20 66 32 20 15 98 21 26 46 88 80
53 81 74 68 52 61 52 41 58 27 50
100 69 89 30 65 27 58 27 36 49 20
0.476512
0.872523
0.965322
1.88625
1.98492
0.899959
1.8487
0.996805
1.38609
0.957654
1.85504
0.506018
0.856966
0.50472
0.61756
0.521533
0.681228
0.930682
0.929039
1.27839
0.800105
1.34218
1.72112
0.768264
0.469709
1.15756
0.950786
0.840711
1.5458
0.956481
75 213
36 287
413 308
227 438
381 418
17 68
341 230
223 206
372 485
190 74
486 34
24 203
467 146
312 355
13 92
74 352
247 74
223 81
152 459
277 274
119 342
366 271
448 97
318 205
352 239
321 209
244 212
259 410
470 48
9 36
2021.25
4
