30
9
0 0 0 0 0 0 0 0 0
11 78 49 92 93 28 19 62 40
81 76 34 14 46 47 40 43 13
47 17 81 45 83 34 21 90 26
68 60 27 31 95 44 85 82 46
34 26 32 81 49 69 25 62 10
63 77 70 48 25 46 62 22 82
96 45 77 88 86 40 70 44 69
85 89 27 64 32 48 26 28 15
10 24 89 75 91 24 49 86 91
62 68 35 20 76 68 23 44 67
94 40 64 97 81 53 84 10 16
12 13 35 84 62 93 88 76 73
94 68 51 33 64 92 80 57 60
41 23 27 59 72 31 83 97 40
94 100 54 31 92 81 66 19 14
40 29 30 55 20 83 35 65 10
95 46 33 38 49 76 68 36 99
14 32 14 80 67 51 20 23 31
24 57 26 22 16 29 62 61 23
72 99 71 80 83 28 68 64 43
45 83 67 64 17 69 66 15 67
87 27 14 19 79 98 96 43 85
50 26 54 56 98 59 51 87 12
33 48 84 31 94 20 34 49 86
61 73 100 77 52 83 77 74 33
28 20 73 63 34 56 41 58 65
95 28 50 57 59 36 52 55 56
16 48 36 98 39 76 91 88 42
64 89 46 75 33 66 40 60 14
0.92235
1.23324
1.00897
1.81943
1.03067
0.434827
1.06177
1.26716
0.700013
0.823473
1.73409
1.72667
1.43196
0.811226
1.03867
1.19174
0.806456
0.784625
1.82966
1.06833
1.991
1.74253
0.870932
1.99807
1.21574
0.570745
1.14771
0.686557
1.06448
0.732659
341 193
96 338
338 144
358 273
426 314
340 367
484 499
389 433
384 201
302 497
10 260
246 237
500 300
140 311
38 414
286 294
173 271
178 216
369 92
321 230
358 268
378 359
52 140
168 212
345 422
122 174
15 317
7 319
324 239
372 94
1579
5
