30
11
0 0 0 0 0 0 0 0 0 0 0
11 76 34 77 67 36 85 80 10 60 71
46 10 33 36 21 57 62 94 100 87 10
52 42 46 53 99 18 47 19 98 53 42
87 61 83 57 25 97 65 52 94 88 16
95 73 20 71 56 41 78 67 88 86 89
78 52 58 84 56 57 14 98 53 76 76
63 70 15 81 10 92 80 27 28 83 93
81 19 22 40 33 20 51 78 16 31 60
46 28 18 65 12 18 12 48 59 50 56
20 41 88 96 65 61 20 71 31 14 24
76 51 83 40 53 49 39 18 95 51 34
44 64 38 97 10 66 53 85 78 13 64
36 98 18 90 22 35 21 27 96 78 54
24 59 23 11 65 72 15 38 71 55 11
82 71 36 53 43 53 94 61 41 48 94
55 22 56 13 60 76 30 91 87 36 52
24 40 67 12 91 80 67 64 17 25 54
21 54 77 37 46 19 49 44 13 25 45
10 17 74 73 56 88 26 97 62 12 69
17 88 17 70 63 36 94 64 57 10 77
46 63 47 58 54 59 74 10 82 15 69
60 48 70 64 12 57 98 94 69 47 32
52 62 90 70 18 86 42 30 58 46 89
24 67 78 19 22 37 79 11 93 38 21
59 55 20 18 12 48 78 68 37 85 90
21 58 34 74 48 11 95 40 47 42 53
15 49 17 31 96 49 55 66 15 72 31
71 60 28 38 64 60 77 12 12 57 16
75 43 93 55 45 37 83 38 69 77 51
0.684352
1.16054
1.35228
2.08665
1.89181
2.39379
1.51911
1.14381
1.14089
0.63292
0.617538
2.04668
2.02155
1.52104
0.716504
1.23119
2.3555
1.50162
1.09203
2.29915
2.26635
2.14441
2.45133
2.35692
2.13149
2.29161
1.58535
1.91919
1.50532
1.20969
380 299
27 289
73 136
27 488
158 1
369 141
47 139
115 431
376 347
19 110
90 424
161 481
120 252
206 217
105 98
18 270
170 492
261 340
368 100
307 466
47 309
293 322
490 36
385 197
300 61
89 380
192 40
418 474
443 236
1 174
1517
5
