30
7
0 0 0 0 0 0 0
63 96 57 45 57 36 56
74 71 96 33 100 52 61
31 81 10 59 42 95 73
82 37 42 51 23 15 57
48 28 81 31 84 94 87
90 49 87 31 72 98 74
65 23 30 37 17 77 78
14 77 17 52 93 90 65
21 81 74 60 16 73 48
90 35 35 33 28 60 55
37 86 82 80 61 78 36
42 87 88 36 17 73 17
90 31 92 18 58 61 97
99 47 45 100 89 76 29
86 45 42 73 35 40 93
14 100 71 14 37 97 83
75 55 60 24 47 49 16
91 75 25 39 78 29 90
52 68 20 33 90 44 58
17 59 76 23 78 55 50
33 24 85 19 78 89 27
74 12 84 17 21 82 54
18 48 38 74 92 63 96
62 37 92 71 76 47 37
82 24 59 98 93 85 46
23 86 38 28 13 37 10
65 84 60 64 24 65 54
37 27 46 89 44 85 36
49 17 23 83 86 79 28
0.270943
0.375536
0.229692
0.233673
0.218728
0.270234
0.303556
0.199265
0.202693
0.159074
0.20965
0.228003
0.335186
0.124443
0.186931
0.261882
0.392348
0.463508
0.343158
0.351172
0.467833
0.34495
0.364022
0.492183
0.470055
0.221736
0.157731
0.253178
0.492397
0.124196
2 328
120 16
330 22
488 476
106 315
242 94
216 191
144 487
365 115
232 341
370 71
468 388
431 98
25 62
389 476
195 259
493 344
173 97
235 260
171 309
233 102
283 208
287 123
282 81
130 123
277 339
200 425
113 118
69 387
88 364
2047.5
4
