30
7
0 0 0 0 0 0 0
50 49 10 50 89 14 48
68 39 38 93 29 17 80
48 57 10 14 81 51 59
18 33 61 52 21 53 61
89 68 41 66 43 72 98
47 45 80 13 56 32 98
71 87 63 82 67 60 57
82 60 56 65 77 13 14
50 63 71 53 52 67 47
40 81 81 95 52 54 64
36 47 57 87 79 36 43
21 30 75 74 92 22 73
73 73 28 23 90 30 71
42 62 87 55 100 24 43
28 39 97 61 81 22 91
26 77 15 38 80 43 11
96 86 67 76 46 55 96
37 46 42 60 46 79 15
63 55 14 66 36 50 19
95 99 93 34 67 14 74
46 24 79 88 90 47 88
25 12 40 54 98 19 65
40 71 71 69 57 26 95
39 33 36 65 80 20 17
55 29 74 83 80 92 42
14 68 61 51 56 40 46
10 18 41 69 32 42 47
78 89 67 43 35 62 93
41 21 48 74 98 14 56
0.909256
1.42861
2.49521
1.94907
2.36152
1.29916
1.02083
1.55414
0.78501
2.15716
1.43969
1.60583
1.69173
1.89995
2.06606
2.3324
1.58613
1.08523
1.24892
2.17037
1.95565
1.03078
1.74708
0.509137
1.37899
0.717698
1.72999
1.03435
2.08937
1.08552
324 418
393 161
443 490
314 92
81 349
264 175
66 402
43 361
202 293
64 153
1 118
293 430
119 349
273 27
125 247
360 277
496 276
153 293
37 467
344 312
190 271
105 468
416 26
329 254
423 97
421 183
460 434
429 82
2 135
465 49
1987.5
4
