30
7
0 0 0 0 0 0 0
10 35 45 85 79 86 34
32 90 18 42 78 82 48
97 16 35 99 99 37 24
37 18 71 48 79 30 69
78 98 38 40 53 47 15
80 19 16 81 76 91 19
97 98 76 80 56 47 30
29 23 43 34 32 56 30
52 44 47 65 70 87 55
74 79 37 14 83 62 66
82 100 98 27 74 50 67
20 81 24 78 25 57 26
33 27 69 12 31 34 68
39 29 52 52 46 45 16
55 60 53 41 10 80 31
46 58 30 38 42 96 84
82 21 44 77 54 40 85
29 93 70 56 61 45 84
87 14 26 20 76 14 39
88 71 96 10 44 24 87
55 82 25 20 30 70 25
42 18 16 61 44 83 40
25 38 23 55 58 64 98
97 29 98 18 27 20 28
47 63 27 43 80 50 30
15 79 45 51 65 87 67
62 14 11 85 11 57 24
23 77 89 37 36 40 20
62 44 58 52 20 71 20
2.42186
1.37901
2.02404
1.38617
2.11308
0.705605
1.26047
1.00519
0.971616
1.63149
0.652311
1.6475
1.37689
1.60749
0.783947
1.70265
2.2104
1.60131
2.04635
1.86935
0.684973
1.78614
1.02233
0.594178
0.654982
1.12585
1.36519
1.6789
2.36166
2.4559
26 378
134 133
257 396
128 398
159 112
419 131
224 259
483 419
448 301
174 21
157 116
356 28
487 402
16 280
232 499
499 499
124 18
140 275
50 347
489 8
144 63
484 406
228 410
430 234
359 209
92 154
284 275
312 45
69 438
488 454
1858.75
4
