30
3
0 0 0
16 84 58
53 77 31
75 94 25
95 69 57
34 36 54
33 95 87
89 27 79
10 11 45
65 63 14
31 52 37
28 50 95
42 50 62
28 54 24
23 86 82
39 91 31
94 80 21
49 39 78
71 44 28
100 20 67
42 37 58
78 32 10
40 96 63
99 96 73
43 69 54
86 87 54
33 46 28
42 81 45
44 94 26
66 73 63
0.208916
0.484457
0.296436
0.211731
0.307154
0.142291
0.17992
0.349
0.456697
0.351167
0.332369
0.22172
0.223506
0.151616
0.378915
0.392331
0.322309
0.348048
0.442018
0.242172
0.332109
0.467318
0.337239
0.343859
0.430514
0.313324
0.42668
0.299288
0.201112
0.127247
39 142
212 229
434 300
147 46
192 400
4 350
378 260
306 281
425 292
497 166
377 298
262 67
295 275
119 18
34 144
369 74
218 308
115 415
481 171
162 199
230 50
48 476
144 238
227 125
406 284
399 99
320 162
461 259
219 364
386 219
4025
2
