30
7
0 0 0 0 0 0 0
56 87 62 65 22 25 28
38 37 86 96 86 33 14
50 59 63 93 24 11 74
42 67 33 76 28 17 14
58 89 46 32 12 89 77
60 29 72 41 30 75 48
96 32 99 52 63 25 94
68 22 61 27 37 19 81
77 72 84 66 43 50 24
54 95 49 84 65 25 45
69 73 61 51 83 19 54
37 87 64 76 26 98 90
51 15 89 64 65 26 70
62 60 50 38 85 58 54
23 78 92 22 12 25 66
22 24 89 20 30 69 53
25 52 71 27 28 85 23
70 91 12 20 85 57 23
84 70 90 81 94 79 43
99 91 57 53 74 43 52
85 23 19 35 36 81 43
55 59 30 58 62 77 13
63 73 59 73 94 52 88
77 70 92 54 40 56 27
79 100 41 75 100 28 76
82 40 97 87 64 87 84
63 11 49 73 56 78 78
30 18 66 89 39 26 87
83 82 37 29 12 88 84
0.731762
0.736798
1.09737
1.18344
0.313777
0.957304
0.75806
0.765525
1.37793
1.29931
0.408696
1.25751
0.361887
0.632751
1.23884
0.69901
0.850262
0.537701
1.11126
0.814302
1.25604
0.489562
1.39813
0.81269
1.43535
0.856797
0.777538
1.05545
0.647543
0.927185
376 80
218 201
375 230
342 240
98 282
243 204
336 31
70 451
416 499
474 338
63 162
161 157
39 378
252 208
208 226
388 162
358 27
459 366
326 130
496 318
36 82
69 335
130 103
207 75
411 490
146 398
158 443
201 351
312 74
350 435
8245
1
