30
5
0 0 0 0 0
21 48 55 86 61
58 84 31 57 79
92 32 78 15 86
19 49 36 22 22
15 21 42 14 85
95 76 15 64 65
26 56 85 53 21
33 13 25 41 10
41 38 15 68 46
18 19 11 92 32
80 99 53 100 65
44 60 62 70 48
71 100 62 91 26
83 100 30 25 35
51 79 42 29 46
13 67 24 27 12
42 88 32 41 79
24 86 61 55 51
92 91 68 95 61
45 19 17 12 71
34 75 64 53 23
85 43 11 88 42
13 36 57 94 44
75 53 68 38 65
85 33 95 93 24
79 95 83 15 27
15 61 85 51 98
33 89 19 70 97
86 21 29 42 98
0.3089
0.230583
0.156702
0.349976
0.102496
0.462756
0.362813
0.483415
0.41196
0.421321
0.45508
0.187218
0.386275
0.169638
0.20785
0.128084
0.130192
0.182783
0.356549
0.100013
0.434367
0.142382
0.457263
0.135057
0.120674
0.330972
0.366554
0.49417
0.206189
0.461628
105 176
172 263
385 252
480 256
11 238
196 347
158 355
56 179
8 130
207 211
60 460
227 149
408 435
214 493
363 393
48 258
136 290
122 340
62 142
290 24
67 219
314 218
346 273
215 355
140 237
383 93
62 438
185 441
430 378
321 485
2556.67
3
