30
11
0 0 0 0 0 0 0 0 0 0 0
14 84 36 92 28 56 48 40 53 100 21
13 29 18 51 36 31 23 86 80 34 48
73 90 34 34 22 35 70 25 66 61 63
65 94 55 87 45 43 25 76 17 75 52
42 45 28 98 64 19 17 90 92 74 28
43 11 92 85 20 63 61 43 23 22 13
87 35 63 47 86 33 25 30 60 33 19
28 34 87 31 90 67 68 86 71 16 85
81 47 50 69 49 37 19 19 14 77 55
98 70 67 41 32 61 52 20 41 94 93
60 60 75 15 88 16 70 100 100 37 97
32 56 59 19 82 70 36 18 88 88 80
71 70 22 24 31 25 28 62 25 87 34
11 92 45 16 45 28 98 61 19 56 74
54 59 36 92 25 59 30 26 57 94 54
92 52 34 25 19 97 28 18 57 25 49
50 72 62 12 39 15 10 66 60 51 32
94 54 14 81 16 63 76 34 73 17 53
47 92 23 81 94 67 73 68 83 95 80
80 56 89 32 68 48 69 75 99 60 14
31 52 67 89 64 95 38 46 97 34 89
93 26 76 51 73 35 76 46 42 44 29
46 28 71 51 35 50 99 20 70 18 55
89 90 60 88 69 94 91 94 16 58 61
48 10 46 47 28 36 80 12 13 36 17
86 41 59 19 38 50 100 83 46 18 37
91 60 18 28 91 54 89 62 49 74 50
60 28 54 85 11 84 36 48 27 15 23
16 45 44 32 81 69 61 72 25 26 25
0.999704
2.36893
1.34252
0.534735
0.686041
1.91523
2.38239
1.16888
1.21572
1.1375
2.07288
1.41355
0.712269
0.674632
2.41207
1.32477
1.76664
1.30345
2.27038
1.84377
2.43864
2.07084
1.86887
1.38768
1.30137
0.839556
2.14823
0.7197
0.783294
1.85486
14 198
145 64
264 264
136 458
191 453
245 203
198 157
478 249
339 128
134 487
99 2
379 398
197 2
468 83
200 101
301 463
489 217
388 432
221 300
353 212
372 394
12 128
321 333
27 313
287 196
210 393
316 280
16 301
181 211
315 241
1535
5
