30
3
0 0 0
18 59 45
95 91 29
34 87 10
62 72 65
32 46 20
12 51 14
49 49 44
43 81 56
38 66 73
79 20 51
58 64 12
15 93 76
17 76 15
36 30 45
84 59 74
45 94 16
49 22 76
88 13 52
13 93 16
45 50 78
68 52 73
31 64 59
77 68 12
56 88 44
19 94 60
54 30 23
77 74 41
99 75 61
17 100 28
0.563414
0.709425
0.858996
1.04409
1.23311
0.969065
0.79619
0.387666
0.501766
0.662943
1.12875
1.18484
0.58371
0.939617
0.349641
0.401476
1.40105
0.986613
0.893011
0.58503
0.332741
0.811277
0.737691
0.502642
0.590072
0.433866
1.14727
0.62892
1.1488
0.669483
476 408
320 401
274 497
394 370
200 95
71 495
28 115
134 146
101 308
246 362
159 461
371 299
383 437
147 444
27 350
492 33
276 450
326 363
135 458
442 169
441 371
58 368
102 344
321 142
69 174
337 222
278 381
344 404
404 149
136 129
1513
5
