30
5
0 0 0 0 0
68 16 71 64 22
14 100 32 69 40
39 40 86 85 38
46 42 58 87 74
87 40 80 45 69
98 37 70 79 70
49 69 47 98 33
49 38 16 36 49
66 77 21 91 66
81 82 82 36 83
48 49 29 91 37
82 45 73 23 71
78 79 48 49 95
18 15 38 14 54
92 18 47 55 63
30 68 27 27 19
86 36 65 92 19
36 95 79 90 70
28 12 61 40 92
61 89 71 71 96
74 65 78 65 71
75 30 37 97 14
59 16 41 90 77
18 36 73 85 73
84 55 77 40 61
84 96 84 88 60
24 27 42 52 47
41 92 14 12 98
73 92 23 30 85
0.287058
0.648421
0.910831
0.319452
0.984854
0.642832
0.21631
0.880454
0.820799
0.37457
0.865851
0.675561
0.980506
0.988256
0.852721
0.382567
0.200247
0.915506
0.875236
0.328426
0.53409
0.633284
0.703472
0.790059
0.720529
0.789742
0.802151
0.732627
0.546607
0.822775
13 238
187 7
460 83
295 481
360 140
7 433
129 416
136 472
369 162
386 299
148 76
174 410
232 172
348 433
64 122
369 98
77 125
265 92
232 226
146 195
376 459
283 388
283 288
96 419
284 158
129 404
133 406
311 415
349 275
147 485
4180
2
