30
11
0 0 0 0 0 0 0 0 0 0 0
14 76 50 38 25 99 14 90 70 36 61
96 24 49 29 86 13 14 60 68 38 95
72 29 34 26 51 50 59 68 22 26 89
23 74 51 56 58 83 93 28 59 98 88
10 94 34 86 80 44 54 41 41 99 11
78 48 60 45 78 55 54 76 58 53 20
58 70 28 37 45 29 54 61 19 94 46
98 64 77 97 11 44 31 54 86 90 15
67 74 48 24 46 45 14 39 37 69 82
67 15 54 36 35 85 45 44 36 20 82
98 99 82 77 89 99 52 52 17 47 30
46 35 63 88 41 64 57 51 88 71 11
85 91 21 24 71 62 43 75 43 95 10
62 89 65 93 97 18 50 35 30 95 69
92 75 54 10 89 46 15 42 91 19 93
97 50 97 59 87 34 40 89 91 43 92
42 94 79 70 99 57 40 10 38 41 43
66 26 51 47 90 32 56 32 23 16 97
50 71 75 21 57 19 33 11 31 37 56
30 75 66 23 44 38 37 40 66 37 46
44 99 26 74 23 94 90 56 83 31 75
43 22 77 88 86 10 18 12 34 91 30
51 32 82 95 60 100 59 82 64 18 55
84 79 60 90 39 77 22 29 92 40 73
49 42 95 52 95 43 62 32 15 25 97
43 83 13 74 27 91 86 87 94 74 30
98 82 71 47 61 22 74 96 62 27 73
45 31 52 87 100 89 47 25 100 33 71
37 98 47 91 15 97 39 40 28 16 99
1.20111
0.650374
0.54061
0.588894
0.992299
0.888397
1.45303
0.590656
0.538068
0.698301
0.446637
0.435583
1.3253
0.312384
1.44187
0.345443
0.56663
0.47601
1.34068
0.769631
1.37279
1.3638
0.771899
1.17051
1.42516
0.561369
0.688745
1.3273
0.939823
1.40217
314 140
387 326
278 314
117 294
99 187
364 381
185 479
166 90
12 31
289 458
190 354
445 293
155 382
127 292
196 464
115 332
446 58
70 249
229 297
498 73
272 127
479 399
38 160
210 369
353 12
85 371
26 111
499 415
479 180
499 403
2721.67
3
