30
3
0 0 0
14 48 87
34 75 48
88 33 51
43 63 58
83 78 67
16 89 16
54 37 82
76 60 80
14 90 64
90 94 19
24 29 90
21 40 16
29 77 81
65 12 87
14 64 17
20 72 63
20 94 23
26 87 66
56 26 50
42 16 78
31 38 92
86 94 100
53 87 53
78 25 52
17 83 46
20 28 42
60 58 31
66 61 70
21 97 52
0.917414
0.581569
1.89321
1.84327
1.6822
0.634663
1.39537
0.786866
1.99952
0.855526
1.80722
0.705755
1.56566
1.28268
1.27073
1.8153
1.13717
1.40196
1.0722
1.79412
0.978805
1.02612
1.61891
1.25396
0.637687
1.75532
1.53295
1.08158
1.63779
1.10612
200 455
69 260
171 18
18 404
89 279
415 42
27 498
430 288
216 85
34 325
205 38
40 182
337 125
494 177
60 328
18 223
315 216
306 250
437 426
374 154
492 140
384 6
48 295
207 215
227 243
39 135
475 149
82 88
75 430
368 444
7825
1
