30
5
0 0 0 0 0
87 16 63 76 93
35 49 15 91 38
25 87 80 54 69
55 61 22 19 13
88 71 46 95 27
30 20 36 48 91
19 44 96 44 27
38 99 100 60 87
28 74 93 55 98
34 42 13 15 77
43 76 47 20 88
78 78 60 93 86
19 70 76 32 19
39 44 16 15 97
26 82 32 16 83
66 90 77 97 51
35 54 47 38 72
56 88 82 70 37
13 98 51 13 11
10 68 99 76 91
29 49 10 40 36
52 87 10 32 44
12 51 45 38 98
61 17 33 78 35
97 36 42 36 99
81 78 58 84 41
82 59 72 22 86
82 17 17 52 51
83 16 88 49 27
0.123531
0.362387
0.271727
0.109807
0.379679
0.204463
0.236198
0.178298
0.359041
0.246529
0.102774
0.210294
0.292561
0.104459
0.352898
0.36568
0.237636
0.305901
0.470007
0.461504
0.134431
0.148534
0.217749
0.331472
0.291593
0.369247
0.138032
0.311167
0.267565
0.408634
494 193
219 147
239 112
340 7
191 320
94 234
89 467
446 189
174 372
140 261
82 285
393 472
103 324
474 449
490 307
76 324
128 471
85 461
149 221
3 358
454 179
495 24
439 208
12 140
37 281
61 93
147 473
311 424
335 485
351 392
1970
4
