30
7
0 0 0 0 0 0 0
83 47 59 51 48 69 19
93 13 73 28 86 92 23
77 12 32 18 49 63 57
95 33 55 26 72 16 86
74 36 53 37 94 76 45
11 70 12 51 22 13 93
93 91 52 99 92 56 59
53 62 30 87 60 89 40
88 87 27 15 41 84 78
81 44 75 53 96 84 88
16 80 80 56 100 96 86
97 26 55 12 52 81 100
90 63 49 51 89 55 64
37 30 66 22 23 28 100
81 87 43 35 91 45 98
94 89 11 14 84 16 51
77 42 54 92 29 35 24
68 79 90 37 30 83 44
18 85 85 46 55 22 42
40 63 81 12 77 96 15
21 39 16 86 22 13 90
75 50 40 86 98 50 97
45 66 47 77 10 64 36
38 82 31 78 71 43 81
41 85 53 25 63 94 76
57 70 67 88 52 38 15
21 13 21 89 15 92 34
90 88 24 18 46 15 28
61 19 100 84 91 97 32
0.428559
0.8208
0.352354
0.877896
0.884793
0.793425
0.364799
0.824859
0.71076
0.991868
0.460025
0.359531
0.510737
0.238431
0.38055
0.422702
0.324126
0.818738
0.758793
0.219237
0.240303
0.433311
0.509292
0.69229
0.545622
0.536547
0.236061
0.494564
0.935314
0.427746
363 117
234 108
29 213
375 375
35 213
191 228
251 53
190 326
0 84
106 334
76 494
231 379
376 237
209 332
372 114
425 400
395 285
137 294
427 97
475 322
40 267
230 319
137 321
224 162
279 432
344 28
492 225
257 192
390 222
347 475
4135
2
