30
7
0 0 0 0 0 0 0
83 44 45 87 35 79 90
68 62 25 45 80 39 36
63 27 92 76 43 82 45
36 43 13 13 55 36 79
33 20 95 13 89 70 13
99 45 79 65 13 82 69
73 90 90 39 95 38 45
64 35 18 83 76 12 54
49 28 39 72 14 11 92
63 35 11 17 40 20 58
97 61 66 17 60 33 37
70 100 18 73 12 58 16
44 43 46 36 66 35 34
65 19 38 75 34 78 77
46 87 37 23 26 43 95
56 28 69 36 73 19 98
17 73 26 86 66 36 83
40 10 59 67 58 52 66
19 85 65 48 49 64 44
36 14 42 71 20 96 65
55 31 57 23 55 65 35
23 62 25 24 40 59 91
26 68 45 78 19 50 54
98 11 57 16 52 42 88
42 23 63 92 30 83 74
56 72 93 85 10 78 36
32 55 97 22 24 100 87
82 78 34 56 19 55 76
53 94 72 93 40 42 84
0.908769
1.72825
1.75117
0.618959
1.24696
0.913556
1.44832
1.23202
1.70507
0.949198
0.870531
0.775246
1.57217
1.09812
1.70597
1.30363
1.78713
0.756181
1.73345
1.53861
0.814478
1.0219
0.977451
0.532087
0.830658
0.83936
1.42454
1.16468
0.774549
1.20353
72 113
347 292
75 434
177 25
11 56
393 196
179 476
377 203
351 393
411 123
279 338
361 351
143 9
364 133
145 213
82 39
263 119
253 316
352 14
370 148
359 422
138 191
488 172
165 39
492 258
296 430
315 327
76 56
330 412
178 315
2558.33
3
