30
11
0 0 0 0 0 0 0 0 0 0 0
39 11 94 19 38 69 13 99 68 30 84
80 92 90 100 46 74 37 55 15 70 71
98 79 62 67 29 50 52 71 18 31 23
95 85 11 12 65 60 32 56 74 28 39
79 19 57 59 50 11 75 95 15 24 43
43 62 19 21 15 92 13 48 73 17 58
100 55 99 54 15 95 49 41 55 72 20
67 13 60 32 27 83 14 84 18 18 87
48 97 92 39 89 48 57 34 52 38 13
59 68 30 36 97 48 99 41 98 94 72
68 74 46 100 62 32 32 63 16 88 56
27 13 46 30 42 54 100 52 80 39 24
42 45 90 83 12 91 90 20 56 43 75
90 68 37 82 15 94 31 47 53 68 18
78 54 37 59 34 30 47 92 16 82 21
28 61 47 99 49 18 63 15 43 39 36
88 10 62 25 23 14 69 76 81 27 55
20 67 66 71 47 99 46 73 98 60 16
93 88 25 97 85 54 50 64 28 60 44
29 35 65 95 35 97 68 86 80 24 20
63 32 77 34 39 86 12 72 21 81 64
35 85 77 66 88 62 17 60 71 85 18
21 18 30 63 86 28 52 63 64 12 72
47 63 42 27 55 46 92 80 83 83 90
77 45 46 27 15 85 85 94 49 39 78
52 15 50 54 63 77 67 31 92 88 45
86 64 13 51 33 68 92 10 92 26 95
77 56 69 98 76 43 40 18 84 78 64
38 25 38 11 93 37 67 40 86 95 89
0.508074
0.59127
0.503542
0.660428
0.973177
0.960404
0.783209
0.697712
0.447366
0.306063
0.201391
0.358027
0.201407
0.58305
0.571087
0.441583
0.53898
0.2572
0.934974
0.558283
0.978821
0.243059
0.414888
0.605463
0.491887
0.946184
0.894396
0.847078
0.808584
0.435457
417 111
260 280
158 343
109 5
350 17
445 371
159 401
449 433
282 207
378 77
292 420
105 117
432 357
130 117
297 238
152 138
23 410
12 207
402 136
162 245
115 357
130 253
104 284
94 234
463 31
12 170
314 230
21 243
7 217
448 350
1597
5
