30
9
0 0 0 0 0 0 0 0 0
66 94 75 74 74 64 86 74 53
80 47 48 22 42 29 81 15 56
73 38 29 33 99 34 63 37 60
88 56 22 58 62 56 40 98 89
78 71 62 88 79 81 79 58 99
36 91 82 71 29 11 70 59 14
59 99 34 85 78 62 44 13 28
68 70 68 89 98 65 93 20 89
28 13 13 33 57 99 75 66 99
95 67 19 90 44 60 55 21 50
37 70 77 85 60 61 27 26 24
42 32 55 35 97 37 38 31 47
37 47 83 10 36 27 13 90 12
22 55 89 44 52 24 27 30 82
74 15 48 43 60 41 82 93 50
53 93 99 31 11 64 20 21 100
83 48 65 76 32 72 27 14 22
46 23 73 39 47 36 42 53 16
73 27 13 72 76 28 13 71 39
36 45 27 41 46 14 80 47 92
95 71 66 21 44 88 62 54 10
52 36 68 92 88 32 93 80 17
40 69 44 78 48 79 21 61 86
97 92 15 41 18 82 54 24 43
40 64 50 14 17 81 72 77 57
44 68 83 84 67 35 56 93 21
11 13 10 96 28 77 92 41 55
78 51 93 39 71 29 36 92 69
82 10 17 19 13 51 46 98 71
0.185096
0.492811
0.474025
0.358186
0.288135
0.491269
0.404615
0.306333
0.416508
0.337632
0.18292
0.482358
0.318699
0.173284
0.411923
0.221674
0.408981
0.393043
0.118419
0.261973
0.457103
0.360379
0.159571
0.24307
0.246939
0.449619
0.329856
0.191386
0.125662
0.486036
196 353
165 323
459 380
124 62
243 348
130 104
49 469
249 416
182 67
439 35
160 459
489 221
30 5
145 483
156 74
436 15
55 158
448 469
386 342
440 239
186 57
164 40
188 125
5 203
365 416
465 210
268 34
295 179
70 442
354 356
3945
2
