30
9
0 0 0 0 0 0 0 0 0
45 14 82 57 19 86 59 36 50
74 54 77 10 91 86 67 65 46
39 59 68 32 16 35 52 57 24
54 78 52 86 98 59 13 34 26
16 61 85 36 91 17 81 78 67
44 18 28 11 70 80 100 45 13
57 35 72 54 99 22 31 84 22
10 23 17 29 67 82 55 30 80
100 79 25 30 60 46 31 57 95
67 94 51 26 45 30 83 10 58
74 79 23 59 31 37 94 50 79
15 23 85 45 52 84 32 93 54
94 29 57 20 57 73 57 49 37
46 22 31 84 46 25 61 90 48
70 61 30 14 44 13 67 37 94
26 58 71 98 71 81 78 94 63
16 30 93 28 29 36 18 32 92
46 30 14 55 66 23 65 51 41
42 46 37 95 29 100 43 66 97
80 72 63 33 96 90 96 40 81
26 98 57 69 98 17 33 79 29
10 16 43 100 95 53 17 49 52
97 20 86 30 19 86 35 85 60
52 79 23 36 15 41 41 41 47
73 87 40 97 99 76 40 54 89
64 20 30 44 93 60 73 68 32
85 90 62 86 83 85 19 36 61
73 70 99 67 34 64 35 69 48
69 81 68 60 18 74 57 52 92
0.58713
0.973099
0.827428
0.867547
1.42193
1.15548
0.864776
0.773965
0.909596
0.603433
0.589358
0.319428
1.07394
1.12494
0.597446
0.478163
1.26618
0.856883
1.13097
1.42742
0.776521
0.664943
0.69435
0.690282
0.567548
0.988579
0.897424
1.39472
0.694137
0.552781
272 10
275 76
357 242
68 461
212 116
449 414
402 233
63 495
122 152
269 459
81 145
292 392
362 125
436 61
306 238
33 379
170 365
344 123
388 24
27 403
446 402
154 394
88 391
39 185
70 367
469 210
427 281
317 209
398 187
337 68
1997.5
4
