30
5
0 0 0 0 0
17 60 23 16 73
22 88 58 73 76
45 57 56 84 29
19 11 98 91 95
70 73 23 39 82
70 50 52 75 27
64 34 77 37 77
25 17 31 27 75
46 59 23 28 90
50 92 35 17 49
85 22 60 32 35
28 92 88 71 91
92 13 70 82 90
73 13 91 89 15
51 56 26 23 70
61 45 94 70 28
73 82 21 19 98
98 30 29 100 97
65 86 12 40 62
25 95 76 56 33
87 25 65 32 77
97 25 12 20 57
90 65 53 80 38
32 91 53 41 77
37 63 55 79 78
73 38 21 10 26
54 36 75 60 63
19 11 95 82 51
10 10 32 46 49
1.98866
1.07838
1.42965
0.847098
1.32034
0.947703
0.881291
1.4411
1.79173
0.931369
0.472478
0.968743
0.710515
0.420028
1.91917
1.4
0.859605
0.942052
0.531042
1.0398
1.20593
1.05953
1.81959
1.78276
0.506407
1.07171
0.754115
1.84437
1.03495
0.847639
128 347
497 192
312 244
485 52
97 344
447 42
223 382
179 184
170 495
357 196
91 467
322 43
249 387
174 22
381 287
213 353
227 436
371 448
22 247
228 91
173 333
491 84
351 348
236 62
188 458
178 308
261 271
27 407
451 488
278 336
1961.25
4
