30
7
0 0 0 0 0 0 0
35 89 26 27 28 42 68
78 87 37 54 58 54 85
15 38 25 87 20 69 15
33 98 58 45 22 69 17
77 78 56 24 77 37 32
55 45 100 77 13 39 40
53 29 18 86 75 96 25
95 83 55 14 52 64 92
78 84 25 22 12 18 72
61 34 61 36 93 41 50
52 80 70 90 22 16 91
56 60 46 50 47 92 77
52 36 52 79 26 42 57
42 100 91 85 49 59 25
18 92 55 31 66 64 58
60 92 60 53 30 65 13
98 31 57 19 68 61 21
66 36 68 19 72 75 48
29 98 47 77 44 62 81
69 94 55 90 24 99 65
82 98 92 47 78 41 11
36 28 87 57 32 11 53
67 18 79 96 100 72 38
55 83 25 17 67 41 12
64 23 51 77 84 40 25
45 95 71 56 30 26 29
48 62 57 16 31 64 41
58 57 56 16 74 57 32
51 51 35 20 26 33 83
0.812273
0.643735
0.524877
0.933818
0.394916
0.654195
0.607378
0.711303
0.554986
0.504911
0.315481
0.759971
0.921261
0.224408
0.567543
0.220181
0.25544
0.558764
0.401947
0.369698
0.337317
0.832547
0.690211
0.338405
0.455304
0.486297
0.430281
0.9772
0.618695
0.540046
407 353
456 355
76 411
275 394
408 163
112 49
188 372
400 271
5 3
57 131
493 216
144 428
24 285
378 117
319 303
195 349
305 112
30 157
249 12
399 223
463 62
104 60
90 340
255 130
362 256
37 375
332 48
228 179
305 163
99 420
7810
1
