30
3
0 0 0
13 14 68
32 18 15
43 33 52
41 88 71
93 74 57
12 90 24
29 12 53
67 29 83
23 82 25
79 60 63
34 21 12
50 68 64
16 29 27
46 62 60
91 50 41
19 11 57
58 20 90
90 36 79
48 48 41
40 86 16
93 94 49
13 66 47
64 80 47
65 21 59
34 100 46
26 93 54
37 84 56
91 46 65
65 86 41
0.745513
1.15564
1.04921
2.4908
0.69886
1.82177
1.0679
0.521406
2.07682
1.98334
1.65293
1.07072
1.64973
1.91502
1.75489
0.780749
1.86919
1.9982
2.48117
0.732783
0.618311
0.536298
1.13332
2.10466
1.54583
1.52596
1.98859
0.590774
1.77163
1.21695
494 127
182 126
108 182
269 81
157 366
392 252
286 224
435 169
105 148
99 438
396 42
471 26
182 250
171 156
282 369
137 152
418 59
218 311
174 2
320 123
468 362
215 175
88 87
148 150
227 157
146 141
208 116
85 357
283 80
289 489
1863.75
4
