30
9
0 0 0 0 0 0 0 0 0
57 17 69 77 83 52 10 35 24
25 73 68 69 95 82 47 47 37
16 22 98 67 84 58 55 94 44
21 15 96 91 78 70 78 48 27
89 40 46 85 80 73 43 100 81
28 27 42 18 55 58 51 49 70
13 29 52 80 17 91 37 57 100
78 94 52 35 57 66 40 21 36
60 91 37 93 17 17 77 57 69
47 32 36 69 76 69 21 65 78
80 69 22 23 55 59 22 32 43
89 53 21 47 43 60 16 60 11
23 51 44 80 75 17 48 15 29
14 59 37 28 86 32 46 36 67
35 88 22 63 38 73 67 26 24
76 10 31 73 38 83 53 26 11
73 63 96 21 55 96 69 54 59
66 98 86 29 26 43 82 76 44
46 40 50 73 71 27 51 57 95
88 84 33 11 61 61 90 60 59
65 14 56 53 53 33 54 22 56
83 43 96 60 62 95 34 88 52
63 77 49 80 44 48 57 27 78
82 80 55 93 74 39 21 31 99
37 41 26 71 57 75 36 92 16
49 71 43 11 71 13 17 16 13
24 18 89 31 50 58 94 52 31
51 20 56 38 62 27 84 64 85
58 100 44 14 72 90 31 66 31
0.235809
0.203907
0.191649
0.277862
0.421557
0.468323
0.447294
0.392354
0.37467
0.192371
0.355138
0.498747
0.433826
0.227131
0.344493
0.473436
0.432941
0.432044
0.411985
0.476427
0.449355
0.30585
0.198627
0.193561
0.302421
0.194911
0.238963
0.118547
0.306137
0.251404
390 252
174 171
374 147
423 204
428 390
13 195
299 470
431 352
325 75
125 404
496 198
188 175
320 435
17 266
452 53
125 488
13 396
214 352
154 63
272 397
96 383
176 89
456 25
17 20
129 251
240 214
253 452
343 210
161 195
186 465
2585
3
