30
11
0 0 0 0 0 0 0 0 0 0 0
53 58 83 18 95 17 61 57 75 62 60
10 93 12 30 99 95 14 47 86 80 32
37 36 37 92 30 100 57 79 30 18 85
50 86 71 44 27 68 58 55 52 18 47
15 98 88 35 61 86 76 76 76 51 32
34 58 41 22 49 28 82 82 34 24 45
69 76 90 56 33 77 63 90 31 77 29
43 32 89 96 68 64 50 11 76 40 91
84 27 65 37 22 23 93 32 90 38 31
72 56 68 95 37 38 95 69 83 23 12
76 15 95 20 19 68 19 21 87 72 74
14 28 85 74 93 98 40 25 16 33 21
96 75 41 30 52 36 27 64 47 20 92
64 85 13 48 46 28 62 60 27 45 90
39 31 98 80 21 64 70 24 91 91 61
93 49 36 39 21 14 66 10 45 46 92
67 82 83 55 69 53 98 56 56 45 64
36 16 41 91 46 26 92 35 60 92 65
42 86 46 59 73 51 37 62 24 65 89
13 75 41 18 100 78 62 51 66 40 82
71 69 37 58 81 24 96 97 17 31 79
57 52 36 78 51 25 37 24 33 16 89
17 30 37 33 46 49 40 50 13 27 41
24 30 70 19 25 59 92 67 15 39 18
12 97 17 64 17 90 96 73 76 44 90
68 77 43 85 33 46 11 99 86 18 23
54 77 34 56 67 85 13 12 52 18 70
86 51 23 95 53 83 36 85 54 39 72
35 10 33 52 58 93 86 87 42 73 71
0.149178
0.463212
0.27867
0.437655
0.372201
0.102092
0.144136
0.121675
0.471304
0.110697
0.255872
0.477888
0.27166
0.318445
0.158851
0.449449
0.289985
0.156744
0.241913
0.29594
0.438814
0.363618
0.330675
0.168171
0.331838
0.438
0.270805
0.234959
0.361967
0.331568
361 426
358 366
162 400
83 310
327 158
114 126
482 468
482 469
156 375
202 126
235 142
451 375
306 458
355 188
113 355
343 273
471 309
260 384
176 163
480 50
67 362
179 165
79 419
280 139
225 455
315 464
116 410
480 464
448 157
144 391
7850
1
