30
9
0 0 0 0 0 0 0 0 0
76 14 74 15 58 95 12 93 81
87 39 38 61 62 86 60 90 89
49 99 84 30 55 74 96 96 52
57 30 42 92 30 12 22 43 86
55 85 52 57 38 71 27 60 90
21 44 28 24 82 38 16 17 32
35 75 30 76 16 36 93 88 45
75 72 90 26 79 15 30 89 80
51 87 94 14 15 11 40 62 50
20 94 12 84 10 94 64 65 82
31 95 47 14 20 97 100 49 95
16 24 46 18 64 44 83 31 81
63 54 51 100 67 12 15 99 13
76 66 19 47 94 26 75 54 26
30 67 63 76 81 31 80 69 13
39 39 19 52 76 79 89 27 39
19 16 68 84 78 34 96 83 59
58 54 42 86 97 40 52 55 51
37 45 18 94 55 52 22 50 48
40 84 92 74 61 83 14 57 87
42 60 55 65 26 51 54 46 100
76 25 54 38 53 18 37 79 19
51 87 23 59 30 67 61 14 96
85 51 86 49 67 14 43 80 74
73 27 43 39 86 52 67 11 29
75 23 29 32 62 50 17 47 88
34 91 21 64 85 44 92 61 93
56 48 74 46 91 64 78 39 19
62 91 14 50 73 89 47 69 93
1.02189
1.19147
2.27944
0.567208
1.06522
0.891383
0.591358
2.03883
2.21691
1.97097
1.11056
2.43735
1.33646
0.962737
1.54878
2.0888
0.76585
1.09142
1.76517
1.50551
0.743294
0.83467
0.556526
1.58182
0.72075
1.11071
2.02412
1.23632
1.9714
1.14716
106 380
101 83
252 135
311 316
498 419
197 209
308 141
314 129
325 238
189 429
435 337
244 169
273 141
46 368
427 348
102 458
92 129
374 35
162 456
355 25
283 73
18 39
199 236
54 41
158 119
334 307
37 64
113 198
314 40
408 208
2007.5
4
