30
9
0 0 0 0 0 0 0 0 0
92 26 33 59 93 18 98 69 38
34 18 46 14 29 27 88 22 44
69 100 40 67 11 12 51 41 85
12 61 46 17 46 33 42 86 31
21 27 64 74 61 70 90 27 59
49 17 79 24 20 80 93 68 52
99 53 69 24 13 81 96 94 41
71 56 92 73 35 33 72 70 70
85 18 81 85 17 36 17 70 31
50 98 22 90 100 91 86 93 89
53 92 67 48 51 86 47 57 85
88 81 19 10 87 19 66 45 10
76 100 28 22 63 17 23 48 32
52 60 75 31 14 70 61 27 50
11 50 92 72 88 10 50 23 53
54 54 55 13 24 53 98 10 97
15 89 32 47 38 13 82 42 88
13 72 53 18 68 16 85 16 17
39 19 44 61 65 43 36 74 90
28 63 69 44 19 10 98 21 34
99 16 44 26 67 35 72 82 26
44 18 97 38 32 51 15 17 20
87 86 47 38 55 66 86 16 52
31 67 43 46 42 37 25 41 85
65 87 58 72 82 57 12 92 46
53 23 50 56 52 78 60 99 27
72 30 52 42 16 87 77 68 50
67 69 95 26 93 74 58 85 69
64 100 16 66 27 49 20 73 84
0.14375
0.104769
0.173155
0.196832
0.188286
0.295222
0.281354
0.431059
0.102564
0.293591
0.104854
0.163361
0.258634
0.487874
0.199663
0.419699
0.320729
0.272231
0.468812
0.35187
0.305376
0.277319
0.160913
0.394742
0.412373
0.325821
0.490195
0.115281
0.464759
0.335539
201 200
218 315
443 43
93 484
400 153
118 73
482 29
148 103
282 439
333 343
494 291
299 132
288 344
265 395
46 102
321 86
33 187
143 248
166 376
285 310
96 199
255 367
424 7
385 243
354 72
249 471
425 462
54 24
242 364
67 460
7690
1
