30
9
0 0 0 0 0 0 0 0 0
33 72 90 70 18 99 48 41 38
97 66 37 53 29 68 73 29 62
80 37 84 54 38 91 93 57 31
63 51 75 37 83 71 32 42 34
88 39 73 39 28 96 70 19 27
95 17 31 60 78 55 73 26 79
66 28 47 26 69 15 24 22 47
57 22 28 81 68 73 59 69 87
63 63 40 17 74 45 65 81 62
71 22 87 34 61 16 33 17 34
36 29 94 80 76 51 50 51 16
58 99 69 49 22 98 94 63 52
10 41 91 52 90 74 57 82 89
65 52 76 35 42 16 84 46 44
68 83 79 13 76 20 53 41 49
35 48 24 60 30 63 79 90 66
14 50 30 87 75 29 91 15 53
16 39 51 33 28 29 51 64 78
77 85 37 87 32 66 58 41 22
68 71 91 60 28 12 30 22 59
98 78 68 56 15 37 54 31 32
36 37 60 72 28 41 53 68 56
43 11 92 54 88 95 80 21 53
76 34 34 44 61 88 30 94 37
73 59 47 100 49 40 24 41 40
82 35 41 97 79 32 70 92 36
82 63 16 87 96 64 23 12 15
62 22 68 22 50 48 98 44 29
68 95 48 31 100 55 79 26 64
0.454879
0.359633
0.434798
0.152452
0.231719
0.331259
0.144771
0.182467
0.139159
0.490202
0.211009
0.240466
0.155095
0.487897
0.128577
0.42836
0.41613
0.437567
0.146796
0.485767
0.331042
0.398672
0.289331
0.284114
0.258979
0.285372
0.37675
0.276896
0.132555
0.147748
497 290
407 141
343 38
303 207
218 182
67 62
338 101
100 434
152 319
414 24
492 130
129 492
236 497
282 466
195 452
172 111
460 31
299 287
355 407
86 219
415 61
462 399
96 340
91 326
262 110
155 426
116 163
219 80
157 105
37 447
7880
1
