30
5
0 0 0 0 0
53 16 29 34 52
60 21 75 93 66
65 94 16 69 30
43 11 13 22 50
57 75 45 15 25
51 23 42 50 43
100 13 76 71 64
29 55 53 22 63
19 14 60 34 33
97 55 96 86 17
89 63 52 85 70
100 98 72 36 47
68 97 58 72 16
74 80 93 48 49
47 50 43 99 61
19 40 41 42 50
67 64 42 37 12
51 86 77 66 62
27 56 19 26 99
54 29 78 83 31
87 84 89 42 46
12 36 45 45 88
19 20 31 29 19
88 27 60 35 100
99 43 19 94 63
18 95 87 83 65
100 89 78 62 53
62 22 42 17 71
57 39 13 99 11
1.82367
0.917324
1.72649
1.27665
1.51976
1.91459
1.77198
1.2336
1.24012
0.949479
0.503801
1.02945
1.14069
1.08458
1.57454
1.34292
1.4142
1.13473
1.85665
0.985888
1.31093
1.61389
0.993619
1.26905
1.62598
0.631917
1.12237
1.54941
1.04614
1.56077
19 112
377 473
463 481
13 176
39 280
127 451
494 27
384 154
374 77
277 408
254 310
446 208
175 253
303 357
217 249
327 25
362 262
486 320
244 276
290 45
198 307
47 367
21 404
363 264
12 120
21 215
359 125
362 441
469 230
111 436
2600
3
