30
9
0 0 0 0 0 0 0 0 0
37 16 61 46 38 98 81 14 42
91 96 40 90 35 52 92 72 10
93 52 62 10 78 55 83 57 10
91 50 44 81 23 33 23 74 39
33 96 10 84 14 91 41 39 92
18 54 74 54 76 70 79 59 74
42 89 66 57 73 60 21 38 89
47 40 68 64 72 25 41 80 16
78 25 30 72 59 79 51 84 64
76 68 40 65 92 71 77 34 94
62 99 75 57 82 40 24 45 19
42 18 67 42 68 79 84 30 41
92 25 63 10 51 79 40 12 32
68 70 19 98 66 45 72 93 33
22 70 55 23 68 95 46 27 94
23 50 65 35 24 23 34 38 90
50 65 14 55 58 40 43 25 100
62 98 61 55 71 74 76 67 38
35 87 71 41 12 76 64 28 67
58 57 26 29 94 13 31 39 43
62 38 30 41 88 22 47 95 21
12 97 62 75 59 29 34 77 16
31 71 69 41 78 69 61 18 92
53 31 65 61 96 43 42 55 16
39 74 79 35 65 97 53 62 73
33 32 42 77 80 57 15 98 40
49 37 51 42 33 33 19 40 90
28 38 26 55 21 56 57 97 41
73 36 30 91 48 32 23 32 47
2.42985
2.41384
0.945407
2.44861
1.24665
0.914881
1.99842
1.56361
2.42075
1.13268
1.69663
1.38331
0.673089
2.41455
1.47684
0.740733
2.26186
1.59276
2.40348
2.34612
0.838425
0.78433
2.25861
1.33284
1.55734
2.36835
2.36874
2.3136
1.16463
1.50616
489 284
18 211
147 70
207 114
311 166
272 238
118 64
187 299
383 361
312 336
352 47
362 1
244 79
59 278
13 41
171 73
313 476
119 453
266 111
324 275
412 471
28 285
32 178
322 313
367 146
241 66
414 16
364 26
260 455
277 459
3915
2
