30
7
0 0 0 0 0 0 0
62 20 94 43 31 56 56
68 46 82 72 51 44 21
96 98 49 45 13 94 51
91 48 52 44 47 16 91
84 44 36 57 16 30 96
24 13 70 82 28 95 88
64 22 63 90 77 87 43
11 49 26 15 42 47 67
22 75 38 91 35 22 82
85 89 13 46 47 76 70
52 37 72 67 18 61 30
35 85 18 89 47 88 75
28 40 21 57 51 57 84
41 79 87 75 29 75 27
51 77 68 25 45 25 38
89 21 21 12 23 35 43
71 38 30 68 78 68 73
71 93 85 72 16 46 28
80 33 53 84 59 57 44
37 33 35 24 91 30 15
83 22 17 54 94 80 74
54 29 36 71 24 80 57
37 41 42 37 94 12 60
97 43 78 83 11 69 79
62 64 56 85 91 62 70
45 42 99 94 47 95 30
27 44 83 92 11 91 95
31 24 50 66 72 39 74
37 98 36 10 40 95 92
1.94392
0.924112
1.17194
1.46638
0.80509
1.36995
1.38817
0.78725
1.0224
1.53188
0.923953
1.39826
1.40323
2.29003
1.19416
0.889124
2.20703
2.48508
2.42809
2.36016
1.18656
0.902756
1.08005
0.627369
1.34483
0.644544
1.56272
0.645651
1.36669
0.710106
204 483
304 219
69 134
176 228
301 86
373 177
333 190
144 406
379 471
273 58
403 388
165 180
2 467
95 316
169 145
165 281
308 454
118 241
305 367
279 248
120 16
187 393
408 20
222 343
90 7
310 197
322 71
431 218
34 301
273 485
3982.5
2
