30
7
0 0 0 0 0 0 0
87 51 33 51 41 20 10
82 64 62 41 16 64 80
31 92 94 51 10 15 25
30 74 61 74 11 90 17
73 52 38 41 98 38 39
86 60 63 94 50 68 15
30 88 54 66 94 78 61
39 14 34 53 30 32 77
18 12 19 13 88 26 62
95 85 80 30 23 78 10
49 40 66 46 53 57 18
63 70 13 12 94 66 21
62 48 88 100 91 42 42
34 48 10 12 82 12 36
37 50 100 53 58 68 58
12 49 64 76 32 73 82
76 95 85 22 42 81 86
18 96 39 75 47 19 32
55 81 70 13 95 63 86
41 49 22 94 39 17 33
33 42 30 70 45 69 56
99 18 60 92 55 94 40
58 31 96 19 13 67 88
96 76 92 11 27 25 73
96 80 56 87 82 85 81
80 45 25 65 15 98 54
89 28 70 55 63 45 96
69 92 65 41 13 78 54
81 100 17 40 14 99 22
0.265462
0.428861
0.216321
0.511806
0.712225
0.83981
0.602919
0.881228
0.278047
0.801595
0.996056
0.855076
0.616499
0.45399
0.601121
0.335919
0.598162
0.964061
0.380127
0.260968
0.611553
0.826405
0.958356
0.352112
0.980584
0.592483
0.451991
0.699409
0.571767
0.370761
303 426
190 303
322 86
154 463
425 78
398 157
460 337
40 8
199 334
93 345
451 112
189 127
400 146
168 328
500 92
417 67
143 461
134 470
76 191
400 138
102 349
202 478
242 172
207 333
461 45
454 197
105 114
245 87
198 76
221 430
2640
3
