30
5
0 0 0 0 0
63 43 41 27 33
77 33 37 80 69
36 77 94 86 60
95 49 36 51 64
93 90 89 41 54
62 27 87 31 38
89 93 25 48 81
46 75 15 65 25
77 69 25 43 88
70 33 55 16 94
61 31 48 51 88
98 50 13 72 87
49 56 83 43 44
52 88 26 95 58
99 90 47 28 75
83 78 51 94 27
83 29 96 12 49
16 78 31 51 92
38 71 59 77 18
34 25 44 61 28
95 38 17 93 72
35 70 60 10 40
38 35 20 87 45
51 74 100 80 20
34 38 60 58 25
45 84 61 40 92
48 68 93 16 28
94 20 48 98 38
86 44 54 57 63
0.857948
0.9522
0.838416
0.906518
0.933119
0.910831
0.802897
0.204679
0.466662
0.932273
0.224805
0.971778
0.966902
0.822493
0.324683
0.45907
0.908724
0.424551
0.401225
0.670718
0.42869
0.652211
0.704793
0.552146
0.452351
0.579844
0.632666
0.483761
0.711051
0.713233
32 308
236 297
40 224
472 474
332 228
15 275
190 224
500 281
98 487
242 84
348 13
393 98
175 132
205 466
138 15
234 171
9 379
448 10
332 348
49 401
368 145
12 73
300 185
122 275
477 330
411 71
430 149
472 175
280 269
262 373
4110
2
