30
11
0 0 0 0 0 0 0 0 0 0 0
46 96 27 11 50 70 68 52 94 37 78
47 23 61 33 18 91 93 97 84 100 57
79 59 53 71 71 81 75 51 56 40 58
72 57 40 85 55 22 63 66 48 12 60
79 40 39 96 21 90 31 14 57 77 81
46 14 99 33 46 81 72 24 45 21 82
80 52 94 18 61 22 96 29 22 83 47
83 89 77 51 38 66 59 29 100 68 42
48 74 61 17 75 29 50 25 32 54 71
47 60 79 48 15 18 17 53 73 61 94
80 36 80 24 17 35 65 49 22 76 53
54 89 37 72 73 66 28 67 91 47 40
94 60 11 48 26 37 89 76 63 22 20
36 65 56 83 45 48 63 23 21 52 64
51 42 46 89 85 41 58 10 61 56 74
91 99 65 82 61 94 64 65 19 49 72
68 79 55 32 45 74 78 99 88 36 35
67 13 40 68 28 52 99 32 44 82 61
50 33 53 29 53 65 71 76 10 18 20
47 85 43 100 37 96 10 92 35 14 13
46 71 74 85 54 11 53 76 25 31 13
26 69 19 46 68 62 64 74 98 17 26
61 17 90 68 88 44 28 31 99 93 80
67 99 48 36 58 65 91 91 60 74 12
35 55 46 62 15 90 79 73 98 34 27
42 41 82 47 56 68 48 59 84 68 98
84 26 24 91 35 61 47 46 47 80 28
19 63 88 73 78 10 58 57 50 66 60
67 91 86 29 72 89 34 16 17 31 32
1.93218
2.01756
0.715436
1.22401
1.27493
2.49109
0.548447
1.64911
2.35013
2.42954
2.31781
1.49887
1.0217
1.62529
1.52892
0.559004
0.604059
1.89762
1.86918
0.823291
1.33916
2.33715
1.00923
2.29327
0.515728
1.86587
0.553659
1.30818
0.865611
1.65766
322 78
341 358
176 110
422 442
138 78
8 376
346 255
400 34
16 455
328 241
67 445
333 160
487 180
458 88
129 304
293 323
225 364
164 281
131 329
86 417
190 66
298 18
253 364
334 369
268 113
457 77
493 446
141 273
101 43
499 59
2691.67
3
