30
5
0 0 0 0 0
55 91 47 95 59
10 91 40 80 12
51 53 14 77 92
65 11 71 79 47
78 85 83 45 48
47 78 77 30 31
60 67 89 75 29
26 90 32 96 62
56 52 68 61 44
71 94 73 27 63
68 59 55 17 55
55 88 78 58 25
82 22 57 33 32
16 27 49 50 81
90 21 61 63 76
57 43 59 57 18
98 66 34 27 44
51 70 62 28 55
87 27 19 92 81
16 94 72 88 91
47 38 93 41 34
43 66 94 22 20
28 16 20 83 23
73 38 100 24 73
53 75 55 15 57
28 95 67 75 59
98 68 56 56 41
64 12 68 53 70
36 32 78 68 60
1.68087
1.5886
2.12993
0.627646
1.57447
2.23028
1.67192
1.7215
1.53368
1.81989
1.80187
2.2166
1.98375
0.909202
0.726779
0.764749
1.56611
1.04711
2.35403
2.17171
1.0807
1.39068
2.03472
2.46147
1.75255
0.609181
1.79188
1.68503
1.18136
1.5147
449 427
297 453
46 52
189 299
95 190
486 498
413 182
402 391
468 247
144 264
480 443
150 14
424 348
200 251
446 388
28 18
399 337
478 191
353 73
353 114
70 450
55 329
104 165
366 380
126 200
274 237
373 54
344 319
49 47
125 163
1629
5
