30
3
0 0 0
40 46 53
100 23 54
98 25 26
89 72 99
13 62 81
62 89 39
41 23 27
81 24 28
65 71 75
91 64 100
87 28 32
95 23 35
63 26 10
89 12 16
74 55 19
63 62 91
35 100 75
88 44 74
31 37 62
35 74 79
29 74 44
49 94 11
16 48 27
22 82 49
64 17 78
95 49 60
48 40 15
29 91 57
55 17 41
0.560836
0.863697
0.614731
0.759039
0.53033
0.50738
0.868118
0.251213
0.42308
0.455689
0.405912
0.902342
0.547617
0.871421
0.563368
0.636697
0.991174
0.569248
0.82421
0.395929
0.827393
0.628325
0.771912
0.782302
0.644771
0.304693
0.865119
0.249691
0.836614
0.985871
482 20
223 95
9 381
476 30
486 259
325 341
52 419
298 157
423 109
89 301
134 447
98 123
402 214
107 170
366 69
444 153
67 489
363 266
483 443
235 247
444 175
290 406
23 455
54 39
463 491
301 271
328 291
220 389
277 175
57 389
1947.5
4
