30
3
0 0 0
77 67 53
18 21 27
39 16 68
49 57 30
39 99 68
75 44 18
86 69 33
16 53 79
32 61 70
21 97 40
58 54 13
58 47 91
83 39 91
14 96 29
56 30 89
22 23 57
37 30 11
45 30 79
52 99 93
24 25 51
95 29 54
16 25 63
84 25 92
24 79 48
97 74 60
46 82 80
91 44 47
56 23 21
67 94 41
0.396504
0.169816
0.338809
0.234316
0.358098
0.349388
0.28092
0.387997
0.423624
0.324495
0.249081
0.139004
0.188524
0.271708
0.360058
0.130813
0.366695
0.464633
0.204604
0.435253
0.408855
0.184729
0.146672
0.16993
0.139539
0.33638
0.464778
0.378649
0.114381
0.383324
165 301
250 173
479 376
287 96
401 287
316 146
54 434
496 20
311 182
305 487
291 305
390 293
498 393
289 79
468 432
496 354
176 171
42 286
201 156
319 191
320 244
46 136
405 100
161 168
488 246
325 316
66 269
176 30
168 206
52 258
7675
1
