30
3
0 0 0
90 96 92
36 29 63
60 78 47
66 35 64
74 94 55
41 30 30
99 62 91
96 82 93
49 10 33
62 31 94
61 92 13
90 90 19
76 10 69
57 56 70
61 19 98
66 60 36
98 16 48
65 91 99
10 80 63
34 93 75
24 79 36
54 12 15
44 70 24
33 13 39
57 10 46
62 42 68
62 87 20
91 74 64
56 62 91
0.374624
0.249381
0.382121
0.458119
0.161408
0.17016
0.147391
0.248647
0.124305
0.308874
0.476479
0.319222
0.326677
0.386288
0.121853
0.450086
0.23931
0.188929
0.419325
0.224277
0.34405
0.46788
0.175044
0.468976
0.316157
0.461703
0.226329
0.360996
0.371642
0.219719
2 52
207 327
99 361
287 439
398 461
309 427
238 25
82 311
312 331
216 16
302 451
124 401
16 453
350 127
38 145
74 13
395 175
408 478
279 17
396 437
426 426
179 170
71 260
263 447
171 292
45 159
99 161
407 248
395 251
452 240
8385
1
