30
5
0 0 0 0 0
79 93 65 61 44
55 44 52 76 76
42 18 71 78 22
24 59 75 50 15
87 53 46 20 29
85 36 22 35 48
39 93 37 70 58
77 33 94 84 79
64 35 25 86 32
73 90 27 32 34
39 82 71 81 19
68 55 52 19 50
91 47 26 74 56
51 55 55 19 51
93 72 24 66 35
85 82 56 28 37
47 89 89 69 55
70 79 17 10 36
79 46 41 32 35
59 77 68 29 78
13 56 11 28 94
48 71 70 31 23
83 30 51 82 22
65 40 53 44 92
81 66 21 36 39
32 43 50 79 57
50 63 17 96 54
39 100 67 98 83
66 40 40 60 78
1.19298
2.15737
0.685848
0.621862
1.10103
1.8786
1.15717
0.818979
1.28252
0.715328
1.57615
0.605566
0.956338
1.79657
0.55997
0.530759
1.40921
2.2417
2.18424
2.42828
2.2513
0.511656
2.25629
0.746106
1.86874
1.97264
1.88367
1.63483
2.46097
1.56169
378 48
36 445
299 367
435 22
473 375
76 347
226 354
194 446
126 55
456 437
209 185
91 213
210 260
191 142
312 88
7 270
340 339
476 112
65 499
98 280
328 65
170 64
187 26
190 74
141 464
86 279
353 473
21 287
274 233
237 307
2641.67
3
