30
9
0 0 0 0 0 0 0 0 0
16 46 70 17 47 26 77 39 24
12 10 81 82 50 70 96 61 56
47 82 99 21 26 29 35 39 53
69 21 44 74 45 15 98 65 80
89 33 49 81 100 26 28 12 12
75 89 100 35 37 22 10 43 20
30 97 96 14 77 74 82 58 97
58 99 32 39 30 22 64 53 46
73 20 86 83 27 15 25 57 34
35 28 45 19 90 66 40 35 44
65 55 84 95 60 84 100 17 43
78 13 33 91 95 20 80 59 11
90 85 93 25 31 31 46 37 36
10 41 69 44 10 37 63 33 54
58 14 65 15 100 93 25 29 58
14 27 62 51 77 14 89 98 83
46 45 65 58 25 87 33 92 29
67 48 11 48 73 42 52 91 76
26 46 72 24 79 72 72 88 95
63 54 29 32 28 73 69 68 22
93 94 47 31 52 95 24 93 25
44 97 44 50 64 38 62 99 17
11 24 91 84 38 87 60 75 77
65 34 87 20 64 52 92 43 26
60 31 62 91 14 14 11 50 89
89 89 25 81 78 86 10 98 14
58 39 25 29 70 79 66 31 26
33 49 47 96 62 23 22 32 91
71 82 99 74 39 47 71 79 18
1.86505
1.91386
1.58345
0.654427
1.01851
1.99909
1.3802
1.40218
1.64453
1.08118
1.4272
1.65629
1.99032
1.4345
1.49508
2.12145
1.87379
1.43738
1.98563
2.14445
0.951192
1.2496
2.46759
2.0299
2.03078
1.67217
0.983663
1.08225
1.46268
0.969803
385 258
490 263
417 329
190 3
71 263
151 189
56 226
23 437
351 297
421 448
239 59
108 390
12 200
289 45
312 135
487 68
248 123
291 177
184 485
14 165
255 265
321 265
231 326
361 408
75 12
285 481
129 358
288 183
143 262
218 267
3890
2
