30
11
0 0 0 0 0 0 0 0 0 0 0
84 88 38 95 94 94 82 74 55 18 71
51 81 72 37 34 24 73 19 24 21 26
39 53 54 16 19 70 96 26 46 95 69
23 44 37 65 79 66 17 44 37 94 50
39 53 44 22 62 70 80 94 63 29 41
91 69 46 87 91 58 33 61 98 43 43
54 57 60 88 96 52 25 61 98 30 57
48 62 86 44 30 70 100 91 28 88 56
35 49 80 39 40 11 51 75 27 20 93
85 11 16 63 77 87 76 39 54 44 93
21 13 81 17 14 62 64 94 36 89 19
79 73 72 100 87 57 87 32 48 69 89
46 84 48 43 89 66 64 24 38 26 13
51 27 33 79 58 22 100 69 15 74 16
29 40 61 38 86 64 74 33 92 66 16
80 97 39 52 95 47 52 56 61 24 61
26 95 46 35 79 15 25 74 63 42 69
12 69 79 91 21 93 81 47 81 95 28
61 30 54 28 12 55 40 42 56 72 49
48 23 42 78 37 64 81 28 91 12 59
64 93 54 36 15 88 73 79 31 63 44
42 64 61 85 15 30 61 99 71 94 43
71 84 78 57 82 94 51 84 34 60 68
27 94 52 100 41 26 92 47 31 48 100
40 25 100 82 14 30 39 47 63 27 46
99 78 97 65 16 91 90 72 25 43 74
53 92 21 35 88 15 26 75 91 90 24
74 30 46 72 36 12 22 14 88 66 63
64 97 58 34 14 62 42 52 71 70 17
0.793916
0.64083
0.811439
0.953049
0.865132
0.74044
0.253026
0.408012
0.48512
0.761665
0.988848
0.676538
0.845772
0.956983
0.882538
0.257946
0.314811
0.731147
0.873224
0.361441
0.558744
0.734752
0.829427
0.984873
0.431427
0.219471
0.30453
0.303378
0.855126
0.408815
454 406
450 344
445 169
369 30
69 86
312 259
411 106
439 227
389 91
37 309
316 496
11 243
216 288
325 156
168 242
484 409
491 497
197 403
422 500
487 6
286 475
318 186
456 107
470 135
329 282
89 129
316 118
207 500
437 425
322 376
2037.5
4
