30
5
0 0 0 0 0
83 20 11 57 14
54 89 31 25 91
41 10 61 87 31
57 97 69 43 43
62 62 71 66 65
76 78 87 41 97
47 69 90 75 27
42 82 12 19 50
38 43 33 91 84
48 11 82 58 38
23 27 28 65 42
19 80 100 24 80
75 47 84 97 63
12 41 49 72 33
12 32 49 19 76
56 82 52 45 83
73 78 48 27 92
28 24 68 95 14
40 96 22 67 89
47 32 74 44 76
38 59 13 45 37
41 79 45 46 25
37 60 49 34 72
41 31 22 91 58
61 74 43 73 100
17 50 48 96 97
74 93 98 25 31
80 29 78 10 31
76 91 10 69 23
0.859231
0.57797
1.29697
0.952253
0.785615
0.866947
1.24556
1.14782
0.983544
0.501382
0.758294
0.831229
1.18911
0.870798
0.944086
1.24752
0.586792
1.36173
1.4367
1.1414
1.29981
0.798745
1.48261
1.35918
0.634497
1.21079
1.38911
0.757326
1.25432
0.956551
204 211
277 268
49 332
48 152
28 146
445 482
214 272
201 250
92 52
149 426
431 347
251 384
487 14
499 347
304 114
291 203
26 319
49 101
366 169
90 495
353 26
317 399
447 105
306 498
437 458
451 102
251 178
74 456
139 133
16 318
1963.75
4
