30
3
0 0 0
99 42 43
18 60 74
26 28 85
23 96 82
75 66 87
36 16 26
75 54 62
20 66 15
14 22 14
95 32 31
31 80 91
92 95 76
10 62 45
96 84 48
28 53 99
58 32 90
65 31 57
96 45 20
83 17 97
38 84 43
73 96 72
91 39 45
45 76 80
17 59 83
41 32 29
57 86 79
34 19 65
37 44 15
10 52 15
0.387411
0.524315
0.463912
0.220461
0.896273
0.256112
0.223616
0.620598
0.616562
0.61067
0.658722
0.496197
0.914763
0.691581
0.727356
0.98661
0.759835
0.537832
0.240981
0.755117
0.803194
0.945122
0.286599
0.283761
0.261546
0.79113
0.533227
0.882036
0.213796
0.337926
287 323
94 257
299 325
336 194
321 62
64 122
2 419
94 461
455 237
192 43
469 157
161 41
26 210
425 165
422 303
14 63
214 126
200 185
448 374
500 238
204 488
301 488
424 405
234 376
482 489
379 349
382 12
346 222
307 277
211 127
1966.25
4
