30
7
0 0 0 0 0 0 0
100 100 79 11 67 51 93
70 21 43 47 33 41 45
42 23 24 52 79 76 98
27 54 53 38 55 37 78
96 46 45 16 68 87 31
99 86 76 83 89 95 72
29 23 87 12 86 38 47
77 45 66 97 79 16 75
72 10 94 42 26 13 77
61 10 55 93 46 93 92
30 21 62 33 39 15 33
83 16 88 75 48 29 71
41 95 88 52 99 21 98
26 23 68 47 50 57 53
92 67 24 18 90 86 19
51 95 13 53 95 16 39
47 27 60 54 24 89 57
23 56 68 15 48 60 47
50 54 76 54 24 63 41
77 11 67 84 14 99 28
40 21 54 74 44 100 57
13 66 10 49 97 20 11
15 28 35 57 69 69 62
11 40 98 17 10 52 58
16 38 69 63 29 50 82
51 43 61 55 96 77 89
55 63 33 18 35 86 34
46 100 36 53 46 76 83
21 31 76 77 97 76 61
1.73164
1.5508
1.32164
1.43267
1.70856
1.14086
1.04533
2.00504
2.16582
0.877452
1.27345
1.60475
1.01662
1.07413
1.36998
1.86977
1.91675
1.08959
2.18273
1.43959
2.26126
2.15959
1.79596
0.856919
1.89534
2.18498
2.20655
2.22865
1.85475
2.49098
160 445
268 378
481 479
237 224
437 68
283 70
33 163
113 357
45 465
45 372
250 286
60 234
119 282
468 280
125 462
466 265
458 441
113 415
331 307
374 413
24 140
23 367
452 495
93 346
222 402
127 27
118 230
67 340
162 143
0 334
3935
2
