30
11
0 0 0 0 0 0 0 0 0 0 0
41 25 68 99 19 77 56 34 66 84 29
20 64 96 35 46 72 17 69 22 65 31
74 38 29 58 50 41 88 47 11 71 68
76 51 41 32 94 70 72 12 56 86 59
35 21 25 54 22 29 90 57 45 85 81
41 14 18 60 65 70 67 37 52 19 30
13 36 83 70 35 48 69 35 98 71 27
50 20 58 57 29 68 85 64 70 28 42
14 21 80 44 56 47 10 44 59 49 82
97 27 68 12 98 77 90 56 82 16 95
79 12 50 92 57 41 30 20 67 49 100
54 25 29 69 30 20 49 45 67 79 57
32 39 40 76 44 31 36 45 66 69 49
83 41 82 12 32 40 13 50 28 38 89
75 96 79 11 49 90 41 68 16 83 84
82 22 43 81 46 96 78 34 37 82 49
43 14 55 19 53 25 90 50 53 61 28
81 49 35 99 65 89 37 58 80 38 68
13 66 42 27 39 13 92 32 86 62 36
32 87 68 41 28 53 62 86 50 32 25
85 73 76 74 25 11 56 22 10 82 68
16 22 91 29 25 98 94 18 96 23 81
63 69 12 22 76 90 48 63 60 56 43
49 75 94 68 78 81 20 98 88 71 65
61 95 41 80 72 87 14 54 78 21 54
45 90 15 100 96 79 18 44 21 71 85
35 22 70 44 87 11 24 32 31 85 14
97 80 37 86 86 83 74 45 60 60 17
88 83 27 72 44 14 47 68 25 69 47
0.229384
0.153393
0.375015
0.121147
0.425328
0.282627
0.194713
0.241627
0.19527
0.238959
0.444465
0.419311
0.156576
0.299886
0.296021
0.106373
0.172453
0.213825
0.103112
0.194532
0.207644
0.227088
0.359652
0.148425
0.373135
0.111246
0.244221
0.193665
0.120957
0.403477
76 350
367 75
121 134
64 35
314 441
57 445
321 450
209 274
244 19
140 311
220 254
38 30
353 197
449 309
116 276
372 196
489 136
260 236
269 112
435 366
386 402
445 226
418 0
237 435
364 60
303 189
216 64
104 145
288 268
372 71
2600
3
