30
9
0 0 0 0 0 0 0 0 0
30 26 62 74 51 45 29 12 69
100 95 61 45 60 62 71 14 31
52 37 15 14 91 82 78 83 17
12 58 78 91 84 30 21 11 76
57 53 28 49 76 51 36 43 42
39 64 34 17 83 73 48 23 43
92 15 44 28 61 25 36 35 79
98 66 88 35 69 59 11 86 48
77 14 74 63 70 12 97 17 28
57 57 16 24 28 91 88 53 40
96 75 34 99 16 12 54 97 52
28 19 19 38 98 32 62 16 53
98 36 57 48 48 50 14 100 36
43 13 17 11 29 36 34 69 85
82 14 88 78 66 23 11 90 72
48 25 83 99 81 74 43 52 27
44 63 59 39 53 18 65 61 45
46 90 93 90 10 33 73 90 46
62 57 91 40 66 74 50 97 71
65 91 29 16 42 98 35 82 44
69 88 47 77 89 21 26 73 33
69 88 20 59 72 99 40 58 40
92 85 99 47 65 63 31 63 44
66 48 78 86 79 84 90 56 68
41 37 83 35 97 85 38 26 24
36 15 55 99 92 89 85 43 12
43 58 92 96 20 76 13 77 77
52 16 55 75 98 50 82 40 20
71 81 71 65 73 99 100 34 29
0.598784
0.961375
0.840876
0.508105
0.953628
0.510514
0.471608
0.262436
0.916593
0.884891
0.248179
0.952212
0.298337
0.960526
0.58446
0.475381
0.354474
0.959008
0.62548
0.829864
0.655573
0.933568
0.704492
0.907489
0.212319
0.831832
0.564201
0.563026
0.720395
0.913558
447 101
476 359
114 22
348 394
23 192
415 327
382 41
303 252
77 474
241 312
352 392
222 351
92 315
443 170
130 464
195 115
141 406
85 300
451 182
103 243
80 394
259 470
437 66
176 291
89 344
239 353
83 320
328 338
174 245
130 24
1609
5
