30
11
0 0 0 0 0 0 0 0 0 0 0
48 90 78 77 69 77 56 82 78 60 34
75 46 53 15 94 14 48 39 96 93 57
22 89 55 13 35 89 53 32 43 100 69
22 85 62 26 12 56 59 44 68 51 27
88 56 47 47 95 26 92 74 67 55 76
45 45 96 77 88 50 86 28 29 50 69
28 78 41 49 78 75 57 52 52 55 36
60 47 65 46 100 15 54 47 40 72 76
41 84 98 91 44 49 70 75 48 83 73
73 54 55 42 72 56 18 12 57 34 13
45 47 84 30 61 80 92 58 49 10 59
11 82 62 85 28 66 65 44 30 15 25
72 45 33 76 30 93 60 50 49 46 57
23 79 62 21 65 18 97 46 26 59 100
74 82 96 83 75 10 32 20 59 94 67
40 11 62 95 14 42 88 52 15 43 56
62 55 46 99 19 55 15 61 81 94 69
34 29 13 44 48 20 76 86 90 59 48
38 50 45 41 37 31 28 33 27 27 56
98 73 37 93 66 33 79 86 81 50 65
78 57 13 20 40 58 61 22 59 40 69
82 79 83 10 96 68 26 60 89 18 73
70 62 88 66 38 98 80 88 45 97 12
73 89 37 25 20 65 79 69 25 97 28
37 97 11 30 82 93 37 53 17 11 63
100 71 64 81 16 90 95 26 10 40 51
86 51 94 25 90 11 92 11 31 25 67
66 25 82 30 76 34 10 35 22 97 42
58 16 41 14 15 92 43 27 50 93 86
0.666608
0.51961
0.800363
0.835626
0.222018
0.624338
0.250228
0.632553
0.557139
0.45284
0.82354
0.270135
0.857184
0.334236
0.431493
0.269222
0.408257
0.869737
0.482554
0.600121
0.244015
0.925468
0.74409
0.437271
0.625142
0.789539
0.928373
0.803772
0.838588
0.394165
154 177
491 370
289 144
193 293
120 233
195 15
96 203
10 262
415 121
96 417
470 295
59 113
438 357
229 490
133 188
468 348
446 182
283 226
454 443
385 74
61 306
134 95
163 300
430 218
233 409
111 348
491 98
216 205
71 154
122 2
8010
1
