30
3
0 0 0
17 67 50
79 66 47
59 37 77
43 80 47
87 94 58
33 19 45
76 72 42
49 73 63
50 93 12
57 89 73
82 81 58
47 39 54
84 54 56
24 93 63
50 21 52
53 47 67
98 55 54
38 50 60
99 31 20
36 67 49
11 81 40
20 48 14
40 60 34
33 35 91
10 13 27
17 31 38
68 42 31
62 69 80
64 65 43
0.419114
0.63522
0.776933
0.697267
0.840134
0.757076
0.778634
0.936216
1.02158
0.444603
1.23322
1.36653
1.18196
1.07036
0.942278
0.664734
1.14638
0.998775
1.44671
0.610002
1.26602
1.3449
0.535273
1.29004
0.599415
0.630261
1.00312
1.26074
0.870545
0.457598
281 463
158 248
244 17
96 430
439 202
283 223
57 253
469 164
244 18
214 81
334 433
68 345
264 199
229 463
353 192
188 382
482 421
355 117
106 36
295 82
377 458
37 18
190 447
64 493
443 7
149 106
368 102
496 29
466 271
77 109
1534
5
