30
3
0 0 0
44 44 64
72 35 57
43 31 63
35 48 31
69 42 31
48 46 89
56 81 96
40 41 52
74 31 61
54 99 85
95 30 27
64 48 94
58 65 41
66 10 76
56 69 51
56 42 25
42 88 53
44 68 56
94 20 10
80 91 64
43 30 57
40 15 74
98 78 64
84 11 26
73 14 89
17 64 42
78 28 17
18 47 71
78 83 79
1.16358
0.784188
1.00292
1.13617
0.574453
1.53338
1.72529
0.541935
1.14456
0.86286
1.64586
1.7996
1.29323
0.495811
0.739669
1.44101
0.465885
1.28786
0.615207
1.53246
1.93824
1.01324
1.73394
1.6987
1.2
1.1495
0.680075
1.96904
1.76623
1.74698
417 291
442 125
497 117
462 428
495 109
302 102
135 88
436 266
484 493
473 129
475 332
280 272
345 73
297 236
264 323
283 439
365 305
494 471
159 349
481 385
234 453
425 384
29 333
378 305
439 465
149 48
426 473
437 33
354 175
167 485
7935
1
