30
3
0 0 0
66 61 54
91 32 87
42 76 59
68 83 41
80 32 20
64 64 22
34 83 29
32 33 52
51 76 99
85 17 31
71 69 11
72 52 24
57 72 22
34 45 90
64 13 54
35 14 14
39 16 67
30 89 28
45 72 33
16 14 82
90 60 44
25 10 93
28 85 43
68 66 74
39 99 98
45 60 18
62 79 35
35 60 94
45 81 38
0.286906
0.255502
0.467333
0.31177
0.302402
0.388232
0.215594
0.39092
0.454421
0.172118
0.463499
0.120829
0.493922
0.480063
0.10567
0.337434
0.44147
0.425263
0.492747
0.145232
0.179086
0.361666
0.341362
0.377942
0.257402
0.170462
0.499518
0.273303
0.252791
0.160922
166 305
90 322
313 318
69 129
174 445
332 305
359 49
174 452
370 322
205 266
377 35
247 173
198 80
203 138
386 27
206 159
341 328
83 500
257 19
44 491
331 430
186 353
252 44
248 185
401 371
267 43
145 337
400 27
66 419
303 287
1527
5
