30
7
0 0 0 0 0 0 0
97 65 42 16 43 99 50
77 48 37 34 23 91 54
86 62 13 47 23 75 65
42 11 80 76 69 33 87
27 94 98 85 69 93 39
23 44 21 26 61 83 64
43 25 24 45 99 27 60
24 48 31 16 86 33 35
39 84 45 42 74 24 54
95 44 74 98 63 71 95
29 51 17 16 41 68 100
78 67 40 17 12 66 28
75 89 52 88 22 50 32
81 64 91 92 53 57 96
82 70 11 16 94 12 31
72 40 18 40 10 58 88
17 27 76 75 16 17 89
36 41 98 63 69 19 79
61 74 18 67 46 88 42
12 46 55 62 46 20 87
20 35 59 20 67 100 14
43 74 82 85 87 21 74
92 60 80 84 97 31 68
34 84 90 58 64 50 46
62 46 43 51 94 62 21
64 27 99 81 61 65 18
28 93 71 15 15 60 90
22 45 29 89 93 37 61
54 40 100 97 16 98 39
0.136597
0.13689
0.479325
0.237088
0.319332
0.34519
0.349042
0.228158
0.465851
0.302766
0.294785
0.408245
0.424301
0.316231
0.494063
0.340994
0.456745
0.137832
0.319821
0.27371
0.30995
0.366316
0.279453
0.418585
0.264152
0.335707
0.392393
0.499478
0.209236
0.394784
245 462
333 19
92 294
342 360
224 495
119 230
476 367
171 445
126 106
37 459
85 278
440 190
117 136
114 227
35 95
227 190
448 275
295 245
496 446
31 179
271 183
447 181
288 92
145 83
127 169
246 468
279 172
116 35
38 447
379 282
2006.25
4
