30
11
0 0 0 0 0 0 0 0 0 0 0
24 82 100 50 72 94 93 58 35 31 58
91 38 29 91 93 11 95 86 53 92 93
83 90 68 27 88 75 42 58 82 75 89
92 51 50 26 70 59 53 42 26 97 16
53 79 64 85 69 81 88 33 49 34 55
89 91 38 23 34 77 69 32 100 52 81
43 61 28 17 13 64 47 90 70 43 27
88 31 98 97 80 34 33 93 95 15 80
80 16 79 32 36 46 15 15 72 96 32
90 49 13 39 72 78 36 45 91 31 80
17 54 77 75 66 40 53 59 55 68 87
16 86 65 75 49 78 55 38 48 42 30
59 36 44 69 86 59 25 65 31 84 70
60 62 37 29 50 15 63 91 42 41 89
50 68 62 71 97 45 100 24 30 33 14
22 14 24 36 68 76 87 70 18 78 93
85 12 44 85 29 14 12 63 99 77 20
35 91 17 49 20 35 39 90 99 41 81
43 77 69 38 72 18 15 50 48 16 53
48 61 70 14 32 46 45 97 68 99 18
63 46 27 67 70 88 51 82 24 17 80
92 42 43 77 70 90 79 53 39 100 39
20 97 66 83 48 67 59 79 76 96 99
63 14 16 61 33 21 68 54 37 89 34
23 54 86 63 56 56 15 46 33 33 83
15 10 100 93 26 10 61 100 30 75 35
38 25 15 31 85 80 42 21 71 69 32
42 33 19 19 98 10 64 77 77 23 53
21 10 14 56 76 10 82 25 29 37 82
0.751212
1.37221
1.47707
0.875357
0.722817
0.511879
0.41994
1.36457
1.23399
1.22995
0.845154
0.761288
1.18667
1.21414
0.579993
0.812503
1.22118
1.2613
1.39016
0.353904
0.530222
1.27344
0.630584
0.651464
0.939387
0.38314
0.798883
1.01747
0.954673
0.57357
440 287
403 94
99 237
40 183
302 271
44 287
136 321
143 143
262 348
137 194
28 425
159 56
125 233
99 174
244 173
334 62
318 253
432 475
139 356
62 201
464 467
381 83
314 36
490 104
438 499
313 144
397 330
399 330
443 20
393 222
1603
5
