30
7
0 0 0 0 0 0 0
35 100 49 33 67 67 33
79 77 23 22 60 18 36
22 57 13 38 69 22 71
12 49 98 23 88 23 27
81 83 100 67 89 95 61
83 87 85 41 55 81 95
74 12 23 27 98 22 99
71 68 30 84 57 32 78
72 71 44 64 24 71 42
89 78 69 18 75 59 60
62 57 72 82 92 92 34
46 98 32 61 74 10 55
63 69 62 86 50 69 83
85 92 35 79 73 95 40
17 48 31 63 42 21 77
70 52 49 81 94 49 91
53 46 34 58 51 95 54
91 80 39 20 59 87 96
73 42 55 78 66 49 80
69 53 50 61 49 24 45
92 26 62 36 90 21 19
58 80 38 66 46 77 46
18 77 81 100 27 13 18
64 53 100 29 30 27 14
85 27 44 100 83 91 61
32 21 64 52 30 30 96
10 83 15 37 42 44 69
89 38 82 17 57 18 43
50 40 19 12 33 14 77
0.766001
1.96576
1.67995
1.92266
0.649235
0.791526
1.29201
1.11016
0.649182
0.67999
1.96046
0.44623
1.82212
1.44387
1.15652
1.96342
0.412682
1.27586
1.25896
1.04188
1.86851
1.42797
0.987233
1.41274
1.92839
1.38436
1.63522
1.71945
1.16911
0.915419
412 81
277 412
12 10
166 116
395 376
185 325
215 17
147 270
17 137
287 381
111 147
422 333
113 391
396 456
146 428
434 188
19 26
56 306
35 487
467 495
311 165
327 141
229 277
146 225
487 155
409 380
426 378
384 143
197 178
225 238
8160
1
