30
11
0 0 0 0 0 0 0 0 0 0 0
26 97 23 85 24 47 84 73 78 65 89
78 29 61 27 21 46 18 44 39 31 30
34 10 20 91 26 19 100 34 41 96 84
54 14 76 54 47 79 71 56 46 64 10
29 96 48 79 28 24 89 57 39 81 24
52 26 60 51 85 68 94 97 97 41 45
96 86 36 28 67 49 94 31 88 96 29
88 77 63 27 36 97 28 21 82 72 91
43 91 49 14 64 29 50 76 48 100 66
95 70 11 39 76 42 17 42 60 43 46
78 13 23 99 54 21 94 67 69 75 57
50 20 85 21 35 63 83 82 12 43 12
62 93 47 50 88 10 32 79 32 48 34
67 67 19 46 51 97 85 21 45 10 66
84 35 70 11 73 70 75 71 68 53 59
73 13 42 32 87 92 90 90 21 84 22
53 40 92 23 80 14 15 64 45 65 97
26 88 91 46 60 86 84 51 50 22 42
47 17 88 35 99 69 74 48 95 46 23
89 24 12 29 92 40 73 58 52 82 43
49 99 82 82 71 92 100 70 11 76 84
81 60 58 22 55 19 83 36 85 74 87
85 32 90 27 83 50 28 13 78 93 96
15 97 47 98 25 76 32 27 68 55 17
19 75 40 15 63 21 95 51 21 97 95
30 76 98 26 91 85 27 14 19 21 80
25 12 87 37 67 30 26 69 28 35 84
66 79 34 93 96 29 55 70 31 59 69
75 26 79 55 92 67 78 60 90 51 83
0.448314
0.978926
0.563598
0.412772
0.912507
1.30637
1.03448
0.657699
1.1716
0.457483
1.02701
1.0102
0.568248
1.30653
0.397074
1.13888
1.25943
0.871879
0.568758
1.43079
0.709416
0.37111
0.793422
0.465256
0.725541
0.868228
0.634473
1.13739
1.35251
1.19365
31 432
79 238
23 57
145 133
406 479
170 202
92 441
91 135
339 371
187 206
451 3
54 340
140 228
15 240
95 43
425 388
73 381
337 55
4 230
383 465
356 108
452 355
40 129
337 100
346 321
276 379
368 452
280 18
355 85
1 28
1636
5
