30
5
0 0 0 0 0
50 19 31 68 95
46 44 58 69 72
36 28 20 32 34
17 61 99 53 74
82 53 94 98 36
36 55 92 79 95
34 29 32 62 82
93 47 99 60 57
16 15 60 93 67
87 43 63 64 24
44 43 85 51 64
78 37 61 54 79
14 70 12 77 25
30 91 90 62 79
54 21 78 64 11
52 64 31 52 87
95 59 11 53 97
23 42 59 85 29
90 92 45 28 24
85 10 20 28 62
92 81 100 86 26
88 71 18 66 90
43 82 83 58 81
75 27 38 88 68
67 42 23 14 51
55 85 40 97 48
17 39 41 77 56
15 49 51 46 48
46 45 34 35 27
0.241021
0.90756
0.793649
0.621022
0.96777
0.254981
0.216701
0.759362
0.84291
0.950247
0.796137
0.696098
0.242274
0.931984
0.322407
0.922021
0.424393
0.928609
0.647297
0.613612
0.83101
0.437593
0.451888
0.620053
0.700002
0.318746
0.602656
0.355861
0.786714
0.839946
121 243
65 281
71 477
228 348
446 27
82 96
104 110
275 280
277 88
78 404
5 204
204 437
406 8
138 58
294 26
115 289
142 388
78 351
67 369
373 126
105 256
262 164
328 56
369 104
428 344
425 309
339 88
394 415
450 392
423 300
2685
3
