30
7
0 0 0 0 0 0 0
57 51 47 17 88 60 24
43 10 36 11 60 83 66
89 24 84 98 91 18 90
85 34 34 73 32 20 74
21 96 94 52 41 65 94
74 29 27 93 86 27 81
23 85 95 78 68 55 77
36 96 87 78 79 23 33
40 65 97 63 30 72 26
19 53 84 32 60 68 10
66 42 68 73 28 88 82
85 50 57 67 97 100 69
73 20 96 100 18 64 90
48 22 61 95 65 11 63
30 13 20 93 49 21 70
33 100 28 74 60 56 74
51 86 45 65 11 92 54
52 43 89 85 81 77 37
99 36 89 68 64 28 21
32 10 66 81 82 99 62
95 42 46 26 70 61 50
75 16 53 16 51 14 73
50 69 28 94 62 22 50
87 52 25 12 48 18 32
49 50 92 10 38 45 31
73 66 33 15 57 11 84
27 41 72 42 75 85 67
68 26 59 56 92 78 14
62 77 91 90 88 88 38
0.564325
0.993756
0.463957
0.552758
1.48793
0.717488
1.22393
1.36045
0.552746
0.396398
0.529607
1.2137
0.481949
0.662973
1.1393
1.21414
1.24414
1.47222
1.16565
0.761641
1.25582
1.43203
0.352214
0.394577
0.310924
0.856561
0.708536
0.82586
1.49031
1.02738
173 371
307 168
82 476
215 172
186 259
77 185
212 200
11 15
54 115
191 248
152 471
186 473
234 371
102 237
128 175
478 178
140 70
354 12
359 427
96 36
211 313
58 110
416 198
13 191
380 394
51 85
373 118
58 94
470 128
227 482
1651
5
