30
5
0 0 0 0 0
45 11 10 87 100
77 59 12 21 42
92 72 16 55 57
19 54 82 66 15
97 27 31 90 19
24 69 20 78 34
22 37 43 61 56
33 69 16 29 29
59 96 46 49 38
15 82 85 92 62
63 100 18 64 73
92 96 65 23 65
50 29 81 23 39
60 62 27 81 66
92 42 24 74 11
16 90 63 20 48
36 36 42 13 73
26 33 19 39 78
92 16 85 75 98
77 55 76 29 60
92 74 52 29 19
86 67 86 69 46
48 56 28 91 21
10 94 31 16 65
62 30 42 34 59
48 17 80 46 31
80 79 63 57 28
30 78 80 67 41
60 68 43 96 71
1.20906
0.5363
0.313545
0.562784
1.22764
1.20035
1.08086
0.855736
1.46919
1.12668
0.99738
1.4725
1.46688
0.76894
0.628933
1.38465
1.14207
0.548195
1.41111
0.746853
0.829743
1.29822
1.23243
0.630172
0.625322
0.518911
1.4239
1.3496
0.577131
1.38803
252 230
158 28
64 402
85 29
367 113
468 348
205 249
233 469
147 145
466 19
452 400
409 261
105 168
137 199
495 341
303 450
28 239
213 228
487 135
441 40
7 353
484 270
110 104
480 458
123 89
7 261
175 20
85 389
47 154
175 274
2561.67
3
