30
9
0 0 0 0 0 0 0 0 0
50 21 38 64 61 78 65 81 60
64 23 96 86 21 98 31 90 68
92 49 34 11 50 14 25 34 86
45 18 47 43 72 12 82 80 95
85 79 69 44 90 72 14 24 94
32 71 24 83 98 83 76 83 61
34 90 48 47 19 89 62 33 67
78 35 71 89 83 23 16 82 31
75 48 13 67 56 96 94 19 35
42 54 94 31 18 34 19 96 14
37 93 64 62 76 19 97 78 63
62 29 44 93 42 60 74 59 63
82 19 10 99 31 41 60 68 93
32 97 57 26 92 56 18 83 15
62 96 55 40 30 23 62 48 19
51 100 86 62 10 87 49 12 49
19 40 100 21 49 79 100 76 100
100 84 76 64 55 74 61 70 36
75 28 19 59 72 35 38 25 94
56 36 26 15 54 32 94 66 60
67 71 97 16 62 26 53 16 59
65 29 63 93 38 41 56 82 74
97 46 42 64 30 18 65 22 40
88 92 60 81 54 86 75 17 89
63 51 42 49 39 78 82 59 76
48 37 33 30 97 45 64 57 37
70 59 15 67 65 60 90 27 99
18 35 31 15 85 88 75 66 23
75 98 92 71 52 70 82 13 95
1.24931
0.837456
1.23212
1.20842
0.671161
1.45672
1.06005
1.31377
0.33117
0.745559
1.40976
1.33799
1.28281
1.09215
1.15757
0.973232
1.32771
1.07356
0.970477
1.3201
1.296
1.28161
0.450484
0.508826
0.349109
1.25109
0.763091
0.428863
1.32768
1.47206
46 179
494 54
431 82
402 329
467 177
338 45
317 397
33 335
208 184
496 445
459 429
416 87
137 257
295 141
222 57
426 41
196 237
206 368
171 347
190 484
247 156
118 86
272 24
422 0
257 385
37 309
93 97
40 71
293 148
373 84
8270
1
