30
3
0 0 0
54 81 79
44 48 80
81 25 22
85 72 18
69 99 47
72 77 49
32 17 86
89 43 63
27 98 54
50 50 23
71 53 35
40 56 29
47 13 68
56 74 83
78 14 90
86 79 79
56 96 93
67 20 96
65 34 60
34 15 68
87 91 32
66 23 11
100 38 99
66 61 63
90 39 60
56 86 78
64 95 20
14 97 52
51 63 40
0.780487
0.716007
0.688278
0.468919
0.389722
0.763296
0.906224
0.891856
0.326736
0.537669
0.910175
0.580504
0.550274
0.69467
0.705458
0.342937
0.969876
0.9729
0.241185
0.843304
0.953891
0.735906
0.737689
0.347721
0.799655
0.346992
0.834164
0.568324
0.242397
0.730568
37 343
363 335
331 187
86 116
49 283
377 331
167 47
295 36
84 180
184 23
38 110
455 116
412 397
136 83
98 71
67 391
35 478
140 219
469 459
218 444
321 361
71 326
440 433
423 150
391 201
23 332
146 326
24 95
164 312
277 3
4275
2
