30
7
0 0 0 0 0 0 0
12 46 77 43 67 50 34
57 36 70 33 50 37 78
86 78 16 81 16 74 72
86 63 23 48 86 18 88
46 20 36 39 10 50 97
41 80 42 13 38 81 44
84 36 73 63 14 82 93
37 43 51 63 33 83 55
22 66 82 65 76 61 74
63 100 42 65 62 49 35
12 48 65 74 100 99 34
12 48 72 62 84 97 30
86 74 82 41 99 36 76
93 10 49 99 55 59 67
20 74 32 43 73 70 73
27 76 61 51 16 91 25
17 99 69 11 12 65 57
67 87 81 55 66 92 51
64 70 24 54 25 36 23
16 30 30 14 76 59 91
97 30 85 95 86 76 45
30 96 54 51 75 83 43
100 37 59 44 56 66 90
12 48 71 42 13 90 38
57 13 56 60 42 96 25
19 10 93 31 33 90 81
67 23 71 56 40 87 84
74 45 28 99 91 74 21
15 51 29 39 32 59 16
0.230143
0.801217
0.963318
0.603598
0.247144
0.843349
0.741764
0.634556
0.968504
0.972774
0.757553
0.604001
0.742168
0.56296
0.401667
0.415843
0.929471
0.977526
0.920298
0.361776
0.519375
0.20841
0.764738
0.78756
0.240667
0.676559
0.445253
0.835039
0.40395
0.654393
481 320
46 493
215 191
75 130
69 219
187 295
256 52
381 309
380 252
298 388
470 490
165 234
267 488
216 166
295 367
494 83
197 230
107 385
208 16
157 297
485 443
168 460
352 39
391 288
132 177
116 372
425 414
47 9
220 13
199 73
1612
5
