30
3
0 0 0
25 77 68
36 47 22
79 13 15
11 74 84
76 78 59
77 58 76
13 70 63
98 57 61
71 30 93
17 46 80
98 20 22
95 64 22
14 97 87
60 75 45
92 63 82
89 46 50
32 52 15
61 49 11
31 75 27
73 68 94
46 45 29
92 13 17
58 79 67
59 93 56
66 70 59
10 34 56
55 29 37
97 13 25
58 64 45
0.667494
0.656394
0.217484
0.987128
0.722043
0.524545
0.553482
0.302659
0.904401
0.745118
0.745638
0.715435
0.710153
0.812842
0.574357
0.307857
0.434852
0.282753
0.941322
0.68753
0.829428
0.72483
0.537284
0.290914
0.236854
0.414566
0.296756
0.905299
0.584698
0.584468
238 116
139 499
331 227
26 164
389 164
314 127
223 144
245 74
500 254
349 491
16 152
426 202
391 486
275 255
125 396
16 41
215 425
485 109
289 321
215 133
413 308
454 271
486 111
193 484
249 341
338 485
258 265
423 456
121 29
329 493
2641.67
3
