30
9
0 0 0 0 0 0 0 0 0
30 57 19 50 65 77 11 12 62
95 93 24 60 92 11 22 12 45
40 61 54 94 99 68 78 61 14
54 81 36 21 13 100 51 35 46
15 68 82 26 50 44 47 42 63
79 24 21 41 16 52 20 49 63
98 75 62 36 84 33 25 26 10
83 93 73 77 100 100 24 71 71
31 60 30 63 20 70 70 86 10
94 39 86 12 97 17 85 63 50
91 74 58 80 49 84 59 23 50
83 90 42 59 100 79 20 86 50
24 91 50 40 47 57 63 32 37
32 58 26 69 51 55 72 34 74
48 80 16 80 34 100 62 55 49
35 72 12 74 72 35 10 72 34
16 83 28 15 42 22 78 74 24
42 71 69 61 69 47 45 58 47
63 54 50 28 90 97 85 35 82
59 13 30 28 100 63 89 14 44
70 100 24 72 33 78 25 47 92
65 39 94 60 86 97 10 64 60
68 35 67 86 82 16 59 48 98
56 80 90 70 75 79 14 88 13
10 75 88 68 31 39 30 85 21
82 85 30 95 61 43 99 47 18
49 64 57 24 71 26 56 82 55
43 85 15 53 53 87 31 97 44
35 12 95 86 47 23 55 73 54
1.07523
0.402605
1.2185
1.3773
0.900463
1.29603
1.36672
0.649587
0.389872
1.20583
1.32506
1.45802
0.505533
0.365959
1.49882
1.4263
1.1701
0.572153
1.46681
1.39952
1.05906
0.640198
0.418761
1.24181
0.65301
1.40761
0.657578
0.461979
0.925607
1.44822
240 143
475 359
368 160
217 477
100 57
171 300
460 457
169 386
260 257
462 120
462 233
236 55
114 341
386 425
388 247
101 245
332 126
356 331
301 255
203 305
52 283
272 315
497 447
159 423
322 314
395 305
218 347
126 405
272 164
197 429
2003.75
4
