30
11
0 0 0 0 0 0 0 0 0 0 0
20 88 41 64 78 67 27 51 69 95 20
69 25 21 74 50 66 79 97 80 63 60
53 47 73 31 30 85 41 86 59 70 60
39 11 96 28 80 94 26 80 76 70 12
43 34 68 94 13 78 26 96 25 26 77
65 42 42 60 66 33 48 14 41 58 71
52 78 89 63 32 92 89 72 25 44 54
65 82 17 56 59 63 98 100 25 49 26
19 58 40 33 97 55 35 91 94 22 91
68 92 39 80 64 92 55 75 85 10 73
49 96 64 77 87 62 46 73 44 29 34
59 49 93 25 22 34 65 14 38 80 76
46 75 21 56 21 27 59 36 49 94 37
87 62 28 68 59 55 59 16 33 90 77
59 95 90 42 83 34 22 25 25 73 66
42 84 61 65 61 46 91 35 99 62 29
17 93 88 97 22 72 65 100 72 30 57
49 65 34 59 71 89 23 75 46 51 60
45 80 79 26 37 36 65 100 91 45 40
48 70 91 87 78 41 54 20 39 52 52
24 30 84 11 67 57 44 22 99 39 40
29 21 22 57 18 28 25 14 45 44 37
60 70 22 85 85 20 43 55 54 87 33
47 62 15 85 82 53 65 36 26 96 43
16 18 47 47 41 33 42 31 68 70 80
20 46 96 81 58 96 86 39 21 50 87
14 53 68 49 48 100 23 26 50 61 71
30 86 75 34 100 32 86 57 67 42 62
92 42 36 67 55 50 53 34 81 17 62
0.305666
0.238454
0.305545
0.285609
0.287063
0.286818
0.497908
0.284493
0.422282
0.352816
0.18093
0.120641
0.290733
0.359497
0.268813
0.259697
0.266935
0.330132
0.205367
0.156053
0.124016
0.352064
0.157047
0.342325
0.47779
0.28137
0.253679
0.415328
0.173258
0.282922
289 15
482 206
331 124
380 457
480 387
427 415
190 275
46 88
115 463
261 55
264 40
452 471
147 338
263 396
156 495
303 487
424 122
437 356
134 300
48 372
97 329
417 347
267 36
303 156
141 426
274 157
237 496
469 298
492 194
56 440
1610
5
