30
11
0 0 0 0 0 0 0 0 0 0 0
51 75 21 39 69 20 83 83 11 18 63
55 29 39 66 60 97 21 83 33 32 68
21 97 36 23 54 52 82 47 13 37 82
16 14 39 87 96 45 82 52 70 80 68
73 96 84 68 49 20 38 25 32 11 23
38 88 89 76 92 26 51 70 30 49 44
57 58 63 87 75 19 64 90 100 16 100
67 29 21 37 53 36 75 28 43 47 89
16 45 10 55 16 47 84 83 45 32 53
77 21 36 93 43 91 13 47 11 28 62
50 16 33 48 58 10 51 70 34 56 77
17 46 37 64 41 78 57 41 16 85 88
61 39 28 74 44 54 80 31 77 85 90
95 27 53 30 43 99 39 46 20 48 76
74 100 56 25 26 53 89 57 59 61 53
37 11 33 28 23 66 57 62 27 51 59
87 58 31 25 17 27 52 78 89 96 27
27 46 53 54 62 32 14 81 23 13 33
84 63 73 27 18 54 56 47 56 73 64
97 88 76 56 47 58 11 82 68 80 59
52 33 51 37 53 65 91 64 82 66 90
34 46 49 46 73 46 10 44 11 89 46
44 40 65 54 23 29 97 44 26 34 11
39 71 76 19 71 28 98 79 12 40 62
53 52 63 85 73 80 83 39 88 14 95
71 86 100 77 33 16 57 60 57 37 90
57 52 78 40 17 18 98 15 46 76 44
21 48 35 69 21 87 81 99 74 47 95
59 99 95 48 60 66 58 59 17 43 14
1.62942
1.32667
1.2975
1.53511
0.683272
1.29656
0.896346
0.829133
1.34984
1.46546
1.89738
1.77558
0.450488
1.29796
0.456214
1.51664
1.37904
1.77947
1.07262
0.967239
1.0281
0.964215
0.835448
1.54661
1.89826
0.450755
0.517186
0.661719
1.84832
0.428956
466 341
220 347
437 39
398 423
422 372
336 206
323 10
382 266
200 367
379 186
335 210
139 62
18 173
23 316
445 464
139 346
65 246
120 492
467 63
443 488
159 488
293 4
127 216
41 99
391 494
25 172
488 406
41 6
353 243
149 10
2576.67
3
