30
9
0 0 0 0 0 0 0 0 0
99 78 28 58 42 94 14 72 29
66 68 69 29 36 43 92 32 70
26 37 57 91 93 45 67 18 53
12 59 85 74 65 62 44 42 23
63 24 35 77 88 39 90 12 20
16 17 20 98 77 38 83 93 99
50 20 85 26 74 68 40 66 73
19 16 38 94 46 90 70 19 90
49 31 53 76 67 30 33 77 60
77 73 41 98 41 12 80 41 45
14 67 48 57 84 95 32 78 91
52 84 99 74 35 95 51 34 77
44 99 32 11 82 99 18 80 32
98 58 17 79 33 71 37 94 74
96 35 23 11 87 97 69 63 56
65 20 83 29 79 47 60 23 36
11 80 70 43 38 39 71 14 51
28 66 57 70 20 46 10 33 29
90 15 82 57 15 33 71 31 23
44 18 100 28 84 50 12 44 18
45 72 81 13 73 58 13 100 12
44 80 70 51 100 80 16 31 71
51 14 42 41 66 61 82 70 84
78 42 59 27 85 47 35 57 64
66 61 10 19 32 17 87 96 79
15 36 69 73 40 60 13 19 32
89 98 12 82 87 30 74 29 76
61 10 51 28 51 34 95 24 44
20 78 47 100 37 17 93 31 59
0.421099
0.199614
0.293067
0.186322
0.245441
0.16793
0.444042
0.471113
0.412932
0.28554
0.228331
0.4211
0.338472
0.35576
0.328662
0.242238
0.327538
0.462358
0.336459
0.326199
0.240157
0.475264
0.410726
0.362052
0.175259
0.327549
0.343148
0.113816
0.452605
0.401105
200 455
5 374
98 488
340 81
239 440
288 491
365 311
369 243
117 430
472 317
387 152
381 456
65 146
411 466
265 343
137 36
457 105
459 500
300 4
354 309
490 264
283 36
211 287
90 267
144 27
93 500
253 351
175 117
49 95
179 118
1557
5
