30
5
0 0 0 0 0
90 79 78 100 78
66 42 82 86 61
67 94 78 82 28
47 41 39 21 46
98 31 69 52 67
37 14 41 34 39
62 65 44 28 37
65 58 45 93 49
16 100 27 82 24
84 49 38 36 12
43 58 43 28 96
18 40 15 45 39
22 54 62 81 52
86 80 69 30 17
27 73 75 72 31
20 59 95 55 93
98 66 94 48 56
71 23 76 84 52
55 31 33 20 19
35 31 100 45 75
35 16 26 12 72
48 66 19 19 18
61 13 59 33 29
34 96 33 27 42
96 36 83 94 99
80 68 13 74 58
21 93 71 10 64
37 22 26 74 86
32 72 62 43 13
0.782877
0.646577
0.47734
0.954382
0.265265
0.22944
0.958382
0.501025
0.772504
0.327355
0.581774
0.817563
0.869152
0.263885
0.900683
0.247769
0.888213
0.652567
0.501129
0.84668
0.210013
0.394618
0.828096
0.784499
0.604406
0.520777
0.337945
0.998265
0.47189
0.495667
485 251
234 98
480 306
350 441
424 219
462 362
29 350
129 194
340 135
343 429
63 356
392 188
423 138
245 274
96 223
10 489
341 322
72 250
234 449
426 271
495 61
186 115
344 131
431 219
65 460
99 96
321 53
454 141
386 198
105 257
7675
1
