30
5
0 0 0 0 0
15 26 77 70 24
18 42 81 28 34
34 97 70 27 21
67 27 47 13 12
100 36 16 41 42
76 45 75 100 26
21 87 27 80 34
84 77 28 54 43
59 70 44 90 99
12 92 34 70 98
25 17 19 64 26
51 55 100 100 89
39 24 42 66 43
15 86 50 96 13
87 69 88 95 94
50 72 98 46 19
79 95 49 18 67
26 20 48 23 64
77 69 37 22 23
47 76 67 37 29
82 66 55 89 72
29 54 31 13 59
66 69 89 61 56
40 58 97 92 93
10 13 13 65 78
82 51 24 60 59
36 19 54 78 54
56 42 12 44 40
60 78 10 44 15
0.334824
0.715329
0.21143
0.956843
0.5115
0.671519
0.506274
0.482703
0.799834
0.59793
0.778253
0.394022
0.789155
0.217895
0.596197
0.445771
0.334222
0.547647
0.537355
0.970749
0.23162
0.203412
0.395467
0.983144
0.312445
0.772756
0.643887
0.639849
0.529404
0.249575
32 459
128 184
380 137
197 15
334 69
90 458
465 440
306 39
349 133
377 364
188 221
493 364
134 131
433 86
55 489
161 83
245 266
446 408
100 206
74 463
387 458
499 116
114 10
387 55
421 56
152 496
166 443
14 12
149 123
267 286
1533
5
