30
9
0 0 0 0 0 0 0 0 0
36 48 53 99 91 91 39 89 60
71 35 43 98 95 54 81 45 97
28 33 50 52 18 97 49 45 16
38 32 89 39 82 48 50 15 26
98 100 40 77 55 42 57 66 23
43 12 76 35 33 53 12 22 57
36 14 42 51 69 77 70 36 55
61 55 88 51 49 52 55 81 20
64 23 85 59 62 83 85 92 43
95 94 32 69 71 32 25 57 91
95 69 83 32 79 70 53 34 19
50 80 36 11 67 29 100 81 21
98 65 44 64 67 56 86 54 30
98 84 94 36 40 56 67 87 26
48 29 88 83 93 60 79 72 70
82 53 91 10 87 70 81 57 33
31 36 48 93 22 55 76 28 22
25 62 68 27 27 45 59 33 43
36 15 69 20 82 29 55 65 19
82 94 59 46 46 76 33 98 34
13 41 43 68 67 85 28 17 40
55 100 28 87 63 21 39 57 41
92 41 30 84 82 76 28 66 11
40 15 47 47 28 45 79 65 73
85 48 88 69 17 35 29 17 16
70 50 98 25 61 87 74 33 88
51 93 52 82 13 17 37 23 71
90 40 100 41 45 78 36 96 48
61 53 29 50 88 10 64 30 58
0.406589
0.326068
0.26023
0.432335
0.458765
0.445203
0.200801
0.266911
0.223595
0.297277
0.121648
0.269567
0.461172
0.100986
0.476039
0.144863
0.235081
0.482806
0.488908
0.323246
0.456036
0.449876
0.211281
0.194919
0.356704
0.294454
0.441187
0.358286
0.26648
0.321249
51 277
299 368
465 430
417 294
450 486
31 50
89 370
374 453
131 85
369 418
6 124
474 325
139 34
285 249
211 402
371 119
284 444
321 180
191 190
258 347
161 356
183 281
348 44
329 316
243 295
113 451
191 340
272 452
450 169
290 477
2006.25
4
