30
7
0 0 0 0 0 0 0
65 48 92 84 12 93 97
39 57 24 91 92 62 20
92 96 25 15 67 16 87
48 94 50 28 62 49 70
70 71 89 75 23 18 40
46 73 74 20 65 96 26
88 67 26 96 89 90 34
74 54 83 53 32 10 28
68 51 46 29 72 10 19
87 47 74 83 12 58 73
51 98 98 39 96 34 35
81 25 65 11 50 71 72
31 31 28 78 87 65 53
93 16 70 19 58 40 88
35 21 28 71 86 77 88
96 40 62 86 41 100 15
81 11 64 15 67 95 54
52 97 92 23 67 79 18
87 87 99 55 60 84 66
62 18 27 42 89 44 27
58 40 65 82 53 62 29
20 92 17 90 62 75 67
65 22 100 75 21 63 43
10 65 58 86 44 86 35
49 56 50 19 14 42 74
65 50 74 93 50 10 100
20 78 97 75 49 92 83
82 45 34 67 57 52 44
20 22 92 95 83 62 31
0.421826
0.183217
0.361913
0.287877
0.459589
0.430341
0.41141
0.463003
0.188741
0.499052
0.477124
0.16009
0.110536
0.414102
0.217352
0.338443
0.139983
0.372904
0.129468
0.275022
0.120401
0.468374
0.250896
0.269419
0.304615
0.324251
0.454758
0.148648
0.345939
0.262928
435 170
34 445
199 70
452 233
398 84
140 211
317 117
129 258
441 29
239 335
114 135
397 5
321 343
116 27
444 100
112 191
76 56
326 214
150 227
84 157
497 199
372 98
419 72
218 130
458 325
133 104
286 15
11 466
120 493
214 254
2091.25
4
