30
7
0 0 0 0 0 0 0
12 41 54 23 79 94 33
92 44 33 38 61 80 17
33 64 46 52 48 99 14
26 26 98 75 53 54 56
31 73 53 63 82 48 76
42 18 88 11 59 87 48
19 83 27 50 80 82 35
80 40 15 54 17 85 82
57 96 16 73 67 19 95
35 97 72 49 93 19 78
59 59 20 96 27 37 84
39 51 55 67 59 49 82
60 37 89 59 96 18 81
40 66 72 70 89 95 34
66 91 84 12 68 80 88
12 53 28 94 23 91 66
71 87 79 24 62 10 53
49 17 61 35 92 62 34
54 41 12 91 17 92 18
82 30 10 72 45 31 33
98 36 29 62 46 54 26
32 16 20 17 10 29 20
66 73 57 86 45 38 85
51 63 16 10 54 92 45
26 30 27 90 81 60 35
57 72 33 87 59 81 70
24 49 30 55 52 82 35
74 47 92 95 66 29 88
60 97 23 92 58 98 61
1.96943
0.476686
1.73628
1.57125
1.00666
1.22898
1.28344
1.25427
0.995052
0.921075
0.423614
1.96349
1.9124
0.879882
0.452383
1.61929
1.64912
1.72199
0.497981
0.92285
0.891132
1.3368
1.12005
1.01563
1.79003
1.18872
0.577351
1.74265
1.02409
0.426583
200 347
12 0
319 236
495 130
359 191
212 20
392 50
244 390
381 451
369 343
302 31
24 121
303 166
476 462
222 257
109 14
311 47
114 374
178 21
341 378
203 135
454 185
105 438
54 316
168 20
312 446
170 427
209 293
413 315
69 277
1988.75
4
