30
9
0 0 0 0 0 0 0 0 0
99 55 82 90 39 84 14 88 87
70 48 10 82 47 11 42 75 23
95 48 83 35 81 54 19 45 34
65 67 51 51 23 31 92 28 40
12 50 100 37 75 32 54 68 59
43 38 76 60 87 94 39 36 47
29 63 13 54 78 73 32 63 91
69 51 35 52 50 77 26 21 55
58 63 59 27 64 75 39 21 34
10 30 43 28 10 46 10 49 19
28 92 25 62 13 19 50 65 77
61 99 56 94 38 64 54 75 89
25 91 35 53 88 92 90 58 56
20 49 85 39 27 41 58 100 65
20 34 42 70 50 41 99 48 63
37 93 34 81 34 19 44 11 16
96 35 27 82 79 50 31 74 23
50 73 66 60 29 15 76 44 76
40 14 12 59 80 39 45 61 51
39 47 10 21 83 71 51 93 84
36 15 63 84 16 83 88 43 57
60 16 49 56 37 28 57 88 35
63 66 88 95 93 31 59 66 33
51 73 11 98 12 45 59 95 36
48 36 82 47 44 94 70 44 99
96 17 47 43 53 75 64 33 78
32 67 83 54 70 58 78 25 51
12 90 27 40 18 40 33 51 65
44 78 33 65 32 60 29 37 22
1.49149
0.579037
1.18509
0.695092
0.475238
0.312207
1.21595
1.29193
1.08178
0.94828
1.27432
1.18567
1.3616
0.884917
1.46191
1.22917
0.427307
1.03761
1.21001
0.597856
0.536611
0.631309
0.698727
1.4389
1.39429
0.869754
0.484349
1.27216
1.30403
0.729676
334 74
48 124
313 8
250 135
356 497
435 230
147 220
175 4
38 1
475 38
424 75
454 156
142 458
482 14
498 282
402 107
20 139
342 355
88 222
82 16
4 393
301 261
413 412
89 247
40 487
318 77
156 430
276 197
91 237
122 293
1918.75
4
