30
7
0 0 0 0 0 0 0
39 27 35 17 62 82 49
12 69 16 69 99 33 34
59 14 84 52 30 72 12
92 72 75 59 63 57 70
13 90 66 14 69 21 79
91 77 22 39 24 94 52
36 74 62 56 59 44 39
30 29 28 31 50 50 32
46 55 87 75 59 82 74
48 56 30 57 69 19 96
98 73 87 57 18 14 46
62 82 42 15 95 23 97
48 38 26 62 32 93 85
79 77 59 10 11 60 62
93 86 30 22 100 69 81
35 26 74 26 68 66 64
65 13 96 66 64 36 17
60 71 39 52 51 67 100
80 44 51 23 15 57 100
51 86 100 22 62 76 31
39 31 77 76 50 77 79
51 49 85 52 13 39 38
13 51 15 64 74 75 14
80 37 94 42 55 98 74
100 84 74 91 94 26 93
27 80 68 72 24 66 83
53 17 68 63 29 69 85
73 41 48 43 81 28 80
32 85 11 69 60 99 90
0.831251
0.997445
0.445237
0.543053
0.63914
0.316096
0.435223
0.294435
0.577278
0.269131
0.728199
0.235892
0.737676
0.742899
0.339431
0.342116
0.399667
0.915084
0.938138
0.962524
0.437842
0.30106
0.762997
0.745126
0.730418
0.540099
0.305521
0.379659
0.610247
0.217897
86 152
67 79
389 152
410 102
180 130
5 75
278 88
49 313
185 42
427 328
208 30
422 164
111 56
175 190
25 443
286 153
492 370
69 174
350 335
376 95
370 379
19 24
196 486
468 423
184 425
213 118
61 131
48 479
50 343
281 62
1630
5
