30
7
0 0 0 0 0 0 0
57 76 26 55 10 93 93
80 98 55 23 53 30 59
78 21 11 94 48 46 40
80 42 19 20 13 98 24
54 89 58 40 100 99 55
78 33 33 70 57 61 97
97 30 79 42 47 87 55
43 86 16 78 60 80 46
76 96 64 17 15 17 27
30 94 62 53 99 55 22
15 98 89 18 94 77 95
78 37 22 21 65 11 88
90 81 13 33 86 24 48
81 48 96 76 95 14 93
59 72 64 19 11 42 30
33 12 19 66 36 80 63
39 97 55 12 83 68 90
15 76 29 43 74 26 62
15 90 25 96 25 97 70
20 93 95 10 71 46 24
98 76 20 15 56 36 73
57 55 30 45 99 43 79
78 48 71 33 65 16 23
94 31 83 63 96 67 38
24 20 64 68 83 76 26
60 39 56 39 45 54 80
40 86 24 14 15 25 60
47 26 97 63 49 27 15
38 66 90 66 69 42 33
2.36619
1.07431
2.47759
2.38892
2.18523
2.49234
1.35053
0.572183
2.00358
2.10716
1.20773
0.729132
2.34034
0.96362
1.09739
2.20868
2.29527
2.09908
0.61108
1.17385
1.70825
2.14267
0.950757
2.01814
1.00032
1.10494
2.40524
1.32473
0.901374
1.95811
475 463
212 352
373 216
74 457
415 463
161 159
175 253
435 140
214 141
267 491
348 403
244 318
392 42
116 380
308 275
347 181
270 295
25 97
225 213
26 474
374 260
149 153
296 282
428 205
250 498
428 269
387 293
215 51
231 21
434 116
2640
3
