30
11
0 0 0 0 0 0 0 0 0 0 0
85 64 17 48 51 89 44 90 61 16 12
46 83 64 47 39 48 99 98 50 40 87
29 14 69 71 99 90 55 90 75 47 48
63 50 57 91 16 69 64 67 87 80 11
76 55 82 74 81 55 23 41 15 54 72
86 71 85 22 66 20 29 10 87 75 75
56 56 82 41 23 22 12 78 60 100 39
36 85 95 90 25 47 50 92 99 28 58
14 35 47 71 24 61 75 40 15 86 18
27 54 55 12 87 67 33 70 21 13 57
90 37 67 70 69 48 96 100 35 88 44
54 68 28 12 69 77 78 38 11 26 80
83 98 77 46 25 31 40 52 22 69 87
100 29 29 38 58 41 34 48 52 16 88
23 55 11 25 89 29 87 79 66 67 37
12 72 44 75 67 69 98 15 46 30 30
55 13 42 89 61 85 61 22 40 98 76
18 67 13 31 76 79 61 23 100 61 59
100 99 29 57 71 92 46 47 63 38 32
14 16 50 87 55 49 49 75 42 44 33
41 81 26 21 71 79 42 66 74 82 68
23 24 52 28 72 99 19 17 94 72 22
28 75 34 40 62 20 57 33 97 78 62
27 14 51 34 37 32 37 37 68 67 98
79 51 33 17 17 48 74 83 76 62 60
21 14 45 13 29 55 27 52 91 71 59
19 20 100 50 31 95 51 14 40 99 29
80 92 100 62 67 99 10 46 98 67 56
38 69 98 30 59 84 92 97 62 75 78
0.692307
0.862408
0.574426
0.416065
0.854349
0.562417
1.73027
1.01187
1.18944
0.425697
1.01229
1.34949
1.1968
0.736033
0.747845
0.606667
0.484133
1.74618
1.45491
0.755461
1.92397
1.06708
0.838269
0.641649
0.570549
1.94864
1.49691
1.01522
1.89959
0.618696
389 61
70 443
274 153
207 36
8 175
479 477
141 101
405 364
329 47
186 302
441 239
47 393
165 134
467 42
4 262
379 68
239 78
180 199
276 34
264 202
201 479
321 194
350 192
82 283
442 498
0 211
468 18
302 205
154 407
137 492
2661.67
3
