30
3
0 0 0
48 28 35
25 93 64
68 83 34
75 96 76
97 76 68
70 79 23
30 57 87
44 82 11
67 13 16
44 97 65
95 73 94
30 76 66
60 21 61
36 87 16
18 54 60
83 33 28
43 72 30
40 83 41
71 26 77
53 80 89
63 22 11
60 99 21
32 47 18
95 98 14
68 77 97
44 88 88
71 38 71
64 72 84
25 75 90
0.741782
1.68788
1.96087
0.848429
1.88788
1.42637
1.03784
1.36389
1.96791
0.593507
1.30796
0.81972
1.352
0.409115
0.699051
1.6385
1.96186
0.759645
0.614569
1.63031
0.604981
0.825552
1.61851
0.406793
0.844106
1.19197
1.40345
1.94897
1.78826
1.98098
81 190
70 421
61 368
66 270
305 497
282 130
480 231
192 440
215 93
403 347
248 1
374 124
483 236
412 4
193 475
138 220
218 131
424 475
207 101
342 365
414 273
94 186
218 356
356 263
147 15
421 446
46 243
179 191
182 104
489 187
4232.5
2
