30
5
0 0 0 0 0
75 76 41 12 27
29 73 82 53 15
47 76 29 72 66
77 32 31 16 56
31 28 67 20 48
84 39 37 32 90
48 68 97 83 53
14 34 21 64 40
17 58 99 67 26
14 55 73 34 78
59 50 52 19 66
100 69 99 15 20
94 25 22 74 16
13 82 19 41 41
82 77 54 33 17
22 31 23 59 54
18 44 77 52 55
42 70 82 78 17
22 50 26 89 11
69 39 85 41 81
43 80 55 81 43
61 80 70 32 38
15 50 96 27 39
61 51 29 93 95
66 64 59 42 18
58 42 61 51 82
78 69 66 43 31
56 39 11 56 71
41 82 42 95 13
1.73555
0.829856
0.965992
1.91175
0.851387
1.02193
2.29408
2.43762
1.56504
1.10157
0.964834
1.12521
0.971162
2.10647
0.548091
1.39302
2.27132
0.686534
2.10222
0.768914
2.03536
1.54542
2.32831
0.660662
1.20212
0.934154
1.51623
1.27815
2.45286
1.5023
125 361
26 356
33 459
492 7
234 245
258 45
27 187
260 182
248 396
340 345
300 150
264 267
416 335
437 190
268 283
426 217
440 446
52 364
358 186
486 500
25 439
98 458
80 305
55 365
290 201
196 208
474 205
354 9
433 278
380 479
7455
1
