30
3
0 0 0
75 41 76
23 74 51
27 24 13
78 38 72
99 55 57
69 30 50
15 43 30
41 69 93
14 44 93
26 46 67
46 69 69
77 90 81
20 75 92
52 49 94
36 37 64
97 77 68
71 11 58
61 39 77
64 68 31
80 33 100
58 80 65
21 93 39
90 22 70
24 77 62
16 39 32
36 39 12
68 98 53
12 20 23
81 60 15
0.198547
0.493484
0.112532
0.394794
0.474316
0.172814
0.111578
0.230565
0.45391
0.177889
0.169274
0.198355
0.339183
0.378186
0.284819
0.413018
0.295832
0.317988
0.382689
0.373524
0.268337
0.302539
0.134985
0.121674
0.384134
0.169105
0.299407
0.340098
0.212442
0.461348
444 377
168 318
252 375
198 67
184 130
313 243
322 89
378 169
239 128
286 442
468 423
435 450
96 468
273 94
282 202
0 97
192 252
321 31
466 87
380 1
96 13
367 439
495 422
466 79
333 228
47 430
412 295
491 86
337 276
233 287
1967.5
4
