30
3
0 0 0
42 44 29
58 81 73
47 15 60
85 78 17
99 35 37
46 87 67
74 74 14
93 18 92
12 78 15
65 97 53
12 33 51
12 43 37
91 85 96
93 99 62
25 74 77
33 63 58
10 34 89
71 23 41
72 39 33
98 17 39
95 27 68
30 24 91
63 41 59
51 56 56
76 48 54
76 83 35
31 54 23
90 20 28
20 30 18
1.15782
0.830049
1.30778
0.741962
0.89057
0.604817
1.08061
0.875936
1.36203
1.32729
0.91131
1.17951
1.12172
0.964331
0.777375
1.2771
0.503027
0.571911
0.518215
1.15296
0.518985
0.456932
0.889772
1.29799
0.309114
1.01414
1.35383
0.679633
0.534471
1.39282
205 334
37 406
472 470
221 366
245 178
18 157
65 438
72 164
106 408
156 40
426 391
336 419
456 271
334 245
352 242
27 13
404 240
131 241
91 423
213 134
55 22
449 27
282 152
336 240
238 84
278 442
357 355
297 246
222 291
343 418
2578.33
3
