30
11
0 0 0 0 0 0 0 0 0 0 0
55 20 32 23 58 53 49 36 64 52 77
76 32 40 13 54 28 55 23 85 31 82
11 29 19 41 24 52 93 92 71 20 83
98 90 98 56 99 61 74 28 64 100 69
44 46 99 19 26 98 55 25 36 77 27
57 37 74 16 79 42 51 91 78 63 71
55 48 82 56 98 40 34 12 58 95 17
59 91 22 61 29 96 53 54 62 50 38
13 25 87 28 80 79 59 52 31 27 20
42 86 74 66 39 56 70 73 36 56 64
63 27 77 63 28 46 61 13 32 48 56
48 76 33 74 80 71 70 12 40 41 82
60 40 75 86 40 84 11 34 89 23 27
41 90 17 56 14 45 16 60 54 75 59
72 59 19 74 13 27 26 44 25 61 76
29 20 37 67 58 51 11 69 54 12 76
74 21 36 11 16 23 10 13 72 63 76
15 50 92 33 10 21 47 78 11 90 42
54 62 81 81 73 37 37 64 71 97 15
67 34 59 85 27 33 27 94 21 26 81
84 83 10 19 60 65 39 25 50 91 47
88 27 81 76 47 62 62 30 77 89 39
97 87 26 55 97 83 26 43 47 89 43
33 41 57 43 27 77 68 42 52 92 95
15 18 30 70 92 46 80 50 60 61 66
37 97 44 80 39 55 34 98 10 46 72
17 10 42 32 75 20 99 72 97 13 57
68 59 37 26 33 82 45 33 40 10 33
12 62 22 80 11 17 58 82 16 80 80
0.703358
1.44022
1.74097
0.984304
1.79622
0.452454
0.750834
1.52862
1.67014
1.22292
1.12706
1.86055
1.81439
0.893371
1.14332
0.458829
1.64763
1.71006
0.812997
1.82159
0.500536
1.61759
1.545
1.12187
1.12099
0.574218
0.933457
1.23978
0.553278
1.3847
173 317
392 93
450 22
269 370
421 130
467 315
486 17
9 183
443 483
295 409
275 141
379 74
421 12
233 391
442 259
231 476
308 99
346 281
81 289
314 89
279 107
442 439
298 417
140 155
461 481
442 1
105 391
78 180
3 455
115 50
1890
4
