30
7
0 0 0 0 0 0 0
13 33 15 50 28 80 18
85 47 91 91 68 37 66
97 77 66 15 12 12 94
53 70 77 46 91 63 60
21 75 62 41 18 52 32
64 100 93 100 30 95 53
95 38 37 86 99 99 79
12 63 33 11 41 51 26
90 70 22 29 32 59 45
68 21 25 34 92 63 59
70 65 87 39 97 97 84
98 92 71 16 99 70 63
100 31 57 86 80 28 96
97 33 28 11 90 23 20
41 42 60 55 53 40 77
83 64 93 59 47 84 12
43 71 49 38 21 37 82
48 13 95 21 89 43 21
97 14 25 63 27 89 45
46 52 95 60 83 80 70
85 72 88 45 63 18 83
72 59 54 48 93 84 52
87 27 18 46 36 21 71
81 26 82 65 36 65 69
56 16 60 62 27 96 98
27 62 71 27 98 83 19
44 90 73 50 78 22 68
48 98 63 34 93 35 45
23 51 21 67 13 63 45
0.873401
0.839533
0.890412
0.875415
0.709939
0.833427
0.689055
0.85465
0.219116
0.57703
0.325858
0.34739
0.778606
0.6502
0.864875
0.743286
0.960379
0.583959
0.634416
0.378809
0.704687
0.68104
0.239971
0.874865
0.472442
0.929056
0.4916
0.491726
0.489245
0.574697
384 399
206 354
294 99
346 282
155 417
379 473
295 397
301 184
238 267
134 184
415 276
158 451
197 23
210 252
215 23
184 375
473 499
464 237
227 221
116 319
39 388
105 32
63 442
417 328
147 85
318 155
50 205
185 401
171 86
182 201
2760
3
