30
3
0 0 0
21 72 93
94 92 14
32 91 55
33 31 94
93 74 41
52 94 15
83 30 100
13 67 14
58 67 30
41 36 46
61 67 68
42 36 65
70 81 75
83 84 15
39 49 28
55 73 30
86 30 47
80 66 71
77 56 14
57 60 64
27 47 71
30 19 69
94 10 43
37 43 66
49 46 45
87 47 77
49 86 83
85 44 76
39 23 69
0.315007
0.821202
0.524156
0.64035
0.857954
0.725776
0.630837
0.940648
0.777358
0.725579
0.460654
0.441692
0.892549
0.471392
0.916276
0.883876
0.546572
0.408729
0.616111
0.989951
0.419445
0.434172
0.473306
0.840449
0.75701
0.600481
0.275234
0.259605
0.487597
0.582528
488 228
125 241
484 308
145 452
105 3
99 472
336 131
34 39
452 46
352 491
298 204
332 385
61 232
235 308
334 377
69 188
380 320
39 150
76 328
58 319
29 385
279 276
217 81
339 230
254 152
430 178
234 441
358 47
4 389
388 209
4055
2
