30
7
0 0 0 0 0 0 0
74 15 13 38 80 81 60
44 63 92 11 74 22 73
38 88 67 32 90 59 76
89 23 73 87 86 17 70
13 56 22 90 72 40 30
58 44 53 90 58 53 30
84 17 94 74 88 77 34
66 47 99 43 44 22 23
27 96 91 12 74 20 16
30 29 56 17 38 99 74
29 51 41 28 26 27 60
63 20 28 86 14 25 84
39 48 66 82 47 35 81
30 44 15 36 84 18 31
87 49 80 85 87 54 66
91 45 94 44 18 56 59
72 29 89 61 59 60 74
86 58 46 10 42 81 81
67 61 65 99 41 49 33
92 50 57 24 40 20 17
73 26 64 87 39 40 63
66 42 21 97 83 27 89
31 41 36 23 70 73 10
53 71 81 75 35 56 11
36 76 18 20 98 61 54
92 50 95 91 43 21 86
14 21 52 11 64 28 27
30 41 60 43 73 75 75
18 23 32 39 67 75 48
0.412486
0.482999
0.251496
0.416947
0.400829
0.419123
0.307675
0.365282
0.449437
0.266236
0.230025
0.248455
0.262876
0.362906
0.480156
0.383516
0.444651
0.307429
0.310721
0.218703
0.221997
0.437346
0.142061
0.434487
0.103487
0.191918
0.237081
0.400846
0.255811
0.228186
217 172
215 121
488 476
423 439
381 88
327 107
395 304
112 469
324 151
258 31
67 178
204 147
282 343
477 236
214 412
499 86
232 119
213 296
342 218
59 314
154 500
203 150
42 147
307 435
327 339
247 341
127 353
266 11
262 239
149 63
3852.5
2
