30
7
0 0 0 0 0 0 0
24 34 19 87 30 61 85
50 57 97 98 68 61 21
93 54 69 86 92 35 72
18 97 57 100 90 91 74
53 76 100 90 97 97 55
25 73 79 43 70 89 40
74 60 26 43 72 84 11
11 78 35 19 60 80 43
67 69 21 74 24 38 75
23 57 41 61 53 88 41
37 37 52 50 77 10 64
93 59 85 92 30 16 60
99 87 56 56 79 97 65
44 73 64 58 40 55 55
64 24 93 52 53 24 62
65 70 90 38 50 66 30
79 99 26 78 44 80 30
19 99 11 14 89 18 54
69 57 25 14 77 49 47
32 71 95 16 32 74 66
96 60 28 27 75 76 74
52 32 33 38 23 17 86
44 84 32 30 96 25 62
82 59 75 35 24 44 20
57 92 89 88 46 22 46
61 41 59 33 66 90 73
96 44 45 85 27 83 20
10 42 42 90 93 13 11
73 69 16 81 53 60 17
0.78653
0.309626
0.61313
0.686943
0.556014
0.904462
0.486677
0.674337
0.664705
0.494026
0.979934
0.442827
0.46448
0.453286
0.840665
0.333749
0.455612
0.769274
0.528757
0.234631
0.654726
0.422506
0.733591
0.842492
0.73714
0.481553
0.242555
0.537624
0.282688
0.31001
190 32
457 66
367 484
161 475
382 430
1 354
97 445
268 36
291 1
395 304
96 189
86 291
116 251
185 22
193 495
490 48
460 432
76 156
97 38
16 282
5 461
246 237
472 317
150 213
419 183
495 263
425 343
486 93
232 245
249 422
1647
5
