30
11
0 0 0 0 0 0 0 0 0 0 0
87 32 28 91 90 28 65 81 10 28 84
51 69 94 63 52 41 63 26 53 100 65
66 61 41 82 74 13 45 44 36 73 81
56 47 97 94 98 88 68 41 100 72 69
10 67 92 23 74 33 90 55 24 49 80
30 61 57 80 53 52 14 40 71 10 98
59 39 14 71 68 85 31 100 42 34 51
53 52 15 29 34 97 91 15 62 24 47
99 42 13 45 49 68 62 32 41 49 32
19 86 55 28 29 46 78 72 83 30 28
94 80 72 81 73 83 21 50 39 79 49
45 15 97 51 39 68 13 80 92 20 43
15 49 81 89 85 28 46 19 57 57 67
24 16 15 93 49 61 94 23 69 97 100
26 54 92 30 13 33 19 100 45 17 47
92 74 85 28 10 85 31 39 14 100 34
62 71 26 51 22 61 59 11 96 16 48
84 30 96 78 58 85 64 95 65 60 84
91 73 49 100 58 14 22 22 68 52 99
60 48 90 72 36 65 36 74 91 71 85
20 67 18 59 87 54 35 70 44 57 13
85 28 38 90 42 33 66 32 17 14 35
44 90 86 69 49 38 72 82 91 53 17
19 34 25 59 82 15 28 73 88 41 21
71 61 83 97 85 17 42 88 43 98 92
36 48 90 83 63 27 50 57 19 82 66
67 92 12 20 63 51 83 92 57 41 62
91 98 51 93 67 61 13 77 31 31 38
13 69 84 44 77 13 64 80 33 32 14
0.341713
0.455965
1.14981
0.362437
1.22251
1.00263
0.475925
0.974126
0.373823
0.84639
0.61975
0.386688
1.29308
0.493074
1.40847
0.735668
0.464672
1.42176
0.690466
1.42076
1.24898
0.820898
0.916722
0.891947
0.40356
0.401393
0.967333
1.43502
0.887572
0.830495
487 64
430 253
222 215
452 188
171 308
23 425
381 278
460 342
149 335
60 368
91 394
105 124
112 8
177 192
207 170
37 219
134 460
404 119
406 314
345 401
53 135
336 448
220 269
325 448
476 261
152 172
359 27
186 154
129 6
368 350
2693.33
3
