30
5
0 0 0 0 0
96 56 38 15 34
74 35 82 31 94
77 28 60 46 33
51 72 50 43 87
99 20 96 51 93
12 46 17 53 95
77 90 72 29 41
25 72 17 18 22
47 60 74 33 48
11 21 37 73 50
53 19 73 23 65
15 17 44 60 44
19 21 29 75 95
28 54 66 83 41
19 24 21 30 41
92 47 56 33 33
51 74 53 84 16
84 67 93 52 46
38 42 85 93 47
28 75 81 66 15
85 51 98 29 82
86 60 32 43 99
34 40 93 84 81
25 76 56 12 26
96 88 38 95 78
58 60 83 73 81
57 85 68 65 56
86 75 49 74 28
97 62 31 69 49
0.537313
0.544921
0.344177
0.366823
0.768238
0.434917
0.94365
0.396994
0.815968
0.370234
0.520945
0.86749
0.803638
0.796766
0.716163
0.620663
0.288839
0.463019
0.631775
0.419778
0.920769
0.322201
0.317669
0.857552
0.750399
0.333194
0.692677
0.232619
0.450808
0.437959
128 438
330 260
117 214
165 459
436 485
114 390
34 230
15 92
388 253
27 419
47 328
251 484
234 184
27 490
453 475
95 366
443 396
469 328
354 353
499 10
95 436
335 328
95 248
314 483
127 40
243 146
6 126
30 137
177 146
21 146
8000
1
