30
7
0 0 0 0 0 0 0
13 45 50 74 11 99 97
91 55 68 75 75 25 70
94 35 13 24 54 56 75
12 26 24 21 24 89 54
53 23 50 76 64 18 92
80 26 60 78 28 24 93
69 86 95 41 95 24 96
46 27 27 58 23 78 95
20 63 70 14 10 53 11
88 20 31 91 72 67 74
98 16 47 45 42 52 24
52 88 10 54 29 72 71
61 80 14 65 39 68 65
14 19 12 70 93 20 100
94 65 35 82 23 37 52
16 50 69 93 32 54 40
21 33 95 20 92 51 54
81 57 99 78 59 68 29
100 49 100 81 92 11 15
92 72 42 15 83 64 49
60 78 51 78 84 53 78
11 18 30 96 59 93 50
17 80 93 63 30 71 25
82 15 66 44 30 36 99
66 65 33 12 23 70 23
46 39 92 27 70 86 12
39 21 74 58 43 95 10
47 22 32 63 22 23 43
45 54 95 91 79 63 48
0.251009
0.47443
0.325286
0.447625
0.141143
0.470323
0.483846
0.217731
0.347394
0.141357
0.391775
0.263153
0.419283
0.440955
0.454648
0.180704
0.422967
0.415867
0.477878
0.152289
0.441976
0.427883
0.209309
0.226181
0.275013
0.190611
0.435396
0.386652
0.378352
0.289138
497 21
321 443
344 121
431 301
18 474
151 455
226 39
28 222
451 294
14 387
186 168
35 107
203 80
219 168
80 91
275 324
141 397
413 444
298 284
257 346
111 405
204 496
183 64
394 322
346 222
74 61
139 267
157 73
102 80
178 375
1563
5
