30
3
0 0 0
54 43 83
80 29 55
65 38 24
82 74 54
53 30 58
79 65 55
93 36 16
69 41 64
85 92 22
75 96 26
37 81 43
44 100 80
46 44 69
44 43 55
42 53 18
16 21 96
61 100 25
13 80 65
77 76 75
86 38 26
87 73 41
25 86 44
32 70 74
78 64 15
46 49 77
93 44 56
68 52 93
37 92 33
87 68 88
0.416337
0.395955
0.435462
0.468899
0.264983
0.332614
0.224955
0.184922
0.147201
0.399719
0.241818
0.107669
0.14963
0.400141
0.412376
0.288478
0.368462
0.258626
0.110878
0.46515
0.314598
0.456244
0.231157
0.226714
0.460809
0.227835
0.309889
0.37904
0.481657
0.345248
252 71
75 498
469 256
92 466
83 35
152 471
188 460
273 72
306 167
78 370
72 436
498 281
251 74
51 494
472 251
450 101
385 200
278 199
94 179
127 117
270 220
298 196
451 489
246 316
439 482
335 186
211 184
476 381
2 282
225 183
2108.75
4
