30
3
0 0 0
21 63 80
33 71 52
43 98 22
72 16 53
61 91 95
43 38 12
89 85 90
19 98 17
32 74 99
63 62 70
53 38 53
91 13 17
84 98 42
55 36 15
32 87 27
13 28 63
37 21 57
38 67 80
65 27 68
93 64 20
45 61 33
20 95 67
21 72 24
55 66 44
25 11 77
87 18 37
22 42 76
10 80 93
43 75 86
1.32471
1.12877
1.20763
1.35646
0.432384
0.423075
0.647481
1.00462
0.514844
0.605533
0.736056
0.53569
0.638633
0.450012
0.891899
0.807968
0.997566
1.32839
0.593445
0.390482
1.4392
0.449214
0.966844
1.20797
1.19699
1.45964
0.839842
1.17256
1.40318
0.65789
219 284
229 156
44 191
276 256
80 10
361 33
231 205
227 161
174 87
194 486
212 36
341 421
72 263
411 288
266 110
262 209
303 209
28 219
195 489
314 454
477 489
251 85
277 257
298 44
340 41
215 242
443 253
39 36
108 401
498 214
2571.67
3
