30
3
0 0 0
21 57 76
56 59 94
61 71 91
69 40 34
58 64 95
95 85 23
25 36 40
63 27 69
96 52 68
25 63 86
51 64 74
34 22 74
98 86 21
68 71 69
19 88 26
42 71 66
68 52 63
45 22 60
82 97 19
19 35 82
63 84 38
86 34 55
76 44 91
38 50 62
53 90 45
40 97 94
47 33 64
17 83 51
99 92 83
0.781799
0.203821
0.74085
0.953368
0.357227
0.676059
0.235428
0.912746
0.358718
0.580388
0.371223
0.581275
0.472222
0.809261
0.41657
0.890997
0.231868
0.312755
0.287817
0.530699
0.329114
0.918861
0.596976
0.717743
0.216744
0.507983
0.489553
0.809679
0.958155
0.443307
45 250
376 332
285 416
210 186
158 246
493 281
40 409
325 19
171 55
26 300
422 209
223 11
3 133
164 35
141 115
146 138
5 256
407 95
21 73
339 453
15 385
496 150
287 471
441 450
102 320
282 234
66 318
434 16
171 62
129 407
1732
5
