30
5
0 0 0 0 0
82 17 32 15 26
90 50 73 98 29
20 57 59 43 80
52 90 15 46 50
25 45 76 73 48
50 12 40 71 73
82 85 76 36 52
16 26 92 54 67
96 52 62 21 69
50 100 74 13 84
57 29 34 51 93
74 23 41 33 72
93 88 94 78 82
98 83 11 43 50
73 81 69 39 43
83 22 47 47 79
60 73 23 83 55
62 30 60 11 70
29 37 66 84 75
30 47 19 11 28
61 75 84 96 34
72 22 91 20 29
70 81 75 25 30
32 68 65 62 60
46 30 23 42 19
22 90 71 71 40
88 95 58 17 24
18 10 21 66 45
91 74 27 35 81
0.47859
0.907369
1.36059
0.302473
0.916617
1.26632
1.45973
1.38303
1.26397
0.722976
1.47549
0.520577
0.693112
0.459178
0.575702
1.32778
0.863115
0.798174
0.853071
0.689438
1.0411
1.13614
1.27064
1.47368
1.26958
1.02508
0.685625
1.0793
0.824387
0.689827
275 363
369 103
347 238
148 394
362 493
207 197
430 54
88 361
422 309
267 357
403 230
185 158
443 374
135 409
67 263
140 126
421 428
400 107
380 12
446 188
233 243
164 472
462 79
21 486
110 404
25 102
249 252
339 6
162 139
35 456
7860
1
