30
9
0 0 0 0 0 0 0 0 0
53 89 50 56 64 65 75 66 33
42 73 76 50 91 44 99 68 25
36 24 75 16 28 27 47 74 28
20 83 93 92 95 45 19 66 78
31 63 29 36 60 81 75 13 18
22 81 46 92 42 76 28 15 73
90 42 67 72 65 100 91 95 21
63 79 25 48 71 95 67 66 61
38 17 100 12 91 77 32 89 33
62 58 60 89 18 98 15 46 40
18 17 61 92 50 40 77 42 54
27 45 63 67 92 93 16 58 19
30 43 51 16 98 84 10 94 65
49 51 54 52 52 82 39 17 79
76 49 88 90 27 45 26 64 91
23 64 24 27 32 34 12 64 99
14 57 27 46 28 74 13 26 59
90 76 96 57 58 67 39 86 28
26 96 57 82 47 95 66 95 95
74 40 44 86 84 76 43 64 85
26 28 71 68 92 84 100 88 43
62 58 27 32 19 59 13 67 20
45 99 89 34 13 36 37 60 58
37 44 22 67 61 26 27 17 78
42 83 31 43 75 13 23 70 75
75 84 84 91 58 68 73 79 94
31 43 76 95 69 63 40 37 71
34 46 46 28 48 71 92 73 47
57 88 64 57 74 12 13 27 79
0.299685
0.125073
0.479079
0.135903
0.152194
0.302366
0.132291
0.219175
0.257236
0.303737
0.411951
0.187109
0.473495
0.259783
0.228465
0.159786
0.482898
0.304999
0.190756
0.228829
0.414527
0.176997
0.270581
0.373079
0.24233
0.418306
0.331207
0.231154
0.457458
0.214961
291 13
232 105
132 82
126 396
58 74
496 452
120 350
185 220
261 453
87 323
346 384
218 151
211 75
52 260
281 284
348 317
389 489
357 290
87 125
103 285
160 54
321 118
141 59
109 436
205 155
20 282
463 165
48 170
279 420
7 338
1624
5
