30
5
0 0 0 0 0
73 83 73 87 97
97 12 52 29 81
48 67 90 75 24
100 64 58 88 70
33 37 68 31 84
50 55 59 29 100
81 94 57 45 25
77 42 37 81 66
73 62 19 70 62
38 42 21 71 13
30 39 87 100 61
34 77 50 50 98
86 90 46 53 68
20 95 33 58 75
20 90 86 44 14
72 42 28 93 74
84 85 61 70 63
22 85 86 33 22
31 24 70 30 73
96 49 18 28 39
57 50 94 22 92
69 32 30 50 45
46 73 28 18 32
83 77 35 13 69
87 74 95 34 82
70 90 42 85 45
16 54 31 62 62
60 75 47 50 65
64 82 74 43 91
0.992483
1.16124
0.858751
0.684316
0.455633
1.49032
0.817261
0.449217
1.46575
1.30001
0.367086
1.29092
0.711483
1.35237
0.413401
1.40426
0.447293
0.86823
1.04485
0.459723
1.02824
1.03711
1.49171
0.509415
1.25504
0.949347
1.28501
0.741011
1.13372
1.17019
277 481
185 474
44 205
162 323
487 443
373 265
458 163
440 285
340 114
356 248
345 76
28 1
99 478
377 302
98 194
228 265
479 190
384 156
53 496
230 119
422 178
90 31
178 6
205 466
464 350
319 309
199 360
255 166
254 175
152 451
8465
1
