30
3
0 0 0
52 67 48
20 69 46
70 29 43
97 55 54
51 10 24
30 12 76
46 27 92
71 18 50
63 89 80
21 79 26
21 28 97
54 11 19
13 36 14
18 23 85
87 67 73
24 41 54
48 26 87
55 51 75
43 25 63
51 89 57
75 85 94
45 100 85
17 72 75
92 62 23
42 56 30
81 97 61
65 14 23
73 76 53
70 78 83
0.325734
0.247913
0.271331
0.407575
0.112836
0.455415
0.359874
0.171163
0.335131
0.413804
0.170023
0.389459
0.469436
0.187793
0.150901
0.105698
0.333605
0.319194
0.367134
0.499972
0.228356
0.426596
0.12434
0.246995
0.334848
0.415219
0.240543
0.492135
0.19405
0.181101
384 474
500 310
458 362
201 9
105 289
408 19
251 223
67 469
374 122
300 59
310 486
412 440
339 431
257 229
12 61
301 265
350 321
222 404
3 276
444 150
75 441
380 103
40 392
22 403
173 309
250 242
323 111
23 322
290 469
265 192
3897.5
2
