30
5
0 0 0 0 0
29 75 48 78 32
47 44 31 92 63
85 57 23 29 78
59 47 21 24 63
97 88 10 77 39
92 82 80 83 42
39 73 95 66 73
89 14 24 57 11
24 52 12 49 29
60 43 58 48 15
34 27 14 33 97
50 93 25 100 92
95 38 63 64 44
90 37 65 17 89
35 57 31 58 65
87 51 45 16 57
22 87 50 21 17
43 13 18 63 19
87 57 61 67 65
29 40 39 50 95
69 87 97 32 23
45 81 98 83 21
82 71 38 70 78
29 16 62 25 61
68 43 54 12 56
95 13 11 93 83
35 78 39 34 30
86 41 77 79 61
100 59 48 62 99
0.344069
0.307924
0.399091
0.120274
0.155739
0.187461
0.405974
0.286677
0.497351
0.467077
0.288611
0.496208
0.152116
0.270743
0.110512
0.347352
0.473912
0.290409
0.128205
0.416693
0.188831
0.373091
0.132978
0.168741
0.416657
0.249922
0.40878
0.165725
0.170662
0.235086
95 52
250 239
242 433
468 298
253 397
382 225
409 96
394 396
476 259
168 380
146 378
448 50
269 478
459 303
448 21
333 290
7 160
195 249
270 115
469 102
344 71
258 199
139 391
285 41
428 245
233 474
344 218
43 141
115 486
11 381
7880
1
