30
7
0 0 0 0 0 0 0
54 85 16 41 20 14 74
23 57 80 10 95 43 27
27 20 42 74 52 46 91
28 74 72 66 94 22 20
21 25 37 72 46 15 47
30 30 83 99 44 65 40
17 91 38 46 53 40 91
75 62 59 43 36 15 98
79 24 39 59 11 75 57
59 90 31 70 34 29 66
87 32 88 96 12 30 83
32 83 77 71 82 18 45
92 59 95 30 72 90 81
31 100 22 70 24 19 38
29 49 31 51 54 48 50
18 59 93 15 34 16 67
13 37 25 89 84 87 34
36 31 42 57 41 84 75
44 44 75 99 75 34 49
72 51 32 19 48 54 73
50 88 48 81 75 18 42
17 68 82 26 95 56 99
92 32 18 80 51 91 20
47 60 85 48 18 78 44
86 48 61 54 92 77 40
53 19 48 32 26 26 100
47 20 23 77 81 28 25
13 54 32 79 37 83 84
18 97 78 66 15 14 78
1.38589
1.03772
1.27281
0.525916
1.31069
1.17546
0.665969
0.89844
1.26774
1.21359
0.722326
1.21892
1.33732
1.0004
1.3132
1.21111
0.983476
0.902754
1.25631
1.19784
1.02157
1.05024
1.33438
0.518993
1.1252
0.466752
1.03975
1.49655
0.403945
0.64823
131 33
171 109
390 355
377 398
240 408
216 346
380 109
126 229
286 189
362 456
458 317
103 224
336 334
224 168
290 469
314 376
391 427
310 30
18 30
177 390
290 287
260 318
138 7
246 104
449 366
16 425
451 367
279 358
79 409
459 321
2548.33
3
