30
9
0 0 0 0 0 0 0 0 0
67 41 70 88 83 88 35 79 62
75 51 94 60 23 59 35 19 98
57 75 96 68 76 97 59 56 84
54 14 100 71 10 36 21 56 89
95 84 10 28 58 81 67 26 24
96 72 13 46 26 84 86 21 93
41 59 34 98 61 22 39 60 67
76 49 52 37 95 26 80 35 31
91 64 56 97 73 24 64 80 78
88 72 43 56 37 99 25 95 95
48 65 74 55 86 69 38 18 50
41 65 72 74 75 89 96 55 42
18 83 63 25 18 31 86 60 82
12 53 81 54 39 41 33 51 48
64 60 79 93 37 32 23 48 66
32 67 79 56 48 45 84 33 54
45 23 27 74 42 66 21 92 41
99 43 35 16 14 39 58 87 71
63 71 30 50 36 16 36 10 14
18 59 41 64 99 22 81 91 63
100 83 59 59 87 18 21 26 66
89 42 92 70 20 40 17 73 89
52 46 13 51 47 17 16 46 61
57 18 17 92 29 67 82 42 47
80 78 17 58 23 54 12 61 47
94 29 87 43 84 12 24 66 64
30 69 15 95 62 16 70 72 28
69 59 100 32 27 85 44 95 98
12 71 68 68 12 90 88 12 40
0.927749
0.929329
0.650032
0.353504
0.722042
0.901044
0.998378
0.93854
0.822713
0.990302
0.788087
0.375646
0.914818
0.885472
0.653401
0.943214
0.790982
0.302979
0.894996
0.981414
0.768027
0.254771
0.830494
0.301992
0.436672
0.890813
0.58224
0.90891
0.562388
0.898929
396 393
324 431
393 112
269 113
162 46
350 65
76 386
486 477
284 169
373 174
341 227
154 455
19 186
274 182
229 105
350 109
170 346
29 25
313 228
82 430
320 180
188 314
375 203
37 450
387 14
240 133
434 412
402 414
350 456
127 123
1612
5
