30
9
0 0 0 0 0 0 0 0 0
39 86 42 41 43 81 58 45 49
23 49 35 86 57 65 13 76 74
89 75 88 70 17 84 86 26 95
15 74 10 90 96 42 60 74 70
76 25 72 27 82 26 91 90 15
65 80 55 98 81 43 41 27 64
31 81 77 50 70 41 12 16 77
95 56 87 57 57 65 72 34 15
26 24 84 24 39 18 74 65 36
62 65 60 88 36 95 61 97 75
46 81 27 63 92 17 44 55 11
32 92 71 71 10 59 18 99 26
71 29 92 58 48 99 13 21 93
49 64 21 80 15 64 93 60 30
67 48 75 98 85 86 12 89 11
48 74 20 58 63 94 30 56 32
10 95 14 98 32 49 88 76 23
37 57 66 31 100 92 10 50 28
34 36 30 69 63 86 29 57 100
95 32 55 72 27 76 71 20 11
68 85 47 19 30 14 87 45 15
40 80 46 22 98 61 60 95 60
28 80 79 36 20 64 41 78 58
28 54 82 67 68 43 47 28 21
68 85 35 13 23 32 42 88 96
76 12 64 49 65 47 61 57 62
55 73 86 64 39 41 63 60 60
50 31 12 33 48 91 65 83 70
72 89 10 52 62 53 28 91 71
0.363466
1.08229
1.19256
0.900705
1.1031
1.28262
0.535647
1.04419
1.37373
1.32319
1.37464
1.41986
1.42496
1.18006
0.52496
0.568795
1.48166
0.702784
1.04843
1.35079
0.769658
0.682822
0.798117
1.25644
1.38736
1.24775
0.55476
1.26859
0.656687
0.728863
385 326
96 478
86 185
391 258
160 478
169 284
360 250
67 55
352 177
201 2
183 64
9 148
105 450
300 463
210 346
199 472
246 44
393 232
164 53
270 44
252 64
306 208
374 361
347 85
5 376
447 24
234 204
418 188
230 491
397 355
4027.5
2
