30
7
0 0 0 0 0 0 0
33 19 49 20 84 56 73
35 18 17 12 95 17 58
35 50 54 42 38 15 25
91 24 27 34 96 88 59
13 40 59 87 26 99 58
68 18 74 54 16 59 49
57 59 59 68 23 55 88
36 52 66 37 10 17 16
34 25 36 81 37 91 19
31 36 57 52 52 84 15
14 46 41 44 62 56 86
31 20 94 43 74 64 55
39 37 11 70 35 97 97
16 45 78 98 19 22 88
81 44 40 95 76 69 33
23 54 94 66 21 40 38
79 40 44 54 48 49 43
89 35 99 37 81 12 94
53 61 35 41 17 23 76
39 23 80 27 36 16 71
80 52 81 12 69 51 72
36 75 55 45 76 68 41
20 25 62 64 11 12 77
83 79 49 40 25 13 45
16 98 33 35 44 49 41
69 64 60 62 58 100 55
35 60 72 40 47 39 96
10 41 100 27 42 68 66
54 84 73 67 57 26 52
1.0624
0.654532
0.332206
0.595003
0.792011
0.47431
1.14714
0.522602
1.38501
1.10515
0.669849
1.47656
1.1502
1.25122
0.507383
1.32216
1.27974
1.25726
0.479377
1.14629
0.536878
0.650648
0.42441
0.33059
0.878826
1.11309
1.02098
0.309152
0.627604
0.739885
39 268
402 461
111 200
68 449
177 336
24 129
186 105
243 127
470 96
180 486
43 73
275 37
196 488
319 444
231 221
210 133
266 433
339 473
278 289
80 290
166 97
89 237
146 221
221 395
1 6
289 102
51 374
328 9
169 171
72 147
2450
3
