30
9
0 0 0 0 0 0 0 0 0
32 63 95 12 30 14 26 64 56
33 99 18 36 22 96 25 38 78
28 60 37 60 56 49 71 91 58
87 49 84 71 27 63 44 69 38
21 16 54 62 77 12 64 61 42
66 14 11 15 51 33 23 43 17
57 100 35 81 70 93 27 25 94
89 55 67 22 94 78 15 62 91
76 74 52 78 26 41 26 60 75
48 100 94 17 93 72 95 58 94
43 85 77 12 57 96 72 73 98
42 60 18 22 40 30 73 98 68
76 85 20 77 40 52 19 89 19
63 23 25 16 27 64 99 64 55
77 69 60 36 15 50 25 29 55
81 10 28 28 87 57 63 54 51
91 84 24 31 56 100 21 75 47
55 11 58 12 93 44 27 42 98
34 50 73 58 85 99 39 64 64
73 70 64 16 96 60 27 48 11
16 32 47 32 57 40 46 69 76
87 25 37 63 53 78 49 72 58
59 68 53 29 84 29 98 78 22
12 60 56 12 97 53 38 52 22
48 62 39 32 97 99 96 71 98
58 93 69 37 19 51 13 74 24
61 40 58 64 64 15 32 45 77
61 45 63 27 88 35 94 48 36
15 78 51 54 68 17 97 33 97
1.00208
0.826581
1.28094
0.441214
1.17512
0.61133
1.1143
0.535717
0.634931
1.4947
0.871456
0.801822
0.797153
1.12547
1.0889
0.650673
0.75932
1.25731
0.785976
1.43982
0.878218
1.10235
0.710922
0.506304
1.20122
0.537239
0.556456
1.09974
0.865215
1.26891
477 467
351 488
216 329
67 275
30 66
387 435
211 221
120 498
130 72
462 15
113 421
40 139
395 212
375 485
272 377
442 242
418 65
407 16
364 212
162 400
175 191
268 385
126 472
457 343
435 229
357 260
248 397
396 269
48 428
396 67
1965
4
