30
9
0 0 0 0 0 0 0 0 0
58 62 75 84 32 57 45 55 49
96 88 68 78 95 67 66 85 46
87 18 57 44 31 76 63 16 10
13 30 58 78 41 60 85 64 30
87 57 12 86 36 18 56 78 59
88 28 66 59 77 86 64 80 20
53 64 53 63 58 91 95 88 38
93 69 82 10 34 17 53 99 23
98 62 16 72 12 35 44 77 62
34 11 28 20 20 24 69 62 10
89 62 93 33 93 14 90 11 62
46 49 12 84 26 37 11 63 67
72 10 22 36 15 20 88 62 87
13 82 85 50 27 52 45 86 32
100 55 53 16 72 43 38 95 31
95 81 30 85 45 73 65 28 91
86 73 83 17 39 13 76 93 44
45 13 52 61 19 82 19 13 31
95 67 47 79 73 90 93 63 49
88 100 19 44 28 78 98 79 56
37 95 89 42 28 80 59 68 27
78 65 58 11 12 24 61 63 28
10 50 57 31 20 21 38 71 26
60 29 79 96 35 49 39 50 83
13 33 10 75 73 19 65 55 74
96 24 24 43 79 55 76 71 79
10 38 97 85 14 76 10 89 19
65 82 95 70 55 89 15 97 100
21 71 93 66 55 10 60 29 81
0.446203
0.317202
0.437019
0.361872
0.487391
0.255794
0.249745
0.48986
0.353099
0.246298
0.116547
0.454475
0.222153
0.471892
0.286687
0.437216
0.214887
0.437533
0.363712
0.433111
0.323487
0.218346
0.392259
0.162996
0.211214
0.400681
0.246519
0.216586
0.409348
0.416862
96 2
206 330
192 321
258 347
402 475
154 224
459 281
152 325
298 124
198 356
142 348
500 120
145 440
17 494
222 325
385 51
189 62
365 241
101 9
325 482
337 228
127 11
375 163
312 496
119 247
264 358
54 266
151 27
407 100
380 409
7950
1
