30
11
0 0 0 0 0 0 0 0 0 0 0
66 52 62 82 84 16 17 97 25 89 89
22 32 53 17 29 91 47 86 91 43 41
83 39 22 87 58 55 88 76 49 98 62
64 17 13 97 71 43 18 97 38 73 86
72 26 28 89 49 88 72 80 57 57 69
17 79 99 57 75 62 99 36 93 74 83
11 32 11 65 66 67 60 55 19 75 64
28 46 47 72 17 11 16 50 49 65 76
62 59 10 17 75 81 43 57 97 44 61
85 51 99 66 96 13 85 79 77 80 96
34 20 92 37 31 91 100 85 36 18 32
41 74 17 39 37 65 44 68 70 92 34
52 85 84 15 91 59 92 85 49 92 23
93 49 40 16 34 49 64 95 20 53 23
59 29 13 43 81 98 43 72 19 23 80
14 22 33 90 37 91 26 88 44 59 36
40 55 19 57 99 57 67 46 17 77 50
27 24 64 33 56 27 91 51 40 76 30
53 84 80 44 96 67 81 46 39 41 58
48 77 33 83 24 36 15 17 38 67 72
75 96 12 94 55 96 60 65 91 23 96
91 20 88 98 91 34 60 28 88 69 99
40 24 62 96 28 53 77 74 89 53 12
86 100 24 79 23 60 80 23 14 89 94
92 62 42 44 100 24 44 91 60 33 58
20 97 27 50 72 34 74 72 45 39 74
14 26 34 64 74 66 13 74 11 19 51
27 23 96 37 69 42 60 25 33 25 50
38 23 91 78 34 66 42 67 85 58 79
0.747567
1.07478
1.46242
1.03533
2.33177
1.95185
0.766704
2.31424
0.865474
1.39312
2.03548
1.96248
0.835224
1.56942
1.36266
0.872165
0.906148
2.35657
0.775491
0.743246
1.70648
1.97647
1.27882
1.36075
1.12839
1.94504
2.37463
1.75485
1.15376
0.969723
244 456
120 101
465 493
329 475
408 459
467 124
329 19
342 157
81 106
36 246
232 188
289 392
188 344
243 492
5 208
101 280
135 336
242 259
156 34
117 439
286 206
441 44
274 425
98 82
201 338
255 170
403 119
286 269
8 353
207 390
2037.5
4
