30
7
0 0 0 0 0 0 0
59 93 71 71 71 47 68
54 61 13 84 72 77 33
79 35 63 44 18 100 23
23 40 49 16 41 63 57
14 45 64 49 96 24 66
19 20 75 66 84 66 15
76 31 11 68 69 57 93
71 94 93 44 49 87 76
99 94 75 71 47 23 64
62 52 46 14 52 29 10
19 69 37 92 32 88 43
26 26 63 78 11 86 15
73 90 59 68 74 99 23
70 48 67 98 81 45 77
54 27 90 37 19 34 33
90 39 89 30 87 26 38
27 25 84 14 23 70 40
54 43 93 65 16 50 56
74 51 45 17 84 96 56
87 74 32 39 84 55 55
50 94 29 62 66 58 11
26 30 79 14 78 38 49
20 36 64 97 84 49 74
17 88 92 89 23 93 88
70 43 28 38 55 74 82
94 19 74 24 79 59 30
86 46 81 95 24 43 49
49 36 35 13 29 34 11
76 83 97 100 25 28 83
0.39584
0.320269
0.325809
0.195099
0.286041
0.474696
0.301155
0.334732
0.484806
0.438957
0.219112
0.480369
0.422759
0.133024
0.132318
0.324274
0.418226
0.4378
0.192722
0.150137
0.375512
0.420104
0.259863
0.438897
0.278767
0.422677
0.490976
0.319257
0.491605
0.466065
48 114
129 339
414 268
118 397
493 477
242 137
234 428
302 166
317 173
41 185
396 394
196 95
309 18
196 306
277 372
325 408
371 382
181 81
115 133
209 490
364 69
439 162
157 343
397 57
334 16
260 204
323 254
401 207
103 480
259 140
4010
2
