30
11
0 0 0 0 0 0 0 0 0 0 0
58 11 87 69 40 91 30 67 81 72 81
49 40 30 79 35 62 66 32 23 59 12
40 39 96 31 51 74 99 42 94 26 71
69 79 33 61 91 33 30 53 18 37 39
50 15 91 33 79 70 48 55 46 89 83
74 63 70 12 33 20 48 30 74 30 59
65 12 64 45 25 72 94 38 24 44 74
50 65 52 72 73 13 51 17 64 28 84
65 91 15 55 26 68 48 55 39 57 29
92 69 65 94 97 27 46 35 49 36 51
33 77 23 100 49 40 62 16 95 90 68
40 20 83 56 10 19 60 24 57 71 64
88 90 78 56 34 70 75 90 84 89 17
30 52 55 16 92 88 66 97 74 96 54
66 36 69 32 99 70 45 41 25 41 48
50 13 12 67 49 72 92 80 77 36 57
62 82 89 99 22 28 53 91 72 16 28
28 74 36 69 17 43 100 77 20 99 87
69 86 48 30 97 98 79 80 50 63 48
57 74 42 60 83 19 54 24 84 73 68
74 51 13 45 80 70 78 98 42 37 36
38 84 27 27 36 92 52 17 41 63 14
10 44 66 18 65 19 90 97 94 89 84
73 72 92 87 57 87 69 75 49 43 19
33 15 19 25 83 22 99 28 64 62 75
63 95 65 45 33 82 36 63 88 66 26
79 94 36 47 53 65 76 67 99 66 18
69 85 30 64 15 35 64 63 33 86 12
43 67 80 100 26 76 17 88 40 68 22
0.77839
1.10038
1.53906
0.612935
1.55458
1.46223
1.82979
1.27361
0.521051
1.80641
1.33937
1.03146
1.37162
1.64423
1.86696
1.62043
1.4454
0.98493
1.06055
0.791348
0.986952
1.27514
0.866476
1.68304
1.4193
0.942093
1.45195
1.24744
0.657656
1.06924
305 33
289 151
170 3
250 51
323 81
306 358
363 82
198 73
488 74
150 78
215 219
67 182
121 413
383 357
359 314
338 88
393 71
302 68
357 1
160 35
257 331
297 386
0 439
60 191
119 420
385 378
197 388
143 476
339 437
252 327
8170
1
