30
3
0 0 0
80 25 14
14 84 60
78 34 83
49 44 33
15 17 58
75 35 23
49 77 79
37 20 58
58 74 62
26 16 18
92 78 82
79 52 15
39 18 50
75 49 54
97 80 98
23 51 45
44 25 51
14 56 71
51 84 82
78 41 75
59 73 93
57 91 58
62 30 31
19 95 62
89 75 38
46 45 73
82 11 45
56 93 73
17 16 18
0.849102
0.866225
0.418431
0.242875
0.427242
0.211239
0.58622
0.716068
0.479792
0.432941
0.538354
0.995741
0.306587
0.603821
0.258844
0.327676
0.972781
0.28367
0.240262
0.219269
0.897849
0.254207
0.535152
0.696369
0.36888
0.873207
0.945954
0.287029
0.64261
0.297383
92 375
372 43
196 477
486 115
203 114
190 86
203 74
406 307
488 466
301 199
44 192
326 209
95 272
56 137
402 141
188 341
143 102
68 404
255 308
20 355
489 54
210 59
477 144
287 189
180 357
236 283
121 226
379 301
89 203
394 137
7750
1
