30
9
0 0 0 0 0 0 0 0 0
70 66 90 82 48 20 85 62 54
52 39 54 49 28 14 26 15 73
34 50 88 13 40 45 80 76 13
29 73 53 54 78 84 78 88 53
42 92 25 19 28 24 74 83 24
36 35 96 45 42 53 32 39 80
28 90 54 51 64 57 42 97 56
67 81 61 90 21 67 72 42 64
68 44 85 81 42 59 52 99 62
36 16 61 97 98 89 76 28 56
38 57 67 22 95 85 60 70 48
77 83 59 84 71 14 66 78 60
19 61 61 79 46 24 25 98 71
22 41 64 37 22 87 66 67 42
91 22 74 18 22 50 57 45 38
69 36 15 12 41 59 87 22 30
24 62 60 82 79 46 18 61 15
14 20 11 40 91 76 59 59 97
18 72 14 79 72 16 52 27 25
98 93 53 38 19 89 33 20 34
88 56 22 33 72 23 20 24 36
25 18 86 77 53 36 22 55 53
85 63 95 65 28 69 61 84 12
88 40 44 65 92 67 12 22 58
46 35 22 38 43 36 28 33 93
71 66 38 30 61 77 20 44 100
67 38 89 94 72 32 73 87 57
29 57 48 48 79 18 85 70 88
51 33 24 73 91 38 72 54 21
0.389978
0.153452
0.474603
0.244189
0.105112
0.367028
0.230038
0.154802
0.209934
0.17721
0.215596
0.401907
0.436762
0.446979
0.124505
0.273412
0.298645
0.192833
0.172708
0.238554
0.324819
0.316604
0.179391
0.38568
0.217014
0.181491
0.432912
0.317709
0.212622
0.157876
221 323
338 341
128 287
307 432
50 466
180 481
291 278
218 391
60 138
187 425
465 69
111 206
495 472
193 19
131 77
172 54
346 423
294 413
152 456
38 407
78 197
85 392
345 159
396 398
56 143
339 196
463 435
187 50
316 162
92 251
1557
5
