30
7
0 0 0 0 0 0 0
43 59 98 61 74 98 35
15 74 26 92 51 33 32
93 20 26 68 96 53 38
95 31 47 41 17 82 87
40 57 14 48 15 48 61
77 80 93 62 99 45 97
20 93 69 47 26 55 98
16 44 26 42 36 48 60
92 94 56 59 81 48 83
35 57 34 57 10 28 68
48 60 59 13 68 94 82
25 91 34 57 12 12 20
62 92 74 17 28 50 21
11 35 59 59 32 24 15
72 37 42 27 96 43 27
72 84 93 22 19 42 94
46 33 99 14 13 40 87
45 38 27 32 29 76 37
92 73 39 31 45 61 67
11 23 74 37 83 67 88
12 50 64 35 72 75 89
97 94 86 93 99 25 25
59 88 54 94 16 55 71
82 56 80 48 17 42 38
57 64 90 24 42 76 18
95 66 36 22 24 63 32
11 39 44 50 86 79 42
60 46 11 85 95 92 55
64 67 33 76 100 18 22
0.24296
0.249515
0.65626
0.861398
0.822619
0.311469
0.67257
0.765489
0.206926
0.466642
0.99985
0.730178
0.260428
0.408543
0.750112
0.452928
0.564468
0.753935
0.364943
0.744589
0.423352
0.708974
0.253235
0.566421
0.399501
0.968186
0.428547
0.641661
0.70649
0.580627
302 322
387 51
221 357
155 478
459 103
274 168
285 259
218 230
136 278
166 141
182 28
35 18
342 249
369 283
441 199
234 131
2 96
163 186
241 369
421 66
428 121
239 299
265 165
145 29
171 361
422 440
82 302
189 124
2 86
321 115
1562
5
