30
3
0 0 0
73 46 88
20 72 22
23 65 36
53 19 40
89 19 10
10 36 67
19 95 43
26 39 68
16 23 34
60 49 57
78 62 18
100 37 81
15 30 56
98 60 92
65 74 53
96 94 10
79 58 46
86 21 81
16 42 35
48 91 74
15 49 34
14 63 93
43 44 93
63 21 83
59 66 54
70 80 46
92 61 58
33 15 98
93 81 98
1.80789
1.84119
1.35358
0.627573
0.932764
0.516495
1.04302
1.21258
1.49209
1.48159
0.525914
1.08652
1.63804
1.9735
1.28493
0.430354
1.4381
0.496032
1.29326
1.92137
1.38827
1.42188
1.45505
1.97655
1.2828
1.88742
1.32648
0.93772
1.48147
1.69112
117 164
264 490
408 430
30 57
287 482
118 244
137 101
209 366
262 16
238 240
266 69
361 485
404 154
339 319
107 216
240 247
218 496
421 15
202 309
445 466
392 113
323 328
94 242
178 2
275 190
494 402
104 53
279 164
478 220
356 407
7885
1
