30
3
0 0 0
62 14 37
71 94 50
38 16 44
20 49 34
64 91 68
98 63 43
73 99 79
20 18 83
44 42 57
72 63 75
10 11 15
78 71 50
95 59 74
38 20 74
33 82 81
35 17 75
68 23 41
40 38 91
15 71 99
70 47 74
60 77 16
76 14 79
60 66 46
18 99 76
35 89 86
38 50 76
36 57 91
37 98 49
20 58 30
1.42599
1.23852
0.991195
1.21887
1.16289
1.29406
0.886669
1.45223
0.909556
1.355
1.49153
1.04921
0.787894
0.619725
0.674109
0.668083
1.13446
0.471462
0.575135
0.597671
1.10359
0.946836
0.450953
0.372122
0.822231
0.513683
0.910481
0.942605
1.10952
1.10481
319 232
195 98
227 60
428 322
480 155
464 157
280 88
82 450
67 16
389 422
317 390
355 32
70 74
25 495
87 32
241 430
294 351
146 222
60 219
490 486
104 33
43 153
342 454
238 304
128 235
373 68
350 261
11 33
342 278
382 338
8020
1
