30
7
0 0 0 0 0 0 0
29 81 12 38 70 87 90
72 35 99 95 56 38 57
32 81 35 57 23 69 88
99 47 78 100 61 68 74
85 55 51 69 97 27 25
93 43 61 53 37 49 42
82 11 46 49 74 27 91
17 40 37 82 51 24 47
84 43 100 53 44 78 64
39 71 47 70 62 22 38
37 98 93 88 65 75 95
11 38 16 45 47 16 85
18 47 35 79 14 63 13
26 71 48 26 98 29 26
11 30 45 87 44 13 56
80 17 57 87 19 87 23
42 12 51 29 99 68 41
60 50 46 35 88 86 30
54 27 16 63 99 41 30
71 10 83 48 66 52 16
70 32 12 100 99 83 12
60 70 78 20 95 23 43
67 56 64 81 82 19 41
30 88 73 16 97 73 27
34 25 57 57 16 36 78
14 10 47 63 58 19 77
46 98 72 81 56 97 81
34 35 64 89 64 38 49
70 10 64 14 46 91 57
1.15032
0.434404
1.01316
0.553028
0.952094
0.681341
1.5491
1.0567
1.44099
1.6661
1.69935
1.59316
0.967827
0.44239
1.35
0.60628
0.649538
1.61837
1.9892
1.81477
1.04613
1.33708
0.918376
0.618015
0.581457
1.51226
1.25032
1.0754
1.37893
0.572502
57 247
493 185
262 147
258 248
105 55
146 491
121 162
474 134
91 452
268 374
189 477
345 445
489 67
323 29
21 32
17 401
496 75
235 497
432 286
400 68
179 424
341 490
11 60
114 166
391 426
316 116
183 446
371 398
103 177
367 123
7840
1
