30
3
0 0 0
46 79 52
73 42 13
29 43 96
92 59 68
71 74 96
27 64 81
91 11 77
76 66 54
61 98 28
53 65 33
66 20 77
41 68 92
43 91 38
36 69 72
64 91 96
98 34 81
49 46 55
66 61 79
49 96 41
55 17 11
95 99 100
22 50 43
97 13 43
64 34 53
79 45 50
91 45 49
74 65 49
33 43 59
72 81 19
0.140006
0.386715
0.130531
0.41838
0.319858
0.236088
0.106057
0.453155
0.188787
0.190108
0.264957
0.373229
0.434729
0.431928
0.211678
0.115142
0.35243
0.420478
0.327834
0.396724
0.152837
0.268886
0.451514
0.203012
0.28991
0.144963
0.389816
0.395204
0.498224
0.387603
249 197
299 5
79 34
492 429
406 301
383 93
4 21
329 152
122 223
387 483
497 93
314 227
175 254
86 201
290 24
374 146
469 207
65 158
290 36
82 20
156 259
339 343
204 36
75 168
434 459
272 14
265 21
58 361
181 372
224 372
2161.25
4
