30
9
0 0 0 0 0 0 0 0 0
89 75 29 48 23 63 78 34 46
56 39 81 31 58 96 26 52 10
59 51 69 46 100 64 80 45 23
82 83 100 42 52 39 54 91 55
17 95 13 77 60 91 31 21 72
30 100 80 10 21 12 83 38 55
66 61 73 61 48 58 89 92 93
42 93 84 90 57 95 61 18 33
48 19 98 68 68 37 12 24 18
80 61 61 14 62 59 92 47 88
96 40 44 42 86 16 14 30 25
75 24 48 47 33 60 21 14 67
93 18 99 19 97 84 94 38 43
36 77 22 18 89 74 47 44 25
50 40 14 52 34 28 57 23 11
67 48 18 29 52 96 67 54 69
95 11 92 40 96 69 83 98 97
84 29 55 88 38 72 40 66 84
70 57 92 98 53 48 75 11 85
34 29 33 79 43 56 89 82 98
62 73 39 90 13 36 85 13 65
66 24 68 71 61 77 87 69 48
92 61 46 67 79 69 100 33 61
61 66 60 72 100 58 52 40 35
11 56 47 28 82 69 89 60 33
42 39 39 74 74 80 17 64 72
73 78 19 63 33 82 38 18 89
86 97 100 30 88 64 39 77 44
55 28 56 62 76 60 56 60 22
0.262382
0.960712
0.309311
0.61804
0.241732
0.447981
0.968263
0.346243
0.349419
0.990998
0.750124
0.864044
0.235267
0.518293
0.669764
0.649759
0.443303
0.915004
0.391634
0.493814
0.318903
0.831524
0.366175
0.278354
0.343996
0.777275
0.33513
0.277622
0.204295
0.41449
383 356
302 203
294 104
185 352
412 148
6 256
160 208
273 224
437 331
359 151
379 216
233 132
499 153
86 407
200 232
59 160
434 220
192 132
252 37
224 42
167 45
368 81
37 415
500 132
442 449
230 360
341 434
339 496
358 207
350 117
8270
1
