30
7
0 0 0 0 0 0 0
36 57 20 65 49 70 34
74 63 72 30 13 53 98
75 21 37 84 91 68 84
66 96 15 23 33 10 48
54 65 92 86 11 10 81
42 33 66 50 31 66 46
60 73 23 50 61 78 37
55 28 85 60 12 80 69
93 50 62 15 98 23 48
78 85 93 28 50 33 57
83 42 51 43 52 74 12
60 76 25 85 73 84 34
88 55 48 61 13 25 18
53 49 59 44 12 94 85
96 97 97 93 83 58 35
97 25 15 51 71 79 63
39 23 21 29 52 86 26
24 76 67 23 52 47 58
23 51 53 54 55 70 62
80 55 53 81 77 64 91
19 72 92 74 12 21 86
69 63 12 17 61 41 31
94 99 36 66 36 28 39
95 24 24 36 73 70 31
22 46 36 56 98 41 70
27 25 72 25 93 69 69
64 79 52 66 19 80 26
79 37 82 85 73 58 73
42 88 18 92 100 67 36
0.626851
1.8923
1.63732
1.98698
0.750164
0.879845
0.667488
1.93644
0.781717
0.658854
1.37839
1.21407
1.34718
0.837721
1.09866
1.55504
1.29689
1.64932
0.986048
1.75834
0.497522
0.453399
0.954221
1.14587
0.832109
0.648373
0.515725
0.983097
1.77123
0.744565
371 424
155 408
239 448
219 14
187 329
346 266
209 451
88 56
203 271
395 235
280 280
4 430
22 277
228 127
162 275
357 351
70 195
99 347
401 387
60 6
295 281
337 148
347 365
112 31
357 29
71 378
171 12
103 460
270 265
106 281
4012.5
2
