30
3
0 0 0
85 93 53
87 70 49
61 16 82
41 86 97
69 37 56
80 71 70
47 47 52
31 73 32
99 85 17
93 74 67
35 33 10
67 31 81
28 16 32
93 48 85
48 61 40
19 27 61
85 38 16
98 29 31
22 31 64
47 38 45
62 39 22
19 52 90
33 65 16
15 84 53
25 18 39
55 92 33
81 64 69
38 47 56
23 48 97
1.9142
2.28854
0.566996
1.0652
1.08854
1.21743
0.594493
0.824137
1.39895
0.705043
2.46609
2.12804
1.92531
1.36667
1.41741
2.41207
2.34297
2.06267
1.75325
1.01323
2.01405
0.690386
0.739361
0.981892
2.45812
2.26316
1.57946
1.39204
1.02373
1.32306
315 72
377 242
418 38
308 9
362 210
435 333
139 80
271 47
156 145
238 119
210 171
14 191
178 436
85 289
286 494
321 248
269 372
258 446
146 456
215 459
499 224
245 312
181 277
68 309
162 308
460 230
236 217
350 334
277 351
389 15
1922.5
4
