30
5
0 0 0 0 0
88 40 95 25 90
47 85 77 52 12
52 65 93 39 28
58 39 36 40 88
63 99 61 94 46
35 95 96 55 95
24 86 51 67 12
26 19 85 55 68
65 76 42 11 43
50 59 94 66 61
42 52 81 100 53
84 12 55 70 79
62 25 65 52 85
20 44 46 55 31
18 63 39 52 71
88 44 58 66 71
96 82 64 94 57
92 60 100 29 11
70 12 34 61 37
59 100 80 73 40
34 30 11 28 70
53 85 88 37 14
25 75 44 85 15
44 40 33 49 50
90 54 18 50 66
24 46 72 73 28
91 16 92 22 75
56 30 100 59 43
73 36 39 92 80
1.96354
0.995847
1.67795
0.748304
2.2461
2.46647
1.5832
1.78067
2.47982
2.04449
1.6393
1.14496
1.9193
1.07049
2.39863
1.81813
0.892637
1.65754
1.24699
2.1984
0.665874
2.27357
1.66363
0.554706
2.06465
2.26152
0.750319
1.1832
1.81203
2.12051
38 477
320 11
429 147
1 211
302 231
25 240
291 354
228 139
103 372
410 22
80 29
70 316
167 120
258 22
257 472
433 167
142 242
98 13
118 439
174 409
50 302
431 327
383 340
377 407
167 195
491 111
437 360
339 194
365 234
482 278
2738.33
3
