30
5
0 0 0 0 0
82 59 41 65 65
40 37 35 76 90
10 46 60 33 92
60 68 72 48 20
68 36 91 86 26
67 52 73 85 84
32 86 55 65 48
55 87 43 40 86
78 80 85 13 43
55 70 31 64 82
74 65 84 10 39
50 45 48 28 11
44 96 47 34 90
35 42 98 32 49
72 80 97 97 63
73 38 22 14 62
73 78 46 76 84
80 69 55 87 49
89 97 75 64 52
64 34 100 84 88
38 18 73 66 21
91 26 53 73 48
29 45 98 54 16
71 58 85 52 41
48 37 93 44 34
33 52 60 68 65
82 35 80 57 75
22 49 99 41 91
68 45 31 94 12
0.252885
0.904926
0.338793
0.405279
0.829804
0.451483
0.9627
0.226811
0.680234
0.761588
0.550964
0.891496
0.523707
0.835574
0.32333
0.953781
0.929463
0.512369
0.541649
0.286822
0.41784
0.982383
0.952248
0.671654
0.494956
0.440416
0.401775
0.870077
0.350432
0.818048
100 474
334 363
88 430
367 120
252 134
199 298
25 250
315 345
472 149
433 41
494 134
82 57
12 465
162 78
100 165
453 439
223 217
174 72
142 428
418 50
12 148
286 271
482 104
341 288
455 86
265 259
249 64
372 297
457 107
414 189
4257.5
2
