30
5
0 0 0 0 0
68 98 12 78 34
72 78 69 14 83
16 79 56 53 94
37 41 42 45 50
76 75 27 74 78
17 30 77 72 42
10 26 10 24 98
89 100 93 55 63
89 74 17 27 14
79 63 41 100 36
71 60 37 65 59
100 64 93 57 75
40 18 17 80 61
13 76 58 85 10
97 26 68 62 73
89 28 60 62 37
28 63 47 79 93
86 55 50 15 27
58 89 72 91 10
41 47 38 59 35
66 61 13 98 22
70 81 58 88 50
94 60 96 48 47
59 60 27 34 57
49 77 13 86 48
31 42 20 64 88
92 14 28 58 79
68 29 93 48 12
33 44 11 95 18
0.86918
0.943052
0.48036
0.200082
0.675811
0.250443
0.548907
0.352315
0.809619
0.369899
0.503916
0.209687
0.296353
0.81875
0.215769
0.720859
0.900216
0.846343
0.556846
0.795481
0.570147
0.654577
0.259231
0.518346
0.516065
0.646163
0.534091
0.765739
0.618321
0.525406
355 411
488 464
226 497
319 208
251 213
85 185
229 39
221 348
130 307
283 262
306 122
429 167
90 310
470 53
11 177
283 104
356 2
279 5
358 239
211 430
192 66
265 384
235 14
334 34
287 118
409 3
129 366
319 433
148 274
496 142
8045
1
