30
5
0 0 0 0 0
67 52 77 58 61
28 69 45 10 72
88 80 97 48 35
98 11 26 76 20
53 82 90 37 91
81 45 74 11 63
72 90 85 17 100
99 47 14 48 35
86 57 52 90 77
40 43 54 43 54
80 37 47 28 23
24 44 64 42 50
23 69 25 39 51
28 99 59 31 36
66 49 40 51 42
97 50 19 11 65
11 69 81 31 65
63 91 13 73 24
72 36 55 100 19
45 87 22 67 11
35 65 82 69 77
90 42 24 14 83
23 71 62 29 33
73 58 14 58 13
100 94 68 22 32
93 15 78 72 38
97 76 47 57 43
19 74 12 94 48
60 70 22 50 69
1.12817
0.723634
1.6429
1.03943
0.659139
1.07305
1.0335
0.428841
1.22524
1.57295
1.71873
1.20808
1.93242
1.19726
1.64645
1.15744
1.52587
1.9211
1.69757
1.50332
1.01758
0.972986
0.823649
0.975645
1.28958
1.08498
1.17116
1.88845
1.81404
1.89048
67 332
413 171
341 391
228 148
73 174
360 192
493 62
458 185
183 192
466 190
354 397
478 65
413 124
337 119
135 291
80 470
258 369
436 218
369 306
254 485
227 133
274 189
416 141
35 469
124 60
459 336
239 498
440 446
365 306
458 217
3917.5
2
