30
7
0 0 0 0 0 0 0
57 13 78 50 45 88 85
15 72 59 79 22 90 53
18 29 76 12 46 99 14
55 30 100 81 12 59 77
30 75 97 51 30 52 77
29 51 42 60 53 49 59
54 63 43 20 92 92 100
87 44 98 54 42 49 83
60 20 51 13 90 84 87
74 19 37 34 50 100 70
75 97 26 75 45 36 63
29 69 51 59 52 83 29
85 43 56 95 26 77 76
16 90 29 78 86 95 66
28 21 17 43 89 35 42
39 83 88 43 73 65 32
26 42 82 43 62 35 13
29 64 10 96 17 88 29
92 98 46 61 76 47 91
87 80 84 79 66 42 30
29 54 95 71 72 88 28
37 30 36 66 55 97 27
20 52 88 51 17 90 18
84 92 11 87 44 21 94
93 75 49 100 75 80 12
31 54 17 70 90 91 32
93 14 48 93 94 57 67
34 48 81 69 11 38 87
18 67 23 88 18 77 41
1.65656
1.93745
1.94373
1.43799
0.718472
1.74295
1.55127
1.1888
1.53736
1.135
0.573938
1.70072
0.574611
1.62047
0.890788
0.610322
1.02244
1.90089
1.64597
0.871551
1.35577
0.799235
0.715633
0.906902
0.5091
0.701547
1.38959
0.433783
1.70846
1.15501
444 250
34 213
345 433
158 147
211 463
123 426
417 96
84 21
284 228
143 48
37 263
32 387
212 49
56 423
207 484
315 326
84 228
186 417
291 206
337 256
351 150
138 237
93 362
129 216
160 479
421 500
110 458
76 8
419 430
421 244
1655
5
