30
9
0 0 0 0 0 0 0 0 0
31 55 22 52 62 29 90 31 83
51 70 11 44 57 99 97 50 57
23 57 25 95 69 29 40 27 29
63 63 38 96 13 89 94 34 69
99 53 98 55 92 20 34 57 30
45 59 82 15 52 99 40 51 66
71 58 53 91 26 60 33 38 69
98 23 26 60 90 75 31 72 82
73 40 41 82 16 17 53 52 53
48 96 31 62 32 37 11 92 64
23 100 72 86 61 38 19 59 91
27 97 24 49 15 93 68 82 82
46 87 16 37 90 33 57 67 84
50 77 23 61 67 13 41 32 67
51 43 37 43 59 56 13 10 19
94 76 38 43 25 10 45 48 18
11 54 20 99 86 85 40 84 87
29 81 90 82 42 44 84 51 72
77 58 52 43 83 81 36 28 60
84 47 14 96 79 58 37 37 55
46 20 91 90 64 43 48 71 56
10 67 33 60 18 32 46 23 28
68 60 51 81 12 22 48 29 91
14 27 22 86 64 34 53 12 31
61 78 53 38 20 71 29 75 36
95 37 66 13 24 16 72 61 51
58 79 23 79 24 23 19 44 71
86 40 13 64 55 80 96 16 97
53 13 55 37 85 30 28 83 75
1.15061
0.425611
0.825586
0.392681
0.571588
0.567075
1.18792
0.5854
0.39319
1.09764
1.27073
1.47143
0.551423
0.92011
1.15875
1.22582
0.481489
1.01561
1.12266
0.922082
0.878229
0.633639
1.1433
0.715748
0.957913
0.496863
0.473215
0.996251
1.24984
0.34825
117 317
144 33
189 270
44 78
408 193
496 161
365 340
457 208
411 488
50 474
452 237
9 446
494 499
399 203
152 451
44 10
128 312
260 251
430 320
326 299
142 35
476 16
69 329
55 240
163 486
34 175
360 99
474 188
188 349
481 404
3845
2
