30
3
0 0 0
35 96 93
56 10 43
64 66 84
76 45 46
78 74 12
74 92 61
25 17 70
13 22 56
87 11 20
79 16 33
28 52 38
76 54 15
20 12 25
16 37 98
31 43 74
91 78 56
26 66 33
48 94 25
41 49 55
81 29 81
72 71 68
26 73 91
55 90 44
84 13 85
71 44 93
98 38 53
24 29 95
91 45 92
21 77 13
1.17023
0.94094
1.12693
1.00072
0.362765
1.15364
1.45712
0.525143
1.30639
0.717131
0.455968
1.23947
0.886303
0.955217
1.44139
0.547902
1.01583
1.38571
1.03229
1.05404
0.892896
0.506734
1.11927
0.421184
1.24205
0.797011
1.09738
1.37393
1.16876
1.18618
293 100
84 255
485 394
275 181
140 394
217 301
206 478
297 141
382 73
218 46
15 223
431 218
13 421
325 481
350 200
16 300
128 218
37 317
40 491
22 227
222 383
52 467
454 100
251 482
57 485
180 296
326 111
383 85
378 34
2 412
3900
2
