30
9
0 0 0 0 0 0 0 0 0
57 19 32 47 65 43 99 79 23
74 62 82 78 76 69 44 55 88
14 84 30 65 40 76 57 99 88
90 19 26 68 57 44 60 72 50
61 13 30 78 84 76 61 38 44
46 42 56 97 14 32 91 81 51
87 56 43 18 59 44 33 79 75
62 38 10 46 18 13 56 38 21
35 26 18 95 82 10 59 44 60
33 57 61 39 52 68 65 22 28
58 88 81 61 57 89 62 49 22
65 60 67 10 95 50 45 35 30
84 81 64 11 46 67 64 76 91
100 37 69 48 68 20 89 66 67
16 82 86 21 28 83 40 75 92
89 23 32 33 57 55 92 68 10
92 85 57 48 93 62 11 22 73
45 76 73 41 92 82 19 98 97
87 16 52 83 22 17 18 61 50
59 20 27 51 19 49 89 26 55
70 62 49 16 92 53 13 68 21
14 88 40 46 60 61 96 25 98
20 78 97 16 76 66 71 97 46
52 31 64 100 78 79 86 88 85
56 25 45 27 66 97 62 61 84
49 12 86 73 32 64 34 43 73
71 55 79 64 69 64 21 67 58
96 41 18 74 33 98 76 43 52
42 91 19 96 74 78 43 66 10
0.393553
0.122189
0.314448
0.400555
0.100192
0.343224
0.402463
0.293264
0.410279
0.280546
0.220865
0.111056
0.332117
0.181589
0.264025
0.307328
0.153889
0.491027
0.214868
0.438736
0.397717
0.11736
0.392722
0.108731
0.194966
0.240714
0.28137
0.317954
0.366677
0.420887
366 19
241 220
112 182
453 191
108 137
266 280
342 446
310 154
55 397
45 11
274 32
374 464
104 348
185 112
407 93
282 171
333 36
233 442
258 470
385 456
49 283
396 193
209 480
278 12
115 86
141 472
217 25
209 160
9 334
437 132
4077.5
2
