30
11
0 0 0 0 0 0 0 0 0 0 0
23 41 46 100 20 94 21 58 53 67 15
36 24 52 67 80 41 82 66 44 27 93
17 60 19 21 98 20 23 91 34 64 97
34 79 72 18 73 83 55 97 10 89 25
47 67 34 13 49 13 74 15 82 78 12
85 99 41 24 81 96 92 40 24 31 49
19 47 61 83 45 47 13 76 98 30 23
76 82 14 30 73 38 30 85 46 61 48
61 63 67 74 25 94 82 58 65 95 85
11 28 24 67 61 92 88 67 50 55 15
58 67 63 11 98 21 10 91 95 31 56
70 26 68 85 47 17 23 33 19 18 94
39 91 81 78 96 94 32 77 72 98 93
92 73 15 64 66 26 72 88 46 59 66
69 19 88 52 28 17 42 34 47 88 98
53 40 31 12 33 87 81 75 54 77 86
59 83 46 94 37 11 29 53 69 16 99
74 43 45 57 20 90 11 58 21 32 78
34 39 74 85 58 40 47 22 88 91 40
31 20 94 89 89 76 95 48 45 93 80
36 37 56 13 21 45 97 75 79 77 48
61 29 52 71 16 79 98 26 11 54 85
61 63 48 68 12 91 42 56 30 46 97
18 84 12 64 45 25 10 79 70 44 31
13 33 16 85 15 51 60 14 65 25 52
25 39 21 25 46 21 62 57 12 33 99
86 31 97 16 47 25 95 80 15 42 21
45 100 65 90 42 61 84 98 34 45 97
46 71 41 83 11 15 67 11 11 66 13
0.103466
0.198035
0.425647
0.151357
0.1142
0.449252
0.232663
0.217519
0.293877
0.12507
0.203634
0.272257
0.172468
0.121656
0.209995
0.347028
0.223233
0.484745
0.2489
0.136718
0.22849
0.179261
0.244007
0.253354
0.487451
0.467848
0.343242
0.439816
0.13569
0.133448
369 14
11 462
112 361
330 324
478 179
36 465
121 110
385 282
407 52
340 448
239 130
189 320
45 391
373 371
83 357
8 75
172 356
425 179
7 422
39 165
361 57
156 235
466 232
295 251
416 348
10 94
390 133
11 429
378 321
52 193
3895
2
