30
5
0 0 0 0 0
12 55 87 10 58
99 98 14 72 69
18 20 52 79 13
13 13 99 16 80
75 37 91 96 23
88 91 44 76 22
94 92 31 24 53
59 88 75 71 93
39 34 94 73 75
45 13 86 63 63
67 12 94 38 90
99 27 32 84 68
52 11 52 52 26
22 16 62 23 69
41 43 59 66 84
77 19 13 91 32
61 71 62 95 86
84 96 73 63 32
92 17 82 83 29
80 87 20 61 75
66 14 47 96 27
49 90 26 26 95
23 54 82 66 87
48 35 10 59 10
92 16 70 58 56
80 51 59 59 23
53 100 40 87 95
20 56 53 60 61
13 35 37 41 29
0.11277
0.185041
0.17993
0.11284
0.471488
0.46105
0.279723
0.303913
0.143185
0.168176
0.248727
0.296739
0.458977
0.220013
0.15907
0.268824
0.191967
0.13924
0.395138
0.316106
0.157644
0.195753
0.266638
0.236251
0.182005
0.334569
0.223104
0.273588
0.246658
0.378765
132 167
348 353
224 291
133 422
234 182
439 492
53 397
430 194
431 378
244 207
22 176
39 369
499 190
22 199
80 433
250 402
228 145
26 499
409 213
138 280
22 295
332 165
130 220
329 456
213 17
164 315
485 229
260 443
348 115
114 70
2701.67
3
