30
7
0 0 0 0 0 0 0
86 66 47 25 54 57 19
13 11 27 75 48 60 23
46 19 90 36 80 33 96
58 65 97 69 27 93 92
11 83 94 36 24 73 50
18 80 87 53 90 41 70
60 52 73 19 59 85 62
47 68 53 96 41 32 31
11 28 65 35 43 57 32
73 26 37 42 94 81 94
59 52 44 41 82 97 46
98 46 38 75 44 57 26
50 36 29 28 10 24 27
80 20 86 62 43 68 78
75 15 23 13 11 36 38
50 30 72 59 74 48 37
23 74 77 36 50 55 77
77 22 54 83 88 72 77
24 33 40 73 52 64 89
76 77 58 30 92 41 29
79 12 45 79 74 87 81
50 69 60 90 10 49 68
44 57 63 83 76 76 46
56 81 100 55 60 94 86
59 27 83 91 23 38 91
10 97 74 12 13 67 84
87 44 80 77 77 38 32
81 33 10 92 53 61 28
76 19 61 77 47 96 70
0.323638
0.164723
0.386745
0.190821
0.29708
0.323422
0.482777
0.482741
0.341953
0.360917
0.207933
0.4885
0.443857
0.31965
0.127195
0.172064
0.488396
0.318658
0.396553
0.445849
0.465938
0.232225
0.111934
0.161128
0.121909
0.339799
0.319924
0.411246
0.296076
0.480879
332 485
47 196
145 50
279 368
474 297
327 381
391 424
375 221
23 342
250 37
0 349
249 249
24 106
404 112
237 173
318 418
378 51
110 444
52 5
454 437
331 75
257 308
177 39
124 483
181 300
364 283
43 301
469 455
305 479
424 190
2022.5
4
