30
7
0 0 0 0 0 0 0
77 20 91 37 12 97 92
44 91 67 49 92 100 41
73 82 20 61 57 11 41
73 17 76 66 96 65 72
60 79 12 93 22 50 67
70 38 26 23 35 37 100
13 36 19 37 65 21 33
39 57 78 57 20 53 69
44 58 70 67 30 86 16
71 55 19 46 85 78 42
65 59 95 17 28 75 27
27 46 96 81 59 94 88
59 39 78 69 94 68 59
12 83 47 43 27 66 22
83 69 61 80 25 10 16
26 82 73 55 69 75 11
80 53 43 88 92 76 34
25 50 93 62 28 50 52
52 68 38 11 23 76 86
70 20 60 37 38 11 94
32 14 100 51 92 81 92
84 54 62 73 53 98 84
42 66 21 48 55 42 17
52 92 93 45 36 25 81
97 85 47 22 69 32 91
42 48 56 34 82 62 43
47 70 14 27 73 67 85
38 23 27 34 95 17 42
49 77 46 15 26 42 22
0.551852
0.903396
0.268146
0.333403
0.312989
0.968927
0.924975
0.675247
0.98156
0.601979
0.624495
0.961286
0.692406
0.289548
0.649971
0.865632
0.937762
0.46851
0.843519
0.604778
0.520347
0.28224
0.642328
0.792031
0.790197
0.344993
0.85533
0.429022
0.340567
0.888228
4 451
154 162
406 339
448 210
192 398
368 467
312 435
49 461
369 283
248 227
451 69
250 59
423 283
424 298
56 188
50 75
157 496
477 78
110 479
25 26
476 358
276 358
257 477
332 19
124 98
89 438
414 193
286 91
455 138
112 465
2641.67
3
