30
5
0 0 0 0 0
98 33 19 83 49
19 87 20 49 75
34 98 99 11 48
89 43 74 30 63
55 33 14 46 41
86 82 67 70 98
95 83 91 89 53
38 96 80 18 30
99 19 84 31 65
25 49 27 40 19
64 100 93 55 87
67 80 89 64 10
68 13 17 53 32
43 55 29 17 89
93 32 13 69 40
62 12 20 46 72
37 29 69 52 43
48 36 46 16 54
88 93 26 17 65
70 72 90 78 36
22 33 12 84 70
14 74 89 59 63
36 53 48 48 47
89 43 44 41 24
15 36 89 16 72
89 68 89 59 42
70 100 77 39 85
38 30 34 60 26
54 90 99 28 80
0.78522
1.48059
0.669267
1.29575
0.367025
1.0297
0.515517
1.041
0.573506
0.38451
0.446289
0.335014
0.517665
0.570258
1.18143
0.925863
0.824758
1.43755
1.43713
1.33512
0.66302
1.01298
1.08404
0.656564
0.884145
0.785539
1.48554
0.361465
0.781406
1.4475
69 454
185 311
124 398
377 369
287 257
394 395
484 60
21 42
343 157
47 143
327 179
443 51
149 436
227 407
363 181
274 274
54 456
10 249
232 314
343 275
355 156
419 35
30 343
480 34
228 15
223 19
160 199
314 458
435 185
245 359
3985
2
