30
11
0 0 0 0 0 0 0 0 0 0 0
94 88 75 63 83 53 46 66 46 65 96
76 79 26 21 99 100 12 47 43 17 61
51 71 98 54 83 95 93 99 73 33 44
13 23 35 53 45 64 65 31 14 45 71
80 49 43 21 49 100 46 83 19 17 49
34 17 93 68 88 100 35 92 29 60 96
57 85 54 62 45 48 99 91 49 50 54
32 40 88 92 66 63 91 61 13 50 39
35 87 16 27 40 36 73 91 64 75 80
90 76 18 26 41 44 85 27 39 74 90
39 37 10 54 82 47 77 23 69 87 35
56 36 47 66 67 47 29 78 72 72 46
98 69 73 12 98 43 23 75 75 49 94
10 75 83 24 62 73 19 13 70 76 36
60 63 69 86 85 75 28 91 17 37 39
71 62 19 23 91 67 34 34 16 50 62
53 88 20 12 18 91 34 13 97 11 79
17 95 62 67 100 23 73 44 47 58 73
99 33 29 44 39 94 65 34 32 77 59
57 50 22 17 48 53 59 76 22 53 66
67 37 46 79 46 93 25 86 33 99 52
90 83 21 67 59 81 26 38 100 70 43
34 26 44 23 35 70 83 72 53 16 48
19 74 75 100 15 31 85 19 33 58 30
88 65 16 86 49 50 57 18 18 74 18
38 93 74 69 25 96 20 85 59 95 27
34 71 62 86 13 92 79 73 24 58 71
37 33 68 99 52 89 38 13 41 59 74
48 22 47 14 94 34 89 70 64 87 47
0.384609
0.468408
0.20951
0.309311
0.208165
0.130542
0.128692
0.281135
0.148836
0.124627
0.392892
0.305776
0.323348
0.2426
0.134297
0.178513
0.271383
0.149289
0.36944
0.37499
0.184037
0.294282
0.19728
0.213528
0.456514
0.419539
0.138734
0.319898
0.192995
0.192753
45 429
54 120
190 37
280 401
119 34
194 40
353 213
489 12
166 7
398 344
310 283
391 469
230 45
171 401
233 419
394 233
203 81
100 120
71 231
78 500
101 151
104 468
180 489
106 23
236 469
53 448
175 350
429 447
209 173
270 377
2026.25
4
