30
7
0 0 0 0 0 0 0
71 24 51 66 52 55 86
12 67 45 51 90 42 49
47 53 67 72 20 24 21
52 83 55 39 46 51 56
31 47 33 52 17 80 67
62 63 24 93 44 100 41
48 43 27 93 16 73 25
10 65 41 54 31 21 92
75 74 98 19 25 99 38
36 26 76 27 36 39 89
99 69 71 83 16 17 27
40 80 28 36 71 97 79
10 83 38 74 86 98 64
29 100 47 28 23 54 16
77 85 52 88 54 85 93
73 22 26 91 29 73 38
40 45 22 27 20 34 92
48 81 93 64 18 57 99
70 69 75 67 95 74 23
45 94 90 84 29 13 83
97 42 94 26 77 17 34
88 73 81 86 81 65 17
21 59 63 15 97 59 39
13 14 32 25 49 79 50
33 98 79 78 77 88 40
76 44 33 69 31 29 79
46 53 28 50 70 66 61
14 52 56 77 69 19 25
93 68 42 38 13 14 100
0.213107
0.326868
0.170579
0.396416
0.147979
0.281157
0.277939
0.232915
0.412952
0.242863
0.142756
0.383061
0.265727
0.416966
0.232837
0.313878
0.198922
0.19231
0.281113
0.297491
0.348003
0.150982
0.128623
0.29661
0.455585
0.443824
0.408883
0.298709
0.322217
0.408437
143 496
343 347
340 63
264 176
116 133
433 248
287 31
270 232
29 398
389 343
265 363
347 444
65 428
488 419
410 321
296 258
248 218
255 148
78 426
352 426
184 82
75 215
305 217
119 31
352 497
80 188
116 78
390 273
79 95
230 355
1981.25
4
