30
5
0 0 0 0 0
79 80 47 29 37
25 32 19 38 72
29 39 68 82 70
48 87 97 98 22
78 55 24 100 74
61 30 83 96 95
21 82 18 23 25
66 33 35 18 56
20 12 22 42 34
71 24 89 54 29
34 75 38 39 39
72 23 91 96 86
58 24 65 50 82
75 61 81 100 14
97 33 65 40 58
87 14 67 71 45
94 100 54 53 61
42 39 98 36 64
30 89 63 44 77
27 79 99 40 79
41 99 37 89 54
35 34 74 42 53
94 74 21 58 61
35 65 16 100 21
91 79 38 85 43
87 78 14 29 62
12 35 53 11 28
93 89 31 47 100
15 20 48 57 18
0.895531
2.1809
2.15058
0.710354
1.72296
1.4617
2.03671
0.933482
1.15871
0.654038
2.09314
1.04072
2.05284
1.90611
1.97494
1.1046
2.13029
1.4498
0.692814
2.13568
1.30228
1.19918
2.332
0.803257
1.16557
1.55225
1.48331
0.961955
1.98857
2.44661
438 472
303 240
211 62
303 37
21 284
444 298
454 180
228 93
54 420
325 483
267 462
77 151
336 472
217 194
17 483
290 434
93 222
419 269
203 349
479 58
279 473
404 188
468 269
170 18
435 161
343 402
290 137
27 181
372 26
80 495
1596
5
