30
3
0 0 0
51 94 27
17 54 99
25 20 43
65 34 78
99 18 81
44 65 63
18 94 15
88 72 90
14 69 50
53 18 99
84 47 29
10 54 89
23 48 99
15 51 65
47 74 26
54 19 26
90 100 86
32 85 49
78 64 87
59 32 29
46 18 45
10 12 55
99 83 34
99 93 37
23 90 48
60 20 47
83 46 85
50 28 39
30 89 65
1.32326
1.95373
1.43561
1.14064
1.88853
0.667551
1.58096
1.88456
1.92419
1.79006
1.35869
0.651448
1.31968
0.701599
0.850499
0.532248
1.90283
0.416111
1.9898
1.62273
1.46805
1.81118
1.96366
1.30955
1.22056
0.590179
1.57553
1.86724
0.810199
0.499458
343 222
227 271
467 385
301 419
128 199
177 337
408 19
199 10
424 389
446 245
195 15
426 465
497 61
69 409
47 100
93 340
250 313
229 468
351 380
378 36
79 112
15 326
368 331
340 238
269 190
355 58
443 73
289 73
151 0
399 380
1580
5
