30
7
0 0 0 0 0 0 0
27 44 23 78 65 95 35
73 82 75 55 55 46 27
18 35 92 66 61 43 48
51 64 33 67 68 69 87
14 24 91 38 99 18 96
16 32 20 42 36 38 53
57 30 82 73 90 59 66
19 19 85 72 23 40 86
25 30 55 60 57 29 76
53 66 51 71 37 76 65
81 27 23 31 20 28 61
67 68 92 11 52 72 97
11 68 16 64 98 85 36
87 65 88 50 94 10 60
57 61 67 42 17 88 22
12 80 17 58 64 59 60
96 27 36 52 99 47 54
59 45 57 63 63 24 57
32 89 20 83 10 90 89
30 58 23 43 50 69 47
12 97 51 12 56 48 66
28 61 89 67 18 93 62
99 10 65 98 44 45 83
95 72 59 79 82 61 70
22 100 34 91 48 43 60
61 14 87 35 88 24 99
93 44 30 31 34 42 63
89 94 80 15 54 80 23
44 37 17 35 81 65 80
1.15619
1.33706
0.954139
0.533991
1.46675
1.28856
0.859078
0.314218
0.969367
1.29637
0.761102
1.35038
0.641236
0.401574
0.647946
0.590227
1.06612
1.34397
1.38399
0.535902
1.16647
0.736308
0.539839
0.561347
1.04078
1.05406
0.361791
0.491559
1.2765
0.506907
39 227
155 325
186 244
122 350
63 257
435 399
363 394
473 93
179 421
411 281
302 419
153 222
380 275
208 50
120 139
223 186
251 307
378 37
437 305
378 237
94 498
268 83
450 105
216 422
164 305
63 426
390 186
147 339
357 256
262 325
1997.5
4
