30
9
0 0 0 0 0 0 0 0 0
68 38 46 41 76 72 52 31 41
96 78 19 95 35 17 36 42 76
79 30 63 75 38 69 30 71 85
34 43 86 63 31 74 37 93 64
59 36 46 71 24 11 22 21 64
14 73 39 52 59 92 18 24 46
80 67 78 62 95 62 45 25 59
37 28 85 57 53 79 45 17 33
76 18 52 36 25 61 90 35 38
89 47 83 46 12 20 66 100 22
17 70 49 28 64 46 60 97 48
61 95 67 77 47 39 29 98 63
30 94 10 16 71 52 11 68 63
44 41 38 92 60 33 61 21 92
86 63 37 71 57 96 52 53 78
12 32 21 70 85 60 86 84 27
35 51 93 79 94 80 32 89 20
75 41 50 45 49 31 93 92 98
99 63 37 84 85 15 47 15 17
55 65 83 83 91 36 41 56 31
97 38 73 68 90 70 87 85 78
69 75 63 71 67 52 27 24 26
33 11 98 50 71 61 22 19 56
60 95 23 32 40 47 54 63 69
90 20 46 100 43 80 48 53 47
20 65 36 36 16 43 31 92 67
52 75 68 30 86 68 53 91 17
95 20 16 46 66 59 30 88 34
87 32 14 17 36 66 70 27 18
0.199578
0.163165
0.353207
0.218902
0.344686
0.351038
0.196653
0.307691
0.404599
0.386353
0.482898
0.304118
0.420438
0.175555
0.314683
0.348592
0.462256
0.385625
0.4845
0.451263
0.164697
0.396903
0.457944
0.466099
0.216071
0.117271
0.201076
0.218647
0.319131
0.163164
6 172
254 329
198 189
149 467
270 204
138 41
195 352
138 195
267 11
270 88
259 206
443 431
235 306
43 367
430 167
122 110
2 218
475 18
399 90
245 237
270 192
368 426
53 40
218 204
2 127
482 421
219 39
424 435
127 228
17 339
7915
1
