30
9
0 0 0 0 0 0 0 0 0
11 59 53 88 43 42 86 99 24
62 32 48 13 40 26 97 38 74
93 21 86 66 88 22 49 16 55
63 68 95 25 28 24 76 44 49
24 74 26 97 12 90 88 13 33
83 24 32 41 84 57 53 76 11
94 40 35 21 32 65 50 97 48
19 41 92 82 29 14 76 89 22
59 67 82 45 40 32 56 24 39
34 27 55 77 14 91 11 51 36
94 81 54 52 37 93 39 77 77
46 24 90 61 62 47 77 41 53
24 37 40 71 92 72 31 67 71
65 49 52 52 27 74 49 53 21
79 10 93 13 85 83 21 58 79
76 50 67 10 34 40 45 64 27
88 67 19 77 84 40 91 80 24
24 51 69 43 34 29 16 90 59
31 78 94 50 100 99 78 78 28
37 73 67 27 30 88 39 23 90
27 78 36 26 88 16 48 33 52
42 20 50 89 86 17 24 54 42
92 89 76 54 25 80 65 61 60
97 15 70 18 21 81 53 94 96
50 15 50 55 91 44 69 23 22
74 45 20 84 66 71 92 15 86
59 73 66 11 84 86 10 91 53
14 23 39 31 87 21 26 32 18
16 27 58 23 83 14 37 32 64
0.324536
0.817696
0.769321
0.995439
0.560791
0.545965
0.277347
0.224323
0.591606
0.35615
0.419243
0.368829
0.584307
0.733674
0.639402
0.603669
0.230933
0.943462
0.409738
0.610534
0.747014
0.714646
0.594793
0.399571
0.939198
0.485595
0.845637
0.216357
0.606284
0.695997
50 160
70 161
91 277
210 191
217 295
482 202
335 399
97 165
357 192
269 44
240 93
19 20
149 317
171 435
216 456
354 416
412 27
99 100
248 414
357 434
203 104
95 478
290 42
446 134
401 173
26 196
35 439
208 131
207 131
120 406
2556.67
3
