30
11
0 0 0 0 0 0 0 0 0 0 0
57 39 14 68 46 72 70 80 86 42 40
61 49 36 52 34 54 72 42 45 74 49
93 86 11 57 67 19 16 22 82 33 24
67 97 86 89 39 51 95 81 10 10 58
71 59 84 43 17 56 69 53 36 35 57
41 30 66 42 77 82 100 26 35 82 11
49 76 39 81 60 29 61 44 86 24 98
52 27 22 53 13 74 50 42 96 31 11
70 29 65 88 25 72 79 14 92 12 89
74 56 99 41 96 49 78 64 32 92 60
18 82 65 55 47 96 82 67 94 13 43
94 80 25 63 51 74 23 84 10 50 18
59 89 69 17 73 84 89 28 23 30 48
38 59 95 79 79 58 79 96 76 75 10
29 72 11 58 37 28 53 79 94 53 69
37 30 16 100 10 88 81 54 54 24 20
86 86 45 46 100 76 13 68 73 15 54
48 43 37 46 52 80 82 84 95 43 78
95 84 27 11 95 29 39 45 39 67 87
42 21 72 63 73 11 10 49 96 26 32
32 38 97 70 47 60 53 60 52 75 39
11 83 82 14 62 99 26 52 37 36 48
73 72 96 34 49 44 41 33 70 95 90
53 97 70 23 95 75 74 35 98 36 75
51 84 21 27 93 83 14 60 10 21 23
40 21 54 66 54 50 52 32 40 91 99
92 76 68 95 37 92 21 18 42 25 54
87 53 25 18 71 35 28 53 98 63 71
84 13 51 88 11 46 87 27 75 83 23
0.28375
0.41664
0.219509
0.227163
0.475495
0.134218
0.435776
0.28389
0.279729
0.127941
0.255386
0.326862
0.19881
0.130681
0.233735
0.454685
0.369736
0.394691
0.366406
0.379653
0.310356
0.216477
0.273362
0.480223
0.118737
0.442492
0.436227
0.171155
0.347259
0.292084
115 430
228 186
76 335
457 245
36 208
301 251
487 209
482 272
141 0
197 75
7 11
425 442
174 201
116 55
7 160
368 160
28 214
28 296
5 158
186 142
389 242
151 137
414 194
399 218
10 296
77 399
369 166
298 57
184 443
450 200
2008.75
4
