30
3
0 0 0
74 49 49
15 61 66
37 66 55
38 38 37
90 36 88
84 19 93
18 20 71
48 86 52
60 71 59
40 67 23
87 21 95
22 10 83
34 10 90
21 82 72
17 20 10
46 47 42
75 58 62
45 62 63
54 67 71
22 78 24
80 75 79
11 41 27
97 52 57
81 99 51
29 43 22
73 98 21
86 81 72
18 18 22
11 87 85
1.67588
2.24133
1.74177
1.54097
1.20507
1.44062
1.57799
2.43696
1.09672
1.36887
2.12653
0.968885
2.25628
2.48204
0.763236
2.38304
2.04166
2.33992
1.97029
1.30567
0.851728
2.28347
1.19877
2.18135
0.684307
1.87314
2.09496
1.71845
1.0523
0.964034
88 222
106 410
352 342
334 259
282 167
408 70
432 23
292 361
447 239
4 278
24 204
408 12
370 208
268 30
276 171
210 405
470 346
476 324
145 229
89 358
269 252
82 413
429 466
155 134
187 458
498 330
176 312
122 175
499 263
144 447
1538
5
