30
9
0 0 0 0 0 0 0 0 0
65 18 32 60 25 33 52 52 83
98 26 91 91 37 27 83 12 11
44 35 90 98 56 79 73 85 97
32 13 67 45 100 43 100 11 33
64 41 83 53 14 42 21 11 92
10 71 71 73 59 75 62 41 51
46 61 23 60 66 16 47 71 95
93 64 65 66 78 63 58 53 22
33 55 98 99 86 77 65 89 95
30 30 30 77 52 19 35 28 65
30 50 10 33 67 88 50 94 97
63 24 74 43 18 82 100 10 89
83 50 56 70 49 23 93 23 70
31 53 62 15 96 82 89 83 41
42 75 61 21 54 83 88 71 58
76 55 23 39 24 54 38 84 35
26 95 83 91 61 27 88 70 37
11 75 11 56 46 55 16 47 18
53 90 98 53 24 77 41 15 28
16 74 56 27 98 58 93 50 51
99 68 90 35 66 93 27 44 77
93 92 100 25 31 47 75 33 52
94 53 99 26 63 85 70 35 36
60 85 24 57 34 17 88 29 82
69 98 10 30 34 11 72 98 51
87 63 83 59 23 25 25 15 83
94 87 81 53 80 88 88 28 14
90 19 41 95 66 43 20 27 55
77 56 55 27 41 19 64 20 53
0.615132
0.923684
0.643076
0.980624
0.616927
0.491232
0.385476
0.735421
0.518366
0.306175
0.902424
0.841371
0.618364
0.234869
0.266266
0.478339
0.495798
0.934544
0.64388
0.349282
0.917032
0.24153
0.834825
0.381763
0.857425
0.268957
0.322176
0.310891
0.319388
0.201195
483 185
122 47
374 246
47 472
264 73
163 331
139 410
439 400
177 443
290 406
431 241
235 413
322 374
337 361
266 373
453 6
33 31
46 203
332 223
416 74
123 113
426 479
463 220
346 112
398 311
78 398
70 354
138 52
253 376
344 24
2708.33
3
