30
5
0 0 0 0 0
75 54 88 50 55
81 49 60 53 65
69 48 79 50 52
58 93 45 90 30
39 40 91 50 44
51 10 99 44 40
100 82 34 55 11
97 76 62 95 10
70 11 85 98 61
34 99 10 38 18
22 39 25 12 49
57 71 63 46 24
54 84 34 20 45
16 80 59 40 21
12 43 91 81 31
45 91 52 50 46
17 60 60 55 76
55 81 45 19 25
15 43 73 88 66
16 33 35 89 20
67 48 93 59 52
15 31 41 71 43
21 86 15 66 14
12 34 46 54 26
62 70 23 96 32
80 40 58 34 67
62 42 54 29 29
24 93 19 99 54
84 20 12 90 24
2.27306
2.49262
2.04578
0.813319
1.94558
0.82479
0.552348
1.47151
2.23973
2.02646
1.20264
1.10372
0.905506
1.43284
2.427
1.20395
2.32239
1.82208
1.50392
1.619
1.62735
1.72634
1.52373
1.53438
0.516397
0.82529
2.28802
2.10044
1.11581
1.47905
36 120
180 347
259 27
174 24
429 368
303 480
326 76
311 108
47 401
400 16
10 255
53 346
245 414
127 196
226 483
189 275
319 222
347 437
339 142
434 170
240 481
311 382
232 382
320 202
200 112
76 93
85 412
338 36
216 360
394 252
7460
1
