30
11
0 0 0 0 0 0 0 0 0 0 0
86 94 45 67 77 15 40 16 62 100 35
74 67 45 69 22 53 48 60 17 76 33
78 84 86 44 94 53 68 61 13 68 38
74 63 40 81 83 27 18 46 54 17 38
32 14 38 41 96 85 23 98 65 82 50
87 36 35 46 83 100 26 42 80 45 63
19 19 57 23 84 64 32 48 71 12 35
90 79 96 29 49 79 26 35 60 99 34
72 100 55 64 74 43 89 90 46 53 54
41 20 79 29 48 34 60 75 30 68 37
35 69 65 78 96 86 77 70 64 84 29
84 42 77 85 15 77 26 22 95 95 77
27 89 17 32 65 31 71 42 12 87 74
65 20 27 55 93 35 16 17 54 91 67
73 69 11 42 46 21 85 99 22 40 99
100 57 54 62 77 82 23 24 60 19 92
100 47 71 21 36 61 79 11 15 37 53
93 62 10 37 99 38 61 52 54 79 23
75 46 78 98 80 84 46 69 93 57 73
21 36 14 52 91 93 10 100 13 66 28
97 41 51 54 43 28 33 79 93 99 53
44 75 38 19 27 63 95 33 79 50 29
39 36 49 39 33 39 100 83 91 34 57
16 24 44 61 71 57 92 51 34 27 67
64 96 35 90 77 66 41 34 67 90 26
59 84 94 61 57 59 26 87 76 49 98
34 79 53 34 92 58 13 41 16 59 59
48 91 100 20 48 70 94 39 80 17 13
68 33 76 23 15 51 79 73 17 86 54
0.478249
0.218658
0.333254
0.237467
0.181591
0.471651
0.165
0.450573
0.462224
0.286861
0.320482
0.371913
0.310804
0.261208
0.454418
0.368956
0.448917
0.221399
0.127322
0.342463
0.320088
0.437874
0.115724
0.353983
0.461765
0.493588
0.140053
0.232926
0.398746
0.324475
473 53
252 338
279 419
66 129
103 109
27 90
457 159
433 474
18 425
167 190
316 75
43 383
244 141
278 319
177 118
482 237
278 223
133 101
369 378
183 370
271 18
303 126
453 71
396 7
143 390
164 111
5 125
157 358
499 50
414 455
4065
2
