30
11
0 0 0 0 0 0 0 0 0 0 0
48 67 19 13 96 27 15 64 80 11 86
30 35 64 19 95 95 91 85 17 76 62
19 32 25 36 85 60 30 100 56 14 56
64 29 78 93 89 95 24 94 88 48 92
89 27 74 44 35 69 36 79 23 22 90
17 43 29 97 74 58 97 58 94 100 67
90 55 12 12 58 82 72 90 55 15 43
85 96 91 12 52 93 72 62 73 65 66
70 100 79 65 92 54 13 85 79 55 10
61 87 75 57 87 64 45 38 83 12 59
38 77 13 29 93 88 92 96 14 40 50
12 30 34 44 13 50 54 58 91 81 55
100 91 42 41 37 87 41 96 68 69 91
62 12 49 90 17 40 47 50 35 47 20
10 41 78 64 63 53 98 45 42 95 51
44 37 49 61 61 46 24 84 61 54 63
95 50 62 11 92 48 47 48 79 70 46
57 85 48 36 80 48 26 46 93 99 73
67 56 59 36 33 77 82 63 77 60 91
25 27 32 29 22 56 22 72 56 78 86
27 85 40 12 15 38 59 72 63 70 25
21 93 84 59 31 74 79 24 70 35 47
68 42 32 83 100 65 50 69 41 74 28
99 70 63 72 87 65 63 66 28 47 69
68 21 97 68 83 15 33 70 72 55 63
99 66 94 20 96 34 93 32 26 26 54
44 13 77 35 57 10 33 76 61 51 13
40 67 91 34 90 26 62 33 70 10 40
46 40 49 70 56 66 86 42 16 50 11
0.278566
0.43362
0.500669
0.926074
0.812511
0.66082
0.313389
0.704532
0.587738
0.531271
0.648464
0.927971
0.366048
0.419635
0.824795
0.924685
0.784008
0.940809
0.845421
0.786586
0.479748
0.447642
0.831787
0.641278
0.534594
0.597937
0.856283
0.986001
0.954968
0.274288
447 246
257 8
344 359
31 131
333 230
484 279
413 60
273 314
372 248
314 262
58 119
35 123
258 36
277 265
394 0
121 252
244 5
199 227
180 149
3 88
339 389
381 320
103 267
347 306
338 368
307 414
3 222
37 258
229 4
359 252
8205
1
