30
5
0 0 0 0 0
59 50 78 75 99
95 66 69 31 10
17 31 71 55 80
51 37 20 57 89
51 35 28 45 63
56 21 64 81 63
21 24 87 27 82
23 20 33 52 41
46 59 23 100 26
89 99 11 60 10
20 96 79 72 74
79 42 43 10 18
59 62 66 58 23
29 74 84 50 49
55 35 17 100 54
97 37 84 78 92
97 79 14 98 41
47 31 23 68 62
48 14 77 73 41
95 28 75 56 19
81 92 85 77 85
97 80 53 21 60
71 75 32 42 19
43 82 64 26 85
59 34 42 53 14
67 82 17 28 58
28 35 77 84 72
15 57 76 80 99
80 18 26 45 70
1.67061
2.30279
0.874582
1.54117
2.43027
1.43693
0.620582
1.15385
2.23332
0.960503
2.06738
2.24244
0.924548
1.03636
1.38084
0.912078
0.573127
1.71355
1.50236
2.20195
2.47302
0.625129
2.4979
1.22842
2.36512
1.71532
0.642511
0.841738
1.9954
2.4681
246 41
14 64
201 21
113 441
454 79
286 227
496 227
427 177
172 185
131 36
245 78
352 245
277 344
19 115
116 132
286 179
152 125
497 74
162 440
348 168
161 258
274 446
270 23
221 500
344 476
303 49
172 397
323 462
361 54
107 138
7985
1
