30
3
0 0 0
41 65 93
93 63 64
82 76 96
47 47 60
38 47 89
43 25 22
18 77 76
84 50 16
64 32 45
41 88 21
19 92 83
73 55 67
43 34 22
14 31 84
57 26 49
94 59 28
71 36 73
93 72 15
46 73 54
82 45 33
59 96 54
13 10 65
46 45 16
77 37 27
49 49 75
96 83 68
90 63 56
41 74 77
19 70 61
0.109453
0.126558
0.17838
0.465904
0.488068
0.440274
0.376039
0.267212
0.380471
0.249923
0.131231
0.126775
0.335201
0.302202
0.420116
0.406791
0.325495
0.197109
0.462911
0.353568
0.145516
0.119477
0.387409
0.155918
0.115531
0.209271
0.463624
0.128292
0.379779
0.334947
428 326
58 183
38 42
205 110
421 200
192 423
236 444
281 480
474 353
85 260
450 448
347 34
488 272
388 308
66 383
75 343
98 298
66 369
355 53
364 192
280 293
104 132
6 242
419 154
87 302
406 389
114 185
81 432
298 104
161 115
1614
5
