30
3
0 0 0
25 24 10
47 47 14
65 30 94
50 78 76
47 45 25
18 62 79
76 48 88
17 82 58
72 38 13
63 21 88
30 96 32
85 20 68
84 56 50
48 70 92
25 96 30
24 25 16
56 98 96
26 32 28
48 10 65
36 32 89
96 40 28
99 17 96
82 33 74
44 44 16
76 39 36
77 40 96
81 18 61
41 37 21
20 76 37
1.14092
0.4401
0.335483
1.44687
1.42835
1.16562
0.986282
0.959672
1.05138
1.12016
1.0286
0.671832
0.831459
1.14961
1.05821
0.368385
0.502166
0.322761
0.350733
0.342766
0.515559
0.731573
1.09976
1.29477
1.07544
1.31925
0.773227
0.725455
1.32362
1.2189
152 471
395 468
229 86
367 35
368 305
436 192
331 264
475 308
244 359
338 217
122 197
276 96
175 172
270 248
57 260
175 297
147 405
206 83
494 224
101 323
414 31
260 245
224 283
261 234
350 106
179 247
155 182
284 44
57 45
357 28
7480
1
