30
11
0 0 0 0 0 0 0 0 0 0 0
50 13 65 20 81 33 63 76 23 20 76
92 67 84 97 53 66 78 11 57 63 24
31 32 49 10 53 70 23 62 70 64 24
67 66 56 91 24 87 45 42 96 16 27
19 39 47 35 83 36 31 87 86 42 56
56 28 33 10 91 46 28 14 25 98 98
73 67 14 44 60 100 63 67 40 13 11
76 48 92 94 80 41 95 54 65 80 27
45 53 19 80 14 37 48 21 69 16 67
12 32 33 55 29 69 11 22 69 66 52
28 13 83 59 71 95 31 13 44 53 74
10 76 32 39 49 44 46 27 50 26 13
27 77 99 33 64 63 10 54 89 45 43
100 64 95 58 91 98 61 95 63 61 54
82 66 88 25 55 11 48 88 21 45 16
91 11 35 87 87 66 59 68 91 30 56
42 65 28 10 63 53 29 88 54 31 30
68 43 66 68 48 53 43 66 69 49 14
23 76 79 78 95 61 38 27 10 69 40
46 91 12 24 91 99 62 51 39 56 80
76 45 18 79 25 37 66 83 61 43 33
21 66 10 98 15 66 95 24 65 28 75
23 38 80 89 86 40 81 11 12 83 19
36 48 87 30 47 60 39 42 14 77 62
16 23 45 30 83 100 32 92 51 55 55
38 68 16 16 83 15 71 93 11 58 13
12 10 80 29 95 61 89 29 11 67 60
84 79 23 70 54 28 19 92 18 15 10
42 27 36 52 48 85 10 66 96 14 58
1.98123
0.577105
1.69766
1.14702
0.884093
0.663889
1.13282
1.44955
0.905285
1.58453
1.38881
1.86839
1.7277
1.55273
1.78584
1.71458
1.43807
0.417438
0.90401
1.47183
0.94107
0.424816
1.99237
1.59067
1.95811
0.587976
1.43532
1.39372
0.90959
0.910232
304 151
89 221
189 261
351 404
389 281
184 115
412 472
55 491
291 363
320 108
175 148
282 172
473 39
294 340
63 296
340 262
114 216
364 469
349 29
33 153
485 115
422 180
460 312
299 202
332 436
35 212
73 295
296 30
67 430
454 207
3742.5
2
