30
9
0 0 0 0 0 0 0 0 0
48 64 36 28 40 34 94 80 73
48 59 21 35 89 34 12 94 14
65 70 91 16 70 34 31 51 54
64 35 83 55 32 84 14 26 29
99 37 70 99 40 51 67 69 31
18 26 51 56 34 10 75 87 34
76 57 53 37 12 87 57 58 62
59 10 23 60 90 58 29 73 90
37 13 66 90 97 60 10 30 85
20 99 19 30 92 33 22 32 75
13 42 62 25 43 96 43 61 70
34 32 55 38 13 52 67 91 54
52 20 78 40 99 73 65 86 90
66 76 29 49 31 46 10 12 57
62 48 13 47 46 39 20 85 13
72 74 58 91 68 17 47 76 56
87 71 99 28 61 90 96 56 35
46 55 99 45 10 12 92 17 62
13 75 53 68 80 79 40 53 55
90 99 27 50 25 13 27 12 56
55 13 40 64 90 75 17 39 26
86 52 30 48 85 53 42 33 65
27 62 47 41 97 90 79 48 21
98 22 13 18 48 62 19 78 91
18 25 71 98 17 97 23 43 63
58 42 25 78 53 16 32 25 99
91 24 23 99 27 77 76 18 99
84 59 61 14 89 48 40 41 52
64 22 67 46 23 30 36 39 50
0.902369
0.649358
0.377516
0.602065
0.705639
0.387918
0.202526
0.464403
0.818956
0.371075
0.587441
0.543012
0.376509
0.468153
0.96827
0.851044
0.892924
0.474267
0.613196
0.275137
0.689364
0.92993
0.964391
0.412845
0.564478
0.434114
0.403011
0.667772
0.798399
0.996625
37 263
287 25
63 393
163 387
387 287
92 208
458 404
175 101
263 346
492 271
288 337
258 472
134 391
439 414
199 12
211 146
245 113
162 201
404 452
152 98
387 62
367 446
260 190
309 116
449 409
462 425
121 181
48 493
458 113
317 482
1887.5
4
