30
9
0 0 0 0 0 0 0 0 0
82 41 28 94 62 89 85 47 61
85 88 21 15 27 70 27 96 77
93 95 87 84 71 82 60 18 31
100 39 78 77 99 64 25 27 69
11 30 53 41 88 16 23 68 87
95 34 78 24 60 87 92 73 81
84 87 98 51 96 47 55 53 70
99 83 86 63 40 17 39 61 93
66 65 20 33 30 30 99 11 65
45 22 56 82 70 11 33 80 98
10 14 22 14 78 86 14 32 94
88 14 27 15 69 71 36 58 84
33 73 31 16 52 65 71 54 17
11 22 84 64 95 62 21 65 12
80 57 16 24 58 21 77 27 34
81 58 21 79 90 35 70 44 53
74 88 65 38 22 67 63 97 96
32 48 39 80 66 55 85 88 78
39 27 68 22 62 90 27 66 48
80 69 36 49 80 81 28 91 25
74 40 94 69 79 88 97 99 90
66 33 48 20 74 28 23 96 70
56 100 11 75 59 60 42 35 48
44 21 49 71 60 40 88 26 24
81 21 72 84 86 20 45 31 98
21 71 28 72 78 14 44 24 57
64 33 25 40 28 84 61 54 76
85 50 32 82 42 47 18 100 81
23 74 44 79 54 24 39 90 37
1.91066
1.47357
1.63236
1.87951
1.18055
1.47498
1.28111
1.99991
1.51292
0.731192
0.796611
1.52764
1.13027
0.95698
0.989458
0.717461
1.05134
1.3221
0.992463
1.7957
1.58687
1.01021
1.31989
1.42268
1.3548
1.07926
1.41478
1.1694
1.88104
0.657156
262 97
379 497
374 297
383 265
100 58
51 84
97 156
312 37
390 81
62 38
150 393
273 69
486 498
134 368
237 452
49 300
87 186
438 265
342 476
209 426
359 300
232 260
149 156
179 52
141 425
138 316
85 459
154 424
305 42
34 149
2731.67
3
