30
9
0 0 0 0 0 0 0 0 0
11 23 63 89 67 13 40 36 81
83 97 83 36 75 14 70 26 90
84 69 81 55 93 72 71 32 84
29 78 84 28 22 34 24 60 43
73 22 16 60 82 20 60 46 65
91 100 73 53 54 59 29 83 66
100 15 35 90 13 26 43 62 86
10 10 56 55 15 39 64 11 29
52 36 44 16 10 44 25 84 92
68 29 34 62 27 43 32 67 80
31 44 85 56 81 85 93 14 62
22 12 82 24 54 62 44 59 25
30 33 66 69 45 80 89 16 86
32 24 32 42 61 71 43 74 91
33 71 32 65 77 73 37 76 34
24 17 24 29 26 46 89 66 83
92 21 69 92 29 41 57 32 16
72 19 61 14 67 82 96 72 60
24 58 61 57 41 89 49 66 51
95 59 11 93 16 23 100 48 24
92 81 65 68 67 36 90 63 66
77 30 98 87 35 90 99 46 17
94 72 54 45 42 84 66 78 35
65 82 43 59 78 70 52 74 57
34 45 17 90 76 26 73 11 15
100 77 64 20 87 20 83 61 92
67 47 93 18 97 21 97 24 81
42 88 37 44 71 55 72 98 56
50 27 44 44 79 17 24 24 35
1.38949
0.340512
1.17066
1.36941
0.840366
0.747459
0.890457
0.834053
0.602323
0.658216
0.431021
0.380126
1.28128
1.01578
0.789919
1.09374
0.843854
1.23376
1.31124
0.543693
0.899281
0.64392
0.689211
0.950218
1.01835
1.48146
0.806369
0.442149
1.28038
0.746128
263 194
25 70
431 156
393 24
281 286
115 252
370 128
448 115
499 165
470 144
240 333
353 15
121 335
360 294
26 125
390 491
444 240
3 423
403 227
270 162
402 226
63 217
15 406
356 402
194 319
438 245
133 307
350 58
223 206
416 33
2643.33
3
