30
5
0 0 0 0 0
17 12 25 78 33
86 91 27 27 30
49 55 78 50 93
64 94 58 60 50
74 97 99 69 85
58 57 66 75 58
38 40 35 59 82
80 60 13 17 56
98 13 19 91 98
62 71 90 80 35
35 74 59 83 97
36 23 11 28 59
100 96 97 95 87
60 62 78 18 37
70 91 65 64 89
21 59 32 15 55
71 67 90 79 98
65 17 46 91 26
36 96 19 18 62
74 75 64 94 16
89 58 78 85 37
61 37 78 32 26
65 70 56 19 16
69 88 56 21 50
50 84 50 30 36
84 61 83 75 98
25 48 15 37 85
42 89 87 78 58
48 81 24 95 64
0.314415
0.782686
0.671206
0.990184
0.634448
0.313079
0.426359
0.716125
0.700214
0.972122
0.317492
0.690865
0.732133
0.505069
0.722599
0.690379
0.53497
0.947446
0.75816
0.703094
0.89749
0.378218
0.986131
0.469544
0.923307
0.333447
0.440686
0.475494
0.689055
0.691288
396 361
184 248
407 270
97 105
187 175
231 357
36 296
15 363
88 358
186 330
433 104
413 325
246 486
453 443
129 231
27 395
285 170
19 438
270 61
158 478
293 195
387 8
264 270
197 438
477 145
454 386
97 103
22 382
158 372
33 358
2142.5
4
