30
7
0 0 0 0 0 0 0
89 50 30 40 84 13 10
19 70 40 15 62 95 83
10 31 100 92 36 25 56
63 32 13 16 58 63 62
19 35 50 81 72 52 32
59 16 79 56 92 97 87
32 93 79 16 57 72 85
92 53 20 25 49 51 81
81 53 62 78 65 82 96
33 78 84 67 25 68 86
63 23 95 53 75 19 85
16 43 10 51 49 16 33
11 33 75 53 10 37 62
84 90 88 56 42 48 99
75 62 30 16 35 58 40
87 56 13 49 24 58 21
28 12 25 84 38 49 67
88 90 31 47 71 65 77
88 30 25 40 79 31 35
36 39 72 41 33 10 42
77 30 81 77 18 56 66
79 19 93 70 35 64 10
77 75 57 72 39 82 13
14 84 94 21 10 34 32
74 65 63 64 30 90 49
31 64 33 44 19 45 72
92 65 64 35 79 41 56
60 22 96 16 75 57 55
33 10 85 52 29 66 46
0.534504
1.34395
1.47053
1.36942
1.08194
0.93137
1.47675
1.28583
0.402821
0.575453
0.425901
1.04293
0.62594
1.41847
1.15656
1.08945
1.30068
1.23958
1.39893
1.41378
0.816729
0.555085
0.599335
0.372093
0.321265
1.17615
0.699536
1.32335
0.98705
0.913102
432 484
221 72
408 34
125 397
21 258
224 449
195 370
294 292
235 262
146 170
1 311
21 80
215 22
210 202
181 12
212 134
398 86
25 369
426 163
11 249
192 149
253 336
181 54
227 324
180 62
413 297
257 159
299 287
244 53
121 397
7655
1
