30
3
0 0 0
83 39 46
50 97 79
47 73 94
90 29 29
53 79 43
96 38 49
47 24 31
32 49 47
71 20 27
40 30 10
73 31 29
76 82 27
16 52 61
96 26 84
99 68 12
37 51 78
11 57 95
55 16 42
25 74 11
74 61 69
32 31 54
91 24 18
82 62 49
59 92 16
63 44 86
54 96 37
45 95 89
95 60 43
44 88 75
0.554129
0.476361
0.994268
1.23753
0.569138
1.30041
0.69657
0.74171
1.01361
1.47391
1.05364
1.0221
0.632472
0.457166
0.463551
1.365
1.05836
0.646584
0.847235
0.440285
0.879939
1.04616
0.906505
0.649441
1.44973
0.737367
1.31345
0.781689
1.49986
1.15224
205 167
475 31
445 64
70 357
122 293
372 116
139 38
143 454
217 419
178 198
48 325
149 155
420 135
318 332
451 110
139 321
309 77
497 348
9 227
211 205
405 410
142 27
122 324
395 296
138 233
342 443
466 308
105 444
198 24
211 420
1980
4
