30
7
0 0 0 0 0 0 0
16 75 81 14 99 48 66
10 10 93 95 76 78 47
25 88 57 95 50 53 78
78 28 25 78 22 57 26
99 45 58 65 47 83 73
28 87 25 76 22 10 41
78 17 14 63 82 34 93
86 84 76 25 53 87 96
59 37 75 14 26 34 32
22 15 79 78 56 54 81
60 54 35 75 40 16 10
15 58 66 97 26 46 85
38 59 37 41 31 26 59
53 66 85 43 22 21 79
14 29 72 75 65 55 38
56 62 66 63 18 86 10
11 67 93 66 89 27 87
61 65 49 64 76 47 60
71 68 15 66 53 84 77
93 66 57 97 74 81 74
50 31 71 29 54 70 94
74 72 95 23 56 92 36
95 21 100 93 33 100 72
47 78 15 60 36 15 45
25 62 74 18 15 54 30
76 33 30 52 87 90 23
80 33 75 45 14 67 68
63 37 80 47 29 91 78
87 87 33 52 57 18 58
0.965994
0.904196
1.59243
1.50788
1.61668
1.11258
2.17109
1.91164
1.06535
1.05681
0.650508
0.551275
2.18968
1.28403
0.665571
2.44302
2.35039
1.7125
1.81164
2.11415
0.708684
1.40403
0.866279
1.96746
1.50176
2.28416
2.36804
0.614208
0.805948
0.806572
254 466
230 266
206 113
359 364
247 100
230 23
30 379
475 480
167 143
438 54
398 401
364 299
375 105
382 268
297 177
96 52
208 349
266 294
265 398
445 196
482 206
344 480
325 315
467 100
302 186
339 80
327 452
419 113
333 119
480 295
1613
5
