30
7
0 0 0 0 0 0 0
51 75 86 43 39 10 20
18 57 74 73 21 76 48
95 82 49 43 29 46 60
48 54 46 46 90 76 34
48 16 61 16 66 11 48
54 23 54 25 22 27 97
36 23 51 97 68 22 73
92 84 32 25 45 48 36
57 31 58 24 12 36 51
88 71 28 15 56 47 99
79 40 59 69 61 65 54
20 17 62 54 71 18 18
99 21 37 48 66 44 60
39 92 14 79 10 95 48
97 33 69 66 16 77 61
69 42 24 29 88 35 32
19 55 40 88 13 30 47
80 27 34 98 51 38 36
100 94 34 43 24 47 11
41 74 61 50 94 32 28
42 74 46 60 78 69 47
85 37 45 58 27 71 42
51 50 67 42 21 17 89
64 64 52 13 22 98 56
63 85 81 12 69 56 84
82 88 73 17 30 58 72
63 90 11 72 61 63 37
73 51 65 15 30 96 35
61 61 68 64 82 90 77
0.467717
0.688274
0.92414
0.98436
0.773938
0.888012
0.272028
0.290887
0.403276
0.658973
0.264938
0.983285
0.935618
0.42794
0.874023
0.299815
0.827785
0.954012
0.891489
0.413116
0.502271
0.627634
0.637418
0.510251
0.419923
0.857006
0.523511
0.873142
0.580325
0.815506
74 173
394 195
425 354
14 354
287 393
184 282
463 83
428 144
320 78
411 173
286 56
335 140
405 472
236 398
276 20
314 143
44 491
233 166
374 306
445 234
110 126
260 401
346 158
466 144
139 22
90 242
396 101
311 213
186 451
404 302
1521
5
