30
3
0 0 0
22 88 91
96 98 86
77 15 96
81 22 72
93 86 93
77 42 18
27 49 24
28 17 14
83 69 13
48 84 37
17 62 100
44 16 90
43 76 47
96 91 61
47 29 51
61 33 67
67 73 32
88 27 40
79 29 21
70 24 16
35 13 59
27 73 91
64 82 78
84 49 39
18 98 62
50 91 49
38 79 22
66 12 23
99 40 87
1.19937
0.677009
0.68093
1.0781
1.07585
1.38107
0.913735
0.613193
0.669666
1.78339
1.22004
1.36039
1.17152
0.566361
1.14051
1.62585
1.01619
1.8544
1.57371
0.628037
1.4935
0.564713
0.851073
1.80566
1.63543
0.78728
1.64015
1.15659
1.52506
0.733728
197 473
80 113
69 295
435 291
7 218
248 331
69 33
337 484
385 373
402 268
375 268
133 438
406 289
493 227
393 265
431 498
480 413
496 70
148 53
209 222
213 82
298 481
26 114
251 137
303 67
132 205
32 57
498 252
211 360
105 130
8115
1
