30
9
0 0 0 0 0 0 0 0 0
94 51 71 77 64 18 92 79 85
79 76 12 68 42 30 94 34 10
95 47 99 22 47 22 66 10 47
17 53 50 35 41 65 17 20 17
89 53 13 38 65 97 73 83 98
83 48 18 96 96 97 17 18 99
81 42 41 98 36 92 10 83 81
54 38 41 18 95 19 93 74 25
19 59 58 52 40 68 10 43 63
58 57 43 16 100 18 39 58 90
79 40 42 98 96 92 39 39 89
46 66 33 16 55 20 10 29 28
65 94 22 19 70 23 29 45 87
95 50 23 96 40 70 84 43 20
98 100 100 11 28 54 80 72 100
69 50 68 31 24 98 62 34 63
58 90 62 62 31 12 66 81 62
71 26 87 54 10 97 32 69 17
71 99 25 10 24 55 50 32 72
77 28 54 79 77 42 91 77 76
23 37 10 17 67 19 16 21 79
24 45 16 100 56 13 66 45 35
51 79 99 55 52 16 49 42 87
43 57 21 39 15 30 45 68 95
23 24 45 28 36 49 34 18 85
18 75 52 65 74 53 62 17 93
27 62 75 53 89 94 90 62 35
24 86 75 11 73 23 25 87 79
62 55 97 74 10 35 51 89 46
0.102187
0.239161
0.202019
0.203506
0.165774
0.108189
0.481685
0.456743
0.237106
0.159802
0.306331
0.452045
0.296548
0.389812
0.448617
0.108494
0.48029
0.462877
0.298246
0.461137
0.164296
0.197075
0.229259
0.19382
0.388712
0.28275
0.293987
0.353377
0.117998
0.376924
63 429
165 435
32 53
321 235
39 266
84 159
445 192
54 1
17 77
257 381
417 219
48 439
120 13
480 256
30 307
343 473
192 333
179 338
371 269
495 288
209 126
377 440
204 143
402 408
197 365
50 76
257 487
37 297
478 495
455 234
2605
3
