30
7
0 0 0 0 0 0 0
78 31 84 76 33 64 38
72 47 36 88 39 25 74
20 67 85 95 58 29 42
50 25 70 75 23 92 56
18 15 81 42 65 71 73
62 35 22 53 68 90 37
39 19 66 32 77 39 28
98 67 31 44 13 56 82
36 86 95 30 75 90 77
78 77 18 21 39 15 72
81 15 17 46 72 20 19
60 24 95 61 37 47 89
97 37 70 49 85 69 74
49 49 57 30 62 61 53
96 13 47 65 57 48 93
21 81 64 25 12 10 84
52 54 13 60 40 86 13
18 21 37 92 84 89 59
40 67 20 60 56 61 43
56 66 40 46 87 57 65
85 58 58 97 73 48 68
66 79 11 77 65 82 38
36 70 23 36 58 47 88
18 56 62 60 40 90 93
26 64 77 32 33 91 52
71 61 12 25 15 69 57
71 29 81 22 76 71 98
37 76 11 56 45 88 29
29 45 63 72 10 11 41
0.755992
0.501745
1.39939
1.40373
0.466054
0.411243
0.438049
0.548023
0.422286
0.674407
1.30452
1.47432
0.630341
1.03823
0.500018
0.527282
0.818038
0.833328
0.826434
1.09786
1.36866
0.39121
1.35881
1.42597
0.340361
1.40425
1.29523
0.968166
0.641434
0.321717
432 58
413 5
0 192
471 357
493 204
371 371
301 263
431 496
439 486
257 61
17 349
301 43
339 79
207 243
429 28
273 161
17 484
370 408
124 58
416 328
268 119
495 407
385 174
128 384
214 374
497 287
293 296
225 239
438 256
160 374
3912.5
2
