30
5
0 0 0 0 0
74 55 59 40 45
21 31 54 86 20
99 47 38 76 60
50 15 17 63 28
91 46 87 87 22
22 40 94 62 27
19 55 93 54 59
94 22 47 23 57
63 66 21 99 47
76 14 45 100 62
24 92 22 24 32
67 12 45 63 75
37 40 93 74 82
23 83 97 20 45
35 56 80 55 69
98 14 37 79 29
36 93 94 60 99
86 36 62 52 64
42 72 32 68 68
15 52 54 21 66
53 99 60 95 32
86 48 33 26 61
31 96 80 87 35
42 40 79 97 49
54 25 91 54 22
49 41 52 90 78
82 64 66 60 57
72 29 52 59 81
38 30 56 69 36
0.433816
0.410989
0.453423
0.168232
0.297883
0.122814
0.374369
0.378303
0.333904
0.439929
0.129001
0.220927
0.373801
0.172559
0.11239
0.23995
0.14681
0.289488
0.417275
0.20554
0.478126
0.212403
0.359274
0.12897
0.358336
0.301133
0.19708
0.225041
0.400902
0.246168
195 91
83 417
499 49
198 83
212 389
44 199
66 32
186 460
386 15
431 184
229 259
165 196
31 218
220 83
261 149
25 142
252 280
362 221
330 46
197 413
298 220
20 461
359 222
183 175
59 365
169 420
146 293
239 354
35 306
334 371
8080
1
