30
7
0 0 0 0 0 0 0
93 71 11 80 43 85 78
63 20 58 73 94 81 93
12 48 51 30 43 56 24
24 96 61 14 86 96 38
31 98 60 45 80 76 59
89 24 66 34 88 65 95
19 92 75 61 56 82 40
13 78 41 30 80 95 25
27 88 67 41 41 36 29
26 42 80 32 72 39 22
25 48 71 74 85 50 31
70 92 99 99 33 14 85
11 97 78 12 67 32 97
99 21 100 38 32 65 28
31 90 45 82 34 95 78
100 48 39 87 55 25 63
69 31 54 12 10 72 30
93 61 14 73 41 54 22
39 53 71 43 41 13 23
63 49 41 67 29 38 74
45 37 21 12 87 38 17
87 27 54 24 35 45 62
80 22 31 61 50 10 17
18 45 31 16 35 100 87
85 17 34 26 20 35 47
27 31 42 63 22 79 99
92 97 99 86 76 92 44
47 83 16 93 48 47 94
67 85 92 74 33 68 71
0.419258
0.305082
1.15787
0.368526
1.11925
0.967056
0.506708
1.14057
1.19388
0.945588
1.32957
0.481763
0.33797
1.03297
0.348661
0.450847
0.479655
1.3607
0.759616
0.709404
1.25567
1.45243
0.715962
1.38424
0.654678
0.593497
1.25806
1.30629
1.09742
1.01664
282 102
403 253
325 437
366 115
214 343
268 276
133 287
138 401
13 111
183 298
90 3
197 195
3 259
239 40
14 45
477 110
215 129
63 342
416 475
424 48
254 110
347 311
224 241
441 443
274 237
104 239
244 307
492 233
342 77
233 466
2640
3
