30
7
0 0 0 0 0 0 0
17 38 19 47 87 38 56
31 54 22 33 85 16 27
60 76 23 78 14 53 25
47 65 40 73 78 37 65
65 41 41 91 66 73 80
89 66 56 54 77 45 74
20 15 92 90 36 96 71
87 76 12 60 73 17 59
88 98 41 10 60 33 93
59 84 82 40 66 14 84
44 80 47 79 63 29 67
66 11 38 90 24 94 73
46 23 73 35 70 40 91
93 98 37 18 95 34 99
91 19 48 63 64 17 54
85 33 66 93 64 12 41
36 80 82 80 87 83 35
53 92 30 66 13 88 42
38 15 54 66 65 47 76
58 66 31 73 61 22 13
65 25 49 27 23 47 47
19 22 21 84 89 91 25
17 30 27 28 17 68 88
78 62 25 48 87 13 23
11 20 36 43 38 54 21
44 78 77 54 13 36 84
65 81 88 32 65 14 87
41 67 96 57 73 19 30
92 74 27 44 39 59 50
0.429619
0.486769
0.442261
0.294879
0.398755
0.172591
0.156196
0.390194
0.455627
0.288738
0.37147
0.197925
0.443867
0.202275
0.123409
0.165469
0.221396
0.298416
0.123926
0.332436
0.120106
0.324268
0.18056
0.21988
0.395111
0.447191
0.353235
0.204807
0.460295
0.405816
308 116
381 14
283 416
350 331
473 344
182 429
29 362
72 415
202 460
300 266
234 383
209 131
399 215
329 416
184 399
251 70
372 45
319 89
234 53
86 444
392 472
298 419
450 390
157 140
0 320
488 108
56 250
86 341
187 374
403 68
2591.67
3
