30
9
0 0 0 0 0 0 0 0 0
74 32 74 58 79 94 71 48 80
76 30 60 35 23 65 67 96 13
95 68 55 40 49 63 66 32 82
80 58 92 75 15 13 46 55 89
90 43 37 25 15 93 56 83 12
10 71 96 44 22 45 71 30 93
47 57 61 85 30 15 57 27 46
18 63 90 11 50 80 75 93 27
50 81 15 40 88 78 24 33 60
48 72 17 19 48 58 62 81 46
21 26 54 71 17 33 19 76 35
67 72 22 26 81 76 36 97 84
39 27 74 59 99 78 100 82 10
70 11 48 25 32 59 46 60 64
79 70 24 63 57 63 26 23 95
89 20 13 86 47 18 33 20 36
65 92 87 91 74 85 66 74 91
41 35 91 89 36 20 94 25 62
40 12 63 61 99 21 58 19 40
92 33 17 46 24 98 52 69 11
62 88 44 53 17 65 78 87 27
16 48 29 39 47 79 38 54 92
97 14 38 27 17 22 24 88 40
80 99 57 90 27 85 87 70 50
87 24 59 40 73 60 18 61 60
80 95 96 36 44 47 72 37 63
37 84 51 79 29 28 35 62 61
84 74 24 31 19 75 64 18 11
62 25 70 72 80 54 69 84 24
1.63644
0.70958
2.49842
1.01155
1.82709
0.754883
2.1097
0.937634
2.02212
2.12865
2.31518
1.7849
0.616185
0.62486
0.527299
2.17069
1.91181
1.11925
1.88121
1.39564
1.73635
1.32836
0.548689
1.31426
1.01636
1.3225
2.22064
1.99168
2.11537
1.74432
5 335
89 332
28 137
257 294
363 73
491 67
135 401
69 270
320 403
327 242
45 374
483 106
246 35
105 231
20 66
347 102
393 84
374 456
50 39
50 337
106 173
447 446
201 139
460 407
300 244
198 19
187 121
465 227
267 443
464 50
1577
5
