30
7
0 0 0 0 0 0 0
95 42 88 81 55 84 15
33 54 10 80 27 76 28
39 23 57 43 100 69 90
11 24 79 47 96 61 82
18 68 11 92 99 15 79
54 41 86 10 84 51 64
39 58 30 25 10 67 42
62 42 99 49 62 15 55
85 94 45 30 55 38 86
43 96 53 64 71 72 33
58 54 73 47 41 53 30
58 15 44 97 100 52 49
92 91 47 22 59 59 98
70 21 20 52 17 24 93
86 12 58 21 69 68 41
51 83 10 87 54 11 66
23 53 95 37 15 92 97
84 52 69 46 97 87 55
63 47 76 76 15 18 44
83 70 22 10 95 56 76
71 24 82 64 24 89 11
78 59 58 90 55 95 76
57 83 35 45 23 19 74
47 31 82 69 87 21 23
71 63 75 85 43 98 97
42 81 61 81 34 36 34
50 76 51 41 41 57 78
58 81 81 53 58 40 45
11 79 52 86 84 12 41
0.691478
1.65697
1.55858
0.693941
1.32691
1.86418
1.34311
0.597987
2.26477
0.775851
1.44736
0.654391
2.11405
2.34847
0.602918
2.18013
1.41252
2.02239
1.88821
1.5488
2.10056
1.78202
2.36963
0.912077
1.55707
0.655905
1.51161
2.34072
1.00935
1.8533
16 236
469 369
498 369
146 261
327 125
104 389
324 482
164 237
390 64
329 85
337 410
135 273
250 472
497 328
229 497
289 98
230 224
443 384
0 67
353 218
138 284
125 434
129 173
136 22
329 336
56 153
445 96
222 149
277 401
120 199
2041.25
4
