30
9
0 0 0 0 0 0 0 0 0
29 77 25 81 27 87 21 86 40
52 33 57 32 47 51 19 65 59
58 38 98 12 27 29 28 90 63
18 35 26 44 69 43 55 63 47
97 42 49 66 79 16 90 46 85
13 26 91 35 37 73 90 45 19
67 10 23 34 70 31 12 57 41
11 42 46 37 61 15 49 86 57
16 95 48 90 33 95 58 18 20
85 53 23 49 55 27 14 44 23
95 35 95 86 61 16 78 70 92
23 26 85 46 38 37 68 11 74
83 98 62 22 32 36 40 10 79
17 91 66 18 42 15 80 95 38
35 25 38 77 41 96 80 44 50
72 14 50 43 56 81 41 16 97
10 86 67 80 38 79 99 41 44
27 52 44 88 25 15 50 70 40
53 47 73 15 26 75 75 88 38
25 69 89 54 76 87 25 14 99
21 62 63 76 10 14 47 38 57
60 87 70 25 17 30 73 94 53
94 78 67 100 62 10 52 33 52
30 89 24 31 51 47 92 15 72
78 44 47 70 83 61 53 71 41
76 24 70 98 13 34 100 39 29
26 74 11 23 28 25 50 21 84
55 40 93 24 62 22 93 50 94
56 87 68 66 33 59 16 89 99
0.410305
0.587283
0.697332
1.15018
1.02267
0.711773
0.619813
0.894742
1.45706
0.667819
0.35187
1.40302
0.702651
0.505623
1.34747
0.374105
0.384382
0.512994
0.303011
0.519719
1.12269
0.708098
0.619451
1.45907
1.22578
0.546563
0.632832
0.451586
0.311554
1.27227
305 353
333 32
340 249
76 192
277 89
230 127
415 290
191 410
178 9
223 65
485 447
28 433
8 42
448 171
132 100
93 394
336 65
180 9
500 290
243 257
54 142
442 295
474 396
482 434
71 369
483 392
478 142
83 88
262 433
176 152
3777.5
2
