30
5
0 0 0 0 0
30 29 90 44 90
45 48 42 62 57
71 81 30 84 36
98 99 12 51 76
64 89 42 20 25
87 85 98 77 69
50 74 66 18 30
49 66 24 100 86
58 13 60 71 72
50 83 14 67 46
73 70 37 54 33
24 62 52 93 49
70 84 87 10 46
51 63 81 34 15
47 62 11 95 75
14 88 15 44 13
92 39 41 79 63
94 10 29 89 70
25 34 22 50 79
47 80 94 68 88
60 30 36 12 57
33 35 46 89 65
11 23 51 23 27
36 64 55 54 71
86 97 93 31 54
80 36 68 90 69
67 75 17 16 47
39 36 55 52 73
38 69 71 80 92
1.48103
0.895277
1.58449
0.729708
0.61796
0.42411
1.37408
1.22885
1.57204
0.958581
0.872166
1.1718
1.49671
0.702336
0.708608
1.76401
1.86363
1.1571
1.2961
1.27711
1.75431
1.23413
1.95044
1.31365
0.459862
1.73025
1.43028
0.94073
1.36329
1.14378
341 280
78 48
168 127
153 146
360 58
302 408
258 37
69 474
464 422
53 378
325 190
355 227
374 96
260 16
255 39
383 296
442 385
270 102
283 326
414 107
442 122
61 90
443 358
36 425
302 280
29 388
318 493
18 70
293 119
125 218
1616
5
