30
11
0 0 0 0 0 0 0 0 0 0 0
73 14 11 23 95 65 31 83 72 79 20
92 32 90 17 13 90 58 44 66 36 78
67 50 56 69 43 70 24 37 39 71 56
37 77 74 89 49 51 73 97 55 41 77
33 44 31 53 32 81 63 33 62 80 84
35 94 100 47 64 51 32 27 100 56 54
66 25 26 63 96 29 29 68 74 11 65
45 27 60 57 37 33 21 19 44 19 50
95 81 22 81 41 11 23 54 90 84 56
44 99 30 10 67 60 67 66 39 86 25
29 24 66 82 49 52 34 35 87 88 33
82 25 20 49 10 12 89 67 31 63 50
76 63 48 57 31 96 97 31 65 51 49
84 68 64 41 90 58 22 50 19 88 79
97 72 60 28 30 40 20 19 74 97 14
61 24 71 67 65 99 98 77 74 97 34
42 82 99 82 14 95 29 38 77 93 38
11 99 47 89 70 60 11 59 29 85 54
66 56 89 37 25 90 18 83 52 73 77
96 60 99 77 31 36 78 88 100 25 84
95 28 16 52 94 25 77 85 40 78 65
15 22 15 20 60 30 73 67 50 17 14
57 66 11 90 88 48 13 77 26 94 76
60 98 89 79 61 40 33 27 28 64 95
42 93 47 56 96 55 25 68 27 74 42
94 21 15 18 47 43 73 16 80 62 18
34 18 67 58 65 81 14 28 88 79 36
19 70 89 61 77 43 60 83 49 72 49
56 23 54 48 92 91 27 77 21 35 64
1.74925
1.29601
2.40382
2.11962
2.01621
2.12158
0.59261
1.61464
0.759432
0.521432
0.651878
2.24719
2.13863
1.2491
1.59749
1.28162
1.34837
2.3224
0.822788
1.42767
1.58042
2.01947
2.00479
2.06359
2.09311
0.874888
2.21877
1.84292
2.10628
0.974549
267 459
6 278
453 172
132 362
40 355
127 159
229 252
73 105
451 358
454 221
494 404
477 70
299 431
153 205
164 356
229 279
475 95
283 208
262 459
137 4
483 71
339 164
370 161
355 9
395 159
339 152
253 148
357 346
335 372
49 477
2010
4
