30
5
0 0 0 0 0
97 29 66 67 42
83 54 25 26 30
19 39 60 86 50
89 51 100 78 95
70 96 89 26 42
74 76 23 56 28
91 43 10 82 82
58 31 85 46 83
24 61 58 13 70
84 23 87 90 64
96 78 63 39 30
38 13 62 40 44
93 39 59 65 20
73 19 73 37 47
88 56 29 82 48
30 61 72 70 46
32 81 78 80 41
33 13 65 86 88
26 56 19 16 33
25 15 91 68 87
11 65 34 70 22
26 91 89 95 49
58 54 75 35 92
67 95 67 92 23
48 28 40 70 69
40 31 56 100 57
74 75 74 93 54
31 80 10 25 49
23 100 28 43 29
1.38118
0.598863
0.815549
0.316188
0.677433
1.36701
0.38883
0.774756
0.444791
0.381005
0.482145
0.71434
1.42467
0.94582
1.25868
0.543033
1.25484
1.18948
0.883226
0.447483
1.24794
0.592605
0.345372
1.23461
0.428503
1.21965
0.458654
0.368501
1.43838
1.28242
10 53
240 189
2 132
408 231
48 29
385 137
179 53
19 324
477 483
21 415
374 45
432 82
179 353
423 213
310 185
43 229
35 340
424 155
436 181
334 461
92 228
98 198
483 450
401 376
333 45
408 493
434 300
114 406
240 443
456 339
8130
1
