30
7
0 0 0 0 0 0 0
36 54 67 65 29 37 63
12 30 14 66 13 26 92
47 95 70 63 66 79 30
29 25 76 87 69 95 37
86 100 91 58 73 59 81
73 79 62 53 77 56 81
98 100 69 46 30 55 67
29 71 86 34 70 100 30
35 50 65 29 56 13 94
13 36 80 55 69 100 65
98 57 59 23 47 82 10
67 78 26 15 51 45 17
59 44 86 60 42 22 12
86 81 47 32 12 46 97
52 71 29 74 70 63 12
85 48 75 99 91 74 76
75 37 75 99 43 15 51
40 92 35 93 70 14 29
72 54 44 78 68 58 92
23 49 33 59 42 75 50
56 16 31 79 42 85 32
55 18 89 57 33 11 70
53 93 99 33 73 36 88
89 71 24 52 79 70 66
57 50 91 73 87 49 78
13 40 10 26 38 33 100
68 94 37 42 45 81 47
78 28 99 86 42 54 99
78 43 32 71 19 24 88
1.07031
0.763321
0.605643
1.41182
0.552459
0.646307
0.964466
1.04154
0.603657
0.808701
0.767973
1.47683
0.902684
0.42876
1.44835
0.828703
0.974915
0.895514
0.74261
0.671305
0.687328
0.695654
0.648884
0.326411
1.12557
0.797702
0.790894
1.40786
1.17853
0.875214
29 328
127 168
499 62
271 421
438 210
64 234
434 41
28 393
342 238
106 245
39 251
89 146
432 336
10 151
265 198
168 422
409 346
418 58
328 23
42 347
65 84
368 356
334 418
363 167
298 133
7 470
281 248
247 321
234 62
397 232
4152.5
2
