30
5
0 0 0 0 0
92 25 24 68 44
60 25 10 45 62
64 72 88 72 86
57 96 47 48 72
74 95 90 76 71
27 45 36 51 95
50 21 52 56 57
99 80 55 20 30
32 85 31 86 78
61 62 14 95 46
80 77 32 42 62
25 88 49 49 52
23 88 24 37 25
81 62 67 89 51
83 96 28 39 28
89 62 99 52 79
81 23 100 15 84
95 27 90 17 45
62 41 83 38 66
24 44 52 44 79
40 82 62 11 83
75 70 69 85 35
25 20 85 10 10
41 98 94 62 61
72 29 90 50 96
62 30 76 99 21
42 93 39 46 93
15 61 88 95 93
89 22 61 91 90
0.491884
0.790224
0.295799
0.713575
0.941797
0.909245
0.600373
0.565093
0.485858
0.410182
0.692524
0.283152
0.514196
0.202451
0.461317
0.498393
0.220758
0.631922
0.667178
0.890834
0.390613
0.741549
0.952245
0.559919
0.44247
0.260619
0.987781
0.710898
0.688309
0.383499
462 49
92 160
218 342
420 338
61 376
149 165
381 68
38 265
491 427
484 208
221 312
314 167
113 123
288 255
165 386
261 24
272 205
203 317
111 495
481 359
412 177
145 179
190 488
462 104
80 438
170 127
277 365
499 97
135 253
283 24
2851.67
3
