30
11
0 0 0 0 0 0 0 0 0 0 0
97 72 90 13 58 33 95 96 75 54 94
76 89 60 65 18 75 79 68 75 29 50
45 88 30 54 96 29 32 55 48 88 11
86 17 90 42 98 69 94 18 25 14 35
30 84 24 79 72 77 40 53 81 17 61
63 33 69 71 89 51 76 77 40 82 97
11 37 19 48 89 53 19 65 84 91 21
15 77 40 21 33 56 45 93 26 17 66
98 64 42 24 46 33 73 66 27 67 45
92 12 45 43 56 25 79 34 18 51 73
97 35 15 62 29 36 66 56 51 32 31
21 16 34 58 45 45 19 32 98 63 87
26 100 52 18 32 53 48 19 58 51 20
18 67 73 20 85 56 48 57 76 58 96
13 79 94 100 32 12 53 28 19 69 75
22 69 94 89 100 26 35 34 91 34 34
67 69 100 74 53 48 26 68 91 28 76
62 15 66 57 12 64 54 81 10 34 90
49 89 75 66 30 29 45 29 33 39 67
91 87 46 53 47 58 79 85 75 33 52
24 76 65 61 33 27 76 26 28 21 93
92 49 61 21 10 92 62 20 55 34 75
36 55 92 62 72 79 53 53 45 54 97
26 97 84 36 58 52 13 95 86 39 77
75 56 60 16 60 37 12 36 41 80 35
52 81 31 86 79 53 93 33 32 51 28
87 38 82 50 22 37 23 12 94 30 51
18 80 25 90 75 82 93 71 50 82 19
85 41 89 44 39 58 33 65 29 19 51
0.984656
0.738201
1.49185
0.626625
0.65379
1.00211
1.19825
0.588455
0.522327
0.807503
0.651027
0.716031
1.25406
1.19335
0.790752
0.408672
1.02162
1.48311
1.12145
0.954817
0.886508
1.45641
1.24532
0.765394
0.613358
0.472717
0.655287
0.502524
1.28406
0.542124
196 363
124 175
428 213
279 385
343 206
438 366
7 349
25 483
323 160
9 197
32 2
60 223
450 242
363 210
303 106
132 375
256 222
289 213
446 58
136 140
328 461
346 63
61 334
234 257
266 346
397 14
214 330
112 53
480 238
435 220
2626.67
3
