30
7
0 0 0 0 0 0 0
62 50 60 12 67 57 57
28 10 52 30 12 21 86
43 52 17 49 63 89 58
19 75 91 51 92 34 71
44 91 19 16 65 59 74
79 52 12 75 52 24 45
55 89 15 100 92 67 83
32 29 30 74 66 31 77
26 72 72 49 38 58 16
92 100 20 22 54 14 30
29 12 89 84 73 74 56
75 67 72 100 19 96 42
60 55 14 15 25 58 65
36 55 14 94 27 82 85
54 57 83 61 96 83 86
33 56 52 42 61 33 32
23 42 86 24 75 10 46
26 14 84 22 14 27 83
92 89 98 76 80 87 79
100 59 51 36 17 22 93
86 100 72 76 31 74 22
54 30 17 100 39 44 18
36 36 98 99 25 45 72
76 48 72 55 50 33 60
67 77 16 34 75 55 62
50 73 79 92 47 58 47
15 59 57 100 99 49 99
33 17 53 75 25 76 18
26 85 84 47 23 28 87
0.694157
0.874772
0.692904
0.787242
1.43641
0.972481
1.81094
0.562858
0.592801
1.3818
1.96621
0.460818
1.69916
0.90047
1.20909
0.503791
0.868113
0.628959
1.68188
1.57334
1.33323
1.91522
0.969022
1.10719
0.881326
1.81814
0.704607
0.422807
1.61153
0.670031
116 191
324 387
372 149
2 457
84 426
221 299
184 150
381 211
354 237
289 135
194 448
82 424
160 330
16 136
285 477
162 370
250 50
140 481
499 431
313 75
436 35
103 18
485 176
105 205
166 368
472 460
397 431
404 66
306 312
8 391
7950
1
