30
11
0 0 0 0 0 0 0 0 0 0 0
20 75 25 47 12 91 20 59 49 96 10
53 42 81 95 47 78 95 64 10 64 83
79 37 15 20 63 33 98 31 100 94 63
86 23 73 80 87 67 42 66 38 22 100
12 21 48 26 72 71 36 26 83 93 28
68 48 65 39 38 19 91 65 90 99 34
59 59 79 52 22 25 76 61 45 73 93
100 83 74 92 91 27 61 78 21 57 37
34 26 60 59 38 17 69 37 74 24 55
98 42 55 23 19 62 40 99 60 54 30
34 78 52 32 74 89 25 98 11 100 81
59 20 69 34 22 20 80 65 49 83 45
30 25 90 38 50 85 95 18 55 57 79
65 11 50 54 93 80 34 87 32 81 31
61 100 29 53 93 28 18 62 75 59 41
49 61 12 85 33 66 49 26 42 85 65
76 99 61 89 56 21 57 71 57 47 51
57 92 23 87 33 23 58 83 36 15 41
32 20 53 80 88 48 41 17 79 86 98
31 35 72 63 99 73 49 26 68 75 24
36 78 28 57 16 57 20 62 76 73 49
47 67 61 34 49 37 77 86 60 80 31
76 62 33 15 82 21 91 26 88 90 83
36 46 50 24 79 80 53 84 61 100 44
34 90 62 100 34 71 53 65 30 15 66
72 16 63 76 91 14 40 53 53 22 14
39 52 93 52 20 57 34 61 76 100 72
65 76 13 16 53 95 45 36 87 19 84
17 90 54 73 12 85 29 99 17 70 56
0.525531
0.977514
0.591219
0.390191
0.756703
0.382712
0.301695
0.787204
0.442337
0.991539
0.520483
0.477354
0.824464
0.84203
0.442902
0.533257
0.571502
0.751604
0.825204
0.631619
0.445207
0.580172
0.281643
0.335794
0.837416
0.288446
0.902049
0.775243
0.76858
0.212924
215 400
109 328
167 485
418 17
31 223
364 8
182 438
389 343
402 204
38 0
486 11
353 156
135 447
338 365
60 195
258 291
250 65
389 248
478 166
207 405
180 453
208 118
69 208
231 388
222 381
293 396
358 335
149 279
417 95
12 375
2018.75
4
