30
11
0 0 0 0 0 0 0 0 0 0 0
47 26 55 79 95 71 23 23 92 87 84
67 100 82 19 90 22 65 28 27 13 50
37 41 36 44 41 47 48 35 63 30 80
56 33 39 90 31 20 21 49 86 45 21
69 69 47 69 74 67 25 88 85 39 50
24 56 71 30 86 65 67 47 13 96 88
74 32 65 44 27 27 54 61 72 33 53
47 88 28 99 93 48 49 26 80 92 41
42 86 41 84 69 62 98 89 45 88 13
98 59 94 67 88 34 60 93 27 79 65
64 61 71 40 24 69 61 13 62 39 46
29 100 40 25 27 80 64 70 26 69 20
66 40 25 63 66 89 45 41 11 30 61
43 20 58 22 26 63 92 43 64 37 93
18 12 61 11 46 50 85 49 32 11 50
25 75 32 68 65 37 21 76 33 26 61
64 36 21 18 85 58 94 40 19 19 55
44 83 68 76 61 28 66 29 65 19 23
48 52 75 70 28 26 73 61 17 56 40
48 16 83 19 97 14 37 59 48 69 56
97 88 53 33 81 76 35 58 31 39 71
94 89 50 85 13 83 16 70 47 64 80
14 74 94 69 52 100 22 16 100 63 14
94 63 59 92 18 73 38 56 29 68 42
60 80 92 45 28 46 62 72 59 80 39
12 82 35 44 69 63 59 91 98 65 70
38 17 17 85 86 48 58 80 88 62 47
74 27 75 58 11 100 59 99 29 36 61
18 65 80 60 46 38 50 23 78 82 13
0.359833
1.02458
1.35609
1.31729
0.373557
1.46766
1.28027
0.590482
1.3622
1.03934
1.27072
0.854199
1.20083
1.15502
0.307625
0.835517
0.913114
1.31388
0.996085
0.893264
0.318419
0.802809
1.15143
0.933007
1.2839
0.330884
1.49658
0.549859
1.44377
0.518517
249 426
20 432
139 237
264 95
111 483
131 495
50 213
129 12
207 296
107 439
496 372
342 105
110 113
312 15
15 17
45 312
324 337
421 139
112 290
463 283
183 233
327 252
141 302
234 366
476 232
101 460
71 271
355 85
158 58
336 343
3940
2
