30
7
0 0 0 0 0 0 0
41 47 20 29 62 58 70
60 80 17 87 67 31 44
59 58 26 68 20 29 92
93 74 42 52 86 34 67
92 97 27 36 79 37 85
48 16 68 54 52 10 24
73 40 71 25 92 30 77
18 24 94 19 11 72 51
90 64 70 89 17 85 23
31 98 64 38 82 65 61
36 57 80 67 58 53 90
17 40 37 67 18 59 66
48 24 48 69 83 97 39
56 61 88 18 59 25 42
74 84 81 36 12 81 49
84 48 34 90 75 30 97
47 59 65 72 24 40 75
87 78 96 87 17 85 70
55 65 93 35 32 100 97
10 87 17 48 23 61 100
70 91 67 85 44 73 42
21 22 80 14 54 57 21
55 68 58 31 84 78 52
98 75 99 28 32 59 33
46 85 43 43 74 14 36
54 73 14 43 82 100 50
23 99 88 76 18 100 81
36 46 41 84 72 80 71
19 52 74 97 22 53 46
0.900866
0.844356
0.92781
0.936488
0.408525
0.540814
0.570153
0.520173
0.452919
0.628143
0.612825
0.729471
0.435384
0.856561
0.868842
0.787171
0.597437
0.69316
0.536071
0.836482
0.408296
0.982551
0.740681
0.725054
0.878667
0.354441
0.585138
0.419809
0.720502
0.814782
155 355
447 226
42 179
385 491
427 20
125 296
331 5
395 435
433 219
62 478
192 370
318 225
400 238
98 426
225 49
12 424
66 381
22 397
59 341
403 443
194 88
212 173
302 309
443 458
492 21
63 297
331 96
203 373
228 247
288 141
4120
2
