30
5
0 0 0 0 0
39 74 66 69 27
83 63 39 29 48
100 23 52 84 83
97 19 70 16 70
58 94 44 85 27
67 18 16 65 98
51 66 18 69 51
38 54 37 42 28
23 81 46 27 78
87 76 14 98 81
84 79 77 86 22
95 84 23 93 29
50 14 74 37 78
25 35 54 65 37
89 49 80 63 45
83 80 73 82 10
38 84 96 13 14
55 72 16 65 14
82 26 67 77 67
13 22 67 96 42
18 58 38 64 80
37 22 55 92 49
36 41 52 74 93
100 98 50 51 16
75 77 43 32 97
46 22 96 51 17
19 92 30 66 88
18 100 56 78 40
53 45 35 87 36
0.582058
1.57226
1.04066
1.17826
2.21194
1.77274
1.1206
1.10305
1.55333
2.00579
2.16969
1.29192
1.52094
1.63287
1.48039
0.887418
0.907606
0.818999
2.28697
1.47
1.37205
1.72358
1.07462
2.03823
1.12883
2.49335
2.19259
1.20315
0.589826
1.64268
488 341
455 405
328 490
419 275
342 14
14 450
72 173
327 73
280 377
233 474
59 243
404 180
437 64
61 148
456 243
29 198
63 95
371 406
14 96
443 387
51 314
323 143
208 21
247 103
46 413
20 62
255 458
203 455
480 468
187 281
4065
2
