30
3
0 0 0
15 84 37
80 85 36
67 76 32
57 27 88
73 50 31
68 21 44
58 55 40
14 48 12
56 44 85
43 31 10
29 10 90
47 49 72
27 63 48
18 82 58
99 55 43
77 33 62
22 15 34
37 68 26
82 42 51
40 42 37
56 19 10
80 49 75
94 69 56
20 56 96
18 37 80
29 73 34
93 11 50
47 74 63
96 96 41
0.558602
0.44115
0.362715
0.51877
0.740928
0.954478
0.231419
0.245266
0.388619
0.910499
0.476806
0.448798
0.665132
0.404339
0.202452
0.996675
0.921157
0.598513
0.229902
0.689682
0.821372
0.802431
0.930448
0.803539
0.55409
0.801145
0.294291
0.228403
0.905034
0.632213
407 49
389 46
472 118
267 317
178 11
97 299
7 214
223 431
463 203
242 131
258 140
239 235
479 458
260 150
348 159
404 446
496 233
2 195
156 42
227 250
358 64
43 277
335 459
42 136
307 97
153 340
6 460
76 242
293 255
92 225
7410
1
