30
3
0 0 0
44 76 42
84 51 66
37 29 52
57 90 87
61 95 20
63 14 74
64 24 59
90 54 85
72 90 48
68 10 55
85 58 61
49 30 38
77 28 49
93 63 78
36 91 23
35 38 43
37 53 87
17 100 41
74 83 56
81 64 10
21 43 99
42 46 23
70 81 58
88 62 74
61 51 21
41 52 83
54 92 12
68 19 37
67 68 27
1.44726
1.71165
1.4
2.16549
2.37776
1.43985
0.677744
2.18167
1.84551
0.958623
2.12943
2.18027
2.1319
1.75604
0.942311
2.35241
2.03534
1.28842
1.30346
0.566157
0.937523
1.01333
1.14087
1.20088
1.1081
1.29059
1.49785
1.1738
0.986489
1.14198
248 384
479 136
276 139
260 360
216 125
87 184
486 133
136 387
443 4
114 259
1 51
330 473
70 341
436 354
442 255
483 19
367 46
189 293
380 81
185 133
166 483
113 37
72 63
268 254
244 156
15 432
55 230
147 220
423 4
409 136
2721.67
3
