30
5
0 0 0 0 0
71 89 66 77 80
24 96 76 61 51
47 35 98 56 85
51 33 41 96 18
20 16 38 61 98
54 84 88 91 33
94 93 71 24 10
84 29 56 97 57
74 98 13 90 26
86 38 19 56 71
72 89 76 15 74
60 16 83 87 79
97 30 66 18 50
87 61 17 81 87
53 100 46 80 49
69 42 18 67 87
100 43 32 24 79
53 53 79 89 52
40 95 22 37 72
69 89 60 13 42
17 62 90 53 58
29 97 17 39 24
15 56 99 45 40
71 53 10 15 97
16 74 16 20 23
12 79 41 89 39
84 26 82 54 90
67 28 36 26 60
76 91 96 65 94
1.17059
1.2751
0.441484
1.14204
1.48098
1.21175
0.321155
0.394499
1.26577
1.2235
1.33278
0.765859
1.3478
1.22898
0.358849
0.318567
0.821311
1.38106
1.21263
1.48787
0.924295
1.07396
1.21716
0.690824
1.38773
1.24365
1.38857
1.30288
1.37708
0.960471
396 199
232 19
9 373
488 63
473 201
357 310
287 500
429 123
435 453
414 185
135 221
115 228
127 208
70 224
495 56
380 98
128 234
485 292
276 126
445 176
420 278
231 376
460 113
429 466
122 275
286 190
158 224
261 445
269 481
353 303
4195
2
