30
7
0 0 0 0 0 0 0
85 92 73 36 53 51 15
42 84 84 35 83 55 84
78 83 82 46 38 78 75
16 76 45 77 95 80 14
61 31 96 91 85 83 73
11 23 92 99 50 99 16
59 74 95 70 21 85 63
16 98 55 56 86 69 46
68 73 42 32 36 55 81
62 68 73 95 77 48 98
45 19 67 98 47 16 53
91 10 88 12 72 98 83
93 13 96 98 92 95 17
49 86 86 40 78 57 50
37 20 23 38 12 95 22
55 57 77 67 99 21 46
36 49 70 72 94 92 34
13 54 57 10 56 46 48
27 31 59 40 61 19 16
28 24 73 90 74 74 25
92 17 28 80 45 100 96
78 67 17 84 12 45 12
65 82 82 95 66 27 63
51 13 46 84 69 85 27
99 78 62 45 66 53 36
12 79 53 97 12 44 99
69 62 52 57 60 52 98
67 99 43 85 16 79 12
53 95 59 33 75 73 56
0.288036
0.253779
0.248058
0.289075
0.418806
0.432769
0.271664
0.418615
0.48886
0.268327
0.144572
0.145156
0.18009
0.234539
0.130214
0.342962
0.46145
0.248178
0.303645
0.199112
0.147832
0.404462
0.192823
0.177029
0.226768
0.100148
0.383631
0.275307
0.282783
0.258289
289 89
497 208
376 23
426 428
75 489
227 208
189 358
166 198
131 194
150 272
137 303
247 415
133 96
40 151
276 315
97 391
366 108
371 298
195 302
150 279
91 167
408 255
150 347
247 83
246 191
196 317
393 204
200 334
7 226
322 94
4290
2
