30
9
0 0 0 0 0 0 0 0 0
31 24 78 72 50 16 74 88 15
58 35 23 66 30 20 80 23 68
39 49 30 43 42 45 22 39 21
39 57 19 94 60 53 70 15 98
34 97 24 59 61 40 16 87 46
57 54 66 63 85 67 83 15 10
97 30 24 85 13 87 30 47 46
32 47 77 100 21 35 33 11 78
59 72 41 57 46 67 69 17 75
27 36 27 65 50 18 33 18 27
49 79 32 70 59 45 35 98 76
87 82 37 67 46 37 28 48 79
11 37 45 54 46 68 70 63 67
98 10 74 58 72 89 57 66 34
54 77 75 89 92 33 34 52 23
61 14 71 61 52 61 92 95 72
39 80 29 74 90 47 17 73 12
20 35 51 17 42 63 34 47 27
45 36 97 83 25 72 39 36 43
58 50 88 32 37 70 22 46 50
15 87 28 64 63 36 84 95 13
58 54 52 90 87 60 74 11 23
34 32 53 54 40 75 65 18 59
91 42 72 59 54 88 60 16 80
63 76 30 51 79 94 38 89 87
69 90 71 26 35 92 15 16 14
64 16 69 61 54 47 10 28 28
63 60 99 29 82 72 21 83 16
95 23 81 45 21 18 48 88 32
0.279232
0.163529
0.33846
0.434364
0.211621
0.440072
0.215847
0.12926
0.186402
0.429891
0.251007
0.430343
0.3641
0.283754
0.321448
0.24523
0.221463
0.394996
0.321144
0.267899
0.497845
0.485492
0.381829
0.333178
0.264815
0.490346
0.379834
0.446365
0.115209
0.454493
70 332
137 383
26 6
198 268
317 286
285 246
125 441
456 327
263 2
302 328
152 449
224 22
31 209
420 39
337 286
344 36
173 397
147 34
485 389
464 469
469 328
393 52
496 60
36 87
474 427
494 346
189 189
89 480
300 155
395 387
2523.33
3
