30
3
0 0 0
42 96 35
85 41 53
12 83 31
91 38 47
84 71 77
92 21 92
41 96 11
60 14 32
70 89 48
43 63 96
28 94 42
39 67 45
63 61 58
23 91 86
37 54 98
76 65 70
77 65 58
77 70 95
88 59 40
52 16 33
86 96 42
21 91 82
98 67 37
27 80 67
84 89 59
45 55 46
89 46 49
84 48 63
15 47 15
0.687849
0.58633
0.477065
0.713964
0.253769
0.973298
0.911395
0.491587
0.60568
0.62933
0.245346
0.841033
0.322917
0.902057
0.66102
0.275243
0.233074
0.862086
0.868603
0.890736
0.578943
0.35533
0.340661
0.415641
0.420803
0.983461
0.274594
0.562712
0.763897
0.421256
376 440
352 182
247 103
208 488
196 490
315 244
16 378
206 352
331 172
193 335
45 324
487 260
186 209
166 464
179 455
404 266
124 364
32 173
255 284
472 463
267 237
7 19
55 314
432 51
298 460
7 362
375 419
127 231
494 231
388 55
4340
2
