30
3
0 0 0
74 67 58
38 76 41
16 41 97
70 61 88
19 52 74
61 90 69
76 49 17
70 72 43
67 87 58
94 11 46
83 45 48
17 61 49
67 53 67
52 35 69
31 31 36
72 100 76
89 83 53
15 19 44
44 18 89
35 19 73
59 14 90
20 75 94
56 36 70
91 11 16
48 76 97
20 44 14
73 99 84
34 25 71
10 38 48
0.172229
0.175086
0.105238
0.216988
0.125466
0.1318
0.1597
0.27858
0.25865
0.399853
0.270573
0.218119
0.359182
0.162687
0.146533
0.15175
0.27026
0.21637
0.470191
0.206419
0.400981
0.461749
0.181265
0.450974
0.116494
0.108996
0.337906
0.249947
0.4956
0.115041
105 161
64 336
312 123
293 61
466 240
100 287
174 100
146 360
325 346
285 485
311 118
49 17
218 168
196 110
409 103
474 10
197 167
475 412
393 169
70 267
343 91
236 420
360 206
298 56
75 20
213 44
214 340
34 426
485 131
182 193
1589
5
