30
11
0 0 0 0 0 0 0 0 0 0 0
15 35 99 28 62 56 15 29 83 39 37
52 20 20 10 26 77 96 17 76 42 59
83 45 23 63 56 64 29 29 90 94 48
94 31 68 22 92 16 59 99 17 85 13
20 46 75 10 80 56 78 76 13 26 72
83 37 69 51 79 29 96 82 58 19 57
94 73 83 90 53 52 81 22 52 44 93
91 41 41 87 69 48 50 74 55 61 14
18 31 16 54 46 39 88 29 57 19 48
16 35 98 74 24 50 72 39 61 51 18
18 94 15 30 20 46 31 75 13 46 84
76 100 57 49 77 14 55 73 20 71 59
59 70 59 58 55 65 93 63 62 80 23
49 98 93 70 14 46 92 25 93 51 99
50 33 83 19 54 21 44 61 52 79 85
41 34 100 68 86 38 19 47 95 91 98
54 17 93 74 27 46 79 29 17 72 79
23 97 92 72 88 53 90 51 93 48 58
97 76 13 54 93 11 24 82 83 90 19
17 26 98 17 18 30 90 57 52 76 32
34 74 100 22 34 33 24 99 100 12 36
86 67 87 55 69 99 29 33 58 95 72
34 21 70 33 52 83 14 95 69 97 54
67 81 35 72 83 66 22 85 60 62 27
57 51 32 99 55 33 73 28 72 18 68
43 10 85 52 16 73 77 41 13 30 62
71 30 74 42 46 26 44 20 56 40 80
47 17 23 71 13 13 71 78 31 94 17
20 45 39 50 10 10 84 56 78 63 49
0.420437
0.60899
0.643145
1.17671
0.444039
1.37511
0.374601
1.20574
0.893263
1.39128
0.303855
1.25671
0.338824
0.47929
0.408216
1.28605
1.48206
1.2989
0.364538
1.09131
1.206
0.834902
1.346
1.1536
0.383645
0.371726
1.14314
0.519774
0.540115
0.330651
411 245
182 337
376 303
236 428
309 377
307 419
479 216
309 233
290 0
377 403
410 114
116 470
116 3
198 137
170 297
244 192
392 180
354 427
14 185
315 50
288 387
128 427
4 352
70 464
85 309
179 158
236 452
447 455
289 498
419 493
2623.33
3
