30
7
0 0 0 0 0 0 0
75 42 14 57 22 11 90
21 72 12 94 71 35 92
14 75 46 82 73 50 56
42 44 45 45 47 47 67
11 84 12 24 34 94 35
31 32 37 22 29 73 32
62 79 44 67 23 70 60
86 37 28 38 45 82 49
51 40 72 84 35 38 14
64 82 81 23 54 48 52
86 90 60 31 46 36 33
73 85 70 80 79 93 20
78 85 81 36 84 18 24
32 87 90 99 68 35 17
25 79 50 91 91 64 40
64 64 16 70 50 86 77
80 84 24 66 64 59 68
84 17 89 66 61 45 18
38 58 30 61 39 19 11
50 66 86 72 44 81 78
22 80 84 27 31 87 20
18 53 48 93 53 25 56
63 80 25 81 57 77 29
91 81 13 51 31 75 17
54 41 89 36 77 92 19
80 51 61 97 50 89 77
83 15 89 70 32 57 94
85 38 49 82 40 45 65
42 24 41 16 25 21 79
0.716503
1.6841
1.05349
0.815293
1.28303
1.45714
0.646718
0.809528
1.59734
1.41287
1.22459
1.80218
0.563652
1.73414
1.30457
1.68244
1.17985
1.31118
1.61368
1.58245
1.28979
0.511631
0.489314
1.94481
1.606
0.946745
1.00931
0.422118
0.970463
1.07867
284 4
233 157
179 275
132 44
41 211
195 394
295 186
76 284
405 325
300 296
466 80
177 48
238 251
180 316
134 108
307 251
23 413
254 229
38 412
473 88
86 288
203 440
91 72
363 337
190 480
473 17
374 329
54 313
88 317
227 360
1587
5
