30
11
0 0 0 0 0 0 0 0 0 0 0
22 84 21 57 76 37 54 52 28 63 98
37 93 27 71 100 60 69 94 61 93 23
32 13 96 76 82 89 87 87 65 22 88
15 35 64 97 39 17 70 62 16 15 30
31 42 27 82 14 45 47 67 51 98 90
49 19 67 22 37 69 12 99 95 74 69
37 59 48 19 73 81 31 58 41 88 66
97 65 10 85 96 18 100 56 91 98 23
44 18 26 40 88 47 75 75 90 41 17
84 12 20 35 80 60 46 54 19 75 62
23 42 28 42 62 63 43 56 34 23 27
20 58 85 72 51 73 13 11 27 93 23
64 34 74 53 11 86 76 27 91 73 63
70 35 68 99 46 26 81 91 47 30 63
69 77 17 87 99 92 79 35 89 82 14
64 89 25 48 54 31 33 72 30 79 46
77 54 46 21 37 54 52 70 99 82 38
96 74 64 32 10 32 65 52 21 41 63
69 65 47 86 65 97 45 10 14 45 37
33 20 50 40 26 87 63 15 16 23 26
20 100 16 93 52 58 54 43 98 29 84
73 82 61 38 70 59 51 58 55 19 12
21 33 82 100 49 35 40 99 66 41 13
93 69 34 15 15 82 66 68 69 98 19
22 31 10 31 11 96 96 41 82 63 76
63 34 30 47 54 31 13 53 32 16 73
83 10 81 85 30 63 33 26 39 12 71
19 92 53 93 58 82 97 14 61 86 54
50 93 41 42 93 47 100 23 60 80 48
1.10321
1.82929
1.55725
1.02653
1.92827
0.632492
1.38993
1.82125
1.86561
1.23142
0.750113
1.53114
1.55918
1.53884
1.96901
0.519739
1.14501
0.436072
1.84095
1.8498
0.628548
0.68365
0.879789
1.79761
1.19493
0.645695
0.707036
0.781979
0.988657
1.94024
209 318
345 317
180 244
454 458
358 295
240 470
376 48
486 168
463 175
239 271
337 171
94 256
98 269
350 489
420 114
99 449
140 414
44 18
337 27
286 191
338 68
401 5
187 55
106 94
407 8
109 79
50 34
314 247
453 118
21 72
7850
1
