30
3
0 0 0
27 72 62
62 49 73
59 97 19
38 74 47
64 19 14
10 22 35
90 63 33
18 26 24
80 35 37
24 50 82
19 19 22
95 39 84
95 59 37
43 94 59
65 68 73
98 72 25
59 75 26
24 55 97
81 77 50
87 53 59
77 12 69
81 83 73
44 62 34
67 91 65
26 19 49
23 22 43
86 83 42
41 76 32
65 76 56
0.33172
0.400661
0.254449
0.206464
0.219512
0.313371
0.372647
0.273528
0.304777
0.450733
0.395816
0.373453
0.125043
0.254883
0.490776
0.232271
0.490003
0.24905
0.127968
0.304866
0.130043
0.487305
0.205775
0.284132
0.433179
0.446978
0.327838
0.188613
0.127965
0.130066
283 430
219 450
328 107
437 489
397 27
58 438
358 78
394 481
100 226
263 240
271 143
289 115
75 263
337 22
57 387
466 214
165 365
21 416
320 495
257 482
438 142
379 13
368 455
57 257
343 423
219 384
56 497
418 208
428 463
445 142
1570
5
