40
3
0 0 0
44 43 83
11 48 96
27 57 78
22 23 83
10 69 12
88 53 30
69 18 11
84 95 46
33 21 64
53 54 20
19 10 33
45 48 74
53 57 88
82 48 87
73 13 96
88 27 60
79 75 72
20 55 48
41 84 65
91 94 96
49 82 82
81 50 42
68 41 15
96 90 96
31 34 72
19 66 85
95 74 51
88 83 31
93 58 100
73 66 95
66 99 24
41 87 67
47 15 10
61 35 23
96 18 14
88 65 79
59 62 85
87 98 31
82 79 51
1.9085
0.758235
1.44962
1.17917
2.36529
1.09634
2.38568
1.99411
1.49865
1.75887
2.46906
2.30237
1.28416
0.576127
1.79821
2.48577
1.91897
1.11064
1.66434
2.38054
2.064
1.5764
1.57208
1.73885
1.31846
1.02776
1.1471
1.46548
1.94054
1.61448
1.38033
0.585684
0.614399
1.5623
2.07137
0.530393
1.37606
1.99553
0.570526
2.38203
406 492
10 478
69 195
245 272
475 7
258 117
24 141
76 56
309 244
309 183
370 0
303 287
189 268
387 106
489 269
59 316
197 483
88 125
12 238
371 361
18 202
351 306
270 435
77 498
476 357
497 210
233 371
462 378
310 119
432 106
411 210
305 401
113 414
367 312
213 84
153 162
145 423
15 148
312 412
96 48
11400
1
