40
5
0 0 0 0 0
76 39 27 73 30
24 79 55 23 15
34 47 29 72 42
79 42 59 70 100
58 78 18 70 56
72 46 82 60 56
96 45 95 69 21
47 87 12 62 65
61 85 19 12 48
79 15 17 25 23
74 44 81 81 100
60 21 31 62 12
66 53 100 10 17
59 57 16 97 11
83 97 96 28 83
85 87 69 86 65
66 65 61 79 48
57 95 29 30 39
45 82 69 51 18
35 98 97 43 80
48 19 77 77 11
19 27 64 90 30
38 65 31 85 77
33 92 31 83 64
72 42 81 26 28
44 49 48 37 56
37 50 35 93 11
91 98 90 83 86
29 92 68 29 73
61 12 61 65 48
70 50 90 54 65
73 86 13 40 43
16 42 44 45 17
40 50 97 80 72
94 51 35 67 43
69 55 92 26 17
39 58 51 33 33
27 38 23 76 15
90 78 88 71 90
0.902687
0.484403
0.756592
0.586029
1.27902
1.0511
0.500331
1.20565
0.514189
0.874446
0.316453
0.589309
1.20775
0.478722
0.743423
0.989771
1.29175
1.33596
0.880795
0.361942
0.36127
0.434276
0.586815
0.722149
1.05548
0.456745
1.40621
0.850755
1.36485
0.719013
0.912056
0.840264
0.889911
1.0662
0.716449
1.2728
1.25795
0.772088
0.344443
0.596531
429 253
340 495
489 190
151 446
35 438
352 32
176 291
85 276
498 204
468 267
412 188
394 256
4 14
497 280
184 400
454 99
464 231
440 438
362 474
297 429
207 50
420 218
31 127
259 228
26 50
84 3
486 356
57 224
458 22
403 162
150 493
202 22
52 50
195 19
496 169
484 141
39 140
177 28
308 74
284 146
3603.33
3
