40
3
0 0 0
80 86 73
26 27 22
82 53 96
65 32 76
29 75 19
49 57 66
39 94 98
29 24 16
17 44 34
76 48 57
25 62 80
27 17 56
68 45 59
100 52 44
47 77 53
78 75 48
10 43 84
37 62 73
40 47 37
40 14 25
99 92 14
54 54 45
54 80 33
99 96 80
47 61 67
24 75 45
60 83 25
89 96 69
81 76 54
92 55 64
82 11 95
17 48 46
68 30 18
64 94 56
84 47 40
21 42 13
94 23 19
20 94 10
15 24 90
1.20859
0.876905
0.462695
0.370796
0.497319
0.873104
1.24019
1.11858
0.566502
0.617354
1.4654
1.31142
1.13704
1.40325
0.880937
0.622081
0.648806
0.70443
1.16811
0.993064
1.42644
0.849188
0.862892
1.32213
1.35679
1.08129
1.25836
0.345746
0.379317
0.529478
1.00177
1.01534
1.30239
0.381674
1.22774
0.35304
0.592856
0.550459
0.769617
1.2584
321 277
475 467
467 490
387 419
47 267
71 96
368 396
270 407
121 491
393 124
252 190
338 215
140 75
232 5
8 302
380 378
341 340
222 336
112 481
396 2
302 63
13 370
352 172
1 118
179 142
422 471
178 125
407 379
114 135
294 145
218 356
162 345
15 320
380 170
88 68
241 480
56 259
486 375
356 197
81 349
5285
2
