40
5
0 0 0 0 0
90 36 11 17 13
32 29 48 28 26
72 95 13 41 51
48 98 50 86 53
51 47 63 22 83
97 78 100 14 90
91 48 14 56 68
68 82 36 14 23
66 95 16 94 16
40 70 69 71 58
13 10 83 14 77
11 84 75 40 78
27 34 86 60 73
83 17 100 54 23
97 64 51 74 48
53 88 86 10 61
37 66 17 47 39
30 71 95 13 68
93 11 96 93 35
49 45 82 22 37
93 17 89 55 43
82 100 31 67 48
43 82 24 54 68
16 92 98 64 28
98 59 79 26 26
96 50 55 60 40
82 98 30 43 76
75 96 61 27 39
79 48 13 64 76
56 91 67 35 12
34 49 51 99 79
69 24 27 48 63
68 48 47 50 41
76 100 63 65 82
26 83 40 53 54
37 98 15 92 54
74 17 77 60 58
81 28 54 81 27
74 49 66 40 10
1.3245
1.92383
2.33529
1.20081
1.38122
1.41167
2.06517
2.42031
0.762727
1.10733
0.933192
1.99806
1.22771
1.63009
1.98892
0.952822
1.31002
0.895648
1.75268
1.43543
2.25903
0.89912
2.3363
2.10601
0.809453
1.26991
2.24501
1.10974
1.02513
1.47306
0.735482
0.756733
0.757778
2.25035
0.925724
1.24871
2.39171
0.886678
0.894622
1.76219
177 333
340 176
187 210
334 279
496 410
211 489
353 186
441 315
16 261
341 459
344 345
409 327
292 15
49 429
238 494
470 459
311 111
494 368
215 381
305 259
361 367
181 269
481 337
414 64
326 272
80 196
271 294
324 403
6 113
400 6
468 20
333 240
175 375
81 387
467 495
292 43
33 61
346 256
62 452
406 494
10875
1
