40
5
0 0 0 0 0
35 28 27 14 21
43 27 45 52 92
48 21 20 11 95
91 93 43 27 60
26 45 46 79 22
51 50 47 78 96
40 62 58 51 81
66 44 94 47 51
40 81 81 15 68
87 32 84 26 57
10 23 22 59 17
55 68 59 87 81
62 49 95 28 54
80 11 92 77 93
57 84 24 85 88
13 57 93 75 15
38 15 86 61 80
69 22 12 21 45
34 92 22 23 77
41 70 92 75 26
43 10 58 58 12
88 40 38 75 29
14 86 29 18 58
12 85 57 22 17
30 94 76 45 23
69 66 13 71 56
56 32 93 77 68
63 78 76 85 99
29 63 12 69 46
24 77 76 48 59
91 70 68 77 79
83 91 88 46 45
96 55 59 83 99
79 38 68 86 57
71 13 43 89 94
99 38 48 75 81
67 61 36 69 16
39 82 52 65 100
55 99 35 70 75
0.111467
0.230532
0.476526
0.277932
0.235957
0.409099
0.206294
0.122665
0.479605
0.360443
0.214958
0.230591
0.44516
0.108563
0.315491
0.394864
0.209561
0.176277
0.303257
0.39452
0.398718
0.481981
0.268097
0.418636
0.487744
0.233711
0.497585
0.253976
0.268125
0.485525
0.298423
0.427373
0.31494
0.24067
0.499688
0.498428
0.100233
0.164343
0.155642
0.338406
468 99
103 74
45 32
367 229
321 358
205 130
458 122
146 235
78 318
171 377
84 125
33 160
27 432
60 345
282 168
299 111
388 492
4 155
351 68
464 4
120 197
487 54
281 193
243 155
157 377
20 332
150 436
316 492
46 6
313 107
344 121
429 132
168 118
250 345
496 359
103 77
489 369
175 394
80 374
75 99
3653.33
3
