40
7
0 0 0 0 0 0 0
56 39 97 81 59 81 81
81 24 74 31 11 74 68
85 45 97 25 34 25 96
54 51 14 88 21 65 50
96 38 50 52 75 84 91
51 35 89 22 25 84 25
32 90 38 93 12 99 58
72 25 14 95 28 67 81
98 86 94 95 86 92 22
15 85 41 91 39 17 40
37 53 54 40 94 82 30
98 92 99 36 86 69 24
79 26 33 36 87 90 57
40 99 37 67 47 64 47
85 27 58 81 70 24 79
45 46 54 61 100 44 79
14 27 54 56 93 12 97
48 12 13 100 41 38 83
81 20 60 84 25 40 34
19 97 10 10 70 85 32
25 43 23 63 29 21 51
24 47 95 60 34 62 24
65 42 13 21 53 23 62
27 19 20 49 81 94 88
84 15 43 64 80 49 28
84 95 90 27 98 40 54
51 58 18 39 89 100 41
96 63 43 21 41 94 32
84 74 22 90 85 16 44
25 34 64 100 25 31 33
78 40 65 79 41 46 96
71 76 27 85 83 87 82
75 77 17 18 28 69 47
59 90 26 15 54 64 92
58 14 100 64 25 95 14
92 42 53 22 73 38 75
15 52 48 41 91 99 79
99 55 43 58 72 100 34
19 15 45 19 32 25 81
0.591796
1.42378
0.476023
0.583767
0.651805
1.00009
1.22291
1.00969
0.425825
0.790747
0.397336
0.921735
0.685352
0.848613
0.529522
1.38753
1.37083
0.431612
0.704615
1.31684
0.362453
1.04
1.39659
0.933509
1.02451
1.47604
1.2641
1.18006
0.799919
0.743779
0.533715
0.464504
0.455078
0.432717
0.566727
0.47851
0.784856
1.17237
0.525097
1.34195
427 429
401 60
317 3
152 38
444 340
454 274
495 88
480 140
89 168
318 340
211 6
229 458
112 308
3 24
42 166
110 129
26 35
128 100
292 398
317 135
269 222
401 84
319 124
264 120
195 366
135 264
155 329
93 161
391 127
455 187
135 125
324 250
174 281
492 216
379 260
361 293
324 47
151 454
59 473
49 177
10880
1
