40
5
0 0 0 0 0
67 67 57 24 100
22 45 58 79 15
86 43 75 68 78
94 79 49 33 12
63 85 98 17 78
46 75 14 76 45
50 52 77 25 42
97 68 61 53 31
24 57 11 49 31
79 54 38 17 22
20 99 56 70 62
37 51 44 68 92
43 59 51 20 10
81 57 19 30 37
42 54 46 45 92
46 43 64 76 38
54 78 65 85 94
40 83 84 38 98
12 24 18 28 19
44 54 45 85 43
40 15 99 45 82
73 74 30 10 14
48 69 53 47 67
74 61 73 10 88
35 85 65 75 40
61 42 79 64 86
66 73 95 73 46
30 37 79 12 26
24 17 63 44 93
99 98 87 87 42
23 99 11 65 74
99 56 81 92 95
46 64 22 10 76
72 99 26 10 50
64 41 20 99 50
16 21 32 87 14
31 100 72 45 21
79 50 21 74 82
92 76 57 36 84
1.50961
0.987475
1.10318
1.06771
1.74134
1.2243
1.67276
1.0596
0.541461
0.796285
1.16326
1.94582
1.43498
1.09802
1.93636
1.03245
0.705939
0.54898
0.57854
1.61739
1.58249
1.71194
1.34132
0.769296
0.408671
1.41927
0.427453
0.549807
1.16006
0.764021
1.14006
0.402147
1.20478
1.49199
1.89575
0.575274
0.499755
1.83856
0.460806
1.3416
185 261
309 342
330 255
148 340
90 465
161 39
133 1
376 71
410 497
159 174
182 486
284 202
485 417
188 190
170 222
161 340
441 139
22 184
461 118
8 355
160 297
493 306
316 320
328 152
66 354
254 332
161 169
277 148
218 307
108 458
37 98
494 327
413 10
84 208
91 18
421 90
94 461
162 241
307 115
36 159
2688.75
4
