40
5
0 0 0 0 0
36 11 83 66 39
36 14 43 26 65
69 94 73 82 53
46 20 53 97 22
53 92 81 43 80
68 11 93 65 52
51 78 40 41 82
97 28 97 100 87
87 99 23 72 72
58 80 39 24 11
57 20 48 56 16
83 98 21 96 46
79 23 60 92 49
23 47 34 64 44
49 71 70 60 70
80 58 55 91 77
85 54 40 85 66
35 48 23 45 78
96 91 24 47 16
90 16 42 98 44
20 42 39 29 16
24 40 17 38 40
95 59 64 87 40
44 85 96 26 62
50 50 72 74 31
87 66 17 42 82
74 44 32 35 17
32 49 62 99 36
29 44 11 60 21
70 17 13 19 100
12 99 92 99 38
57 36 74 15 18
19 79 60 78 12
41 28 73 80 93
18 93 86 50 91
21 71 14 29 28
34 40 32 31 51
40 70 47 30 17
97 83 87 87 88
0.831172
1.45186
0.574876
1.2119
0.860219
0.371688
0.338168
1.37237
1.08339
0.406167
1.04078
1.35495
1.29192
1.40188
1.22025
0.837428
1.05136
1.32389
1.40878
0.606549
0.997409
1.2316
1.39643
0.777213
0.599389
0.41601
0.509511
1.43816
0.560866
0.867117
1.30091
1.05136
0.782052
0.4669
0.852092
1.42777
1.35772
1.45074
1.35005
0.382768
448 416
85 75
21 430
359 92
280 400
34 58
391 356
103 378
241 248
366 214
286 246
321 430
344 48
85 237
371 468
25 302
497 479
15 15
441 312
136 407
10 107
496 415
88 192
80 229
299 94
444 324
221 398
354 242
355 186
451 94
390 353
413 280
110 459
176 492
489 166
247 424
6 322
147 261
379 106
343 167
3541.67
3
