40
9
0 0 0 0 0 0 0 0 0
93 10 29 83 65 28 78 73 51
19 54 69 100 22 50 79 43 77
60 41 15 76 55 28 23 81 61
100 29 36 48 80 91 50 38 31
33 63 68 74 80 99 28 32 41
60 94 74 54 64 80 34 60 25
38 22 29 21 48 40 84 11 85
28 48 20 19 78 32 48 56 23
77 10 17 40 52 77 41 14 85
99 99 82 58 63 84 77 17 82
89 35 63 43 48 97 43 35 29
36 31 96 99 62 77 40 76 86
37 79 26 90 97 37 91 97 38
33 11 84 80 34 63 34 95 79
12 30 23 62 66 57 30 40 75
72 11 33 14 20 39 14 27 76
17 60 86 24 39 35 14 49 94
87 96 62 63 51 31 83 30 68
37 75 68 54 44 12 88 84 45
36 96 77 12 34 97 22 57 82
89 66 57 48 20 45 52 61 100
48 53 32 65 85 45 10 30 79
52 47 84 93 56 29 94 55 23
69 86 59 31 46 55 28 10 20
42 48 15 43 72 95 65 37 84
69 30 31 88 83 47 77 49 82
99 46 100 60 58 67 46 65 31
87 94 37 20 57 54 26 54 76
53 50 42 12 63 65 78 30 45
66 16 90 85 89 85 20 92 44
43 20 65 48 100 61 71 32 53
24 93 37 54 60 80 34 75 40
23 33 74 100 37 92 37 50 72
86 25 28 82 35 98 92 60 66
17 18 48 70 77 42 15 69 96
26 54 36 23 40 51 14 14 24
76 91 85 82 31 86 77 89 40
90 97 52 20 61 85 11 45 34
46 49 98 51 35 32 63 70 84
0.624804
1.02855
1.33277
1.47975
1.49582
1.13722
1.3303
0.699534
1.44309
0.366992
1.39208
0.832604
0.643201
0.519414
0.541092
0.340051
0.307333
1.26412
1.2761
0.989987
0.514632
0.801876
1.00376
1.21785
0.307681
1.35833
1.42409
1.3085
0.821264
1.21146
0.40979
0.559636
0.668012
1.06226
0.763168
1.04679
0.735172
1.20073
0.724662
0.952607
246 77
444 229
270 368
243 114
91 230
265 307
260 44
297 54
377 464
420 14
466 78
169 90
226 485
410 454
464 44
188 44
198 380
402 240
311 287
108 48
285 387
5 147
374 204
211 97
313 274
444 167
478 313
290 324
158 196
176 48
295 12
131 21
264 7
43 428
197 13
133 132
478 107
186 325
82 74
248 242
3575
3
