40
9
0 0 0 0 0 0 0 0 0
51 93 74 65 10 43 51 58 16
82 54 51 27 95 34 28 100 76
39 19 38 90 12 74 53 62 16
58 24 97 91 65 59 100 59 48
82 53 56 68 63 25 97 78 72
73 99 47 48 51 61 38 25 13
80 61 30 31 74 26 14 16 37
67 50 60 45 24 33 72 53 33
65 86 44 64 82 50 77 84 98
48 36 46 33 54 18 18 38 52
43 84 73 29 33 77 94 70 12
63 64 30 73 59 70 20 84 76
96 66 68 22 100 33 78 57 72
95 81 73 43 74 23 69 66 47
87 92 94 76 39 67 41 67 84
72 68 89 37 33 59 58 25 22
33 61 58 48 47 58 74 45 75
76 23 40 53 34 100 67 48 92
42 41 71 71 23 77 46 74 28
76 38 49 63 79 25 26 21 29
52 53 86 10 55 90 45 93 99
12 69 35 50 44 41 94 96 76
29 92 59 24 24 62 75 51 49
72 62 74 25 11 31 62 38 51
18 72 47 63 96 70 50 21 68
63 98 85 58 45 61 27 68 63
79 13 49 81 38 92 46 58 58
93 22 60 46 24 14 63 23 28
44 13 100 53 42 57 43 10 14
83 29 53 57 61 50 57 22 37
26 85 21 20 98 35 75 73 48
50 84 66 58 15 44 27 34 67
76 55 49 59 92 75 47 71 59
66 62 94 84 39 48 95 56 60
56 48 23 73 76 11 23 63 63
41 44 57 31 74 38 87 41 47
37 31 78 64 87 21 12 90 56
57 10 16 44 51 47 14 38 74
59 30 36 73 100 53 15 82 92
1.47172
2.38885
1.84364
2.06307
1.57963
2.34293
2.4436
2.09585
2.06784
1.44772
0.875239
1.31166
1.42986
0.632023
1.00744
0.996728
2.20414
1.76526
0.856089
2.02479
0.910189
2.38222
0.511191
0.770188
2.44304
1.91859
2.49336
1.97365
0.800335
0.516434
0.568769
1.4462
1.72262
1.68914
1.61588
0.928054
0.885615
2.43874
0.645497
2.12885
301 480
200 139
417 431
410 32
369 344
193 310
38 368
38 478
69 89
249 339
104 295
398 260
310 202
300 385
297 66
397 80
18 420
317 351
460 416
435 445
362 294
6 291
499 97
364 498
86 302
314 65
287 255
492 407
400 125
208 1
394 404
146 332
39 68
156 293
294 277
353 70
103 110
198 396
481 444
293 224
2138
5
