40
5
0 0 0 0 0
49 52 87 33 82
22 56 30 65 45
81 100 85 54 82
30 25 84 82 35
63 27 21 84 65
24 84 56 81 36
21 96 100 56 30
78 38 13 78 17
91 18 84 80 47
41 46 49 59 23
93 38 58 86 63
41 48 99 11 51
34 81 16 69 12
29 81 23 85 35
50 26 47 67 11
75 71 59 45 22
41 34 21 15 13
96 78 42 32 21
29 95 56 92 28
99 63 47 32 21
96 16 79 47 54
99 43 37 40 15
68 91 84 97 56
15 24 100 41 51
22 66 15 85 42
92 38 44 95 46
15 23 67 32 60
58 77 79 52 15
67 87 89 89 56
26 67 17 58 79
98 19 53 30 36
81 80 53 38 79
21 97 35 28 81
93 10 13 61 72
100 74 94 39 27
61 17 38 99 90
15 67 92 40 84
91 93 98 78 80
30 56 16 85 11
0.441228
0.221586
0.431378
0.23724
0.131412
0.206302
0.398898
0.153387
0.475982
0.385702
0.24823
0.249992
0.176138
0.134156
0.305786
0.47264
0.263369
0.189911
0.375038
0.434298
0.339105
0.193919
0.49325
0.329489
0.407033
0.145095
0.129934
0.484296
0.23741
0.326873
0.499035
0.328185
0.428493
0.331266
0.368438
0.295099
0.187289
0.427665
0.165993
0.410715
427 403
207 442
91 131
383 65
339 89
105 34
63 46
282 174
391 328
332 362
228 391
253 406
254 93
68 115
14 224
372 427
11 398
227 69
240 440
176 450
59 302
214 160
472 80
394 27
167 289
429 460
197 440
214 258
345 6
42 166
413 358
326 334
20 415
271 107
65 339
388 166
223 370
95 283
411 256
325 284
2682.5
4
