40
5
0 0 0 0 0
40 82 96 30 79
12 83 18 89 68
57 33 52 60 59
48 15 33 10 43
37 15 75 49 67
20 87 50 72 89
14 65 77 90 39
10 13 77 85 91
73 25 75 86 91
54 67 67 83 54
93 59 17 82 13
31 26 89 89 50
34 44 14 12 75
30 25 24 27 32
44 87 57 28 82
99 52 41 48 51
77 31 100 35 91
71 43 72 43 92
26 16 18 45 56
23 75 76 97 48
36 65 41 70 39
55 83 82 82 27
37 82 23 64 73
100 58 25 42 21
49 46 66 53 92
64 63 39 39 81
19 93 40 34 41
73 38 12 70 36
44 29 46 80 27
15 48 98 57 28
50 60 89 52 90
12 98 60 12 54
53 79 46 89 28
50 44 69 37 42
19 81 44 99 87
97 45 22 22 85
81 10 34 65 20
17 44 35 91 70
73 50 66 85 94
1.6333
2.33087
2.14507
1.52762
1.18643
2.46438
0.949881
1.87078
0.519324
1.1707
1.17637
1.14313
1.81854
1.14782
1.40646
1.32105
1.09226
2.13216
1.3324
0.674087
2.41526
1.75473
0.890586
1.98108
1.55519
0.561596
0.814349
0.690402
0.702797
0.979506
1.93233
0.66763
2.31638
2.45087
1.21342
2.05969
2.47172
1.73714
0.554929
1.88551
389 146
205 87
350 103
93 224
172 33
378 120
438 282
252 189
289 478
450 471
322 486
383 327
8 139
239 335
411 460
362 292
499 181
429 90
91 163
325 334
455 347
223 133
2 366
238 6
189 255
161 357
43 327
187 85
36 155
141 489
411 165
474 315
421 179
146 238
293 309
181 68
162 342
394 403
157 120
309 160
10565
1
