40
5
0 0 0 0 0
85 68 45 63 38
23 77 55 19 93
46 85 14 49 21
75 73 55 32 75
47 10 24 63 32
58 65 34 28 44
40 96 80 12 99
63 36 30 21 54
35 86 28 100 60
32 51 81 83 24
92 20 45 78 39
59 78 58 62 55
76 31 68 98 73
39 79 17 21 14
40 63 51 98 49
10 85 47 61 58
93 35 93 49 89
96 43 86 99 68
68 10 32 30 88
83 13 27 50 17
42 57 45 20 64
96 80 67 98 39
72 75 28 82 94
52 49 25 43 24
32 78 38 46 57
60 57 66 38 30
70 71 61 94 89
82 16 37 74 70
28 27 12 87 10
36 88 91 91 28
93 70 81 14 99
49 43 27 20 57
15 36 20 96 96
23 85 34 53 60
73 93 100 18 97
45 27 76 51 82
40 18 91 43 13
19 89 94 47 44
48 100 76 24 28
0.475517
0.952494
0.495637
0.332205
0.2719
0.405599
0.961318
0.337446
0.588408
0.254401
0.985305
0.612785
0.309387
0.234941
0.61203
0.819745
0.65251
0.672205
0.673
0.947381
0.288707
0.633182
0.788209
0.391376
0.255887
0.363576
0.952334
0.667658
0.524357
0.921563
0.519918
0.281625
0.721434
0.593728
0.889169
0.21855
0.246344
0.816643
0.218785
0.423545
407 39
108 303
463 136
39 336
263 314
234 413
449 123
400 399
379 45
132 346
137 335
325 452
392 155
185 385
239 223
486 413
325 484
409 252
422 322
366 437
12 476
277 251
194 355
380 333
17 102
321 121
262 147
464 31
22 235
300 151
60 286
21 333
484 317
58 153
155 5
17 22
9 96
403 363
218 457
300 345
2152
5
