40
11
0 0 0 0 0 0 0 0 0 0 0
21 94 97 10 60 73 46 43 96 16 75
99 91 50 46 58 31 13 55 89 78 43
73 30 59 79 15 23 12 62 56 51 90
95 14 64 19 90 63 30 36 41 99 89
17 47 11 60 57 32 42 19 86 22 92
95 30 78 22 15 12 98 85 92 18 17
49 97 46 10 48 80 22 79 23 87 34
16 89 44 79 57 31 12 50 78 18 75
74 46 29 79 77 68 42 72 92 23 87
78 59 44 44 76 58 84 58 60 72 15
44 58 69 34 49 14 30 94 50 46 95
39 38 26 50 87 92 100 65 87 27 74
35 93 93 67 68 15 98 32 67 53 15
12 10 95 50 51 73 68 17 86 91 74
74 57 70 59 50 75 46 80 80 97 44
86 26 27 11 82 37 11 86 33 56 62
44 57 89 28 87 69 72 32 59 98 26
98 84 79 21 76 88 75 81 19 60 58
35 69 42 58 26 73 65 27 47 23 14
50 67 49 23 80 83 51 96 73 70 72
50 16 68 16 46 24 67 83 22 95 87
61 46 76 38 23 39 23 32 42 11 42
12 18 95 84 85 89 27 53 96 13 50
95 94 16 63 61 99 25 91 78 44 24
86 15 92 26 64 51 11 73 49 42 86
45 60 10 84 89 53 34 25 27 55 43
89 15 98 61 84 72 72 38 13 92 71
81 75 97 79 95 38 34 83 53 54 83
87 68 55 41 100 78 85 92 71 43 15
17 52 83 62 44 46 75 46 58 49 31
84 13 45 71 28 51 58 76 10 43 48
44 35 28 20 25 32 39 48 99 56 44
18 60 86 96 57 14 60 88 53 24 22
51 64 52 92 21 92 26 38 84 64 38
36 66 42 79 86 28 100 70 26 13 72
10 89 30 29 96 47 24 48 19 37 81
79 59 79 87 59 30 88 35 61 94 48
12 90 97 22 37 51 34 58 71 17 54
100 90 53 80 85 16 60 54 84 43 94
0.257502
0.17295
0.288432
0.474409
0.242452
0.198814
0.49836
0.495108
0.494513
0.205309
0.178432
0.216499
0.293599
0.435979
0.42489
0.204418
0.313167
0.33032
0.396748
0.399212
0.269452
0.3935
0.242774
0.29278
0.294867
0.4343
0.230832
0.251696
0.315685
0.34519
0.225742
0.244145
0.230247
0.155161
0.347442
0.248144
0.112318
0.178755
0.175384
0.242098
414 409
353 333
238 252
289 195
196 171
371 218
251 98
348 383
313 238
119 493
444 367
148 186
320 446
70 250
142 82
12 269
392 368
128 422
254 156
499 129
499 335
244 489
279 463
103 153
329 377
404 1
319 256
16 157
497 62
240 283
181 191
152 15
425 266
401 284
342 473
344 347
371 34
128 92
132 484
225 438
5435
2
