40
11
0 0 0 0 0 0 0 0 0 0 0
84 71 89 16 22 71 30 59 82 97 96
87 24 29 89 37 70 73 59 21 25 11
81 34 56 31 26 72 72 18 39 30 39
81 98 32 41 36 83 60 74 45 18 89
23 37 38 68 68 66 67 17 37 57 82
14 20 15 29 46 19 36 64 39 12 64
97 16 72 16 66 82 32 34 57 25 59
79 62 75 48 84 13 99 94 33 56 61
87 25 39 10 31 35 90 62 33 38 32
89 55 12 80 50 74 90 29 17 42 56
37 33 33 43 29 63 86 31 86 37 22
12 41 21 72 94 21 13 99 53 66 54
84 58 28 79 72 16 64 68 91 18 85
63 100 20 41 83 71 76 92 53 19 36
61 54 12 10 52 99 39 47 43 32 70
66 57 18 42 95 60 58 41 33 94 14
29 74 11 11 28 22 31 99 26 22 65
27 67 50 35 98 93 29 28 43 46 22
79 41 45 40 46 40 64 49 84 97 43
81 54 55 11 15 11 48 100 54 80 71
51 56 56 89 60 29 64 94 97 64 18
29 47 79 97 91 30 68 34 80 62 36
35 23 78 80 46 25 97 62 34 73 89
75 63 39 17 65 71 57 48 26 52 15
42 24 80 84 76 22 62 17 98 44 47
21 56 12 90 35 50 67 35 21 17 96
100 46 50 88 12 34 92 46 13 45 53
98 67 33 89 17 67 98 88 49 84 17
66 57 33 26 26 19 13 69 98 43 76
88 74 28 93 28 51 100 98 58 82 14
85 89 56 87 62 49 53 91 71 54 86
83 62 32 37 61 96 53 54 78 61 13
57 42 44 49 13 68 51 94 56 73 35
87 98 30 52 17 68 81 23 24 92 58
67 25 61 29 96 67 90 81 58 86 85
20 77 50 78 19 54 47 79 82 95 97
67 36 92 32 46 61 27 66 84 24 23
77 30 71 62 30 65 57 70 40 96 55
33 82 51 91 75 56 84 82 43 14 43
1.22843
1.72938
1.6051
1.23075
1.58688
1.991
1.48223
0.4128
1.70572
1.69482
1.1463
1.22194
1.59361
1.14744
1.72169
1.9609
1.53591
0.79176
1.72946
0.663781
0.44837
1.68925
1.75214
0.613653
1.67048
1.05489
1.2762
1.69702
1.61749
1.90658
0.714109
1.20756
0.892095
1.84473
1.29402
0.817289
1.07187
0.56903
1.6096
0.485806
439 132
307 251
108 464
212 411
125 111
382 226
140 333
131 396
246 478
8 174
162 386
429 128
318 392
215 31
272 77
494 169
237 182
460 415
223 334
497 331
101 381
55 495
186 43
24 473
123 198
444 291
143 217
382 17
125 317
441 66
89 128
100 404
116 99
187 340
444 118
55 246
23 142
459 332
423 266
102 436
3535
3
