40
7
0 0 0 0 0 0 0
16 90 76 51 71 43 75
36 50 60 42 54 98 70
24 17 83 25 28 41 26
34 92 39 100 85 68 51
72 53 97 47 75 10 96
13 40 21 48 69 55 68
92 62 54 40 82 85 75
22 68 34 30 31 32 25
37 81 75 100 72 23 82
14 10 32 60 50 79 89
14 64 50 75 11 27 10
88 16 44 57 54 39 55
59 27 60 18 77 91 47
11 40 72 45 53 99 57
12 71 16 78 16 85 72
46 93 79 53 65 91 54
60 32 90 14 97 53 37
75 67 68 69 11 70 33
91 64 90 70 53 72 27
49 26 84 42 35 76 99
13 94 64 66 79 50 63
12 35 81 34 38 93 29
80 100 42 73 77 24 35
97 70 64 63 21 77 67
49 72 40 79 80 53 89
34 61 83 11 83 43 23
29 26 25 95 25 36 93
42 18 93 12 87 95 75
57 44 53 87 67 100 85
83 93 74 62 46 18 44
34 98 89 41 77 99 43
50 43 58 62 31 75 50
16 39 59 15 26 84 92
61 85 54 25 21 17 55
45 70 35 36 42 54 13
47 35 58 44 22 75 93
60 54 46 70 49 62 84
44 43 50 31 62 82 10
56 94 53 76 63 47 43
1.72968
1.64217
1.72831
0.765856
1.21322
0.408676
1.55026
0.597803
1.46126
1.05672
1.06728
1.24598
1.49418
1.09203
0.832874
1.91757
1.49213
1.97864
1.75462
1.49679
1.63087
1.22445
0.728573
0.807544
1.69354
0.870309
1.84332
0.741183
0.702406
1.11617
1.16607
1.88444
1.50838
0.778815
1.03109
1.40265
1.60171
0.670669
1.0701
1.36879
89 169
47 498
29 113
96 360
62 71
86 303
431 480
335 182
495 151
222 311
201 418
164 80
282 213
423 475
86 304
186 338
138 232
373 382
351 423
260 163
410 167
285 81
304 475
324 88
448 436
201 78
166 195
301 393
184 196
255 317
260 474
84 108
286 182
264 229
232 52
63 393
237 330
223 395
6 227
180 227
2703.75
4
