40
11
0 0 0 0 0 0 0 0 0 0 0
32 14 33 58 52 45 56 96 84 10 83
19 96 13 76 29 17 100 15 84 23 86
91 76 79 27 12 15 43 98 96 84 86
27 63 22 58 16 62 68 64 78 99 85
69 91 48 12 28 41 51 28 33 12 77
42 16 74 53 12 59 19 81 87 51 74
25 80 16 12 33 95 23 46 56 32 13
94 31 57 20 60 41 44 68 61 10 31
100 72 32 63 43 36 55 73 57 32 31
57 38 42 64 81 79 99 69 89 98 86
96 27 36 77 33 50 48 52 34 72 38
45 86 86 87 52 56 82 81 30 38 34
35 78 25 70 74 43 16 28 73 69 44
80 32 19 44 23 65 26 15 24 28 42
19 54 69 38 55 92 91 80 94 14 96
89 77 58 100 40 36 96 72 29 45 88
49 13 24 84 80 46 100 70 19 79 27
71 68 79 96 10 88 76 94 59 98 79
20 66 14 74 99 48 81 58 37 83 97
50 98 14 40 68 63 10 96 28 96 82
20 28 33 75 41 44 32 46 21 92 33
86 16 46 16 11 73 82 41 89 34 11
39 75 19 97 44 62 53 84 43 77 70
93 39 98 48 13 98 52 38 88 85 96
34 90 78 32 47 10 60 64 84 73 23
51 70 23 84 59 69 55 14 11 89 40
93 100 93 67 85 96 67 11 78 58 95
17 46 70 26 84 61 71 29 17 19 36
40 61 73 31 94 92 26 16 68 95 36
33 47 90 31 32 75 58 10 10 43 51
65 30 27 86 84 78 74 50 37 80 27
100 97 14 68 78 27 85 23 30 40 36
89 53 23 59 15 11 61 58 44 43 27
31 16 95 55 83 14 80 25 89 48 55
98 76 66 25 39 81 35 46 100 47 45
49 59 65 45 21 67 72 94 54 11 63
76 56 47 93 47 70 31 42 98 79 51
82 92 89 25 80 81 80 59 86 73 77
52 55 25 85 38 35 66 85 48 45 63
0.759322
1.08184
0.578369
0.777766
1.5792
2.37873
0.975684
0.679909
0.972194
0.598588
1.34246
1.08335
2.01641
1.30831
2.21233
1.21484
1.98185
1.33217
2.37064
1.24333
1.38408
0.955732
1.86092
2.27695
2.41424
1.07959
0.587116
1.95953
2.24086
0.520081
1.71115
2.37779
0.881286
1.99916
1.64985
1.57443
0.649806
0.72796
0.930029
1.02546
4 137
172 446
12 65
224 477
366 48
198 280
267 374
372 318
424 132
447 428
71 98
321 489
310 106
89 87
19 291
2 5
133 448
120 168
95 135
217 385
167 69
4 197
327 298
93 2
400 452
139 342
0 294
109 495
296 345
329 325
348 93
268 81
327 5
166 13
232 442
46 163
29 284
485 351
361 35
307 148
5425
2
