40
5
0 0 0 0 0
83 72 30 63 14
71 45 27 18 89
86 72 42 76 32
68 93 24 69 65
18 74 40 25 66
29 55 18 63 85
52 60 24 59 48
61 30 11 62 26
45 48 70 13 67
28 92 25 74 49
94 85 66 18 17
32 17 39 65 83
68 34 64 62 94
73 11 71 43 13
14 80 89 26 77
11 30 92 44 46
51 62 59 77 65
78 18 70 10 53
29 94 60 49 29
87 73 81 93 53
42 23 52 76 98
17 91 71 49 51
12 41 34 69 71
82 11 36 69 90
31 42 77 68 29
72 32 73 17 62
71 43 96 66 60
67 73 51 42 83
47 31 43 69 45
80 65 91 60 30
99 66 26 34 65
37 17 17 66 99
38 98 23 78 19
92 31 55 96 77
94 46 73 36 47
86 74 69 89 59
95 39 54 45 36
95 50 99 100 39
64 31 62 95 27
0.703058
0.754964
0.755455
0.231138
0.616647
0.80787
0.558848
0.866241
0.402304
0.60186
0.605194
0.424498
0.205041
0.334992
0.355166
0.343703
0.920984
0.209142
0.668057
0.865529
0.821023
0.770118
0.297992
0.37123
0.337216
0.963799
0.654005
0.478531
0.499009
0.36718
0.503755
0.231602
0.23556
0.509257
0.681043
0.602433
0.941307
0.565241
0.797461
0.823199
134 191
487 61
44 480
408 235
413 489
120 40
161 336
389 137
185 82
251 364
198 423
271 434
126 218
178 9
96 89
295 271
353 360
371 295
287 174
114 484
418 48
384 224
213 26
433 42
123 106
403 214
477 476
332 0
352 471
382 456
325 178
457 78
72 349
253 246
112 480
487 423
353 391
247 372
48 420
24 423
2168
5
