40
5
0 0 0 0 0
90 14 68 73 75
87 39 20 76 51
76 88 45 25 75
78 49 64 19 95
84 12 98 85 37
81 52 29 66 87
72 85 45 88 12
49 25 61 88 44
33 12 51 85 20
20 71 29 12 26
58 64 42 89 82
25 48 14 38 65
35 65 38 73 84
96 15 92 81 83
22 85 34 59 23
29 13 76 67 41
41 26 31 51 96
55 90 26 22 18
55 41 43 99 19
21 83 97 71 51
71 21 12 54 21
99 94 41 10 95
26 39 15 38 81
15 17 92 91 79
93 95 79 69 76
12 61 52 58 76
96 87 27 76 10
21 71 96 98 81
58 42 20 42 91
33 54 92 59 47
35 39 44 47 72
20 65 26 81 57
88 16 18 82 37
97 44 65 21 25
23 92 64 48 33
55 37 12 22 43
37 97 38 73 84
53 30 87 75 40
59 51 43 81 29
0.826299
0.319197
0.54404
0.607431
0.819113
0.412136
0.840554
0.571335
0.908115
0.270335
0.949192
0.39323
0.782546
0.349238
0.41201
0.861265
0.699922
0.688052
0.689698
0.673759
0.399787
0.200921
0.869981
0.374761
0.679187
0.213537
0.246055
0.435118
0.438567
0.530614
0.314336
0.571652
0.920188
0.705281
0.926474
0.473469
0.997977
0.345074
0.518766
0.609831
321 170
429 214
350 322
186 199
136 385
226 405
411 3
455 103
58 393
443 85
136 145
387 12
160 204
6 328
371 142
206 3
333 145
39 173
240 16
110 102
461 418
78 249
94 130
346 0
185 495
233 458
71 227
104 424
44 185
139 223
483 211
475 358
445 235
482 380
244 498
338 106
482 300
61 17
448 440
423 180
10605
1
