40
7
0 0 0 0 0 0 0
68 16 81 33 46 28 14
18 85 57 60 18 99 81
80 15 20 66 35 34 19
76 63 87 32 64 74 74
84 90 48 26 84 41 19
40 38 81 63 69 63 74
21 36 12 96 52 49 41
88 43 89 95 21 21 28
22 38 95 17 50 39 41
33 17 60 97 30 95 20
59 74 38 76 81 73 77
38 96 44 47 73 43 16
39 53 97 32 13 32 45
28 10 22 33 45 96 71
61 41 35 12 54 42 28
88 25 42 49 39 31 63
37 97 28 53 58 42 33
95 11 87 11 21 66 90
74 84 68 45 93 13 58
95 99 96 67 56 97 42
76 54 59 39 99 52 28
59 47 12 95 18 21 62
12 14 45 38 70 79 17
63 98 69 81 82 56 97
61 43 32 91 98 73 48
67 95 13 28 67 84 65
47 81 99 91 70 33 22
27 54 51 15 62 52 71
17 62 38 51 97 27 41
11 15 52 66 28 74 52
66 76 62 68 69 77 70
86 58 61 69 40 78 45
39 53 44 61 80 42 10
98 21 33 12 39 99 98
25 29 94 53 34 83 58
92 87 50 15 41 17 66
100 37 52 12 12 94 89
48 47 89 34 33 11 20
49 46 30 96 46 73 91
0.914792
0.937232
0.515988
0.301707
0.950383
0.695264
0.895146
0.383265
0.63391
0.70559
0.818436
0.927104
0.425428
0.518504
0.214914
0.328232
0.960677
0.403039
0.902981
0.745482
0.881877
0.210746
0.973907
0.71027
0.26065
0.301927
0.901304
0.813115
0.212239
0.802862
0.947815
0.694018
0.726213
0.814468
0.327434
0.240469
0.584617
0.888173
0.340089
0.589141
292 88
141 259
211 23
330 116
457 133
406 62
319 387
382 460
115 313
279 218
103 349
107 1
13 362
158 430
469 14
184 28
56 465
107 43
257 0
404 314
329 195
415 118
420 336
299 487
479 280
372 174
130 48
359 98
276 423
86 23
488 255
285 34
326 68
228 74
206 417
434 417
355 104
265 226
154 142
475 202
2625
4
