40
3
0 0 0
60 16 26
28 66 55
40 27 61
24 52 78
22 37 84
77 34 92
16 14 47
33 56 87
15 62 55
50 16 48
31 59 53
55 30 53
58 74 34
73 66 38
22 70 78
86 53 84
86 45 89
76 50 60
84 37 11
61 18 27
63 84 27
98 27 54
35 63 16
31 89 35
98 39 98
63 89 26
83 96 13
67 62 64
22 60 61
91 84 70
85 15 84
63 71 31
13 33 31
25 30 90
96 90 71
66 43 28
90 10 17
83 15 71
69 10 39
0.214525
0.201395
0.266491
0.141544
0.367105
0.420144
0.432428
0.202196
0.255903
0.3362
0.3608
0.139239
0.308611
0.148988
0.437929
0.194326
0.335761
0.129333
0.218805
0.237824
0.286256
0.129109
0.120232
0.195709
0.402347
0.241307
0.211906
0.446551
0.36096
0.269658
0.204197
0.251583
0.25395
0.149385
0.228412
0.357847
0.484843
0.272441
0.323169
0.255422
41 353
250 138
322 357
112 145
441 155
64 56
373 20
246 28
459 414
107 170
371 116
272 397
38 323
111 368
466 463
89 2
289 62
409 346
43 425
338 159
324 336
319 435
362 197
86 148
436 251
383 46
495 312
270 242
21 86
88 490
328 241
304 372
65 245
360 444
201 175
286 233
141 166
247 335
14 81
162 332
2590
4
