40
9
0 0 0 0 0 0 0 0 0
63 54 91 91 55 62 47 68 26
64 99 26 92 77 23 19 69 22
81 26 63 67 100 43 48 33 24
53 50 96 21 55 79 68 58 100
69 46 65 66 89 83 56 15 35
29 79 56 64 42 100 67 30 58
39 87 39 27 49 32 78 32 82
49 35 60 10 22 59 65 27 70
39 46 49 21 48 77 64 90 25
98 60 46 99 43 35 100 48 86
84 67 67 97 16 59 70 36 88
65 43 89 88 92 43 71 53 76
25 68 62 25 73 100 36 19 91
16 50 74 28 93 49 63 66 35
77 22 39 10 34 26 100 65 77
82 85 88 36 94 13 58 90 72
81 88 64 16 21 35 74 51 54
75 92 65 65 54 51 60 47 45
61 60 12 25 82 66 41 22 56
37 15 86 23 37 51 92 49 68
80 20 94 99 16 77 71 38 25
31 86 20 74 88 62 47 87 30
34 62 64 41 38 100 72 42 31
26 83 32 58 77 24 63 41 56
24 79 68 37 75 41 24 78 97
22 42 70 11 86 15 96 49 46
12 33 57 89 64 92 40 39 13
77 64 27 76 99 56 94 91 56
67 75 10 95 62 73 13 68 92
17 27 26 57 64 32 72 96 68
36 35 58 86 83 14 32 36 43
81 81 91 36 22 34 14 26 97
71 50 88 99 56 78 75 39 65
41 70 49 28 41 91 63 46 66
92 61 86 43 86 85 15 64 13
15 36 76 69 12 90 17 15 73
71 82 10 85 92 40 41 19 76
73 74 64 38 13 48 15 33 84
36 29 65 72 32 87 84 85 13
0.346979
0.752936
0.821246
0.287354
0.473887
0.396357
0.325641
0.551605
0.267643
0.953694
0.934682
0.44169
0.341459
0.289105
0.942206
0.395869
0.804873
0.624946
0.292201
0.605908
0.688866
0.988897
0.74597
0.540905
0.956172
0.438267
0.720998
0.98222
0.69529
0.850319
0.63595
0.340897
0.516387
0.291237
0.699164
0.855748
0.676441
0.909054
0.239099
0.261158
234 134
337 453
271 342
255 335
232 169
19 38
50 145
76 112
246 254
148 192
262 460
436 221
399 422
488 407
402 356
377 217
488 397
258 9
312 389
28 494
241 379
148 138
47 83
433 397
399 292
132 80
35 463
398 103
164 221
193 456
178 309
137 329
77 85
321 294
134 483
418 399
492 257
209 440
150 391
497 64
2192
5
