40
3
0 0 0
52 88 86
15 92 34
53 50 21
30 94 59
36 66 56
49 92 32
100 86 12
54 43 82
10 100 71
61 34 57
70 84 50
87 16 46
56 71 92
84 18 69
43 68 38
23 87 18
59 68 77
100 86 69
93 40 45
94 87 50
87 49 13
80 25 98
46 20 80
88 22 26
83 23 55
81 35 28
26 72 73
35 76 56
73 55 14
72 98 72
91 75 96
34 88 50
67 80 46
22 13 13
36 10 94
30 54 62
71 51 45
25 67 40
55 61 90
0.993705
0.798808
0.903353
0.879376
0.456278
0.731976
0.563093
0.951162
0.317434
0.860344
0.788519
0.635181
0.417315
0.816786
0.889487
0.82365
0.662608
0.995187
0.617415
0.496064
0.301141
0.363947
0.885006
0.757656
0.988736
0.252777
0.376414
0.667884
0.88409
0.972228
0.951417
0.752217
0.631381
0.620051
0.309868
0.434662
0.839099
0.377857
0.652333
0.656467
283 408
37 202
470 378
400 406
9 118
339 131
304 483
59 237
124 319
50 411
86 382
283 469
242 148
309 149
298 451
200 57
215 327
443 216
270 186
434 79
300 377
344 321
241 167
216 343
24 286
295 449
204 194
126 244
19 139
494 149
214 438
50 5
88 267
365 198
154 394
174 431
268 477
177 120
112 420
381 125
2803.75
4
