40
9
0 0 0 0 0 0 0 0 0
26 42 89 51 93 99 54 81 75
95 47 99 77 93 66 45 28 40
50 24 45 70 65 46 12 90 16
29 95 89 43 67 35 22 54 65
78 60 41 44 45 45 73 14 70
78 25 38 74 60 61 54 61 91
46 11 77 21 84 71 45 37 44
33 64 91 14 90 13 87 85 65
65 11 42 57 39 75 87 22 58
91 68 36 84 43 50 48 20 38
37 38 93 16 50 35 33 73 66
16 25 45 37 63 15 72 97 70
98 46 23 83 51 25 99 48 64
97 79 44 40 82 80 66 43 42
44 29 81 100 24 15 84 95 16
22 18 94 66 63 25 32 25 69
24 69 59 69 20 70 65 93 41
71 42 64 66 58 73 23 99 40
14 18 98 15 10 73 88 30 84
25 33 88 38 40 100 92 16 44
21 44 64 72 41 74 59 24 52
72 97 32 96 42 45 85 12 77
25 13 64 68 11 66 15 83 54
48 33 76 44 66 67 89 25 99
45 11 73 38 33 33 82 65 29
44 11 29 64 12 46 48 66 89
18 26 41 22 44 58 100 29 65
63 11 12 82 40 89 65 96 52
46 57 76 31 58 98 42 53 32
51 35 66 27 50 93 64 83 43
64 36 26 37 14 71 81 20 97
13 89 30 91 49 40 62 18 58
78 73 13 20 49 46 100 100 16
90 38 75 29 26 19 32 20 98
31 70 32 89 53 65 89 67 45
80 13 40 18 13 64 70 99 23
28 68 73 77 80 32 83 48 10
74 27 58 75 35 18 16 60 38
50 99 47 10 60 53 81 13 42
0.304977
0.901297
1.368
1.05953
0.4994
1.36163
0.610184
1.43847
1.29372
0.512821
0.802146
0.486362
1.1989
0.941863
1.46859
0.543808
0.935273
0.955719
0.400676
0.49367
1.37172
0.624213
0.712781
0.588854
1.16587
0.856178
0.335789
0.518804
0.311012
0.682112
0.996633
0.609067
0.530901
0.813611
0.762138
0.935691
1.3919
0.839661
1.46149
0.433814
286 459
224 321
6 265
468 281
136 287
490 179
95 270
189 342
288 218
180 331
286 24
426 210
222 16
60 258
182 336
256 141
19 53
222 68
222 45
178 131
134 395
110 147
24 359
157 486
362 132
212 0
3 20
243 27
362 172
364 460
422 422
16 365
320 499
48 210
371 143
114 378
245 240
89 471
116 178
276 119
5197.5
2
