40
11
0 0 0 0 0 0 0 0 0 0 0
38 87 55 17 21 39 60 36 27 31 73
64 29 82 79 90 72 40 74 33 26 89
27 77 44 38 51 49 66 27 52 42 83
54 77 63 28 36 74 25 65 41 95 69
43 50 78 29 84 93 18 97 91 95 31
18 84 83 95 30 70 23 91 67 99 10
75 66 42 76 30 84 28 62 15 57 97
20 28 20 53 60 24 16 81 63 72 95
59 11 69 42 22 32 76 98 68 73 88
10 61 73 40 55 57 34 66 17 12 66
90 39 60 68 45 10 43 13 44 78 86
16 78 51 38 52 61 20 47 24 47 52
21 42 91 55 21 78 56 80 24 85 50
81 25 80 32 42 32 75 58 11 95 50
12 65 40 70 46 66 28 56 93 20 43
68 68 100 56 79 59 10 16 18 32 96
13 97 93 77 69 12 60 52 40 34 33
61 11 99 41 97 44 38 39 72 89 76
30 24 58 75 68 10 67 50 53 56 83
93 96 25 20 55 71 53 31 44 28 61
65 65 70 44 14 91 25 22 37 95 19
59 62 52 64 19 79 42 15 69 44 10
76 30 67 70 40 98 44 43 58 67 28
87 71 40 48 80 73 81 56 33 70 82
45 57 27 64 13 93 84 85 32 73 13
42 10 95 13 69 38 60 62 71 16 20
77 46 45 36 90 76 48 14 85 51 10
94 42 59 14 43 39 26 12 48 37 34
52 78 32 49 48 19 25 88 25 95 100
84 46 99 75 34 17 55 51 19 69 91
26 41 17 100 55 84 29 52 72 66 74
41 35 73 88 55 89 76 18 38 59 12
30 76 11 71 40 100 62 65 54 82 63
18 16 89 76 49 66 52 84 74 72 65
19 32 74 56 49 25 29 31 57 88 37
29 97 51 64 50 41 72 64 99 76 53
25 24 42 84 92 38 97 53 30 71 52
21 94 90 70 79 97 78 84 91 96 52
15 55 83 18 37 38 52 85 82 33 65
0.783127
0.497577
1.28589
1.04863
1.74598
1.33137
1.27471
1.26757
0.640314
1.31734
1.95227
1.56706
1.54918
0.805265
1.57087
1.64566
0.704779
1.94544
0.904413
0.493979
1.43212
0.93909
1.81411
1.28629
0.779082
1.45551
1.36797
0.572553
1.56505
0.688279
1.68314
0.478538
1.36444
0.894319
1.70106
0.463662
1.26533
1.20889
1.72629
1.54374
441 24
413 336
382 323
340 286
433 24
171 277
243 87
406 463
251 83
406 29
81 289
474 448
275 470
153 190
82 355
222 105
466 406
328 297
89 347
450 363
145 128
170 314
162 171
105 280
212 453
32 327
230 407
77 443
105 113
464 18
326 200
45 3
134 62
193 159
337 244
103 453
302 227
462 159
234 367
342 282
10585
1
