40
7
0 0 0 0 0 0 0
87 16 25 91 45 13 66
36 60 82 83 56 67 96
32 47 96 87 52 30 93
61 75 65 42 71 94 11
53 20 87 48 74 82 80
37 97 52 84 29 92 72
10 37 100 57 64 67 34
20 13 49 46 62 44 93
64 93 22 66 58 66 46
46 70 74 26 19 55 85
20 69 56 20 47 66 35
99 89 99 35 11 20 33
44 24 79 13 91 39 27
22 80 71 62 73 95 11
86 79 41 44 93 19 71
42 60 77 41 27 75 28
79 64 59 32 73 34 59
20 11 72 56 17 35 11
64 13 59 30 33 91 58
22 35 49 50 40 47 67
50 37 23 38 85 42 61
40 24 86 64 73 42 77
13 53 41 80 25 54 47
41 93 33 39 51 25 97
57 75 92 62 64 17 59
69 35 42 22 97 78 24
37 79 33 52 54 70 57
71 35 68 81 68 46 65
16 45 26 81 40 44 88
61 44 67 66 36 52 18
47 33 56 14 64 18 60
62 25 35 93 86 79 88
29 12 23 24 10 35 22
97 26 13 14 17 67 43
89 11 69 59 31 59 79
82 87 25 52 31 28 87
60 33 60 37 60 54 95
63 88 14 61 81 16 95
55 91 19 19 100 11 22
0.190451
0.223204
0.231059
0.393317
0.394549
0.155792
0.287475
0.385312
0.459635
0.198553
0.430408
0.106879
0.324564
0.265958
0.110223
0.361876
0.169566
0.417385
0.129861
0.367706
0.339665
0.428799
0.426112
0.187522
0.121312
0.359106
0.406854
0.131263
0.32132
0.297196
0.258857
0.353305
0.448224
0.342281
0.496859
0.165881
0.399491
0.497034
0.297724
0.203748
204 428
112 76
258 301
316 258
233 90
95 104
310 500
208 357
114 301
317 68
60 308
393 215
138 32
70 498
74 403
473 20
406 364
6 436
226 305
68 46
70 378
404 172
475 58
10 210
225 486
499 152
164 354
115 182
119 91
450 199
167 270
324 84
381 179
364 99
282 227
117 21
356 198
247 473
172 180
276 425
3430
3
