40
3
0 0 0
63 94 59
100 48 59
56 29 11
55 99 77
41 15 89
74 91 48
26 24 18
42 70 94
43 97 15
91 54 76
27 55 29
80 42 30
14 83 90
47 84 75
23 63 14
27 63 74
27 67 44
38 68 93
59 11 24
15 60 67
10 70 45
19 12 84
73 14 98
80 91 24
74 63 62
39 25 90
55 29 42
24 20 61
51 63 10
29 48 40
48 99 50
50 90 90
92 54 62
12 60 90
81 83 86
98 59 85
23 76 26
94 25 62
14 10 13
0.587015
0.287673
0.237904
0.558485
0.729226
0.496175
0.45599
0.676034
0.993855
0.595716
0.80723
0.938753
0.605003
0.930488
0.824613
0.240397
0.236544
0.255771
0.468193
0.456643
0.898269
0.213145
0.852064
0.678612
0.738841
0.375022
0.784437
0.854415
0.551966
0.239332
0.434541
0.248576
0.312471
0.522175
0.720433
0.305036
0.644187
0.61998
0.455032
0.743805
253 246
123 282
481 389
2 499
34 126
232 265
314 27
384 488
99 330
265 46
257 469
163 209
253 493
302 57
353 291
202 245
55 392
286 275
456 87
341 207
237 337
110 446
113 297
263 141
42 494
357 281
203 376
163 7
36 474
55 139
485 87
267 157
79 468
427 379
349 295
5 28
101 248
362 329
269 276
65 64
10545
1
