40
11
0 0 0 0 0 0 0 0 0 0 0
85 26 32 96 33 78 77 55 55 28 41
67 86 11 75 33 82 61 91 32 90 25
90 44 13 98 39 61 38 37 30 40 29
92 31 69 34 49 77 77 35 91 11 40
16 46 89 42 68 26 30 50 92 26 58
83 77 63 70 56 73 59 44 67 42 60
66 65 19 38 100 68 11 90 38 46 62
89 61 56 48 86 79 30 32 18 80 32
83 64 34 70 91 58 91 64 81 81 49
87 99 26 82 22 62 60 13 75 79 50
84 16 44 49 39 40 64 66 62 96 60
96 61 76 86 77 46 69 57 41 24 46
15 21 92 65 48 52 98 84 93 71 53
92 10 94 86 21 46 83 21 22 66 41
87 47 20 14 74 83 63 53 35 83 74
24 62 57 32 34 43 15 42 14 18 15
28 70 99 79 29 93 61 74 94 94 63
65 62 58 90 100 80 54 78 10 73 91
15 11 33 99 35 49 84 20 68 51 94
94 64 99 64 85 28 75 76 83 87 75
51 72 15 82 18 38 76 31 24 67 35
47 56 71 80 39 13 45 49 70 96 69
28 51 18 12 21 86 55 63 95 63 52
16 36 91 59 56 42 95 92 50 90 56
26 13 100 75 57 56 89 23 49 73 77
50 21 38 89 48 50 58 16 52 61 72
46 90 91 27 74 23 10 52 78 40 16
40 96 13 31 49 33 23 40 49 32 84
21 92 10 13 53 70 86 40 93 72 76
90 59 36 81 51 60 56 22 44 21 84
50 96 87 18 12 33 33 74 75 86 57
99 73 67 95 43 100 54 18 52 57 88
92 76 34 18 59 55 16 74 56 21 22
100 45 10 77 77 21 32 60 66 85 31
10 72 30 53 27 50 26 55 34 87 17
44 69 86 62 79 33 84 10 13 89 36
83 42 26 40 89 78 71 43 27 16 65
90 50 77 73 48 81 24 45 22 54 33
72 80 60 47 18 45 79 76 30 69 63
0.769991
0.490301
1.37007
0.422669
0.763482
0.869899
1.20101
0.588538
1.25539
0.467317
1.23201
0.944167
0.848112
1.31468
1.15516
0.788192
0.874024
0.80907
0.77745
1.12169
0.817934
0.895818
1.40327
0.665344
1.32858
0.767598
0.996859
1.33209
0.904902
0.960131
0.518719
1.05266
0.930686
1.43168
0.57726
0.647103
0.370128
0.667789
1.21755
1.15855
58 340
387 174
90 107
203 177
276 174
302 311
249 325
353 69
182 276
356 274
210 0
289 266
340 398
91 220
244 337
32 4
355 454
147 220
468 79
122 50
48 91
112 449
220 132
167 223
484 14
460 300
262 362
317 178
260 317
371 322
120 482
149 23
453 272
29 84
348 306
74 496
219 105
347 1
296 27
67 345
3630
3
