40
9
0 0 0 0 0 0 0 0 0
53 59 45 92 93 92 72 75 73
90 64 30 64 19 18 27 77 79
73 58 60 89 91 95 77 62 88
91 21 27 94 55 67 83 15 92
90 92 45 12 14 33 74 14 84
97 20 85 73 15 51 30 36 10
43 57 30 52 40 14 25 69 58
38 13 29 82 64 99 53 87 34
92 75 79 33 87 28 66 13 20
40 15 95 72 61 92 94 72 31
87 65 66 55 25 58 82 94 50
15 99 77 28 54 59 16 66 83
93 73 38 58 25 21 50 40 81
88 50 42 96 47 87 70 25 65
27 47 48 78 54 50 89 85 93
58 26 43 99 67 86 41 55 32
100 95 95 84 72 59 12 77 56
81 87 38 26 86 47 31 93 31
74 43 10 16 41 95 58 38 67
80 73 67 48 30 52 56 77 23
65 31 96 14 45 72 31 75 36
45 11 60 46 73 77 99 85 46
64 92 41 91 77 32 75 93 22
61 77 27 64 65 66 72 20 51
82 57 58 51 18 49 99 94 64
45 75 26 83 43 83 89 71 23
69 31 23 40 88 60 43 45 16
30 78 36 46 77 62 82 90 94
43 56 83 48 52 45 98 68 15
64 20 12 91 56 19 31 64 30
56 94 74 90 22 47 27 51 60
35 23 45 30 47 85 51 52 49
94 20 72 58 82 31 36 28 26
81 17 30 20 31 15 92 43 11
92 52 10 96 83 26 78 48 85
92 39 68 16 12 80 71 54 19
40 25 55 47 23 36 96 21 17
65 82 59 42 41 60 38 37 24
49 76 37 97 58 93 97 75 82
0.362336
0.274046
0.350163
0.121165
0.417496
0.305135
0.333581
0.464702
0.414564
0.457937
0.390299
0.101069
0.196325
0.33964
0.413408
0.16824
0.460573
0.293777
0.470489
0.114302
0.144097
0.282473
0.423074
0.491865
0.353055
0.305044
0.366883
0.470325
0.301538
0.236673
0.111432
0.129774
0.378955
0.25852
0.167175
0.354594
0.277969
0.285382
0.167754
0.136774
438 498
2 199
10 446
498 250
109 25
266 244
182 339
126 304
15 162
448 399
303 286
141 288
373 202
491 149
472 338
148 38
425 394
199 335
129 481
479 328
295 207
276 409
351 365
344 104
335 114
440 9
139 443
266 68
457 175
422 107
12 264
318 109
187 294
295 275
162 163
403 251
314 466
300 408
236 58
407 338
2204
5
