40
11
0 0 0 0 0 0 0 0 0 0 0
42 17 92 49 32 60 17 41 29 15 16
53 14 72 82 28 48 93 87 49 39 68
53 56 68 48 16 10 15 88 62 91 30
96 69 29 92 67 33 96 57 43 81 75
44 56 41 45 96 10 50 22 56 51 80
18 73 97 17 37 57 79 76 79 30 77
35 51 42 59 43 20 87 64 46 34 35
94 100 40 35 33 30 79 72 57 72 68
84 77 37 19 54 27 18 18 55 38 22
66 28 99 76 12 85 63 53 33 93 46
51 23 40 17 34 53 15 66 58 44 91
75 77 11 24 22 67 27 57 50 73 53
10 53 59 39 87 15 76 17 83 71 38
81 14 47 38 39 13 78 39 49 55 82
43 16 65 49 78 81 67 63 78 58 29
49 95 22 70 36 69 43 34 53 28 18
58 78 71 23 97 24 79 36 67 12 51
35 48 92 73 50 22 89 69 43 61 100
65 60 34 63 11 71 97 49 81 13 21
40 43 37 89 98 74 16 62 65 12 37
35 51 20 57 24 48 78 23 40 60 42
50 84 19 87 89 64 52 72 35 100 37
14 11 67 99 90 71 42 54 14 18 68
44 61 79 35 43 57 11 20 15 70 71
58 90 98 17 39 99 69 27 83 27 53
66 28 84 78 27 31 24 25 57 95 44
70 62 24 96 90 30 98 17 17 35 36
41 84 75 57 28 49 15 73 18 91 36
94 48 33 30 12 33 17 42 38 61 44
100 66 64 17 22 66 33 33 43 98 54
65 57 86 27 20 17 17 11 83 35 94
15 67 77 52 93 81 53 92 34 34 82
16 86 48 62 54 49 79 70 68 69 61
79 99 71 17 54 99 65 43 44 44 78
62 69 28 87 97 12 29 72 99 10 26
26 83 78 99 11 60 100 56 97 78 75
85 77 33 93 42 17 98 14 87 61 78
47 46 37 68 82 74 49 25 33 70 50
80 15 90 88 77 42 47 34 35 13 68
0.844097
0.772175
0.329074
0.320724
0.838775
0.750847
0.422794
0.689279
0.288973
0.59095
0.442188
0.779162
0.79545
0.26375
0.877369
0.546409
0.269797
0.386546
0.263173
0.548055
0.482767
0.598258
0.588839
0.906721
0.503025
0.922742
0.751162
0.802447
0.677504
0.995979
0.895582
0.619065
0.79608
0.362557
0.963489
0.405228
0.703859
0.497226
0.989484
0.343887
24 379
18 183
342 309
91 231
85 376
62 158
373 14
493 126
337 341
496 357
496 282
410 339
254 66
56 367
318 459
304 411
470 143
497 74
251 451
101 220
178 251
54 337
428 414
90 341
273 388
49 83
460 37
391 468
142 416
381 477
105 309
240 291
248 396
373 2
41 432
401 134
240 484
71 48
28 314
393 405
2078
5
