40
11
0 0 0 0 0 0 0 0 0 0 0
100 42 47 52 14 71 80 19 85 58 16
17 71 24 30 56 37 13 70 59 100 86
97 30 60 90 95 95 77 47 88 84 94
82 44 65 49 31 15 61 25 96 37 12
49 20 58 76 37 41 12 81 14 39 36
41 76 30 26 27 77 59 42 97 46 60
23 17 13 80 56 70 79 45 13 46 71
44 82 86 85 68 75 34 55 15 34 66
83 99 70 17 85 17 10 92 43 69 78
69 47 81 53 16 100 63 12 99 70 61
61 70 32 42 15 39 59 96 92 70 53
16 23 62 73 88 18 82 17 88 72 30
34 88 21 88 72 66 18 11 59 52 29
23 49 82 76 43 91 87 67 25 44 21
25 84 97 42 43 19 37 60 28 67 60
58 93 69 16 19 36 12 12 13 11 76
10 33 67 10 79 48 28 96 30 70 69
69 83 65 84 25 64 38 15 61 62 48
59 77 51 56 80 22 55 40 71 39 26
38 48 37 40 52 47 18 49 39 92 14
90 56 83 32 54 60 54 10 34 67 65
89 35 56 97 27 52 50 87 46 14 91
54 66 59 95 29 60 30 62 68 38 33
100 53 96 12 20 72 19 41 28 80 93
79 53 56 12 58 97 91 16 23 100 13
53 65 48 60 31 34 61 57 55 68 44
74 22 38 53 58 85 25 91 59 71 40
99 58 17 74 60 38 46 95 21 90 51
64 76 82 48 60 43 59 88 73 84 29
39 74 92 86 47 39 32 92 85 88 64
58 42 21 72 91 58 75 72 30 27 52
77 49 63 84 65 96 64 64 30 95 39
79 59 26 78 84 64 57 76 57 45 64
73 71 51 40 57 13 70 55 17 94 55
59 96 82 91 97 27 33 52 36 51 90
58 23 30 51 23 86 47 58 75 48 97
31 11 88 87 90 80 66 93 53 11 62
31 21 37 92 47 84 55 19 11 27 72
11 53 45 41 37 32 74 74 36 73 98
2.37084
1.04061
1.64175
1.64123
0.75659
2.20823
0.870651
1.686
1.07656
0.905017
2.42186
1.55177
2.34766
1.45566
1.01014
2.38511
2.14541
0.689856
1.16178
0.650422
2.47942
0.950735
2.1347
0.980219
1.32374
1.73566
0.859513
2.42133
0.86658
2.31141
1.89249
0.649209
1.07024
0.911519
1.94354
1.57921
1.3106
2.33039
2.00849
1.83432
271 138
150 30
77 38
290 390
89 157
436 147
488 263
121 16
37 493
372 171
312 405
3 38
25 335
172 125
187 436
480 479
362 243
108 286
22 247
103 221
401 177
251 202
161 237
293 265
398 477
253 217
491 152
338 13
343 404
39 274
26 137
490 239
131 286
371 219
115 39
165 185
76 113
62 31
464 270
171 397
2678.75
4
