40
7
0 0 0 0 0 0 0
74 21 14 84 63 11 66
64 58 21 36 54 66 36
48 71 64 64 42 49 11
19 36 32 51 64 73 33
91 69 62 41 89 96 35
94 57 43 19 76 26 38
23 45 89 100 26 53 49
23 84 74 34 54 64 40
12 53 34 66 72 58 65
29 83 12 26 76 40 92
25 64 79 49 83 59 24
68 41 30 32 16 52 21
41 74 75 67 59 100 100
94 18 53 98 86 67 48
63 60 51 40 57 25 74
65 33 73 98 38 63 14
21 30 59 29 90 73 68
60 100 36 77 34 94 38
14 33 77 55 28 14 37
82 53 23 84 83 19 13
65 58 10 85 45 26 44
91 53 22 77 95 22 33
60 89 99 68 79 11 92
90 88 33 50 73 27 74
13 51 73 99 62 95 61
13 80 44 58 50 87 75
71 86 99 15 68 88 94
82 70 17 27 83 52 85
90 33 55 88 71 77 88
12 35 93 56 85 99 28
35 80 83 86 75 65 96
33 30 43 12 36 90 13
17 47 32 63 63 26 97
26 83 91 75 38 43 40
74 37 70 51 58 26 36
57 25 76 27 42 41 41
65 35 35 75 25 65 94
27 31 15 88 28 58 61
12 11 75 83 68 21 59
0.525457
0.424436
1.41559
0.451329
1.27492
0.375932
0.431039
1.23785
1.2558
1.01052
1.2683
0.667453
0.363999
0.574788
1.40992
0.54438
0.823719
1.37088
1.09262
0.446944
1.47385
1.10915
1.14188
1.30372
0.715686
1.19887
0.582223
0.958018
0.465949
1.25656
1.12462
1.25621
0.382472
1.33484
1.25726
1.24852
0.963404
0.389282
0.415817
1.02463
295 135
417 317
146 89
56 3
252 186
259 438
364 346
27 238
422 163
180 84
225 97
122 88
268 131
64 152
467 219
201 394
106 296
311 59
4 242
139 390
366 436
259 354
175 356
157 160
462 214
24 137
295 378
453 77
462 488
466 107
98 116
233 8
95 125
455 273
314 455
385 178
183 482
395 378
89 412
354 205
3575
3
