40
5
0 0 0 0 0
64 25 17 61 11
60 51 56 31 60
25 16 50 33 84
55 37 85 19 39
17 62 23 16 52
31 59 17 99 44
10 62 26 43 75
45 28 79 98 80
15 56 14 62 84
33 37 59 82 28
85 38 38 45 12
10 59 60 59 84
57 69 62 90 47
62 36 11 39 97
62 51 15 94 84
66 78 47 68 49
60 81 92 20 56
34 92 93 42 68
96 18 51 10 57
85 100 22 44 19
48 12 79 100 36
76 13 55 86 55
49 36 73 63 16
41 39 16 50 95
24 32 98 65 59
11 82 64 63 36
11 84 59 96 16
37 35 53 96 10
65 40 70 31 70
100 91 16 10 69
85 71 24 26 16
85 67 47 11 61
28 67 23 13 73
26 50 90 64 33
74 83 84 91 32
38 82 83 49 16
78 17 94 12 75
59 18 61 99 66
35 27 33 36 42
0.323236
0.271767
0.305921
0.234002
0.127378
0.221136
0.308659
0.373556
0.273536
0.180305
0.31406
0.372903
0.167912
0.198933
0.106666
0.356573
0.287996
0.38907
0.4377
0.289204
0.410081
0.270804
0.492161
0.387434
0.208453
0.148753
0.308732
0.175419
0.141363
0.306589
0.379316
0.29735
0.127136
0.333645
0.176828
0.115222
0.476929
0.116281
0.410905
0.405058
420 339
489 139
376 293
211 124
254 222
276 24
454 339
152 167
440 476
149 150
311 386
486 378
492 275
29 323
340 150
303 454
64 32
42 423
227 218
428 403
152 239
252 419
486 30
228 149
320 88
126 112
170 92
199 446
444 416
172 296
283 226
425 246
216 427
368 449
166 317
156 490
168 237
412 291
195 380
466 225
3366.67
3
