40
9
0 0 0 0 0 0 0 0 0
100 49 23 53 54 42 62 35 28
51 28 57 67 71 24 40 64 89
59 59 28 49 41 53 40 35 91
82 69 74 33 97 79 22 100 15
25 50 53 99 19 42 80 68 96
99 41 65 33 76 65 54 69 77
80 14 51 74 77 24 82 88 49
39 100 15 41 52 94 98 60 72
59 99 47 56 73 86 45 27 64
90 49 15 57 56 84 61 23 15
95 10 36 98 37 53 18 89 65
24 28 64 95 22 84 62 63 67
57 29 97 38 77 17 36 30 69
93 71 67 80 56 42 86 63 72
86 57 99 29 77 29 51 98 92
78 24 45 67 41 89 26 62 45
75 19 91 90 55 75 92 30 40
94 99 16 77 41 45 27 30 51
54 42 68 37 84 12 23 61 97
64 40 77 47 34 53 41 95 15
29 82 99 49 30 36 48 72 80
51 66 17 65 48 64 37 87 99
90 24 30 69 92 43 82 56 28
29 76 69 60 44 56 72 33 19
24 28 34 63 40 36 56 83 92
55 77 43 45 70 67 29 19 59
99 17 67 92 39 23 85 61 12
79 91 52 90 30 74 89 49 53
45 77 35 90 99 93 65 51 38
65 24 97 27 30 38 15 86 57
40 76 57 39 71 31 69 91 53
61 41 95 33 90 90 17 73 84
78 19 16 77 80 91 68 69 79
33 28 72 40 77 13 22 33 29
65 25 56 99 50 74 66 79 27
77 48 13 73 24 32 77 90 72
28 71 24 65 45 64 65 62 11
30 33 50 90 48 100 68 42 18
41 31 39 29 54 12 17 17 12
1.34961
0.65876
1.16377
1.01341
1.85347
1.32884
0.642616
1.84974
1.76812
1.84877
0.75112
0.999414
1.07342
1.77066
0.624048
0.664675
1.58676
1.40137
1.04338
1.79334
1.83986
1.68631
1.22225
1.10543
0.762918
1.12341
0.726923
0.518404
0.444864
1.55628
0.574611
1.80223
1.24027
0.541555
1.22571
0.633568
1.70646
1.9625
1.27569
1.71906
63 3
121 426
89 121
27 63
72 408
21 17
269 66
257 237
194 129
220 120
476 251
431 204
439 409
353 450
443 402
353 110
335 479
469 146
0 303
433 41
37 255
140 251
263 206
311 422
163 150
262 128
230 177
149 490
473 68
407 434
403 400
90 423
422 88
298 88
461 215
378 103
385 257
319 179
152 490
154 449
2188
5
