40
3
0 0 0
21 97 99
100 97 57
87 50 10
76 45 69
28 71 43
43 64 65
59 18 75
91 32 34
41 76 28
65 54 86
41 69 64
14 14 69
98 100 17
95 75 85
30 42 48
26 83 15
30 38 81
50 50 10
82 79 71
13 65 91
73 69 45
99 76 29
51 33 56
14 91 65
98 63 65
55 58 45
48 74 19
90 72 43
96 90 14
55 86 87
20 59 42
18 57 59
10 48 68
25 94 64
80 30 18
30 49 45
97 31 46
89 87 14
43 76 66
1.22827
1.52463
1.63374
1.94969
1.59576
0.652716
2.29338
2.03116
2.26094
1.95058
2.49019
2.44059
2.35473
0.834753
0.732797
2.25538
0.732849
2.0188
2.32904
1.02479
1.45572
1.81378
2.19661
0.821464
0.663734
1.23043
1.22537
0.58559
1.54083
2.09092
2.41607
2.0343
0.673376
2.49708
1.80105
1.89065
2.08676
2.48945
1.57821
0.813699
467 303
174 261
238 7
175 172
3 170
82 254
7 167
421 414
269 290
387 15
54 119
490 272
412 208
45 416
461 271
430 480
279 106
447 285
51 247
394 215
137 183
298 375
53 468
306 417
314 141
332 256
442 367
239 24
216 306
299 423
68 450
257 279
203 241
156 453
494 81
311 186
120 437
180 29
413 311
106 345
5540
2
