40
9
0 0 0 0 0 0 0 0 0
25 16 80 60 24 95 21 50 37
21 45 88 61 42 99 86 78 38
18 57 22 99 33 18 58 76 25
63 31 89 76 73 50 41 10 59
100 71 53 84 89 78 86 84 59
98 67 84 44 59 11 93 38 28
49 24 97 39 71 59 69 61 20
47 11 23 17 45 44 22 96 83
20 49 21 77 63 14 93 73 41
21 12 48 14 88 14 39 96 61
30 76 32 49 26 12 14 25 21
64 70 30 20 16 23 87 17 34
24 42 43 98 68 33 91 30 21
33 82 11 80 84 27 56 67 24
47 81 93 100 56 43 23 94 50
89 85 70 34 23 45 85 47 59
56 95 42 72 39 23 95 51 48
21 60 62 23 91 97 33 83 87
46 19 31 72 46 59 86 96 54
27 21 55 34 90 40 90 50 76
20 89 36 42 91 27 53 41 31
91 55 89 28 50 81 15 54 27
76 55 55 97 57 78 70 39 91
84 18 45 30 92 55 32 40 38
97 30 23 73 91 58 65 28 63
71 69 82 48 84 39 71 54 72
22 64 65 89 89 64 100 77 85
19 15 96 73 40 85 17 37 50
75 88 35 48 31 56 16 91 76
31 71 82 32 76 45 59 60 42
73 72 50 30 31 59 45 15 71
19 40 27 70 59 19 29 97 77
39 56 16 51 83 95 89 82 98
37 94 75 12 73 89 96 42 28
79 95 15 95 97 29 26 80 42
39 34 59 25 23 38 29 94 48
43 32 80 44 28 22 100 49 89
82 57 19 81 24 15 92 10 96
98 28 29 66 45 52 21 82 68
1.71715
0.966539
0.860031
1.68087
0.953678
1.27591
0.91027
0.612372
1.99098
1.25052
1.78839
1.5413
1.7394
0.425498
1.74805
1.06319
0.727649
1.36764
1.73464
0.97752
0.949915
1.57161
0.496759
0.544621
1.70494
1.37954
0.672103
0.484476
0.436616
1.80391
0.882491
0.905429
0.975779
1.87029
1.54765
1.31138
1.63813
1.15349
1.74556
1.1645
81 446
414 222
236 279
186 27
311 131
154 140
190 403
223 396
97 345
81 375
450 232
149 490
377 62
260 348
439 448
242 184
489 178
332 260
156 72
485 434
66 246
294 403
408 344
467 85
457 399
119 243
82 470
158 189
341 30
15 183
97 384
474 464
183 374
200 109
400 431
85 410
276 10
84 7
385 376
89 146
2665
4
