40
3
0 0 0
42 49 84
50 59 38
100 73 25
95 38 92
18 12 90
18 14 69
22 98 71
15 11 76
53 90 73
24 92 71
71 35 18
76 85 51
59 10 53
13 26 33
53 27 91
17 35 43
83 12 59
18 21 58
84 60 61
95 97 99
59 10 52
24 75 73
88 35 82
13 48 97
47 72 95
72 97 11
74 50 40
92 84 70
73 57 71
74 81 85
52 99 82
26 55 65
100 12 10
44 85 94
15 75 60
30 88 13
100 40 62
31 52 33
89 67 42
1.09927
0.876578
0.898327
1.10849
0.739025
2.08879
2.48272
1.65963
1.41049
1.44286
0.668862
1.41839
2.48123
0.574106
0.737127
1.92038
0.905043
1.70655
1.63111
0.71627
2.09731
1.59261
2.01323
0.942705
0.761582
1.30998
1.17765
0.501496
1.2166
1.20388
2.07563
1.70378
1.50552
2.12233
1.83352
0.577833
1.7057
2.37239
0.93552
2.45918
443 89
99 99
459 183
61 471
119 40
401 466
291 337
472 475
273 281
33 497
278 10
117 107
77 446
399 48
336 281
228 76
176 407
491 482
409 181
51 340
127 95
205 355
254 485
436 373
188 370
293 293
446 25
223 361
402 164
232 36
478 164
380 172
30 275
93 318
255 41
425 483
359 20
175 296
441 233
221 65
3681.67
3
