40
7
0 0 0 0 0 0 0
90 95 33 27 75 42 59
46 83 68 59 54 71 65
73 65 17 77 84 37 60
12 27 14 27 29 96 61
36 12 17 16 29 72 17
85 70 33 49 12 36 77
41 72 82 88 75 23 91
95 79 85 67 31 21 23
76 69 55 52 89 47 41
40 59 85 13 44 20 85
36 73 50 56 71 18 92
98 63 23 39 67 83 20
87 19 21 67 31 67 47
50 30 31 66 56 40 85
82 66 37 45 28 29 100
23 61 65 85 22 30 90
93 48 51 20 49 29 82
99 87 57 30 78 74 20
51 42 23 23 80 36 57
71 94 43 41 30 65 76
74 40 31 90 53 24 53
63 67 85 35 20 70 53
79 70 16 22 45 44 14
45 92 42 92 63 95 87
74 92 58 39 57 30 77
67 12 29 17 36 76 77
31 79 79 63 90 86 69
66 65 24 77 75 17 56
91 67 95 81 73 99 72
82 35 23 13 29 13 36
40 86 77 86 53 56 21
26 46 85 56 74 37 11
52 72 67 14 70 40 88
59 49 42 68 22 69 11
52 52 68 85 47 53 36
84 36 62 19 22 29 33
10 21 80 99 60 39 22
19 18 56 85 75 38 100
74 12 85 38 33 17 17
0.300074
0.565051
0.607459
0.738159
0.470305
0.640345
0.701471
0.705226
0.877543
0.516196
0.52203
0.375072
0.213517
0.911178
0.835817
0.694946
0.979909
0.517342
0.209004
0.499898
0.370576
0.706054
0.537877
0.77044
0.350861
0.832558
0.457072
0.423362
0.353635
0.66609
0.892617
0.231973
0.494779
0.300312
0.760803
0.231433
0.207638
0.942566
0.450953
0.569313
338 79
382 54
167 327
451 55
298 496
116 287
303 47
220 20
124 175
436 383
228 316
361 428
447 27
191 444
332 76
260 362
442 6
158 22
166 256
336 356
35 411
116 291
218 353
30 341
471 418
487 373
108 183
344 486
201 217
165 48
143 74
461 277
328 94
44 370
219 93
425 59
173 329
489 339
231 372
384 80
5247.5
2
