40
9
0 0 0 0 0 0 0 0 0
52 36 39 54 16 11 29 50 28
41 46 50 66 86 60 76 12 60
77 60 61 92 62 87 93 88 96
74 65 49 38 21 68 51 41 34
55 77 67 98 99 61 86 31 53
95 96 53 48 55 78 36 94 11
23 16 94 22 73 70 60 26 22
78 14 86 96 97 68 81 71 69
31 23 31 100 93 10 67 56 18
96 26 36 99 17 25 81 25 62
100 26 78 12 73 63 32 19 95
71 35 54 15 50 75 16 64 62
16 67 63 76 54 49 22 66 92
100 44 10 80 15 27 86 68 82
68 29 24 63 41 52 12 57 87
77 58 58 75 49 92 83 80 93
45 77 62 74 27 84 16 79 10
28 65 84 32 82 100 72 80 40
67 49 18 99 28 74 67 29 74
27 83 53 91 67 67 10 74 64
35 67 77 52 46 63 33 90 28
46 47 16 17 77 63 35 62 74
33 31 90 66 87 15 29 28 12
42 54 80 53 21 50 46 48 33
27 71 39 85 34 98 31 72 52
46 92 99 80 58 47 91 51 87
47 89 25 93 49 17 85 75 76
31 78 55 51 29 51 39 96 54
55 84 91 99 67 81 59 99 22
23 28 85 39 77 68 85 50 86
11 74 68 68 29 23 25 66 88
27 49 58 37 59 50 67 62 18
98 96 84 98 95 25 42 80 90
95 56 38 90 13 51 78 67 37
88 87 18 31 82 50 13 11 65
53 87 88 56 82 27 38 39 55
79 29 31 86 67 24 78 85 56
51 14 96 53 35 74 79 31 65
28 79 66 30 84 30 80 89 21
1.10959
0.737727
1.34921
0.365746
0.87356
0.416937
1.3656
1.28894
0.578483
1.14571
0.971823
1.15925
1.27884
1.36477
0.567723
0.907879
0.654534
1.45349
0.655805
1.1213
1.49503
0.953275
0.804037
0.513194
1.13711
1.17396
0.394166
1.09016
0.444237
1.16553
0.426026
1.32535
0.479801
0.464559
0.611692
0.90582
1.05864
0.830533
0.476652
1.09538
86 385
25 323
1 184
266 108
292 174
211 68
167 59
135 350
474 343
412 173
203 260
39 348
397 233
327 64
26 135
21 102
156 463
132 143
249 424
402 199
179 28
444 27
373 460
194 493
175 283
202 139
272 32
186 298
249 255
432 245
277 379
368 477
307 221
436 84
31 205
124 141
389 410
25 244
332 129
312 79
2783.75
4
