40
11
0 0 0 0 0 0 0 0 0 0 0
40 19 65 49 89 25 91 67 76 86 16
73 19 91 49 70 93 33 12 79 96 24
26 45 70 23 71 17 70 22 40 55 59
40 87 41 52 77 79 73 87 82 37 15
16 50 27 31 60 56 56 34 24 57 78
65 78 45 74 51 23 95 91 82 46 70
35 33 50 94 89 58 54 42 19 49 82
40 57 40 75 18 98 23 31 94 38 95
74 97 57 13 92 54 100 99 24 53 35
27 22 89 65 14 52 33 98 39 95 20
74 32 81 28 95 49 85 78 38 32 77
65 67 34 93 31 87 37 21 25 93 79
48 20 21 100 52 39 69 90 74 23 60
66 94 18 65 13 59 13 72 92 61 100
68 53 64 83 90 76 95 72 73 25 90
62 36 12 66 90 76 37 62 51 49 74
37 85 51 26 45 62 85 64 31 36 77
25 39 27 98 21 58 86 83 35 73 57
43 82 32 69 65 94 51 85 19 35 95
52 56 97 76 36 35 96 19 64 63 50
87 91 48 39 100 66 64 44 77 56 58
18 10 100 65 89 86 73 68 85 98 50
83 81 74 82 45 47 19 71 30 29 84
61 100 45 42 94 62 71 40 57 75 35
22 82 46 33 44 59 86 17 14 83 41
96 63 84 95 22 42 44 12 48 51 49
81 63 21 18 91 26 46 33 31 52 64
99 15 49 30 90 68 94 10 53 90 60
47 84 67 82 25 75 31 90 48 69 84
50 97 42 15 31 17 26 96 97 12 13
75 36 37 92 38 51 73 12 54 34 88
38 51 88 61 81 50 84 79 61 73 27
29 48 73 85 46 42 80 14 63 59 32
36 23 42 97 40 41 82 14 77 27 60
40 26 75 17 20 49 89 47 25 53 94
77 10 78 22 84 100 32 60 16 75 33
52 30 45 25 46 87 67 23 47 36 43
100 100 22 48 91 15 29 30 59 89 85
50 62 46 84 78 17 88 72 20 59 56
0.697797
0.880189
0.847484
1.30719
1.08682
0.300074
0.95614
0.763389
0.632549
1.09363
0.46404
1.13099
0.885374
1.36559
0.823279
1.10052
0.878927
0.859342
0.857205
1.35094
1.47987
0.736023
1.326
1.47659
0.899802
0.389433
1.16775
1.31132
0.699516
1.23575
0.489799
0.748774
0.928235
0.938539
0.521424
1.07335
1.44769
0.596716
1.32908
0.803445
65 28
490 396
143 240
419 170
228 349
25 402
8 166
44 283
365 396
452 194
83 213
255 95
23 185
196 159
198 123
464 90
7 247
396 306
317 17
202 64
343 300
235 482
322 129
101 157
334 92
357 101
399 263
348 419
487 453
164 353
278 4
127 177
262 25
350 112
52 215
101 282
14 348
244 135
345 45
97 492
3666.67
3
