40
5
0 0 0 0 0
77 36 30 71 22
99 85 97 17 78
48 64 42 47 58
70 34 27 97 43
53 35 26 53 10
36 97 14 93 29
91 82 28 23 33
94 20 94 86 95
64 100 55 77 53
57 98 100 32 92
89 45 31 97 55
77 27 57 10 15
19 58 13 82 29
52 99 50 51 60
59 40 17 84 57
89 56 49 48 30
41 10 73 35 46
49 93 54 98 14
30 66 30 88 94
17 53 47 62 26
31 90 81 56 45
57 64 14 83 51
35 96 59 12 22
87 33 72 33 27
71 46 30 97 56
53 24 56 76 10
12 73 99 42 60
65 26 100 79 69
24 95 43 34 52
33 83 86 89 73
58 56 68 30 17
17 84 38 40 34
82 43 17 68 35
68 91 56 93 29
77 95 54 16 71
65 77 29 78 91
40 81 16 14 88
15 76 29 87 52
34 19 99 87 82
1.82171
0.657976
2.45238
1.93146
2.17937
1.24595
1.0955
2.27428
1.07962
0.885102
1.65356
1.73249
1.73035
1.25232
1.2659
2.28775
1.90169
1.72626
1.73992
1.69944
0.73573
1.36131
1.05012
1.39771
1.76414
1.08341
2.24266
1.91
1.32534
0.997938
0.529416
0.988768
2.35299
0.878644
2.09967
1.08225
2.02848
0.6164
2.49315
1.30694
402 310
333 219
356 98
388 494
0 183
479 476
375 121
435 412
56 254
84 484
15 265
26 276
347 58
30 498
33 494
448 53
177 206
78 88
244 117
379 322
453 33
43 473
333 415
188 260
351 405
319 478
47 136
62 103
354 66
316 305
282 133
309 273
78 56
467 76
351 195
289 153
439 393
181 276
432 199
390 217
3610
3
