40
5
0 0 0 0 0
76 71 27 54 57
47 49 80 34 36
75 37 76 22 83
34 43 79 82 84
13 40 35 68 70
63 63 74 75 43
37 91 69 41 64
78 30 91 59 34
58 89 65 60 34
25 41 51 40 24
79 38 17 83 93
27 24 93 56 77
60 50 42 48 60
73 30 53 28 77
99 44 61 40 33
86 88 99 64 24
94 54 69 80 85
34 19 13 83 93
62 80 60 25 23
56 31 16 47 28
61 26 78 38 85
63 57 29 76 78
69 10 40 13 10
79 43 68 31 10
39 62 81 87 67
29 70 94 52 74
54 13 80 76 51
48 59 71 28 39
36 60 53 20 94
44 27 48 63 97
93 14 80 44 21
100 51 50 16 15
50 77 97 62 45
80 59 77 51 48
74 71 44 40 41
15 79 20 88 30
42 77 76 82 71
76 55 21 11 96
28 36 22 64 63
0.776937
1.25087
1.57647
0.774828
0.462022
1.22045
1.55898
0.631563
1.47307
1.97319
0.984848
1.77339
1.49281
1.50235
1.04191
0.825786
0.942093
1.20129
0.910457
0.675879
1.96465
0.767506
0.707176
1.15316
1.08883
0.603379
1.36841
1.42902
1.5809
1.16295
0.998303
1.59037
1.47363
0.575205
0.783963
0.604058
0.50869
1.38692
1.33256
1.87644
435 497
274 456
178 369
291 36
419 53
345 375
355 475
413 53
418 374
159 1
265 108
231 228
254 260
44 105
52 235
472 154
462 366
90 479
136 223
113 306
196 408
385 115
177 47
183 402
281 404
149 136
160 226
176 141
41 160
139 39
496 436
164 358
308 130
131 432
10 345
101 420
271 66
306 475
296 21
177 115
10700
1
