40
11
0 0 0 0 0 0 0 0 0 0 0
27 65 82 87 55 50 72 22 13 66 89
31 42 43 38 32 38 19 83 66 55 71
87 84 100 65 19 80 40 20 72 18 97
82 97 22 31 100 95 41 45 51 68 83
77 44 32 84 94 97 53 67 13 19 32
69 33 80 70 15 90 38 93 57 81 92
97 17 37 26 44 10 95 89 33 41 90
97 59 17 10 23 18 19 24 21 28 77
79 43 14 35 59 43 39 49 32 77 48
25 74 87 54 99 97 56 44 95 17 14
82 32 29 59 85 52 13 45 56 50 19
88 44 10 88 52 71 65 100 65 37 68
37 60 22 34 44 64 36 81 65 54 36
21 49 56 69 80 34 92 91 79 53 88
83 22 21 84 34 50 26 94 11 76 58
17 16 66 18 89 27 10 69 14 40 54
20 84 81 95 71 36 81 75 53 61 57
94 53 83 81 45 66 75 88 30 21 38
14 96 43 34 65 81 32 82 96 54 18
15 58 83 58 77 71 64 52 25 43 10
42 21 84 85 78 85 29 39 89 23 57
30 86 20 87 89 49 32 92 96 45 10
33 41 54 65 14 34 15 47 52 55 42
68 34 89 92 89 78 35 22 21 63 71
81 91 23 88 28 65 17 16 79 29 96
58 18 49 78 62 70 35 79 100 35 34
93 85 31 41 86 32 41 87 68 21 80
37 55 76 18 46 31 78 28 26 37 52
50 61 27 100 70 100 81 14 85 26 15
71 64 12 58 92 45 39 83 39 49 93
82 75 14 90 57 78 25 75 39 85 77
70 31 36 18 99 71 96 74 97 68 49
39 79 31 74 12 65 69 13 73 43 52
12 88 90 44 83 94 26 16 51 75 31
67 65 71 67 15 86 13 16 20 25 38
64 72 39 79 38 13 56 49 44 47 32
33 50 79 66 21 43 66 90 61 63 58
91 15 76 70 23 46 89 58 31 31 17
14 68 92 25 69 46 20 93 30 85 42
0.267496
0.216292
0.316906
0.410403
0.243544
0.171745
0.300764
0.139328
0.201198
0.212054
0.111552
0.257094
0.477568
0.173627
0.241003
0.220059
0.373417
0.125762
0.139397
0.497341
0.461415
0.481149
0.412492
0.253201
0.361203
0.17646
0.348619
0.264304
0.455728
0.476257
0.294613
0.466704
0.211721
0.468797
0.342612
0.119021
0.426405
0.249899
0.441784
0.218528
141 205
400 126
381 140
59 30
73 378
303 397
5 148
129 112
313 30
357 361
345 115
298 347
413 150
91 468
269 374
100 60
116 264
330 103
304 121
495 180
347 480
200 119
178 101
244 300
234 40
11 466
398 493
141 339
401 367
261 26
251 364
182 288
167 424
102 177
278 122
98 210
378 470
373 350
494 34
123 109
2658.75
4
