40
3
0 0 0
66 68 93
19 43 95
65 51 81
42 34 38
19 97 25
71 33 45
80 19 42
22 67 12
47 24 41
79 75 73
67 33 26
98 95 45
88 73 99
65 10 100
77 35 53
70 71 33
88 19 30
94 72 60
24 65 38
29 60 13
79 59 53
100 58 90
75 57 97
40 95 77
99 92 39
60 64 76
66 41 30
98 76 25
29 74 93
20 21 91
57 81 34
34 94 80
15 68 72
33 19 14
98 15 10
28 91 11
10 19 55
25 75 63
56 56 67
0.701654
1.13174
1.29023
0.507635
1.25999
0.471545
1.02464
0.421826
1.05797
0.326879
0.486548
1.26657
0.845202
0.829376
0.925059
0.723868
0.892056
0.346298
0.465703
1.0346
1.45858
0.800955
0.690466
0.924833
0.308938
0.609056
0.318766
1.2153
1.25382
1.15612
0.57063
0.536094
1.33155
1.22721
0.818348
0.527007
1.03257
0.945806
0.911048
1.07177
16 71
57 389
327 91
230 279
150 325
137 389
26 129
159 436
277 276
469 343
94 13
431 238
223 362
438 290
178 21
86 282
22 456
129 493
49 173
176 257
402 499
141 385
116 367
27 298
391 375
41 391
0 140
9 158
218 25
17 309
197 320
33 421
496 1
210 359
38 222
4 357
54 411
299 59
379 452
319 276
3638.33
3
