40
3
0 0 0
51 62 26
81 28 89
88 74 73
41 19 90
41 99 13
52 56 87
32 42 76
79 29 54
46 82 83
50 97 74
96 30 71
11 96 96
47 42 53
40 12 11
24 25 61
84 76 32
12 55 72
73 98 93
86 12 85
37 27 51
31 27 90
55 83 33
32 82 17
81 67 14
50 49 76
57 94 25
66 14 68
39 18 49
39 68 45
71 91 20
82 57 54
81 53 45
22 30 64
37 54 69
53 97 90
95 35 78
77 73 37
17 35 89
93 84 17
1.0811
2.2738
1.53805
1.56757
1.53496
2.37389
2.25958
1.32255
1.53425
1.26757
2.32617
2.48918
1.82878
1.78144
2.03374
0.96192
0.865955
1.49706
2.34819
1.44283
1.29483
0.559661
1.94005
2.20018
1.58352
1.17332
2.42589
0.959105
1.72697
1.02751
0.541092
1.69577
2.35168
1.44705
2.37607
1.08024
0.663807
1.19896
2.25115
0.943099
450 62
227 175
269 345
302 257
451 403
386 114
70 456
338 361
234 81
494 477
102 169
459 368
172 209
100 200
423 475
324 10
238 450
29 462
277 61
200 283
135 367
82 457
395 36
283 265
83 283
466 489
282 67
409 446
318 392
459 109
435 135
401 79
471 211
51 141
326 339
399 430
39 495
74 319
207 398
145 244
2746.25
4
