40
9
0 0 0 0 0 0 0 0 0
27 92 18 15 49 60 36 82 32
86 51 92 99 53 94 85 100 39
92 58 85 87 44 59 42 52 42
89 64 87 55 44 86 52 36 81
50 65 18 71 37 58 43 63 30
96 47 59 88 44 93 80 22 87
57 65 78 73 34 17 38 55 57
37 54 45 65 77 19 49 28 61
88 23 41 69 11 84 57 49 12
42 57 39 86 16 39 61 79 16
13 95 88 12 34 27 71 78 97
77 11 47 54 18 43 57 16 75
60 28 96 23 63 73 16 78 65
20 57 72 47 12 54 45 77 60
92 16 65 35 74 43 20 47 12
20 84 22 45 22 60 60 68 80
85 88 48 52 20 97 10 60 30
49 30 91 42 92 24 44 13 25
95 21 84 47 17 88 53 34 48
85 75 91 74 75 25 21 86 78
36 70 62 85 99 90 51 70 42
41 57 39 58 52 98 90 84 30
39 37 81 90 67 71 57 45 72
91 53 57 19 96 75 21 65 20
78 73 71 13 68 77 67 87 33
48 65 31 20 32 96 50 95 27
91 100 39 12 85 88 29 95 80
50 63 43 58 93 93 91 40 71
72 56 55 84 21 91 34 38 35
34 79 40 27 44 67 20 52 89
32 75 36 46 41 63 45 93 61
39 32 39 85 43 43 84 42 30
85 66 89 77 24 61 73 70 81
69 74 84 83 23 63 53 98 18
63 12 80 20 44 89 81 52 11
68 99 22 55 92 48 76 18 23
61 13 84 75 89 72 66 98 90
36 46 48 32 94 12 61 50 99
56 57 41 76 74 51 94 70 22
0.33804
0.416735
0.321679
0.234359
0.449803
0.396558
0.377373
0.150034
0.1099
0.494109
0.483691
0.298969
0.458799
0.498727
0.249899
0.130966
0.11992
0.16461
0.221503
0.399447
0.233322
0.481526
0.404141
0.203766
0.331092
0.355366
0.389943
0.202984
0.448316
0.408862
0.30448
0.433487
0.120926
0.352435
0.324025
0.153339
0.457588
0.432782
0.1942
0.215252
393 206
76 449
270 345
487 233
392 28
142 45
500 243
244 345
11 40
28 387
91 143
135 157
41 468
266 114
208 45
177 465
393 76
203 220
250 261
223 412
333 127
409 472
199 325
315 156
266 146
32 122
328 292
263 140
350 464
363 182
176 415
201 195
326 186
201 284
67 298
195 23
431 29
288 117
398 267
457 323
5542.5
2
