40
11
0 0 0 0 0 0 0 0 0 0 0
88 83 98 54 59 35 18 88 86 11 13
78 83 14 72 66 19 64 27 43 44 18
88 38 10 29 39 54 19 22 97 37 52
68 20 81 26 25 39 38 21 10 91 19
37 53 18 72 24 68 79 22 76 70 83
97 51 74 17 89 22 77 40 11 82 89
81 44 79 47 60 51 34 77 30 59 30
41 97 39 94 14 41 39 35 20 100 31
55 44 91 86 38 61 56 72 67 67 17
30 46 54 60 44 11 14 10 22 57 48
20 93 26 54 20 46 81 65 39 50 66
77 88 35 77 71 30 61 99 81 77 58
34 42 95 31 99 93 92 60 14 65 86
47 19 88 88 87 15 24 96 61 99 59
55 66 32 80 55 32 30 94 29 25 76
39 39 31 69 48 83 42 56 73 20 41
45 51 96 12 78 39 30 44 68 35 14
72 85 41 64 94 63 76 63 23 59 98
25 56 26 87 57 22 13 81 47 31 60
47 14 60 36 13 14 70 58 58 82 45
74 42 85 83 27 38 65 15 67 30 88
82 71 98 34 70 46 64 73 77 78 80
65 41 44 26 24 15 14 31 19 34 70
10 66 75 96 55 31 65 39 51 82 53
89 33 27 28 11 95 18 50 78 38 81
26 97 15 36 88 84 47 56 72 85 28
98 34 73 25 98 76 90 25 81 94 99
52 68 60 70 37 59 86 59 100 100 64
63 18 71 100 20 94 14 17 68 12 11
13 12 34 73 31 95 64 34 42 73 28
51 76 98 29 67 39 31 34 15 27 81
13 53 23 74 70 68 74 38 14 85 83
37 83 56 39 54 55 18 83 56 36 73
45 76 64 17 69 97 33 11 39 93 19
52 11 24 56 47 51 39 72 82 14 71
76 66 11 53 67 95 13 54 80 98 68
18 94 17 10 92 48 90 48 98 23 16
22 22 93 79 35 64 46 15 34 90 80
80 72 25 74 92 34 77 27 63 84 82
0.580946
0.612706
0.515988
1.06445
0.619994
0.835
0.799102
0.480192
0.83118
0.564873
0.859541
1.47955
0.701122
0.765544
0.457028
0.385342
1.48289
1.40376
0.61661
0.631267
0.909082
0.885663
0.924449
0.519892
1.37815
1.13151
1.18979
1.17781
1.34997
0.745339
0.422233
0.622308
1.08903
0.48268
1.49643
0.948007
1.14809
1.18344
0.626936
0.765719
0 354
403 263
494 374
472 232
145 448
167 468
224 222
184 323
412 426
27 66
220 429
405 462
81 102
130 423
349 497
117 170
2 105
8 357
494 435
263 56
192 62
304 356
95 56
286 290
347 98
325 193
203 195
464 10
78 21
258 16
67 443
35 426
116 181
66 160
448 181
75 410
493 372
31 391
279 110
410 360
10475
1
