40
5
0 0 0 0 0
76 23 16 79 90
20 53 85 78 33
60 12 93 70 79
15 38 42 23 22
37 33 22 21 50
58 73 74 45 98
81 89 84 26 40
87 92 57 32 70
71 95 75 64 47
81 82 11 73 55
57 74 54 37 22
82 87 89 64 53
63 76 48 29 16
39 21 43 97 99
54 60 86 46 54
63 73 40 55 54
57 23 19 72 57
63 40 47 94 72
69 61 98 57 35
37 48 60 37 52
22 12 17 58 93
51 57 33 85 83
66 37 26 63 35
37 28 11 83 71
12 39 100 76 85
86 91 68 81 77
28 20 76 35 61
47 26 95 41 27
42 65 15 44 15
29 45 38 41 12
52 47 95 44 78
54 36 91 91 61
31 52 69 92 97
93 30 79 44 34
69 88 69 74 60
47 55 91 11 35
49 13 67 40 50
56 82 41 61 65
88 44 68 60 66
1.39739
0.356074
1.15356
1.38432
0.837347
1.13569
0.895404
0.921731
1.13894
1.4103
0.906991
1.01164
1.08384
0.894345
0.972125
1.45088
1.09131
0.537927
0.310616
1.16677
1.02606
1.42402
0.638169
1.21232
1.37524
1.16565
1.20987
0.686187
0.830938
0.504913
0.374574
0.431266
0.386907
1.26857
1.49148
1.46446
0.712588
1.41325
1.15944
1.47234
313 141
218 22
321 242
431 115
258 302
242 201
427 374
391 103
26 220
85 181
85 308
342 64
422 195
335 176
402 100
290 366
335 10
345 60
474 122
178 491
119 262
492 108
13 215
27 451
410 402
222 253
402 10
244 131
80 412
44 106
351 276
294 328
77 42
398 480
195 110
482 127
159 366
314 135
270 390
13 95
2716.25
4
