40
9
0 0 0 0 0 0 0 0 0
57 74 41 23 75 61 80 59 69
30 15 61 82 64 92 60 40 37
37 83 37 91 61 25 76 33 95
100 25 98 35 38 44 14 55 61
26 88 52 70 28 38 97 90 81
31 94 82 98 64 91 49 95 87
50 64 98 95 37 11 41 16 60
26 86 83 91 34 57 53 98 53
67 74 88 44 36 53 88 70 20
50 28 50 83 88 91 68 69 21
75 30 60 23 37 41 51 13 21
27 85 47 97 46 86 56 67 93
13 47 27 14 66 85 80 97 97
91 27 84 27 85 79 73 16 13
20 75 92 64 84 99 63 14 75
94 99 79 78 92 16 41 97 36
62 32 79 35 57 75 37 81 97
81 29 51 100 100 58 11 19 40
73 100 46 17 81 44 83 67 91
16 43 63 38 12 45 92 86 21
49 81 82 78 43 52 21 34 91
93 16 63 16 82 40 82 60 82
87 45 21 61 33 54 49 75 58
78 55 11 87 14 69 23 29 66
36 36 97 13 29 66 83 46 41
95 48 75 82 57 32 80 69 84
32 26 44 43 41 16 89 90 35
96 60 58 75 90 43 22 33 85
45 100 61 70 62 55 79 90 10
97 29 96 63 54 33 91 36 43
40 64 39 68 11 51 26 22 99
15 70 95 11 25 37 31 100 84
34 26 11 16 82 72 29 67 97
99 96 71 68 55 18 56 69 55
20 79 67 86 61 69 10 49 99
89 62 97 62 49 27 65 34 81
74 97 30 81 40 63 35 57 27
21 29 66 51 67 66 97 20 93
82 63 53 98 97 89 22 40 94
0.337542
0.68202
0.508636
0.496454
0.285854
0.596702
0.215286
0.301425
0.592425
0.33816
0.382888
0.783637
0.413608
0.234986
0.792165
0.655373
0.435638
0.239064
0.568198
0.329774
0.267257
0.408803
0.828704
0.271741
0.836194
0.21759
0.904849
0.425422
0.941655
0.979417
0.279022
0.321214
0.721568
0.868693
0.674664
0.737099
0.203327
0.827419
0.498704
0.341085
53 237
135 436
105 171
169 439
273 98
186 13
472 298
269 367
355 294
299 120
310 466
288 16
339 45
170 118
232 458
330 317
93 493
113 23
415 470
389 264
194 373
427 59
450 448
457 16
274 366
56 376
409 392
293 52
236 448
51 467
279 187
147 339
53 375
286 318
55 370
72 30
215 46
352 156
437 392
421 491
5692.5
2
