40
11
0 0 0 0 0 0 0 0 0 0 0
90 46 23 87 93 66 16 72 51 39 27
48 72 84 90 47 19 15 39 54 13 100
31 26 22 46 35 79 34 74 44 16 79
67 28 51 32 78 15 24 52 90 35 72
98 52 52 92 45 63 79 99 82 82 75
39 69 23 97 68 43 17 75 27 86 41
70 74 63 99 54 89 64 14 82 64 38
23 87 56 58 15 78 14 83 43 16 52
71 62 81 47 46 20 60 86 82 42 73
50 61 52 26 33 69 33 59 34 60 82
86 54 45 46 88 11 42 88 68 45 86
46 25 51 72 52 51 59 80 98 11 43
21 70 21 41 57 100 13 63 27 14 36
26 76 20 28 87 74 25 51 34 30 13
20 67 59 51 28 73 98 19 38 93 88
48 96 59 85 33 48 60 52 53 45 17
66 18 66 33 12 82 60 45 52 75 47
46 38 87 33 31 26 80 17 30 18 60
87 16 40 18 75 41 54 98 32 13 81
42 43 30 39 13 43 10 70 19 31 44
27 28 42 96 95 59 10 93 61 79 16
83 73 44 54 59 62 71 92 47 52 45
20 19 35 38 99 61 95 50 86 62 97
72 35 72 11 74 17 86 13 80 73 62
37 84 68 67 38 10 25 31 64 42 86
82 15 10 66 85 62 78 94 45 28 20
41 54 48 14 59 94 45 35 55 66 16
71 26 89 39 37 30 49 25 66 92 64
24 90 74 58 57 66 62 42 15 17 21
81 54 38 78 63 18 35 52 49 47 19
16 91 78 100 34 25 79 77 76 43 40
100 25 58 50 73 78 32 65 97 39 55
88 74 58 60 20 88 65 65 65 11 71
87 57 15 98 33 39 36 75 20 26 46
64 57 41 67 55 78 21 30 26 35 21
47 99 16 72 99 37 17 47 89 62 61
39 62 74 18 39 63 13 46 53 98 77
100 54 84 60 19 39 79 12 78 49 88
93 18 23 39 45 12 48 67 71 100 97
0.900001
0.664661
0.85106
0.409526
0.222044
0.759556
0.635252
0.354703
0.968327
0.695121
0.540139
0.695607
0.293418
0.245018
0.487719
0.562564
0.215135
0.875536
0.754721
0.856968
0.946634
0.629833
0.666382
0.350091
0.896505
0.506001
0.30686
0.448815
0.724295
0.347085
0.92428
0.938553
0.517318
0.739228
0.451096
0.723917
0.713453
0.742757
0.875081
0.251179
240 175
73 106
42 243
94 257
248 426
360 440
93 286
341 255
374 490
241 174
115 90
369 437
311 64
134 1
289 447
357 382
100 440
185 395
377 314
45 395
472 252
181 475
164 153
224 410
343 204
186 126
31 113
260 209
255 286
243 377
44 80
144 97
231 367
202 20
355 393
497 384
191 11
138 384
69 307
372 269
10380
1
