40
3
0 0 0
97 86 80
48 11 45
32 42 32
83 39 89
63 36 80
63 92 43
37 61 46
53 20 95
88 65 10
48 66 15
94 68 66
16 57 49
85 27 95
19 86 47
75 93 54
27 39 51
24 73 93
80 49 87
77 12 20
16 29 20
98 50 93
24 18 95
31 11 74
74 62 12
23 88 93
65 25 91
83 71 22
42 26 46
85 56 14
27 62 28
83 61 66
47 80 84
95 33 14
23 54 49
92 45 39
97 18 29
60 65 46
61 86 52
79 37 71
2.04734
1.13966
2.12206
0.522554
2.43715
1.09357
1.12793
1.13554
1.52296
2.33505
1.81033
1.31884
1.07898
0.713136
2.19026
1.78166
1.60383
2.19025
2.24448
1.33521
1.46507
1.96515
0.507817
2.24644
1.28753
0.539344
2.33195
1.34245
1.32278
1.07592
1.96604
0.801651
1.08538
1.08854
1.93782
1.7551
1.05685
0.963209
2.03379
1.18192
56 22
214 109
105 274
122 97
131 244
223 343
175 233
94 75
215 427
244 464
439 191
476 239
335 49
110 414
275 170
299 69
128 37
178 463
273 212
121 240
122 257
269 117
470 364
223 322
290 359
203 455
447 260
345 156
98 430
451 327
475 115
430 473
118 378
324 95
109 266
79 155
355 384
151 386
22 215
51 220
3581.67
3
