40
11
0 0 0 0 0 0 0 0 0 0 0
68 59 13 22 29 96 70 94 12 76 68
100 79 44 45 42 89 55 60 30 49 25
52 31 47 79 24 39 51 69 95 57 10
82 43 39 16 32 80 19 94 60 99 30
14 15 100 63 27 71 72 56 60 89 23
96 24 20 76 60 98 79 89 16 44 37
57 89 64 59 79 21 95 84 91 78 33
44 90 86 98 77 25 82 52 81 52 97
40 14 98 35 76 43 35 37 35 77 32
99 76 60 20 81 27 92 42 80 24 58
79 80 66 61 63 97 84 29 20 20 58
35 99 71 63 86 58 66 18 56 45 54
36 10 35 88 59 63 54 71 99 43 55
59 48 16 40 67 21 99 20 51 93 34
67 80 39 41 10 47 43 50 54 16 39
41 79 47 35 33 29 16 50 98 19 33
21 42 14 85 57 52 82 18 29 32 91
83 97 11 51 85 72 26 15 35 79 66
53 72 48 30 93 20 69 46 38 63 11
91 12 75 17 27 56 72 25 69 60 17
36 60 30 96 43 58 75 38 61 59 63
100 44 64 37 24 14 65 84 57 54 41
81 74 49 68 67 58 35 58 78 22 49
19 42 37 34 66 74 25 87 85 40 34
86 100 100 60 40 60 64 56 52 54 64
85 22 97 69 65 27 31 74 29 17 83
81 36 56 41 87 71 53 72 67 37 90
89 49 37 44 70 65 29 83 11 40 49
69 90 17 100 86 37 33 88 64 24 51
75 39 51 26 16 36 52 21 96 84 12
80 80 37 90 93 56 66 58 60 27 80
38 90 100 66 74 19 72 80 93 24 81
31 63 78 92 55 12 33 74 31 58 37
43 47 63 88 24 23 63 54 63 89 46
94 33 28 41 89 34 96 80 14 15 20
47 33 70 24 46 23 43 66 99 85 89
77 36 77 56 78 45 44 63 39 37 58
59 85 72 78 23 24 82 19 100 35 67
23 100 26 97 14 67 93 17 34 46 52
0.389494
0.440707
0.456905
0.238035
0.210841
0.293079
0.148988
0.392451
0.35647
0.441725
0.216475
0.123893
0.227494
0.384193
0.322044
0.392485
0.137805
0.279922
0.192177
0.182274
0.305223
0.226993
0.377506
0.210259
0.476083
0.422423
0.159514
0.187906
0.132375
0.132026
0.108481
0.134494
0.464284
0.376286
0.329757
0.382802
0.352514
0.234739
0.471929
0.4755
220 118
229 314
431 73
366 121
155 145
388 429
22 239
45 466
364 309
3 427
295 365
255 253
323 86
450 382
317 444
35 318
50 105
219 24
464 356
209 443
292 261
71 311
366 236
467 383
68 361
266 70
200 262
480 376
167 274
284 204
25 236
152 308
140 16
96 86
472 190
279 200
364 258
148 50
73 295
228 335
10780
1
