40
11
0 0 0 0 0 0 0 0 0 0 0
80 53 53 94 92 76 47 97 78 73 77
19 80 37 100 10 11 43 63 35 12 97
19 63 26 46 37 84 10 40 93 39 27
57 80 95 23 43 92 27 82 44 27 16
31 76 60 98 71 21 58 71 33 70 48
68 86 21 25 63 51 17 45 12 35 17
45 61 34 20 51 21 45 77 31 56 23
35 22 30 53 57 76 44 70 29 80 100
56 46 37 84 43 59 62 38 51 38 33
34 29 77 10 49 58 58 92 66 36 86
45 29 31 85 42 76 66 34 85 97 60
65 100 64 55 89 28 66 30 37 93 40
33 15 100 85 29 55 36 43 53 77 81
37 87 75 84 44 95 44 74 13 40 53
13 82 87 66 92 41 20 88 65 74 10
12 55 12 27 86 41 59 40 10 86 32
15 10 42 32 88 33 89 76 79 36 97
56 82 26 27 63 89 66 32 56 64 13
24 88 12 36 24 65 15 98 14 49 56
16 18 69 80 81 47 78 24 20 11 64
88 84 89 20 26 95 61 67 92 58 20
52 23 64 24 68 54 48 47 38 100 74
44 38 90 89 69 84 22 31 100 91 71
73 23 69 44 44 10 47 57 96 37 97
80 90 18 65 70 50 83 88 87 98 38
61 69 29 66 17 83 29 22 56 48 89
72 33 65 73 72 44 60 24 75 48 76
74 64 62 42 31 41 42 72 74 22 43
54 19 14 59 19 67 81 35 73 75 25
49 96 52 26 96 94 70 75 12 50 62
15 98 92 86 28 75 17 11 21 21 63
36 10 20 42 26 90 79 67 32 18 60
36 70 17 55 97 68 46 46 52 40 87
60 72 35 55 56 21 39 80 57 37 59
93 17 31 77 82 26 91 91 87 77 76
31 25 71 73 92 58 35 63 46 32 60
23 73 29 95 14 28 88 41 29 62 86
39 68 33 25 48 70 57 60 18 60 33
63 44 18 26 95 67 20 65 81 97 99
0.969582
0.46393
1.42419
1.97149
1.29139
1.90407
0.796785
1.34615
1.26289
0.816112
0.822849
0.702312
1.61341
0.892411
1.52
1.74025
0.73654
0.995772
1.46817
1.5358
1.38235
1.72201
1.3973
1.44672
1.7237
1.83335
0.718817
0.720471
1.47086
0.507309
1.6491
1.8205
0.773584
0.530329
1.3883
1.05687
0.717989
1.05678
1.66788
1.92254
266 20
448 168
380 400
143 290
352 268
87 140
281 489
22 12
419 209
5 26
189 300
286 497
410 289
201 122
140 103
123 500
260 168
115 478
499 318
84 84
372 244
140 79
119 132
423 43
312 120
83 230
71 495
244 248
312 106
158 237
370 189
57 351
319 413
82 215
111 399
255 53
150 84
21 144
127 424
32 198
2104
5
