40
3
0 0 0
24 62 70
23 65 86
76 93 57
31 97 29
56 12 12
17 65 98
14 80 34
82 95 20
12 41 95
58 81 38
79 91 52
59 25 84
98 57 30
36 82 59
75 65 89
75 38 74
22 79 48
80 58 92
92 74 88
60 85 12
64 75 24
81 32 75
26 43 96
13 93 49
59 79 29
15 100 51
10 63 81
81 50 31
42 29 18
13 74 96
24 81 93
99 32 10
79 97 44
54 77 40
16 43 44
98 65 32
43 51 64
29 78 95
30 88 91
0.14275
0.13531
0.477473
0.276249
0.138082
0.237669
0.453118
0.391998
0.380426
0.326414
0.156154
0.471725
0.130696
0.202669
0.37404
0.441905
0.210612
0.224355
0.24707
0.101122
0.210657
0.12042
0.320858
0.200218
0.176902
0.186276
0.145021
0.491381
0.255063
0.359796
0.268375
0.464898
0.327473
0.382756
0.427302
0.254984
0.123116
0.163146
0.296671
0.366646
99 138
229 335
81 269
173 90
253 50
377 74
231 453
196 87
131 13
23 156
85 498
403 40
338 406
42 38
340 348
445 276
317 319
335 477
205 29
490 456
339 270
308 332
375 368
303 68
424 493
359 353
347 335
409 295
115 122
312 180
76 471
110 246
440 470
94 241
420 357
383 350
196 364
383 36
208 305
325 180
2256
5
