40
7
0 0 0 0 0 0 0
49 13 26 27 72 56 64
90 64 64 74 90 87 43
78 80 21 45 77 60 92
79 40 38 11 35 56 63
27 22 75 57 52 16 89
53 99 45 90 74 87 77
40 97 23 75 73 79 27
14 62 17 86 98 13 24
67 93 60 20 43 55 39
86 20 63 32 81 97 24
96 48 91 83 67 65 84
35 98 80 21 97 59 33
48 36 82 61 29 90 28
19 25 12 45 18 53 53
46 72 13 81 46 65 69
78 24 94 39 68 26 32
29 86 72 75 78 99 41
14 17 78 87 27 84 22
93 73 73 35 53 39 56
35 14 29 91 36 34 75
60 41 74 44 62 96 92
13 30 76 87 59 76 71
45 34 55 61 45 48 59
32 26 30 32 88 89 90
88 45 36 56 38 40 47
44 84 63 42 95 59 76
41 63 71 39 31 43 56
12 54 55 76 65 71 59
48 43 97 12 80 38 18
92 68 44 31 94 72 80
93 23 87 75 85 46 54
72 36 28 30 41 41 14
23 93 74 76 57 69 11
13 61 78 79 63 52 66
73 36 89 95 85 60 20
66 66 79 50 12 95 11
43 33 58 21 95 71 81
37 75 18 56 70 48 73
77 82 82 22 92 47 58
0.708905
0.808065
1.07775
1.99375
1.84021
1.36935
0.77312
0.728136
1.21627
0.421792
0.501399
1.50182
1.05789
0.588695
1.43719
1.08641
1.60124
1.63034
1.27577
1.01675
1.89547
0.902374
1.82066
1.67369
1.42064
1.0429
0.418843
0.75948
1.43209
0.763618
0.906005
1.41056
1.89983
1.53475
1.68525
1.2603
1.82489
1.49846
0.647166
0.558662
61 25
103 28
5 388
194 118
294 340
494 250
263 274
221 269
23 357
296 478
134 179
203 216
263 7
71 167
272 41
337 259
332 182
282 136
192 381
263 349
401 75
236 132
364 88
279 22
330 53
178 409
48 438
345 317
181 237
235 290
240 49
431 319
491 396
482 91
400 416
71 235
432 109
158 441
365 288
299 59
11010
1
