40
9
0 0 0 0 0 0 0 0 0
52 45 59 45 98 97 20 66 18
29 92 10 72 41 78 56 66 57
69 37 13 28 78 67 72 42 77
78 11 41 99 69 10 89 73 96
62 37 16 62 29 29 44 100 76
60 32 35 72 67 86 100 49 27
17 84 51 90 31 86 18 22 50
89 24 99 100 62 18 68 65 52
17 93 11 18 19 46 11 96 30
42 19 29 68 49 19 12 44 94
72 79 33 43 45 54 31 57 52
87 23 47 60 70 11 82 25 71
24 71 73 33 49 53 97 22 63
26 87 70 55 50 15 11 64 36
76 24 46 29 82 38 81 36 72
98 12 47 10 86 43 18 60 88
89 95 80 45 25 13 87 38 76
89 90 16 45 50 74 74 84 11
41 62 92 50 27 27 68 56 23
60 42 52 43 74 11 70 18 62
85 97 81 80 85 67 78 43 64
42 50 84 59 61 59 96 34 74
57 13 96 77 25 56 19 76 30
33 60 24 14 57 60 49 25 12
19 40 37 63 30 17 45 82 38
89 30 42 50 20 36 54 57 79
79 62 46 80 77 95 88 53 73
27 31 62 83 95 14 73 44 39
45 83 41 99 30 95 82 29 48
46 23 85 36 38 85 27 92 62
78 24 12 29 74 73 57 52 98
88 18 27 18 35 15 21 68 97
43 90 73 95 25 70 82 78 63
40 91 98 31 21 68 34 22 53
92 100 10 98 30 59 21 54 76
97 88 76 38 83 75 40 31 94
21 31 36 46 14 27 94 42 33
56 73 99 27 35 22 97 47 11
77 53 87 31 70 19 40 14 92
0.643153
2.27252
0.713656
2.20477
1.61498
2.03965
2.40952
2.27108
0.792458
1.42022
2.05213
1.27118
0.599387
1.74527
1.69395
0.874954
1.76487
2.17349
0.595078
0.680768
1.04038
1.06111
1.03596
1.21566
2.42271
1.22695
2.45336
1.78038
2.39924
0.770274
1.54408
1.79982
1.93123
1.97879
1.79784
0.837217
1.75736
2.4564
2.32238
1.55524
221 423
478 479
265 238
101 436
184 98
398 76
266 428
405 371
448 311
378 479
372 45
378 114
276 3
446 63
9 314
10 178
481 323
312 336
130 270
380 38
139 477
462 202
486 85
385 71
226 244
114 96
167 282
258 165
228 191
278 257
321 314
423 450
148 45
330 78
2 33
447 278
343 360
245 449
263 22
486 263
2632.5
4
