40
9
0 0 0 0 0 0 0 0 0
42 33 77 73 47 98 80 36 37
34 71 71 23 79 11 86 12 13
40 78 61 59 42 96 56 74 73
100 51 95 30 63 100 18 24 13
28 79 42 10 46 17 14 52 77
17 77 97 41 21 62 66 72 66
68 28 52 87 21 77 69 26 84
49 93 84 71 72 59 36 10 78
89 97 88 85 22 34 79 94 73
22 27 45 21 99 89 18 86 27
75 60 46 69 92 95 98 78 74
20 21 79 26 26 35 76 92 98
32 98 29 16 34 19 31 76 67
83 39 51 81 13 67 81 98 62
84 69 56 90 94 11 93 21 84
69 54 24 46 46 86 23 77 65
53 22 43 35 22 24 91 48 70
73 72 36 34 69 83 97 62 44
91 59 41 65 58 80 39 80 56
98 90 96 17 10 56 51 57 90
73 46 36 40 73 19 88 64 48
51 85 34 81 47 48 82 38 87
28 95 40 90 90 59 43 14 46
72 82 54 78 29 79 21 95 67
29 86 82 63 25 57 55 88 14
90 87 49 47 78 29 54 35 29
21 27 51 43 13 52 10 81 49
46 59 68 87 50 10 36 18 95
41 45 68 98 54 63 22 55 81
35 34 65 57 21 91 82 10 75
55 11 16 86 47 29 46 44 14
17 46 92 31 82 20 12 89 85
22 96 53 38 50 84 63 50 86
41 28 58 73 33 44 82 48 19
52 63 62 53 55 44 23 35 22
81 37 12 33 90 42 19 54 81
18 57 92 19 80 88 41 61 14
14 18 50 20 36 12 84 65 64
15 49 33 39 91 58 97 19 29
0.541967
0.904026
1.2789
1.12052
0.92088
0.533554
1.70544
0.937784
1.57291
0.833057
2.27969
1.25088
0.544556
2.20741
2.23213
1.44676
1.79854
2.37896
1.50917
1.16762
1.41754
1.54795
2.11913
0.955855
2.05213
0.874725
1.26304
2.3599
0.922955
0.89264
0.5516
2.03373
2.21863
0.975299
1.42784
0.68383
1.55156
2.45782
1.34707
0.595041
308 102
353 29
213 335
107 51
178 490
153 189
143 287
335 483
397 137
122 248
362 459
454 153
377 467
181 280
152 14
184 419
301 293
187 204
358 289
16 69
141 417
224 94
233 490
296 342
463 94
435 313
35 440
378 82
383 47
84 450
453 341
200 347
451 270
98 324
206 202
422 109
408 289
260 498
119 432
0 230
2135
5
