40
3
0 0 0
69 97 47
50 37 73
85 81 53
92 76 85
66 40 13
23 78 14
32 84 54
85 78 47
60 50 84
56 72 28
92 82 64
43 55 15
65 38 70
28 37 39
25 63 17
50 73 64
46 26 21
31 96 37
43 21 41
91 100 77
91 68 81
48 52 58
78 13 63
20 49 17
80 29 51
26 81 76
33 76 47
100 50 71
73 89 46
49 55 27
17 15 12
74 48 34
52 38 57
16 52 23
65 15 55
83 11 45
89 48 25
73 82 35
19 28 38
0.297037
0.846751
0.436884
0.816937
0.322185
0.431602
0.469132
0.776879
0.316781
0.807348
0.502568
0.502796
0.495977
0.382922
0.842212
0.475022
0.458293
0.231615
0.632262
0.818077
0.945671
0.687773
0.901656
0.318028
0.605574
0.880644
0.257564
0.981479
0.45469
0.200332
0.36235
0.642483
0.260961
0.732316
0.74392
0.924237
0.978967
0.874511
0.958243
0.771442
285 285
131 52
268 15
43 299
486 494
13 110
153 231
466 97
324 396
354 153
264 276
333 261
86 446
256 139
499 164
463 83
219 274
155 493
174 170
172 495
324 121
33 218
140 87
188 25
17 261
490 487
34 144
115 255
248 305
370 11
321 374
283 306
327 443
236 461
483 180
195 320
256 180
491 334
384 485
102 383
3446.67
3
