40
11
0 0 0 0 0 0 0 0 0 0 0
72 92 19 99 67 40 31 90 48 80 84
89 86 32 74 28 82 44 52 63 43 69
72 93 47 26 77 32 52 46 83 35 59
83 39 79 29 59 65 88 58 29 33 76
16 46 69 71 21 39 65 32 43 68 16
85 43 25 30 18 78 58 35 66 45 35
79 85 32 31 87 37 13 17 92 75 29
37 97 56 55 13 81 81 13 31 30 17
21 97 45 14 23 86 26 12 57 55 86
43 76 13 56 86 67 49 60 88 88 52
65 12 17 29 32 18 33 12 85 67 25
75 57 37 27 41 12 49 24 98 25 90
46 60 23 42 25 29 21 86 38 17 66
67 94 46 30 57 48 98 74 65 25 22
41 23 64 48 63 91 41 44 30 95 73
88 19 71 52 22 53 80 10 56 30 10
38 91 25 49 22 52 66 61 84 78 30
43 60 38 71 95 16 26 67 52 95 77
18 48 100 81 10 20 36 22 63 12 93
51 78 91 81 79 75 57 92 100 47 100
22 46 52 27 100 68 89 34 69 38 67
100 55 43 39 70 34 67 46 34 73 11
80 10 29 82 37 54 54 57 19 20 22
96 15 70 55 12 61 99 30 54 40 73
13 96 49 85 30 53 52 29 52 80 29
94 59 24 60 72 92 79 13 90 93 27
26 31 15 75 96 85 79 92 38 88 47
74 46 81 74 71 14 14 66 77 61 44
70 52 85 29 84 25 28 99 68 97 18
91 64 97 19 71 33 99 28 17 31 50
44 88 30 15 24 34 56 43 54 15 100
32 78 11 49 30 24 61 65 68 31 35
27 43 94 22 21 81 16 92 66 72 64
39 31 31 33 55 55 88 42 100 69 47
68 30 80 70 30 28 49 35 20 73 31
53 87 77 98 82 97 88 89 93 56 30
68 28 75 100 86 30 47 23 95 35 79
96 47 83 54 45 29 16 45 73 37 91
33 11 78 26 66 40 90 24 81 74 99
0.143529
0.145106
0.272311
0.347245
0.348033
0.352521
0.479261
0.347443
0.176418
0.133141
0.351006
0.233609
0.486985
0.444393
0.191865
0.104674
0.390424
0.484266
0.412344
0.313079
0.223614
0.484978
0.138201
0.268958
0.484325
0.176112
0.433913
0.385171
0.141598
0.212796
0.243237
0.433638
0.177879
0.24631
0.221577
0.376806
0.302787
0.496426
0.457808
0.174102
496 453
61 286
211 159
426 459
55 391
46 100
279 26
173 240
492 438
16 367
328 324
148 16
375 491
343 459
435 129
252 30
132 102
25 444
252 213
490 238
4 486
74 333
388 224
448 95
391 147
435 76
238 220
394 344
375 411
162 166
421 245
283 94
187 402
300 368
208 62
212 166
103 424
447 348
289 204
84 195
3508.33
3
