40
9
0 0 0 0 0 0 0 0 0
48 87 89 76 13 81 92 16 59
13 39 76 49 58 59 37 38 57
32 84 62 47 27 92 39 95 91
72 36 34 89 49 46 97 36 45
72 47 76 24 55 60 35 31 10
12 80 28 97 61 95 99 81 82
16 96 79 62 35 19 32 41 10
56 22 37 52 13 32 82 29 15
71 90 74 83 72 69 80 86 34
84 31 90 51 79 82 37 71 68
33 66 36 43 38 90 47 91 98
56 76 53 66 51 16 68 75 12
30 96 56 81 12 65 34 95 84
20 60 57 66 48 35 68 30 51
96 91 36 57 17 77 37 75 40
37 50 79 43 60 34 76 94 20
14 100 43 90 69 53 23 37 63
62 90 33 41 74 75 61 59 83
68 92 24 99 42 76 72 39 13
30 22 70 61 61 33 40 47 87
21 55 100 34 15 35 25 49 32
40 77 47 85 26 31 88 12 27
95 60 38 27 29 30 87 86 67
22 34 57 96 98 32 54 44 97
11 83 96 29 43 34 17 79 84
58 93 56 50 60 55 29 62 62
68 55 65 74 76 33 12 14 68
38 14 23 34 70 93 73 10 87
69 79 34 26 93 27 20 43 71
33 45 33 34 76 87 65 97 20
23 61 32 59 19 12 44 77 76
58 79 61 74 61 89 48 15 22
91 61 12 35 25 45 100 97 42
30 50 71 90 84 41 24 30 22
70 19 21 46 100 75 57 96 26
46 75 33 90 62 91 88 66 57
88 43 98 15 99 50 19 66 51
65 31 89 38 13 66 22 100 39
53 69 32 74 90 91 10 30 18
1.13709
1.02551
1.31504
1.76568
0.890527
0.915287
1.70518
1.55963
1.58995
0.625873
1.44994
0.444349
1.7716
1.80473
0.72137
0.595523
0.751787
1.57148
1.26462
1.74413
0.772085
0.47292
0.897169
1.36206
1.58727
1.42559
0.810067
0.533651
0.754556
1.16563
1.41701
0.834243
0.525328
1.96881
1.43445
1.98983
0.885087
0.826638
1.91185
1.86177
498 436
49 115
223 193
292 150
227 342
304 461
471 294
129 302
138 71
395 151
394 129
80 90
492 145
274 474
491 146
26 97
273 57
30 349
243 362
124 159
453 254
126 226
151 23
204 55
350 266
70 451
351 114
44 398
255 264
343 224
181 413
60 147
62 413
233 160
318 18
277 100
248 244
436 374
98 213
223 148
3573.33
3
