40
11
0 0 0 0 0 0 0 0 0 0 0
54 62 26 17 68 57 43 65 83 25 15
17 24 24 97 71 42 27 32 29 76 91
32 24 72 73 39 74 52 11 18 78 70
64 93 49 27 93 41 83 62 88 17 72
76 92 92 24 34 25 50 100 37 39 52
75 78 30 65 92 21 94 23 75 35 13
57 81 21 87 69 54 55 78 14 57 18
48 90 48 18 84 23 77 95 91 93 90
67 44 49 72 39 90 99 91 69 74 83
12 39 75 94 84 14 15 56 27 20 34
71 95 15 77 96 15 90 88 95 21 92
60 86 45 57 24 36 20 51 65 17 67
29 71 83 76 42 69 36 20 67 49 92
25 15 81 20 46 87 16 82 91 46 36
60 67 99 67 42 81 21 49 84 61 78
50 97 94 93 19 18 87 78 10 96 13
86 73 100 72 47 75 87 74 14 80 71
57 79 22 46 38 85 96 63 100 92 58
17 95 10 15 81 50 64 75 74 38 100
85 57 32 42 14 87 99 92 76 84 70
66 26 65 100 58 28 49 75 54 51 39
58 74 51 30 94 88 99 12 79 36 79
67 61 58 40 40 69 83 41 97 78 78
46 28 81 76 82 62 28 15 83 45 55
14 10 66 69 81 40 27 43 18 63 97
86 64 82 43 55 48 63 51 19 69 63
72 84 17 95 48 80 94 74 91 46 29
60 60 62 44 54 80 56 10 97 51 57
27 73 17 44 88 75 74 36 41 82 80
44 13 35 69 96 31 32 15 64 82 46
66 19 77 72 93 99 41 77 55 64 98
38 23 88 75 86 35 43 53 100 16 56
23 65 86 100 89 61 97 72 48 32 11
93 48 66 59 74 66 79 18 15 64 41
97 25 76 34 52 12 81 42 33 25 18
83 67 72 43 12 24 75 16 59 94 31
20 84 100 16 62 29 76 90 71 13 89
27 55 39 22 74 55 98 46 32 79 97
77 22 10 96 35 24 93 29 61 13 15
0.441693
0.470722
0.478774
0.517031
1.11362
0.993853
0.517022
1.05826
0.575907
0.689312
1.10556
0.713571
0.833767
0.354768
1.06709
0.528929
1.16643
0.548442
0.930204
0.401393
1.01804
0.783666
0.735563
1.22889
0.867422
1.12873
0.820786
1.39041
0.912326
0.633339
0.336653
1.01331
1.48499
0.538833
0.422345
1.34977
1.04769
0.387852
0.313223
0.907519
352 406
136 264
95 463
69 350
322 382
297 455
71 120
500 189
462 177
12 145
420 201
454 329
63 95
244 219
174 111
303 292
325 346
123 107
222 100
461 270
144 242
365 460
119 361
293 169
199 199
270 206
137 189
381 234
402 175
199 451
211 290
328 383
426 85
79 265
370 472
157 365
294 205
22 0
77 288
239 290
2796.25
4
