40
3
0 0 0
72 16 36
56 86 37
61 81 73
89 49 27
30 11 50
47 77 45
97 19 46
72 34 100
59 68 87
62 14 88
36 16 50
35 36 20
39 32 48
30 64 78
78 67 89
19 62 78
59 72 70
69 27 25
71 75 37
13 29 89
76 19 44
92 53 24
35 23 92
24 35 90
67 21 69
81 13 47
85 92 46
60 82 45
28 58 17
78 19 39
98 71 23
68 64 70
42 87 42
28 28 73
26 79 35
73 79 93
29 79 58
32 40 43
91 70 73
1.31243
0.96428
1.43469
0.374542
0.456913
0.798755
0.729265
0.837904
0.861104
0.989103
0.46326
1.4991
0.369741
1.12748
1.45337
1.18877
0.689105
1.01095
0.584201
1.09858
0.889934
0.858039
1.08473
0.439593
1.25505
0.620926
1.23663
1.31528
0.585165
1.17912
0.476226
1.01519
0.636144
1.07772
0.567886
0.969246
1.20252
1.0057
1.14884
0.691412
458 363
279 17
134 82
183 342
316 192
156 53
124 50
443 496
393 123
493 283
29 35
192 244
178 417
200 187
395 130
409 106
47 418
155 458
383 384
171 59
293 452
17 335
358 92
483 192
211 334
167 295
94 11
220 320
423 410
8 266
48 124
443 379
194 269
416 142
404 150
195 467
471 296
297 146
497 170
342 176
10580
1
