40
5
0 0 0 0 0
56 98 21 96 78
23 96 11 50 86
64 28 86 33 68
81 84 99 15 20
18 41 94 18 33
66 78 53 49 19
22 27 31 50 82
34 16 86 57 84
10 29 11 75 64
22 37 62 13 58
21 12 23 29 10
62 21 68 89 36
17 96 91 79 30
36 57 51 76 85
47 93 97 23 63
92 80 17 89 69
77 25 91 100 98
63 62 96 50 90
60 52 39 79 52
76 90 14 16 87
93 61 91 89 90
77 59 23 65 11
28 21 30 93 12
77 51 66 96 82
57 14 59 87 57
48 59 61 84 81
39 36 83 30 10
10 15 90 65 86
15 66 69 94 70
37 100 64 96 47
72 89 77 57 47
58 53 88 34 62
77 47 36 39 97
19 27 54 81 56
71 38 88 20 98
47 83 44 17 95
20 57 52 68 25
53 14 94 51 34
50 98 86 59 78
1.12434
1.97535
1.04435
1.63607
0.723538
1.8629
0.516985
0.515826
1.80791
1.91447
1.15396
0.504681
0.407693
1.83945
1.97778
0.953478
1.92407
1.13698
1.58563
1.65312
1.85493
1.63096
1.21392
0.610889
0.628569
1.9818
0.884308
1.08402
0.866776
1.25019
0.586832
1.28101
0.521977
1.62587
1.04108
1.07345
0.484926
0.712162
1.51691
1.80516
148 64
142 339
322 92
222 344
365 95
49 498
425 404
120 357
239 74
451 301
29 193
215 211
410 215
90 122
450 271
291 88
484 108
81 323
469 490
410 205
431 48
448 246
285 271
308 148
422 132
58 195
189 160
106 112
33 457
366 84
182 435
382 272
35 238
83 417
24 461
324 498
345 115
125 411
416 352
183 408
3686.67
3
