40
3
0 0 0
89 17 86
44 80 88
19 11 54
60 45 96
25 70 32
69 66 55
60 55 61
38 21 21
77 81 40
92 62 41
70 69 74
42 58 15
61 34 38
80 21 49
97 15 65
12 16 42
94 89 49
61 51 64
49 13 66
15 88 58
46 99 93
61 54 21
16 78 23
94 35 88
86 89 82
31 86 42
60 58 25
39 55 26
99 28 84
63 84 47
32 80 10
100 10 63
18 78 14
68 41 69
30 75 73
49 72 94
72 12 83
67 40 31
10 25 11
1.44634
0.491235
0.785168
0.634696
0.892419
0.478609
0.44761
0.579622
0.954463
0.514529
1.06701
0.711965
0.409152
0.332776
1.27141
1.12814
0.758754
0.523727
1.48087
0.325024
1.29463
1.2256
0.506019
0.390504
0.755023
0.973137
1.03777
1.2549
0.57536
0.79906
0.722256
0.43788
0.564811
0.819192
1.40149
0.339908
0.902314
0.788393
1.44449
0.456983
70 39
175 50
239 464
379 196
317 312
129 384
422 287
424 37
352 282
119 412
291 318
346 207
93 230
154 377
358 417
486 393
293 188
104 470
64 286
108 101
379 345
176 117
245 37
271 191
156 321
316 175
377 227
380 386
233 386
185 134
337 139
219 341
104 48
433 300
491 452
428 29
71 424
204 25
1 296
294 435
5272.5
2
