40
5
0 0 0 0 0
10 38 73 31 33
90 90 22 48 53
67 28 34 98 55
83 17 29 98 41
46 14 41 61 62
60 56 75 82 78
16 55 22 58 68
40 98 13 33 100
37 40 97 70 83
18 83 87 40 62
16 77 74 37 93
94 14 34 66 48
15 21 57 65 41
25 98 25 24 39
18 83 71 46 56
56 54 17 84 98
16 19 28 97 75
46 78 35 84 74
74 12 10 69 93
49 26 26 73 11
40 64 65 98 13
44 76 61 53 16
69 63 23 40 26
55 43 31 50 39
12 38 50 96 87
77 42 21 38 78
76 69 69 98 89
59 83 27 38 18
15 38 15 56 72
59 38 58 54 93
95 27 50 96 96
57 20 76 91 82
14 97 97 81 16
54 65 64 39 29
39 81 52 76 81
75 37 91 24 39
97 65 31 99 47
53 54 26 42 91
29 66 91 13 35
1.18709
0.825563
0.610641
1.33173
1.06282
0.333756
1.06368
0.749081
0.954991
0.981785
0.873616
0.895321
0.631089
1.47887
0.873397
0.889561
1.36893
0.725478
0.581295
0.354007
0.531428
1.43859
0.906078
0.879574
1.36879
1.11366
0.425466
1.08853
0.442133
0.937996
1.25334
0.513554
0.305358
1.02055
0.782399
0.436788
0.952677
1.38894
1.41465
1.33786
366 413
425 238
448 64
142 235
158 490
164 312
319 415
12 219
211 325
437 303
165 42
161 276
446 7
64 475
418 168
380 442
157 312
185 266
359 244
72 388
115 386
318 49
47 370
320 396
218 472
420 437
109 29
159 142
318 221
488 12
454 247
33 125
227 182
155 487
80 5
35 260
225 415
229 209
173 151
436 293
2646.25
4
