40
7
0 0 0 0 0 0 0
26 70 12 44 98 98 36
69 37 19 76 40 65 47
48 79 52 94 68 60 18
88 18 17 86 97 51 63
80 86 96 49 45 15 19
64 85 62 98 58 93 95
52 82 31 45 10 73 47
67 51 61 59 18 11 12
59 73 41 88 56 98 18
78 34 89 42 54 26 26
44 69 31 36 46 86 22
85 23 63 48 56 98 39
16 22 89 58 12 90 43
10 29 45 44 98 22 37
100 11 78 10 90 59 13
77 70 38 23 10 15 34
96 48 12 22 42 78 41
15 61 99 55 37 12 100
88 30 81 77 69 28 67
100 80 80 36 22 83 76
57 13 15 39 69 44 40
68 11 22 40 98 78 12
52 56 26 18 86 60 49
72 31 13 42 19 82 87
53 84 25 18 64 35 74
87 29 100 58 77 13 38
52 71 74 85 22 12 10
35 94 37 82 47 11 22
55 22 47 63 71 96 81
67 70 86 61 66 30 66
61 70 97 40 77 13 89
60 77 53 35 21 58 15
96 87 42 72 99 36 36
88 38 90 38 34 98 60
18 61 70 57 75 78 52
17 64 26 15 79 33 35
28 42 38 97 61 26 34
12 84 36 33 64 83 89
25 43 47 70 36 49 20
0.89051
1.07083
0.337496
1.12913
1.06358
1.36161
0.372979
0.780918
0.522614
0.565474
0.329769
1.14611
0.377513
1.4613
0.661996
0.344986
0.542912
0.810385
0.365983
1.34592
0.659919
0.693874
1.00998
0.976453
1.35011
0.520638
0.465609
0.927161
0.923757
0.544994
0.379199
0.499146
0.868568
0.946942
0.435564
0.498866
0.834899
1.1529
0.616355
1.15844
105 439
161 469
193 319
463 79
274 96
493 273
144 119
472 232
92 39
428 456
278 388
175 154
112 485
91 204
479 14
182 373
443 103
81 331
28 463
265 242
279 208
332 226
222 336
35 214
317 42
379 406
302 159
315 443
118 22
313 325
409 241
256 145
314 189
381 497
40 173
331 269
20 434
422 227
124 102
243 119
2591.25
4
