40
5
0 0 0 0 0
13 53 94 55 51
10 63 40 67 77
41 93 40 94 93
69 95 78 10 31
33 82 89 40 56
61 58 54 31 42
99 79 61 80 48
13 73 39 69 36
19 39 27 43 100
99 52 58 55 69
38 27 24 25 35
100 100 65 56 77
10 38 28 24 42
20 33 23 43 84
10 33 12 80 95
17 74 82 87 33
11 14 13 61 43
92 10 80 76 15
67 83 88 84 16
54 53 36 82 19
69 74 44 18 41
15 83 46 24 18
70 18 50 12 54
89 27 92 66 49
67 21 10 10 60
86 33 73 79 77
14 15 38 21 79
68 52 79 67 73
89 37 69 71 72
87 49 25 98 42
92 93 60 55 44
11 12 11 70 56
65 80 24 41 28
19 88 85 37 83
51 34 49 47 27
22 34 65 10 79
89 31 60 60 54
66 64 38 44 36
67 74 57 24 17
0.609199
0.945039
0.725705
0.762938
0.902006
0.987088
0.200665
0.424057
0.843953
0.753182
0.320201
0.824307
0.422382
0.291889
0.893166
0.892092
0.473145
0.821407
0.486072
0.937822
0.953078
0.783464
0.928368
0.711565
0.326573
0.942209
0.590395
0.565955
0.818509
0.442559
0.26832
0.961402
0.885823
0.957439
0.331338
0.325255
0.822042
0.85991
0.526231
0.662076
390 93
188 298
61 250
185 439
372 370
69 379
133 172
329 336
441 21
251 97
34 222
208 13
295 483
255 334
77 415
375 97
51 252
211 117
16 56
257 18
227 480
381 411
226 50
437 389
4 108
283 80
131 299
299 347
54 74
318 459
122 79
466 468
213 84
47 478
337 272
426 56
294 150
460 47
9 167
167 330
3385
3
