40
5
0 0 0 0 0
53 92 46 36 98
25 70 20 35 16
28 34 23 89 72
79 38 43 36 17
74 37 16 41 70
58 46 19 96 40
24 39 64 56 79
14 90 77 10 79
48 75 23 67 23
71 36 10 14 80
64 80 61 29 59
15 42 47 66 32
72 93 99 61 55
58 54 22 89 48
40 62 45 12 73
28 40 36 17 56
30 27 73 72 62
32 50 58 50 59
37 85 27 56 78
81 17 25 72 76
56 92 34 24 15
99 25 29 85 62
100 12 59 55 13
90 71 20 78 39
100 54 90 35 72
26 42 82 10 48
63 71 94 87 30
40 66 57 54 93
45 56 11 61 63
84 63 33 35 50
60 20 72 12 29
53 74 37 89 67
56 93 67 40 12
34 19 53 55 23
59 99 37 88 79
32 90 18 91 65
70 100 75 74 56
70 26 68 41 69
22 46 30 72 75
0.768036
1.14917
1.89177
1.60106
2.2305
2.19618
0.954542
0.659881
1.03044
2.21336
1.98938
0.695254
0.531664
2.04915
1.28767
2.13203
1.78993
0.660043
1.4942
1.13717
1.948
2.33147
1.90976
1.51396
0.863988
1.39551
1.44766
2.09635
2.28562
2.12138
1.49538
1.33697
1.38654
0.516003
1.65785
2.10386
0.722302
0.594442
1.40254
2.00193
443 169
429 209
434 159
378 140
226 441
460 153
131 454
281 276
262 127
200 329
111 43
175 64
109 440
292 296
489 424
235 30
179 400
125 268
247 83
30 8
87 326
180 149
267 188
495 225
369 110
106 161
140 455
53 30
108 5
50 307
140 463
478 485
390 39
277 8
486 297
300 135
40 426
82 61
389 188
12 48
5167.5
2
