40
5
0 0 0 0 0
41 32 56 68 50
73 23 39 96 19
55 68 37 91 72
17 64 92 38 12
51 47 43 41 15
96 62 17 58 95
58 92 88 77 88
74 92 62 22 80
20 12 94 93 22
42 80 24 58 79
71 47 22 28 92
63 39 84 83 20
77 38 77 54 93
14 88 31 81 74
43 23 50 32 60
10 99 71 82 12
45 72 22 19 28
78 20 22 57 29
17 71 54 62 99
57 60 10 18 72
24 75 73 33 33
35 67 37 48 95
86 93 11 23 57
15 72 94 72 66
51 85 26 96 38
63 96 75 38 61
84 67 16 82 77
17 57 49 39 22
52 65 79 29 63
31 65 76 97 70
45 80 16 12 12
99 60 89 11 40
82 85 54 88 87
82 15 13 73 94
94 72 85 12 12
50 46 24 11 61
40 70 94 70 25
36 92 79 96 25
20 26 56 96 75
1.63876
1.8473
1.61471
0.890605
2.07362
1.33245
0.856157
1.41958
2.06606
2.0022
1.55119
1.34645
1.33889
1.77424
1.03197
1.27649
0.958224
2.44611
1.06129
2.48316
0.858949
1.70275
1.67005
1.56823
1.82292
1.43359
1.66574
2.04684
0.67587
1.14032
1.06305
2.04511
1.72974
2.42805
1.94668
2.49669
2.37395
0.994986
1.07812
1.27336
325 327
120 354
331 329
309 454
346 260
469 155
0 256
0 286
197 361
456 38
325 479
485 407
324 452
149 347
433 346
201 272
441 373
388 134
458 33
132 103
148 398
349 404
167 476
375 181
267 312
373 33
489 431
297 405
111 41
407 318
102 303
470 479
214 118
255 498
166 229
16 400
305 39
263 482
208 439
24 263
2692.5
4
