40
5
0 0 0 0 0
40 13 24 15 38
56 16 77 22 61
65 29 15 89 53
86 46 11 50 34
62 52 77 32 91
52 75 82 30 71
47 33 45 88 69
15 86 11 59 30
65 67 18 93 91
53 75 66 100 51
34 99 79 79 74
88 96 38 78 42
70 92 30 30 20
25 26 65 94 84
44 37 16 32 77
33 48 42 94 34
56 48 21 42 98
31 18 29 62 27
71 20 92 45 98
17 21 17 24 51
83 31 97 41 100
63 94 77 63 15
99 27 36 54 73
34 70 45 60 88
98 100 32 91 13
19 90 38 50 25
12 80 70 62 74
54 12 25 31 32
95 10 13 24 48
53 35 63 17 29
58 63 76 25 14
33 43 72 28 37
19 98 22 45 91
28 50 10 20 62
71 40 40 78 94
47 55 39 76 56
65 89 76 91 13
37 87 56 81 36
100 88 14 94 13
0.745274
0.840452
0.910866
0.313187
0.910428
0.920221
0.604139
0.423954
0.867131
0.386556
0.486679
0.625431
0.637515
0.338035
0.893125
0.466444
0.967509
0.923307
0.902605
0.412562
0.661703
0.684177
0.24827
0.814094
0.591488
0.344754
0.911324
0.829628
0.408218
0.462356
0.225029
0.393208
0.969111
0.369733
0.98116
0.439451
0.484659
0.97756
0.477751
0.209922
85 253
78 299
161 140
302 176
460 468
384 388
99 61
181 55
84 180
214 66
360 416
257 384
100 46
167 480
154 329
497 121
207 12
98 195
336 72
292 170
416 78
388 217
115 269
175 45
313 356
59 191
78 373
262 410
203 394
16 27
152 265
44 109
425 428
256 25
335 437
220 183
352 477
144 416
378 36
45 13
2057
5
