40
11
0 0 0 0 0 0 0 0 0 0 0
19 71 42 92 43 68 62 34 87 96 41
93 29 12 78 57 58 79 70 96 37 10
31 38 25 19 86 81 25 50 41 46 98
42 72 29 98 82 32 33 92 32 92 19
51 33 38 21 30 26 44 41 40 55 81
32 99 76 64 46 59 88 10 96 91 60
71 69 62 85 12 13 68 79 76 51 79
94 81 89 52 79 87 99 34 88 70 73
41 16 86 62 11 47 90 87 11 31 28
12 79 53 92 51 17 36 43 16 99 36
19 20 26 56 46 49 50 15 85 20 59
50 23 34 89 43 47 63 44 37 72 59
47 21 67 97 55 43 76 55 100 47 14
52 15 55 96 42 15 10 45 65 27 67
32 54 78 41 18 55 58 44 17 78 72
17 32 53 36 36 97 32 82 10 31 66
67 89 85 67 19 20 46 33 87 51 23
45 60 45 22 37 38 31 20 56 61 46
90 68 20 20 46 97 81 69 70 82 52
22 87 70 35 99 45 35 39 11 69 20
85 58 42 100 35 14 86 77 68 32 76
44 10 32 25 88 16 57 100 81 95 77
19 40 59 100 33 56 69 97 12 22 40
20 55 56 19 71 26 64 22 63 47 75
42 91 28 80 36 15 39 25 45 100 74
83 80 100 14 79 48 64 92 18 14 94
32 26 53 87 48 59 69 49 83 37 48
38 33 35 42 36 42 56 26 94 91 27
29 51 92 53 75 25 78 50 63 98 10
36 46 57 83 40 57 16 18 56 12 83
73 17 93 77 86 56 51 92 45 81 15
59 54 71 88 55 13 29 29 45 30 55
22 85 100 56 36 77 76 74 47 17 62
23 34 64 19 16 61 76 31 81 43 80
58 70 97 69 42 48 65 20 28 19 15
13 18 57 17 55 24 27 64 54 19 43
47 39 81 56 29 36 81 52 42 38 57
85 76 97 13 97 92 74 10 11 39 32
58 26 98 40 96 100 81 85 20 60 75
0.969708
0.93822
0.692302
0.631389
0.617371
0.229957
0.84735
0.761832
0.992464
0.389324
0.44252
0.340022
0.298642
0.236767
0.793621
0.66938
0.910204
0.698845
0.873274
0.47411
0.694337
0.378179
0.889313
0.60899
0.481385
0.616288
0.345595
0.341675
0.726516
0.557215
0.363962
0.548026
0.778103
0.654622
0.674511
0.317225
0.643425
0.220283
0.698687
0.306271
472 206
445 449
354 438
193 17
199 339
380 52
428 296
407 147
132 362
141 171
104 3
360 68
259 89
343 350
276 27
266 282
432 55
43 147
258 204
326 215
478 77
203 104
261 288
3 252
63 57
73 423
260 368
471 135
468 495
23 52
167 110
205 51
59 405
316 290
41 450
57 385
106 291
413 214
276 180
344 119
2580
4
