40
3
0 0 0
86 14 58
88 34 58
14 34 61
61 77 90
13 57 88
32 14 83
20 92 85
54 77 61
72 12 73
53 69 62
24 83 22
53 29 39
74 30 53
91 97 54
13 22 55
29 47 17
96 99 45
40 33 49
18 68 16
65 12 41
62 57 13
84 14 84
32 37 54
85 47 35
60 75 19
96 72 93
21 88 51
62 18 82
90 65 87
56 85 23
98 11 83
61 97 82
88 12 33
68 99 84
47 92 64
58 21 17
94 25 94
95 73 72
55 73 67
1.28954
1.19453
1.02941
1.16219
0.803707
0.649264
1.75432
1.6326
1.45045
1.32098
0.999156
0.763507
1.3421
0.486421
0.913847
0.898314
1.19933
1.74482
1.1728
0.984366
0.822704
1.34201
0.734094
0.762581
0.574112
0.598825
1.75692
0.436679
1.87695
0.650977
0.507603
1.61053
1.16245
1.16743
1.13067
1.80167
1.73377
0.566282
1.18333
0.980542
52 270
186 112
219 145
492 375
224 108
308 172
73 110
441 416
411 141
236 38
25 383
418 456
194 22
225 35
277 226
102 325
213 350
238 224
442 191
283 116
395 79
39 106
144 350
448 346
67 381
210 253
356 204
391 403
62 394
298 433
423 234
398 349
162 373
426 473
485 407
44 21
164 147
107 14
69 349
136 434
2205
5
