40
7
0 0 0 0 0 0 0
26 23 48 23 31 17 19
27 86 41 70 93 66 28
26 19 31 16 88 40 91
89 79 91 21 65 19 54
54 47 96 33 96 83 100
20 36 31 41 81 30 31
39 62 61 64 21 74 40
63 23 45 23 36 82 57
83 19 45 63 62 55 96
94 72 74 85 83 56 33
26 89 94 57 91 65 50
43 18 81 27 32 40 73
81 81 94 98 24 61 67
72 59 94 97 75 68 91
12 16 20 53 40 71 94
14 59 94 65 25 74 87
31 25 96 83 88 17 33
79 39 59 63 10 73 47
57 88 66 82 90 13 25
79 33 72 17 16 23 87
40 86 38 95 86 96 15
19 19 76 27 86 38 98
40 68 25 66 33 37 58
58 23 59 45 66 38 71
59 94 17 84 46 44 66
35 28 40 40 27 98 44
35 42 45 69 65 62 26
99 88 62 78 78 54 67
57 51 38 29 55 64 86
75 28 79 31 92 64 47
94 15 92 53 92 88 19
62 90 17 11 87 79 88
64 77 68 69 77 100 78
19 10 69 57 64 77 30
89 39 95 68 27 20 85
21 44 89 27 86 64 53
58 21 49 21 29 37 19
15 48 54 91 66 77 68
76 76 94 58 11 21 66
2.45753
0.830157
1.60601
1.31671
0.811919
2.23116
2.22808
1.38351
2.39954
2.03848
1.22963
2.35862
1.27184
1.56798
1.57348
0.827084
2.24712
2.09996
2.30473
2.16822
1.3628
0.616618
1.23479
2.45763
1.26823
1.65134
0.636172
2.19794
1.78143
0.779115
1.28927
2.16059
0.863081
1.03029
1.98165
2.23131
0.884085
1.47947
0.875567
1.60529
142 4
328 131
480 393
164 395
279 490
388 211
406 316
472 305
24 227
351 0
221 57
488 130
379 73
281 339
195 385
468 35
33 100
219 423
263 253
126 82
12 229
24 177
36 154
74 116
19 91
131 418
193 10
102 76
372 409
246 429
294 251
332 389
89 174
147 106
122 272
24 113
360 67
251 110
46 154
160 197
10915
1
