40
3
0 0 0
86 21 48
21 29 35
37 55 70
40 52 78
39 19 87
91 29 72
13 58 56
28 32 72
88 77 25
72 83 85
86 29 43
83 17 25
59 49 36
44 48 45
45 87 68
54 94 17
35 76 28
25 78 62
36 42 83
76 20 37
17 84 65
79 74 57
70 33 71
56 78 86
63 69 85
69 99 84
24 70 86
76 18 79
23 76 51
60 19 24
87 94 14
89 68 58
14 49 71
53 20 38
52 70 81
22 22 74
11 48 38
90 37 12
97 35 96
1.39504
1.25495
1.14955
1.11031
1.66055
1.44192
1.87851
0.941546
1.83581
1.55712
1.23221
0.680396
0.509273
0.68772
1.8572
0.773969
0.440342
1.86719
0.594789
1.65243
0.581363
1.92317
0.823575
1.61749
1.10471
1.66678
1.33979
1.93231
1.031
1.88893
1.25262
0.534828
1.01531
1.10278
1.60103
1.28304
0.782657
0.722221
1.89363
1.61638
206 288
411 62
12 22
354 474
320 180
87 116
379 189
186 101
393 258
399 195
27 411
86 233
318 75
155 459
376 487
461 451
60 259
9 34
147 349
327 86
487 296
431 198
293 121
275 323
336 445
72 303
364 491
280 107
216 155
291 52
209 378
270 117
351 294
487 45
377 368
272 254
469 38
108 383
154 170
359 172
5340
2
