40
7
0 0 0 0 0 0 0
33 17 58 44 78 69 67
87 81 38 11 10 35 30
34 22 75 85 39 83 15
92 36 90 45 19 71 20
38 90 91 27 78 66 59
68 40 80 30 82 63 91
86 21 20 19 22 36 83
21 81 42 33 22 17 66
34 68 20 73 90 77 93
81 56 96 16 64 64 30
95 23 88 78 39 34 16
79 43 69 18 65 43 33
82 90 63 64 100 72 39
50 59 95 22 42 49 71
55 41 13 68 45 86 51
44 49 69 27 12 51 71
92 18 24 61 11 98 71
17 54 13 61 14 89 27
52 74 79 63 10 21 28
14 30 37 38 78 70 40
99 74 29 79 61 10 11
35 28 27 19 59 57 98
65 22 28 19 23 97 88
91 35 91 89 39 78 57
84 16 38 17 73 44 77
70 27 56 47 60 61 76
49 73 67 68 98 32 97
88 27 85 72 31 32 16
93 94 28 10 74 47 28
17 58 37 100 54 44 23
17 19 47 80 12 93 18
97 85 64 95 32 40 22
98 87 71 37 10 43 10
88 88 27 95 22 17 59
53 21 30 98 80 22 89
55 47 38 46 19 53 35
65 72 25 45 32 18 82
95 93 36 80 38 86 76
66 15 46 26 99 36 20
0.573779
0.404307
0.679092
0.638216
0.617027
0.463959
0.641476
0.356176
0.764846
0.267122
0.218816
0.422703
0.639071
0.203541
0.955416
0.311205
0.3545
0.936068
0.552281
0.945357
0.299054
0.310407
0.275195
0.495264
0.861451
0.919401
0.964142
0.94704
0.67434
0.431843
0.290206
0.991611
0.266294
0.820285
0.603155
0.550587
0.395193
0.992645
0.786153
0.49399
375 26
62 197
251 170
404 152
193 351
451 275
186 374
280 393
48 135
424 398
224 370
260 425
34 52
1 304
409 470
150 71
49 167
306 421
106 370
476 162
82 184
147 425
211 306
130 261
337 322
415 4
363 448
222 294
126 337
62 352
433 467
109 200
420 166
42 449
221 100
117 489
493 176
137 311
340 49
372 194
3430
3
