40
3
0 0 0
35 12 59
19 18 60
62 97 97
73 12 40
17 44 70
26 35 23
71 77 99
78 84 41
58 36 98
71 54 58
57 60 95
66 95 54
59 55 64
77 74 35
85 73 82
46 45 96
48 43 45
87 37 48
30 25 23
92 52 53
57 73 20
78 12 63
70 62 55
91 28 69
90 44 46
75 86 49
74 10 34
22 72 54
36 86 50
50 92 58
32 68 66
43 28 84
98 90 61
24 42 86
44 84 88
18 50 76
34 42 19
57 12 99
17 94 28
0.289859
0.265556
0.251533
0.337411
0.138937
0.470499
0.280354
0.465861
0.27537
0.109908
0.168516
0.314262
0.465021
0.453098
0.21896
0.408612
0.391447
0.25107
0.2404
0.236867
0.416536
0.402545
0.164439
0.456404
0.298281
0.247398
0.28297
0.165834
0.179487
0.418366
0.42234
0.291094
0.237002
0.144664
0.447646
0.403291
0.18607
0.45455
0.181756
0.195396
317 499
362 475
104 493
463 139
451 453
282 54
152 456
420 450
336 357
315 393
155 67
491 353
437 48
64 182
314 281
184 337
227 318
164 488
13 362
251 315
27 105
36 316
448 471
320 222
108 99
197 316
80 196
456 278
251 206
384 4
63 113
343 51
217 452
26 203
330 324
96 461
232 429
342 220
462 27
448 53
11025
1
