40
5
0 0 0 0 0
78 51 59 97 36
89 97 68 77 72
27 37 12 94 47
46 75 42 44 53
38 35 46 82 23
96 41 69 14 43
20 61 16 81 15
52 94 51 37 25
35 56 78 59 61
12 56 79 41 37
15 42 42 21 43
89 64 65 24 82
46 45 80 54 19
51 93 78 22 97
28 38 22 51 15
49 13 75 11 89
46 28 29 25 72
14 62 60 96 74
65 59 31 30 94
23 42 65 48 78
66 91 48 22 38
45 27 46 62 68
93 13 87 33 30
82 50 31 17 43
71 34 61 39 94
21 35 95 20 43
47 99 77 15 22
37 34 43 16 57
66 76 42 11 52
78 84 83 81 12
70 72 57 13 89
78 70 83 26 82
42 67 94 11 89
70 74 76 12 91
99 48 99 70 19
42 33 35 11 34
51 24 57 39 15
27 74 34 59 45
67 45 46 89 18
0.70697
1.35115
0.59395
1.35116
0.617084
1.25767
0.931159
1.18689
1.34226
0.762409
1.22143
0.906605
0.678534
1.02906
0.483866
1.13845
0.886405
0.579028
0.696235
1.37948
0.369106
0.691907
1.20489
1.34156
0.794138
0.400365
0.818872
1.00072
0.898382
1.47861
0.309687
1.41424
0.989469
0.846426
0.758511
0.633696
1.27042
1.25306
0.727755
0.638339
389 216
321 146
415 288
455 48
454 28
252 152
66 339
449 45
143 259
214 300
424 10
157 94
57 187
159 14
466 78
75 246
184 38
8 444
374 464
292 286
179 201
132 438
479 31
72 298
224 271
233 464
468 410
26 175
442 477
179 293
428 70
461 129
22 450
135 156
211 351
443 103
499 135
254 326
338 273
462 32
3380
3
