40
9
0 0 0 0 0 0 0 0 0
24 45 59 93 11 44 85 96 75
22 75 45 12 25 96 92 75 48
26 19 11 35 98 61 71 70 29
63 79 75 58 31 67 34 87 27
78 95 58 42 95 17 27 20 81
94 59 40 69 98 53 80 90 58
86 31 51 80 18 15 28 48 57
52 10 100 37 19 83 92 40 67
56 36 38 43 67 65 26 96 14
68 21 80 95 93 99 39 26 58
65 25 32 75 91 72 13 58 20
39 98 85 81 21 72 18 56 48
74 30 30 16 60 36 28 52 93
11 97 28 39 40 98 77 46 27
15 14 80 28 23 28 90 31 86
80 78 46 99 90 28 86 68 12
36 76 19 72 32 44 69 29 71
67 82 98 33 46 15 15 70 99
100 63 61 43 80 70 83 81 82
70 14 80 85 91 95 81 32 28
99 21 29 16 20 46 16 90 29
85 47 61 91 12 93 60 64 51
19 97 50 98 23 45 13 21 43
80 79 35 73 14 51 78 70 94
77 10 22 19 23 25 62 64 74
78 65 81 66 72 29 98 28 99
43 22 36 51 29 41 98 37 82
21 61 84 89 73 36 26 49 33
19 17 41 72 81 18 100 49 65
31 17 78 60 62 90 62 14 58
23 24 56 79 15 10 62 95 22
90 29 65 85 17 45 88 43 30
21 15 10 91 21 61 14 76 18
41 59 78 28 81 32 73 76 79
23 22 83 49 77 29 28 12 61
99 25 23 19 51 99 66 51 40
100 87 21 19 100 21 12 43 38
56 33 82 52 17 70 59 68 36
27 61 74 11 40 21 75 20 18
1.90253
0.560596
1.89778
0.688029
0.938945
1.21859
1.51597
1.66189
1.5391
1.21544
1.93602
0.918064
0.847412
1.30826
1.40784
0.868883
1.87114
1.76509
0.802628
1.9301
1.78218
0.749725
1.41042
0.580509
1.94354
1.67155
1.34783
0.869183
0.850724
0.953893
0.854568
1.33651
1.73675
1.05435
0.501131
1.2278
1.53774
1.85228
0.969908
0.708774
243 372
290 337
376 102
39 147
197 121
369 408
207 160
397 346
338 143
76 194
278 145
418 123
105 49
297 126
409 379
478 435
84 154
32 179
432 84
435 276
190 189
147 346
192 20
480 146
497 58
321 226
49 442
254 420
20 403
292 143
310 105
176 52
406 493
194 438
416 114
474 112
50 427
260 294
201 252
453 117
10395
1
