40
5
0 0 0 0 0
69 30 13 77 50
50 73 56 30 55
92 90 17 95 20
85 98 26 87 39
86 27 73 45 67
64 34 16 90 36
86 27 63 33 12
40 50 44 11 40
90 20 19 85 53
85 34 23 67 31
16 55 10 50 40
71 57 60 26 65
91 50 25 23 50
11 22 75 54 54
71 100 84 97 32
13 83 55 78 65
28 33 79 91 29
94 36 28 61 95
14 17 89 37 56
23 38 29 41 13
78 71 26 48 25
95 74 49 90 39
39 57 81 10 76
10 11 26 82 51
17 86 85 95 34
25 14 56 83 92
50 97 44 38 36
57 59 17 15 85
21 71 20 76 69
62 38 73 34 74
27 83 38 81 35
85 51 61 23 59
31 83 88 62 75
60 11 99 49 82
89 43 47 96 90
29 65 66 38 55
65 12 22 81 82
73 41 30 25 90
10 34 53 81 100
1.25348
0.501289
0.518441
1.48143
0.790592
0.970492
0.872979
0.999964
0.543383
0.549524
1.33186
0.897058
1.1333
0.848105
1.30757
0.996192
0.932126
0.495013
0.856969
0.740997
1.23653
1.03881
1.47253
1.27804
0.716628
0.950064
0.602137
1.15652
0.753751
1.23596
0.790744
1.33008
0.727066
0.901682
0.818311
0.734266
1.25107
1.08483
0.72767
1.38074
69 139
221 83
275 172
212 74
50 206
298 118
421 166
486 433
182 403
66 130
479 128
144 210
210 379
190 427
455 240
233 73
264 182
228 332
244 71
0 189
114 213
128 498
262 167
328 460
407 158
22 354
412 412
96 122
464 333
443 96
62 62
122 281
143 178
141 305
336 157
465 38
217 145
220 298
481 97
49 280
2593.75
4
