40
7
0 0 0 0 0 0 0
43 59 89 91 95 49 89
70 66 21 47 16 89 23
11 54 34 95 73 17 42
14 35 43 25 52 94 47
23 43 69 40 66 25 21
100 49 57 29 81 60 22
98 69 22 16 20 45 92
99 31 54 75 49 44 35
27 32 45 88 20 52 23
96 100 26 47 14 42 74
57 67 21 60 51 77 78
25 57 32 97 31 54 82
73 44 57 55 37 32 45
34 73 87 54 36 75 86
66 64 32 38 24 98 81
78 12 38 49 100 96 22
72 92 45 70 94 55 38
18 73 54 87 20 42 66
98 90 60 13 67 59 90
35 39 11 59 20 70 95
82 45 64 84 49 63 65
100 80 77 88 98 49 52
71 75 66 47 66 39 44
30 78 49 87 39 23 11
77 36 25 51 80 56 52
95 79 58 72 58 68 68
46 58 96 90 21 94 79
63 81 23 20 20 92 18
57 37 98 99 32 76 20
31 53 58 82 48 31 41
61 93 74 24 70 95 87
86 28 78 16 15 10 34
29 100 39 30 96 28 92
70 79 71 83 15 66 26
31 84 99 96 46 73 13
10 12 55 63 18 97 76
73 38 87 84 24 92 17
35 18 55 35 71 21 38
95 76 72 43 24 62 10
1.77945
0.472068
0.477574
1.72904
1.33602
0.654866
1.96042
0.697788
1.25097
0.987599
1.96637
0.464331
0.412028
1.96953
1.56865
1.24012
0.532115
0.843158
1.3157
1.65002
0.616156
0.776953
1.84151
1.55384
1.112
0.450462
1.51687
1.76983
0.819345
1.60748
1.5153
1.80498
0.514054
1.96219
0.452669
1.26214
1.96847
1.6511
1.90786
1.88133
211 370
446 419
169 242
181 496
323 17
148 156
481 102
204 285
169 7
493 486
203 335
462 456
421 36
203 38
219 179
419 110
308 40
332 215
395 265
39 76
146 117
318 308
382 334
46 197
265 150
1 212
486 427
48 187
81 457
48 220
148 98
85 419
229 450
351 128
494 201
55 198
208 58
438 412
331 102
352 210
10860
1
