40
3
0 0 0
44 23 31
69 71 97
62 48 54
42 87 49
40 11 75
22 60 28
26 85 33
31 83 90
81 39 29
98 38 12
59 57 97
34 64 94
44 69 71
76 53 98
28 39 12
84 54 92
67 91 52
60 29 19
42 69 71
61 95 66
72 44 57
22 35 100
61 89 100
67 24 20
27 87 41
35 21 55
26 48 44
78 31 51
45 47 40
35 10 53
18 34 73
41 51 60
17 72 35
33 18 99
88 21 30
63 72 12
53 33 29
76 84 74
39 52 45
1.85864
1.02996
1.45892
1.75508
1.69023
1.21286
1.04265
0.857166
0.652224
1.09095
1.50389
0.836724
1.14201
1.22819
0.620523
0.771944
0.462472
0.899915
1.07183
0.633936
1.72565
0.565162
0.773527
0.880859
1.16954
1.39987
1.56517
1.39678
0.421384
0.678274
0.878933
1.57545
1.53752
1.4411
0.474387
0.73339
0.87806
1.2041
1.71922
1.92884
114 380
49 159
467 151
474 275
496 97
97 246
150 381
157 373
97 53
159 28
35 84
441 452
315 377
396 495
2 155
331 397
251 293
198 31
395 387
154 484
274 361
291 313
9 298
479 175
462 64
316 96
471 232
328 70
164 130
258 325
179 430
463 350
262 51
240 289
287 215
173 307
87 44
253 34
405 1
13 246
2064
5
