40
3
0 0 0
18 86 13
26 27 64
81 38 60
89 39 53
90 82 17
11 23 23
19 35 55
78 95 18
74 36 43
53 87 56
67 77 89
41 56 14
59 68 75
10 55 77
39 57 100
80 34 76
41 27 91
58 86 65
52 94 100
45 80 44
60 19 31
93 70 10
37 48 27
94 17 74
23 68 25
35 71 29
94 49 72
87 16 58
12 83 90
12 42 55
74 67 15
84 41 38
67 11 73
78 68 36
75 16 82
12 18 100
77 55 29
72 70 61
59 46 15
0.476871
1.21895
0.580973
1.64629
0.702539
1.4772
1.63882
1.35251
0.704429
1.36962
1.90257
0.782185
0.916077
1.45116
0.686114
1.51607
1.31458
1.63833
1.04218
1.36553
1.28595
1.54816
1.53041
1.71451
0.742452
0.725223
0.979812
0.532064
1.60793
1.76646
1.49195
1.26194
1.60354
1.01889
1.66673
0.554639
0.632967
1.25258
1.67742
1.52914
287 83
80 441
378 447
453 214
425 202
45 105
75 495
352 405
311 70
189 436
256 288
27 495
328 85
332 140
406 360
134 104
328 220
218 406
29 282
312 376
341 446
232 368
77 114
200 283
249 180
90 37
210 74
199 454
117 11
292 489
156 17
96 380
443 383
106 304
408 397
43 321
353 337
240 155
90 163
312 29
5237.5
2
