40
3
0 0 0
40 37 34
97 43 32
14 34 36
82 98 79
25 83 69
71 64 35
80 60 98
36 92 56
83 94 82
71 50 96
100 98 27
58 42 72
75 21 82
98 13 29
66 61 93
49 97 63
27 31 79
10 31 47
15 74 85
80 75 91
35 62 55
38 37 87
54 54 56
69 27 61
72 41 23
60 15 14
34 89 14
89 96 59
43 81 14
56 65 10
63 22 47
99 71 59
26 36 40
24 47 65
80 97 19
59 31 43
59 84 11
97 80 22
61 63 67
0.369683
0.324637
0.174129
0.222556
0.116999
0.2295
0.431617
0.104776
0.199974
0.460007
0.146129
0.117178
0.336218
0.469895
0.234625
0.495843
0.489892
0.279374
0.267155
0.290194
0.206618
0.111727
0.45592
0.354144
0.416992
0.418609
0.467411
0.199783
0.343021
0.39414
0.182214
0.384193
0.128133
0.122055
0.182814
0.426241
0.368892
0.12772
0.328776
0.331965
428 476
38 286
280 219
164 393
375 321
198 364
416 16
378 22
188 438
52 153
146 390
388 343
448 349
255 288
111 405
132 328
279 259
405 112
207 100
337 497
362 249
401 205
11 371
415 293
465 44
40 90
57 252
443 111
150 376
494 100
134 80
33 9
377 180
101 441
176 363
57 297
427 343
227 441
12 113
296 435
3690
3
