40
3
0 0 0
69 71 29
58 78 99
27 62 92
92 75 11
89 58 73
88 36 72
32 87 47
59 62 52
24 13 82
61 96 14
58 52 50
14 42 58
32 75 19
33 17 96
59 29 22
10 33 99
78 22 76
73 71 62
89 53 37
33 15 41
10 29 43
33 12 81
46 82 88
91 70 69
40 29 78
94 54 99
89 97 57
72 25 89
21 53 22
45 79 65
41 97 78
56 88 97
35 33 65
35 61 51
99 81 60
29 19 38
17 88 96
93 14 40
16 55 10
0.908677
0.370004
0.879544
0.223569
0.7344
0.996292
0.576465
0.703518
0.320616
0.55162
0.786997
0.709901
0.799739
0.626146
0.828547
0.540652
0.595385
0.874142
0.507835
0.520354
0.261705
0.52449
0.348227
0.591584
0.863625
0.841704
0.82856
0.327438
0.99083
0.479032
0.216286
0.327091
0.583124
0.475293
0.702389
0.643543
0.203424
0.770741
0.836729
0.914385
392 0
387 259
139 156
83 116
341 484
262 188
469 436
449 105
171 83
201 412
126 490
70 431
25 94
102 493
481 469
181 330
444 446
285 472
24 343
463 467
431 268
73 435
323 431
343 173
148 482
168 312
421 258
60 209
115 372
200 50
24 97
388 267
309 398
370 345
307 124
13 34
146 283
208 178
213 398
232 459
10850
1
