40
7
0 0 0 0 0 0 0
87 95 24 89 50 36 19
87 97 16 56 74 42 74
55 49 56 82 33 47 56
22 18 21 49 17 78 100
97 48 82 40 63 28 99
45 31 16 73 38 61 86
11 18 82 36 99 61 53
26 26 26 84 83 31 76
31 50 19 20 39 72 95
57 99 44 20 18 76 10
61 20 35 80 70 16 59
94 64 46 41 17 23 33
79 58 38 24 11 52 70
41 57 98 88 79 80 84
81 77 20 92 23 41 21
90 57 94 100 97 45 57
55 96 19 56 15 31 77
51 98 49 40 68 32 57
62 89 89 67 63 38 43
13 90 83 70 69 92 30
29 85 12 74 75 99 27
54 32 96 52 10 35 51
13 52 81 77 18 32 97
59 63 45 77 64 52 15
94 69 83 47 12 84 71
41 41 24 82 12 36 44
98 91 43 55 11 45 27
84 60 51 34 69 13 64
91 57 35 85 21 19 76
47 61 63 17 100 66 73
19 61 47 62 76 57 61
62 54 45 23 72 47 72
35 53 40 27 32 61 43
59 89 49 21 34 94 73
36 56 21 47 17 45 59
53 89 19 24 80 32 54
43 89 22 18 36 64 89
11 20 28 80 66 57 76
25 71 93 59 78 45 56
0.436685
0.44326
0.165473
0.32066
0.128577
0.286707
0.369846
0.45546
0.293552
0.246827
0.464666
0.241829
0.414775
0.128193
0.327624
0.143773
0.308809
0.44584
0.351639
0.10117
0.405462
0.383617
0.310707
0.341632
0.215074
0.334358
0.272056
0.394818
0.136623
0.348895
0.470408
0.208043
0.437141
0.146477
0.441431
0.281967
0.284433
0.423279
0.343814
0.442397
280 215
250 321
18 69
257 263
223 294
210 95
354 283
281 251
137 474
417 104
108 500
466 210
113 195
6 460
57 140
245 313
148 273
177 68
93 106
31 451
479 34
456 200
223 68
469 457
450 319
386 297
360 250
206 244
326 427
65 268
91 373
261 208
352 328
186 376
319 102
34 495
171 193
113 240
332 474
11 412
2633.75
4
