40
3
0 0 0
43 98 68
46 13 19
96 76 60
18 41 54
91 31 17
94 63 24
89 10 50
27 89 58
63 38 60
15 54 92
30 63 53
53 38 12
87 28 87
72 14 100
16 63 27
76 51 76
52 34 65
29 98 45
16 45 24
43 49 58
49 71 68
13 79 30
86 22 29
19 65 53
40 90 48
94 71 63
92 57 98
19 60 25
97 51 90
21 98 47
28 28 14
97 39 56
60 35 100
92 54 52
44 84 85
77 78 91
14 64 63
99 71 46
46 75 66
0.641663
1.2801
1.1337
1.03942
1.11774
0.820242
0.483645
1.22086
1.3767
1.071
0.62708
0.519459
0.738219
0.419066
1.29457
1.42839
0.591376
0.534937
1.37824
1.1778
1.25182
0.5857
0.319137
0.323818
1.22322
1.14312
0.942881
0.8861
0.907427
0.734143
0.346789
0.670972
0.488172
1.18491
0.49239
0.89161
1.37561
1.32509
1.30121
0.739558
241 274
109 38
74 201
344 101
77 227
92 217
182 394
303 293
238 235
153 233
491 191
50 81
31 196
223 205
258 86
443 283
397 80
390 146
292 13
88 241
179 411
289 356
333 25
105 46
84 357
125 22
163 365
59 60
313 138
185 447
19 71
491 423
211 388
107 334
485 458
113 349
193 284
243 478
274 24
333 362
5420
2
