40
5
0 0 0 0 0
90 76 40 88 68
45 18 30 35 28
41 74 54 34 79
96 17 41 66 22
51 82 35 80 15
86 32 68 57 19
15 45 30 43 53
63 63 84 63 26
50 87 50 15 58
73 39 63 42 15
54 52 78 90 38
78 76 35 66 13
74 19 50 25 38
70 54 51 34 36
22 14 66 64 99
55 69 96 38 64
11 55 44 68 11
20 17 26 52 32
70 19 98 76 64
61 95 66 38 19
64 41 87 23 89
90 58 34 46 62
31 86 37 93 90
59 92 100 21 83
92 67 41 23 22
36 66 81 29 59
81 18 41 68 43
82 86 94 49 20
43 89 81 25 82
39 63 90 84 85
78 45 17 16 10
81 60 25 97 55
66 69 89 72 19
11 10 20 40 73
85 86 45 75 67
32 83 96 94 89
67 66 63 68 34
71 85 61 99 16
50 23 94 69 90
0.202476
0.422062
0.426478
0.235188
0.390348
0.458512
0.18546
0.247174
0.305918
0.221347
0.14229
0.366207
0.11019
0.252256
0.373971
0.165226
0.174926
0.20638
0.4716
0.27794
0.415015
0.429859
0.208061
0.485445
0.376709
0.350501
0.494099
0.235751
0.107879
0.121807
0.339734
0.233499
0.313432
0.375201
0.495633
0.221718
0.316834
0.294176
0.26949
0.204123
453 98
227 374
214 125
340 239
131 70
198 307
404 213
397 401
340 318
94 227
87 315
107 347
157 414
465 374
141 242
273 323
187 415
235 469
156 75
476 263
487 488
197 176
13 33
83 310
79 431
240 427
423 433
304 356
262 296
212 100
339 367
262 174
134 347
85 405
64 475
144 441
87 186
357 324
37 132
485 219
2707.5
4
