40
7
0 0 0 0 0 0 0
22 56 12 21 100 53 70
70 17 80 13 10 38 38
17 86 15 51 51 27 77
12 19 97 95 86 30 77
70 74 10 59 95 99 12
64 27 54 53 82 68 36
27 82 45 33 82 38 57
67 96 47 95 89 74 32
94 35 14 81 23 90 82
55 75 42 86 52 13 40
19 63 74 60 57 14 23
51 18 60 34 82 14 38
29 82 10 86 42 59 31
44 100 24 84 37 21 20
79 70 71 42 65 99 28
26 14 76 39 84 73 65
34 42 62 89 46 88 55
62 83 24 63 52 89 78
45 70 25 35 61 58 88
18 17 36 83 48 87 24
80 81 63 82 82 47 49
55 85 42 72 35 77 25
14 63 26 73 69 66 95
38 41 66 68 99 67 36
42 70 19 30 81 68 28
33 13 97 11 35 29 38
10 41 13 46 79 97 73
12 51 15 96 91 18 23
26 44 72 41 20 19 71
17 72 28 69 25 33 94
56 49 96 41 62 39 14
54 67 45 91 80 93 47
49 55 35 40 10 73 66
64 73 86 96 93 24 63
100 63 90 62 90 25 98
63 20 38 24 28 25 75
76 93 10 18 92 67 60
51 71 75 65 26 10 61
19 31 74 18 51 42 92
1.48942
2.29238
0.83504
2.24343
1.47815
1.36579
2.06116
1.86851
2.18453
1.38771
2.37485
1.82602
1.92602
2.28614
1.91015
0.838813
0.8479
1.76781
1.33186
2.07599
1.40151
0.63461
0.781175
0.504902
2.00397
1.68611
1.29361
2.30145
0.923106
1.94613
1.71549
1.69824
1.5475
0.931267
1.49341
1.12991
0.585181
1.53027
2.05882
0.834226
115 412
441 194
160 55
450 196
393 21
319 296
468 395
162 267
85 277
499 33
400 304
138 373
39 140
72 401
140 230
87 428
244 208
384 329
305 387
280 25
190 265
315 431
496 307
334 268
365 11
307 445
465 34
323 365
496 352
39 87
198 85
31 262
470 97
229 489
219 405
164 433
55 420
83 266
492 167
36 153
5215
2
