40
3
0 0 0
62 99 37
36 52 16
100 32 65
95 70 83
86 66 31
81 11 93
35 35 33
48 73 45
79 34 44
55 65 67
96 68 96
51 71 33
93 33 86
93 70 12
49 76 44
59 59 98
43 95 81
18 70 45
90 92 49
56 77 28
63 42 35
67 19 61
16 71 92
42 64 68
48 51 28
40 39 19
71 10 87
43 86 89
82 17 36
92 11 54
55 50 20
87 48 53
15 28 25
40 25 85
94 33 55
33 93 92
34 71 34
34 79 40
96 76 60
0.955458
0.606792
0.274267
0.787458
0.569773
0.502146
0.409644
0.478997
0.267481
0.939762
0.889504
0.700286
0.762625
0.364936
0.923228
0.4204
0.995973
0.559513
0.26707
0.378267
0.903323
0.995872
0.572601
0.204893
0.840456
0.702398
0.794592
0.495771
0.281328
0.381578
0.381426
0.480404
0.395079
0.716068
0.582736
0.763996
0.984672
0.82771
0.225955
0.298896
433 195
139 60
193 483
29 292
476 17
469 36
107 196
445 103
275 67
342 322
235 172
9 69
107 191
297 85
85 439
448 18
8 223
341 90
43 196
176 349
253 183
229 38
208 110
434 235
423 198
65 294
310 31
208 421
301 121
434 96
464 70
42 498
416 163
246 469
63 410
478 95
352 444
256 373
238 307
265 469
11095
1
