40
9
0 0 0 0 0 0 0 0 0
40 46 23 50 90 93 10 79 93
38 85 57 11 80 21 21 60 14
98 20 76 12 50 74 55 57 48
85 23 93 40 48 74 62 13 95
55 100 58 57 65 70 23 73 71
98 25 43 38 24 21 27 96 26
95 38 65 95 10 74 35 85 71
17 54 19 27 56 81 30 49 67
88 80 82 47 14 33 63 50 32
68 83 33 88 16 57 22 52 44
25 68 15 80 74 24 75 45 69
85 92 64 54 23 29 85 73 70
17 61 47 59 98 26 42 72 17
24 64 59 18 87 42 38 15 25
97 76 98 65 89 40 83 67 80
12 29 57 29 100 79 21 57 22
96 98 93 12 62 85 17 74 68
16 81 89 37 72 17 11 61 84
14 42 80 18 22 28 95 35 100
31 13 100 48 48 13 54 29 79
30 48 56 70 55 30 60 13 62
29 18 96 97 43 18 24 58 20
87 92 35 78 80 95 64 28 84
11 95 29 13 54 69 21 38 86
99 97 26 13 14 97 21 79 43
46 32 11 94 45 17 32 15 57
39 98 78 77 31 62 12 12 66
16 30 82 73 10 74 11 78 84
66 73 24 12 62 23 100 36 19
56 27 62 26 51 70 35 27 65
30 35 86 16 12 48 28 71 26
97 100 25 97 42 47 65 43 50
86 52 56 66 33 100 74 38 45
14 11 79 34 12 14 32 84 85
43 42 27 99 10 55 85 74 77
67 89 74 95 20 18 89 64 25
60 33 45 36 100 17 56 34 35
88 51 44 73 20 87 63 85 92
44 53 80 11 94 16 12 86 87
0.465503
0.271816
0.419362
0.16786
0.272829
0.490041
0.193231
0.434434
0.272496
0.134469
0.197346
0.152459
0.328638
0.356413
0.147686
0.229585
0.300004
0.311322
0.303569
0.47208
0.250645
0.214037
0.421889
0.368607
0.128208
0.164399
0.194211
0.387837
0.463981
0.418407
0.104194
0.134434
0.262506
0.407708
0.286327
0.23888
0.42059
0.439611
0.392138
0.297291
320 35
341 305
424 357
409 331
164 465
83 439
470 400
82 24
32 151
460 330
142 155
305 285
295 369
159 281
46 122
387 489
379 395
348 96
287 499
164 411
107 138
475 211
497 219
88 29
413 340
135 462
277 354
403 435
64 97
338 258
98 164
437 41
285 450
499 279
19 467
138 102
301 380
10 70
390 450
191 497
10325
1
