40
9
0 0 0 0 0 0 0 0 0
40 12 17 71 16 79 60 57 12
52 64 70 17 86 84 21 12 96
10 97 28 26 93 21 23 99 49
17 61 13 25 99 51 10 51 44
99 60 36 79 11 23 87 42 36
93 54 35 97 97 27 55 49 47
41 97 71 90 59 100 24 63 23
10 53 94 13 31 42 44 13 51
87 94 91 70 18 95 53 48 26
61 49 100 36 18 47 26 66 82
47 55 78 94 98 99 96 42 12
84 30 51 39 20 19 75 45 69
30 34 21 41 54 59 95 20 69
86 41 82 93 81 55 31 70 88
59 34 87 94 49 78 14 44 27
64 85 10 57 55 81 36 67 23
27 36 49 79 45 22 15 62 99
62 83 30 49 82 29 78 13 88
73 88 89 79 11 88 41 97 58
37 21 40 77 10 95 28 47 87
47 81 61 56 62 50 27 38 34
12 46 54 48 20 71 96 16 59
18 18 72 88 34 31 11 21 93
45 95 82 45 11 29 69 12 96
69 33 87 40 25 19 66 80 73
12 56 100 82 32 73 35 61 39
50 68 20 36 35 72 27 67 31
25 65 66 28 91 24 53 86 19
27 38 42 95 64 72 35 72 74
33 43 21 54 61 30 74 73 80
33 10 51 29 59 96 51 26 86
78 40 46 46 79 72 85 40 60
26 35 35 63 29 88 16 34 65
16 18 53 47 55 22 70 29 30
16 14 60 92 10 89 23 62 39
19 10 65 15 32 65 45 78 84
23 93 67 37 25 36 37 79 100
21 28 63 13 100 81 59 23 45
76 50 52 61 43 63 81 16 87
1.79469
1.4327
1.19354
1.39655
1.12486
1.56683
0.887658
1.69307
1.91794
1.19174
0.885987
1.01694
1.29131
1.95134
0.720043
0.88111
1.0225
1.23694
1.87698
1.92374
1.58866
1.09231
0.829921
1.48474
0.886368
1.56742
1.87325
1.87513
0.654174
0.452594
0.957577
1.50145
1.6262
1.48885
1.98308
0.893532
1.78091
1.646
1.17914
0.654326
434 253
127 286
239 485
268 236
345 476
192 365
239 65
337 87
272 282
458 61
341 370
82 353
338 227
113 1
307 190
474 277
208 230
483 189
421 33
432 377
178 410
338 120
151 433
38 342
94 266
216 87
439 265
300 272
38 410
108 313
159 245
101 158
69 238
164 171
424 415
403 207
406 442
424 301
449 106
461 121
2039
5
