40
9
0 0 0 0 0 0 0 0 0
98 56 15 100 92 71 25 47 55
11 32 96 53 15 14 74 31 49
72 79 34 32 26 38 30 17 79
76 30 23 91 17 66 19 14 72
97 10 94 57 95 57 66 86 94
27 23 81 51 69 83 55 87 11
62 82 86 51 62 75 65 53 90
88 54 92 40 12 52 43 77 37
44 68 38 94 24 26 21 16 95
47 65 19 36 54 64 24 49 89
53 59 57 48 90 55 38 83 39
44 10 94 52 80 78 81 88 32
61 69 75 25 13 12 67 85 64
20 38 32 22 100 37 68 52 76
89 26 34 28 38 43 50 68 46
15 15 90 35 66 57 61 69 58
10 37 59 26 64 77 21 14 87
65 35 97 75 33 36 26 72 68
63 19 49 98 87 67 95 72 60
81 80 70 50 27 24 78 27 84
84 52 30 50 49 94 77 70 19
18 87 62 83 29 68 37 74 49
77 61 74 59 50 69 81 80 52
48 27 93 82 96 21 100 38 97
73 28 38 29 78 60 61 37 33
36 20 29 77 21 35 75 55 60
43 55 17 76 32 100 87 33 84
73 55 83 80 38 10 10 97 41
74 64 48 99 59 42 74 47 69
36 82 77 66 85 97 70 48 67
78 49 52 56 38 49 32 73 36
97 85 80 43 17 15 62 94 53
49 77 28 10 33 68 10 15 29
48 53 85 24 51 51 15 20 75
90 34 38 84 62 78 22 36 99
29 25 91 68 46 20 41 34 64
83 87 89 75 14 35 26 19 71
79 91 78 96 14 45 50 76 78
92 10 63 81 24 55 33 24 17
1.95903
1.18251
2.3209
0.7444
1.12308
0.84742
0.65405
2.13721
2.28092
1.81563
1.83853
1.01906
2.06829
1.04694
1.1189
2.25681
1.99796
1.40617
2.33912
0.990479
1.45908
1.97506
1.45204
0.980878
1.71324
2.24643
0.924456
0.89827
1.5865
0.967137
1.96729
1.6845
1.7342
2.38497
0.841902
1.85515
2.2493
0.721263
1.07113
1.72806
252 187
170 73
10 26
8 384
487 353
432 139
62 81
467 396
474 34
146 28
234 174
23 283
436 300
409 130
353 216
460 302
151 132
295 200
221 261
187 368
481 177
15 113
29 306
164 152
455 127
359 232
170 436
488 294
126 181
412 294
18 480
18 276
402 206
344 346
392 410
97 359
454 201
95 108
60 181
355 324
2682.5
4
