40
7
0 0 0 0 0 0 0
93 31 56 64 47 71 73
37 18 89 37 39 97 13
46 75 99 23 27 77 87
66 55 75 48 54 25 31
30 72 12 38 23 99 78
41 81 85 10 19 41 25
44 37 12 65 80 38 10
92 13 81 85 44 67 32
51 51 35 47 34 22 96
25 31 71 39 79 83 47
43 78 29 18 87 13 25
11 90 75 78 39 37 73
59 66 14 12 37 58 68
24 29 55 39 84 36 86
11 92 87 42 98 45 70
93 28 35 12 87 83 59
41 51 78 62 21 13 13
39 17 60 95 83 86 18
30 21 43 84 95 17 43
81 61 67 14 73 76 43
76 35 84 38 16 99 52
43 48 91 87 43 100 70
50 41 47 94 94 76 38
58 91 18 39 33 28 90
76 49 56 14 69 29 90
68 49 13 67 90 61 14
93 69 95 36 71 66 48
36 97 78 56 81 14 15
41 95 63 71 55 95 30
67 83 27 87 57 14 60
13 66 62 84 52 92 72
35 77 27 100 26 67 34
67 44 47 75 59 41 77
44 72 85 66 100 64 81
66 26 69 43 36 60 67
94 36 71 35 80 22 46
49 95 45 89 85 13 65
94 83 39 85 32 43 67
36 22 63 49 47 20 64
0.193814
0.421966
0.200786
0.340266
0.425823
0.476636
0.136774
0.384164
0.428226
0.486413
0.107631
0.449182
0.18925
0.110129
0.143344
0.193025
0.106671
0.377745
0.342373
0.179418
0.354423
0.144347
0.289088
0.439877
0.107895
0.249037
0.460153
0.417996
0.249127
0.149109
0.154601
0.307785
0.499936
0.258984
0.323686
0.407916
0.322339
0.354677
0.439261
0.228476
209 218
402 148
446 1
101 205
110 265
138 486
369 471
346 311
117 56
465 5
490 151
305 322
395 309
49 472
359 308
407 17
220 499
256 263
52 310
359 352
136 207
431 450
316 390
270 389
415 400
268 217
318 370
333 414
392 42
71 317
470 2
118 240
108 49
201 411
211 99
212 58
11 487
294 224
323 272
304 183
2148
5
