40
3
0 0 0
83 88 27
27 32 30
84 11 77
41 14 89
47 75 100
71 58 50
25 54 93
17 54 90
94 97 13
77 63 56
71 14 51
45 23 57
81 36 55
81 64 82
13 74 11
44 60 62
40 94 59
95 20 79
95 88 89
68 58 84
52 80 23
93 15 90
91 22 26
60 66 56
24 33 85
57 58 38
100 11 37
57 97 93
72 48 94
96 31 70
27 52 47
21 43 18
100 84 93
84 45 65
33 22 16
54 70 71
95 78 96
45 34 39
51 54 44
0.70055
1.29377
0.889922
0.450936
0.863182
0.751106
0.646439
1.36228
1.30017
1.32328
1.04719
0.360559
0.621147
1.10456
0.819259
1.23339
0.787954
0.806897
1.42541
0.481287
0.604415
0.81801
1.26959
0.914043
0.339231
0.642064
1.41597
1.07141
1.3028
1.3507
0.321419
0.756707
0.946778
1.09425
0.620943
0.687426
0.781851
1.13286
0.897335
1.17823
438 65
283 93
143 148
153 426
160 397
168 331
455 387
245 127
272 54
462 483
299 227
71 166
392 273
458 443
47 399
238 313
179 348
294 152
377 485
269 432
181 356
54 148
107 166
471 203
174 181
382 252
413 473
346 214
154 102
90 257
466 10
333 99
419 150
89 194
412 117
459 168
472 260
47 113
136 200
228 301
2827.5
4
