40
9
0 0 0 0 0 0 0 0 0
80 68 43 45 44 55 32 82 98
12 84 22 50 91 63 99 68 52
20 21 60 33 93 47 43 58 23
36 76 19 34 31 68 76 37 100
20 29 12 34 35 99 78 83 56
67 39 20 92 26 97 75 27 85
41 99 82 38 51 65 100 23 71
86 14 14 64 82 83 90 16 11
52 16 42 100 50 74 96 77 58
86 27 30 78 57 94 38 27 24
78 18 19 79 27 83 11 90 39
85 38 40 59 59 20 59 87 27
23 77 73 14 40 77 66 34 21
100 96 95 55 69 90 20 66 64
38 15 100 88 73 80 50 66 67
91 35 78 17 13 10 47 68 14
57 45 20 30 21 57 99 45 69
50 17 33 67 90 21 23 19 53
23 49 54 90 26 55 61 19 78
81 11 37 93 84 65 87 86 74
86 55 73 47 31 16 45 71 64
57 44 89 12 95 25 34 55 15
98 71 37 14 68 51 75 16 43
30 98 80 23 57 48 76 90 86
47 95 20 85 26 67 56 15 36
44 42 76 75 29 70 12 90 94
12 17 79 23 50 77 51 53 55
41 71 80 64 46 88 86 15 66
50 58 86 11 86 19 90 27 44
78 15 26 47 49 51 36 89 58
51 57 47 58 66 80 82 36 19
20 44 26 18 15 49 46 55 34
94 77 57 87 46 41 42 84 62
79 50 19 45 86 92 88 95 40
17 41 96 10 23 40 33 65 80
35 35 61 91 61 61 87 24 56
80 55 37 94 80 27 11 57 28
43 98 11 87 21 69 79 74 43
54 24 92 48 83 92 84 72 60
1.87422
1.91672
0.53259
2.30263
1.56974
2.3335
2.21077
0.965326
2.02274
2.21263
0.918298
0.679274
1.87421
1.87323
1.34916
2.39311
0.576686
1.18096
2.23789
1.01937
0.923961
0.67614
1.03929
1.72211
1.44303
1.86017
1.37335
2.30244
1.1071
1.90809
0.939666
0.56077
0.619092
1.68164
2.22546
1.3656
1.40685
0.795837
1.5897
0.730966
198 39
332 210
94 260
187 391
122 161
165 179
80 263
304 81
490 292
99 97
131 19
279 343
203 53
289 206
371 134
2 11
297 127
66 479
424 456
99 157
287 104
479 39
377 315
489 64
243 182
444 397
124 439
423 458
338 383
435 378
142 243
283 347
210 300
420 257
284 187
93 281
316 125
309 332
394 166
271 358
3551.67
3
