40
5
0 0 0 0 0
78 36 98 68 26
82 43 22 98 37
94 90 83 11 11
23 16 20 72 77
27 73 90 68 10
80 66 39 70 77
42 76 81 38 94
29 11 65 95 49
55 34 98 99 13
85 39 88 92 12
64 79 10 10 67
28 83 21 33 68
64 17 48 76 14
46 45 82 25 99
79 34 35 55 59
42 44 19 58 57
86 34 48 19 20
48 34 47 24 44
40 26 60 31 90
27 63 34 82 91
27 45 18 66 99
22 27 12 52 27
81 35 53 79 49
62 12 89 97 14
72 73 15 47 23
24 92 58 70 99
88 20 100 69 55
13 73 74 27 47
44 94 15 79 79
30 23 98 26 43
82 60 61 83 45
76 94 73 20 73
50 99 11 86 60
43 12 34 96 41
23 66 10 77 68
69 49 80 90 72
24 24 62 89 83
66 98 56 24 17
66 93 48 20 57
1.02524
1.49337
0.721916
0.555507
2.05717
0.743999
2.18817
1.29866
0.922095
2.11696
0.858055
1.52336
1.61756
1.25997
1.25698
1.18035
1.0175
0.641827
2.11384
0.800124
1.29715
1.11171
1.67173
2.03377
2.44031
1.87308
1.47971
2.26162
1.481
1.82922
0.75286
1.4917
0.827896
2.32345
2.16641
1.27745
1.89593
1.97031
0.972189
0.711772
317 416
329 79
240 342
475 50
99 137
402 62
136 182
259 347
230 231
465 132
224 477
79 32
36 443
268 381
206 115
232 441
261 311
444 269
380 445
366 379
301 91
468 363
279 372
248 142
30 260
149 325
115 345
334 177
497 58
341 270
294 492
406 421
253 78
264 167
31 490
275 282
254 374
210 37
62 328
465 479
2638.75
4
