40
3
0 0 0
94 74 83
50 92 84
61 87 10
78 25 78
91 79 95
66 36 86
88 35 78
92 16 15
63 55 51
26 63 50
33 50 76
81 85 96
100 100 46
62 10 23
91 35 33
70 69 92
31 62 61
92 30 76
14 69 40
67 61 44
84 88 90
79 70 71
44 88 99
44 48 36
43 13 89
72 40 90
67 73 46
56 87 40
24 56 28
37 13 33
16 36 12
27 68 76
15 100 93
37 49 25
53 14 37
99 93 81
38 39 49
98 47 64
10 86 83
0.738596
0.32972
1.16442
0.5426
0.686881
0.403142
0.333406
1.43523
0.688454
0.706092
0.88927
1.17708
1.08927
0.465369
0.896139
1.39983
0.72751
1.06401
1.28608
0.304271
0.947424
1.00496
1.48148
1.11763
0.684249
0.325955
0.952624
0.383457
0.759521
1.28299
0.674152
0.56252
0.346103
0.329573
0.428387
0.760036
1.15366
0.39234
1.39779
1.12872
54 3
46 200
282 207
433 263
196 121
206 383
6 384
93 390
361 58
272 356
426 419
30 179
485 45
23 97
383 123
14 34
331 52
13 264
119 225
265 46
73 238
394 44
41 487
36 344
372 133
446 290
136 203
238 14
415 332
423 487
144 478
448 247
195 496
58 34
397 188
474 268
220 7
369 356
341 197
446 261
5742.5
2
