40
11
0 0 0 0 0 0 0 0 0 0 0
71 19 25 73 66 25 34 62 29 32 72
98 76 36 93 44 76 92 42 26 65 57
63 42 100 57 70 12 64 10 56 30 10
69 34 84 62 22 75 95 83 93 61 43
90 26 18 84 65 56 36 27 70 44 74
82 11 90 13 19 73 42 70 20 62 55
99 63 100 40 26 71 93 73 27 38 35
63 98 65 59 91 10 90 30 33 93 85
34 47 25 54 65 85 41 40 90 16 52
23 28 85 21 16 78 19 68 67 30 45
53 54 34 21 12 47 95 99 16 12 20
60 75 57 12 10 33 21 50 43 20 22
57 81 61 59 20 50 44 73 61 65 62
54 67 18 56 59 35 62 20 74 50 38
65 55 66 63 64 65 91 99 47 96 38
45 90 82 96 86 59 26 53 15 77 94
12 77 86 42 76 15 92 26 20 71 64
20 48 36 92 56 95 93 34 52 53 69
53 94 68 49 12 86 63 96 53 77 77
15 76 21 69 51 81 35 41 67 71 14
66 55 92 73 51 27 49 37 37 40 37
82 40 52 51 38 20 100 95 27 13 45
90 21 28 61 24 18 18 38 100 72 95
74 15 80 69 71 13 24 63 75 95 67
17 15 17 21 72 55 43 85 43 39 38
21 19 71 26 74 89 30 98 69 35 47
69 92 94 73 48 92 12 98 63 93 25
100 71 68 96 96 85 72 60 20 73 48
70 40 62 16 28 27 99 66 60 76 52
13 98 60 55 61 28 47 20 84 23 38
92 40 15 78 72 26 24 97 17 92 10
74 87 87 96 87 78 76 31 57 97 65
76 21 41 78 84 11 36 43 95 25 75
70 68 91 77 35 92 24 14 78 40 49
64 46 23 35 11 63 89 61 15 55 92
81 76 93 74 97 22 21 73 93 37 63
20 68 80 77 37 68 85 86 24 65 88
14 10 87 24 65 54 92 78 25 35 66
73 74 21 52 31 15 69 13 100 86 35
0.588823
1.68182
0.454041
1.23605
0.58834
0.982955
0.476919
1.51397
1.81517
0.728652
0.639923
1.2065
1.64082
0.794165
1.9385
1.91469
0.728541
1.87955
1.45721
0.513586
1.25462
0.99468
0.914117
0.508005
1.99231
1.14681
1.28833
0.951354
1.56641
1.48184
1.4875
0.900553
1.72496
1.67564
1.79869
1.9048
0.666695
1.31155
0.659133
1.87546
234 135
462 139
359 72
205 281
404 42
315 188
428 73
87 301
78 67
171 40
424 311
39 80
16 489
246 389
358 326
349 28
272 292
335 347
351 27
204 498
0 133
482 53
436 120
329 170
187 129
165 494
55 474
266 449
264 473
368 42
374 473
479 105
485 361
321 114
238 138
173 201
75 428
79 311
308 143
227 170
10790
1
