40
9
0 0 0 0 0 0 0 0 0
20 70 83 66 36 40 88 26 87
68 55 78 65 91 40 36 63 49
49 29 70 14 89 43 11 88 36
13 27 48 81 73 57 16 49 47
50 96 75 95 51 22 68 70 32
51 52 97 11 72 86 79 70 100
76 27 87 29 16 55 83 86 36
14 23 52 32 74 84 52 35 47
97 61 31 67 92 32 89 13 14
47 31 44 15 60 65 64 48 55
62 98 91 45 26 52 93 38 50
69 52 49 25 42 45 44 97 56
10 21 84 39 98 82 53 45 58
78 42 68 11 79 21 43 81 49
22 23 31 47 61 95 35 49 60
90 91 46 84 94 79 20 74 55
17 43 89 43 27 77 70 17 96
78 75 44 68 78 95 34 53 90
59 19 60 81 33 83 34 72 42
50 73 31 92 74 88 75 88 72
31 98 92 50 50 90 36 83 57
47 94 47 39 69 90 55 64 18
51 75 43 85 96 30 31 83 88
59 52 61 60 24 24 88 95 12
13 45 91 71 41 93 30 99 35
31 28 72 61 30 32 36 84 23
29 14 41 33 63 54 12 12 60
32 32 39 39 40 69 27 68 69
61 22 66 91 77 40 99 46 12
31 21 60 67 46 83 18 40 19
58 99 81 61 54 98 93 19 50
73 13 67 84 91 64 80 15 63
73 23 59 52 95 35 94 63 80
17 27 53 90 71 63 78 14 89
72 19 100 64 10 54 56 70 86
68 54 25 25 94 96 69 79 91
19 97 80 85 57 10 76 82 78
64 79 17 72 18 85 58 30 71
65 32 14 100 42 67 14 44 22
1.48055
0.969404
0.840424
0.851259
0.578986
1.5862
1.42349
0.769287
2.31344
1.68013
1.44096
1.47068
1.92828
1.91082
0.767082
2.47599
1.96202
1.28108
1.89883
2.16589
1.06509
1.55004
0.882576
2.03172
1.81599
2.19989
2.06006
1.57016
2.08682
0.832559
1.51948
1.92904
1.07621
0.666626
0.649398
0.640926
1.31864
2.07382
2.16837
2.14306
432 434
125 143
229 226
169 64
451 422
385 135
44 348
129 371
125 379
237 433
109 355
436 105
287 406
173 485
330 294
200 228
80 248
333 162
186 383
446 216
293 232
271 47
90 234
170 256
168 178
190 208
232 350
393 356
282 89
82 80
399 145
132 131
184 473
207 173
193 344
263 196
337 409
32 294
358 434
99 73
5485
2
