40
7
0 0 0 0 0 0 0
62 98 31 73 73 68 53
11 42 75 25 25 44 69
99 45 11 93 17 57 75
23 54 61 53 30 50 30
73 48 11 12 62 45 37
37 83 31 61 84 64 31
32 86 40 53 16 78 64
89 18 77 25 67 53 82
83 67 74 66 96 90 15
93 83 51 84 73 27 83
38 10 78 93 100 56 10
13 32 29 89 59 69 10
22 73 36 50 70 59 79
70 37 14 55 37 21 25
11 81 24 96 42 93 13
82 61 56 51 15 66 87
79 16 49 20 16 60 38
31 52 22 88 76 20 10
84 73 84 86 57 32 84
78 66 36 22 73 28 33
54 90 51 100 40 31 90
38 27 42 10 77 87 40
23 94 85 49 92 50 33
23 27 18 20 76 85 23
65 19 74 90 35 51 100
79 31 13 54 46 30 89
77 55 38 35 65 57 23
28 31 62 79 74 93 50
59 69 67 90 62 57 60
49 20 91 14 64 81 83
58 50 40 14 62 16 40
41 91 59 38 26 30 36
79 64 95 38 52 84 86
98 25 16 38 35 17 66
93 98 60 25 33 56 51
16 27 49 33 47 58 45
94 96 53 67 90 46 69
33 56 96 73 16 31 62
96 78 100 24 91 32 35
0.919286
0.802825
1.38166
0.876698
0.837209
2.35899
2.09119
1.90539
1.26192
1.27052
2.47971
1.55665
1.61366
1.47333
0.69411
1.84893
0.554998
0.961406
2.3326
1.33092
1.75435
2.20543
2.37314
1.97136
1.57191
1.36717
2.47737
0.75691
0.821915
0.648575
2.35868
1.39654
0.936483
1.66721
2.42936
1.74919
0.516703
2.21759
0.72833
2.21173
352 59
299 175
310 479
233 156
410 477
422 76
342 35
191 86
319 160
262 211
224 475
398 326
27 147
467 344
349 337
396 39
482 310
231 286
475 362
60 339
98 112
318 21
134 338
376 363
13 450
437 36
266 448
118 159
466 212
255 485
404 101
384 277
12 498
304 95
465 425
166 148
109 76
368 159
303 307
66 47
2628.75
4
