40
5
0 0 0 0 0
67 87 40 77 14
17 46 59 58 57
43 63 27 69 25
65 20 97 54 100
14 87 75 81 81
49 32 26 40 89
77 31 18 66 41
53 25 57 43 62
69 33 86 84 96
19 32 34 28 54
11 52 20 64 69
36 18 15 70 72
35 25 26 64 35
30 38 81 95 66
56 38 97 64 30
59 28 26 29 53
19 63 73 15 78
72 56 98 86 23
41 91 39 91 12
11 16 32 22 31
22 72 52 25 93
98 73 22 71 88
55 42 83 98 65
83 57 100 21 52
32 26 23 89 48
98 20 63 99 78
12 83 77 29 90
86 20 26 72 39
27 39 17 51 99
73 62 93 67 53
87 40 58 30 92
29 59 77 41 75
85 51 35 98 21
47 10 61 76 14
61 64 18 66 63
64 58 67 75 93
75 74 20 14 78
59 82 14 56 65
46 74 59 76 33
0.687833
0.398894
0.370789
0.607631
0.691325
0.284472
0.950067
0.961697
0.983211
0.411178
0.532032
0.261547
0.876109
0.519048
0.711649
0.236884
0.705352
0.917769
0.577536
0.950977
0.466973
0.787656
0.635551
0.858771
0.386002
0.547978
0.788798
0.563343
0.530644
0.348792
0.871294
0.52794
0.976065
0.228944
0.604175
0.452289
0.925485
0.84395
0.262239
0.443817
494 419
78 105
353 285
418 383
117 448
489 484
31 194
426 272
61 182
357 298
322 228
51 233
305 193
240 164
334 359
364 326
355 436
290 91
145 417
117 247
487 131
31 140
437 248
426 456
276 316
435 164
260 364
435 62
129 331
2 496
307 494
366 431
422 96
265 399
273 196
470 279
280 357
361 70
461 186
496 246
5270
2
