40
7
0 0 0 0 0 0 0
97 33 36 16 46 75 69
71 17 18 48 25 66 82
15 27 64 96 71 60 67
12 33 18 85 61 29 88
69 99 78 18 91 99 29
100 98 69 35 62 25 14
13 47 51 100 38 23 12
46 70 46 98 16 27 47
35 65 47 56 68 57 31
26 49 29 52 34 100 35
41 79 38 22 30 15 80
72 23 17 88 51 24 44
86 29 63 55 100 100 45
81 63 14 54 60 95 74
64 70 91 95 58 38 64
37 60 54 54 68 68 49
70 12 52 81 83 89 24
79 59 41 57 81 30 33
25 98 82 59 85 93 47
33 94 94 94 60 38 40
45 90 43 47 32 29 92
10 62 78 12 20 97 41
68 90 97 50 86 80 81
92 62 20 26 91 69 12
97 29 50 73 26 62 31
49 33 46 90 69 78 41
82 45 10 91 41 43 50
64 37 37 79 77 44 45
98 96 79 33 83 58 61
31 72 88 42 89 98 88
71 35 82 56 57 19 37
15 92 26 49 69 56 18
96 63 54 51 39 34 82
33 47 96 69 87 30 88
44 20 33 60 95 17 38
49 81 25 24 49 76 56
88 74 57 39 78 26 19
82 29 42 46 96 30 35
21 22 98 26 15 89 33
0.582346
0.791367
0.425763
0.448497
0.565642
0.478309
0.819273
0.335292
0.673458
0.345337
0.374233
0.842452
0.750844
0.760033
0.320959
0.957834
0.495579
0.471198
0.526492
0.224329
0.259205
0.761972
0.352045
0.886905
0.446911
0.476331
0.378831
0.885843
0.720025
0.364109
0.91311
0.240625
0.217768
0.532397
0.367653
0.737628
0.421099
0.257398
0.883364
0.260221
30 338
72 39
66 216
0 149
399 5
393 475
24 480
418 436
123 476
472 37
395 54
404 302
53 436
418 466
199 241
67 338
387 475
65 276
443 259
298 480
363 176
253 49
44 347
366 154
360 427
423 446
38 25
149 63
317 347
3 475
337 412
52 58
189 119
44 432
34 163
192 47
109 138
96 129
319 345
112 146
3616.67
3
