40
11
0 0 0 0 0 0 0 0 0 0 0
29 74 93 16 83 89 70 71 91 27 69
19 53 74 49 35 96 20 87 60 87 55
63 96 59 40 52 96 19 34 50 20 70
92 54 85 68 79 44 24 84 28 46 50
19 38 43 72 81 12 11 72 65 23 68
28 78 11 99 84 52 93 45 13 44 11
72 18 83 61 43 33 47 14 66 37 30
61 76 50 95 10 22 44 63 53 77 55
33 67 95 27 21 94 74 42 60 19 80
58 98 85 57 22 57 88 84 87 89 17
41 82 55 99 11 62 24 38 26 85 84
73 89 97 75 45 49 24 36 77 76 71
52 15 37 96 10 56 88 88 21 83 100
66 75 44 78 100 18 73 48 10 31 51
34 44 60 73 79 30 92 62 97 29 26
63 47 18 59 30 76 92 47 98 28 93
30 57 17 53 16 27 61 15 24 63 58
71 56 62 99 82 36 25 87 97 27 94
19 25 53 12 25 78 35 91 95 65 83
83 79 40 33 14 61 53 85 60 67 56
64 77 48 14 32 23 57 57 26 41 60
86 46 48 84 94 57 86 67 91 96 74
20 56 66 66 19 31 33 29 38 93 88
95 43 95 100 68 86 17 41 36 20 65
91 78 61 82 50 53 34 54 22 88 94
10 77 61 16 79 75 48 54 98 62 48
81 62 50 92 51 61 42 45 49 81 60
10 20 70 19 40 55 75 87 62 75 21
27 46 11 61 46 22 41 67 68 29 59
55 57 71 13 96 52 70 61 58 48 98
83 29 71 75 61 58 27 38 33 31 12
11 34 27 72 37 10 96 40 22 33 46
70 41 76 88 18 84 10 88 30 53 78
18 45 72 90 72 20 92 88 82 18 93
20 32 38 15 38 79 80 54 28 50 72
88 60 28 86 14 76 67 14 34 71 48
84 46 37 99 59 90 83 14 95 43 43
13 74 19 46 29 70 65 43 52 41 38
13 52 85 66 90 10 88 24 22 74 34
0.147606
0.276355
0.207108
0.198267
0.308584
0.414485
0.192515
0.249845
0.109045
0.393071
0.375025
0.106187
0.12267
0.2597
0.255985
0.266333
0.41674
0.180097
0.263349
0.250587
0.435561
0.367688
0.368044
0.177547
0.190222
0.386766
0.240703
0.369524
0.499033
0.210712
0.257595
0.153982
0.321712
0.290304
0.444315
0.16264
0.153049
0.108222
0.468622
0.143137
387 270
55 471
20 101
273 41
188 182
256 117
145 92
7 404
347 208
92 27
239 350
461 345
121 455
373 396
335 436
298 203
394 427
319 369
167 285
141 53
340 351
467 166
181 87
109 6
140 223
123 186
172 494
411 371
352 464
350 80
399 390
40 90
67 228
345 312
444 39
427 372
457 296
216 357
65 196
111 462
2688.75
4
