40
7
0 0 0 0 0 0 0
37 86 77 76 58 27 75
28 65 44 33 61 20 26
46 75 43 13 36 74 39
52 27 81 90 34 74 64
14 36 70 67 67 71 48
26 28 52 82 10 67 21
81 37 43 13 95 68 92
66 20 85 98 96 33 89
31 41 50 54 100 84 93
37 21 17 44 89 14 95
40 68 68 16 24 49 30
81 84 57 72 95 14 28
50 10 65 25 55 45 80
37 57 88 95 55 23 37
37 85 63 42 46 33 54
39 26 32 99 62 40 77
39 85 96 79 30 70 28
96 17 58 17 41 46 84
51 34 33 80 98 38 53
95 26 56 56 86 74 98
88 94 18 49 30 48 23
29 82 73 97 80 61 78
52 25 83 96 63 22 42
89 51 42 59 76 34 38
69 28 51 79 55 88 51
11 30 92 46 91 84 86
25 91 23 63 22 65 56
66 26 53 59 96 12 99
18 15 22 19 25 100 68
66 70 85 36 45 83 35
48 44 78 43 54 63 41
65 48 69 54 29 62 38
15 20 19 53 31 88 39
43 53 72 40 27 59 51
45 23 18 34 33 92 56
95 55 79 76 80 91 76
87 86 58 47 48 91 34
17 27 24 23 30 99 21
42 60 88 92 40 30 19
1.23506
0.765521
0.783691
0.927294
0.416712
0.542524
0.446634
0.921386
0.31499
0.875674
0.76909
0.535626
0.647142
0.818607
0.503687
1.32203
1.49667
1.43796
0.407023
0.466701
1.18871
0.544578
1.27617
0.433136
0.811066
0.312567
0.775701
0.899132
1.35699
1.41937
0.6838
1.49761
1.26819
1.11798
0.358239
0.352595
0.748865
0.504779
0.375716
1.33912
394 373
302 417
203 408
346 84
82 31
287 109
306 103
221 257
211 16
448 439
371 125
363 5
13 341
83 172
254 213
337 481
287 295
75 497
194 189
496 218
453 64
7 45
500 236
88 309
441 281
234 466
6 76
425 452
41 69
127 441
192 321
451 372
182 349
43 196
385 315
28 457
494 275
203 321
179 238
14 426
5300
2
