40
11
0 0 0 0 0 0 0 0 0 0 0
34 66 30 95 67 72 34 77 85 85 81
22 86 99 41 24 91 73 56 29 25 70
72 38 49 35 57 23 77 46 43 19 91
47 34 24 56 89 50 16 41 70 85 64
64 49 33 86 39 64 14 76 61 14 90
29 79 20 88 27 84 25 85 39 55 62
86 87 36 70 88 61 84 78 99 71 24
91 79 90 76 57 25 58 61 35 94 68
47 16 74 50 42 96 24 24 35 26 41
65 10 48 64 25 67 88 38 51 21 36
64 55 67 64 27 63 30 72 22 90 100
62 43 59 66 30 81 17 18 13 10 12
96 65 81 48 36 18 37 93 52 15 58
67 89 34 92 69 25 77 69 10 56 62
38 43 98 48 85 94 28 52 28 11 97
79 26 23 61 62 13 81 11 77 58 78
76 80 64 89 98 33 55 19 94 62 94
49 17 54 81 83 71 66 18 88 53 30
15 70 46 28 66 64 99 76 69 31 91
56 82 52 21 97 92 95 89 64 35 96
79 85 20 86 57 97 38 89 51 78 51
88 64 36 78 91 13 13 41 52 98 26
56 93 74 72 68 69 40 75 52 78 70
74 53 95 80 42 35 86 51 69 63 56
57 97 11 78 32 22 59 10 69 51 100
28 87 26 65 45 21 62 43 71 54 83
95 34 51 59 39 78 90 81 28 56 90
44 47 28 99 10 57 33 100 32 81 81
18 53 89 84 68 29 55 23 96 85 31
52 51 100 99 42 97 76 16 65 33 85
74 78 94 37 93 53 23 88 58 96 59
30 89 21 60 64 58 63 91 18 17 48
23 94 29 23 38 53 76 78 63 99 43
26 11 39 84 38 41 82 68 40 34 10
93 59 59 19 74 42 98 37 96 13 77
19 68 32 55 95 51 36 35 67 17 16
39 82 68 55 40 45 91 72 30 90 54
69 14 96 28 37 96 52 92 31 44 61
61 21 10 78 91 83 87 52 31 86 26
0.395519
0.330092
0.335944
0.429471
0.350687
0.372417
0.170311
0.424834
0.371126
0.214941
0.444522
0.337023
0.481934
0.118022
0.298209
0.300534
0.182489
0.237703
0.15442
0.16871
0.105849
0.201952
0.261442
0.30163
0.266527
0.267276
0.158676
0.140919
0.146413
0.325131
0.302269
0.240155
0.211091
0.356453
0.190473
0.301688
0.144282
0.425007
0.491365
0.322937
97 355
236 411
12 194
271 30
327 496
464 417
111 197
81 200
328 215
362 229
92 376
256 133
112 334
442 468
295 150
185 470
30 24
78 392
243 293
193 367
345 161
90 166
102 326
481 135
1 336
190 402
153 18
51 306
480 385
134 492
287 285
472 361
469 58
339 33
351 15
342 312
245 129
454 180
339 146
351 59
11160
1
