40
3
0 0 0
94 73 28
46 89 67
34 35 94
34 22 10
74 48 64
24 11 57
43 60 77
79 32 38
26 28 73
12 75 85
76 65 62
70 31 69
34 77 32
52 77 86
53 84 46
75 96 67
93 51 27
67 66 58
56 73 43
81 44 15
68 19 19
100 39 11
44 51 14
69 13 11
39 64 66
63 23 28
61 43 22
39 47 18
16 92 33
66 80 85
99 44 96
72 41 58
17 25 82
11 12 12
88 13 97
28 62 88
41 81 81
47 84 40
18 73 13
0.542945
0.705804
0.727589
0.86846
0.498274
0.663399
0.615567
0.585957
0.820933
0.603985
0.852247
0.791888
0.765905
0.565291
0.911915
0.371154
0.838369
0.709485
0.926617
0.405666
0.893128
0.826834
0.346601
0.710757
0.525071
0.270746
0.403515
0.587688
0.953603
0.459161
0.953097
0.317202
0.979384
0.502875
0.450584
0.206297
0.382151
0.526307
0.380123
0.571006
92 95
374 287
68 410
229 131
285 414
424 160
159 14
94 438
296 43
216 25
82 306
161 457
287 123
486 303
297 325
33 44
218 165
350 260
119 16
93 498
45 143
479 74
2 252
71 108
134 261
488 82
358 365
21 168
167 385
67 341
435 434
298 263
364 238
181 124
220 199
99 32
369 75
79 374
455 131
362 113
5102.5
2
