40
5
0 0 0 0 0
77 37 100 34 90
14 39 95 47 55
90 93 25 90 45
43 90 53 99 89
44 75 65 59 31
92 67 27 26 70
44 69 80 93 28
75 99 99 97 31
55 82 48 98 76
73 76 70 67 59
17 20 98 72 29
79 72 51 78 26
77 59 28 55 12
59 60 45 70 47
71 10 94 41 95
86 100 30 18 33
65 73 38 46 37
97 31 29 31 21
96 11 69 83 67
43 31 22 85 34
26 85 46 22 57
40 12 31 81 32
69 78 81 63 74
30 66 66 71 16
34 63 80 22 66
90 51 75 64 19
72 68 17 63 62
14 24 50 17 50
92 24 50 25 61
36 34 66 25 96
86 61 93 15 33
58 12 72 71 44
45 71 100 88 19
60 18 71 85 68
67 48 98 71 77
79 13 39 87 49
92 100 59 28 46
87 45 16 56 30
36 36 95 21 17
0.952657
0.908897
0.992665
0.928761
0.945817
0.589547
0.579887
0.272531
0.804
0.715006
0.929474
0.570963
0.736391
0.939259
0.342049
0.57581
0.592204
0.72584
0.235885
0.643158
0.234253
0.745328
0.395677
0.862183
0.946009
0.391164
0.751277
0.332416
0.437746
0.560191
0.61412
0.823745
0.568036
0.767723
0.927929
0.581656
0.417345
0.997449
0.964614
0.345735
24 316
490 437
494 312
95 126
131 275
488 452
307 393
410 309
290 146
447 103
381 446
364 112
495 340
90 50
79 235
471 216
173 86
22 254
102 69
277 470
418 432
161 105
387 33
9 191
453 214
430 208
264 424
14 391
408 216
16 112
146 406
290 115
339 301
118 471
203 210
16 51
266 65
240 67
421 357
176 186
11035
1
