40
11
0 0 0 0 0 0 0 0 0 0 0
95 14 76 34 82 85 21 58 67 85 84
94 19 72 81 56 69 61 45 94 34 14
36 66 93 91 37 68 94 51 42 57 49
81 80 66 13 78 18 65 58 10 88 23
98 11 93 16 22 49 76 51 50 16 13
43 93 31 13 67 35 51 60 48 94 92
14 23 95 60 11 52 75 71 74 64 24
70 59 15 92 49 33 49 76 78 53 79
62 64 36 46 60 98 81 99 100 87 92
91 39 44 49 72 26 49 21 41 27 32
78 69 47 42 19 14 56 74 66 18 26
21 35 72 29 10 39 26 67 14 89 28
98 93 83 44 66 21 32 49 23 30 40
60 10 57 32 87 75 39 17 28 46 65
28 33 87 58 27 10 36 66 62 71 26
10 40 49 41 52 94 47 53 72 44 89
52 15 19 14 77 49 80 61 79 75 76
12 19 56 42 60 31 57 45 28 89 86
70 57 43 66 60 43 65 53 62 63 58
19 58 74 85 19 28 79 91 97 16 53
11 86 38 31 71 28 84 49 73 85 20
83 74 34 65 43 57 78 89 71 82 86
30 50 80 88 100 31 62 18 92 51 79
79 36 44 51 86 32 18 15 13 68 86
14 99 55 93 90 52 31 25 73 28 94
95 16 76 14 82 47 64 36 28 63 18
48 76 44 81 32 100 96 43 52 99 85
88 22 76 86 48 44 52 47 88 73 38
94 68 12 51 89 21 96 86 77 66 68
57 38 87 63 61 89 52 34 86 13 28
61 93 27 18 40 57 25 27 18 25 40
85 46 52 32 37 52 89 51 47 60 82
70 50 18 68 39 10 91 42 53 10 93
27 26 30 21 21 72 72 15 65 52 44
20 20 61 59 85 24 45 13 31 24 56
82 64 70 93 34 89 74 20 52 50 82
93 78 37 93 99 79 48 20 11 34 57
58 26 76 41 32 50 63 34 55 51 14
94 24 71 85 69 35 91 80 44 32 77
0.687572
0.55371
0.717101
0.942368
0.77192
0.560526
0.305742
0.787688
0.319664
0.880697
0.860515
0.947863
0.666038
0.446595
0.510484
0.834437
0.479856
0.256034
0.54501
0.226665
0.438476
0.304802
0.93313
0.860967
0.889643
0.599719
0.956314
0.5191
0.258699
0.510363
0.711968
0.361272
0.80547
0.579871
0.643041
0.286289
0.606239
0.490401
0.741511
0.29592
22 107
453 149
164 253
371 175
311 251
139 81
186 460
145 89
316 98
150 83
235 216
254 116
462 304
135 255
81 488
339 418
300 172
280 252
171 179
432 119
5 116
211 463
270 168
214 85
139 154
389 487
484 367
304 129
83 376
37 270
348 53
360 177
489 342
360 311
374 479
349 451
421 361
195 444
85 388
279 484
3531.67
3
