40
7
0 0 0 0 0 0 0
92 79 62 81 73 58 54
17 12 47 90 17 67 40
45 58 30 57 98 38 12
90 17 40 74 19 94 11
31 71 42 48 62 59 56
83 66 10 80 37 78 98
69 75 94 57 37 93 42
75 20 17 37 32 39 92
82 31 22 100 70 18 49
46 11 87 70 95 90 21
93 29 97 88 38 43 85
18 79 31 17 30 44 70
41 20 89 10 75 48 87
14 87 43 11 54 89 27
83 96 72 59 92 95 61
59 78 96 44 80 87 11
92 75 99 46 73 74 62
57 98 13 69 52 96 32
60 72 58 86 17 20 79
26 29 90 61 48 82 63
37 14 23 98 13 22 24
65 20 42 27 99 38 89
80 41 73 21 67 12 39
87 97 66 45 27 54 35
41 57 12 18 87 12 62
99 48 39 49 78 81 86
20 36 92 24 95 37 49
17 80 90 80 26 70 80
70 15 67 92 46 59 75
40 94 79 16 91 95 30
40 85 23 33 79 42 21
68 66 63 73 80 52 63
79 31 15 46 93 80 12
93 50 39 38 58 24 85
85 73 57 11 66 39 91
11 99 38 82 41 15 17
21 94 52 21 10 58 83
66 46 48 46 71 95 94
13 30 84 85 79 74 21
2.02792
0.557557
0.994886
1.79007
2.02598
1.40012
2.07964
1.12086
1.62952
2.26221
0.91948
1.66504
1.40313
1.50077
0.875074
1.12748
1.81962
2.43275
1.01941
2.40732
0.552184
1.94842
1.17387
1.20303
0.786585
1.90252
2.33626
0.831948
2.25676
2.24288
2.24931
1.68053
2.13217
2.11748
1.04795
1.53403
2.23649
2.3835
0.698426
2.35152
211 342
200 114
81 199
87 190
236 213
165 228
374 303
73 466
446 12
66 118
467 419
260 332
253 430
173 430
227 27
102 438
120 482
480 118
466 281
187 399
395 79
342 271
244 297
432 165
255 109
415 50
23 444
141 286
122 100
35 431
268 61
271 302
113 253
128 63
46 330
300 189
111 39
409 333
143 240
155 463
10925
1
