40
11
0 0 0 0 0 0 0 0 0 0 0
96 93 68 93 45 65 78 99 65 62 69
12 74 94 52 62 32 13 59 85 59 32
66 35 85 60 27 25 81 88 89 57 78
31 41 33 35 37 100 83 90 58 52 92
30 21 49 100 37 40 99 59 87 50 87
32 56 25 61 60 39 60 71 96 49 52
94 30 79 48 77 26 22 100 93 68 36
83 73 16 96 46 31 88 77 39 17 41
10 90 14 12 57 34 62 16 44 76 88
57 55 51 70 17 98 97 58 93 20 51
62 20 76 44 100 47 90 84 94 67 76
22 43 73 45 82 38 47 13 35 87 86
47 81 56 20 96 19 71 50 84 70 23
40 49 14 18 56 49 12 85 78 46 83
71 72 78 46 58 16 17 45 39 61 52
65 43 73 51 93 65 79 63 64 85 45
89 30 27 23 54 87 24 96 55 84 99
18 20 11 72 44 97 17 63 49 98 30
27 56 35 85 65 99 37 34 66 90 32
18 67 81 74 44 27 11 83 68 23 26
23 35 53 27 75 51 60 40 61 80 16
65 13 52 77 75 71 59 85 10 17 91
81 47 33 100 10 75 10 80 69 52 100
14 11 100 96 45 72 70 60 16 62 77
61 61 54 72 38 53 81 78 39 95 27
49 33 59 72 91 29 49 84 60 29 59
77 91 38 73 90 84 74 49 60 96 93
71 13 30 36 87 37 17 18 78 75 82
15 39 61 32 63 21 75 49 88 94 57
27 57 44 25 14 51 12 30 49 74 22
57 85 27 64 81 83 94 92 15 36 97
27 80 95 23 14 71 30 75 28 22 43
71 54 52 23 10 61 33 58 32 66 74
78 25 20 36 12 38 77 46 70 28 33
54 41 83 86 52 45 22 17 24 76 31
89 46 37 73 74 12 30 80 76 28 17
17 60 45 18 15 28 33 43 66 26 15
10 11 44 88 17 77 65 48 78 34 53
55 85 88 65 42 94 33 93 32 34 49
0.631225
0.754353
0.292891
0.45662
0.811067
0.280681
0.27767
0.672479
0.951092
0.253624
0.516128
0.284676
0.856006
0.396125
0.665068
0.498752
0.733628
0.796914
0.3664
0.339247
0.713365
0.418258
0.853917
0.876981
0.572455
0.500675
0.362838
0.676715
0.577101
0.244969
0.798362
0.786005
0.601308
0.305475
0.85759
0.445089
0.625971
0.600926
0.824147
0.847476
231 341
83 406
42 220
349 341
328 290
485 172
198 437
273 207
78 54
268 316
128 114
254 162
28 200
124 4
29 178
31 348
76 487
192 228
86 300
452 119
409 489
153 151
241 345
356 156
489 430
492 461
333 186
420 326
115 387
57 354
329 103
395 313
244 26
130 458
38 112
478 41
279 178
182 303
262 21
231 473
2136
5
