40
7
0 0 0 0 0 0 0
86 64 88 47 76 93 72
22 23 42 74 25 61 77
66 80 95 38 31 44 96
97 48 84 49 62 24 61
22 73 51 57 64 48 90
74 60 42 70 29 62 38
63 76 71 35 19 60 56
83 89 87 84 15 95 94
17 97 40 18 96 85 58
84 35 58 88 29 37 63
73 26 59 28 51 13 41
68 88 15 88 25 53 46
85 39 13 90 88 39 27
64 11 88 82 18 58 83
24 16 29 24 95 16 56
51 59 75 25 61 16 90
47 72 95 88 76 43 44
57 77 76 75 82 39 58
100 82 67 52 97 24 71
55 98 57 12 40 65 58
99 61 86 38 61 95 95
89 68 81 65 58 50 28
36 55 27 33 45 53 10
12 59 52 28 72 71 87
96 53 80 20 59 48 97
64 98 50 75 17 77 80
59 51 15 28 43 19 30
43 69 25 54 70 39 91
92 34 42 84 58 75 50
92 16 11 55 88 44 65
73 10 66 27 82 48 58
56 93 55 95 20 99 50
46 56 98 67 35 91 77
23 59 97 60 84 23 86
39 85 10 59 95 95 74
89 18 79 47 28 22 39
76 28 53 44 28 70 48
90 78 78 41 96 55 11
33 20 68 62 87 22 41
2.07586
1.42225
0.624497
0.728276
0.772514
1.7161
0.521301
1.67158
1.57243
1.95756
0.932301
1.19388
2.29899
0.894627
0.809939
2.24225
2.42286
2.03778
1.17091
0.720886
1.93041
0.872242
1.59197
1.30795
1.81733
1.86674
2.02811
2.37033
0.590796
2.18222
2.25382
1.39877
0.50119
1.29159
1.10408
1.24197
2.21632
1.08371
0.9388
1.24687
223 125
394 2
251 226
483 139
276 5
8 3
312 189
492 232
89 491
279 412
9 200
81 113
372 378
70 497
118 328
153 204
455 417
13 22
399 216
472 499
108 275
8 450
64 140
159 382
84 474
179 320
460 392
316 58
414 390
86 120
259 11
495 112
6 494
456 219
435 120
178 54
406 109
260 191
247 236
117 143
5625
2
