40
5
0 0 0 0 0
73 82 42 12 29
90 12 47 73 83
58 50 99 77 73
53 89 16 67 65
69 42 27 50 75
79 14 91 70 40
20 87 84 28 61
70 59 29 61 34
84 76 63 38 87
45 29 64 38 55
32 39 35 65 24
56 68 30 61 27
74 75 54 45 71
48 54 16 81 55
56 88 29 77 25
41 73 28 61 70
83 53 37 59 22
61 64 62 95 41
49 57 43 73 53
27 99 43 21 64
25 79 90 93 41
12 72 56 92 77
28 45 84 95 39
41 85 31 77 35
60 86 58 23 32
17 72 55 62 64
23 89 34 82 11
97 75 30 73 66
36 77 79 67 69
30 16 74 10 95
96 78 58 68 19
54 22 82 26 31
98 62 46 98 44
51 58 51 47 92
67 91 10 88 25
73 33 12 17 54
80 92 22 72 57
54 13 77 53 47
61 36 18 15 90
0.761696
0.923489
0.623929
0.39603
0.866938
0.882399
0.373894
0.56153
0.831858
0.518955
0.502139
0.654867
0.281593
0.887394
0.382724
0.302507
0.420196
0.284095
0.642112
0.679965
0.915269
0.554753
0.575916
0.667855
0.79277
0.880558
0.805341
0.706116
0.990231
0.570675
0.603274
0.938194
0.926621
0.603289
0.640075
0.414994
0.781027
0.958866
0.333739
0.317389
254 417
478 129
100 133
357 91
318 367
159 399
298 293
276 234
146 132
133 176
181 201
226 312
406 257
186 399
225 123
97 144
276 185
10 394
222 352
330 393
339 144
230 305
0 431
8 321
306 26
200 420
436 187
283 400
397 82
78 404
408 168
11 56
122 181
77 477
357 255
13 403
1 134
426 75
11 393
306 81
5410
2
