40
7
0 0 0 0 0 0 0
60 21 78 29 18 90 87
23 51 24 21 96 32 27
25 55 98 78 54 78 88
16 49 45 20 34 34 38
33 57 10 54 98 91 14
70 17 78 88 88 68 53
70 15 87 89 89 45 45
63 51 43 86 87 12 70
14 76 76 53 21 84 49
15 10 70 11 56 13 31
96 35 83 72 85 54 28
39 11 11 60 86 80 33
19 41 98 12 17 100 31
57 58 13 81 62 92 12
36 94 30 63 21 49 81
75 78 59 95 23 39 56
90 65 38 31 93 20 43
58 43 19 89 87 62 90
100 93 97 35 67 41 78
56 71 38 86 31 100 41
58 94 56 34 97 21 71
52 50 83 64 54 13 71
58 88 86 47 60 51 72
50 95 36 100 12 71 26
44 82 47 71 55 33 56
86 89 96 83 32 54 52
37 84 93 36 73 78 30
34 27 30 66 24 41 99
16 80 59 85 26 41 60
81 20 91 25 85 76 19
71 10 95 90 52 17 48
50 92 85 95 72 81 39
77 57 36 34 67 86 61
43 49 38 55 56 30 82
98 52 35 11 23 42 32
90 40 13 32 93 82 78
93 61 99 58 71 52 97
22 94 31 45 37 53 64
38 28 17 39 45 92 29
0.609057
0.442708
0.741837
1.06869
0.685347
1.36685
0.820603
0.590589
1.01762
1.39574
0.857621
0.327947
0.360844
0.423975
0.592036
0.39128
1.45083
0.603039
1.41257
1.0389
0.757784
0.680031
0.681602
1.23919
1.24179
0.988225
0.410217
0.421068
1.06645
1.30459
0.954724
1.22226
0.416967
1.07309
1.18236
1.01695
1.19349
0.503798
1.40681
0.74782
382 415
231 253
12 442
344 367
97 13
409 264
67 88
462 14
279 460
469 467
199 114
459 473
222 121
296 267
453 245
181 173
210 487
294 456
334 400
422 11
350 464
187 146
98 194
341 218
170 475
203 440
78 59
251 299
425 105
84 157
252 409
142 315
108 331
81 98
114 216
117 243
374 112
99 175
385 486
194 464
5450
2
