40
11
0 0 0 0 0 0 0 0 0 0 0
69 91 10 78 46 31 61 60 84 59 13
62 55 35 31 73 17 71 85 82 74 86
59 90 44 78 93 50 15 87 97 17 58
11 15 66 73 96 56 15 75 89 78 10
86 48 75 32 93 59 12 16 97 21 50
14 77 82 63 70 34 28 67 42 27 58
43 78 61 65 55 77 96 45 36 53 15
65 57 36 96 27 62 25 96 79 21 83
54 35 57 17 41 83 76 63 98 88 12
66 59 37 86 92 59 25 13 23 33 20
45 97 28 30 78 13 79 68 57 34 56
41 15 64 79 33 43 13 43 84 42 71
72 76 98 41 71 32 23 93 95 72 28
82 56 68 15 89 93 49 62 39 30 39
23 93 79 12 74 30 62 10 13 79 50
25 34 46 28 59 79 47 43 29 38 46
32 78 89 82 60 80 21 11 73 44 67
20 52 31 57 100 51 92 59 56 83 57
37 91 67 74 59 90 40 65 16 29 42
99 32 64 39 42 65 50 76 74 89 93
17 35 95 17 18 89 17 92 73 99 78
40 37 98 41 61 71 17 46 17 78 78
58 26 60 32 94 69 70 96 99 27 10
57 68 71 48 10 76 43 45 34 87 61
35 87 96 77 81 82 45 72 52 96 88
12 77 70 36 52 70 23 26 74 10 40
41 15 64 25 69 89 61 68 14 23 100
17 96 72 86 77 99 53 34 56 23 60
66 45 11 61 100 64 19 83 40 99 57
88 14 22 24 31 71 61 64 36 17 87
63 95 92 99 56 67 84 15 85 32 61
66 68 89 50 49 35 28 16 60 58 91
61 40 35 52 93 21 59 87 79 62 66
15 29 35 95 64 19 50 81 23 10 73
78 82 20 11 69 56 80 61 97 43 48
38 61 20 47 52 10 83 77 78 50 34
70 20 87 95 67 98 33 43 38 49 30
19 17 90 87 13 18 43 63 89 69 92
28 43 70 20 64 86 48 71 51 90 72
0.860681
0.608276
1.34044
1.23238
0.729536
1.76167
2.22313
1.88644
2.13113
1.34856
0.751506
2.32906
1.69063
1.25782
0.690339
1.46633
1.81753
2.32913
1.76947
2.30012
1.68489
1.08555
0.513167
1.10752
0.645729
1.25268
1.67861
2.05201
1.70639
1.4609
1.9656
0.829743
1.76819
0.734354
2.27077
2.02734
2.07577
2.2533
0.61034
2.22384
361 499
270 281
362 192
50 31
253 321
410 414
163 366
393 230
87 167
16 81
39 415
427 40
370 129
409 246
118 28
280 260
84 336
138 473
448 432
292 459
362 167
261 135
8 66
342 40
202 280
237 242
207 276
300 280
408 296
136 126
317 154
85 117
144 265
242 485
125 394
228 196
109 407
302 72
163 253
367 300
2172
5
