40
5
0 0 0 0 0
42 11 50 82 17
16 59 29 28 79
24 57 43 64 94
100 95 46 87 56
89 59 90 62 28
86 82 88 58 25
42 68 46 50 90
50 95 96 19 44
71 66 19 47 77
12 17 17 18 29
16 34 90 90 69
16 92 66 15 90
97 19 64 64 71
13 25 23 83 65
27 92 34 22 58
89 86 57 12 71
19 11 36 60 47
62 37 30 72 82
86 52 74 47 48
84 40 27 42 26
28 100 33 40 78
85 37 71 64 77
83 34 82 26 77
52 52 51 60 66
47 66 89 58 11
12 81 46 68 40
22 40 96 99 91
31 18 22 50 17
79 11 99 31 22
90 77 79 16 78
10 11 19 31 46
39 42 79 63 52
23 38 16 42 97
95 50 44 89 12
15 27 68 99 72
80 38 69 97 51
95 95 98 50 81
59 12 40 31 73
45 11 71 35 50
1.05663
2.27082
1.09874
1.036
2.41182
2.19534
1.97197
1.0813
1.41809
1.41905
1.44323
1.04451
1.86206
0.757854
1.66776
1.22487
1.1529
2.48952
0.515824
0.934614
0.581671
2.36592
1.9087
0.73978
2.47555
2.15882
2.49061
2.23974
0.956449
1.64583
0.682226
0.519682
2.32444
2.00112
1.59907
1.38507
0.985807
1.96921
0.647993
1.79407
156 421
157 413
312 156
444 176
192 450
85 445
170 47
178 381
342 75
450 100
62 318
151 101
174 2
15 229
452 457
259 147
172 56
248 425
139 307
32 146
462 294
391 307
359 429
45 139
272 87
467 403
168 438
392 135
18 208
462 349
238 350
61 88
482 217
2 202
51 143
34 274
410 418
383 405
482 189
331 347
2098
5
