40
9
0 0 0 0 0 0 0 0 0
88 74 62 71 94 71 11 62 53
90 12 89 96 84 73 31 49 88
75 97 19 37 94 55 33 31 68
87 10 43 58 30 75 73 19 86
14 24 97 15 73 28 96 75 18
32 61 41 96 63 42 99 23 47
77 13 74 40 76 21 74 88 94
70 45 83 72 83 67 75 31 30
79 43 35 58 13 45 38 20 19
87 86 36 30 40 63 23 95 91
89 29 40 90 61 95 58 33 44
62 31 85 10 69 58 24 33 17
73 35 59 80 89 98 45 47 54
34 90 49 74 73 28 13 52 42
84 31 11 52 98 73 41 47 62
56 89 50 89 75 20 95 48 47
32 22 85 93 33 69 56 73 56
51 66 37 10 19 22 85 35 72
86 66 91 59 84 42 30 96 10
82 79 53 13 11 10 18 25 58
89 23 20 67 78 26 50 95 78
52 93 75 82 16 26 59 79 86
17 83 63 100 95 46 89 52 74
42 36 33 81 18 29 88 10 21
57 54 92 55 48 92 81 15 23
19 80 74 91 82 48 11 14 80
57 48 70 33 16 80 27 98 91
100 59 44 84 74 57 47 17 67
45 39 19 93 49 68 89 30 72
44 39 75 90 90 89 81 50 34
99 99 50 73 35 41 26 25 54
78 93 58 22 97 93 62 31 11
64 31 19 69 54 92 58 97 83
60 93 75 99 54 25 79 38 14
38 59 16 46 79 83 87 17 55
66 15 26 76 17 32 22 62 42
22 100 18 69 28 55 94 34 83
43 79 38 88 40 40 53 46 25
68 59 73 78 21 98 66 12 51
1.323
1.04417
1.8318
1.82321
1.8384
0.655521
1.92504
1.81283
1.8627
0.941933
1.14423
1.42488
1.82223
0.757829
1.77033
0.408331
0.917547
1.66449
1.07666
0.402071
0.71783
0.793174
0.42431
0.982553
1.02644
0.46598
1.42413
0.654007
1.43346
0.466155
1.65325
0.666507
0.433981
1.38058
1.58358
1.03306
0.485078
0.978602
1.08941
1.12782
239 208
210 455
51 224
27 456
354 243
87 220
145 432
78 493
424 181
294 253
170 229
98 263
117 473
17 322
125 284
436 130
408 310
295 428
436 397
374 236
49 9
463 22
257 75
299 249
121 412
459 211
412 241
22 406
53 163
430 36
174 469
395 491
343 51
66 71
249 309
27 357
474 245
54 442
437 333
169 265
10960
1
