40
11
0 0 0 0 0 0 0 0 0 0 0
12 80 99 30 39 22 51 81 60 50 69
52 69 63 17 60 38 74 76 64 46 91
81 46 60 91 77 23 93 51 39 68 65
13 86 79 17 91 86 31 59 50 34 59
31 19 50 53 16 56 68 54 10 36 69
97 30 100 21 21 41 54 24 30 52 14
47 76 56 81 10 17 92 88 47 14 14
80 17 83 38 21 70 93 34 82 81 11
71 64 45 55 40 71 95 82 10 71 24
11 58 38 51 32 48 26 44 11 35 46
73 28 53 24 88 85 70 14 93 85 14
38 83 48 14 95 90 41 87 88 87 41
42 78 15 43 49 13 44 24 38 37 56
99 97 31 56 67 100 88 71 77 16 67
16 85 29 86 70 37 35 23 93 86 39
67 94 89 18 11 31 84 88 95 62 18
26 40 15 68 13 35 26 20 97 37 31
86 60 68 56 75 88 50 66 58 84 14
91 19 93 23 64 43 92 34 42 76 85
20 46 60 55 56 35 74 11 34 79 78
20 44 58 75 82 60 74 31 48 93 27
26 17 21 58 82 39 76 98 57 80 50
50 74 97 53 11 89 91 65 12 91 27
57 97 45 65 58 86 86 72 87 81 13
42 33 46 22 100 30 55 52 43 30 40
12 77 39 26 33 93 95 24 21 80 13
48 39 89 13 26 17 94 93 75 60 14
19 89 35 27 52 31 21 74 86 95 27
28 69 50 61 71 63 48 65 89 19 100
14 14 79 37 92 64 85 10 24 78 31
41 47 19 55 11 92 62 43 13 81 49
82 48 47 90 63 84 69 89 68 43 54
78 100 61 81 14 58 45 77 39 75 96
27 67 10 17 52 94 23 57 78 83 45
58 50 36 20 41 27 59 77 24 37 65
80 29 34 18 33 13 78 73 48 30 45
11 20 33 84 47 88 30 32 93 27 34
79 97 27 81 42 49 38 99 43 24 65
98 66 58 49 28 63 42 36 16 88 75
1.66888
1.89586
0.538483
1.2215
1.84012
1.4308
0.452165
0.767024
1.05353
1.75981
0.813382
1.96854
0.717295
0.716033
1.92316
1.54814
0.450315
1.62166
0.681297
0.956185
0.423486
0.548566
0.833667
1.11998
1.05088
1.46614
1.15091
0.470149
1.68156
0.593268
1.787
0.413631
1.17769
1.84094
1.10992
1.30681
0.750189
1.91193
0.871726
0.665003
107 473
206 265
402 108
411 66
351 58
207 468
358 126
370 354
50 39
294 419
7 15
386 414
136 365
110 367
365 104
206 315
4 127
9 461
22 233
390 120
96 440
164 67
148 382
285 487
315 378
314 253
338 166
83 363
239 122
146 91
465 411
223 225
441 36
380 83
24 83
152 417
219 110
141 97
72 489
157 288
2091
5
