40
11
0 0 0 0 0 0 0 0 0 0 0
31 14 88 82 79 58 85 94 19 52 64
25 39 45 31 22 68 61 100 82 40 31
27 100 46 18 27 36 77 20 64 70 82
99 14 72 81 70 57 59 19 11 78 52
95 20 44 96 59 58 79 50 30 16 99
64 93 83 50 87 26 25 65 60 32 11
28 35 63 59 95 100 98 52 23 32 22
87 52 19 19 30 72 90 98 33 41 22
100 20 66 16 31 48 33 53 48 47 40
64 24 31 61 32 47 32 61 20 94 77
38 89 63 30 50 34 32 87 41 48 38
80 18 10 97 57 52 16 34 90 75 14
43 75 39 81 94 66 30 56 92 58 61
60 30 48 53 38 63 42 59 86 20 40
94 87 73 20 68 73 75 57 69 63 32
15 80 75 76 65 12 14 32 16 43 31
86 80 69 16 42 89 96 31 84 66 90
20 26 97 11 85 82 55 29 84 95 51
35 11 69 35 54 16 85 27 67 85 55
25 55 48 63 21 31 24 91 93 34 34
85 35 86 28 100 40 30 38 37 16 28
63 91 10 36 56 36 31 43 16 66 15
75 36 21 66 98 62 93 71 89 60 21
38 95 86 68 67 62 48 74 49 68 93
84 70 51 64 82 96 18 57 86 55 14
85 34 74 18 21 17 16 36 58 43 40
14 70 85 39 76 94 77 79 66 12 76
14 90 51 38 74 82 87 67 73 98 13
17 66 69 89 53 92 61 56 69 47 24
70 10 83 53 79 37 51 94 41 95 98
78 10 23 27 97 90 70 88 23 62 50
88 89 81 100 16 55 94 64 99 25 95
83 46 64 20 68 52 65 12 97 35 96
82 40 41 58 63 16 93 73 90 90 61
96 37 15 29 92 60 38 66 99 98 26
43 60 21 100 17 43 81 42 17 76 44
55 38 36 77 76 15 56 26 54 77 100
81 93 49 100 24 86 60 58 15 64 97
26 40 48 88 31 26 74 59 94 56 20
0.68736
1.15764
0.561
1.27111
0.933349
0.885934
1.30644
0.792254
0.616249
0.357689
0.663185
0.321614
0.546705
0.369588
0.495729
0.6816
0.34197
1.16563
1.48767
1.19588
0.890902
0.849004
0.936757
0.331619
0.676967
0.717042
0.921804
0.527897
1.11736
0.549727
1.34337
1.36149
1.36525
0.932395
0.678101
0.397877
0.603116
0.677456
0.448331
0.919803
309 235
219 487
219 227
468 275
415 367
243 429
283 419
332 185
156 179
421 453
402 252
238 110
389 153
324 411
112 165
37 420
366 312
7 175
15 195
215 49
103 251
67 202
206 116
423 467
166 331
395 80
483 380
158 360
439 494
388 205
490 430
152 467
301 22
492 482
83 27
159 230
74 457
156 134
115 363
322 361
2718.75
4
