40
9
0 0 0 0 0 0 0 0 0
47 40 47 26 37 42 96 91 65
56 71 89 77 17 40 50 67 12
39 39 29 34 72 23 66 23 63
63 51 67 84 72 11 66 28 34
24 10 95 82 98 35 22 23 23
43 63 85 54 85 93 37 52 82
25 65 93 38 26 12 43 64 91
57 77 77 98 40 21 28 56 81
25 34 66 88 96 72 77 21 86
68 88 92 17 53 20 95 52 16
64 12 52 95 84 56 54 84 31
98 43 63 36 60 12 79 89 74
50 69 77 52 60 23 26 49 91
83 91 43 34 63 75 62 60 18
99 66 39 41 59 31 48 66 15
52 16 57 92 22 79 69 40 87
53 22 54 18 13 71 80 26 13
20 56 99 30 34 19 63 11 21
88 87 17 80 37 46 77 40 36
85 30 93 87 15 13 26 60 27
43 90 99 59 19 30 88 13 82
43 72 52 22 91 44 85 47 32
51 30 40 46 99 21 45 63 61
93 21 60 81 26 87 88 33 40
20 46 41 23 88 57 87 69 40
98 88 97 25 80 75 22 70 78
67 51 24 82 57 22 86 29 93
59 43 39 10 97 58 45 39 54
52 56 54 36 34 79 46 98 40
42 50 79 95 71 40 75 39 76
58 32 36 27 48 64 25 67 82
78 53 59 56 29 21 18 59 84
60 37 30 49 75 34 46 50 72
30 68 51 15 82 44 50 81 30
60 97 11 10 85 55 22 24 84
71 94 79 15 46 15 39 37 32
19 37 41 20 14 95 66 87 20
37 41 80 96 61 27 29 58 11
21 96 66 49 10 74 57 98 75
0.993385
1.42902
0.883309
1.29477
1.26553
1.82148
0.467355
0.503912
1.81568
0.649931
1.96198
0.549588
1.54465
0.992659
1.8397
0.961224
1.94708
1.04963
1.38442
1.71264
0.695437
0.947309
1.46222
1.64158
1.19826
1.62969
1.67912
1.33939
1.05036
1.72498
1.02239
1.56438
1.45052
1.35801
1.32149
1.98961
1.38677
1.14755
1.49352
1.60694
373 93
262 249
172 375
425 491
444 108
28 243
126 155
42 67
307 411
253 143
5 411
148 10
366 231
237 384
437 156
117 390
208 347
399 114
338 416
422 21
279 139
111 403
154 189
482 427
138 308
213 407
67 208
68 93
217 382
457 214
51 152
130 348
56 388
8 319
30 254
138 407
6 328
224 437
378 116
427 78
2612.5
4
