40
9
0 0 0 0 0 0 0 0 0
25 16 94 42 13 86 40 51 18
27 53 35 87 84 84 30 72 46
17 60 40 40 54 98 22 64 29
91 14 57 62 31 64 11 49 84
12 33 80 15 30 52 89 22 97
73 36 63 71 97 73 87 83 63
78 12 24 18 98 21 79 55 89
32 35 72 29 92 18 75 77 52
31 31 69 80 59 51 92 41 27
31 56 50 51 54 60 98 33 57
67 13 50 43 28 28 95 56 15
44 20 39 48 94 47 34 25 11
83 25 29 97 70 65 52 50 20
29 17 78 36 61 82 45 26 68
77 43 61 31 66 83 11 16 64
34 44 52 56 60 83 78 11 30
69 42 64 88 26 83 38 95 67
64 18 44 47 58 39 79 12 40
44 48 72 39 86 81 47 23 65
78 36 68 58 32 28 45 65 79
28 41 36 53 10 39 43 85 23
55 54 62 22 30 81 21 78 78
67 54 51 66 27 25 43 61 36
63 90 56 94 95 38 93 61 36
39 62 46 69 93 33 19 82 19
82 95 47 44 63 80 100 75 51
66 46 99 17 11 47 59 50 63
54 37 81 22 68 74 18 46 13
12 18 39 57 50 89 26 10 46
78 31 79 15 55 19 56 72 23
79 49 68 28 74 38 33 28 74
26 12 32 94 78 68 93 19 22
97 23 13 78 91 71 66 77 24
86 51 93 92 66 16 12 63 42
51 91 39 12 44 79 58 71 20
87 47 17 95 81 83 55 98 28
37 68 16 44 97 58 66 47 64
47 33 42 88 60 89 55 94 25
95 23 46 40 33 73 15 68 47
1.31068
2.42236
1.73529
0.720754
1.02658
1.45501
1.15898
1.81293
2.42896
2.17179
1.47308
0.858306
1.14401
0.612171
2.22724
1.35372
1.45895
1.80985
0.992667
1.55262
0.517566
1.28705
1.85902
2.03499
1.3877
2.06131
0.792978
2.34336
1.74808
1.07799
1.09182
1.55239
1.87107
1.42759
1.68354
1.43868
2.30883
2.24784
1.97418
1.45224
411 260
353 219
439 260
256 144
249 160
322 156
198 490
37 237
298 321
358 128
125 169
2 500
399 239
446 439
153 473
449 316
35 500
291 288
6 287
291 348
37 187
312 98
172 166
102 347
169 268
166 323
95 415
206 69
332 157
132 221
419 280
378 36
458 426
450 62
227 373
195 328
24 455
325 358
447 9
31 2
10270
1
