40
9
0 0 0 0 0 0 0 0 0
89 66 96 72 32 61 82 71 35
21 60 74 67 54 33 40 78 43
56 97 20 67 51 57 26 75 35
68 38 11 40 98 77 27 77 52
26 52 96 72 64 98 45 93 96
49 69 29 64 92 15 33 41 88
29 26 50 63 96 53 65 100 43
27 43 19 75 34 83 100 15 20
73 37 47 78 68 51 66 55 98
80 74 63 12 28 61 66 49 72
16 92 20 28 78 73 21 14 13
69 55 32 39 74 38 89 57 39
98 16 87 20 63 94 75 93 58
35 59 24 40 44 89 33 52 27
40 55 88 55 11 64 97 58 39
74 100 21 27 57 70 13 85 34
69 29 19 36 56 60 85 83 60
71 39 13 66 81 86 95 29 39
77 28 57 17 81 61 17 90 80
59 29 37 39 90 11 48 80 27
65 91 100 44 90 65 92 20 80
31 83 50 100 43 42 75 18 46
96 62 43 73 13 30 77 19 22
16 96 25 19 55 68 71 42 45
85 43 86 50 59 36 92 10 98
23 84 18 35 60 27 13 77 84
92 97 96 48 62 66 77 36 52
24 28 91 85 73 60 55 74 92
10 29 89 67 41 17 64 43 36
25 72 58 95 26 40 46 32 98
60 76 29 98 82 22 68 40 92
55 56 36 14 20 60 10 59 56
92 63 65 16 98 91 81 77 59
21 32 99 61 12 17 99 89 25
95 27 10 88 46 60 13 29 10
75 30 35 81 20 24 94 20 45
18 86 48 76 14 36 89 13 80
11 45 81 82 50 90 87 18 73
74 27 50 11 10 83 54 26 15
0.312104
0.362133
0.171461
0.327422
0.334254
0.358863
0.188306
0.375404
0.257991
0.427276
0.368698
0.349906
0.289976
0.1309
0.280649
0.241068
0.271019
0.366425
0.106317
0.112706
0.140559
0.351454
0.43122
0.415924
0.277327
0.108371
0.118696
0.30198
0.486628
0.414336
0.426997
0.488876
0.10761
0.351397
0.244411
0.335038
0.259332
0.497934
0.300846
0.354919
419 53
396 455
449 275
3 139
291 186
358 82
312 352
116 394
67 74
489 151
362 365
127 409
495 145
183 219
183 472
236 287
170 187
492 372
78 7
238 115
43 376
100 447
494 213
433 314
164 290
402 499
159 121
54 435
485 478
322 42
239 341
172 74
458 485
156 173
85 286
135 302
197 479
359 439
338 112
403 188
2137
5
