40
5
0 0 0 0 0
20 20 48 75 96
88 33 52 11 43
100 88 39 54 33
29 63 52 73 45
85 98 37 68 77
96 78 24 79 89
94 73 28 28 57
40 97 41 55 74
36 47 61 56 97
47 40 65 35 93
58 25 53 26 58
95 91 65 100 17
70 43 19 84 30
40 92 76 25 71
91 78 13 19 85
94 40 52 12 15
19 67 20 55 26
69 31 66 62 43
11 85 46 40 11
46 44 44 33 72
58 92 83 32 17
18 19 42 36 62
10 90 73 59 33
41 66 55 85 35
76 35 98 61 83
25 15 16 46 79
73 14 46 48 17
14 12 79 29 68
88 82 93 57 64
64 42 10 66 35
81 27 88 61 96
59 22 21 70 76
37 68 36 72 38
83 49 67 78 13
81 73 47 23 11
58 82 28 24 11
37 53 91 51 50
30 69 46 53 96
92 10 83 10 30
0.395616
0.417634
0.400112
0.516885
0.453335
0.40581
0.472481
0.765791
0.491214
0.675956
0.797736
0.578777
0.727428
0.886205
0.831685
0.35279
0.514341
0.60799
0.508532
0.777359
0.787079
0.72859
0.994205
0.346484
0.826104
0.203889
0.733943
0.310414
0.679203
0.655819
0.931337
0.831069
0.581269
0.490724
0.391704
0.658846
0.788436
0.534725
0.891593
0.437389
17 32
413 255
281 315
308 247
148 221
323 418
282 154
242 414
469 270
104 86
382 114
168 91
413 240
384 121
50 118
310 301
37 375
86 293
386 201
213 471
310 457
402 329
171 332
279 488
9 393
111 333
340 203
161 109
243 29
326 245
470 82
143 303
415 344
182 159
324 259
99 121
191 228
322 466
46 295
417 155
3468.33
3
