40
11
0 0 0 0 0 0 0 0 0 0 0
55 49 65 81 25 25 66 15 94 69 76
41 26 79 31 73 98 43 58 31 55 90
50 12 60 22 18 84 29 58 100 57 86
88 97 24 16 96 99 68 65 41 94 30
47 14 71 58 20 90 34 74 51 63 88
60 43 67 34 39 74 84 90 10 64 56
88 87 46 31 10 52 33 68 77 84 28
46 28 90 79 63 23 85 44 60 71 46
14 98 66 42 46 81 23 83 61 40 53
71 74 56 91 60 90 87 70 19 24 36
89 54 83 30 67 55 94 21 89 16 27
89 19 51 21 78 31 45 93 91 21 67
74 27 11 42 64 24 95 32 65 45 48
26 43 67 21 57 81 59 65 45 81 53
57 11 71 88 86 48 62 61 85 66 27
37 22 58 15 72 49 53 69 47 43 58
59 86 16 54 28 45 62 37 14 90 72
82 76 52 33 75 78 53 24 47 82 47
95 24 78 28 73 52 84 57 78 85 61
71 97 24 12 15 39 42 45 42 31 68
73 76 63 70 47 72 42 43 92 46 54
55 41 63 14 68 70 67 15 75 97 35
91 44 79 40 56 11 55 83 70 11 89
40 18 35 97 70 52 54 10 19 27 40
90 63 58 39 56 82 64 68 72 60 40
81 75 32 50 56 30 90 96 93 63 93
53 25 58 34 94 70 65 32 74 27 95
55 97 51 20 40 62 48 34 81 74 24
69 50 27 49 54 40 46 42 97 17 38
77 45 38 29 31 38 92 31 34 12 96
95 54 99 93 78 40 67 60 62 53 40
74 72 27 81 80 70 85 62 22 99 96
26 47 63 25 19 68 53 92 49 32 42
84 71 52 72 45 76 82 56 67 88 12
74 31 50 91 82 79 40 26 47 71 37
74 97 30 86 80 37 99 21 12 92 93
13 60 10 62 80 32 19 99 58 16 66
16 13 24 73 25 80 86 19 47 10 12
40 86 10 36 37 44 18 26 89 98 77
0.675591
1.36269
1.04144
1.09446
0.910762
1.21915
1.3992
1.15962
0.853165
0.974128
0.522022
0.675235
0.831413
0.460166
0.410598
1.40785
0.38741
1.33425
1.47043
0.345971
1.4022
1.33158
0.936656
0.504741
1.33899
1.37899
0.499516
0.768982
0.753782
0.363961
0.99524
0.341025
0.426829
1.14123
1.32103
1.17922
0.711405
0.573234
0.407562
1.24886
366 191
296 497
374 375
81 169
192 379
16 138
79 201
380 259
494 107
170 320
157 447
266 92
176 418
4 269
476 351
394 305
10 350
78 125
109 357
128 497
459 178
164 199
192 193
148 187
211 441
191 270
474 404
436 179
98 17
327 482
114 126
246 272
181 238
237 470
85 489
414 300
22 430
33 449
158 438
408 483
10860
1
