40
7
0 0 0 0 0 0 0
81 36 64 18 79 52 12
84 93 23 10 35 46 59
16 82 51 100 21 27 63
29 69 91 44 66 100 82
65 50 88 94 74 24 53
77 37 36 57 88 30 13
42 87 46 23 79 33 18
51 25 48 40 96 28 86
90 96 73 47 21 74 49
64 69 71 52 33 30 41
82 53 66 95 92 95 100
55 21 82 25 30 51 100
30 90 26 69 60 56 47
37 90 78 60 90 36 41
33 53 81 12 99 25 92
19 66 53 79 34 29 39
67 22 39 80 35 63 21
47 49 86 31 40 76 35
31 83 61 78 88 38 60
81 82 97 91 87 70 20
69 13 28 84 87 46 37
16 30 88 95 81 55 37
57 27 40 81 63 77 16
92 88 28 35 51 25 78
82 41 44 10 98 33 16
71 81 30 36 84 92 89
33 98 27 87 10 81 97
73 15 17 81 70 74 12
73 61 99 52 94 30 45
53 68 58 60 23 49 64
85 78 75 47 87 61 33
34 18 77 81 82 27 73
15 22 100 50 91 95 86
15 39 49 81 99 59 80
30 30 26 20 75 12 43
91 100 91 20 31 19 15
81 70 69 94 98 92 31
94 54 18 35 65 55 74
38 88 45 54 95 16 40
2.43723
0.709622
2.17854
1.06831
1.9024
2.00969
1.58922
2.26722
2.31245
1.42661
1.70241
1.97782
1.7687
0.94488
1.81946
0.646048
2.15503
1.28874
1.74049
2.30914
1.67501
0.556465
1.92029
2.38906
1.28679
2.20241
1.40334
1.0474
1.78133
0.560543
0.548868
1.99109
0.628149
0.772465
1.67019
1.43837
1.81014
1.24183
1.95697
0.545697
304 360
490 262
205 228
44 165
66 99
331 107
400 182
268 359
94 14
192 204
456 481
144 338
420 114
210 455
57 89
46 178
122 28
425 69
197 364
354 385
295 195
37 93
28 93
321 428
238 422
12 130
346 439
61 225
197 179
31 50
238 136
156 327
154 166
10 465
456 353
94 103
318 337
484 8
438 77
1 293
3700
3
