40
3
0 0 0
20 51 43
84 49 37
96 34 14
32 32 77
84 95 96
56 59 52
82 35 25
22 98 18
39 17 35
62 12 26
18 17 90
89 18 39
82 25 28
85 100 67
49 34 80
77 95 95
84 15 45
65 85 48
67 28 65
87 75 86
37 72 41
30 16 99
62 60 79
18 74 99
49 52 64
38 48 90
77 95 11
15 97 96
56 89 82
93 68 66
50 76 21
27 96 32
32 28 25
78 57 95
35 67 49
42 66 93
34 47 100
41 80 86
90 10 99
0.172715
0.399693
0.209846
0.144446
0.178903
0.491975
0.493348
0.440443
0.481461
0.380495
0.385611
0.199304
0.485629
0.310165
0.454481
0.208292
0.472018
0.12348
0.34917
0.347858
0.33204
0.189684
0.296978
0.172808
0.285131
0.392057
0.115209
0.120373
0.333153
0.206465
0.11362
0.316688
0.187967
0.412764
0.111363
0.108898
0.207715
0.398353
0.126254
0.174693
433 218
400 205
158 357
20 114
67 166
391 424
479 473
403 96
299 446
202 245
240 288
479 144
272 72
130 480
30 275
377 171
84 228
341 322
56 442
366 214
375 418
0 334
68 190
110 407
450 10
24 25
371 263
319 232
220 7
189 326
429 118
54 276
3 38
294 107
58 40
69 484
206 15
495 472
242 64
124 367
2811.25
4
