40
7
0 0 0 0 0 0 0
63 33 79 75 34 59 19
38 83 94 47 42 32 75
26 98 58 62 41 18 19
81 89 69 12 76 10 65
69 19 39 63 88 23 74
80 58 43 20 62 29 27
64 15 60 68 98 81 87
17 77 10 80 50 26 43
87 27 57 41 33 20 53
29 63 78 24 37 45 69
64 15 21 35 48 66 50
36 31 69 86 82 89 40
64 26 90 21 36 51 28
72 89 14 67 61 58 49
92 27 82 95 29 87 59
87 14 77 25 56 77 63
85 41 87 72 47 53 61
69 91 56 73 79 74 55
42 51 80 17 94 57 28
95 60 92 97 85 26 30
98 52 29 32 15 98 22
31 48 24 62 81 96 19
49 83 51 37 76 74 96
22 27 64 64 21 32 73
61 10 15 54 46 51 79
41 47 39 57 44 91 55
24 81 79 67 48 36 67
40 85 65 24 26 51 16
68 73 81 68 26 64 19
61 20 26 80 32 25 76
65 17 99 81 73 35 71
86 57 69 28 36 22 36
66 26 89 28 87 27 19
81 28 93 78 28 43 66
25 62 28 31 63 58 65
79 98 22 30 23 49 79
64 10 67 44 12 75 84
73 41 18 78 94 15 50
77 47 78 36 44 73 39
0.113507
0.430141
0.273258
0.447021
0.128752
0.428461
0.112095
0.149734
0.235349
0.442478
0.409875
0.38212
0.105002
0.322204
0.453178
0.14589
0.139025
0.453506
0.162169
0.26223
0.249059
0.442615
0.199097
0.314881
0.29606
0.138082
0.403385
0.453306
0.36957
0.233644
0.496952
0.121753
0.45534
0.363487
0.417156
0.272031
0.278107
0.459656
0.222889
0.403812
436 345
272 479
419 107
22 32
42 388
93 111
404 164
322 291
386 169
165 178
35 115
478 135
288 265
11 126
294 71
255 318
325 140
299 58
22 405
446 341
155 3
313 285
400 123
339 8
8 62
111 78
412 312
354 172
393 162
18 309
85 270
84 202
184 410
155 194
245 221
471 115
284 431
278 292
310 71
139 232
10510
1
