40
3
0 0 0
86 12 26
14 70 52
17 42 35
50 72 71
58 63 24
65 89 71
17 83 91
47 32 66
96 59 69
79 88 80
12 31 84
78 26 46
58 94 72
15 88 38
56 46 22
29 37 19
76 87 100
85 47 58
62 54 79
64 59 73
59 66 22
37 20 88
97 34 21
26 36 73
13 19 54
96 78 91
93 46 63
34 86 74
12 94 29
73 77 41
89 38 43
29 19 86
67 71 72
54 40 72
28 26 55
14 15 12
80 82 35
71 58 46
73 52 93
0.147471
0.154122
0.133346
0.421854
0.399475
0.122719
0.425157
0.375887
0.466255
0.232237
0.330498
0.431049
0.145075
0.251755
0.39589
0.492459
0.409846
0.338383
0.105699
0.24728
0.402016
0.456217
0.298221
0.340805
0.333518
0.338449
0.433994
0.327328
0.405038
0.36101
0.158259
0.133293
0.126662
0.16202
0.374399
0.359518
0.316343
0.158423
0.301715
0.180092
216 17
272 28
272 25
65 46
380 229
295 98
271 68
363 327
264 29
187 10
226 228
485 363
406 52
52 370
307 138
29 0
303 246
35 214
14 2
480 386
71 500
309 374
395 148
36 344
344 136
468 447
385 400
112 308
312 444
413 192
261 411
350 105
354 35
133 460
320 38
327 251
24 139
347 294
24 164
234 477
2703.75
4
