40
5
0 0 0 0 0
84 67 86 34 90
40 17 76 57 43
35 75 35 97 39
47 79 56 37 88
79 86 68 31 88
98 60 88 67 52
63 38 96 92 29
81 10 19 67 85
100 75 92 76 64
97 40 85 27 24
38 61 82 14 76
57 32 46 26 62
77 51 57 12 81
50 10 87 83 77
66 52 10 58 95
63 92 96 89 21
28 10 94 86 40
16 29 77 11 61
70 63 100 48 77
57 39 52 81 59
61 64 76 92 27
81 58 64 21 89
85 100 67 21 39
35 72 81 47 21
34 69 100 71 86
94 49 55 55 52
78 42 48 31 96
11 90 84 74 15
27 71 86 80 98
71 68 61 100 86
45 53 75 85 44
95 20 51 35 52
91 98 50 19 21
25 99 70 32 31
63 52 60 71 41
75 68 90 85 94
44 94 90 85 59
16 11 46 15 11
64 62 30 39 91
1.11518
1.03474
0.861373
0.423214
1.35065
0.672246
0.88647
1.14851
1.31352
1.22196
0.856333
1.30285
0.596505
1.37198
0.584098
1.12325
0.964282
0.49426
1.04064
0.995511
1.15704
0.339399
0.739952
0.699447
0.51023
0.483649
0.498958
0.378362
0.381564
0.749497
0.680027
0.364483
1.28529
0.538805
1.25408
0.851228
1.29335
0.796555
0.688411
1.49636
303 74
473 380
95 87
386 240
439 387
462 140
419 442
12 193
428 336
298 329
77 487
105 255
24 362
379 394
394 91
348 18
388 436
17 463
156 102
247 207
42 463
309 426
55 317
439 126
353 59
437 139
437 193
175 122
382 206
247 38
112 402
161 461
298 218
345 437
54 491
1 419
318 390
437 190
114 319
135 390
2341
5
