40
5
0 0 0 0 0
49 74 51 92 31
32 25 50 88 23
38 86 43 53 33
83 48 70 56 53
51 66 30 67 36
91 38 30 16 52
25 75 99 51 65
45 74 78 91 14
91 92 48 17 21
53 59 48 88 53
49 31 47 28 70
16 76 80 30 56
56 36 96 85 64
66 61 29 93 53
70 22 35 99 56
20 28 82 29 62
58 49 50 52 93
82 14 10 99 58
66 87 86 49 20
68 57 75 26 22
56 22 14 29 47
75 19 39 67 61
27 52 21 43 31
75 38 92 55 62
36 96 73 83 10
65 63 92 44 66
33 77 25 44 15
22 41 36 59 25
70 68 24 94 76
22 30 32 56 62
68 80 15 13 33
53 31 26 93 98
81 64 47 53 34
24 85 11 13 19
91 24 37 64 13
16 99 59 63 85
73 86 19 10 75
87 84 33 19 95
68 46 44 63 81
1.45748
0.42596
1.85872
1.21236
1.98597
0.768483
1.9695
1.32948
0.652792
0.401125
1.4743
1.3018
1.21683
1.80976
0.631675
1.08825
0.42767
0.44113
1.20171
1.35133
1.49389
1.0009
1.8978
1.44515
1.92631
1.0951
1.23516
0.812136
0.693819
0.747817
1.87872
1.15105
0.895939
1.52562
1.18613
1.35391
1.75852
1.59348
1.31441
1.73747
307 144
309 110
313 227
277 251
327 273
417 10
234 202
102 299
116 196
383 339
65 303
353 379
118 447
225 23
500 143
86 104
157 93
420 402
493 195
160 83
186 393
482 391
141 297
480 498
462 439
423 478
272 308
144 151
462 347
321 174
337 29
408 63
397 75
45 95
26 27
416 80
217 274
48 57
299 371
478 127
3441.67
3
