40
11
0 0 0 0 0 0 0 0 0 0 0
88 36 90 71 22 81 41 73 10 86 52
79 88 43 96 47 28 31 24 75 31 46
16 71 51 99 100 68 87 88 17 43 84
51 45 94 47 97 87 91 89 57 87 77
43 66 17 31 13 86 99 38 27 95 15
75 17 75 74 99 56 66 96 22 13 39
55 86 18 91 91 100 67 84 82 93 33
44 35 90 33 52 28 57 68 71 12 99
13 19 95 72 47 36 93 15 94 74 74
31 35 55 20 43 62 52 77 48 91 63
27 10 75 49 55 53 64 28 59 26 77
40 80 74 44 63 48 80 67 41 10 88
32 42 19 59 18 32 99 13 13 58 16
87 27 48 81 72 11 18 60 49 99 51
33 41 54 15 60 43 51 60 59 48 51
94 12 19 41 27 29 60 67 36 42 81
76 38 27 54 83 85 55 84 20 64 36
42 68 49 89 92 71 18 26 37 91 71
31 63 87 56 55 78 22 59 21 48 92
29 99 79 97 28 24 55 11 83 85 96
44 65 90 51 52 64 99 19 35 99 87
63 50 29 75 81 98 17 69 96 41 26
61 86 45 57 25 84 13 37 65 14 72
81 44 17 19 64 13 12 98 36 79 87
22 65 33 20 47 44 25 44 36 32 67
62 67 74 20 47 95 38 13 17 31 19
73 14 70 76 37 28 98 50 70 16 23
50 85 77 62 69 74 51 32 87 54 26
59 74 32 86 20 61 53 48 11 87 16
59 82 96 80 19 23 98 88 70 14 16
85 28 69 42 70 17 28 49 70 69 40
11 45 95 21 51 56 71 31 59 69 51
93 26 75 33 70 41 15 74 39 18 13
43 46 75 86 49 42 14 29 25 11 66
58 99 75 89 60 53 80 13 49 35 77
35 60 63 18 93 92 24 46 82 78 71
53 89 75 76 28 67 63 31 52 43 23
67 71 25 73 23 30 66 85 91 81 12
93 43 18 41 40 100 47 14 13 69 88
1.91574
1.55643
0.816863
1.36012
1.93577
0.475021
1.30298
1.03805
0.460638
1.71935
1.70759
1.63981
1.75854
0.771351
0.876645
0.93276
1.00622
1.86537
1.68496
0.863232
1.91056
0.413939
0.499316
0.400246
1.41278
1.86993
0.584409
0.474828
1.11752
1.71227
1.79849
0.692354
0.527939
0.958632
0.889111
1.28585
0.480641
1.5983
0.974696
1.5171
186 187
265 432
378 297
492 339
153 322
430 171
344 124
128 99
183 82
240 10
148 428
96 149
42 137
192 86
369 80
320 108
103 42
346 189
335 476
187 449
34 86
244 351
284 452
260 219
221 344
198 272
186 319
448 480
115 475
87 333
441 196
500 363
303 476
252 266
411 476
272 332
14 4
99 102
276 52
395 25
2122
5
