40
11
0 0 0 0 0 0 0 0 0 0 0
63 60 66 38 17 22 93 65 96 45 17
69 70 75 14 71 97 60 95 23 58 47
80 16 29 36 15 49 56 47 59 48 55
93 16 20 20 41 37 17 77 75 78 83
69 65 90 22 65 40 18 19 38 46 99
67 86 28 64 76 77 54 58 91 64 16
100 53 96 61 38 75 96 70 54 52 81
34 85 96 36 100 34 64 53 88 70 40
60 72 55 54 66 35 66 18 38 50 72
58 30 67 53 37 46 52 75 74 55 38
56 40 74 39 93 33 26 76 47 100 97
79 26 35 68 100 91 11 43 11 95 97
93 10 44 26 13 74 94 15 24 72 96
49 84 39 29 90 30 71 51 81 65 74
95 76 25 41 33 94 57 88 22 30 60
43 64 38 86 19 95 10 83 12 58 90
35 38 76 97 84 36 35 37 68 27 53
73 75 77 51 89 22 61 60 58 95 86
46 72 37 22 61 93 73 61 92 10 29
25 81 76 68 36 95 87 82 14 12 56
99 39 56 90 86 96 25 40 48 70 98
73 22 38 89 90 22 57 44 26 60 11
30 67 39 11 88 55 42 30 24 48 64
100 52 13 17 12 39 85 25 94 77 74
96 21 65 28 41 64 47 55 90 75 50
18 97 34 19 60 28 74 73 21 79 60
58 92 58 93 29 78 100 39 51 47 33
22 98 91 20 12 30 37 13 66 39 97
64 85 42 45 99 15 38 28 15 91 39
39 55 80 26 80 10 44 36 34 58 23
90 38 81 33 63 78 13 13 71 69 85
88 33 69 89 68 56 64 96 35 11 27
55 89 88 78 51 45 82 29 82 10 23
66 99 66 65 65 95 18 86 24 46 77
47 45 97 45 78 54 58 56 51 44 25
34 24 84 40 36 75 38 49 83 53 29
91 21 24 88 39 67 82 63 74 46 88
56 50 12 32 50 91 71 24 91 12 60
14 30 91 75 11 15 86 18 36 84 18
0.521815
1.00486
0.784457
1.13315
1.00153
1.48466
0.608945
0.35914
0.46133
1.27929
0.970827
0.950659
1.16121
0.711598
1.39791
1.12454
1.32883
0.674998
0.974714
0.402572
1.05836
1.10613
1.4622
0.448709
1.04925
0.785288
0.933256
0.815345
0.733967
1.48215
1.411
1.24453
1.19498
0.629376
1.01129
0.939745
1.08273
0.301019
0.366446
0.959244
70 352
181 236
271 152
82 227
429 402
44 245
345 346
181 38
212 58
132 261
427 22
309 171
1 259
30 39
304 208
362 262
357 440
132 378
345 184
135 170
223 461
154 453
100 414
421 241
341 91
210 95
21 316
71 97
42 104
303 100
295 220
441 14
0 257
27 393
79 11
334 392
300 390
346 383
94 491
377 5
5412.5
2
