40
7
0 0 0 0 0 0 0
65 88 98 16 14 15 99
13 83 82 36 97 70 49
93 49 12 74 87 81 73
65 59 50 86 55 10 44
27 97 53 48 48 98 49
98 43 84 33 62 70 99
12 60 99 90 66 97 64
45 46 39 44 30 12 43
87 63 100 76 32 62 40
46 38 68 42 29 68 93
64 99 54 11 98 34 31
60 28 80 30 89 18 35
30 93 50 23 57 52 17
92 10 87 69 26 74 37
17 21 49 77 70 57 22
15 21 39 62 31 10 35
47 50 95 20 70 53 24
11 44 44 86 64 54 96
52 91 78 15 38 59 91
85 98 33 13 66 97 97
100 10 80 28 11 21 33
41 67 30 58 55 14 43
31 66 45 35 88 95 78
43 64 40 63 17 46 89
37 64 94 29 65 54 94
99 83 56 36 11 30 70
57 98 82 36 58 20 22
59 95 41 44 78 58 51
74 27 76 42 30 62 43
81 89 23 84 95 20 94
69 94 49 10 74 31 80
62 53 87 60 43 15 25
27 64 82 98 81 69 16
65 28 77 32 27 44 55
88 32 27 14 23 75 30
87 43 43 66 89 52 40
31 42 22 28 100 50 74
59 28 92 34 86 34 92
68 82 28 25 78 72 92
0.72171
0.764059
0.301779
0.658983
0.842888
0.699256
0.824568
0.508869
1.31034
0.995575
0.561676
0.642995
0.488925
1.17279
0.497823
0.428669
0.547389
0.370617
1.37666
0.478148
1.29997
1.3129
1.39478
0.964446
1.16784
1.49567
1.23768
0.850678
0.58772
0.317902
1.15043
1.4058
1.21033
1.08937
0.716089
1.26455
0.829692
1.43808
1.09704
0.90677
11 285
194 240
234 472
349 83
430 405
345 448
350 89
325 337
264 358
18 185
296 128
366 449
441 397
96 308
52 364
80 194
248 407
434 12
191 434
191 94
461 198
126 325
403 51
299 221
68 63
455 275
359 453
30 463
39 30
250 298
51 156
403 48
319 234
202 250
432 329
83 374
362 328
313 369
219 87
109 297
2696.25
4
