40
5
0 0 0 0 0
70 25 47 54 22
14 77 38 18 78
99 76 94 91 32
81 59 98 95 63
47 14 10 74 52
11 58 20 81 81
45 15 64 99 32
100 66 21 18 81
71 85 96 85 42
14 88 26 60 25
38 66 57 80 67
13 23 26 37 17
84 79 77 57 96
40 52 16 19 44
62 25 37 93 93
79 77 56 53 84
91 81 74 84 19
16 49 38 34 39
19 42 81 13 91
43 73 59 37 26
34 67 54 91 53
44 27 44 11 72
65 32 91 37 84
93 93 20 35 51
41 18 93 20 22
72 24 49 94 50
14 87 25 98 92
32 69 26 35 16
80 11 68 86 26
23 88 11 31 45
45 76 56 87 68
82 12 47 94 41
81 62 57 60 28
15 72 84 26 66
16 71 52 82 86
11 69 48 72 59
65 86 17 80 23
56 89 87 82 23
80 23 71 47 31
1.80053
1.15375
0.691246
1.59706
1.85172
0.910424
0.695961
1.38393
0.84914
1.01359
0.797103
1.70817
0.648595
1.04911
0.867416
1.9596
1.0565
1.89135
1.61555
1.72995
1.04321
0.415241
1.61625
1.81745
1.51731
1.13841
1.47429
1.30482
1.43295
0.783447
1.48456
1.81897
0.832892
1.86859
0.805703
1.33307
0.921273
1.78243
0.964363
1.08363
58 326
205 227
413 75
164 386
300 113
107 388
329 185
192 239
24 73
375 445
311 122
315 189
334 412
169 246
46 460
192 101
260 373
337 467
213 500
241 147
1 290
0 152
369 252
370 381
447 148
397 231
411 140
268 93
297 290
435 269
448 296
432 397
306 413
116 31
401 37
352 169
211 64
398 489
266 331
231 145
5297.5
2
