40
11
0 0 0 0 0 0 0 0 0 0 0
12 54 28 36 83 89 52 88 74 47 13
99 56 61 93 19 13 41 98 91 76 21
11 69 21 98 64 98 22 22 100 36 94
28 69 78 37 10 65 91 54 21 85 71
37 93 11 69 18 91 59 50 27 74 96
76 24 88 62 75 13 93 45 63 74 15
11 21 43 84 54 34 69 63 58 72 22
56 98 84 43 48 76 46 56 17 74 60
11 20 96 58 24 33 96 49 65 37 38
94 88 44 73 60 72 12 14 73 53 25
84 94 54 49 31 81 23 92 86 35 94
65 53 68 95 93 85 96 83 46 58 91
14 64 37 63 45 96 65 29 28 76 19
72 64 28 39 88 55 65 16 76 45 75
70 43 50 91 76 78 80 89 100 58 75
45 97 23 32 12 70 57 91 56 73 86
73 34 21 91 54 28 27 10 79 97 70
82 34 26 38 33 65 43 93 30 42 77
50 23 65 30 99 46 30 65 34 98 55
73 92 16 64 69 76 28 70 72 39 89
34 18 85 68 44 22 90 81 10 58 41
64 49 62 83 34 38 55 53 60 59 81
88 11 58 27 24 52 76 65 62 46 11
76 34 55 73 30 98 53 27 85 46 38
50 21 47 26 29 39 95 79 27 44 52
61 33 42 89 37 35 65 93 49 93 67
81 26 23 79 76 32 34 80 75 73 69
44 100 57 28 83 87 71 65 35 57 34
100 62 86 87 46 28 32 55 78 11 82
44 52 52 60 41 23 56 24 18 58 12
63 49 96 94 11 62 73 22 52 28 77
14 14 93 43 93 73 43 76 60 62 26
32 98 13 28 54 23 57 37 96 69 99
76 48 96 49 80 53 29 84 73 73 78
47 94 37 91 92 85 96 22 27 55 63
53 25 92 96 81 59 19 100 59 60 37
72 73 84 59 97 93 97 89 33 88 17
23 81 75 34 34 66 61 99 11 67 44
24 15 59 41 20 71 84 50 42 32 30
0.861974
0.298413
0.772943
0.463208
0.889952
0.768044
0.605169
0.516195
0.636125
0.829068
0.548032
0.663064
0.574332
0.712787
0.329404
0.829695
0.273902
0.524074
0.369016
0.943744
0.467202
0.337613
0.467397
0.745296
0.215742
0.287448
0.345476
0.700401
0.574658
0.772219
0.616178
0.878887
0.320204
0.418211
0.638011
0.822606
0.790042
0.519488
0.712658
0.508995
147 348
381 121
231 92
268 7
186 121
421 406
17 156
206 152
348 461
75 454
135 464
322 24
74 16
433 125
190 377
15 393
374 151
106 279
152 350
82 401
103 489
221 422
26 69
304 303
232 339
73 202
66 126
311 164
21 178
432 401
239 367
233 238
141 3
13 210
392 242
476 191
436 147
98 264
259 311
407 351
11090
1
