40
11
0 0 0 0 0 0 0 0 0 0 0
66 31 16 22 86 61 12 47 40 31 15
22 47 56 91 73 10 87 35 97 88 35
91 76 64 78 24 77 92 47 53 53 15
47 76 82 42 42 52 66 31 33 18 42
64 17 32 68 41 19 25 27 28 26 89
90 20 19 83 26 67 25 69 17 81 68
29 38 29 99 96 50 78 80 42 38 86
42 32 17 68 33 70 48 29 61 84 95
34 41 19 81 32 74 33 68 34 83 93
46 24 90 10 46 78 30 56 20 46 46
16 42 16 70 64 58 22 25 30 90 65
75 68 49 14 84 53 68 95 13 57 18
61 82 88 30 49 87 77 27 52 31 90
54 82 47 100 95 71 74 16 89 76 41
57 93 69 63 54 96 81 77 34 90 37
77 78 75 52 26 25 96 48 28 21 92
85 13 46 66 20 31 92 52 67 79 60
55 92 90 11 84 91 59 83 82 11 29
81 33 59 20 17 100 48 38 48 77 58
52 87 44 65 54 29 43 66 78 85 88
77 39 88 22 26 10 95 68 99 15 96
27 25 50 25 48 42 65 59 24 61 25
92 77 87 57 35 32 30 90 39 21 65
83 99 27 90 97 87 46 83 17 15 37
24 75 11 38 22 95 56 86 71 29 60
43 12 44 86 94 44 20 76 27 63 87
27 45 45 57 95 78 19 88 79 25 32
93 17 46 100 25 54 90 30 92 61 26
95 47 88 75 10 39 72 23 68 10 44
56 71 88 72 13 13 10 23 57 38 51
79 41 31 57 64 15 84 52 46 50 52
79 60 38 86 63 50 92 38 11 41 23
69 30 91 71 90 98 42 84 69 77 46
24 26 19 91 22 21 46 80 17 78 94
98 57 49 100 68 76 90 55 56 91 40
54 86 78 68 85 33 29 76 91 16 10
26 20 28 90 42 23 71 68 53 99 97
18 64 24 59 89 66 97 75 62 19 92
49 50 10 34 82 31 79 67 99 30 90
1.10275
2.12974
2.25376
0.627931
0.893639
0.790759
2.11436
1.73615
0.961761
1.07454
0.837916
0.899747
0.960736
1.40016
0.556628
1.02831
1.30792
2.32367
1.40091
2.4777
2.45497
1.77437
1.72081
1.76447
0.610758
0.536176
2.14405
1.54371
0.816737
1.27074
1.4288
2.30423
2.12956
1.57549
1.2203
1.60957
1.04489
2.23301
1.15195
1.25832
27 192
130 249
159 181
269 374
59 108
276 265
414 251
236 430
270 242
345 316
183 68
80 246
220 351
37 277
298 79
451 457
361 334
196 26
468 54
99 305
297 75
215 175
276 133
317 159
287 77
29 301
224 494
191 263
381 52
419 168
29 11
497 144
176 47
234 408
394 260
18 125
308 348
492 70
236 12
230 90
3580
3
