40
9
0 0 0 0 0 0 0 0 0
34 64 20 75 91 17 21 88 41
44 53 78 89 62 53 52 51 92
41 82 36 15 23 27 48 48 96
61 36 61 55 18 99 26 28 93
72 30 47 32 23 68 30 72 54
81 88 50 77 18 73 22 90 31
16 34 78 25 25 67 76 32 51
83 71 83 41 70 58 90 36 42
80 77 45 14 79 42 94 64 54
27 24 53 71 35 63 85 57 56
18 84 99 81 77 77 41 99 100
19 44 27 30 59 44 85 75 51
92 60 22 78 81 37 49 68 39
73 26 83 43 59 35 25 34 54
34 71 99 15 51 51 81 33 100
50 17 29 62 48 97 27 80 91
58 96 10 52 19 78 66 61 81
11 18 84 78 57 83 30 44 80
21 33 18 86 36 42 41 74 50
79 10 36 94 60 70 40 79 91
63 33 65 17 43 72 97 76 88
95 57 83 73 57 49 54 19 25
62 40 18 56 11 39 65 43 39
25 48 25 14 19 29 81 85 17
38 31 15 93 85 12 19 10 73
65 42 44 81 40 80 87 26 47
12 92 78 100 45 40 39 17 23
61 70 67 83 49 22 17 30 19
24 88 87 72 83 49 59 36 33
42 71 50 57 74 94 91 54 94
57 63 23 68 90 51 56 26 41
17 89 45 86 24 75 72 25 56
10 28 88 27 10 48 26 28 16
77 28 41 74 89 55 98 38 90
34 60 62 62 59 15 100 71 28
21 89 11 11 82 12 38 43 67
47 78 46 74 87 84 50 32 93
29 51 88 51 52 34 82 93 93
54 36 91 22 52 18 68 46 14
0.533062
0.728594
0.65809
0.904189
0.867437
1.00419
0.680418
1.04099
1.32783
0.414921
0.868749
0.391717
1.41559
0.676968
1.23493
0.411105
0.904099
0.539301
0.547911
0.838071
0.804399
1.28109
0.34566
1.18929
0.353116
1.14287
1.16612
0.520057
1.02641
1.16733
1.17101
1.00036
1.24151
0.359811
0.480916
1.26863
1.25835
1.47711
0.481045
0.73824
389 422
308 279
342 356
86 54
400 191
480 267
319 478
422 330
170 470
280 259
304 243
28 379
178 134
214 117
215 62
148 164
14 462
268 299
337 384
250 477
66 245
458 296
212 27
357 86
303 214
324 129
20 21
144 271
410 370
211 66
230 471
346 315
429 303
303 401
190 446
395 255
482 436
497 272
249 246
113 143
2100
5
