40
5
0 0 0 0 0
79 92 92 66 74
53 78 52 18 51
45 32 18 46 19
64 75 69 19 14
31 43 97 86 99
69 52 79 17 57
63 42 96 16 26
63 16 22 93 65
29 72 63 55 29
35 93 68 92 36
74 96 84 78 61
50 91 16 64 66
38 15 53 56 44
85 70 27 58 10
92 52 54 36 41
41 80 73 20 38
84 26 96 88 97
64 25 48 65 29
21 87 14 95 75
40 61 99 75 67
19 23 75 38 14
76 49 47 45 72
12 11 38 85 63
35 16 37 66 59
13 41 52 46 63
69 62 44 12 21
54 20 66 53 69
49 14 75 43 87
98 95 44 27 82
17 91 71 71 94
54 91 69 62 66
18 92 98 17 16
28 99 58 91 63
31 47 14 39 67
28 69 19 86 74
53 80 18 59 95
76 30 96 59 20
33 26 22 93 80
71 54 84 48 21
0.321621
0.227485
0.311354
0.427581
0.348381
0.149422
0.412644
0.444185
0.436482
0.470689
0.247441
0.18947
0.277027
0.160615
0.169027
0.458219
0.321472
0.237667
0.215832
0.153315
0.127405
0.209227
0.13377
0.18279
0.300962
0.283493
0.307438
0.483309
0.405442
0.329173
0.294542
0.476688
0.101145
0.367579
0.315695
0.155135
0.470777
0.306831
0.445715
0.383242
283 320
338 256
9 149
428 357
330 313
460 375
283 370
48 290
369 35
208 426
210 67
306 81
235 243
149 471
355 19
191 87
132 19
138 175
312 374
40 169
229 282
124 399
3 276
147 455
327 424
292 266
92 296
489 443
365 470
260 51
277 235
468 240
355 24
183 219
236 106
276 117
316 58
126 124
468 106
161 212
2143
5
