40
7
0 0 0 0 0 0 0
97 18 49 48 83 57 11
44 89 43 42 22 26 10
67 70 73 81 79 42 17
38 83 67 50 97 56 44
58 60 24 45 65 25 17
91 52 14 82 95 98 85
30 13 76 82 45 91 15
76 85 63 31 42 15 44
75 98 70 92 69 13 64
66 97 28 60 60 25 66
98 42 88 40 14 56 72
20 75 73 22 86 17 36
37 85 63 55 17 98 32
12 17 41 88 71 88 14
94 51 31 45 54 83 62
36 57 17 37 68 70 23
27 45 23 99 60 46 45
94 86 79 99 99 20 26
84 100 70 50 36 78 40
50 27 16 74 21 11 52
25 97 53 86 57 14 92
82 12 34 95 52 47 63
23 13 45 55 51 46 68
85 100 22 93 26 32 39
99 25 24 67 74 37 72
21 78 85 91 26 59 27
47 51 59 43 93 13 95
63 65 77 38 30 30 29
62 49 68 55 97 67 79
72 55 18 28 79 66 39
38 42 14 37 53 19 89
87 64 89 85 75 62 100
53 45 44 92 67 99 88
17 95 94 37 96 35 59
25 17 90 73 78 17 72
34 48 31 83 97 57 88
82 100 78 69 47 32 14
57 20 44 89 24 30 63
74 67 77 81 83 25 19
1.4735
0.521216
1.55307
1.62958
0.935714
0.536063
1.80985
1.65233
1.94632
0.866329
1.60176
1.02135
1.50587
1.86681
0.688095
1.91747
0.401621
0.994727
1.45388
1.05088
0.899243
0.546916
1.55553
0.475519
0.852321
0.922334
0.954436
0.818374
1.13991
0.886097
0.746226
0.602665
0.780399
1.71088
1.0242
0.554572
1.51225
1.97307
1.65102
1.5106
175 111
33 117
432 295
472 10
461 386
435 31
424 358
457 466
91 139
343 333
286 261
71 419
228 216
25 271
387 43
378 81
272 286
398 479
476 17
109 286
361 479
394 41
297 261
214 454
210 412
42 308
340 156
137 211
26 45
427 355
88 105
338 373
41 256
499 256
197 235
330 285
407 323
379 402
0 196
373 157
10900
1
