40
11
0 0 0 0 0 0 0 0 0 0 0
74 20 25 46 82 66 35 29 79 92 74
92 55 61 48 41 81 65 41 11 41 66
95 59 67 98 25 87 38 12 54 52 21
34 37 56 99 55 70 24 48 78 94 31
13 87 52 74 49 65 16 34 23 10 89
31 15 87 66 66 55 21 10 53 46 90
59 23 61 77 32 74 75 87 70 37 39
91 43 82 85 32 18 27 97 54 17 16
16 44 31 30 58 55 70 27 31 34 77
36 29 76 20 40 14 37 58 26 99 82
91 19 27 89 36 80 10 50 38 18 66
51 57 64 10 23 73 69 84 23 66 14
23 77 28 45 14 45 85 21 96 51 25
58 31 80 30 28 44 98 50 29 66 22
92 64 28 91 11 11 82 60 44 28 48
72 42 45 49 56 30 18 77 53 14 22
40 58 27 34 26 45 15 75 46 93 75
38 89 84 30 44 69 17 94 66 48 37
71 30 46 30 34 21 34 13 46 91 24
98 48 29 11 81 22 57 16 59 35 91
64 91 19 88 21 17 49 56 20 97 15
58 52 41 20 58 36 24 57 65 79 87
33 50 57 46 68 59 72 24 28 33 91
26 85 25 34 31 85 80 43 13 96 75
99 52 91 14 87 30 57 80 98 99 53
50 83 81 36 66 66 60 47 75 52 100
75 69 60 22 56 17 19 36 18 59 11
84 20 66 77 69 28 85 63 54 83 71
60 96 83 28 67 76 77 47 39 58 46
28 91 67 67 46 75 95 84 76 53 28
49 59 29 90 71 76 31 41 93 18 43
43 19 94 64 26 81 96 31 42 25 41
45 19 16 59 29 80 55 65 35 36 36
50 48 56 16 66 31 59 39 63 67 33
40 55 72 14 71 87 52 85 27 37 12
91 49 70 36 36 98 98 34 46 41 18
68 75 17 70 38 78 63 31 91 13 67
36 50 49 87 49 85 80 65 74 17 96
73 45 48 32 96 53 11 96 25 98 66
0.93605
0.69194
0.778117
0.603037
0.496336
0.206086
0.955208
0.300879
0.340993
0.883572
0.446728
0.517845
0.761465
0.908975
0.220375
0.83822
0.486236
0.983129
0.943524
0.401495
0.483772
0.621622
0.664217
0.246922
0.537141
0.254322
0.983086
0.657293
0.823887
0.32574
0.443327
0.405962
0.7752
0.496501
0.484382
0.336327
0.264748
0.440939
0.701218
0.731403
216 496
85 220
448 319
309 454
41 373
231 450
136 1
210 5
215 80
377 401
283 294
235 2
1 227
178 480
242 20
0 496
15 349
154 21
139 34
131 437
460 190
374 394
471 117
332 190
316 413
33 340
398 233
328 56
74 463
208 468
65 285
453 28
185 480
384 326
451 196
126 72
497 238
52 474
410 450
175 49
5117.5
2
