40
3
0 0 0
95 57 71
60 76 40
43 74 57
75 83 92
66 69 87
56 52 39
64 43 62
86 89 33
57 22 94
66 65 67
73 94 27
40 44 70
86 88 79
61 13 24
18 36 85
98 50 52
62 24 40
48 38 32
91 14 52
35 40 62
37 85 10
54 22 34
68 16 82
21 73 11
62 66 10
85 29 83
10 88 35
94 33 18
86 84 69
17 54 46
42 47 15
25 66 68
87 57 41
93 25 13
85 92 75
77 56 84
34 64 94
17 98 23
42 75 56
0.931425
0.540769
0.961461
0.306694
0.955152
0.854008
0.789112
0.604231
0.714532
0.59889
0.538719
0.602655
0.3251
0.275594
0.711655
0.857701
0.577921
0.576668
0.553324
0.958706
0.808888
0.744491
0.869486
0.770975
0.762433
0.700447
0.701236
0.374094
0.890535
0.43545
0.616362
0.260944
0.565378
0.629884
0.340161
0.833449
0.668802
0.826328
0.626243
0.747753
465 82
289 477
119 59
393 49
367 208
228 102
8 410
7 458
284 260
76 11
447 403
264 106
389 102
247 183
268 420
309 312
323 19
496 205
105 400
327 424
374 435
188 294
374 424
167 189
134 269
433 370
478 102
124 240
74 140
298 328
112 125
211 232
150 226
334 446
499 67
320 246
441 237
260 52
83 471
305 331
3638.33
3
