40
5
0 0 0 0 0
88 10 71 36 17
10 28 42 87 23
15 48 47 82 62
53 82 37 63 25
93 14 97 36 58
47 61 32 11 18
80 23 52 48 82
71 88 60 84 73
39 61 33 57 49
94 86 62 34 89
37 22 56 33 93
92 99 36 10 52
42 53 60 22 93
73 73 63 61 16
98 19 82 90 97
92 100 88 69 11
63 21 89 65 86
12 46 12 48 73
71 60 82 61 41
45 93 27 55 13
18 68 76 96 84
87 50 90 25 58
17 99 56 72 48
55 26 72 81 94
31 50 10 11 27
32 81 36 44 64
36 54 99 85 92
11 98 64 89 15
98 86 24 44 34
66 21 58 37 70
12 66 75 11 13
49 14 94 85 42
98 45 53 68 43
40 13 92 59 39
48 58 94 23 42
53 14 28 19 60
12 96 27 61 38
63 39 71 55 59
85 84 94 31 89
1.03143
0.6302
1.19316
0.78463
0.379465
0.710284
0.615578
0.517747
0.52543
0.64435
0.939509
1.01151
0.838724
1.34447
0.391755
0.45313
0.529309
0.551337
1.18661
0.942294
1.13804
0.45196
0.482076
1.44024
1.09203
1.30932
0.58412
1.27803
0.855581
1.11744
1.16547
0.587355
0.848044
0.829976
1.28831
1.06324
1.32391
0.400429
1.22475
0.52845
193 448
28 317
57 478
337 464
93 445
269 180
299 243
177 68
218 3
24 292
494 475
440 189
160 256
215 55
172 130
300 262
441 329
83 69
159 197
4 210
284 492
486 430
285 131
399 209
268 390
448 30
430 214
79 25
459 135
58 220
323 66
114 59
304 319
405 5
362 452
283 367
403 0
119 372
328 14
384 153
10745
1
