40
9
0 0 0 0 0 0 0 0 0
18 33 98 45 64 35 23 61 13
13 90 50 60 30 93 42 18 31
81 96 79 68 81 74 36 10 89
13 95 10 59 19 51 72 37 82
52 62 46 53 83 21 25 59 20
71 63 91 57 83 28 99 52 83
69 81 98 40 67 83 88 24 17
24 28 22 98 91 64 63 32 71
61 20 27 87 54 73 15 81 27
79 73 14 21 76 11 38 33 98
99 20 10 63 88 64 53 53 41
21 90 91 87 34 56 95 35 75
88 32 23 18 80 26 73 14 71
80 56 85 40 37 76 41 79 23
36 88 27 65 96 66 13 59 85
38 44 86 91 96 93 73 53 12
23 48 21 37 72 30 70 73 96
63 57 59 83 98 75 20 47 63
71 80 17 48 67 87 97 90 56
45 14 56 82 78 24 42 48 88
53 66 28 36 89 92 31 60 57
66 29 49 42 19 100 35 38 95
20 57 93 42 34 96 78 71 12
27 96 56 49 86 94 70 42 23
39 76 30 22 46 61 41 19 15
67 76 22 91 32 67 97 76 19
97 83 10 39 65 93 27 70 47
13 12 12 55 22 64 97 33 57
71 43 10 34 29 99 50 93 100
62 72 16 82 75 48 71 57 79
72 83 27 64 20 75 12 34 35
91 73 88 16 42 77 36 22 48
81 56 69 98 43 12 65 72 15
80 22 73 75 12 70 65 78 47
14 65 80 69 88 18 99 15 84
92 93 21 61 87 96 67 13 25
95 62 94 30 12 34 47 43 44
43 87 40 22 93 22 31 89 19
96 28 84 50 96 14 55 44 55
0.813523
0.269974
0.923985
0.861544
0.941236
0.386536
0.286886
0.356981
0.849687
0.570676
0.920254
0.930996
0.280961
0.679365
0.814056
0.460558
0.582844
0.492247
0.387034
0.257903
0.711389
0.913995
0.542238
0.827732
0.677253
0.266557
0.936479
0.506546
0.940308
0.240394
0.717284
0.505292
0.305828
0.517678
0.882943
0.402747
0.328737
0.500615
0.795847
0.711997
480 150
235 259
425 404
204 68
241 213
352 425
102 43
137 127
115 236
168 160
265 221
103 115
494 205
184 74
101 205
190 385
322 453
482 175
72 441
280 232
75 112
40 353
371 96
197 233
50 186
166 475
288 363
224 411
314 31
168 367
0 50
455 90
475 236
463 380
436 56
267 141
243 351
42 341
434 338
307 29
2167
5
