40
7
0 0 0 0 0 0 0
33 49 23 45 13 36 94
43 90 75 76 98 95 98
33 94 56 37 29 70 94
19 30 46 44 43 62 17
46 68 67 25 37 81 73
94 68 51 88 43 43 72
35 27 18 93 54 74 70
16 29 80 22 40 27 53
50 86 69 38 22 20 84
99 42 92 25 46 37 12
70 89 90 42 55 76 69
82 94 83 69 66 100 28
54 58 21 66 56 41 90
21 45 50 81 35 98 75
14 95 79 27 54 25 49
79 19 71 59 83 37 62
12 87 57 35 51 61 71
52 79 53 32 79 60 25
99 72 63 92 47 38 99
59 36 73 45 38 42 30
26 64 50 41 47 51 85
56 16 32 93 42 17 35
57 68 46 14 69 98 58
16 83 26 88 28 76 13
81 42 63 63 30 80 100
71 61 47 49 70 57 88
57 23 48 90 13 55 54
18 30 52 88 66 16 16
40 65 87 82 51 50 76
36 72 56 98 54 73 11
27 67 25 22 81 71 93
66 45 52 23 86 42 52
100 49 72 43 18 20 69
16 93 55 47 47 29 50
85 26 32 82 59 70 14
22 56 88 54 69 29 25
77 27 90 69 83 79 80
50 33 12 69 10 14 40
74 43 24 62 79 26 23
2.2268
2.39802
1.83403
1.01337
0.623948
0.847873
2.48106
1.58408
1.23148
2.21619
2.02578
1.14872
1.55911
0.633729
1.32821
2.43899
1.63933
2.09783
0.755706
1.55587
1.04914
1.95361
1.7276
0.650177
0.62163
1.06651
2.21868
1.34073
0.891288
2.23447
0.670101
1.89511
2.15005
0.776286
1.38827
1.75036
1.62295
1.80347
1.651
1.34224
482 196
219 325
339 66
230 153
136 64
295 29
271 280
307 475
80 340
332 30
427 485
176 105
181 252
62 228
105 246
370 23
164 387
353 100
349 71
239 493
397 221
375 67
148 204
144 487
245 349
113 150
316 250
244 441
440 477
19 60
303 151
45 264
237 30
336 418
206 48
470 367
312 246
425 38
225 441
430 451
3550
3
