40
3
0 0 0
73 52 89
92 14 38
24 61 40
58 34 44
89 21 14
32 83 12
59 47 44
25 46 57
53 84 76
43 80 47
43 69 97
87 17 96
79 34 86
74 93 57
33 30 67
100 16 20
16 80 89
50 68 98
44 37 83
76 67 59
22 30 27
77 22 26
13 20 37
96 93 74
24 100 87
49 91 23
25 47 21
24 14 44
93 80 55
81 74 43
32 21 79
66 31 59
69 56 29
92 52 68
84 97 36
38 36 27
82 82 34
42 80 46
93 81 77
0.971475
1.66762
0.411566
1.83952
1.66329
0.81402
0.83528
0.491
1.62838
1.86538
0.617749
0.947226
1.36477
1.8305
1.00267
0.697073
1.88761
0.882086
1.29745
1.30436
1.27188
0.535584
1.30568
1.41879
0.783891
1.42178
0.829443
1.92906
0.795272
0.716129
0.852757
1.42315
0.543881
1.18239
0.644662
0.863994
1.86746
1.85153
1.63622
0.934407
213 417
59 342
92 49
74 3
458 136
92 81
221 38
478 275
307 356
426 307
392 279
414 285
354 138
377 404
179 497
87 356
370 93
476 312
260 291
302 357
330 36
76 418
302 168
22 54
6 194
401 437
36 206
209 45
169 282
453 344
93 487
199 247
494 326
348 430
441 110
99 424
373 14
47 473
107 107
96 294
10825
1
