40
11
0 0 0 0 0 0 0 0 0 0 0
87 19 26 49 95 54 51 18 25 96 56
94 38 22 45 11 20 44 67 92 49 15
45 73 61 80 89 36 81 69 13 81 92
22 88 43 86 99 92 90 98 80 100 12
20 25 21 54 84 54 18 98 97 32 59
35 96 21 62 86 88 69 11 14 29 58
46 64 54 89 44 41 98 42 72 64 21
32 55 27 96 89 25 63 60 94 39 75
41 76 64 47 58 86 68 65 92 62 77
84 79 22 59 93 51 37 94 95 16 58
98 11 68 63 24 64 41 14 20 97 77
57 69 62 91 25 49 46 33 55 56 65
35 58 37 71 49 52 32 69 10 17 85
71 61 34 42 40 63 25 96 64 10 26
50 65 88 15 50 73 46 42 74 52 25
17 12 44 46 30 56 72 99 16 77 10
93 21 68 21 14 96 25 66 83 55 18
18 54 90 25 56 82 53 93 30 11 92
25 28 16 59 85 67 10 91 63 32 39
47 18 66 25 23 62 25 97 42 43 99
23 87 23 78 80 35 53 40 25 78 99
71 72 17 80 22 61 28 66 99 58 66
50 12 11 43 69 96 44 34 35 46 92
30 78 53 24 97 91 94 83 15 29 38
29 58 49 87 87 56 33 65 20 58 79
74 22 36 22 56 11 67 38 98 96 38
79 29 32 92 17 83 14 83 100 89 88
64 57 79 36 73 72 30 37 81 23 94
44 74 48 32 44 76 59 90 83 56 97
65 49 86 94 19 24 78 73 21 76 79
57 23 33 89 54 23 18 47 100 22 51
25 59 52 61 45 72 63 80 93 37 65
23 85 29 23 62 60 77 54 26 66 25
72 72 45 93 60 51 82 82 53 93 44
81 73 82 56 21 84 69 60 33 14 18
87 24 31 93 67 11 62 83 54 80 37
60 35 12 95 10 62 12 18 87 96 51
15 30 30 55 82 52 66 99 97 61 41
31 17 48 11 47 57 30 53 70 60 97
0.130727
0.4298
0.339113
0.484246
0.161147
0.347159
0.347903
0.396292
0.387106
0.224935
0.218208
0.141053
0.47635
0.447654
0.316556
0.317274
0.145255
0.349161
0.267418
0.396171
0.190365
0.266657
0.439508
0.126567
0.394019
0.254678
0.225843
0.145535
0.34789
0.47671
0.113202
0.272274
0.405066
0.119523
0.273719
0.332488
0.493541
0.240787
0.389546
0.125841
71 180
351 373
241 434
311 112
80 186
229 16
457 22
45 497
472 484
136 343
31 188
423 435
436 141
94 232
300 221
493 360
123 214
116 333
132 286
36 48
353 338
54 54
52 373
450 500
463 64
324 120
292 78
74 73
73 34
286 272
119 465
351 379
3 255
109 12
272 389
402 404
404 233
285 232
51 445
6 67
2149
5
