40
3
0 0 0
55 36 44
45 54 28
98 18 93
75 24 67
21 87 14
58 38 30
98 21 63
78 51 17
26 81 23
15 52 13
95 99 87
72 95 90
29 48 69
47 28 77
75 67 72
74 97 36
66 10 53
84 29 16
79 97 61
57 39 37
77 22 40
58 63 55
52 55 42
83 56 15
48 80 48
72 46 96
76 79 54
57 90 34
15 17 21
29 90 72
29 65 11
15 57 62
100 87 82
28 83 38
87 25 31
41 76 91
38 15 27
79 86 90
87 14 45
0.776883
0.359159
1.10448
1.00132
0.574505
1.35252
1.38094
1.19267
1.28985
1.42804
1.24053
0.32812
1.47829
1.24132
0.654068
0.809992
0.821063
1.49949
1.09811
0.710294
1.22454
1.29109
1.10818
1.26578
0.977703
0.82261
0.561148
0.573798
1.04394
1.49734
0.436803
1.41511
1.37519
0.548307
1.12062
0.656861
0.985787
0.635898
0.660844
0.625348
120 253
399 126
341 270
297 242
15 20
482 327
470 170
450 488
303 267
309 311
494 397
300 46
352 245
225 172
335 86
76 38
156 327
226 291
444 371
104 444
159 190
425 268
393 20
65 215
133 82
215 120
177 462
352 389
78 460
303 445
304 431
93 458
481 298
468 171
463 185
95 159
472 95
8 228
291 105
463 268
2146
5
