40
9
0 0 0 0 0 0 0 0 0
23 23 21 83 95 62 66 85 38
12 67 62 11 61 12 90 21 22
48 21 60 87 58 53 67 16 39
90 99 24 46 55 10 19 37 77
68 64 31 11 18 35 41 73 64
68 58 58 51 14 49 16 64 21
66 77 84 53 54 77 22 77 79
73 16 63 10 33 95 97 42 43
58 95 12 88 60 11 86 25 39
42 78 56 78 69 36 28 13 60
93 22 30 14 64 42 99 46 94
83 47 51 16 63 10 73 66 50
34 10 86 89 51 74 27 41 94
100 90 15 50 82 85 72 74 74
23 83 93 59 34 10 45 75 58
82 20 13 82 70 96 16 37 10
73 24 16 71 89 43 24 49 16
38 18 45 69 86 66 56 34 85
74 36 54 86 97 73 56 99 44
31 44 71 20 43 19 52 54 86
82 18 59 19 63 59 88 46 85
71 54 66 24 49 87 93 17 49
91 38 11 41 88 11 79 40 90
91 19 71 58 94 53 33 85 37
76 24 38 10 89 52 74 37 82
41 58 49 60 11 60 70 61 70
58 41 82 99 52 91 18 39 53
51 39 81 38 69 43 76 11 44
88 28 69 35 75 95 25 59 23
70 59 60 34 100 26 71 61 23
58 19 73 77 52 31 85 43 37
36 11 84 52 47 28 84 22 57
62 13 36 11 72 20 38 29 94
96 59 72 67 54 51 68 90 49
66 76 95 63 35 20 24 97 36
34 20 78 84 23 73 25 87 64
29 46 50 12 95 40 71 98 33
69 67 74 69 100 11 34 57 19
13 29 34 71 63 35 12 94 99
0.199823
0.376513
0.485389
0.107554
0.393611
0.327394
0.217665
0.443762
0.308925
0.305316
0.250186
0.358619
0.160461
0.260337
0.310682
0.146332
0.223871
0.328857
0.129487
0.125836
0.368812
0.105599
0.421204
0.122876
0.264839
0.357786
0.420152
0.212317
0.247136
0.439232
0.21088
0.194239
0.195192
0.206052
0.213137
0.384709
0.367554
0.481636
0.476254
0.383349
264 446
376 353
11 218
162 41
381 298
391 214
7 241
290 85
68 113
482 397
34 362
311 197
453 373
463 454
288 337
251 276
96 275
264 475
385 494
377 29
431 460
386 162
436 160
26 16
452 284
12 471
408 192
20 493
144 158
249 274
381 252
38 447
220 410
389 452
248 180
140 384
136 396
202 380
118 402
111 279
3485
3
