40
11
0 0 0 0 0 0 0 0 0 0 0
31 70 50 10 12 48 72 23 33 16 53
34 97 65 86 44 57 38 45 35 60 35
64 66 70 42 91 74 53 74 95 45 14
88 57 66 40 27 39 33 86 33 66 87
56 84 15 94 76 36 27 95 66 14 29
92 34 41 19 28 42 91 11 68 80 100
48 71 97 37 18 91 83 61 20 69 83
30 53 27 20 79 33 40 10 81 88 51
80 16 24 87 73 100 72 24 70 33 22
70 18 60 97 53 86 40 68 29 68 37
32 70 77 61 13 29 99 88 73 14 26
91 78 86 57 44 39 45 89 72 95 33
74 98 69 79 92 59 53 94 42 52 39
75 75 30 24 39 15 47 88 39 12 41
65 61 45 37 36 89 79 24 69 67 40
28 49 100 81 94 81 29 15 33 99 80
36 82 85 10 53 15 16 52 37 93 37
46 47 34 35 100 63 94 68 54 60 67
37 36 33 68 28 36 78 70 52 85 39
82 89 16 94 23 81 56 82 63 25 39
61 23 25 60 60 68 14 36 91 98 77
64 67 64 19 56 13 37 60 94 98 46
43 16 18 58 56 39 60 49 85 92 55
95 38 34 30 87 93 10 15 46 45 27
68 34 67 24 77 30 25 71 15 85 43
17 72 88 39 27 83 26 42 31 83 30
70 31 95 72 88 12 34 13 27 53 30
41 98 96 11 96 58 60 16 77 94 87
72 25 31 48 32 26 83 67 92 49 35
30 16 39 54 90 75 12 51 93 57 95
29 82 15 73 91 80 28 46 81 72 76
48 84 30 26 43 22 40 49 71 43 87
99 46 75 83 24 24 83 37 52 58 61
17 14 14 88 52 96 70 91 62 52 85
93 44 82 48 16 56 29 13 22 90 85
59 91 97 27 47 70 28 34 51 20 44
83 86 41 31 99 99 46 44 30 24 44
85 48 62 82 33 10 33 81 55 36 14
37 92 40 95 56 43 94 28 38 81 16
0.891539
0.964347
2.26433
1.41988
1.97216
2.43671
1.57537
2.42331
1.7648
2.14625
1.49204
2.3823
1.99527
1.08893
0.761176
1.63632
2.15891
1.16316
0.680542
1.36089
2.16266
1.91846
0.512227
1.14893
2.40897
1.90386
2.2443
2.07469
2.47257
0.547462
2.01757
1.89855
1.20558
1.4688
0.967998
1.73961
2.43224
1.43474
1.04832
2.3784
371 87
327 209
236 300
456 109
102 360
356 370
140 215
295 29
57 371
395 316
10 360
477 370
48 315
151 227
25 22
449 373
8 156
19 160
135 93
208 273
17 21
183 283
310 378
116 343
339 347
284 231
481 168
152 168
244 313
309 367
194 71
359 196
442 188
363 230
250 10
446 45
262 136
280 221
399 7
255 484
3551.67
3
