40
3
0 0 0
42 42 66
92 81 79
78 22 66
63 65 57
70 55 99
22 44 11
59 83 91
95 51 77
60 66 65
36 58 87
71 42 23
34 64 26
56 71 28
28 53 100
26 83 82
39 35 69
63 64 82
29 92 96
32 35 37
98 88 10
23 14 91
35 76 56
67 66 72
44 24 94
80 63 79
76 20 73
73 85 28
67 12 74
62 21 21
92 36 68
23 54 57
38 38 49
73 100 76
55 19 99
44 33 71
68 51 39
61 70 89
73 51 79
35 17 24
1.43136
0.481587
1.28252
1.34778
0.85557
1.29075
0.840518
1.39673
0.812591
1.23656
0.824802
0.546112
0.533762
0.650893
0.928894
1.30591
0.636414
1.08714
0.704073
1.0129
0.733969
0.910191
0.545133
1.4055
1.47031
0.661736
0.543715
1.03064
0.954782
1.3105
0.722378
1.09365
0.827479
1.41036
0.510666
1.23541
0.322311
1.15033
0.323551
1.28771
398 282
392 194
391 400
132 253
197 420
395 57
103 485
150 96
454 455
149 191
214 220
132 254
150 407
14 27
84 40
83 195
167 118
195 470
414 63
2 221
403 176
186 442
18 250
349 258
349 53
373 261
394 123
4 495
68 30
429 85
74 315
102 489
193 495
353 352
266 298
413 104
471 9
174 413
272 232
362 244
2238
5
