40
7
0 0 0 0 0 0 0
16 88 70 39 49 30 30
88 80 12 37 40 73 82
77 18 96 91 88 48 36
12 91 72 94 82 80 15
43 34 82 16 63 73 33
34 55 17 100 55 22 50
93 98 34 73 66 33 73
25 82 83 21 11 91 28
57 63 60 14 95 90 56
16 99 70 55 35 79 11
45 30 36 95 40 32 11
41 57 58 30 58 80 55
57 61 68 11 59 87 57
71 13 39 74 71 94 61
45 72 68 41 12 40 83
15 19 72 57 95 34 86
81 58 90 35 56 20 79
14 79 64 83 20 30 99
20 77 49 28 72 92 47
34 96 17 63 13 23 68
54 73 26 29 91 78 73
70 98 86 84 44 42 86
85 76 40 92 27 100 10
95 85 62 52 77 68 36
13 53 79 30 33 10 10
76 17 35 47 18 33 31
93 55 59 91 46 40 78
91 20 48 34 49 35 37
65 10 84 90 74 91 79
98 83 96 54 77 94 29
15 61 24 15 55 75 32
47 37 11 22 71 77 83
61 88 50 18 48 44 13
27 45 37 26 40 41 49
77 83 26 75 72 62 96
87 19 64 33 28 51 64
28 46 53 73 11 62 82
67 22 63 31 17 11 12
25 33 70 34 70 79 77
0.758596
0.703
0.659661
0.63337
0.841074
0.976789
0.706303
0.471422
0.765426
0.709534
0.639012
0.528813
0.205761
0.886376
0.881173
0.533436
0.557691
0.424675
0.851126
0.812167
0.281776
0.411154
0.830453
0.929345
0.648633
0.602349
0.736751
0.859801
0.83926
0.580007
0.716649
0.886022
0.976024
0.216755
0.86498
0.647886
0.459996
0.587972
0.764709
0.817378
355 116
130 166
400 230
307 249
307 2
371 461
100 72
128 54
270 243
293 269
271 6
268 382
100 409
373 395
425 396
30 347
82 50
48 321
189 265
488 9
353 256
307 206
72 127
1 2
448 420
79 449
301 455
246 193
457 261
36 160
460 256
130 218
119 223
228 40
332 75
198 480
303 223
404 121
344 220
475 306
2114
5
