40
7
0 0 0 0 0 0 0
18 83 78 72 43 87 50
75 77 94 55 36 39 87
39 70 48 86 11 85 32
48 84 51 86 62 43 26
25 55 62 95 85 41 50
64 91 35 66 80 52 79
20 85 53 39 70 26 34
100 43 30 23 98 86 51
46 34 94 88 19 26 24
26 67 37 14 91 28 14
81 18 52 86 60 17 73
56 36 27 15 13 51 100
40 23 95 91 44 38 93
54 75 86 87 48 42 36
96 73 95 97 79 95 79
44 25 72 85 62 11 62
92 92 79 10 87 26 51
38 24 22 20 15 24 85
17 65 34 65 10 88 63
14 67 82 59 27 34 66
93 62 89 66 28 35 45
89 50 57 34 40 60 32
47 14 97 49 59 16 63
21 54 71 72 12 73 88
100 90 65 39 29 32 79
88 11 29 83 14 70 31
72 27 76 69 88 38 73
16 90 25 13 49 97 41
21 97 64 63 97 74 16
64 12 63 63 65 95 53
45 20 39 23 88 70 82
20 14 82 99 19 37 35
50 57 56 91 32 49 49
71 28 95 58 21 55 97
21 29 64 19 46 96 78
100 18 90 94 22 82 12
62 16 38 66 25 40 38
13 19 57 73 84 77 86
25 79 73 76 87 70 29
0.478318
0.286255
0.24783
0.103823
0.438333
0.396163
0.386688
0.384686
0.424105
0.329519
0.28936
0.157769
0.407771
0.29486
0.272702
0.431218
0.123917
0.174568
0.107505
0.470537
0.436311
0.498664
0.155985
0.233144
0.228301
0.436882
0.381875
0.141475
0.206027
0.177967
0.38157
0.213838
0.402991
0.112734
0.151641
0.339464
0.232745
0.197215
0.477154
0.140103
78 494
420 173
40 125
411 442
3 330
29 22
232 213
201 465
276 247
150 431
231 125
253 235
324 316
77 449
38 470
219 402
257 85
23 26
440 428
78 468
314 473
108 473
120 7
321 108
84 284
282 391
44 32
174 215
285 200
148 477
487 54
346 133
59 86
344 122
310 458
422 10
364 422
353 491
462 369
456 226
3585
3
