40
9
0 0 0 0 0 0 0 0 0
49 16 34 51 43 45 75 59 99
88 19 98 16 64 12 58 17 32
44 16 26 68 41 93 23 82 92
23 17 42 71 48 37 77 47 64
64 84 51 26 55 39 46 79 66
32 56 44 10 72 98 25 45 70
98 40 50 21 10 21 80 10 29
73 77 16 72 31 44 28 23 13
86 38 78 91 37 20 11 56 59
75 15 95 61 21 66 62 24 17
88 32 31 80 48 33 60 47 87
26 25 58 40 62 75 60 74 98
77 81 44 78 65 63 77 89 63
63 90 49 81 50 28 21 52 27
99 73 83 72 84 74 87 57 28
85 10 29 12 42 91 13 90 81
33 45 100 22 83 42 92 61 72
34 73 88 51 47 92 23 45 35
63 31 99 53 75 46 19 53 51
11 76 12 34 93 23 50 78 49
93 91 88 59 54 66 28 40 10
64 51 94 76 11 74 10 62 55
74 88 35 31 70 83 30 60 96
97 84 44 13 84 51 21 83 91
65 90 65 88 55 25 11 15 93
34 64 59 26 29 23 36 79 55
54 65 90 100 51 48 32 68 43
87 98 49 42 14 70 54 88 63
43 33 24 91 10 50 86 70 92
93 39 39 81 60 98 86 18 60
71 70 10 67 68 79 25 26 56
43 31 24 84 50 90 11 48 43
65 76 27 12 63 14 62 37 89
49 27 18 64 53 65 90 72 74
76 18 15 52 24 61 39 78 86
43 58 83 45 77 67 59 29 47
42 42 27 84 23 84 92 78 25
50 21 80 18 39 77 67 71 82
31 87 76 77 54 68 91 59 21
0.528936
0.856199
0.315962
0.707393
0.423812
0.855581
0.555464
0.573799
0.678392
0.847712
0.665962
0.30247
0.333072
0.810701
0.723957
0.730984
0.376891
0.426111
0.289048
0.353315
0.797661
0.210564
0.392269
0.288941
0.361437
0.453737
0.920945
0.274202
0.952165
0.553251
0.366099
0.34289
0.215284
0.906641
0.843684
0.302937
0.353599
0.654727
0.549553
0.737707
340 400
69 98
232 281
94 107
150 483
282 107
336 426
51 354
395 51
273 257
120 137
478 69
382 279
253 225
218 202
194 442
358 43
30 150
474 165
74 302
2 401
36 454
450 462
238 342
425 210
201 229
218 90
352 390
416 289
41 367
116 388
338 126
361 417
321 361
260 49
373 443
170 172
378 426
281 415
269 168
3558.33
3
