40
11
0 0 0 0 0 0 0 0 0 0 0
84 92 14 99 65 28 85 34 90 94 69
22 42 84 19 92 82 34 91 55 86 46
96 100 63 73 69 57 31 94 37 53 34
23 23 89 32 32 40 48 85 25 70 12
93 65 18 46 31 79 60 42 56 99 42
38 85 77 74 50 14 13 99 73 49 14
13 13 80 62 40 30 33 74 43 60 30
16 64 45 11 24 30 51 69 38 85 29
13 15 26 43 32 24 46 99 41 52 24
36 60 51 55 71 40 95 16 25 10 35
32 80 80 25 66 45 22 12 79 15 23
48 58 11 57 37 54 63 49 67 66 27
59 21 33 29 66 86 12 48 89 48 55
63 52 91 97 22 79 55 72 57 10 17
66 13 39 84 71 82 80 47 28 56 61
77 21 75 28 79 68 59 35 22 64 20
85 87 71 20 64 76 90 56 20 95 20
71 20 100 47 17 81 47 32 95 39 51
14 22 32 16 38 14 61 28 83 94 64
17 56 94 85 57 96 51 32 42 100 41
59 32 46 29 100 75 47 67 66 15 10
51 70 68 11 93 26 13 31 44 52 34
47 77 36 75 44 51 100 55 75 41 25
41 54 63 92 95 73 87 94 53 25 62
92 88 42 91 46 61 82 51 59 72 33
89 99 33 16 49 78 35 93 46 36 49
86 39 60 78 15 63 55 51 54 96 68
68 72 27 99 31 22 32 39 35 63 99
98 23 52 59 85 25 82 88 91 29 70
22 26 65 20 17 43 11 88 49 81 61
14 65 46 46 75 39 96 23 63 86 61
98 96 12 84 41 66 62 78 82 47 29
48 56 40 21 87 37 81 78 71 18 65
43 48 80 65 59 39 32 48 85 91 68
16 81 23 64 12 25 89 16 35 30 53
36 25 82 55 97 29 35 29 12 64 81
35 10 66 36 29 78 44 90 28 36 31
100 36 45 32 99 37 81 19 61 40 60
32 80 57 94 88 86 64 81 30 62 87
1.70328
0.805003
1.47211
1.05105
1.11882
1.98865
2.41222
2.42032
1.65206
0.526922
1.56991
0.680013
0.609312
2.17657
1.36707
2.06327
1.63867
1.42511
0.753709
1.54158
1.76204
1.74898
1.86146
0.591273
2.17185
2.31302
1.54745
1.95885
0.641147
2.04408
2.07251
1.33485
0.661138
0.648486
1.70216
1.14373
1.08895
0.676832
1.70149
2.11333
178 59
487 53
25 205
312 72
167 97
181 455
85 24
88 147
136 306
65 277
386 12
310 274
170 88
86 444
298 284
59 272
122 373
418 414
57 347
202 46
13 348
277 141
468 66
420 263
86 146
179 304
4 484
389 102
35 287
100 17
88 241
270 161
419 354
491 146
165 73
499 182
245 223
152 298
98 53
459 200
5232.5
2
