40
3
0 0 0
44 21 80
72 93 57
21 74 75
35 77 36
68 41 27
59 62 62
41 58 29
38 39 62
88 33 13
13 11 56
35 38 45
15 13 98
98 42 79
85 51 82
60 45 12
81 57 23
23 33 40
11 47 32
18 68 82
45 80 77
91 30 64
84 26 81
40 12 71
90 61 49
68 24 61
28 86 73
28 69 47
78 21 67
94 45 45
15 68 93
34 96 21
35 57 37
90 57 70
61 94 98
63 55 84
34 100 18
68 49 11
30 35 97
41 74 90
0.162239
0.189396
0.433409
0.366549
0.400131
0.499757
0.210386
0.37707
0.441265
0.405076
0.130747
0.300745
0.217602
0.129333
0.321486
0.272354
0.201705
0.473187
0.119654
0.474642
0.445848
0.141148
0.130434
0.383445
0.336758
0.234879
0.229945
0.397573
0.478175
0.316359
0.391886
0.49428
0.40634
0.15783
0.177
0.216604
0.142272
0.301694
0.373799
0.491761
320 411
335 287
33 368
247 244
413 313
6 119
117 466
17 286
404 0
290 42
420 16
88 408
205 114
470 378
275 389
365 341
325 23
195 126
186 176
132 422
460 112
112 246
477 381
404 69
96 385
345 440
343 27
482 322
413 298
422 376
400 41
259 11
334 103
44 434
124 239
301 205
228 156
359 356
253 446
130 295
2627.5
4
