40
7
0 0 0 0 0 0 0
75 92 74 77 16 46 33
86 12 50 74 43 35 75
37 27 80 81 65 39 85
63 31 13 53 51 49 82
76 70 46 87 57 94 57
59 40 77 21 89 49 70
15 75 45 83 87 46 30
94 38 55 95 13 23 62
30 74 77 31 89 30 35
11 51 52 47 71 46 66
69 53 27 85 87 100 40
34 23 61 98 12 39 89
90 43 57 77 63 20 62
22 12 45 90 96 46 70
36 28 76 78 10 76 26
86 27 22 63 28 34 20
89 69 69 35 61 44 68
56 35 10 67 54 59 18
45 100 85 94 62 67 96
10 88 23 36 69 16 36
51 52 31 28 84 66 14
38 17 89 27 77 72 82
36 77 21 75 56 22 92
64 90 30 37 39 98 36
46 46 70 50 48 85 30
93 40 13 72 86 76 65
51 97 45 77 44 20 53
29 74 16 97 83 18 16
90 42 77 81 60 88 34
27 61 48 13 59 70 34
85 55 83 96 72 78 58
43 18 55 86 34 89 56
73 53 82 31 33 21 18
18 53 60 58 36 70 57
65 30 50 42 75 72 88
39 60 87 34 10 41 78
38 74 75 82 60 47 52
18 13 60 11 82 84 10
43 58 42 50 46 47 99
0.203997
0.496549
0.875101
0.89519
0.571223
0.500636
0.902371
0.331325
0.886542
0.798272
0.547777
0.357457
0.767182
0.261302
0.746755
0.759929
0.667821
0.777451
0.794592
0.415455
0.908223
0.466995
0.974395
0.610291
0.530962
0.242471
0.231908
0.778334
0.884015
0.520081
0.89573
0.856217
0.545526
0.53188
0.387499
0.496925
0.273275
0.341356
0.381667
0.20939
213 135
463 337
428 61
93 338
17 372
43 290
160 4
256 224
29 456
402 229
73 272
41 406
180 173
260 173
132 474
438 327
232 136
24 354
336 141
72 449
189 258
86 438
102 310
48 349
124 62
305 239
71 198
270 268
153 109
65 301
498 411
469 156
17 89
205 428
304 316
478 177
415 229
208 392
143 115
473 204
5337.5
2
