40
9
0 0 0 0 0 0 0 0 0
49 78 29 82 62 65 63 90 94
83 43 22 41 57 25 39 23 86
51 84 19 61 100 79 86 92 64
59 69 64 37 66 71 90 35 50
51 93 21 31 67 91 20 89 73
85 20 25 45 49 97 12 63 87
77 84 31 45 70 94 35 62 37
61 19 14 77 85 33 73 66 19
31 90 22 57 43 84 91 44 17
49 58 71 62 52 49 13 99 57
66 24 99 46 84 20 88 14 53
45 26 75 24 67 26 61 18 83
93 83 29 53 44 68 17 64 89
10 62 64 32 20 67 89 84 15
25 96 87 60 49 39 52 87 63
79 37 46 79 73 76 11 91 92
83 23 20 67 78 57 87 58 64
48 60 42 95 85 52 83 12 74
50 52 63 16 44 93 75 89 12
90 68 36 80 28 43 70 40 24
39 92 58 73 92 12 43 53 65
19 25 45 82 51 54 78 25 45
70 25 58 59 63 81 59 19 92
89 78 79 66 63 17 62 77 77
65 61 70 76 63 43 40 24 64
32 32 17 23 39 18 41 34 50
28 49 98 95 67 22 86 16 84
80 35 62 91 65 40 51 60 68
57 44 36 25 96 40 95 74 17
83 15 23 51 99 83 84 29 56
73 91 64 29 34 70 82 61 66
81 17 97 47 35 68 14 72 82
32 86 41 62 56 54 44 88 61
28 50 62 89 78 93 51 56 31
51 17 13 39 91 21 38 28 41
16 96 23 75 13 42 44 49 88
77 75 79 33 88 35 53 35 18
56 87 21 72 18 93 49 79 66
17 69 14 97 58 57 80 62 97
0.505247
0.978945
0.319006
0.824546
0.81934
0.983991
0.86325
0.631372
0.813525
0.639763
0.650213
0.845146
0.628295
0.462955
0.654099
0.509726
0.735268
0.308702
0.373225
0.743299
0.526842
0.45734
0.85963
0.487787
0.818344
0.58468
0.231926
0.431315
0.810146
0.474225
0.977265
0.653009
0.61347
0.662686
0.660633
0.574672
0.741153
0.909327
0.799573
0.261428
19 84
159 48
310 31
188 128
68 50
65 273
425 106
257 382
169 491
136 496
364 91
345 187
290 376
412 189
497 219
446 240
378 49
23 48
429 85
497 374
472 444
460 194
227 143
403 305
25 289
281 339
217 214
97 218
81 74
81 132
115 95
61 479
318 248
283 82
247 358
191 466
378 315
341 21
62 137
459 209
2748.75
4
