40
5
0 0 0 0 0
54 90 42 73 69
75 20 48 56 62
55 66 21 29 61
48 92 75 64 12
20 11 87 54 41
22 47 59 12 81
25 66 97 89 29
98 81 22 75 32
30 66 48 92 22
16 34 46 78 38
82 49 98 32 10
10 36 78 82 26
77 85 99 48 39
95 23 87 79 14
71 17 49 21 50
96 51 75 90 93
73 24 73 56 78
98 71 99 18 89
59 77 62 76 100
59 29 40 40 97
95 34 89 100 70
48 79 40 68 21
22 95 61 64 66
99 56 23 74 24
97 98 40 80 53
54 92 90 27 63
69 61 29 46 96
10 19 43 26 77
56 65 24 95 66
77 75 97 37 40
54 29 78 52 37
61 47 11 78 78
28 60 66 64 82
27 79 65 82 60
88 39 54 82 59
27 20 52 67 64
62 85 54 10 97
91 51 21 60 16
30 46 22 63 44
1.58266
2.29946
2.26546
1.53399
2.45901
2.11773
1.7402
1.77918
1.20096
1.31334
1.70772
2.36464
1.16621
2.04441
1.62136
1.52269
0.526277
1.76427
2.14097
2.06536
1.45177
1.29805
1.03548
1.43902
0.782979
1.03928
1.7565
0.835246
2.22078
0.601488
1.60678
0.708353
2.45145
0.773014
0.823206
1.14192
1.16552
2.04042
2.25177
1.00216
104 32
219 258
147 362
138 95
345 486
468 28
393 415
265 120
224 140
76 133
105 446
381 234
289 92
286 178
374 312
103 311
364 384
485 314
59 343
32 482
451 300
14 234
18 379
374 335
282 304
300 41
447 470
87 297
417 311
179 243
325 246
418 238
347 445
372 473
368 310
460 498
3 343
266 289
249 462
133 140
5590
2
