40
7
0 0 0 0 0 0 0
75 100 52 93 88 22 13
28 72 52 45 40 23 68
37 34 51 21 86 10 63
88 95 43 97 37 19 40
33 12 44 92 68 74 65
81 54 27 29 97 26 69
25 77 47 76 46 27 91
17 87 62 98 64 11 59
16 81 15 85 60 78 47
85 22 80 20 53 36 23
96 12 97 43 27 50 36
82 58 22 26 33 13 73
87 61 11 53 77 66 67
93 48 11 16 39 83 26
87 78 23 78 40 10 61
62 31 53 78 48 24 39
98 24 83 54 55 45 68
48 45 27 34 37 86 58
73 86 27 23 54 16 27
39 41 19 52 84 76 16
40 94 21 61 30 51 80
93 66 65 30 16 44 32
54 59 49 47 45 52 64
37 28 62 42 60 46 93
98 48 88 91 16 83 62
55 95 19 60 35 17 86
43 30 43 13 96 66 67
75 44 88 23 46 55 57
68 89 44 28 17 37 78
37 57 11 10 73 74 15
50 82 69 95 14 78 59
27 91 56 100 44 15 80
77 16 95 65 94 14 45
81 45 22 43 78 43 30
57 90 86 43 45 89 49
20 78 81 36 46 85 76
50 74 22 52 88 71 58
46 80 41 69 47 23 70
34 75 43 13 41 32 14
0.730661
0.484346
0.733403
0.350447
0.442298
0.996389
0.433381
0.904099
0.398816
0.276026
0.917484
0.846294
0.503818
0.574024
0.551766
0.52355
0.568129
0.831184
0.707067
0.508302
0.389334
0.858675
0.363434
0.862095
0.371218
0.931978
0.881462
0.378117
0.417118
0.676924
0.76057
0.990386
0.76345
0.673003
0.764168
0.419753
0.599247
0.538359
0.456217
0.632199
353 143
459 122
58 78
438 200
234 279
348 2
305 147
31 408
150 192
294 163
74 272
438 470
221 199
110 314
366 143
244 216
437 409
434 373
488 123
191 439
29 393
324 357
217 392
194 137
128 53
335 84
256 59
161 419
109 344
22 163
268 324
62 23
161 349
28 120
466 454
372 177
61 170
178 111
477 76
396 436
2070
5
