40
11
0 0 0 0 0 0 0 0 0 0 0
96 53 53 41 40 17 94 85 53 67 70
22 79 68 88 93 74 73 51 28 61 85
45 17 44 46 91 86 90 24 45 78 46
46 50 75 37 73 31 49 66 59 14 30
74 55 10 60 20 84 90 25 10 42 55
59 37 64 93 35 48 47 68 90 23 98
55 30 29 29 99 61 77 48 59 47 31
44 91 66 95 30 21 59 60 31 36 70
28 50 66 95 89 39 96 10 75 44 75
38 38 20 76 43 17 21 59 62 60 80
65 33 94 81 54 79 70 34 27 71 85
30 46 32 84 90 38 54 93 49 73 40
78 10 44 13 14 37 94 73 98 27 67
26 84 17 19 16 81 14 20 55 27 35
47 64 77 82 75 59 63 41 60 12 64
59 63 97 86 83 36 57 41 49 54 63
47 34 92 52 17 91 20 68 37 86 19
71 89 98 41 70 77 43 27 18 42 51
25 93 73 72 78 76 35 99 55 84 26
91 37 10 64 91 25 63 74 38 85 18
87 54 38 99 94 54 17 23 77 34 12
68 96 91 29 41 55 77 86 35 89 68
39 40 52 89 18 30 42 89 93 39 35
27 52 24 85 99 38 70 50 28 93 29
43 41 90 14 48 79 59 75 75 90 72
38 70 10 28 100 70 44 88 36 20 55
57 61 94 53 10 71 37 90 36 68 12
72 10 12 45 31 29 83 19 73 89 70
52 84 49 88 50 93 28 30 51 60 48
61 68 57 83 24 47 66 38 20 65 53
77 91 100 18 77 67 38 84 18 41 55
20 46 38 79 45 47 97 65 89 74 89
69 22 10 82 68 26 79 57 95 98 20
97 47 35 29 39 91 97 76 49 35 87
97 14 26 93 65 87 80 34 95 61 70
29 94 37 64 13 76 84 67 87 37 30
86 27 83 92 39 21 52 38 36 10 51
82 10 13 95 20 19 83 21 57 96 39
48 62 59 84 62 29 72 78 31 34 61
1.1863
0.996349
1.3837
1.89147
1.52781
0.453657
0.410357
0.712465
0.428396
1.44512
1.90892
1.34214
1.47998
1.64457
0.751594
1.09478
1.19993
0.741462
1.3453
0.721183
1.70499
0.413288
1.58295
1.34427
1.61379
0.794507
0.629637
1.0056
1.95662
1.43608
1.01719
1.44962
1.71128
1.50182
0.489915
0.647469
1.85615
1.36308
1.99497
1.77614
32 217
359 487
267 345
11 434
458 234
231 3
178 332
478 312
362 128
227 119
469 410
146 456
8 266
15 307
6 123
343 11
354 334
229 32
399 492
375 410
431 308
104 487
195 238
180 286
237 81
48 263
356 374
267 175
285 461
280 417
320 370
322 222
246 59
153 361
383 138
245 467
293 423
326 262
268 213
349 445
2718.75
4
