40
7
0 0 0 0 0 0 0
13 34 89 72 31 81 81
20 94 90 71 51 91 47
22 55 73 85 71 32 13
22 14 23 32 78 47 62
18 31 78 44 29 15 14
17 38 50 51 92 15 76
72 40 22 52 72 66 75
22 99 100 34 32 80 97
32 59 41 90 97 57 36
73 33 22 36 34 76 39
96 16 22 82 64 39 49
10 44 40 71 98 48 99
35 62 77 68 31 87 42
74 28 31 85 97 69 79
97 64 48 84 33 92 91
19 25 90 45 58 11 62
47 64 63 45 85 12 59
100 60 51 66 83 80 52
52 77 98 66 92 37 27
28 13 66 51 71 38 27
16 34 35 11 85 12 51
18 13 38 66 28 15 16
39 28 72 38 93 96 14
45 23 98 52 20 60 48
87 56 98 19 52 26 76
40 61 29 82 69 16 51
24 89 30 45 20 94 34
49 63 70 11 59 79 90
44 65 54 93 81 90 50
23 46 23 87 23 27 42
79 90 91 51 94 70 55
16 11 71 38 39 44 58
16 73 63 35 80 31 21
14 96 71 22 89 30 94
48 46 68 82 19 18 42
91 57 87 76 25 66 43
96 15 18 11 64 31 95
92 60 43 28 80 72 12
18 46 21 17 30 97 45
0.799301
0.760056
0.644721
1.0002
1.32127
1.35957
1.43941
0.302851
0.819862
0.427092
1.39879
0.704473
0.491546
1.0689
1.38403
0.524626
0.918165
1.16609
0.800973
0.844509
0.494466
0.304189
0.602869
1.49451
1.0321
0.777315
1.13544
0.32252
1.48483
0.361786
1.08262
0.300172
0.308774
0.526253
1.33447
0.506945
1.06884
1.10174
0.898948
0.352185
499 387
291 368
259 44
438 22
81 134
481 37
65 116
129 463
474 72
45 42
454 234
305 259
226 361
381 482
304 35
277 320
442 63
3 402
284 154
37 248
425 152
265 169
412 478
359 261
164 391
444 164
224 91
218 391
237 261
448 163
178 19
106 475
145 378
401 185
257 127
279 40
470 137
465 256
191 218
499 435
5160
2
