40
7
0 0 0 0 0 0 0
29 64 78 57 21 71 66
68 44 65 54 85 70 73
45 10 20 100 89 89 91
28 40 89 29 69 90 46
100 98 32 83 61 99 71
15 86 56 92 94 74 76
79 87 69 82 52 12 16
51 32 64 99 75 43 43
85 43 18 40 24 10 54
87 46 53 25 48 100 86
68 80 51 70 23 39 99
65 24 63 39 21 11 98
67 75 84 57 17 10 27
53 36 20 70 60 100 86
90 14 89 35 44 89 49
75 67 63 99 57 67 48
11 57 38 40 28 91 82
38 45 21 57 67 14 22
41 96 54 15 74 58 42
63 21 62 21 56 37 38
40 76 61 94 30 81 39
58 90 62 38 15 16 94
20 95 19 24 91 21 27
52 67 48 99 80 40 56
28 55 96 14 82 16 17
100 23 67 11 76 51 98
31 11 93 26 12 65 55
31 80 68 36 56 64 56
39 64 53 75 95 37 34
91 65 92 30 65 81 95
94 82 86 69 30 21 33
25 96 53 46 97 26 39
30 87 13 23 42 86 34
37 79 23 42 38 80 25
68 29 12 59 67 100 84
40 91 63 91 82 60 22
61 59 74 98 56 45 19
86 62 40 23 27 11 69
69 65 66 13 73 15 11
1.47644
1.36442
0.687406
1.16979
0.419734
0.77769
0.884904
1.37717
0.739101
1.46943
0.755753
1.2952
0.827596
1.45495
0.357725
0.360633
1.29386
1.21169
0.44936
1.18022
0.81117
1.04544
1.30862
0.604271
0.893887
0.52381
1.15614
0.930027
1.49367
1.03175
0.464087
0.718821
0.633665
0.979415
1.13383
0.894862
1.45084
1.14201
1.10749
1.22603
296 339
483 371
363 238
195 419
276 405
172 34
227 441
480 79
156 299
255 267
428 296
183 272
87 441
337 328
209 455
230 436
165 485
434 464
89 430
488 331
485 215
473 93
331 344
470 282
446 393
336 289
22 156
81 66
6 419
28 404
85 171
396 98
484 280
304 470
298 67
486 138
161 166
79 149
463 438
102 335
2163
5
