40
5
0 0 0 0 0
49 68 97 36 82
99 89 80 79 29
32 79 50 43 11
64 39 71 60 95
51 63 12 55 71
32 17 44 16 22
32 79 33 21 47
90 50 88 90 75
90 40 67 83 53
61 94 14 91 63
92 44 74 76 22
54 54 86 44 50
92 27 75 26 10
21 62 67 39 67
91 23 25 29 57
98 13 50 86 41
68 65 94 87 58
82 29 85 15 61
47 42 63 46 80
42 19 98 28 29
25 62 67 80 76
13 26 80 30 94
36 67 88 32 86
70 16 73 27 95
67 62 66 89 17
24 10 82 88 35
93 17 91 29 47
65 93 42 94 13
75 50 22 73 70
99 83 25 35 76
87 28 24 41 11
68 71 63 70 51
69 54 63 99 96
90 14 22 48 80
16 53 46 75 10
11 67 12 76 93
56 63 45 34 96
58 80 94 38 40
96 76 99 65 92
0.117804
0.167865
0.256691
0.257951
0.290025
0.342171
0.420667
0.451161
0.454894
0.499845
0.429061
0.188874
0.180831
0.290167
0.362944
0.397735
0.449034
0.30008
0.259284
0.400384
0.386652
0.451762
0.383281
0.394517
0.431879
0.398499
0.450825
0.157456
0.332448
0.158636
0.463926
0.196043
0.152943
0.276658
0.488665
0.177972
0.464135
0.486137
0.473763
0.392298
115 174
395 354
18 19
437 270
487 215
450 81
263 136
17 327
490 205
306 59
171 447
331 360
107 140
210 73
215 343
243 352
461 82
189 400
465 240
341 355
227 18
236 406
182 449
350 126
161 290
500 463
63 30
469 389
368 238
25 91
295 49
254 266
379 272
110 122
74 58
441 345
371 76
327 355
78 242
63 437
2228
5
