40
3
0 0 0
91 22 41
50 97 14
78 78 38
41 61 13
72 55 40
63 15 100
61 44 68
82 75 80
83 12 77
59 42 27
55 30 50
84 89 40
61 92 98
50 45 99
19 60 89
16 45 16
39 26 21
56 28 66
86 13 59
92 41 41
93 74 29
66 80 24
66 58 78
22 23 16
81 94 41
40 81 37
91 88 11
97 24 85
42 63 52
63 30 69
37 23 66
89 71 31
12 43 86
86 58 94
11 81 71
97 91 72
14 13 44
61 45 33
58 95 55
0.683264
0.344933
0.208411
0.933211
0.364872
0.465614
0.966388
0.828989
0.705437
0.666529
0.982298
0.895266
0.43641
0.611089
0.611899
0.611389
0.696948
0.605954
0.408879
0.500589
0.217505
0.275539
0.351458
0.220498
0.43066
0.491892
0.581561
0.562015
0.247828
0.286321
0.750456
0.236031
0.587324
0.683119
0.821464
0.90395
0.293332
0.224474
0.872331
0.647391
64 143
369 197
428 219
43 175
346 262
476 230
175 333
394 104
317 167
451 436
475 227
363 451
352 315
269 85
300 73
34 34
444 250
14 233
280 188
409 223
12 272
20 467
387 312
25 282
202 443
207 89
133 295
401 208
469 130
276 445
72 281
180 211
303 365
10 251
495 373
185 466
500 456
436 87
236 16
16 183
10900
1
