40
11
0 0 0 0 0 0 0 0 0 0 0
46 91 79 97 37 23 52 81 85 88 53
84 75 42 95 43 58 91 31 62 33 35
99 19 99 35 51 97 57 33 77 24 37
97 37 41 25 90 63 93 67 96 74 50
67 84 17 23 40 42 96 86 93 56 21
11 50 53 91 60 93 58 26 62 78 25
25 65 91 92 92 79 84 71 30 56 55
71 23 62 63 20 93 24 40 40 33 77
52 17 59 30 60 42 39 22 73 56 46
41 100 23 17 98 55 43 90 56 22 41
34 83 90 76 89 81 47 96 74 17 39
35 37 68 47 67 45 71 23 31 35 69
36 99 50 85 50 58 47 87 25 69 43
41 87 95 26 14 61 78 28 80 22 10
66 33 35 91 10 68 86 79 63 81 58
59 50 28 85 47 29 32 81 31 23 54
91 47 76 63 15 75 61 67 31 59 91
74 73 50 79 12 35 32 40 73 85 24
15 84 44 15 27 40 33 92 98 88 95
30 16 83 89 82 79 54 44 67 20 37
42 56 78 27 80 35 60 26 86 16 48
34 16 74 56 95 100 15 20 11 66 88
96 93 25 68 43 18 78 83 45 59 84
28 51 44 73 65 14 28 19 18 93 43
74 93 62 90 31 95 58 86 18 31 58
38 94 59 38 93 96 71 39 26 44 44
23 69 14 29 100 78 26 35 49 67 72
85 40 27 98 43 95 87 73 59 84 88
65 76 18 40 52 18 76 13 52 32 77
46 20 69 39 67 85 84 18 52 47 89
67 74 11 85 36 52 68 36 50 60 69
34 34 17 19 49 65 62 96 38 39 43
27 31 25 41 11 32 32 82 53 85 79
13 17 26 76 13 29 66 90 81 29 72
62 38 37 92 70 76 77 89 61 10 69
99 84 62 18 23 15 16 50 85 80 83
85 60 19 48 23 31 73 74 71 16 14
47 15 65 75 95 72 87 14 58 85 34
73 55 11 94 48 44 91 16 86 28 36
1.42487
0.944536
1.20574
0.37628
0.478405
0.640086
0.856018
0.424127
0.502148
1.43313
1.42101
1.13205
1.38357
1.27615
1.24084
0.373381
1.43492
1.0642
1.32386
1.09488
0.969127
0.595276
0.872163
1.35434
1.49746
0.363597
1.25794
1.02195
1.45086
0.925693
0.342022
1.17706
1.32407
0.966248
0.940433
1.36986
1.27504
0.52234
0.468016
0.721107
285 295
108 71
288 418
432 499
418 0
197 362
54 134
37 237
166 99
340 234
317 202
118 40
406 328
204 67
97 199
304 205
109 304
482 300
432 261
179 497
426 5
324 122
461 2
272 437
292 362
288 354
459 312
64 182
222 137
415 480
157 208
440 470
297 300
246 64
190 482
42 157
29 241
52 322
202 423
382 137
2156
5
