40
5
0 0 0 0 0
40 41 21 53 77
67 14 64 55 69
98 27 64 98 75
12 15 55 18 78
97 57 35 41 10
40 19 44 62 74
32 64 64 41 15
26 56 30 53 58
70 99 100 22 44
23 72 61 49 50
56 10 12 64 71
40 38 75 38 47
86 27 46 53 28
87 87 34 41 72
14 44 73 86 87
93 44 67 13 85
35 18 92 32 68
37 53 37 43 63
34 47 73 14 56
87 89 47 16 29
13 37 64 71 18
92 68 22 51 72
59 32 34 94 30
60 97 97 50 95
74 22 89 58 73
23 19 38 14 65
90 36 82 40 50
28 48 16 69 25
85 22 19 20 85
47 45 40 44 41
77 17 52 16 85
35 85 76 30 52
38 59 47 35 41
17 45 63 29 21
34 92 73 48 67
58 90 17 40 68
74 57 43 17 59
92 95 85 46 55
71 25 13 38 35
0.670332
0.855613
0.679958
0.700857
0.959949
0.718617
0.712613
0.673014
0.251206
0.790382
0.966818
0.515437
0.889915
0.37304
0.481364
0.231266
0.384409
0.411398
0.269097
0.91078
0.674712
0.678237
0.944568
0.409091
0.862148
0.833482
0.942863
0.59305
0.394804
0.757505
0.292449
0.770331
0.692992
0.592464
0.531712
0.534031
0.281718
0.998852
0.99734
0.2913
310 497
429 188
330 71
408 399
390 87
386 109
439 250
117 221
414 210
359 42
316 337
88 276
405 366
457 16
285 49
52 179
427 382
344 45
432 89
363 23
415 284
474 274
188 226
351 133
77 213
90 460
56 308
217 42
372 426
159 474
490 403
379 27
480 467
424 378
280 257
23 395
433 376
208 457
157 256
262 417
2002
5
