40
9
0 0 0 0 0 0 0 0 0
71 11 41 63 93 22 68 43 56
75 20 68 45 29 71 50 51 27
17 51 72 63 92 18 44 59 64
66 91 65 11 62 53 26 78 76
20 49 27 58 85 88 25 29 54
30 18 27 75 63 50 65 21 23
41 62 39 27 74 94 34 91 100
39 98 39 95 27 66 24 15 76
16 33 24 49 19 26 44 45 22
15 17 27 86 30 19 91 23 35
68 55 89 79 24 46 71 61 34
44 64 92 17 35 33 64 38 74
98 45 22 14 31 94 31 15 60
15 86 58 74 43 12 84 99 55
53 60 20 97 70 66 60 82 55
95 42 49 10 27 31 90 92 48
19 67 31 14 46 63 18 93 20
98 83 37 79 33 48 94 56 26
57 51 83 36 49 40 31 33 42
44 63 95 64 100 88 10 35 53
34 58 29 70 86 46 69 74 97
48 61 42 43 67 78 35 26 12
27 29 58 20 72 12 26 35 28
20 76 85 60 39 70 39 54 93
51 17 32 47 16 16 28 58 69
77 55 51 87 67 68 29 14 79
77 26 75 28 65 52 52 11 85
77 84 20 48 99 41 21 18 64
45 41 78 100 34 82 36 17 69
60 88 82 76 34 67 67 30 28
92 31 40 56 77 23 41 83 40
70 92 30 47 12 55 60 52 93
86 44 27 100 81 84 43 54 18
41 44 35 52 25 68 24 54 61
53 80 100 62 43 33 50 87 27
79 36 71 17 17 10 93 76 23
80 44 48 83 83 88 34 72 64
11 70 27 17 43 24 67 91 87
20 52 21 10 54 45 65 78 57
0.728472
1.19669
0.558369
1.57207
1.20664
0.628743
1.01989
1.82879
1.9776
1.54102
1.63514
1.29118
1.4823
0.628036
1.07249
1.9762
1.48404
0.461729
0.874417
1.92222
0.491824
1.20732
1.39053
1.30776
1.2997
0.616916
0.971609
1.1794
0.7662
1.23391
0.504002
1.52588
1.88151
0.687053
0.653927
1.74168
1.11734
1.39134
1.10951
0.738672
209 254
288 379
155 246
259 467
54 84
409 100
202 8
362 126
54 137
128 378
161 333
17 352
368 333
329 411
469 342
20 412
6 323
499 461
154 318
88 250
91 171
322 111
343 362
18 184
364 365
19 278
316 365
343 214
209 382
451 48
442 122
352 379
375 470
386 477
383 109
25 128
499 36
138 115
430 21
436 425
2532.5
4
