40
7
0 0 0 0 0 0 0
75 26 39 16 16 95 70
46 86 30 53 42 18 27
81 90 23 37 82 76 83
90 66 36 65 29 13 45
22 19 67 100 76 31 62
35 91 54 19 61 36 88
63 45 67 96 77 83 58
76 14 46 64 25 72 17
66 36 37 66 51 24 73
77 19 59 42 77 95 17
88 72 98 34 69 49 27
59 35 94 70 71 26 13
56 89 87 40 91 91 72
74 47 27 88 68 90 79
28 52 76 97 87 69 21
19 33 77 85 67 65 91
94 56 44 16 32 44 58
36 37 66 84 31 94 64
57 23 78 54 42 16 87
31 77 48 57 89 90 67
37 31 50 84 23 97 47
40 45 52 29 94 100 26
10 38 93 24 46 30 67
29 77 13 53 76 98 56
30 61 51 100 20 63 42
25 45 64 100 10 42 95
55 92 14 70 96 50 49
68 67 98 10 32 51 28
57 43 98 17 55 27 29
79 46 73 17 100 90 92
26 97 86 65 13 46 86
96 77 79 82 24 76 79
77 92 84 38 50 51 65
54 64 18 38 96 44 38
99 43 14 49 33 94 68
36 71 91 59 73 44 55
23 17 71 24 65 33 19
22 35 26 54 45 81 61
37 93 32 75 76 75 89
0.294278
0.346235
0.521947
0.982793
0.44207
0.241814
0.261107
0.638597
0.396841
0.472849
0.613892
0.457161
0.649497
0.645146
0.590838
0.569749
0.414831
0.488796
0.851566
0.282694
0.591459
0.791211
0.553536
0.427572
0.435119
0.428461
0.400727
0.300632
0.978338
0.92778
0.397427
0.554147
0.608663
0.872475
0.388395
0.599788
0.587295
0.618469
0.367497
0.932861
29 409
312 194
372 225
25 452
424 100
487 260
233 269
93 185
124 109
441 62
210 145
410 296
251 56
379 55
138 189
492 175
84 80
2 363
409 298
63 55
85 361
141 395
321 448
102 310
204 85
38 40
240 485
8 131
288 101
236 3
261 74
121 38
25 316
465 305
86 310
295 492
271 196
316 54
468 225
264 474
5512.5
2
