40
7
0 0 0 0 0 0 0
87 99 40 90 21 43 16
98 20 71 38 25 67 53
85 61 12 25 57 69 24
21 39 51 74 40 47 60
89 99 51 47 68 35 86
10 73 87 71 66 79 76
96 42 80 11 66 59 50
85 100 83 16 90 90 48
90 31 41 40 98 14 18
80 18 79 46 26 96 53
100 43 35 73 65 32 83
52 50 48 16 16 43 54
72 71 98 37 34 98 10
20 46 92 94 70 56 32
100 17 11 98 13 48 89
100 55 53 12 84 54 93
87 46 91 63 53 36 22
46 61 64 58 97 68 92
71 46 97 99 78 26 96
41 49 21 22 42 56 95
63 19 81 35 89 67 90
30 70 36 45 92 45 42
79 17 70 41 39 89 77
85 26 37 52 62 33 47
53 100 72 20 50 53 69
91 76 75 34 61 17 60
17 49 35 18 42 72 43
71 31 90 63 82 45 62
45 24 96 48 44 76 77
81 100 72 60 56 24 98
44 17 83 70 40 88 64
59 22 59 19 65 47 32
87 69 15 67 17 13 27
19 23 55 74 88 99 81
51 66 38 45 66 29 71
70 72 21 19 14 87 40
66 84 92 24 51 33 13
73 13 60 90 13 71 60
64 18 33 53 60 49 89
1.03006
1.01048
1.1335
1.61822
1.45549
0.825147
1.06265
1.46964
0.754354
0.422235
0.535525
1.34692
1.92095
0.547389
1.97687
1.45857
0.55773
1.99966
1.6698
1.8886
0.47528
0.663873
0.666238
1.83951
1.38233
0.478704
1.87561
0.575581
0.933094
1.08498
1.75926
0.5211
0.429786
1.06523
1.41253
0.902081
1.82869
1.07842
1.77433
0.712906
428 125
460 417
232 388
195 263
201 369
319 403
347 217
154 286
9 369
64 300
21 53
477 36
204 56
152 14
241 296
327 250
398 242
459 58
26 374
305 395
4 96
27 390
160 232
295 224
79 299
245 387
275 151
304 466
39 270
255 301
103 97
304 433
474 187
52 445
237 99
401 128
103 442
5 229
445 74
465 358
2741.25
4
