40
9
0 0 0 0 0 0 0 0 0
26 55 16 19 85 71 76 90 29
71 10 40 36 38 54 25 70 91
44 79 53 28 32 62 27 79 18
11 26 59 61 65 98 28 42 26
43 79 89 42 21 20 66 53 75
97 29 76 41 44 95 60 95 90
86 28 37 46 59 85 89 11 88
37 55 23 50 35 39 27 70 77
91 70 81 53 56 47 24 29 44
47 54 57 29 95 97 100 17 59
94 82 95 98 45 24 10 14 36
29 78 68 92 98 80 69 29 50
58 28 70 70 54 65 56 99 22
65 64 74 38 50 27 11 64 84
12 97 86 41 93 16 86 80 27
88 81 41 80 98 92 32 18 51
40 39 61 90 53 44 21 76 87
44 38 60 27 99 96 52 53 96
94 50 39 58 59 79 86 89 85
98 84 37 17 34 84 20 71 52
36 52 43 11 92 79 18 42 12
90 72 80 19 10 52 28 65 44
65 49 31 13 84 18 60 75 58
91 77 54 76 56 78 87 62 62
27 80 40 45 15 28 25 83 55
40 93 97 24 25 16 34 81 59
47 26 99 62 35 49 18 97 87
91 74 61 33 21 14 28 78 41
58 100 58 89 65 14 38 39 88
59 68 64 10 61 16 40 79 76
66 87 61 20 77 56 14 73 86
96 52 15 27 89 89 18 20 83
45 74 80 30 51 74 61 31 42
85 15 38 65 60 77 60 13 74
75 75 39 89 43 27 83 56 27
54 98 18 43 93 37 62 42 71
51 47 95 80 43 16 59 87 26
12 49 78 18 99 22 78 52 73
73 89 46 98 80 23 82 55 98
0.574549
0.581736
0.606553
0.584328
0.989335
0.577557
1.22719
1.29255
0.925053
1.11116
1.14646
1.27741
0.590331
1.01601
1.43497
1.30895
0.808503
0.753773
1.2926
1.46426
1.15283
1.0839
1.09877
0.875929
0.486159
1.39811
1.43786
0.896
0.761483
1.33044
0.352402
0.876713
0.313997
0.851543
1.41866
1.05905
1.11916
1.45316
0.387863
0.629673
113 242
464 94
386 25
204 407
19 466
38 240
480 184
362 500
485 120
371 76
137 283
100 205
342 367
463 365
492 18
421 298
83 336
170 5
16 273
368 410
93 254
320 26
262 263
172 417
277 379
395 355
224 58
497 460
116 181
284 390
110 134
214 460
344 258
442 328
160 489
464 71
54 401
126 106
307 353
61 64
5477.5
2
