40
11
0 0 0 0 0 0 0 0 0 0 0
18 92 35 64 86 49 68 26 93 91 48
53 20 15 32 78 99 71 67 46 33 80
47 93 62 37 98 16 91 14 42 77 55
96 46 56 99 45 82 19 19 32 56 97
83 70 56 95 47 92 39 37 40 15 96
73 29 11 21 88 49 89 22 10 15 40
85 40 76 60 17 64 64 37 33 50 62
53 74 37 17 66 98 75 58 18 90 27
67 86 49 67 69 18 76 48 93 41 83
83 88 23 53 22 83 86 16 16 18 61
22 29 89 72 33 37 52 24 78 57 87
27 98 86 34 81 66 46 45 61 43 10
72 27 76 14 68 38 40 78 48 51 87
37 95 90 77 69 16 100 35 82 55 49
76 85 28 72 35 54 42 66 55 47 33
67 85 66 56 99 29 23 65 26 81 42
40 45 85 84 39 46 43 21 10 56 64
76 21 80 17 96 15 10 62 59 59 11
95 64 94 20 60 23 37 98 35 41 59
90 68 62 100 91 78 51 73 95 89 21
46 83 58 41 74 90 98 71 53 10 31
43 56 62 27 47 77 10 54 39 56 13
77 55 18 22 32 13 59 89 38 66 80
29 78 67 55 51 90 57 22 97 98 61
29 77 90 38 83 42 34 43 10 74 45
47 52 34 61 12 67 18 50 59 51 24
51 63 26 61 19 18 20 33 75 49 46
45 62 16 36 27 39 35 48 47 68 86
76 47 59 30 65 65 74 55 61 15 100
72 80 76 78 42 16 59 25 43 21 97
64 20 23 86 51 66 53 90 80 45 45
76 45 28 48 70 82 65 19 65 24 10
34 79 28 64 34 74 58 62 14 20 25
19 77 13 26 13 68 11 21 72 54 16
29 28 15 67 51 49 86 95 95 27 35
72 58 19 41 47 75 30 59 71 39 21
45 75 64 94 65 90 60 35 88 39 41
34 37 62 42 64 36 22 73 85 55 34
22 51 31 34 98 77 51 16 24 90 63
0.840414
0.87553
0.429528
0.793556
0.623834
0.628941
0.442165
0.968263
0.576943
0.310119
0.740667
0.927861
0.587383
0.211822
0.392102
0.690683
0.68724
0.416971
0.915225
0.789351
0.379655
0.672059
0.758682
0.675184
0.254771
0.944253
0.589005
0.947212
0.721653
0.399149
0.661404
0.227293
0.786898
0.637483
0.709444
0.469389
0.466113
0.603033
0.845211
0.205821
169 203
97 39
399 17
313 180
250 272
393 221
309 332
183 393
411 260
15 155
44 86
471 283
82 116
256 88
286 76
60 140
54 25
287 342
24 495
23 147
34 275
52 429
418 349
382 47
43 430
192 218
405 293
422 213
0 498
119 249
198 48
348 320
385 149
199 81
301 176
414 302
190 471
486 169
256 357
93 356
2082
5
