40
5
0 0 0 0 0
99 51 100 38 58
97 26 15 61 74
77 25 35 40 31
80 10 36 50 64
28 44 88 78 69
16 99 34 85 58
79 19 25 24 93
32 25 57 33 39
26 40 60 56 41
46 98 12 36 86
97 85 71 41 75
49 90 47 72 90
26 93 16 95 51
15 79 10 63 45
11 44 28 89 59
82 22 28 45 98
33 98 66 82 98
46 15 59 47 28
83 100 98 76 76
49 87 31 80 92
94 36 97 77 64
15 28 52 41 50
10 82 32 58 78
28 38 91 96 65
44 96 86 70 84
51 58 54 27 67
65 25 71 45 14
90 58 46 78 63
70 89 90 71 24
31 98 60 78 72
67 48 89 37 75
76 89 10 88 49
54 75 90 15 13
40 20 27 18 61
47 78 35 69 37
83 97 48 73 29
59 11 39 50 87
46 82 96 75 42
89 65 96 40 42
0.368477
0.988851
0.570909
0.673242
0.396683
0.730869
0.420707
0.843253
0.687095
0.654311
0.656218
0.627765
0.319466
0.958834
0.442356
0.356394
0.975817
0.525675
0.317802
0.534192
0.83381
0.687166
0.336074
0.924891
0.36925
0.922624
0.255994
0.799976
0.752627
0.472164
0.758405
0.525241
0.289273
0.590769
0.689054
0.932218
0.526337
0.799351
0.909249
0.295404
284 402
145 36
227 18
354 81
194 235
81 444
457 493
199 90
377 220
12 56
224 91
26 417
441 252
284 299
101 193
144 124
404 11
120 355
370 27
193 152
472 435
372 341
403 164
364 57
444 200
445 396
359 430
245 63
295 80
97 69
327 479
108 321
269 483
230 294
367 393
464 118
233 4
458 246
284 247
235 271
2803.75
4
