40
9
0 0 0 0 0 0 0 0 0
18 89 17 67 56 98 38 62 95
100 23 16 65 73 24 23 46 94
51 100 30 44 66 65 53 99 38
53 42 100 84 50 54 19 22 29
15 49 52 53 57 54 87 67 57
46 88 36 77 18 96 67 29 90
90 47 25 88 16 32 86 43 66
51 43 28 33 24 60 88 45 79
99 74 88 23 64 59 30 71 62
45 99 86 82 64 43 95 76 100
17 41 37 100 39 53 49 77 52
11 17 22 53 54 95 64 65 51
72 48 16 47 75 19 78 23 79
93 98 47 54 44 76 76 73 17
84 14 25 58 99 94 40 80 91
32 57 84 61 40 50 26 22 33
77 90 26 81 92 89 54 13 62
20 57 90 28 87 22 46 99 88
13 39 59 74 79 36 90 23 65
70 80 36 21 40 91 28 96 52
27 85 53 64 49 85 87 95 95
10 82 27 92 47 64 39 40 27
63 100 37 74 14 70 12 33 26
27 50 68 31 40 15 100 74 66
19 96 34 13 13 74 58 29 22
58 92 95 76 51 64 91 26 10
41 29 99 74 44 83 94 15 15
78 46 78 19 10 53 40 94 22
65 79 43 71 31 67 24 88 54
78 46 39 14 89 32 100 100 15
52 31 29 26 39 95 63 41 71
75 47 10 57 54 87 43 50 68
64 62 80 56 25 18 80 36 16
58 93 86 93 16 58 77 45 15
48 49 40 17 94 68 36 94 31
71 53 36 71 65 63 58 76 76
42 24 67 47 59 58 20 100 10
41 86 45 16 29 67 16 64 73
95 69 40 32 62 31 26 30 17
0.856494
0.77365
0.742763
0.437975
0.412955
0.557462
0.607949
1.20575
0.865663
1.47112
0.758461
1.45899
0.618296
1.43901
1.03392
0.423103
0.933769
1.21257
0.927675
1.0017
1.07302
0.81825
0.576124
1.0227
1.48471
0.502097
1.35546
0.497676
1.2084
0.357057
0.492857
1.0315
0.63314
1.22646
0.575326
1.03575
0.883265
1.10654
0.672203
1.31419
76 237
220 237
205 9
131 98
436 23
186 231
274 169
369 428
160 58
26 296
171 258
103 238
370 388
411 420
49 182
424 87
467 122
241 432
187 58
469 108
238 260
322 126
58 86
38 42
355 155
114 268
146 292
425 248
140 5
311 209
455 126
461 486
385 483
15 444
495 278
431 411
93 186
140 388
500 235
132 218
10755
1
