40
3
0 0 0
94 17 86
15 34 63
75 51 72
25 69 83
53 12 48
100 32 85
38 68 14
77 75 38
100 62 38
24 70 35
79 58 98
44 82 75
94 50 73
77 53 24
44 22 53
16 61 71
27 57 34
14 53 34
53 56 36
37 87 67
96 91 75
65 16 43
86 71 17
84 95 98
66 54 72
18 32 41
62 54 29
71 83 96
48 38 95
61 87 69
61 44 97
41 69 90
62 33 76
15 68 68
88 58 87
53 30 59
86 35 55
28 49 10
40 100 67
0.552749
1.22806
2.32779
0.900721
1.82626
1.50431
0.851282
2.26841
1.12945
1.27299
1.47124
2.11309
2.29132
0.623979
1.66557
1.65131
2.17266
1.96507
1.9698
0.922056
1.68698
1.73828
1.82487
1.77342
0.913658
1.88713
0.562078
0.701405
2.44112
1.54302
1.46915
0.895645
0.532717
1.48612
0.982869
0.575865
2.17397
1.59072
1.50787
1.34706
34 33
134 277
231 355
22 410
342 74
500 148
169 156
226 295
19 406
298 325
169 347
59 232
296 15
451 170
71 198
146 359
445 305
192 372
396 158
58 487
338 123
369 336
349 292
42 22
113 479
115 389
329 243
90 183
424 475
381 287
223 143
130 139
116 67
234 132
352 104
418 444
35 371
230 245
59 33
422 493
3756.67
3
