40
7
0 0 0 0 0 0 0
26 19 76 73 84 58 99
67 28 26 35 61 55 11
59 85 86 41 95 75 55
60 62 92 84 22 68 22
47 78 83 90 27 26 76
75 95 56 82 81 89 32
29 24 53 44 52 71 62
64 63 13 95 49 64 99
99 41 97 77 22 18 63
39 32 40 53 63 74 20
90 74 75 93 45 74 21
25 93 87 95 90 74 45
12 72 100 53 65 17 36
97 93 53 13 91 80 49
18 37 89 71 49 10 13
67 78 26 91 69 47 45
56 61 74 11 16 31 84
83 94 39 69 27 32 54
88 71 58 47 13 71 85
55 100 27 28 28 97 63
33 32 71 92 96 47 96
53 72 45 59 83 47 71
64 63 43 44 92 74 69
93 23 20 40 73 42 47
37 74 25 19 92 90 16
45 87 90 97 53 92 12
68 49 30 94 24 36 83
83 44 86 58 36 87 38
23 93 72 91 93 49 67
50 18 17 60 78 95 81
38 92 16 19 16 82 92
59 35 57 49 81 29 46
98 17 79 50 25 24 45
73 68 25 96 37 35 60
28 28 79 23 37 12 100
42 83 87 77 35 68 70
84 42 95 44 25 81 89
18 24 74 50 34 97 61
85 39 87 90 56 62 85
1.1605
1.88847
0.510086
1.09894
2.42424
1.86155
1.1528
1.25209
1.47907
1.45035
2.08757
1.14802
1.26795
1.14717
1.98215
1.82134
0.74872
1.42706
0.890097
1.39486
1.23497
1.62473
1.91296
2.19597
2.26754
1.37996
2.27889
0.522939
1.43286
1.39912
0.501559
2.43403
0.504751
2.1003
1.81496
1.94221
2.49252
2.45855
0.907093
2.24125
200 248
3 474
3 35
35 239
139 253
288 181
260 263
251 148
129 295
189 378
333 118
210 306
331 318
114 301
106 273
121 46
397 23
365 373
348 462
182 265
495 315
242 106
52 403
130 338
284 361
99 107
158 2
226 216
372 414
198 183
241 330
91 302
481 355
68 496
367 355
462 408
270 470
389 398
174 28
409 474
2273
5
