40
3
0 0 0
32 62 55
50 68 84
56 69 28
56 29 65
29 36 49
10 88 13
71 45 88
46 93 13
69 29 47
29 54 60
69 56 62
30 87 81
29 33 91
80 76 100
52 70 94
24 24 33
85 11 39
87 20 72
85 87 60
85 88 25
58 67 58
86 13 72
68 34 91
62 48 46
69 76 84
99 94 76
71 68 25
21 25 80
99 12 94
47 69 48
94 82 39
57 71 95
73 68 93
76 40 54
62 37 55
100 57 76
97 95 58
53 44 30
42 56 77
1.38578
1.17399
1.4724
1.2476
0.305118
1.07111
0.764081
0.824789
1.45698
1.1369
1.42561
1.33508
1.0027
0.838257
0.828773
1.25804
1.44662
1.38185
0.912516
1.04952
1.47677
0.922711
0.906526
0.537202
0.661824
0.853379
1.2598
1.2634
1.24209
0.557145
0.673369
0.531975
0.617718
1.15592
0.988744
0.716806
1.20937
0.914829
0.945695
1.1925
244 319
152 472
407 143
54 192
146 325
95 478
66 450
250 174
404 118
118 480
81 55
357 461
80 351
210 44
422 405
271 35
494 38
45 83
4 57
124 241
272 377
234 321
450 177
192 439
434 167
59 275
171 85
415 482
499 310
334 434
372 57
280 116
486 183
33 173
315 64
381 441
315 123
430 469
77 259
216 117
2916.25
4
