40
9
0 0 0 0 0 0 0 0 0
94 17 34 13 34 50 63 76 69
39 15 55 21 75 26 61 24 30
80 50 21 91 12 91 16 15 59
32 37 66 76 11 78 64 66 98
24 68 75 19 15 55 41 100 15
82 67 96 26 71 36 81 20 65
40 27 46 69 69 86 44 61 54
16 12 20 32 68 55 87 79 98
55 93 18 72 47 90 92 30 12
43 54 10 48 88 82 87 52 69
61 17 51 41 34 40 18 25 58
61 81 51 21 49 72 70 86 40
48 89 49 100 95 64 20 92 41
18 72 65 23 15 71 62 17 13
84 19 49 76 57 92 79 12 30
73 68 49 72 83 16 75 58 54
52 74 10 47 80 77 65 98 60
99 54 76 64 82 31 81 18 60
90 71 55 14 70 98 46 24 10
31 23 75 36 58 57 33 44 51
77 74 84 55 28 15 95 74 80
31 37 31 40 24 61 77 45 87
60 98 63 59 27 36 53 28 80
84 99 47 23 90 83 45 62 46
70 33 94 41 77 59 79 73 42
57 77 93 84 62 75 77 95 24
75 98 52 39 26 33 42 17 82
100 79 70 41 80 52 88 40 68
36 11 70 52 96 27 87 91 36
46 90 68 66 95 51 50 19 30
12 42 62 52 87 57 10 77 42
53 15 61 48 98 82 82 55 84
72 56 20 35 56 29 49 20 76
58 46 42 74 72 69 28 45 98
91 84 82 14 65 74 35 45 36
51 56 97 85 99 80 57 39 87
17 76 15 72 41 67 74 46 61
71 15 94 79 31 24 87 42 41
88 25 94 68 52 37 21 99 71
0.341039
0.96989
0.58151
0.68117
0.693193
0.717366
0.752028
0.97712
0.974373
0.789819
0.249891
0.320388
0.861893
0.933983
0.919653
0.777556
0.29351
0.809462
0.524173
0.51794
0.955247
0.201216
0.333819
0.713619
0.911732
0.290985
0.225097
0.552732
0.210124
0.827702
0.220632
0.573376
0.455425
0.496124
0.939106
0.543618
0.4923
0.295195
0.815788
0.635166
306 34
468 142
6 376
114 22
380 265
404 394
96 52
1 170
276 377
463 476
395 326
167 208
100 450
434 494
402 91
382 411
266 217
482 417
361 315
267 60
294 73
130 200
228 342
79 462
213 284
231 339
84 361
196 420
185 444
486 441
203 249
9 464
199 482
49 487
228 245
24 35
369 133
241 325
321 51
483 5
5462.5
2
