40
7
0 0 0 0 0 0 0
41 28 57 37 91 41 66
87 32 60 26 14 35 48
52 17 84 29 42 24 64
20 19 10 31 61 73 49
95 55 87 13 70 33 18
58 24 14 46 60 68 11
50 90 80 42 25 39 69
25 55 69 45 12 36 46
17 67 83 65 47 56 26
49 31 36 50 13 58 15
22 40 91 34 38 96 61
42 67 36 64 20 64 16
64 21 76 56 61 27 73
16 81 26 93 69 53 42
34 84 12 13 10 46 45
43 19 82 86 61 60 53
50 34 29 11 26 52 57
82 42 20 71 91 41 58
46 93 93 29 96 91 36
62 42 53 63 96 82 47
16 88 46 60 60 85 58
74 19 60 56 39 27 54
93 55 24 98 61 23 56
10 26 53 84 48 82 29
64 81 95 97 17 50 58
20 12 67 58 25 49 76
50 98 57 91 25 12 82
55 18 91 80 96 86 48
40 85 20 47 49 32 46
51 85 92 79 65 37 49
38 47 73 61 14 54 78
81 44 45 11 82 18 83
91 80 52 93 70 97 17
54 75 44 82 100 63 32
59 13 16 85 31 37 61
56 83 50 52 86 70 71
65 69 94 76 17 11 81
10 22 86 81 71 48 81
99 31 17 24 65 76 78
0.563154
1.28371
1.26574
0.703107
1.92703
1.30639
2.41012
1.54367
2.07744
1.98302
1.09707
2.19907
1.1659
0.653325
1.48952
1.44294
1.75627
1.49168
0.852477
2.43604
1.18821
1.05609
1.33125
1.91859
1.22592
1.48162
0.900164
1.72211
0.517729
1.26134
1.10147
0.576992
1.77179
0.864054
1.34078
1.94385
2.04246
2.16302
1.35612
1.41572
287 219
290 282
69 498
474 124
19 163
284 237
371 332
262 464
352 495
12 25
106 378
195 459
398 72
107 413
100 399
343 225
203 347
51 56
452 38
6 326
97 128
224 303
480 333
274 271
117 500
65 479
5 143
70 387
407 372
208 430
499 85
172 301
105 282
299 470
442 398
170 217
298 268
6 22
449 472
426 334
2063
5
