40
3
0 0 0
66 95 93
23 22 38
74 67 29
76 33 40
13 35 12
28 48 47
23 35 91
21 89 51
100 84 71
77 43 26
90 50 100
21 56 86
79 70 33
93 46 49
11 37 95
46 80 78
87 64 93
58 44 36
11 41 98
56 11 98
18 60 98
24 49 80
85 32 44
48 46 34
78 38 80
41 62 77
28 72 41
13 93 19
40 32 87
87 58 46
29 69 96
12 81 82
92 49 60
26 86 53
34 36 50
14 81 94
78 56 98
34 40 54
97 98 32
0.630597
0.547488
0.299196
0.459982
0.676405
0.755542
0.636632
0.746917
0.511749
0.673805
0.247571
0.508836
0.547043
0.918196
0.628617
0.648781
0.836672
0.901621
0.91082
0.426842
0.247919
0.557588
0.702728
0.844151
0.726347
0.88903
0.34496
0.210113
0.261846
0.326912
0.449292
0.783666
0.22557
0.396397
0.899369
0.541117
0.388329
0.273259
0.345128
0.984718
420 283
69 309
11 434
157 335
31 147
341 189
364 330
93 242
408 10
27 299
26 276
391 40
300 68
452 440
178 162
260 393
500 335
249 404
320 288
332 254
30 64
326 436
42 307
264 154
288 175
71 266
69 257
36 324
453 238
489 400
382 215
444 62
305 153
358 155
47 359
257 471
88 376
334 79
115 375
384 375
2202
5
