40
3
0 0 0
77 34 39
81 92 52
47 74 52
12 24 82
93 41 77
41 71 56
61 70 16
48 59 66
99 77 41
94 41 100
43 47 92
83 71 62
19 58 55
75 11 48
37 59 29
27 68 53
56 15 40
74 55 74
64 26 40
89 39 63
90 50 100
33 36 100
37 62 14
48 18 78
18 80 89
75 90 53
43 50 43
95 22 68
92 86 20
37 23 72
62 41 86
36 61 50
82 91 81
56 98 12
12 79 29
84 38 43
99 62 75
22 92 95
48 49 72
0.380718
0.304675
0.33642
0.439511
0.29189
0.104572
0.152676
0.146201
0.311746
0.467036
0.409656
0.246331
0.193967
0.405201
0.287852
0.305296
0.362486
0.134972
0.170388
0.191173
0.143306
0.489384
0.135351
0.174196
0.177558
0.209813
0.346061
0.27494
0.192428
0.252747
0.319939
0.212461
0.133425
0.210796
0.250906
0.441888
0.190493
0.460272
0.366038
0.394718
455 32
129 81
381 285
156 414
73 465
366 3
298 108
344 145
163 167
264 14
251 276
65 314
387 161
170 364
401 182
497 193
31 338
115 216
384 168
243 222
346 497
421 171
28 448
417 32
427 233
158 492
235 82
117 147
113 373
438 83
473 340
354 32
72 484
132 411
431 133
355 402
497 13
291 279
278 194
104 444
2818.75
4
