40
9
0 0 0 0 0 0 0 0 0
13 41 45 34 57 96 53 42 100
71 57 53 30 42 16 59 59 95
84 10 41 10 26 59 100 61 100
88 36 48 74 76 82 64 36 37
59 24 35 71 16 17 65 36 23
64 57 65 16 72 28 38 26 14
61 45 13 42 19 86 82 21 84
93 44 12 82 10 97 51 39 41
67 46 92 26 68 36 10 85 34
46 56 74 61 31 76 25 89 45
30 42 89 97 29 50 46 46 42
54 35 23 66 43 14 38 42 25
96 23 77 43 13 46 33 26 73
92 86 82 68 62 97 93 25 95
91 57 55 95 30 50 11 77 94
11 41 25 18 73 27 75 81 16
40 47 25 67 52 43 73 71 67
58 98 88 85 79 45 96 15 82
64 46 97 82 10 43 96 53 67
62 42 52 47 94 29 77 44 43
10 20 14 30 28 22 41 24 68
60 81 89 11 98 18 37 63 13
67 90 61 71 55 97 59 99 84
46 71 49 60 57 73 85 96 17
19 23 15 98 100 72 93 99 44
73 56 32 33 23 85 41 13 91
99 92 69 59 50 82 49 69 18
72 72 19 29 79 84 59 84 20
28 90 96 60 87 42 55 77 92
70 24 72 34 51 85 53 91 57
85 92 34 26 20 52 31 76 81
50 47 38 91 37 88 30 18 93
48 14 87 47 25 41 78 32 24
25 87 81 97 23 14 89 55 92
30 17 36 41 10 33 53 77 68
33 27 71 35 79 51 14 51 100
37 90 88 69 39 91 92 71 62
46 96 68 59 18 70 79 79 80
43 14 76 85 69 90 96 68 97
0.673272
0.648328
0.543008
1.71867
0.875514
1.48308
0.644121
0.540381
1.84724
2.1247
2.45332
1.40892
1.71131
1.00169
1.1386
1.11956
0.965222
2.07167
1.91373
2.04435
0.989931
0.873134
2.36868
0.752911
2.42317
1.41475
1.85353
1.21636
1.96834
1.15252
1.1957
0.969031
2.32478
1.27396
0.868923
2.20374
2.06288
1.8467
1.65107
0.767683
49 374
162 212
138 412
263 134
220 417
371 212
98 405
88 4
76 313
204 231
323 371
343 411
229 14
123 49
213 430
9 206
397 412
172 172
208 226
364 122
0 22
138 227
6 103
452 392
44 457
282 55
481 5
425 323
195 195
47 416
275 470
128 188
273 183
103 483
326 228
238 15
167 30
10 172
216 242
404 99
2171
5
