40
11
0 0 0 0 0 0 0 0 0 0 0
33 59 88 30 25 45 12 81 33 37 55
96 57 16 93 84 69 76 49 74 23 10
39 58 88 17 14 47 41 90 10 41 19
95 37 90 40 71 47 74 10 56 20 72
92 11 91 95 11 11 100 30 61 79 80
91 60 72 78 49 76 67 20 38 79 20
63 72 59 22 91 62 88 45 61 37 49
20 15 12 15 30 100 98 68 92 41 34
62 48 25 43 90 22 77 88 93 68 94
43 45 83 79 63 33 92 75 57 75 96
78 57 20 62 62 19 72 54 100 13 94
13 98 30 33 71 91 35 82 10 79 74
39 63 39 12 16 20 36 94 95 43 98
100 83 78 84 67 74 52 46 90 90 38
17 25 22 11 71 35 66 92 57 97 18
86 28 21 13 84 45 79 96 51 57 20
64 49 78 63 67 63 65 70 16 58 25
15 36 14 93 80 23 77 36 43 48 76
58 28 47 32 31 100 19 73 85 58 76
47 57 62 74 29 64 100 67 91 45 54
28 33 19 65 17 95 25 73 81 94 19
66 57 91 22 92 27 94 68 22 96 72
44 63 10 47 52 22 51 49 44 65 21
48 57 78 70 42 23 87 62 13 23 43
31 43 99 86 56 90 88 42 20 45 57
37 68 73 83 76 100 90 60 78 10 40
74 29 90 15 30 94 100 62 95 52 63
48 88 19 94 44 60 56 36 42 98 31
46 70 30 52 34 61 71 58 44 71 28
33 18 67 26 33 92 52 40 78 16 81
45 84 43 42 72 84 41 73 41 82 33
76 51 71 77 83 97 49 29 26 25 13
63 72 36 79 76 21 81 50 63 49 17
54 43 100 17 49 75 79 57 75 43 16
55 17 47 29 22 75 80 40 61 62 71
12 26 35 24 96 74 67 50 92 92 89
78 44 88 98 85 39 53 70 84 32 34
64 80 40 89 43 83 36 31 49 11 35
59 91 98 31 56 53 78 90 32 33 22
0.777994
0.83047
1.39178
0.775947
1.08359
0.693959
0.748844
1.90704
0.581559
0.5136
1.05557
1.34246
1.6846
1.41727
1.88192
0.59902
1.22719
1.18176
1.39297
1.80444
1.76256
0.473778
1.83879
0.602825
0.535024
1.09267
1.21787
0.829635
0.492515
1.38579
0.449987
1.83303
1.07588
0.911068
1.06367
0.817985
1.427
1.50763
1.66084
0.517753
273 190
218 28
158 484
44 284
356 288
109 443
247 389
327 275
324 78
375 349
462 212
61 155
119 71
118 44
440 414
356 146
259 125
188 365
455 331
32 193
152 470
3 108
482 434
243 349
47 447
400 477
162 74
474 382
161 158
379 406
167 56
232 15
183 65
490 410
446 318
422 469
487 433
160 42
258 125
78 358
2721.25
4
