40
11
0 0 0 0 0 0 0 0 0 0 0
88 35 55 71 95 92 71 52 36 33 18
81 36 70 41 43 52 79 41 21 83 16
55 17 87 33 69 51 78 12 58 82 98
30 25 50 75 72 29 78 87 28 31 85
35 39 36 96 17 25 15 95 42 49 24
98 100 97 11 14 59 25 33 82 85 28
37 24 60 35 91 99 88 35 99 63 98
54 83 53 60 24 56 43 28 83 49 24
32 44 62 39 88 24 96 68 52 25 23
41 80 87 54 58 89 13 77 100 45 84
77 33 64 11 93 16 27 23 64 62 74
100 20 70 82 90 64 57 60 65 43 18
90 83 97 95 35 82 28 85 25 67 50
83 71 22 56 38 38 57 50 97 72 93
22 89 44 79 72 86 91 71 89 13 35
50 17 56 21 48 82 77 59 42 14 47
99 31 92 92 46 17 91 99 32 36 99
22 68 16 100 89 38 40 71 42 83 58
53 71 98 59 72 52 78 17 26 21 30
71 18 74 47 82 50 65 51 13 72 84
100 17 95 26 52 34 89 40 68 18 18
66 31 90 28 29 16 13 50 13 66 15
81 32 69 48 41 15 89 47 31 10 64
88 32 81 45 22 87 41 56 27 97 65
10 70 35 11 65 96 45 89 80 86 55
33 36 12 24 30 26 99 91 86 72 91
28 45 27 11 44 98 59 99 35 65 37
25 35 26 31 11 15 21 81 60 42 93
45 47 40 35 82 39 96 94 11 75 15
45 30 53 51 60 84 27 63 56 61 85
23 71 72 94 73 59 93 68 28 23 29
45 34 21 19 30 21 84 40 99 55 77
78 20 74 11 85 77 24 60 80 61 81
18 20 87 85 72 33 19 19 55 93 36
15 93 79 82 35 75 36 28 87 20 44
81 35 76 57 94 27 50 80 52 27 28
33 21 16 90 85 25 98 58 78 16 72
63 79 87 20 94 86 68 41 95 90 88
87 36 27 42 61 44 61 92 84 24 20
1.03621
1.6736
0.83211
2.31473
1.91467
2.3706
0.946335
1.12457
1.28467
1.67815
0.994357
1.62099
1.6755
0.546075
1.07063
1.72516
2.28561
0.515234
1.03988
1.39121
0.688134
2.07601
1.36974
0.856523
1.89671
1.71269
2.06209
1.74648
1.40459
1.06472
1.43214
0.800289
1.56939
0.688315
2.24341
0.804106
1.76514
1.0762
2.32711
0.57692
375 252
481 255
178 92
425 151
343 444
38 99
41 203
208 211
221 483
76 247
310 204
184 338
327 36
168 415
465 269
287 400
10 90
285 367
423 385
365 356
396 53
457 325
179 477
314 400
332 310
127 450
41 415
145 257
164 44
310 45
344 286
93 260
119 242
6 182
371 167
239 381
433 92
106 485
350 256
397 28
3575
3
