40
9
0 0 0 0 0 0 0 0 0
30 25 92 22 74 42 23 57 18
19 88 52 20 70 88 93 33 27
51 87 15 74 47 46 93 23 56
78 78 33 90 14 47 46 85 86
22 23 19 27 12 28 90 41 48
18 14 10 12 74 70 33 64 26
64 31 47 39 13 63 92 20 75
59 26 62 28 69 44 67 48 26
63 53 77 71 68 78 72 11 53
57 46 57 58 40 54 21 15 96
16 75 32 47 24 10 65 64 93
88 51 44 75 43 79 11 97 97
41 33 88 62 37 14 80 42 20
40 79 91 45 52 50 26 50 89
71 96 10 55 64 95 31 87 81
99 18 89 91 50 94 35 11 43
81 60 78 37 89 41 73 43 16
83 95 43 61 20 75 59 28 85
55 16 97 98 11 18 20 21 61
30 53 22 67 84 18 10 28 68
95 71 34 49 42 14 83 16 24
64 76 25 50 45 28 84 96 88
53 10 13 15 68 83 82 87 11
74 73 55 46 15 35 26 28 27
69 58 19 68 26 32 19 90 19
31 88 99 23 11 38 91 31 45
77 34 41 51 27 99 14 93 87
95 56 63 100 55 12 33 88 85
82 44 75 25 54 39 16 74 71
31 16 82 99 92 69 13 38 97
67 59 53 100 98 40 44 80 61
17 58 99 80 27 51 21 31 13
98 40 95 40 28 18 73 13 79
34 78 92 18 78 61 22 46 34
72 40 97 99 48 83 21 63 70
57 90 66 54 64 55 95 91 39
35 99 32 30 90 61 53 49 73
34 91 83 20 69 32 45 82 25
85 63 71 10 21 53 15 78 51
0.401118
0.272123
0.121097
0.175338
0.232487
0.39721
0.480707
0.333749
0.215633
0.216216
0.469383
0.11484
0.290564
0.256881
0.287975
0.160338
0.2186
0.382421
0.499965
0.425868
0.184179
0.234485
0.268377
0.167232
0.172772
0.264018
0.402231
0.359604
0.16289
0.229429
0.369165
0.34306
0.301165
0.2223
0.446721
0.418788
0.400982
0.139671
0.225755
0.404358
271 168
409 325
333 40
464 21
187 472
392 248
241 467
244 135
482 22
11 91
354 350
361 209
238 221
333 222
229 95
255 485
208 270
97 158
132 294
343 112
443 266
31 288
380 202
242 221
316 340
224 314
370 365
280 274
498 189
454 130
361 164
498 348
388 499
195 404
434 381
4 393
321 4
80 219
447 52
331 470
3461.67
3
