40
7
0 0 0 0 0 0 0
68 33 18 33 95 77 42
33 91 92 29 91 49 56
81 16 40 78 49 49 27
72 37 86 88 34 75 59
60 52 47 81 85 96 74
61 33 45 86 79 64 17
85 34 66 51 89 20 82
34 12 89 31 43 58 65
53 14 79 48 77 90 21
94 89 66 56 41 58 68
17 88 99 39 24 67 65
65 100 43 97 68 62 100
21 62 67 81 77 78 32
84 28 77 11 35 27 29
89 65 47 41 27 76 80
15 58 52 72 60 63 24
42 90 33 71 41 12 64
76 97 73 42 37 16 27
29 43 22 49 68 13 51
25 62 86 53 45 63 55
26 100 73 17 49 46 40
39 81 47 44 93 96 33
39 90 80 47 51 23 95
37 98 14 15 89 93 29
94 59 46 30 89 46 81
59 65 52 97 14 35 63
99 17 63 76 70 55 83
38 70 49 57 20 63 85
97 37 79 45 39 29 66
93 37 56 53 30 73 81
75 25 80 26 27 54 29
95 66 50 16 49 81 12
67 49 28 90 49 23 71
40 50 62 84 92 90 59
100 99 46 62 90 82 13
30 77 94 88 68 11 81
16 59 75 85 25 89 90
14 26 23 87 40 21 12
47 64 10 69 16 87 79
0.377569
0.441091
0.456209
0.384294
0.224958
0.629549
0.685522
0.437122
0.476786
0.797005
0.717955
0.224915
0.489472
0.456542
0.811022
0.70195
0.74328
0.601563
0.612803
0.699604
0.434964
0.401513
0.698889
0.277744
0.316327
0.817421
0.292539
0.213093
0.667736
0.60312
0.370703
0.511321
0.555376
0.314096
0.721152
0.707283
0.297778
0.752996
0.354679
0.675282
365 83
378 383
151 456
37 205
31 353
404 92
1 347
124 65
47 267
302 183
346 268
38 275
57 400
427 140
32 295
353 314
144 271
399 426
268 339
129 448
430 469
187 383
355 471
252 107
16 217
169 203
418 483
256 398
457 287
38 296
440 117
115 269
84 286
153 437
181 75
25 228
306 68
199 60
321 361
447 209
2762.5
4
