40
3
0 0 0
17 74 77
69 83 23
46 77 21
54 88 59
44 85 78
31 33 18
96 98 58
91 96 86
36 43 25
34 40 87
29 93 34
38 91 59
11 52 87
84 11 82
75 100 14
65 73 24
25 46 95
55 24 12
62 27 32
53 66 82
66 64 73
89 81 88
85 49 83
13 14 73
46 71 85
27 14 91
51 74 55
51 28 35
88 83 87
20 98 79
39 74 84
44 99 92
17 95 43
16 63 75
20 23 40
84 84 43
51 48 52
15 39 84
13 13 28
1.94398
0.403788
0.663461
1.62517
1.70536
1.18984
1.5847
1.46295
0.649729
0.401062
1.83742
1.42056
1.6323
1.52174
1.78785
1.2103
1.16866
1.97639
1.02044
1.74317
1.07687
0.714728
0.989477
1.53806
1.4857
1.18811
1.61727
1.44845
1.37947
1.48872
1.80502
1.37413
1.29199
1.14622
1.10364
1.44329
0.469371
1.28007
1.58265
0.822721
211 444
472 332
127 375
418 422
45 114
290 398
397 304
29 339
327 490
184 317
433 154
42 333
222 52
269 249
40 203
201 222
88 381
254 57
375 135
394 421
230 263
300 385
59 374
402 108
210 422
147 32
484 237
135 274
104 40
90 364
47 217
406 170
183 367
153 165
410 284
242 410
121 38
415 87
441 441
476 366
2752.5
4
