40
9
0 0 0 0 0 0 0 0 0
26 39 29 80 57 31 91 88 18
50 90 97 46 61 78 56 39 46
63 16 32 94 18 99 81 44 100
72 87 54 60 53 95 13 89 64
20 29 52 78 49 75 63 96 73
18 54 22 19 45 72 79 41 99
29 98 72 38 10 72 49 15 17
11 70 27 68 40 84 98 57 23
77 32 71 64 78 42 12 24 83
29 54 51 38 28 42 69 29 35
61 28 42 18 14 14 92 29 75
82 74 92 25 83 78 96 95 31
43 58 50 11 91 52 24 42 97
17 95 44 36 31 45 24 50 40
67 49 84 75 73 37 57 42 70
89 98 17 55 63 19 10 86 17
25 65 39 54 43 88 71 16 18
91 87 21 91 25 21 97 90 36
76 10 99 87 67 21 64 67 29
37 75 78 80 20 90 39 96 55
83 96 66 77 80 47 38 82 18
27 21 33 40 61 95 14 14 79
58 58 10 11 37 97 76 89 93
98 69 22 88 24 77 35 44 92
26 22 40 63 72 53 39 32 88
69 37 86 94 28 28 68 96 40
22 99 46 35 25 35 69 64 92
89 14 54 76 79 69 61 58 39
85 79 45 59 14 95 68 47 62
83 62 14 27 73 81 97 91 98
51 27 77 32 72 26 88 26 88
21 55 93 12 30 23 66 25 13
13 81 56 42 97 24 47 92 94
34 54 91 57 33 42 14 61 84
66 31 29 59 12 79 95 70 37
99 33 84 64 38 26 87 84 97
69 95 62 47 19 94 89 28 97
45 65 78 75 19 57 31 15 17
17 52 60 62 100 75 46 96 33
0.430846
0.497911
0.498453
0.396761
0.404231
0.374122
0.103651
0.295245
0.348133
0.273067
0.415108
0.276192
0.221927
0.437797
0.3833
0.471956
0.123773
0.286196
0.359971
0.456713
0.210247
0.485713
0.26888
0.211777
0.330982
0.1571
0.191367
0.250079
0.201777
0.450069
0.366871
0.264165
0.416013
0.478015
0.414294
0.132692
0.1791
0.256629
0.137079
0.431044
5 392
484 151
106 90
145 252
87 428
125 404
443 238
457 322
187 107
259 342
155 366
302 423
268 228
309 205
456 304
24 25
256 275
94 383
88 451
183 286
55 350
55 37
118 304
94 112
65 479
401 248
153 128
491 441
378 144
460 169
439 189
196 402
117 145
273 474
455 99
369 405
193 150
39 55
470 132
134 386
2713.75
4
