40
11
0 0 0 0 0 0 0 0 0 0 0
44 77 62 74 76 17 26 22 34 58 91
41 56 17 55 45 34 89 69 92 13 43
45 14 23 61 56 55 74 35 91 96 57
63 53 22 61 91 16 95 29 55 53 28
56 57 55 38 88 56 89 90 94 58 68
41 43 100 72 97 59 37 47 11 23 36
49 75 89 88 22 78 16 57 35 48 51
80 36 71 83 54 75 92 38 61 28 78
82 49 62 34 80 32 78 26 31 22 48
47 94 51 60 71 10 94 64 76 91 64
52 31 49 79 52 53 94 26 19 95 100
58 32 28 17 53 22 68 90 36 92 17
82 62 10 63 58 69 51 50 85 58 46
92 70 73 47 20 24 100 10 40 52 17
10 36 85 65 71 19 87 78 70 52 74
95 80 55 33 36 64 57 78 73 34 91
78 64 20 79 29 66 21 21 32 88 82
41 81 57 98 56 73 13 47 93 70 83
87 50 13 36 40 23 40 93 48 64 63
95 88 94 30 88 99 40 20 67 63 39
47 78 31 82 41 96 75 10 35 70 16
18 75 40 98 32 63 69 23 14 83 40
48 12 56 35 30 95 32 21 55 100 47
90 60 31 84 57 67 13 69 67 95 10
68 90 48 22 58 42 44 24 72 23 19
54 64 56 33 77 47 42 64 14 15 62
47 10 66 30 51 48 22 49 50 23 55
87 38 15 78 71 10 73 41 79 65 76
87 92 79 29 72 30 16 100 10 31 68
96 46 54 19 95 74 43 85 88 68 36
72 48 30 78 17 66 48 95 91 90 43
57 23 65 90 49 52 50 91 21 11 36
83 20 94 73 66 63 11 58 87 90 50
48 46 55 26 81 59 41 99 64 95 58
92 54 38 100 85 11 62 58 88 11 72
46 59 70 43 57 63 94 57 64 97 38
16 24 12 53 12 32 82 83 30 27 91
73 21 68 13 63 38 14 66 39 24 86
41 89 61 55 17 45 47 10 59 39 85
1.8963
1.09879
0.477813
1.31766
1.11936
1.2578
0.668006
0.502897
0.982002
0.922967
1.24389
1.30256
0.655988
1.6535
1.64379
0.424125
0.919292
1.46279
0.64025
1.26346
0.650242
1.61509
1.58594
1.0484
1.05866
1.20565
0.907545
1.86954
0.561935
1.06994
0.512606
1.21888
1.36045
1.02553
1.5108
0.518295
0.9738
0.804557
0.855787
0.78218
375 304
84 183
10 199
55 326
202 172
8 176
87 496
420 166
0 247
497 196
273 333
131 31
211 168
35 112
83 74
9 83
238 275
283 195
400 340
8 17
102 408
24 338
176 350
117 410
337 474
4 27
333 288
382 284
399 342
371 17
104 247
434 304
289 116
328 177
409 463
426 182
263 10
343 340
250 374
229 453
5377.5
2
