40
3
0 0 0
11 81 10
10 21 49
18 53 27
52 29 68
50 28 75
96 73 79
35 38 18
78 47 62
86 60 16
26 65 50
52 57 99
43 84 43
69 72 54
58 29 27
69 99 53
48 71 40
51 20 27
27 57 81
96 90 26
51 72 30
34 73 81
43 23 14
52 62 73
47 32 99
85 87 53
79 37 91
94 53 41
10 81 88
59 13 100
95 19 12
50 22 37
19 28 69
42 85 85
42 20 29
34 99 92
54 39 76
83 19 19
53 52 72
86 35 90
0.676352
0.551005
0.841005
1.4039
1.31262
0.824461
1.08314
0.963959
0.797612
0.493933
0.331203
0.356228
0.763483
1.43058
0.497775
1.33205
0.720932
0.516616
1.23202
0.53564
1.12427
1.05496
1.24517
1.13831
0.432375
0.629046
1.40892
0.810887
1.01864
0.820437
0.63565
0.840563
1.21037
0.907415
0.800643
0.891857
1.41443
1.08889
1.02544
0.86225
105 43
94 335
404 454
67 148
228 311
459 491
91 482
365 340
216 372
396 283
27 402
299 349
74 206
402 276
472 398
426 309
149 366
0 482
0 184
418 3
410 282
327 236
483 13
288 183
462 152
429 280
120 217
174 443
225 403
97 425
401 342
223 19
391 458
109 465
449 259
272 79
26 276
158 289
317 321
97 309
3481.67
3
