40
5
0 0 0 0 0
99 37 75 77 20
84 47 97 40 61
86 85 97 97 15
67 54 29 54 83
79 93 38 11 91
92 85 46 87 91
36 43 65 54 80
79 18 83 70 61
65 84 41 39 70
22 19 33 30 72
36 99 82 26 51
50 17 18 38 29
63 84 93 93 31
84 32 49 92 83
95 54 98 59 16
13 50 39 31 94
16 78 23 100 63
11 46 41 23 40
61 36 13 80 55
52 90 96 55 63
28 73 73 93 15
10 20 90 64 19
71 66 18 83 54
71 54 99 45 74
57 65 46 29 46
39 18 90 26 97
85 85 72 71 20
54 34 80 56 52
100 65 11 73 65
55 99 97 87 75
87 46 19 51 98
97 95 99 41 94
48 22 48 94 29
73 45 41 18 75
56 66 12 79 93
80 79 17 67 75
40 83 64 89 92
17 79 59 42 86
45 49 68 40 100
1.51165
0.925091
1.12124
0.495083
0.973816
1.28378
1.91725
1.00736
1.14213
0.751837
0.836777
1.31751
0.839053
0.681595
0.878685
0.988013
1.57178
1.93918
1.03898
1.09717
1.46005
0.765896
1.91816
1.4466
1.79371
0.416345
0.504208
0.566631
1.75281
1.77912
1.15509
1.70655
1.89702
1.44581
1.42093
1.70892
0.585241
1.55589
0.873265
1.57099
345 188
25 489
379 1
311 367
307 0
500 10
303 472
178 61
164 27
82 302
376 307
344 17
486 219
189 493
64 340
480 245
90 186
107 396
189 368
342 439
360 344
237 78
290 416
404 463
392 41
290 392
78 160
156 214
166 226
404 165
170 328
280 160
312 55
18 389
142 314
179 110
261 341
371 422
287 244
80 456
5792.5
2
