40
7
0 0 0 0 0 0 0
54 62 21 97 93 19 91
61 49 90 16 18 34 98
84 33 26 96 95 14 61
43 41 42 49 14 50 28
34 59 54 65 35 16 68
51 37 49 94 16 59 98
66 73 85 22 89 65 60
84 84 44 95 74 66 76
18 60 53 40 99 88 16
32 96 61 99 64 46 33
41 95 12 94 65 96 58
22 92 54 47 76 71 63
83 31 41 35 16 96 43
53 90 65 15 21 15 23
58 99 10 89 74 56 79
80 60 76 35 77 75 95
73 81 99 36 56 14 17
25 72 63 85 26 96 89
97 14 60 80 32 94 42
93 11 95 64 72 33 31
50 87 82 15 54 44 55
90 63 14 10 14 41 94
63 81 53 87 81 68 55
56 93 36 10 36 37 66
59 47 94 73 76 17 98
59 31 20 53 98 20 96
58 11 36 93 61 97 16
46 88 53 86 45 83 94
88 36 97 42 67 15 11
63 39 100 69 55 43 22
43 65 90 26 33 59 30
37 23 60 92 74 29 91
73 17 95 94 91 78 99
88 51 81 29 12 36 51
86 64 29 97 65 23 41
11 78 95 86 15 77 69
80 93 40 70 93 44 53
34 52 17 45 77 67 48
30 38 99 84 97 79 15
1.09861
0.454536
1.45686
1.17783
0.567797
0.486443
0.939447
0.448684
1.37531
0.883948
0.519899
0.377307
0.674858
1.03945
0.89255
1.42818
0.914441
0.919471
1.07726
1.11433
1.04168
0.851148
0.850725
1.02993
1.43526
1.46946
1.42485
0.724658
0.734296
1.17941
1.31747
1.44041
1.21355
1.08304
0.802411
1.47467
0.452803
0.780952
0.329157
0.315902
148 95
231 128
418 421
119 384
375 429
174 471
126 346
229 77
353 47
360 288
192 83
20 110
345 269
123 75
111 40
130 210
114 387
389 421
129 394
448 8
370 430
65 215
131 433
431 30
263 162
128 335
328 333
174 99
398 103
389 250
111 317
197 397
126 434
88 349
243 448
88 192
407 435
251 87
13 173
424 136
2831.25
4
