40
9
0 0 0 0 0 0 0 0 0
65 78 26 87 98 26 28 88 98
20 80 11 97 87 81 20 62 40
63 25 26 14 59 86 95 54 18
32 52 47 82 59 21 25 14 10
47 65 90 46 94 93 63 91 99
62 44 24 92 33 64 88 58 43
17 39 15 36 93 30 81 88 95
89 49 43 35 25 92 17 36 80
49 49 33 100 79 76 92 77 12
72 56 65 15 97 13 59 85 98
73 56 95 93 67 10 45 31 71
28 50 28 88 21 95 10 91 17
44 54 80 21 13 46 90 87 46
51 95 68 96 33 94 88 12 37
49 44 30 48 99 18 62 53 24
51 67 36 90 23 62 81 85 44
79 56 87 99 94 77 74 97 84
67 24 46 88 84 49 93 79 15
77 78 73 70 40 22 66 63 50
61 68 62 44 30 74 78 49 48
52 13 32 22 50 79 94 53 56
25 53 45 74 61 43 62 59 60
43 12 46 61 42 12 47 63 44
38 83 69 37 58 41 25 57 47
30 54 62 73 60 79 79 41 81
64 33 70 67 26 100 22 77 44
28 83 71 69 32 81 60 79 77
60 45 89 27 93 10 57 89 15
97 86 95 39 90 84 88 35 22
28 39 10 82 86 80 63 73 17
86 22 95 10 90 53 49 51 94
41 90 98 89 19 89 16 22 40
53 18 84 93 86 34 14 13 27
61 61 56 84 65 50 94 50 60
15 45 15 79 16 76 76 82 28
91 55 72 84 82 70 76 50 31
70 99 79 32 99 13 59 49 62
90 27 89 45 39 32 86 69 79
38 73 33 78 34 56 17 95 58
0.313111
1.41035
0.697741
0.754465
0.519786
0.507362
0.327201
0.373067
1.30112
1.04889
0.687925
0.837841
0.896118
0.408522
0.849728
0.793536
1.05452
0.949678
1.32111
0.835267
1.18618
1.1361
0.522109
0.669681
0.628813
1.17618
0.545473
0.983316
1.27705
0.668409
1.02655
0.599722
0.906087
0.824945
1.13058
0.449076
1.17241
0.993045
1.41794
1.39951
56 428
386 295
211 292
458 424
131 172
199 107
105 219
236 110
90 19
206 395
313 34
110 335
54 259
456 421
10 54
419 117
404 180
187 314
176 482
113 382
407 380
54 432
468 78
54 256
154 260
383 472
443 256
154 333
466 327
368 219
479 46
405 328
482 494
460 56
165 364
69 483
121 354
438 285
45 248
379 16
11215
1
