40
3
0 0 0
75 98 70
64 57 19
72 93 84
32 69 11
31 84 76
10 92 96
50 61 46
67 82 30
47 53 35
92 62 33
48 66 17
81 23 93
20 54 75
100 66 25
59 52 54
82 67 91
33 34 11
20 62 47
19 33 26
11 38 50
94 52 95
37 72 84
84 74 91
76 78 50
71 26 37
32 33 59
82 58 11
25 82 54
69 38 35
100 20 68
77 56 10
61 41 56
96 18 78
13 88 94
27 22 67
82 16 78
66 44 42
66 27 38
16 52 20
1.35311
1.48029
0.554386
1.54445
1.09445
0.572357
1.79329
1.6901
0.864797
0.604705
0.501015
0.710412
1.15476
0.460248
1.03329
1.82343
1.2359
1.0357
1.41082
1.72075
1.52962
0.962414
1.10971
0.628278
1.61214
1.78923
1.23676
0.579175
1.99387
1.85816
0.685859
1.67012
1.37936
1.6621
0.485498
1.79196
1.3881
1.70451
1.11218
1.83128
221 11
269 476
276 384
77 439
250 241
169 413
216 57
451 341
138 381
27 58
32 208
237 402
482 311
20 1
442 4
96 269
39 450
200 453
223 388
486 395
78 24
138 432
147 208
115 138
230 119
171 294
156 424
117 189
406 294
279 1
369 406
284 304
73 210
460 355
144 182
161 239
225 285
483 48
388 61
418 8
3546.67
3
