40
9
0 0 0 0 0 0 0 0 0
58 40 45 74 50 12 39 45 28
92 76 22 31 58 100 40 87 34
60 91 54 54 86 56 10 53 37
71 97 66 68 98 57 79 89 45
53 58 23 12 48 28 19 76 99
24 19 39 38 19 94 12 60 41
53 45 61 12 41 13 85 79 58
24 35 89 41 15 38 67 97 41
26 38 48 70 91 48 19 46 73
28 70 98 33 27 60 52 93 63
63 36 100 20 27 69 37 16 18
58 16 21 99 14 15 15 41 26
85 19 36 76 23 53 33 98 79
39 58 18 46 69 69 62 19 11
56 82 24 25 63 96 52 90 42
35 10 62 20 36 39 79 23 20
42 18 76 44 19 72 49 82 55
80 99 85 29 36 16 82 100 74
73 31 56 70 50 35 61 14 74
17 40 98 69 45 32 19 86 91
58 65 34 31 81 23 18 59 73
34 17 83 56 36 16 14 11 52
76 79 95 58 82 15 29 79 37
46 32 36 86 76 77 46 45 96
62 94 62 100 69 16 61 80 72
24 34 77 46 17 38 82 41 37
61 10 24 84 42 55 64 11 45
24 54 89 71 20 55 50 96 16
22 12 35 79 93 12 79 36 23
86 80 16 48 83 33 19 41 75
67 26 75 61 31 68 17 100 27
91 16 13 97 49 39 81 45 43
12 10 24 84 44 26 31 31 20
98 65 92 35 49 65 11 82 33
24 45 76 27 49 18 56 56 55
67 28 62 92 21 66 54 21 72
85 95 17 12 96 87 52 54 35
71 57 28 74 80 84 72 90 23
51 79 21 68 52 95 52 59 93
1.06134
0.322311
0.866235
0.718732
1.24828
0.734337
1.12161
1.14719
0.696289
0.884961
0.315828
0.728213
0.421543
0.644053
1.40267
0.557769
0.763305
1.09999
1.35227
0.60005
0.494255
1.46814
0.781939
1.04349
0.746965
1.08541
1.1602
1.46378
0.768285
1.03259
0.498523
0.396951
0.551941
0.315487
0.754252
1.00865
0.559999
0.333441
1.48983
0.749183
359 315
388 96
458 464
466 131
0 40
278 463
464 181
377 95
113 485
325 144
406 389
112 312
486 376
391 125
302 56
312 441
483 223
47 34
295 220
25 491
135 102
131 417
147 248
128 149
171 426
123 487
14 351
472 139
123 31
443 322
285 317
496 101
70 94
148 436
87 403
357 39
208 164
189 342
133 402
61 241
10070
1
