40
3
0 0 0
15 77 75
73 34 66
40 76 92
97 85 72
58 25 14
56 94 39
58 98 74
11 43 55
29 33 68
97 45 54
43 76 47
44 93 83
24 26 95
98 25 80
98 43 90
77 40 23
95 85 14
30 76 61
41 36 47
25 52 31
27 46 92
93 57 91
58 31 54
52 76 40
13 84 94
20 55 81
64 27 73
18 64 65
13 58 45
55 100 43
77 52 40
70 94 65
23 64 79
58 76 83
34 82 20
55 93 90
56 53 11
41 42 20
79 38 68
0.178285
0.392571
0.459243
0.155365
0.362721
0.20604
0.177097
0.171421
0.404833
0.412836
0.444391
0.276293
0.26678
0.249755
0.349576
0.359165
0.201522
0.131645
0.222704
0.291707
0.119193
0.223846
0.257756
0.495984
0.348239
0.473799
0.303597
0.214077
0.133089
0.436943
0.132592
0.208341
0.130735
0.196333
0.199627
0.350599
0.356518
0.140519
0.179031
0.401474
331 50
316 473
466 441
20 183
127 464
479 144
145 151
243 16
302 168
65 339
329 146
139 266
182 83
409 39
186 125
209 180
113 383
345 376
96 349
10 290
335 60
406 61
290 137
316 409
277 86
290 168
93 67
42 64
421 399
220 357
27 487
204 114
198 59
126 248
462 37
123 283
387 98
403 259
77 289
384 322
3723.33
3
