40
9
0 0 0 0 0 0 0 0 0
85 95 34 56 38 15 81 16 46
34 27 89 64 34 32 74 24 77
54 33 10 43 44 27 86 88 13
78 89 35 20 79 67 38 67 38
26 20 13 45 48 23 100 21 60
26 39 77 90 95 60 37 95 24
77 91 80 74 23 63 42 68 84
61 94 74 91 97 78 79 62 52
60 43 15 44 100 14 99 58 24
48 10 58 85 94 14 67 43 93
65 68 87 66 59 24 90 25 49
56 63 83 16 46 92 95 39 39
66 72 97 25 80 67 53 51 82
56 62 38 30 32 59 65 11 89
20 43 92 55 18 79 39 84 58
93 64 93 52 51 70 47 75 32
13 44 25 84 18 79 59 100 30
26 15 75 58 86 72 16 34 98
93 30 12 29 78 82 32 95 26
20 70 62 47 63 83 30 50 55
100 14 57 81 30 96 97 59 88
52 86 78 100 38 36 48 79 58
85 19 18 33 52 52 87 14 34
83 27 32 54 10 56 88 45 92
100 57 55 55 99 73 24 53 79
97 76 50 34 35 47 12 70 19
75 55 61 30 70 44 78 21 72
81 86 26 83 58 60 28 59 42
65 72 24 99 34 74 35 52 52
89 83 63 72 50 72 57 24 68
84 50 34 70 23 66 26 16 89
44 10 34 98 62 86 26 85 82
42 15 70 63 32 83 95 49 14
65 70 76 10 53 73 94 35 38
77 62 32 72 44 88 53 62 39
59 100 34 87 28 21 97 65 37
11 37 91 53 54 18 69 44 66
43 83 46 79 99 55 14 62 48
16 42 66 77 80 51 73 33 55
0.764223
0.528933
0.69516
1.08024
0.573416
1.31417
1.46781
1.02384
1.20161
0.316933
0.590007
0.601529
0.428462
1.08637
0.592661
1.46352
0.632941
0.547545
0.451204
0.526256
1.24018
0.330287
0.401736
1.27963
1.2868
0.338336
1.1707
1.18328
0.424985
1.11244
0.536565
0.586173
0.775483
1.4811
0.377251
0.425711
1.30418
1.23166
1.30662
0.715175
53 363
31 366
466 448
403 46
10 44
71 192
219 487
232 260
50 125
123 386
379 319
336 338
495 3
126 395
472 156
394 433
16 260
281 69
160 114
367 317
421 489
5 249
340 209
223 13
248 56
328 53
75 441
363 274
379 402
61 327
273 160
139 317
335 221
37 52
466 413
241 110
360 19
160 13
38 392
277 0
10970
1
