40
3
0 0 0
95 95 80
42 37 59
15 85 57
80 51 46
42 48 45
87 89 55
39 64 22
77 63 77
48 98 14
73 25 68
69 62 60
79 51 12
92 55 43
39 85 95
92 81 58
84 64 85
30 33 24
12 85 50
38 72 92
19 43 28
11 58 73
22 79 83
61 47 73
72 49 89
92 96 21
75 10 80
64 58 35
46 69 82
25 43 53
13 55 58
30 47 26
51 74 74
79 26 93
17 38 15
53 36 40
92 20 43
32 53 67
75 27 15
26 83 78
0.430988
0.385251
0.471794
0.493429
0.175106
0.18432
0.107672
0.489044
0.115219
0.410505
0.192602
0.114453
0.492605
0.125824
0.370837
0.298482
0.344436
0.4994
0.248239
0.180562
0.381812
0.18287
0.338389
0.369824
0.259379
0.35633
0.12735
0.140439
0.339223
0.4916
0.474982
0.143062
0.493022
0.305279
0.225875
0.149059
0.196406
0.316354
0.381954
0.486925
180 57
416 153
267 241
339 392
148 143
426 117
206 448
429 389
398 107
450 172
209 302
181 166
75 200
332 299
227 372
235 213
331 98
196 378
340 72
441 236
480 79
497 213
459 152
65 454
127 170
445 29
149 110
359 358
413 242
299 17
32 265
134 238
389 373
370 15
476 78
319 43
148 117
312 356
305 192
481 105
10850
1
