40
3
0 0 0
71 14 92
27 53 31
93 77 56
11 12 55
45 15 37
96 61 51
89 65 68
70 57 67
81 16 46
11 49 97
27 15 32
25 54 100
14 49 45
71 51 48
89 25 62
67 62 12
44 13 78
85 29 26
67 88 80
76 30 72
58 65 86
20 23 70
68 91 78
25 29 25
29 49 71
96 48 31
12 75 84
25 46 70
67 31 49
94 59 91
53 66 35
13 97 96
45 42 52
81 40 74
10 82 31
36 39 28
16 42 30
22 27 74
58 23 76
0.295844
0.398776
0.93098
0.444075
0.750044
0.921087
0.317623
0.478533
0.494344
0.988389
0.689608
0.824558
0.743805
0.817166
0.762091
0.817094
0.795262
0.643316
0.876674
0.293849
0.217279
0.495714
0.350467
0.307204
0.921153
0.41558
0.423907
0.248273
0.924226
0.698544
0.7016
0.289205
0.568608
0.746492
0.671119
0.552335
0.219736
0.782573
0.852425
0.319057
339 487
31 389
403 492
363 399
28 223
157 63
459 39
195 413
170 390
17 343
145 138
184 400
350 490
167 150
201 469
60 129
472 464
108 300
187 219
146 482
488 249
342 198
404 356
408 492
403 116
201 123
290 156
413 150
29 428
434 376
95 390
39 371
301 157
20 105
129 288
431 474
370 15
389 130
125 208
323 169
10170
1
