40
3
0 0 0
26 19 88
43 17 59
87 51 66
45 85 99
73 27 34
11 85 73
31 20 12
28 34 62
62 90 35
35 40 35
25 67 99
10 82 41
17 30 66
16 22 30
78 19 17
13 72 93
51 81 54
76 19 33
13 95 43
44 30 54
83 75 99
82 92 93
49 89 30
75 52 94
31 71 25
41 13 40
16 84 42
35 77 38
39 45 34
62 50 64
56 86 47
91 54 75
28 52 14
93 56 57
91 87 45
74 67 23
87 11 39
35 100 38
76 15 17
0.851727
0.909004
0.687746
0.442519
0.892031
0.513962
1.06217
1.4076
0.979948
1.01323
1.04893
1.2287
0.334407
1.36968
1.04931
1.14745
0.801609
1.38889
1.29942
0.310352
0.855077
1.15882
0.923218
1.08244
1.11114
1.29849
0.374832
0.785405
1.00504
1.41725
0.46513
0.311068
1.46002
0.564739
0.730321
1.21449
0.705918
1.15558
1.17504
0.317734
288 310
334 407
341 88
157 70
386 59
470 205
235 139
483 477
88 144
346 212
145 456
228 40
115 299
180 196
295 263
459 97
281 251
373 364
498 394
67 272
452 294
357 149
70 167
457 178
75 442
295 252
1 69
294 90
183 473
393 492
190 38
318 434
269 161
6 152
449 357
202 19
150 22
419 341
287 382
45 281
2032
5
