40
7
0 0 0 0 0 0 0
65 31 62 81 98 45 49
100 67 61 47 96 70 78
85 17 80 15 43 51 37
97 70 67 32 41 75 67
68 77 61 31 83 93 26
20 62 73 16 65 84 15
64 73 68 83 73 57 89
26 54 72 22 17 11 80
52 26 12 70 57 70 75
44 56 74 45 83 48 33
56 42 18 56 52 80 72
89 83 61 69 41 72 45
30 58 24 80 26 18 72
15 50 32 92 24 89 87
17 80 63 72 73 38 74
88 12 38 13 40 36 35
69 99 79 54 39 13 13
41 95 10 17 99 27 41
90 92 51 65 63 29 16
80 40 66 40 14 20 53
78 85 67 62 27 38 39
84 47 54 89 63 63 99
23 98 60 66 41 22 12
46 100 92 70 88 34 21
39 24 92 68 100 23 38
95 77 18 72 66 34 23
29 85 18 58 86 30 85
53 59 88 34 62 81 71
61 62 11 17 12 62 23
78 20 70 38 98 20 96
75 98 95 27 27 52 12
24 91 37 89 44 41 14
38 88 29 42 98 96 68
28 34 73 88 54 52 11
86 33 33 43 87 17 30
10 77 27 39 65 98 97
58 69 55 93 69 14 11
88 40 44 50 55 96 97
75 72 22 54 36 56 74
0.690113
1.63005
2.23125
0.997841
2.18609
1.76646
1.64164
2.06206
1.0213
2.46052
0.624443
0.791246
1.97601
1.56376
0.918095
0.778642
1.28774
2.27078
2.35095
1.7549
1.5585
1.84102
2.12718
1.93702
2.33971
1.37397
0.774299
1.46752
0.963327
1.81591
1.8163
0.61616
2.26448
1.55697
2.08037
1.46701
0.755333
1.64386
1.71873
0.663665
196 262
223 334
133 272
486 488
116 118
417 331
438 108
347 255
352 252
1 316
404 404
50 8
336 263
465 209
472 266
131 159
259 386
77 350
493 156
338 381
64 172
319 376
29 389
216 139
355 446
61 7
10 25
176 337
167 310
312 273
100 442
396 471
236 172
254 4
226 376
40 479
471 118
4 189
207 462
136 25
2157
5
