40
9
0 0 0 0 0 0 0 0 0
61 57 31 65 48 96 92 28 62
23 64 37 13 37 39 73 29 43
47 35 42 90 75 48 95 15 32
65 66 75 34 25 10 90 59 73
37 78 78 58 13 26 71 49 87
20 37 65 39 85 38 37 38 93
97 64 90 100 97 39 52 24 82
14 91 33 40 72 83 87 23 46
33 97 27 58 45 31 68 99 89
21 17 11 37 66 91 35 43 19
93 27 25 91 83 82 12 51 82
59 67 92 77 44 37 62 32 28
88 20 29 54 18 83 67 71 94
43 91 52 23 82 73 30 11 99
81 80 32 28 75 34 33 13 60
86 52 77 96 50 74 29 83 83
66 16 38 87 43 67 86 64 39
94 55 15 16 67 22 33 48 35
59 15 99 59 28 14 58 65 31
67 18 66 64 74 88 41 38 41
18 37 52 14 22 62 23 83 64
40 58 33 22 83 54 38 16 13
72 35 80 19 53 59 76 99 38
78 52 28 78 69 55 85 29 10
14 80 80 58 94 41 72 54 93
65 80 100 36 54 81 67 85 45
79 26 19 58 86 65 40 83 18
17 99 47 20 61 17 65 24 70
55 14 71 34 38 21 18 97 30
27 28 25 51 88 32 27 35 54
57 52 96 32 19 90 12 14 70
63 51 35 39 73 91 92 13 28
95 35 11 52 57 92 96 38 83
74 55 99 92 19 35 60 67 17
77 32 76 67 65 50 43 67 18
44 77 26 37 57 38 65 100 89
22 23 82 57 65 42 36 23 73
66 51 95 28 57 66 42 51 51
53 56 74 78 88 17 43 92 64
0.467623
0.135498
0.207297
0.222415
0.467066
0.485575
0.402506
0.117103
0.220344
0.41531
0.224722
0.474285
0.182681
0.152472
0.12444
0.118773
0.182685
0.295146
0.27808
0.495954
0.37047
0.116866
0.150113
0.105848
0.243924
0.336171
0.372324
0.158062
0.369037
0.198513
0.160539
0.460785
0.376445
0.477207
0.402174
0.450118
0.147708
0.107582
0.498451
0.268401
9 461
300 375
440 143
321 218
15 483
342 473
149 134
381 413
182 340
211 173
304 445
252 9
405 452
322 398
28 488
407 278
470 146
202 248
446 126
72 272
416 235
168 140
140 19
305 28
150 10
152 388
27 200
363 329
409 318
185 472
229 371
400 490
89 358
429 256
75 94
36 59
448 256
499 61
255 460
258 146
2101
5
