40
11
0 0 0 0 0 0 0 0 0 0 0
35 83 61 63 15 73 94 63 94 55 19
26 39 35 75 96 86 82 29 40 20 47
53 53 57 60 92 84 22 26 60 65 53
67 74 27 76 51 47 13 63 32 94 60
73 56 99 82 19 91 84 43 75 13 95
59 62 20 11 46 18 23 34 23 26 73
89 38 41 49 26 18 25 97 98 73 82
22 54 54 86 28 23 60 78 83 52 14
60 67 28 22 92 22 39 84 53 10 97
86 38 43 46 15 12 70 72 34 72 30
93 30 76 19 24 87 79 83 50 49 37
65 16 46 21 56 18 95 21 17 29 38
70 65 71 89 46 71 91 47 19 96 60
10 25 91 45 24 68 27 96 40 60 94
81 96 59 97 72 66 66 59 23 10 16
93 65 94 45 64 77 99 54 85 59 82
21 79 80 53 31 54 67 56 19 83 93
97 61 11 81 34 20 22 57 50 36 17
31 78 64 80 55 55 43 60 34 28 46
31 87 18 40 24 16 75 67 76 93 100
57 57 80 32 97 87 16 82 52 96 59
38 31 32 89 66 67 42 95 41 50 39
51 28 38 49 55 49 58 52 40 66 62
96 35 54 16 21 87 79 59 58 73 93
84 78 34 47 70 27 56 41 49 85 25
33 99 20 12 78 86 98 78 85 100 64
97 42 45 44 73 19 17 98 56 41 26
71 79 69 23 60 26 28 68 55 86 70
40 27 63 100 21 25 76 82 37 80 76
68 75 93 13 70 26 25 91 68 54 47
23 45 96 17 53 34 27 80 19 75 50
75 79 10 12 63 51 61 91 49 98 68
98 96 12 19 13 80 22 38 86 25 61
52 14 91 98 73 37 23 45 37 97 20
30 13 40 96 17 91 49 20 27 48 36
45 86 59 44 49 36 27 49 93 19 81
55 80 93 55 88 10 79 93 13 87 82
21 53 38 81 74 95 13 69 24 47 45
50 83 43 36 84 96 48 81 16 54 93
2.36145
1.46003
0.66197
0.995087
0.564066
1.70931
2.27491
1.59898
2.07869
1.61312
1.11028
1.04216
0.637885
1.34163
2.00807
2.04632
2.29187
0.697693
1.70692
2.23746
1.5118
1.21717
1.87782
1.2149
1.35509
1.24406
1.5672
0.998856
0.528779
1.57556
2.25595
0.908285
0.665727
0.562046
2.35795
0.769221
0.683896
1.36745
2.02732
2.27471
393 168
35 194
151 63
305 97
203 261
8 318
463 232
82 63
447 237
26 54
391 307
302 362
42 38
11 222
435 192
127 309
216 416
142 10
353 190
216 192
441 212
58 296
313 70
195 286
155 374
313 462
459 211
91 98
145 159
358 155
49 326
170 95
221 232
162 268
259 198
188 99
179 471
373 97
60 317
96 140
5380
2
