40
5
0 0 0 0 0
91 80 93 30 51
31 69 73 20 45
97 11 57 31 13
73 54 23 10 56
87 31 100 59 10
26 69 83 60 21
44 22 62 48 79
60 20 100 55 95
18 69 64 63 18
49 10 26 79 20
100 61 39 75 42
68 74 43 63 58
75 44 58 32 46
17 22 15 92 62
95 81 93 17 65
80 79 28 22 45
96 74 33 95 18
34 93 33 74 85
16 83 35 74 74
88 86 39 57 84
10 43 20 34 19
32 87 68 45 67
68 23 11 38 74
85 62 65 27 97
100 91 72 40 19
92 43 14 98 89
85 43 43 31 51
58 58 61 81 99
61 26 31 91 100
81 98 57 41 17
41 28 67 95 42
53 41 34 88 84
24 17 31 27 88
28 50 40 71 10
83 77 52 77 10
54 99 54 16 86
91 17 58 18 69
35 70 81 16 87
41 14 36 25 59
2.20836
0.664644
1.35814
1.54195
0.958955
1.28543
1.93765
1.46648
2.39914
1.06732
0.804281
2.04833
1.58074
0.572896
1.31217
1.61552
1.44027
1.0138
2.04046
0.678471
0.892307
2.14581
2.17255
1.6592
0.981358
2.39565
1.78737
2.32069
1.39447
1.49305
1.13858
1.79829
0.635715
0.867569
0.748943
2.48535
2.37056
1.50887
0.924565
1.17202
41 143
96 234
126 479
286 328
459 4
89 183
320 83
110 272
481 78
178 424
164 482
57 395
436 409
205 406
273 470
226 223
445 80
47 256
156 367
339 280
375 129
211 401
178 484
166 37
225 371
213 246
321 335
180 321
54 432
166 435
75 444
429 299
244 297
210 362
392 416
349 300
221 60
158 453
370 272
94 109
2129
5
