40
9
0 0 0 0 0 0 0 0 0
44 79 47 81 11 45 93 28 15
77 11 48 77 36 83 67 82 74
13 96 52 81 55 97 94 47 52
16 26 68 70 71 31 37 49 77
53 75 54 47 91 83 25 84 92
29 37 20 12 85 79 40 47 18
59 96 45 13 57 60 27 85 44
15 73 15 96 70 93 12 81 21
77 65 40 34 57 98 41 25 18
63 81 61 82 20 41 17 26 31
44 28 33 57 70 76 93 48 67
61 23 81 62 19 31 13 41 93
55 42 76 85 97 72 32 86 48
38 27 90 39 53 64 63 10 35
37 93 17 83 88 35 32 84 32
21 20 47 62 45 50 42 45 79
67 95 61 63 100 11 18 59 39
81 86 97 48 76 89 23 61 19
38 27 84 76 19 14 30 21 67
82 68 18 92 81 58 27 19 69
73 23 78 39 18 33 70 61 47
32 35 59 42 39 61 44 83 16
34 67 17 44 28 23 55 73 58
48 37 32 82 78 19 28 56 93
68 37 18 11 61 90 58 44 46
80 29 27 10 63 34 32 79 97
30 33 79 35 58 25 17 93 30
77 80 53 61 70 96 20 54 60
83 37 54 43 25 72 56 13 50
28 98 88 16 100 86 17 46 29
19 82 52 48 20 34 52 33 86
31 25 24 81 80 11 88 85 99
52 33 29 84 76 91 28 37 39
60 25 18 31 50 76 26 67 59
43 76 30 12 27 35 20 100 54
95 45 89 98 55 30 86 48 73
48 31 72 96 80 23 12 49 39
16 34 71 99 96 61 41 16 61
78 36 63 93 67 15 41 45 29
0.7253
0.547961
0.457477
0.752774
1.75016
0.620847
1.1591
0.53541
1.54607
1.73933
1.12001
0.83408
0.574564
0.647976
1.2258
1.23779
0.50329
1.88927
1.69392
1.50957
1.57986
1.85511
1.89316
1.71751
1.48276
1.68647
1.62308
1.07001
1.34048
1.19847
1.14796
1.2312
1.35794
1.03719
1.80964
0.652281
1.86483
1.30996
1.59749
1.52271
71 131
330 284
385 486
160 208
75 54
412 422
162 355
24 312
32 26
255 114
229 494
33 235
397 197
96 209
149 453
378 0
318 44
101 403
256 204
253 243
321 440
297 185
450 173
398 382
362 128
50 449
310 359
4 299
496 448
125 107
300 107
403 283
99 239
390 312
268 142
260 81
236 460
61 312
198 356
247 298
2563.75
4
