40
9
0 0 0 0 0 0 0 0 0
17 38 59 79 34 24 40 62 20
25 83 91 81 99 87 89 67 53
22 22 80 67 60 36 22 16 80
59 46 55 96 78 96 21 42 96
30 90 96 63 93 55 79 76 97
22 39 88 43 96 40 35 51 87
82 21 77 90 11 39 57 46 11
97 82 59 47 91 59 57 59 57
86 32 58 53 49 83 17 64 16
89 50 24 56 24 98 54 12 35
52 67 15 77 34 73 97 13 15
51 96 77 64 31 56 84 17 95
77 17 70 19 18 97 11 23 44
91 78 73 97 45 40 55 29 23
89 97 36 50 54 18 97 13 35
50 13 25 51 78 14 64 86 63
99 16 100 32 49 37 71 61 94
84 84 19 18 92 26 97 25 61
18 51 55 82 61 58 55 94 94
90 43 62 43 92 15 15 93 36
36 69 57 25 58 10 32 19 13
93 50 53 47 91 18 12 69 15
27 51 79 12 87 49 86 91 22
36 87 41 44 82 89 42 44 65
59 79 72 59 31 48 37 53 91
69 77 48 42 18 60 87 61 86
28 84 40 60 43 36 72 40 91
34 68 57 58 21 27 32 46 65
77 95 96 53 79 15 85 89 75
74 18 97 40 87 86 84 52 100
95 70 82 55 14 32 74 47 43
17 24 85 48 59 92 71 57 51
17 80 41 49 93 89 99 44 77
10 34 99 28 57 66 18 23 30
31 43 25 72 52 40 73 32 20
85 52 71 14 28 34 27 98 10
48 17 73 94 80 60 78 50 65
76 11 41 85 37 84 19 92 28
45 34 40 42 96 26 24 11 57
0.38009
0.165427
0.48303
0.292229
0.452319
0.345027
0.413945
0.195397
0.112219
0.139407
0.490523
0.358702
0.434396
0.104168
0.28153
0.420389
0.473444
0.334932
0.219728
0.170733
0.22652
0.158745
0.225945
0.488248
0.139
0.488133
0.320637
0.134225
0.235953
0.3739
0.331672
0.248961
0.106377
0.420968
0.455383
0.164223
0.343595
0.138348
0.229871
0.288083
402 60
66 485
146 51
470 436
191 230
178 281
212 477
75 24
385 416
141 461
226 235
171 272
198 137
164 382
468 166
442 195
494 377
94 378
86 172
186 119
252 182
181 211
272 345
127 305
322 200
336 246
486 346
491 419
127 294
453 262
50 361
112 499
440 182
58 341
371 151
329 233
360 494
420 243
209 463
435 326
2156
5
