40
5
0 0 0 0 0
42 10 32 86 70
42 31 51 12 35
21 91 67 20 21
43 12 59 41 50
87 38 84 95 75
16 18 42 34 65
11 72 81 16 37
81 59 79 29 12
14 62 52 73 49
17 83 24 21 59
13 26 17 58 81
100 74 64 23 65
52 20 33 57 24
42 92 48 13 65
21 52 20 21 58
26 64 95 69 96
52 84 84 62 54
93 90 31 28 82
41 53 54 84 37
44 78 32 24 11
71 52 95 19 59
75 64 53 84 80
99 19 19 52 85
31 81 11 42 55
36 26 10 20 55
64 93 23 92 35
46 72 36 25 74
83 60 99 86 87
98 67 84 15 63
15 38 97 94 22
70 69 53 53 47
69 89 10 17 48
92 15 54 45 48
95 74 79 65 95
89 62 73 20 58
52 48 78 90 80
23 96 33 56 91
90 78 67 66 99
10 77 89 89 52
1.93394
1.50181
1.84114
2.4337
0.934255
1.8688
0.782385
1.24777
2.20595
1.69298
1.8583
1.11769
0.722216
2.0491
1.14647
1.23136
1.21991
1.11616
1.20567
2.09001
1.75967
1.29154
0.764707
1.43101
2.29938
2.04796
1.92064
1.59593
1.78356
2.15431
2.23142
1.14373
2.46528
2.35479
2.4526
0.980262
2.22856
0.836704
2.25382
0.710273
462 345
451 232
183 262
290 71
414 111
98 375
161 37
31 344
416 125
113 310
309 332
81 121
68 421
340 71
127 298
298 469
465 206
199 325
377 244
189 400
260 38
494 106
173 452
160 195
315 143
68 19
202 187
455 351
230 20
258 181
320 420
273 266
403 469
444 66
128 180
16 204
284 36
350 337
151 303
479 9
2660
4
