40
5
0 0 0 0 0
63 67 96 34 91
84 13 46 95 100
49 57 24 65 93
87 89 10 51 31
44 32 43 46 72
17 36 20 51 45
82 79 77 69 34
16 64 98 42 36
65 14 48 54 61
50 91 14 88 59
92 37 43 96 33
64 97 67 35 25
66 23 12 99 54
15 13 64 53 48
15 58 32 74 71
85 32 61 45 49
27 30 60 80 51
76 79 85 98 20
57 81 36 46 73
61 58 39 28 64
10 93 27 31 68
94 40 33 80 70
90 63 94 53 77
88 68 78 23 28
56 11 76 76 61
49 73 56 27 44
41 43 32 35 93
61 92 35 31 15
21 52 35 47 82
25 40 23 31 14
18 45 11 18 45
16 56 21 59 58
15 39 77 46 96
100 31 20 16 75
56 14 44 82 72
13 56 14 100 48
61 62 97 47 27
44 25 65 50 42
46 83 91 99 49
0.405382
0.288752
0.321559
0.22614
0.362528
0.174246
0.193248
0.308271
0.240796
0.435169
0.43674
0.397852
0.184187
0.121294
0.436704
0.153989
0.178444
0.124246
0.438655
0.321528
0.154423
0.12783
0.171105
0.14754
0.356166
0.28854
0.372264
0.339195
0.101607
0.336097
0.216124
0.359365
0.427451
0.480592
0.217666
0.34448
0.37101
0.159758
0.112588
0.167534
320 292
386 65
186 199
334 181
170 418
487 423
220 196
475 381
298 185
194 486
370 200
291 251
394 280
125 96
484 232
140 419
333 26
120 305
58 462
293 442
448 396
422 418
314 314
237 398
239 97
221 246
443 207
277 282
7 246
409 9
134 141
477 150
184 250
268 444
162 235
102 419
95 283
192 61
72 132
3 34
10330
1
