40
3
0 0 0
31 56 37
45 77 72
65 61 36
83 28 60
77 33 82
12 13 42
67 45 91
66 11 16
44 31 54
18 35 52
48 41 58
48 52 83
74 18 62
70 66 14
58 73 64
26 98 13
93 42 55
67 54 24
53 40 86
31 76 86
50 58 83
71 19 60
57 90 41
25 74 22
92 54 40
96 49 58
57 88 49
68 30 10
82 30 80
88 38 26
34 42 83
48 56 70
27 18 28
47 80 20
54 64 85
33 96 17
28 11 32
70 68 68
92 49 19
0.171394
0.386193
0.485134
0.361802
0.218963
0.210681
0.392423
0.213942
0.497628
0.465537
0.258023
0.279928
0.411314
0.327171
0.47538
0.401967
0.349945
0.419104
0.387262
0.162026
0.145499
0.441216
0.335441
0.437579
0.431495
0.225243
0.469807
0.288899
0.449879
0.249267
0.258178
0.29173
0.433672
0.457354
0.364436
0.13605
0.419808
0.200398
0.307334
0.470297
286 409
437 10
161 426
432 32
298 457
366 335
462 241
346 28
56 103
345 384
184 119
248 72
330 91
389 123
421 204
329 98
228 343
104 116
186 395
289 143
128 112
99 15
62 40
267 308
452 354
0 310
328 466
97 360
310 328
69 314
262 180
356 439
232 283
252 282
364 366
137 322
336 182
458 155
495 202
350 3
3408.33
3
