40
11
0 0 0 0 0 0 0 0 0 0 0
84 17 88 73 71 77 50 73 40 83 14
45 83 75 30 87 75 97 18 23 81 99
11 19 63 51 41 33 76 100 65 84 13
96 44 26 86 45 66 15 44 51 14 53
77 59 35 26 94 68 71 17 59 60 18
49 73 67 54 10 74 11 58 89 34 73
70 87 57 68 73 96 20 57 54 92 33
41 48 33 54 65 26 38 67 95 53 44
76 81 24 87 12 44 87 73 34 73 48
71 73 53 96 69 20 21 71 50 94 39
40 13 15 21 27 57 61 57 23 97 78
10 70 52 41 27 26 77 74 85 80 90
75 73 78 21 78 54 23 83 43 89 77
44 85 54 65 11 53 60 80 95 13 51
51 48 30 82 75 89 92 51 19 50 47
80 39 27 91 75 87 85 94 22 79 74
43 30 14 94 62 52 16 70 65 81 95
87 73 34 35 74 69 66 68 83 67 81
71 96 28 46 15 40 48 54 18 100 89
92 38 35 84 25 76 71 34 79 46 80
48 87 30 37 55 53 46 42 62 51 47
22 33 70 27 46 19 24 44 82 35 74
79 23 54 90 99 83 89 11 84 66 76
10 46 34 40 42 70 34 78 95 38 49
32 70 56 18 65 82 48 98 98 25 80
56 13 22 92 47 84 93 75 59 88 44
13 26 88 12 23 65 92 33 81 85 63
90 68 19 17 19 78 21 79 37 69 48
56 56 33 20 11 30 86 14 46 99 74
95 32 35 40 32 54 69 42 87 100 84
100 32 60 66 83 56 81 78 52 65 37
50 79 74 80 91 10 88 35 85 39 41
71 42 26 29 95 78 29 51 43 57 26
40 96 44 46 22 57 75 43 82 41 45
24 59 56 54 70 92 47 58 97 29 61
43 27 83 24 74 53 56 36 20 14 47
74 59 16 69 50 60 70 38 32 29 83
40 17 61 79 34 51 27 63 36 97 94
60 42 29 28 20 14 49 75 63 44 69
0.914168
0.256718
0.992312
0.925642
0.416728
0.540884
0.345694
0.311863
0.800854
0.436863
0.484956
0.56405
0.846196
0.396346
0.603537
0.82118
0.291969
0.917069
0.772868
0.405915
0.767412
0.497787
0.774216
0.578095
0.564009
0.819897
0.443233
0.752396
0.948512
0.967047
0.290448
0.705451
0.307195
0.820167
0.667627
0.389759
0.910089
0.541472
0.810467
0.909775
323 52
481 222
333 101
204 258
163 385
428 116
149 53
469 435
344 394
47 395
447 216
485 127
250 163
430 480
498 352
49 121
259 335
184 260
15 446
341 281
475 131
5 469
92 216
126 202
132 169
198 411
188 172
489 485
190 40
442 405
7 466
371 10
430 203
274 198
8 9
472 170
255 471
451 287
167 131
393 69
2722.5
4
