40
3
0 0 0
24 83 55
38 48 84
74 36 83
59 34 25
97 27 51
87 41 70
15 43 63
50 30 87
91 91 26
25 80 84
92 22 64
95 88 47
96 46 24
96 20 83
71 100 99
62 75 23
74 30 74
70 65 23
58 50 88
33 99 28
69 20 24
53 87 67
37 70 89
69 94 58
66 71 90
90 31 88
28 99 50
26 52 97
78 48 14
47 29 100
95 42 56
93 51 73
14 83 72
18 97 70
23 20 20
89 93 39
10 99 80
62 98 32
26 82 65
1.18563
1.5198
1.68692
1.88882
0.707475
1.81109
1.49279
0.668137
1.24935
1.17418
1.96337
0.528652
1.36628
0.500253
0.975396
1.32871
0.979589
1.00619
0.895291
0.949948
0.981341
1.58139
1.27148
1.16858
1.31766
1.63755
1.54619
1.24937
1.38468
1.12562
0.756409
1.19554
1.63361
0.558024
1.28706
1.63138
1.88953
1.56447
0.628714
0.429702
306 38
126 396
16 121
54 361
67 424
478 233
89 461
410 465
446 318
333 32
451 495
4 50
8 412
216 395
213 369
52 1
305 336
476 495
233 52
380 328
177 362
465 495
136 125
395 370
259 218
317 14
262 270
4 29
383 66
294 261
300 27
36 306
461 198
347 150
240 21
64 69
380 474
453 71
429 415
144 25
3910
3
