40
5
0 0 0 0 0
76 88 92 68 21
56 42 76 63 95
20 26 33 93 84
24 24 13 100 67
35 28 29 44 92
12 74 31 16 20
71 44 59 65 12
75 54 94 11 54
60 72 66 76 65
79 70 37 16 37
41 17 51 23 92
74 82 61 20 84
12 57 93 30 44
38 15 45 67 44
67 92 88 39 61
45 77 58 93 91
49 39 53 72 47
56 52 13 45 47
70 30 20 37 18
56 51 78 72 14
80 63 57 88 15
26 28 100 13 26
99 81 85 67 24
94 13 63 39 77
81 28 73 78 51
97 99 80 78 22
81 56 66 45 35
89 87 86 21 59
85 36 74 27 21
15 30 99 68 41
41 71 100 65 14
20 43 90 11 23
86 69 34 73 74
58 88 35 17 47
74 50 63 75 73
18 88 59 27 78
26 40 45 54 67
20 27 48 56 53
20 76 18 89 53
1.1806
1.78285
0.748373
2.46819
1.01409
0.608878
1.51307
2.4458
1.87354
2.19926
2.08876
2.23869
1.12724
2.39587
2.36195
0.603344
1.18924
1.26431
1.48767
0.88561
0.668149
1.29952
0.705648
2.42147
1.15509
2.26211
1.37911
2.07381
2.40276
1.6798
1.51465
2.39789
1.01429
1.00165
2.46362
2.03383
1.86529
2.0316
1.76958
2.09277
111 160
295 223
78 166
425 107
111 381
211 371
169 234
179 25
3 17
222 235
419 466
113 499
479 126
81 418
110 231
246 40
138 108
155 346
302 27
50 328
484 454
156 351
215 404
317 200
351 449
136 471
484 432
37 350
221 302
308 159
382 321
212 430
158 385
233 436
358 209
260 262
23 332
155 308
249 8
79 185
10580
1
