40
7
0 0 0 0 0 0 0
63 66 26 96 11 98 42
10 80 54 96 88 58 39
17 34 36 93 68 15 25
89 79 60 34 91 52 77
26 40 61 26 95 65 17
35 35 39 89 16 16 40
97 15 90 36 82 67 23
51 72 61 45 33 48 37
37 56 68 23 54 99 39
57 78 44 84 48 87 81
91 16 16 85 16 64 61
31 29 44 42 90 79 45
44 36 72 94 65 40 18
81 34 90 98 10 99 24
13 69 59 50 93 45 61
89 14 10 18 26 63 60
65 88 34 96 89 11 32
25 50 83 71 81 59 41
95 33 100 14 84 80 92
13 73 28 73 76 87 85
13 30 68 96 25 51 27
76 18 81 77 74 92 23
64 67 76 88 72 21 47
39 12 70 67 25 94 81
44 71 73 13 38 56 27
77 48 86 37 68 33 10
19 50 18 34 73 87 97
73 87 48 55 93 96 16
11 93 71 50 96 87 46
11 70 68 88 51 63 97
67 79 77 89 73 85 48
77 24 34 75 64 57 76
59 41 84 83 49 50 95
82 79 18 73 41 66 36
58 33 14 61 72 43 89
92 22 45 61 33 19 89
42 50 30 92 91 51 96
90 40 31 77 25 30 15
15 38 55 97 37 78 52
0.272931
0.982687
0.975564
0.530446
0.832665
0.97582
0.590775
0.431308
0.972617
0.526192
0.497509
0.805976
0.314071
0.626049
0.431897
0.343567
0.580521
0.399125
0.557732
0.389313
0.414531
0.257499
0.907685
0.430186
0.746315
0.662129
0.449006
0.320152
0.780736
0.916142
0.849081
0.425774
0.969291
0.762672
0.585683
0.712724
0.304895
0.535272
0.715248
0.901754
327 250
493 464
318 332
116 329
212 432
445 125
32 298
272 167
328 150
179 186
32 313
378 145
258 215
313 471
96 13
396 386
435 176
410 355
152 469
343 160
193 201
167 75
208 424
401 347
148 429
372 27
88 113
373 165
478 462
278 321
334 237
383 108
41 403
86 447
257 68
159 192
494 297
284 97
4 184
116 449
5497.5
2
