40
11
0 0 0 0 0 0 0 0 0 0 0
81 54 24 44 19 12 28 95 84 72 42
13 71 24 91 16 66 16 16 29 74 99
77 78 67 87 91 65 80 89 12 94 95
92 75 42 21 97 84 12 57 19 11 71
71 63 66 73 21 32 16 34 96 29 88
63 40 46 69 36 26 57 62 25 29 85
98 54 12 78 67 92 23 80 71 60 55
31 60 59 70 63 49 21 34 36 46 96
35 60 69 70 59 77 52 33 44 79 26
66 71 61 13 43 79 15 54 77 77 36
38 24 30 72 45 15 86 79 90 12 34
77 80 60 38 61 74 42 95 71 78 97
47 10 73 60 26 15 59 65 96 13 80
100 18 52 50 73 12 10 62 20 34 39
35 26 99 20 91 13 85 51 56 24 85
47 75 61 52 21 54 49 25 25 36 73
13 85 36 89 64 59 17 63 75 41 45
80 26 52 49 45 43 74 62 12 17 20
24 31 96 98 29 89 51 56 75 49 86
39 68 90 45 27 42 73 86 84 12 41
49 96 39 83 20 57 77 28 91 80 75
67 97 76 40 85 27 28 46 86 71 92
100 59 92 82 75 95 71 90 21 51 31
26 89 87 65 59 74 18 48 25 24 17
47 43 47 56 34 39 44 34 94 27 60
71 99 43 47 37 77 35 84 97 56 100
32 63 97 81 25 89 76 88 63 47 99
15 49 93 52 51 56 83 76 98 96 59
46 99 30 52 11 28 62 10 49 69 66
24 37 42 71 33 46 79 99 93 43 38
77 17 95 23 50 58 100 14 70 70 11
32 48 88 72 31 72 27 91 91 83 64
92 49 32 42 53 84 48 31 53 91 84
29 100 27 70 26 70 83 17 27 21 86
20 14 32 46 35 43 55 77 46 59 93
77 43 84 86 27 47 16 85 36 92 63
61 62 57 57 96 39 29 46 27 98 95
52 72 63 50 28 24 27 36 58 70 86
29 70 58 70 24 25 93 98 43 89 89
0.156456
0.170234
0.47773
0.127145
0.405521
0.475424
0.357983
0.318671
0.144671
0.34572
0.382039
0.443114
0.282326
0.284012
0.212882
0.137541
0.102341
0.109723
0.194154
0.351317
0.185061
0.213395
0.103195
0.407036
0.185962
0.321606
0.195329
0.103544
0.415725
0.260612
0.247009
0.453091
0.357576
0.325209
0.220482
0.100919
0.362117
0.49361
0.210348
0.257449
422 137
203 44
174 442
296 476
304 270
325 92
223 322
477 130
431 278
10 295
395 450
410 134
19 120
236 382
107 459
100 433
460 148
299 434
57 485
29 371
251 358
309 179
142 494
370 445
381 478
280 225
167 227
442 278
402 23
133 1
329 19
192 236
182 66
473 202
57 262
383 39
272 9
27 293
481 133
148 205
5460
2
