40
11
0 0 0 0 0 0 0 0 0 0 0
50 41 90 89 27 50 46 99 58 72 56
10 24 64 16 45 14 30 72 17 69 32
47 18 92 85 22 77 78 57 23 98 13
37 61 71 46 68 20 39 73 36 31 45
86 16 77 88 61 23 51 30 26 77 39
21 26 68 52 88 57 74 81 59 58 86
78 29 39 46 33 32 27 98 19 62 87
11 16 71 36 40 100 74 100 33 92 69
24 72 79 59 29 67 33 60 65 35 68
61 23 44 31 50 90 72 61 79 32 73
50 69 36 93 45 89 40 50 20 82 87
97 33 46 24 72 14 44 22 63 77 97
55 91 90 59 64 89 22 81 93 44 14
16 15 18 17 66 95 47 12 40 68 85
36 59 99 66 93 54 40 71 63 55 100
77 41 18 47 23 12 77 40 50 63 11
87 66 30 48 63 67 57 14 32 28 24
34 12 43 29 61 53 75 93 95 37 90
68 54 16 83 52 23 95 91 59 20 94
99 28 38 86 75 64 17 37 49 27 66
71 92 33 50 60 87 18 41 43 79 13
66 64 54 39 36 71 16 27 11 78 46
96 92 33 44 87 26 18 51 64 36 14
24 44 32 66 36 45 31 39 55 21 91
38 74 99 47 75 41 73 38 48 26 15
96 100 61 51 87 54 16 85 62 25 83
97 15 10 30 40 91 88 49 91 58 58
87 66 92 71 39 28 28 59 54 13 64
11 56 67 39 65 82 32 58 52 78 39
36 50 21 18 45 71 95 74 61 66 11
76 69 95 38 78 36 72 40 83 40 34
28 97 39 79 77 33 25 29 39 29 78
79 44 75 50 55 37 90 37 71 61 78
86 13 15 25 35 44 63 34 82 95 32
16 85 25 19 14 27 65 68 52 38 36
72 63 62 66 24 78 35 71 79 27 18
81 64 77 77 71 50 12 11 82 69 60
67 45 81 57 56 41 32 77 72 68 39
52 80 20 33 94 34 46 56 51 83 34
0.566288
0.752073
1.22385
1.98861
0.523341
1.53816
1.63697
0.625552
1.57662
0.812625
1.2034
0.717974
0.403549
1.32133
1.70883
0.768028
1.38712
1.22823
1.65563
1.75833
0.557698
0.452024
1.03695
0.405363
1.96562
1.60043
0.586393
1.53494
1.66954
0.864375
0.60476
0.576789
0.760202
1.79783
0.8501
0.934392
1.20668
1.95595
1.19723
1.92564
380 347
254 306
366 131
39 205
149 303
220 434
155 311
209 387
102 93
402 368
425 193
102 361
48 313
287 206
14 268
80 222
127 251
382 339
206 315
439 131
499 398
314 260
286 242
286 252
30 157
327 256
158 111
485 401
99 198
180 98
233 128
102 435
381 378
257 379
144 54
415 331
407 183
59 208
69 495
469 222
2610
4
