40
9
0 0 0 0 0 0 0 0 0
76 15 95 82 96 40 27 77 91
13 63 12 61 35 64 36 26 78
19 97 42 70 67 93 50 80 87
22 37 82 18 52 63 53 36 55
90 81 99 19 38 14 75 55 20
60 92 97 63 35 87 15 50 40
22 56 54 60 22 80 37 14 94
28 73 11 54 30 84 71 99 69
41 42 28 62 79 97 90 32 92
20 28 84 55 46 35 98 71 45
40 78 68 68 20 28 87 96 27
92 52 26 95 62 14 18 87 15
11 44 17 83 75 44 88 58 66
13 38 66 59 50 10 13 94 56
29 19 49 26 73 17 49 45 51
34 27 37 31 30 33 29 62 22
59 81 37 35 18 50 41 58 89
54 75 35 40 86 56 80 78 86
41 92 76 49 48 18 88 77 64
36 47 58 42 74 39 66 76 78
56 59 10 61 99 20 14 76 50
31 35 87 24 42 18 60 95 35
52 79 27 25 17 79 99 29 97
46 84 12 22 76 21 30 51 68
35 51 12 12 91 18 56 55 15
40 94 20 57 19 41 21 38 45
68 87 63 39 35 44 25 21 71
14 37 25 51 33 78 93 73 41
13 100 95 14 65 73 89 22 100
36 68 63 65 21 57 10 27 27
18 93 63 61 73 50 98 19 39
65 81 84 37 54 69 58 88 52
51 51 57 95 93 73 32 39 90
48 42 59 38 50 76 53 10 96
25 67 40 12 25 17 68 89 62
50 31 63 65 32 71 25 67 57
39 26 15 71 55 41 52 93 34
60 65 89 95 99 52 29 100 65
10 37 87 25 41 67 100 96 100
1.16063
1.4443
1.23877
1.46075
1.12479
0.982975
1.40802
0.728226
0.511752
0.859639
0.376329
0.409843
0.509618
1.4228
1.3914
0.8761
0.795271
0.920479
0.733362
0.5833
0.390243
0.56654
0.788136
0.431528
0.563921
0.562536
1.02864
1.34117
0.974281
1.02892
0.947169
0.72097
0.859164
1.43349
1.26928
0.922459
0.813806
0.502247
1.31154
1.18906
449 135
492 370
204 456
357 3
480 285
46 479
55 296
81 16
444 164
419 435
323 45
333 298
199 500
349 268
56 86
44 108
209 157
460 70
367 441
416 239
61 140
46 303
88 54
369 147
6 340
285 326
246 362
446 59
256 428
49 46
403 396
1 254
75 292
457 387
13 489
52 125
336 97
436 286
147 38
233 17
3463.33
3
