40
7
0 0 0 0 0 0 0
77 45 41 36 89 15 20
71 40 41 67 82 53 16
79 45 39 47 19 73 89
83 15 49 85 86 23 45
17 82 60 80 73 91 58
61 48 23 71 56 51 60
58 49 23 28 47 24 35
23 24 54 23 49 46 96
41 73 57 98 34 82 42
29 56 95 33 54 63 53
38 11 80 19 42 22 28
17 84 43 30 95 63 77
50 38 53 96 35 51 11
43 35 29 85 68 54 38
72 48 17 62 92 100 13
59 25 46 37 16 63 51
58 13 84 55 74 79 38
93 74 85 81 41 94 75
28 49 40 72 68 20 91
44 41 63 73 53 99 98
82 98 69 32 37 38 58
84 16 59 22 55 69 71
85 48 86 46 71 32 66
91 82 26 75 57 64 22
89 52 18 65 73 12 82
71 56 39 57 88 94 63
71 63 76 53 72 36 93
61 87 40 16 97 56 15
21 14 36 63 92 44 85
67 65 84 57 54 68 10
25 99 47 23 92 85 12
73 93 28 79 52 33 36
39 79 19 28 60 76 93
30 54 67 57 41 85 75
38 82 81 89 39 12 58
69 21 69 61 14 34 25
48 53 39 61 90 15 37
17 73 49 37 62 52 57
81 91 23 43 36 54 43
0.393871
0.321509
0.132297
0.112176
0.229585
0.385424
0.362715
0.482775
0.344151
0.294768
0.274829
0.260845
0.250431
0.368226
0.314805
0.200186
0.216436
0.223331
0.437023
0.175212
0.282713
0.283871
0.416512
0.289186
0.309563
0.349824
0.352741
0.308117
0.236336
0.314617
0.216657
0.225226
0.264763
0.454455
0.152298
0.259778
0.446438
0.114507
0.181715
0.494135
170 257
198 142
104 249
5 27
32 129
121 276
352 43
117 124
107 436
346 422
80 200
141 383
339 207
149 119
477 245
234 494
297 486
130 52
54 254
335 75
65 164
285 459
240 323
25 279
182 262
338 462
229 249
105 347
205 374
233 463
186 229
265 214
61 264
255 352
260 430
43 120
212 118
258 234
62 204
129 12
3556.67
3
