40
9
0 0 0 0 0 0 0 0 0
63 51 13 28 19 43 14 25 85
37 38 42 71 87 29 80 26 59
75 73 45 78 70 58 26 59 100
78 20 76 27 74 36 43 46 19
20 87 67 16 75 58 83 85 41
69 86 92 100 85 65 11 85 94
15 43 66 81 65 79 82 48 82
44 87 78 64 21 84 76 98 80
68 45 17 26 73 39 38 47 22
94 83 67 66 57 59 80 100 39
58 40 34 46 29 60 46 14 98
93 12 69 52 35 91 49 84 87
54 25 94 81 85 31 63 75 45
63 40 82 33 56 36 44 84 19
25 42 79 64 38 59 95 35 69
90 27 55 69 55 38 11 74 10
97 20 84 93 98 37 76 23 22
59 84 48 48 21 45 48 95 42
10 88 77 44 67 42 60 64 81
27 89 47 100 79 41 54 19 87
14 100 37 28 79 86 49 37 44
58 71 95 13 10 23 47 54 22
16 88 75 43 10 80 42 94 77
73 90 63 40 29 16 90 90 36
66 65 95 75 28 12 44 94 21
78 97 17 66 12 20 85 49 25
58 50 11 79 45 64 31 77 44
16 86 21 42 39 82 64 64 77
20 14 35 99 62 14 95 95 16
64 42 71 59 64 16 54 91 77
43 47 85 72 61 29 14 61 33
69 46 50 23 42 57 40 82 67
61 23 39 72 58 65 20 15 29
40 28 10 11 98 75 84 47 34
13 78 76 28 47 38 53 17 17
29 64 66 85 27 70 66 76 61
26 13 37 24 52 86 43 58 42
96 77 62 24 54 57 39 84 15
68 18 73 47 64 68 76 59 45
0.975522
1.18528
1.40457
0.762067
1.78134
1.57508
1.24207
1.55286
1.87679
0.527781
0.718143
0.556589
1.24164
0.778245
1.08538
1.53273
1.71433
1.17791
1.44791
1.83447
0.945882
1.91415
1.43559
0.761532
1.18807
0.905605
1.74327
1.79551
1.65971
1.76677
0.419037
0.991334
1.40846
1.85824
1.92916
1.09638
1.23945
1.66709
0.4713
0.589974
322 263
332 369
208 395
500 27
303 14
358 429
289 419
196 476
348 83
152 463
134 10
494 379
87 480
125 307
367 239
70 163
255 355
96 7
406 20
387 129
87 481
235 101
415 318
326 199
303 487
256 83
1 297
337 34
487 361
1 378
105 257
386 13
38 497
25 91
214 414
145 9
313 113
203 224
196 76
165 150
2128
5
