40
9
0 0 0 0 0 0 0 0 0
41 20 22 60 17 65 25 53 84
23 55 16 19 30 26 96 86 85
77 44 93 31 29 23 72 29 96
57 41 13 59 35 56 22 72 50
52 35 27 28 50 63 33 56 40
27 71 74 16 66 68 69 45 94
55 83 16 63 81 36 47 65 49
15 69 61 36 33 78 15 62 98
56 13 69 82 80 57 71 17 54
28 28 44 39 82 95 76 93 88
100 39 72 54 65 19 41 67 51
98 62 26 16 92 24 56 43 85
39 28 66 43 23 66 51 59 70
26 68 100 77 95 73 11 13 46
38 44 59 78 80 17 99 19 11
84 30 25 50 38 33 64 82 24
14 69 16 27 49 81 85 13 55
74 79 75 14 48 23 75 41 10
67 90 79 61 46 86 39 67 89
60 71 96 68 11 37 15 70 13
92 24 90 68 31 87 96 74 23
77 63 55 66 43 86 14 45 97
37 39 57 78 31 13 14 37 81
64 91 19 64 60 79 63 21 75
37 50 33 27 16 43 11 34 16
44 30 53 58 57 57 55 82 17
97 82 75 67 56 71 65 35 73
89 15 47 39 80 99 24 65 54
12 74 84 49 99 57 18 87 41
82 72 77 24 22 72 55 66 39
100 50 82 89 59 76 36 87 62
46 24 47 56 78 40 92 61 92
73 58 53 57 51 28 89 49 40
39 21 70 67 38 49 40 11 22
72 62 53 58 45 67 68 53 28
90 53 71 70 86 15 100 61 87
69 85 97 86 53 79 23 18 86
70 90 74 23 35 76 12 37 31
30 56 65 34 59 66 31 51 58
1.44094
1.28127
0.407921
0.410676
1.23417
0.360384
0.711707
1.03773
0.4774
1.1016
0.53143
0.491384
1.29618
1.22278
1.29605
0.54218
0.606739
0.461198
1.18124
1.05283
1.32944
0.448863
0.525524
1.06978
0.726258
1.15033
0.369735
1.48482
1.3508
0.966881
0.398465
0.733903
0.873519
0.921237
1.37735
1.31726
0.523104
1.1424
1.12389
1.24718
400 189
187 224
24 479
432 118
328 367
11 148
298 349
181 200
122 214
383 496
260 121
312 97
227 463
94 200
288 243
267 246
277 143
81 185
392 376
248 406
455 396
85 335
429 400
490 257
68 276
79 165
471 56
404 64
274 256
467 479
363 96
19 123
461 338
26 141
100 345
68 30
272 478
279 271
142 425
19 468
3521.67
3
