40
11
0 0 0 0 0 0 0 0 0 0 0
12 71 50 93 91 15 43 66 17 74 55
24 20 91 90 81 22 93 47 53 94 75
55 35 67 32 67 14 99 98 65 25 28
21 31 40 30 12 30 63 55 61 96 47
16 10 56 41 70 27 52 59 85 39 84
92 52 59 74 18 63 39 44 42 82 18
57 33 72 80 26 49 47 89 58 99 63
56 13 69 16 31 36 70 18 15 80 62
78 100 10 80 86 87 88 27 13 23 28
32 66 50 97 82 92 99 76 55 36 52
70 42 48 73 35 19 86 14 34 93 72
22 74 82 80 55 44 74 42 45 23 33
27 74 19 24 22 74 68 46 20 29 26
71 65 85 74 30 68 50 84 39 35 23
50 92 43 71 66 54 91 38 30 49 33
40 30 17 79 38 98 90 55 81 32 73
16 76 77 95 32 85 87 63 66 39 10
41 43 28 29 88 90 71 73 81 96 37
15 94 88 36 44 12 36 77 19 72 90
96 89 12 55 46 99 70 96 98 22 77
33 50 16 67 15 69 73 22 35 12 36
42 89 44 55 68 38 77 75 42 65 77
32 34 42 91 100 23 17 63 40 45 60
15 74 91 46 83 73 24 19 88 79 79
66 95 67 100 94 56 86 85 17 73 30
95 98 44 34 42 91 63 63 67 100 45
39 84 24 81 70 49 59 72 77 83 49
32 80 17 48 36 69 45 36 54 96 27
61 25 59 88 79 57 77 11 56 15 92
39 48 73 18 56 41 32 82 48 95 25
58 66 37 95 82 49 33 30 10 93 83
53 19 49 46 69 25 28 95 25 87 18
22 21 60 76 74 86 85 52 85 71 66
93 44 30 96 56 88 78 31 58 37 24
84 19 34 36 53 49 83 79 61 38 48
34 58 23 32 27 25 27 74 81 50 100
53 78 18 13 73 45 28 83 49 62 35
23 34 93 62 39 10 13 33 42 18 58
63 27 28 45 71 19 12 32 95 83 13
1.28862
0.531816
1.51877
1.00556
1.55858
0.69029
0.926549
1.96701
1.96795
1.01358
1.17928
0.718654
1.71061
1.96665
1.66136
0.648099
1.07201
0.68702
1.21345
1.47688
1.93913
1.33419
1.38332
1.03036
0.645463
1.43641
1.57542
0.633131
0.479989
0.674594
1.18523
1.18508
1.51913
1.05832
1.50902
0.563587
0.969536
1.73632
0.789452
0.458235
315 265
389 468
194 431
158 431
52 497
329 244
366 66
163 275
486 16
135 24
392 434
335 474
345 5
358 363
20 201
272 82
373 97
51 65
445 105
354 500
343 289
412 2
379 463
345 371
243 129
153 303
380 82
158 358
489 333
107 228
275 150
33 244
33 57
48 303
99 367
398 182
215 225
289 169
334 287
153 55
2656.25
4
