40
11
0 0 0 0 0 0 0 0 0 0 0
74 36 11 77 25 27 19 35 44 41 64
90 79 90 43 49 29 48 57 29 10 61
61 73 21 75 12 69 55 64 78 52 10
15 59 96 11 96 98 12 11 66 76 74
58 28 28 67 38 26 80 92 82 76 97
81 100 57 83 37 78 89 63 68 46 89
25 44 97 48 83 83 87 32 20 65 11
19 49 93 93 37 12 76 32 55 64 100
18 63 18 19 28 88 43 61 92 32 71
54 13 61 89 62 81 16 65 93 58 45
76 50 17 80 58 38 92 76 47 21 64
17 17 32 58 89 28 24 85 57 34 58
81 41 40 15 87 21 73 99 23 95 36
17 33 99 46 30 70 64 97 77 53 11
73 56 72 21 18 39 83 92 90 17 35
57 22 24 87 83 88 33 37 82 71 30
65 55 17 29 11 48 44 67 87 94 98
60 83 45 14 16 50 78 22 37 79 77
26 14 32 10 63 16 76 85 30 95 93
11 54 44 20 54 35 25 52 21 24 41
87 14 33 29 88 78 24 32 50 86 91
71 45 92 74 94 57 20 73 89 82 39
64 78 27 86 73 95 76 80 27 80 67
56 45 17 89 95 52 72 65 44 87 71
58 36 56 60 84 21 71 24 67 93 95
39 87 64 82 52 10 20 63 93 84 53
13 97 74 12 37 26 51 80 13 95 56
100 87 96 28 23 68 64 34 41 96 60
26 94 82 19 75 51 27 68 85 42 22
22 56 59 20 49 10 80 82 99 25 54
84 94 34 45 89 94 52 63 22 11 11
85 92 77 85 28 13 70 21 40 60 85
87 58 65 30 25 93 25 92 83 41 96
38 49 90 57 47 90 41 35 100 26 78
48 85 98 92 25 17 48 79 58 29 38
14 61 96 13 82 62 27 64 88 61 92
90 92 92 34 56 72 86 38 97 60 30
71 70 44 79 85 42 61 57 16 37 94
53 41 62 55 53 100 28 81 62 19 78
0.169704
0.269694
0.107575
0.496431
0.441098
0.485051
0.296945
0.424168
0.36958
0.388049
0.451215
0.485852
0.150095
0.33266
0.486296
0.256477
0.342513
0.362892
0.410929
0.480691
0.483932
0.251963
0.341633
0.251906
0.323819
0.325345
0.462877
0.148515
0.480528
0.22023
0.127775
0.48263
0.116845
0.420844
0.105102
0.221474
0.382328
0.427992
0.466516
0.329899
288 237
190 160
4 61
27 390
464 329
444 281
307 186
412 326
84 135
230 339
167 179
410 384
32 337
451 269
36 132
213 300
87 126
169 68
341 197
211 397
374 200
113 331
86 145
75 94
447 486
497 336
458 466
336 324
294 487
446 216
351 223
3 211
129 142
178 92
175 93
336 173
377 36
180 364
352 143
28 79
10965
1
