40
5
0 0 0 0 0
73 42 44 34 55
60 81 24 69 76
75 13 60 43 38
10 64 45 14 60
56 72 51 84 90
63 18 62 41 33
99 20 68 90 31
37 43 28 49 78
52 96 29 39 27
45 54 56 52 82
28 21 43 31 68
46 35 52 89 23
35 19 19 54 67
96 90 99 19 30
72 71 67 49 92
39 64 80 27 84
89 68 43 50 28
89 81 16 58 37
40 27 71 19 24
69 96 26 66 75
72 20 53 72 60
25 35 61 34 45
33 57 90 80 87
46 33 55 17 41
44 19 42 98 70
99 73 18 80 63
22 28 89 79 15
56 92 71 100 33
60 22 55 44 41
74 23 18 79 72
62 49 30 28 57
63 68 63 82 65
55 76 73 41 59
12 65 33 25 10
40 11 23 16 63
46 44 36 74 70
26 52 17 92 50
80 12 25 46 27
99 86 72 84 38
0.811086
1.81271
1.8994
1.80422
1.11099
1.44242
1.28487
1.61752
0.405661
1.18317
1.50454
0.546668
0.579557
1.56039
0.883622
1.21293
0.693748
0.881459
0.93667
1.09811
1.65302
0.424094
1.71418
1.66984
1.49043
0.77641
1.10961
1.36551
1.12839
1.8767
1.23053
1.03345
1.5424
1.95134
1.49911
0.520407
1.83607
1.124
1.05365
1.86511
291 90
302 389
339 218
434 383
157 280
117 275
293 236
222 92
474 470
236 235
17 268
6 445
261 128
412 303
492 345
379 203
101 1
486 329
376 356
459 439
367 379
387 54
274 260
6 126
127 293
68 239
394 154
485 449
205 38
430 140
323 21
246 128
67 170
236 116
114 333
53 305
239 225
227 50
66 61
500 237
10245
1
