40
7
0 0 0 0 0 0 0
46 25 29 75 90 12 48
79 74 34 94 44 62 37
91 12 11 52 64 87 94
85 75 94 87 50 77 79
71 42 99 39 80 30 34
20 66 57 49 86 43 35
90 70 23 13 70 33 80
74 74 63 35 39 86 63
24 52 91 44 92 61 98
29 92 20 75 22 86 82
77 59 99 11 45 30 62
81 87 76 43 39 69 31
17 31 53 81 27 79 71
100 89 87 51 55 55 100
88 42 95 43 85 24 91
10 64 82 47 70 25 41
57 100 38 53 40 81 69
32 73 77 85 19 15 80
79 41 10 93 71 15 85
15 94 32 57 43 50 10
70 89 77 98 94 42 22
93 33 19 89 78 31 17
28 99 98 78 37 80 90
71 71 28 33 22 69 53
56 25 62 36 25 14 43
84 57 25 89 30 46 20
90 38 40 57 42 96 51
72 59 52 60 43 27 54
41 86 43 46 34 40 41
49 14 52 88 27 42 40
35 23 49 39 66 36 95
98 12 48 33 95 16 91
88 83 37 55 69 97 11
88 86 29 92 93 89 53
91 71 27 75 91 16 74
84 41 77 42 89 37 48
16 85 21 100 68 13 47
23 44 47 36 56 94 17
81 88 54 33 19 90 15
0.317823
0.461626
0.238135
0.40274
0.36109
0.186098
0.399295
0.181843
0.29503
0.366883
0.406866
0.120439
0.402747
0.29056
0.384018
0.33537
0.428128
0.498456
0.443735
0.36333
0.42422
0.35399
0.290466
0.273275
0.4848
0.320873
0.429406
0.462918
0.440648
0.262071
0.339679
0.454284
0.257149
0.288129
0.432564
0.310095
0.243352
0.464809
0.308266
0.465564
236 21
266 17
374 211
410 7
490 142
64 112
150 70
425 138
292 227
86 95
57 128
128 133
360 281
30 162
262 323
398 229
291 313
167 135
92 435
88 125
395 111
290 121
42 195
347 22
209 326
359 297
246 226
472 278
117 23
203 447
87 275
204 105
492 182
159 63
151 498
274 251
198 92
162 214
108 61
42 130
3696.67
3
