40
11
0 0 0 0 0 0 0 0 0 0 0
94 98 38 27 58 84 29 10 67 59 12
73 37 79 87 94 65 12 66 34 89 19
54 85 40 46 50 35 38 44 41 17 78
76 85 64 48 36 35 16 90 52 34 79
16 55 12 55 15 39 32 29 95 29 76
23 37 94 19 40 76 55 77 85 20 24
26 18 52 77 27 72 64 52 31 82 60
22 49 85 11 56 15 60 97 23 21 80
99 49 15 19 80 85 92 31 99 38 75
97 12 45 100 17 30 32 39 47 59 87
14 17 17 65 77 14 74 60 80 92 36
29 70 29 83 27 24 25 51 81 19 13
63 45 33 38 87 97 24 73 30 49 33
78 41 24 21 15 15 32 66 70 20 13
52 41 12 56 42 68 91 97 95 64 66
78 17 79 79 52 79 20 95 100 97 68
73 41 37 54 50 84 54 30 87 64 30
57 33 49 52 83 43 29 63 10 74 79
80 60 79 38 15 48 57 16 30 87 20
15 85 95 43 94 100 97 98 13 75 41
32 43 34 46 82 21 72 86 96 18 95
88 11 34 73 29 60 45 14 96 26 34
58 51 54 27 84 76 75 65 14 62 49
11 92 12 12 34 54 38 83 47 82 79
16 39 44 55 51 81 74 25 57 52 93
100 37 69 40 51 34 16 42 44 77 36
67 81 49 20 84 85 55 43 63 52 53
56 99 10 97 39 66 39 98 35 68 24
93 14 95 16 85 71 33 55 59 83 75
84 15 29 93 54 44 21 71 89 11 62
28 42 22 11 28 87 79 20 27 39 99
47 63 22 72 44 31 61 98 72 54 63
18 79 35 96 88 71 16 59 54 75 86
57 83 81 76 90 13 88 29 50 78 40
27 26 59 28 81 89 100 17 77 51 28
23 15 93 26 64 51 100 89 18 70 14
67 36 50 19 86 47 76 81 40 55 95
21 35 47 93 98 91 10 25 90 48 77
53 65 85 89 26 10 30 45 82 70 24
0.356987
0.288439
0.270012
0.396406
0.427153
0.275052
0.225989
0.206695
0.327734
0.44353
0.399933
0.456049
0.364855
0.478305
0.426846
0.266679
0.287723
0.284334
0.279441
0.132807
0.24194
0.468586
0.166186
0.247708
0.255432
0.492038
0.400009
0.328682
0.220377
0.349833
0.171757
0.15411
0.117365
0.285975
0.413049
0.46976
0.134101
0.159241
0.262876
0.196529
99 331
275 129
107 320
309 341
269 18
18 389
17 397
115 366
339 9
270 317
48 373
290 268
87 335
330 364
216 375
438 23
159 127
93 126
10 196
276 347
266 261
76 175
162 38
393 230
33 380
146 116
481 470
80 66
480 226
208 472
282 312
475 60
191 345
117 255
255 261
386 372
232 230
220 129
488 154
139 294
3488.33
3
