40
3
0 0 0
30 10 60
50 90 54
56 35 91
100 71 63
27 20 77
98 98 39
64 36 40
40 97 98
18 60 24
10 76 16
70 23 80
100 100 23
46 47 32
25 23 49
20 54 20
85 32 70
70 18 43
43 11 79
86 60 52
38 56 83
22 76 34
36 70 76
27 59 68
33 93 41
21 10 70
41 78 47
12 16 100
10 49 14
58 83 89
25 34 85
45 10 74
91 99 73
20 14 70
61 68 65
39 32 32
15 63 13
44 39 17
47 76 54
35 33 21
0.542409
1.36076
1.07275
0.470239
0.542421
0.395019
1.2833
1.43261
0.469798
0.793524
0.574369
1.29885
0.843903
1.03139
1.47269
1.03705
1.45075
1.22643
1.12334
0.562554
0.691954
1.43825
1.2306
1.30301
1.15824
1.06205
0.387937
0.939052
1.06625
1.29022
1.19583
1.17421
0.406586
1.04436
1.26732
1.11019
1.2692
1.48726
1.17584
0.979925
89 361
283 184
199 270
323 89
29 182
301 89
303 83
276 148
274 16
92 34
290 230
447 103
299 454
14 451
118 167
196 146
445 136
482 109
337 241
434 484
10 408
482 161
59 442
84 16
30 313
416 45
424 100
251 31
58 181
190 385
277 23
196 311
78 454
297 347
63 242
298 283
475 271
339 173
5 98
336 389
3285
3
