40
3
0 0 0
39 94 88
94 49 77
41 32 14
93 10 52
46 67 89
96 59 96
62 44 90
61 63 31
70 32 91
94 99 23
74 60 89
66 76 66
38 78 76
41 87 18
89 61 34
43 16 68
53 94 33
16 47 44
92 80 45
62 41 10
25 17 38
25 73 82
22 45 49
64 91 28
24 61 97
63 73 30
91 59 80
83 20 74
88 34 81
34 25 29
59 20 46
76 41 40
85 49 80
65 88 76
18 33 90
41 77 88
91 96 78
45 41 21
49 64 89
0.377733
0.824096
0.224206
0.876492
0.744596
0.256684
0.471816
0.425048
0.597649
0.572736
0.975144
0.443629
0.55921
0.770105
0.595898
0.237541
0.860776
0.367013
0.4959
0.395983
0.888102
0.394618
0.648148
0.394438
0.368654
0.3038
0.463152
0.241088
0.690248
0.85839
0.836849
0.858815
0.969044
0.711233
0.33807
0.429605
0.736857
0.907682
0.513643
0.903691
345 78
100 247
438 309
393 238
66 336
84 238
418 201
255 63
152 493
297 75
286 57
396 249
275 212
483 87
72 240
250 495
287 202
349 434
33 251
39 393
315 136
458 30
347 248
309 466
59 217
71 139
261 431
67 218
67 431
418 333
314 387
343 168
217 262
416 49
20 279
464 28
184 261
364 403
466 223
476 206
5702.5
2
