40
9
0 0 0 0 0 0 0 0 0
90 43 31 11 54 17 67 63 35
76 58 59 76 42 95 55 73 46
20 30 26 38 75 81 31 56 35
62 86 53 20 16 34 71 38 75
81 96 24 51 54 81 71 50 57
13 51 30 46 86 80 61 26 24
93 71 93 23 37 24 51 54 50
83 78 28 59 94 39 46 42 95
22 70 27 30 62 14 45 98 81
33 46 10 80 44 88 82 54 86
70 44 79 86 32 22 39 17 24
48 42 66 28 42 64 69 81 35
13 56 90 59 83 36 41 80 44
62 55 98 69 75 36 36 79 85
51 25 37 13 80 60 93 74 59
45 14 34 74 72 53 52 67 54
77 28 94 95 44 16 85 70 41
21 33 30 69 27 96 89 32 38
68 43 76 98 37 95 21 52 33
87 85 12 69 51 50 47 83 42
83 81 54 78 34 29 84 64 57
22 79 65 56 36 83 45 17 15
84 38 15 70 19 15 18 47 90
78 73 96 95 80 39 93 66 84
19 64 72 48 72 49 79 78 48
11 78 80 65 47 48 95 66 14
100 11 100 85 66 38 45 23 92
84 72 83 96 12 53 91 50 100
94 54 80 92 66 79 65 100 80
88 79 42 68 88 62 35 47 52
19 59 16 75 36 24 43 22 26
92 97 33 58 94 98 87 35 90
94 63 52 97 12 31 20 24 21
19 27 59 49 19 68 55 10 51
91 64 55 81 14 44 70 22 51
93 78 82 36 78 73 25 53 92
78 21 84 78 19 39 69 82 11
31 15 88 99 45 92 38 80 89
19 83 38 21 72 75 93 65 12
1.33774
1.09532
1.0842
0.545966
0.373922
0.778078
0.608913
1.18809
1.47451
0.801161
0.489558
0.638649
0.54478
0.522699
0.974503
1.04037
1.31153
1.04377
0.509062
1.13442
0.66244
0.535254
1.00352
0.860498
0.756649
0.469412
1.17708
0.969289
0.626057
0.862419
1.19571
0.448284
1.18572
0.751939
1.13347
0.529051
1.41197
1.15005
1.08869
0.602807
312 488
351 458
301 418
119 195
299 30
347 125
499 383
26 81
151 412
249 390
195 309
433 117
492 114
397 264
136 165
484 462
433 24
34 184
436 211
415 477
416 237
399 171
314 211
75 488
217 73
86 230
72 393
455 169
167 166
376 328
104 20
393 19
491 390
397 460
473 33
226 42
429 334
243 457
14 97
378 72
2203
5
