40
7
0 0 0 0 0 0 0
53 42 17 94 81 70 67
37 36 15 45 33 22 48
70 23 40 54 49 25 82
23 22 41 96 91 76 98
70 24 100 79 29 25 93
93 75 95 87 26 12 57
35 54 23 22 52 99 17
40 86 73 51 23 85 74
93 76 77 43 13 58 23
49 83 23 31 14 49 26
94 74 18 30 75 90 92
21 74 67 50 13 91 95
28 34 14 70 89 35 18
19 93 93 10 91 18 44
26 66 81 99 46 40 88
48 48 71 25 69 85 24
91 37 40 25 97 31 93
64 57 14 52 33 70 84
67 74 75 49 13 49 64
23 100 18 46 30 92 75
25 41 73 62 90 36 13
37 58 55 69 96 62 71
71 61 99 14 62 94 14
38 83 19 74 45 59 74
98 29 69 78 74 82 21
31 42 20 63 96 16 33
80 40 40 99 22 45 72
39 99 61 54 25 75 79
47 19 85 56 45 52 74
58 32 51 28 42 31 62
10 67 77 87 32 93 63
18 34 44 63 33 92 61
69 79 84 83 33 89 19
33 39 81 90 29 17 77
60 56 15 28 29 43 49
48 33 20 50 39 15 97
14 85 73 55 61 53 79
72 64 41 33 18 12 85
24 78 23 33 98 14 99
0.622725
0.672311
1.15383
1.26809
1.22546
0.976532
0.408828
1.23463
0.594952
1.43309
1.32518
0.699176
1.43655
0.587883
1.40369
1.0429
0.798462
1.30773
0.46478
0.651793
1.07137
0.308531
0.923693
1.31424
1.30872
1.07407
1.2223
1.47561
0.842657
0.917107
1.04403
0.547888
0.346031
1.07398
1.2537
1.23069
0.900208
1.44731
1.33197
1.31446
465 99
424 168
276 73
84 431
391 246
205 72
242 487
53 266
210 15
421 196
466 130
321 296
217 424
88 37
85 361
201 210
23 466
169 71
6 273
439 358
82 129
461 396
80 467
443 402
358 473
380 317
438 114
274 88
372 473
100 168
388 454
385 480
203 492
328 391
99 104
211 391
126 359
374 479
373 79
362 107
2111
5
