40
7
0 0 0 0 0 0 0
21 84 16 86 33 14 13
37 62 31 55 80 92 79
80 59 40 57 53 25 46
68 90 22 68 42 56 44
40 11 79 16 100 62 12
88 33 64 98 49 48 89
36 43 79 22 14 83 60
16 66 40 82 44 87 84
43 70 72 69 51 73 88
52 58 56 36 87 69 64
63 70 17 84 25 38 70
76 28 89 72 26 28 50
32 26 77 90 48 100 55
87 16 94 42 16 72 43
83 42 13 93 22 28 97
42 60 49 68 19 61 11
92 22 99 11 50 93 16
66 98 34 21 15 10 69
47 30 41 95 46 79 38
84 66 48 44 57 30 100
68 70 13 62 48 36 58
13 47 78 61 69 94 76
80 23 57 55 84 99 79
87 48 76 52 82 84 11
22 61 90 68 44 16 90
33 81 54 23 12 31 12
96 15 50 13 29 89 28
51 99 36 87 33 70 47
94 39 85 12 74 87 42
27 78 52 50 63 38 16
27 26 86 100 10 73 49
69 37 48 88 62 52 31
41 19 13 16 75 54 54
65 76 21 36 78 10 81
77 38 15 69 58 50 54
29 16 80 43 62 96 58
22 41 19 55 85 46 13
83 26 49 81 36 53 100
27 10 22 42 95 41 17
0.196184
0.197123
0.100123
0.475821
0.259235
0.424902
0.138305
0.278329
0.294976
0.257567
0.409349
0.148348
0.274494
0.16877
0.124096
0.353124
0.418061
0.317176
0.465464
0.213087
0.398668
0.408393
0.108842
0.374264
0.21685
0.348233
0.371637
0.225167
0.273991
0.392844
0.203885
0.377174
0.328984
0.425274
0.283881
0.302635
0.410518
0.412395
0.157946
0.31473
169 420
369 98
226 427
311 223
225 207
88 386
315 320
256 52
159 170
454 249
204 284
411 495
242 411
471 47
419 32
252 435
30 22
385 261
31 163
80 77
461 338
250 276
125 359
365 35
153 124
219 132
382 455
290 370
64 481
252 116
290 415
453 334
248 384
368 262
152 323
161 57
122 51
154 70
425 90
405 367
2080
5
