40
7
0 0 0 0 0 0 0
77 67 26 87 22 88 11
29 22 52 12 14 55 53
49 76 28 78 81 42 75
30 61 32 79 91 70 90
35 22 64 34 77 53 92
61 41 66 59 92 15 92
55 77 15 38 23 34 56
91 77 95 48 39 31 82
29 82 11 11 93 61 46
15 22 37 43 10 34 31
59 73 36 34 31 30 19
67 47 60 43 67 23 11
38 29 33 78 51 23 72
46 79 88 10 90 96 94
11 32 81 96 36 26 72
34 47 52 79 12 34 24
39 94 25 100 46 29 74
11 49 65 73 78 87 92
41 70 68 30 18 21 69
26 49 91 53 30 13 95
33 82 78 15 57 96 20
61 12 78 100 93 28 78
34 10 43 14 66 19 16
78 83 48 75 84 97 21
79 27 23 83 60 87 58
89 83 61 69 61 15 16
22 10 47 67 19 91 49
16 51 32 74 47 34 89
80 43 56 94 40 55 78
23 41 79 56 34 64 74
53 62 98 24 70 38 55
83 68 53 27 53 20 58
18 83 21 80 83 68 86
98 70 50 78 14 63 67
37 88 62 47 52 16 70
27 60 56 100 38 33 53
73 84 82 91 64 69 49
42 46 27 14 63 33 84
22 63 32 71 46 15 25
1.25565
1.37644
2.1488
2.26234
2.48183
1.72064
2.3088
0.682025
1.84731
1.95903
2.2912
1.39132
1.38894
1.15956
1.63937
1.34403
1.84532
0.851539
0.977011
1.34705
0.897052
0.74786
2.27869
1.23905
1.70398
2.38901
1.55979
1.5425
2.18318
0.71472
1.77094
2.29995
1.66419
0.748534
2.47585
0.539866
0.871141
0.879803
1.82427
0.537934
79 160
254 19
59 377
351 80
498 350
488 387
269 482
27 208
440 433
233 207
395 18
215 444
161 103
257 265
358 408
343 417
473 134
98 191
121 287
121 188
175 275
433 303
266 214
2 427
451 270
82 236
196 19
471 77
481 394
133 109
498 417
120 54
447 379
111 297
320 261
366 359
131 479
12 395
344 345
296 438
10325
1
