40
11
0 0 0 0 0 0 0 0 0 0 0
83 71 93 89 68 38 91 99 57 93 94
66 67 66 33 66 27 75 87 85 99 45
44 86 93 12 92 65 19 74 72 75 22
62 67 52 17 51 23 10 57 31 29 51
17 60 21 99 92 11 53 35 19 35 23
68 55 36 77 75 79 71 24 26 92 66
31 94 23 42 39 11 75 67 59 50 30
94 14 18 18 87 60 49 51 29 91 70
76 66 98 45 84 17 58 65 12 54 96
22 64 54 52 31 14 61 89 37 41 34
69 21 60 21 73 49 60 56 89 74 37
33 18 44 56 66 33 44 37 50 88 85
41 41 58 74 87 72 88 90 34 73 56
21 42 91 39 10 38 17 93 59 100 19
61 51 67 75 100 85 68 63 30 28 94
46 27 66 54 82 92 65 58 31 39 32
75 71 55 87 14 78 73 48 72 90 24
21 62 37 35 18 78 39 31 93 66 40
100 79 71 38 51 84 22 88 28 34 38
19 79 25 36 51 24 84 86 62 62 95
49 24 56 25 56 97 57 48 45 38 83
97 32 85 57 47 36 98 88 40 52 17
32 47 43 37 50 47 25 55 80 18 87
55 67 33 24 69 33 98 79 48 17 46
67 74 13 12 59 45 82 24 41 90 85
66 58 21 57 40 70 21 19 57 58 16
78 21 39 34 97 84 46 36 100 39 63
12 57 97 44 55 77 65 55 17 41 65
37 37 69 59 85 21 90 89 65 54 22
46 92 55 81 43 71 53 15 90 49 49
56 81 83 12 79 82 45 36 49 86 80
43 44 58 69 32 74 93 59 96 68 60
91 87 21 73 19 69 73 22 85 70 16
72 92 16 49 49 82 49 69 76 81 45
33 24 69 44 57 36 98 11 21 66 29
84 87 74 64 82 59 57 11 72 86 31
18 57 76 71 13 44 86 12 86 94 92
29 96 59 47 38 40 93 62 37 53 41
75 89 56 92 52 41 63 54 57 78 80
1.97838
0.805736
1.92056
1.95753
1.57728
1.84407
0.913297
0.838528
1.63341
0.846514
1.6875
0.594591
1.86553
0.690868
0.595793
1.75148
0.931505
0.931365
0.767938
1.33983
1.82337
0.568757
1.91783
1.00088
1.35649
1.04143
1.23012
1.35159
1.36048
1.1619
1.38114
0.507066
1.16354
0.766903
0.630359
1.365
0.632055
0.940506
1.9585
1.13717
171 190
414 117
362 216
425 379
148 433
11 187
335 447
13 413
192 414
334 379
300 120
105 124
431 42
233 44
456 366
253 405
378 326
439 478
436 86
427 449
109 66
303 94
323 82
278 311
428 374
259 213
287 217
206 398
191 128
151 168
458 121
62 484
363 65
30 482
260 211
113 394
222 389
322 393
114 77
319 192
3641.67
3
