40
3
0 0 0
42 38 73
10 84 21
100 62 99
52 65 84
98 43 98
92 47 31
84 32 49
51 93 10
87 75 42
32 14 30
68 59 45
35 96 64
62 59 82
15 86 66
61 51 89
81 93 51
68 40 88
88 27 63
14 19 57
24 26 69
47 83 76
18 94 84
90 85 90
69 95 83
45 37 23
33 25 10
15 46 76
80 76 60
19 14 18
100 15 95
18 34 52
56 29 28
27 95 10
91 13 75
100 20 17
98 68 57
75 38 81
40 84 93
45 61 95
0.157436
0.305141
0.300682
0.283384
0.106508
0.493405
0.268588
0.305111
0.178044
0.446036
0.409769
0.172779
0.165566
0.33415
0.3674
0.142975
0.33544
0.430301
0.391582
0.292379
0.411941
0.123223
0.173188
0.14097
0.474987
0.336791
0.221642
0.143836
0.237594
0.302749
0.214794
0.348588
0.230643
0.249288
0.409947
0.481733
0.194679
0.418743
0.17095
0.365146
193 396
61 31
464 179
383 485
164 448
119 375
426 407
178 291
135 186
403 415
199 395
415 36
173 443
190 115
282 471
271 34
94 468
161 285
181 173
6 190
414 315
141 452
208 49
99 461
463 322
341 333
303 250
471 388
442 395
271 2
135 403
416 121
161 162
375 305
223 75
24 296
64 294
237 408
323 500
191 176
2228
5
