40
5
0 0 0 0 0
39 84 32 92 91
42 12 27 46 10
88 39 92 97 63
42 51 82 86 41
23 15 16 55 52
37 15 16 46 17
42 20 33 86 76
54 38 11 35 51
100 84 72 71 81
48 23 84 47 16
70 16 14 83 100
33 69 22 73 57
13 94 14 94 82
61 88 75 35 77
53 100 46 17 74
47 94 97 76 61
23 52 76 96 47
71 74 55 98 97
46 10 100 23 52
93 48 37 47 90
60 18 86 89 66
38 64 91 37 61
20 65 45 64 94
79 59 20 79 81
86 47 54 23 99
19 93 77 48 32
18 94 15 41 37
86 98 74 17 91
59 46 71 99 61
19 20 10 19 33
33 94 76 19 50
85 62 33 100 12
55 27 15 97 78
14 61 26 30 82
26 42 12 81 10
96 70 69 96 63
33 85 40 16 75
89 76 15 65 30
43 100 41 82 87
0.423736
0.541493
0.644521
0.293189
0.925537
0.817987
0.814398
0.933599
0.847667
0.918731
0.750817
0.860142
0.92476
0.765153
0.697171
0.916299
0.293358
0.484499
0.77578
0.507513
0.86244
0.266646
0.28317
0.319883
0.595068
0.234825
0.697947
0.983603
0.518713
0.907156
0.273311
0.361438
0.476727
0.210209
0.53685
0.725808
0.882995
0.379586
0.67032
0.9818
351 146
34 8
367 246
244 431
216 424
87 228
309 486
70 194
190 235
135 266
60 380
50 22
232 306
442 27
317 1
336 31
363 385
47 11
284 129
210 320
251 414
490 256
385 52
448 141
194 128
19 289
327 283
278 377
284 163
95 366
284 50
182 93
273 482
262 230
151 393
84 159
145 479
34 258
259 362
377 288
2720
4
