40
11
0 0 0 0 0 0 0 0 0 0 0
24 71 48 28 14 86 40 64 45 18 44
58 26 24 21 25 48 76 98 67 42 62
57 33 60 26 90 70 90 93 87 81 30
68 23 73 31 68 23 19 82 86 37 43
100 31 18 90 92 47 85 74 41 35 45
73 83 30 85 87 53 73 27 33 18 14
47 65 60 31 51 32 90 66 31 17 75
83 26 84 52 80 16 58 47 71 38 91
87 13 79 76 93 19 18 32 40 30 21
11 58 25 76 31 76 90 16 36 58 21
80 23 37 88 99 100 77 14 84 94 20
85 37 90 83 96 22 97 41 25 93 57
23 11 81 44 23 76 18 73 75 85 96
61 49 44 74 16 56 100 84 45 62 90
52 91 58 56 67 71 56 90 66 28 51
30 66 30 58 80 56 85 23 30 89 17
58 52 100 62 80 22 67 80 87 99 47
56 49 17 87 95 25 94 86 71 86 39
98 98 14 77 10 72 49 72 61 65 58
56 69 49 57 96 62 67 14 77 75 45
58 12 43 69 97 90 40 86 35 82 82
98 50 34 23 87 97 92 93 27 63 91
32 86 78 46 74 59 82 87 99 44 84
31 72 85 55 48 14 64 32 92 94 73
33 48 84 62 77 83 51 34 39 25 11
38 73 57 23 79 68 37 51 59 25 41
39 29 28 41 80 29 31 48 77 64 55
51 94 71 67 96 77 58 47 73 61 97
76 62 90 48 89 13 46 91 55 95 54
89 76 69 21 27 81 97 26 87 55 52
92 41 29 97 66 93 28 59 12 99 24
76 97 41 73 83 69 28 74 73 32 23
81 73 39 37 34 76 19 31 31 76 57
38 87 81 53 49 82 22 36 11 57 49
10 17 14 37 57 71 21 70 21 91 76
56 76 99 78 66 28 31 76 19 50 69
66 18 91 29 96 27 68 59 97 17 84
83 65 60 27 93 41 87 36 34 50 46
58 70 91 94 42 86 72 30 65 92 19
1.9402
1.7277
0.578762
2.02533
1.18515
0.698045
2.0153
1.23088
1.46534
0.712448
2.44765
1.0406
1.85401
1.33609
1.20836
2.21979
1.29086
1.9876
2.33279
1.44178
0.564499
1.79594
1.0037
0.831758
2.17827
2.00816
1.97165
0.902428
2.32211
2.19778
0.809808
1.14496
1.78815
1.67714
1.02494
1.76725
2.46166
1.5266
1.33982
2.11664
76 202
421 15
397 127
305 192
121 300
26 313
95 487
315 205
107 118
263 487
65 464
149 32
268 130
128 324
70 337
95 47
297 213
484 67
238 373
489 151
301 386
305 436
422 223
73 111
137 73
362 447
95 154
488 29
439 304
239 360
132 232
433 190
231 451
360 126
119 266
473 38
78 156
387 27
328 230
445 285
2815
4
