40
11
0 0 0 0 0 0 0 0 0 0 0
75 35 23 28 38 20 45 69 58 59 28
89 78 10 36 83 90 70 47 34 55 59
13 42 58 28 12 64 93 57 12 98 39
40 47 12 86 66 28 57 100 36 59 34
28 80 50 93 15 57 18 79 92 17 61
33 44 49 89 23 66 88 73 97 27 15
70 90 40 66 33 21 66 12 41 85 82
33 28 46 44 71 92 33 16 81 23 87
44 20 78 20 35 88 48 16 39 44 88
95 83 27 26 74 54 28 48 53 91 27
14 73 97 84 65 71 64 31 54 42 34
26 97 49 23 12 83 47 12 35 53 64
26 31 18 95 88 41 29 68 52 89 30
85 41 20 29 76 74 19 55 80 56 76
14 40 45 67 40 26 27 92 61 88 28
71 59 79 38 67 75 48 40 67 52 51
35 57 87 31 21 49 43 69 47 66 77
91 48 15 81 19 82 11 43 11 55 95
18 21 90 49 50 17 98 76 53 17 13
92 13 52 53 43 34 89 65 34 45 38
88 36 59 40 31 60 15 48 28 16 23
80 83 95 73 89 14 25 57 96 100 30
52 81 51 25 78 91 53 83 87 85 59
59 89 63 51 64 75 95 26 18 86 96
80 16 91 26 13 16 50 81 79 34 42
41 45 13 14 100 74 26 68 37 56 28
29 52 11 10 18 12 77 58 36 100 24
35 57 69 99 96 27 68 77 42 77 78
75 34 53 54 28 59 27 75 65 47 87
75 42 11 28 72 83 40 32 32 86 15
54 62 42 81 54 31 40 97 72 60 23
70 54 26 73 54 40 82 61 82 44 63
40 20 47 11 54 51 54 65 15 97 20
68 32 76 36 57 54 50 21 19 70 62
55 31 97 18 56 11 90 61 88 21 92
20 64 48 27 37 33 47 80 31 29 49
60 61 84 13 80 73 40 89 96 64 53
41 91 95 28 58 82 91 10 59 38 84
36 30 92 56 46 55 40 89 12 27 32
1.32986
0.795256
0.63659
1.9569
1.46799
0.902751
1.92653
0.928067
1.87533
1.8327
0.802625
0.487091
1.54323
0.963824
0.51254
1.63373
0.912004
0.788421
0.9573
1.68683
1.61817
1.04493
1.07371
1.29829
1.83062
0.87251
1.31879
0.598699
1.35517
1.13127
0.410268
1.40554
0.754002
0.707453
1.47616
0.423834
0.418054
0.925657
0.912343
1.23642
484 468
93 203
183 466
103 307
217 296
244 350
259 57
393 7
386 403
65 62
272 370
483 338
235 450
160 78
484 207
278 398
418 377
134 52
176 409
368 297
39 17
97 467
96 123
141 342
415 79
224 292
34 377
285 153
384 162
484 254
214 84
32 304
417 307
34 306
241 377
29 55
405 35
234 464
479 434
497 120
2567.5
4
