40
11
0 0 0 0 0 0 0 0 0 0 0
18 55 47 65 84 80 16 72 43 37 87
76 43 22 13 61 90 58 34 72 18 74
59 22 95 50 77 51 29 62 66 28 12
98 54 59 64 43 88 38 20 42 98 54
56 25 41 25 15 60 34 70 24 72 96
21 67 99 66 95 44 34 78 80 39 58
37 42 75 52 91 23 18 13 65 52 89
45 62 55 79 77 77 52 20 46 71 76
93 28 20 91 48 68 90 25 86 26 27
87 72 87 68 13 46 49 96 69 54 36
45 14 84 84 98 14 78 83 26 83 67
23 14 21 87 58 55 98 29 48 67 75
24 51 93 75 15 49 74 96 41 96 30
27 60 82 67 61 78 28 88 86 25 16
28 93 19 48 48 96 10 31 90 87 43
93 25 41 67 86 56 57 100 98 68 16
98 66 55 67 29 35 52 38 65 46 29
97 45 63 61 48 90 71 76 52 30 49
73 76 20 95 53 76 65 95 63 56 69
57 23 31 33 82 62 91 28 98 47 16
50 10 68 87 97 87 41 25 25 39 64
82 90 85 33 20 36 74 45 14 44 24
91 96 39 12 89 70 76 10 54 92 50
34 62 10 65 72 55 68 92 70 46 87
80 56 55 92 86 91 64 93 24 73 24
76 36 46 15 51 23 91 10 31 37 42
68 71 87 64 74 40 68 82 31 48 56
99 52 47 44 68 30 64 98 75 82 68
89 68 80 83 70 68 52 53 68 37 36
67 29 89 76 82 62 77 33 68 93 73
57 62 23 92 87 31 85 62 70 64 29
59 96 47 92 67 68 87 65 98 14 80
81 81 49 98 23 68 12 41 28 96 20
20 12 38 45 62 88 56 94 65 79 37
41 93 60 94 34 26 61 56 90 76 63
33 43 64 28 69 89 67 69 13 20 78
81 24 36 39 88 77 85 41 81 63 66
78 66 77 87 84 53 56 69 25 11 11
79 80 11 54 68 70 18 66 19 79 73
0.472512
0.361109
0.321466
0.200888
0.286896
0.241147
0.345469
0.111644
0.162817
0.32566
0.351277
0.486344
0.155045
0.352039
0.25783
0.159395
0.158273
0.302443
0.140067
0.227306
0.362216
0.494236
0.248904
0.402726
0.261352
0.262494
0.148887
0.267308
0.212533
0.31988
0.306883
0.323326
0.363439
0.270386
0.111788
0.10704
0.284576
0.333624
0.460072
0.239626
284 26
379 173
87 471
408 471
297 231
301 389
308 414
300 210
124 96
35 226
179 352
339 453
371 281
36 263
381 300
386 319
200 442
413 256
32 468
410 389
62 459
301 477
365 197
336 87
60 150
197 200
309 478
481 413
303 272
189 51
145 264
131 221
127 211
243 188
142 173
89 456
310 365
459 1
343 28
407 238
3758.33
3
