40
7
0 0 0 0 0 0 0
27 53 39 82 60 27 85
51 85 53 64 55 11 96
44 56 43 72 77 48 77
86 16 10 92 57 44 15
35 47 72 43 17 86 57
12 36 22 63 47 87 50
81 56 39 52 50 79 88
72 20 15 45 30 36 91
70 63 98 42 78 81 57
19 58 43 65 99 10 56
41 60 85 31 70 79 89
70 72 70 73 35 63 16
30 53 11 88 18 36 38
75 49 25 39 92 64 95
10 96 94 89 34 66 69
40 18 85 63 100 81 30
21 83 10 13 29 59 49
17 38 83 33 80 10 38
31 24 85 57 84 74 94
61 74 94 10 57 73 74
21 42 45 62 74 83 32
32 16 24 91 83 10 34
92 74 59 96 26 76 89
56 97 29 45 11 58 17
49 14 92 81 91 51 30
50 31 93 17 69 89 76
90 85 77 89 24 11 84
14 45 93 92 94 80 24
30 53 95 57 88 28 87
44 36 11 56 20 90 22
54 69 12 12 87 85 69
50 98 68 73 33 100 77
11 27 29 18 37 63 85
68 99 54 93 61 59 71
81 78 50 30 28 36 34
41 30 20 83 48 87 42
22 17 94 67 50 34 23
91 25 77 66 61 23 53
49 100 24 40 59 20 27
0.81769
0.71208
0.269115
0.545091
0.711146
0.841776
0.522198
0.767685
0.313139
0.778091
0.56865
0.656317
0.842061
0.403539
0.363055
0.952421
0.620732
0.915341
0.222858
0.376585
0.695596
0.315979
0.855268
0.230157
0.94098
0.207915
0.679779
0.619348
0.574781
0.976339
0.403185
0.430586
0.386814
0.571054
0.37794
0.925837
0.289015
0.870362
0.78681
0.929932
47 328
120 337
177 58
105 320
62 285
446 392
401 440
168 195
171 118
104 130
310 218
261 103
105 472
256 106
215 349
314 455
348 281
117 239
417 212
227 115
281 345
30 251
340 394
9 447
198 236
396 281
65 232
270 447
413 270
417 67
378 414
90 383
125 270
494 351
206 360
288 47
390 315
164 464
235 356
244 500
5352.5
2
