40
3
0 0 0
10 24 89
56 47 100
69 52 26
83 58 36
60 66 93
71 41 95
23 35 14
86 70 98
55 54 97
82 81 16
81 84 89
80 95 51
96 11 34
27 29 43
40 33 13
18 17 32
99 34 34
41 81 20
95 42 65
42 57 78
26 67 49
51 81 11
20 68 42
60 14 79
63 16 50
21 57 47
29 82 51
15 38 67
39 12 90
56 18 94
19 85 33
55 73 90
47 44 38
66 94 74
100 73 21
10 18 47
34 43 51
83 71 27
74 30 34
1.39791
1.73925
0.859138
1.12741
0.940591
1.18293
1.32181
0.552535
1.16105
1.05504
0.766647
0.869038
1.73096
0.742641
0.655336
1.94387
1.04187
1.19793
1.89884
0.793974
1.06426
0.64668
0.406622
1.73816
0.529694
1.38288
1.67301
1.68814
1.69542
0.793789
0.83432
1.02791
1.34167
0.636075
0.963708
0.469381
0.429875
1.30264
1.71651
1.74164
121 166
157 232
249 340
203 185
45 362
287 435
34 26
287 87
270 49
487 84
29 398
183 450
67 436
454 26
354 7
157 69
409 423
232 166
382 424
88 242
41 314
191 125
434 235
246 27
54 29
182 305
374 462
243 325
228 285
234 437
297 279
280 223
452 443
357 49
55 485
423 418
358 273
239 19
45 194
301 169
10325
1
