40
3
0 0 0
46 54 28
25 82 88
88 32 42
36 63 12
100 14 17
67 25 91
91 56 78
55 68 98
56 19 12
30 32 75
12 94 63
15 76 87
54 54 84
36 98 53
91 100 93
78 23 21
10 80 68
32 71 62
35 83 73
35 28 37
67 20 78
40 25 76
32 25 78
72 86 58
90 75 22
47 97 93
85 22 80
97 79 43
84 33 37
19 100 50
28 63 66
82 22 21
18 63 43
15 57 30
10 84 95
25 11 50
97 14 33
24 61 67
77 25 26
0.491492
1.66701
0.669279
1.84341
0.75
1.20595
0.945752
0.609604
1.85158
1.56617
0.507159
1.25169
0.634546
1.67707
1.88331
1.26878
1.34698
1.80981
0.541991
0.493336
0.464046
1.0043
0.816492
1.56293
0.897385
1.59667
1.97757
0.458934
0.518802
0.760894
1.1344
0.868826
0.734459
1.56283
1.85664
1.04327
0.80709
0.921635
0.662703
1.00502
175 107
293 143
291 404
187 293
217 36
125 465
238 393
211 457
211 30
370 74
359 396
122 162
192 338
318 241
439 261
191 391
152 171
90 389
153 125
232 456
39 409
229 362
288 48
437 148
291 235
270 146
235 349
258 314
304 266
39 441
140 328
30 268
496 415
112 147
76 423
423 84
129 458
416 492
336 155
163 1
2114
5
