40
9
0 0 0 0 0 0 0 0 0
62 14 57 63 100 75 90 26 90
89 49 21 37 75 100 99 56 24
79 90 23 61 88 31 53 38 87
66 30 26 15 64 17 70 19 85
97 20 86 81 41 32 52 92 19
20 66 41 62 50 68 73 32 88
61 39 19 43 51 58 26 79 40
68 49 20 62 50 49 73 68 28
74 53 35 87 97 88 74 94 27
49 75 57 64 27 41 94 30 48
26 49 24 12 18 49 48 81 13
49 51 79 81 57 37 39 33 23
63 12 47 50 97 88 24 100 25
54 84 83 38 83 30 85 94 63
62 95 12 83 46 38 90 56 49
94 32 99 33 52 82 96 65 56
72 76 11 19 78 96 44 30 13
34 100 77 93 18 64 94 63 19
73 26 17 43 32 32 89 63 67
94 61 41 99 12 60 82 87 95
34 43 64 87 19 20 39 16 75
58 68 42 13 66 80 11 21 17
87 81 51 63 28 81 35 37 11
100 25 46 28 58 46 46 90 73
99 25 98 46 24 42 27 54 77
59 98 29 30 22 78 46 75 73
58 10 75 46 15 60 43 89 90
45 65 55 31 59 80 48 33 21
88 82 12 38 63 94 59 82 10
76 60 18 79 41 24 39 31 93
73 23 10 91 23 80 18 75 34
58 11 73 56 63 10 75 63 40
34 99 28 59 14 63 55 31 43
85 34 55 99 25 33 93 55 53
14 99 49 62 97 52 82 51 91
56 54 82 78 28 96 61 15 64
71 63 77 67 85 83 55 44 31
91 53 43 74 64 61 11 34 96
45 49 32 18 96 24 45 91 47
1.65505
1.77606
2.34676
2.40754
0.771064
2.01261
1.12104
1.82794
2.28976
1.30362
1.91276
1.51374
2.34396
1.85773
2.18464
2.11242
1.03693
0.677138
2.33502
0.665939
0.749912
0.530906
2.01547
2.17239
2.37372
1.4336
2.00614
1.73708
2.49507
0.765317
1.05017
1.8153
0.754234
1.17788
0.538002
1.70329
1.88912
0.77737
1.6002
2.158
302 323
484 209
455 351
257 401
70 87
139 357
130 499
188 195
254 231
93 26
186 56
123 39
385 358
281 221
321 78
167 392
394 348
219 226
269 440
71 78
311 139
51 86
343 199
354 286
259 395
452 178
394 16
317 302
97 373
429 44
255 238
266 388
203 44
183 44
87 195
319 237
446 242
483 377
487 146
210 495
2153
5
