40
5
0 0 0 0 0
54 54 24 18 44
51 42 11 40 17
41 46 20 100 44
18 46 10 92 31
33 87 56 98 72
64 87 93 38 42
70 24 54 15 94
87 71 81 20 61
57 20 100 47 21
38 53 12 56 40
22 54 58 32 86
22 78 39 50 96
42 65 89 16 91
69 87 49 48 86
48 62 64 18 41
71 73 89 44 96
35 17 33 31 12
32 82 30 89 26
69 25 57 100 50
22 100 98 31 95
60 84 100 75 11
64 21 32 41 29
82 74 32 88 92
80 51 89 78 74
32 80 91 41 13
18 31 57 30 19
62 82 43 100 53
12 28 27 76 19
10 41 43 88 81
22 84 15 44 12
28 68 68 56 53
70 68 11 82 86
87 49 42 86 26
30 10 48 91 95
60 34 48 82 99
22 20 15 51 100
61 11 79 35 23
58 65 34 78 63
20 64 30 26 25
0.126654
0.364186
0.35818
0.239763
0.293963
0.432455
0.148779
0.340321
0.451165
0.113415
0.22841
0.228625
0.359076
0.182114
0.346675
0.129066
0.230396
0.294949
0.323595
0.108276
0.105049
0.362568
0.228133
0.288706
0.401451
0.193386
0.43445
0.255276
0.439077
0.17643
0.434706
0.405965
0.105836
0.353356
0.123343
0.372163
0.299582
0.322949
0.20476
0.304734
469 381
293 424
445 445
187 267
417 118
449 9
36 451
372 386
285 188
191 242
478 85
307 481
209 409
316 106
216 84
266 391
275 453
189 78
358 398
250 260
144 422
473 483
53 103
186 346
390 7
295 161
179 381
3 389
459 145
6 443
6 383
379 447
187 31
42 219
105 378
182 393
181 459
499 220
459 289
340 171
5140
2
