40
5
0 0 0 0 0
81 44 53 75 44
17 59 40 82 34
81 16 55 41 99
17 70 89 85 16
96 22 16 86 92
51 14 44 41 16
80 53 42 84 80
66 27 77 96 28
55 79 63 66 58
47 67 69 88 95
90 45 22 21 22
84 82 81 59 82
35 35 19 33 100
87 97 46 24 41
66 27 56 49 53
31 94 77 10 92
74 68 68 42 78
83 48 48 13 15
96 73 20 19 89
97 27 85 24 21
94 66 12 98 71
62 41 27 28 17
94 25 15 64 71
40 76 27 43 71
40 25 86 17 54
83 17 17 97 31
97 46 83 10 10
29 39 86 15 84
90 25 53 85 23
25 40 55 42 71
67 69 93 88 49
91 33 76 59 57
86 90 21 27 97
82 51 88 18 79
93 83 26 62 90
54 99 46 49 78
91 40 28 34 11
88 30 97 48 91
51 72 88 96 57
1.59127
1.56335
1.16292
0.635011
1.65997
0.569886
1.28241
0.640851
1.17945
1.13977
1.22936
1.8969
2.17726
2.13749
1.48098
0.773856
2.34241
0.8633
0.621827
1.72778
0.560709
0.865077
2.43845
2.48284
1.69441
1.44543
1.41888
1.77661
2.07306
1.48287
1.01052
1.96482
2.16885
1.69516
1.36274
0.781872
0.830191
2.40237
1.30739
1.98465
393 462
185 324
149 273
367 474
247 365
272 466
271 204
246 101
442 439
327 15
193 5
3 417
144 493
310 484
493 373
69 30
181 72
214 227
341 441
226 166
248 33
223 455
358 406
271 50
210 278
140 165
463 9
289 338
90 302
387 429
225 123
66 204
483 209
341 453
331 215
264 136
92 368
216 349
66 304
363 199
2216
5
