40
9
0 0 0 0 0 0 0 0 0
86 94 75 29 12 63 24 44 35
84 97 68 76 35 42 22 77 44
25 79 80 35 49 69 74 26 56
45 57 84 19 42 84 76 65 87
18 44 91 50 95 54 36 89 93
15 46 92 62 52 100 96 14 90
82 96 36 52 83 32 34 30 34
63 78 36 86 57 28 35 23 76
32 75 16 73 39 82 56 74 20
19 85 81 92 27 55 25 44 41
16 33 40 37 80 28 39 25 77
56 47 85 82 72 21 71 54 82
24 36 74 93 50 53 30 16 63
69 29 66 83 48 32 53 36 93
54 10 56 17 37 38 97 38 48
39 67 96 31 90 100 64 90 20
11 67 35 13 50 21 39 42 77
12 46 97 13 32 91 72 80 38
37 23 94 76 19 26 85 100 74
24 93 54 45 77 94 57 79 17
77 53 12 43 11 83 75 91 100
70 59 49 97 58 54 75 59 71
47 54 10 66 18 98 71 44 13
82 10 68 88 32 56 90 79 27
70 29 81 76 65 49 59 20 34
87 96 43 97 35 50 21 18 10
62 22 47 100 12 43 99 75 34
58 58 47 31 82 71 84 83 54
91 74 94 64 82 95 50 22 73
26 89 52 20 82 100 20 94 79
76 49 42 50 42 20 64 87 30
30 63 39 49 52 97 62 69 67
21 38 52 91 67 77 11 71 84
26 63 73 83 76 68 74 20 100
76 81 59 78 53 84 64 12 69
27 63 10 19 79 43 25 52 73
82 98 17 82 70 14 96 37 56
37 82 70 88 41 68 51 16 79
72 12 87 36 46 32 43 90 19
0.466978
0.798632
0.594317
0.417073
0.512567
0.231353
0.572812
0.44655
0.51764
0.299157
0.316663
0.32968
0.986135
0.260091
0.856314
0.613955
0.713585
0.409984
0.326079
0.220434
0.584468
0.878301
0.941323
0.807857
0.32069
0.39004
0.229148
0.640691
0.490305
0.293768
0.647686
0.722122
0.79401
0.557019
0.453694
0.875887
0.501695
0.951581
0.24133
0.383152
494 149
169 200
361 312
94 492
432 341
58 307
134 298
23 63
388 468
449 201
55 209
279 410
252 0
221 162
15 70
254 117
227 482
8 53
47 166
83 481
273 393
128 327
134 497
211 81
110 337
292 309
154 266
235 491
8 284
487 58
162 105
130 129
50 133
467 456
297 1
463 360
370 372
421 158
442 298
279 1
10975
1
