40
11
0 0 0 0 0 0 0 0 0 0 0
14 38 41 25 85 52 43 39 54 82 94
19 57 57 95 95 94 70 57 15 82 57
59 81 82 22 69 61 90 44 11 51 62
83 98 74 94 27 61 43 72 31 56 26
71 79 74 86 83 62 77 69 23 86 25
91 39 56 50 48 54 64 60 33 25 14
22 92 79 45 28 39 75 33 17 62 51
64 11 68 23 14 99 96 70 51 40 20
94 20 56 87 25 34 55 31 24 23 46
33 75 54 65 70 79 47 20 42 84 21
28 29 88 51 36 69 46 57 54 64 38
37 43 24 12 43 19 54 87 44 88 21
27 48 92 71 90 88 75 11 44 76 67
52 20 34 87 59 92 41 95 26 96 27
17 69 81 73 19 75 62 83 20 47 65
60 50 67 48 20 86 70 36 51 30 88
76 49 77 94 15 76 14 71 98 18 14
32 58 89 88 71 67 77 85 63 16 68
86 49 60 50 50 51 43 78 15 21 13
78 43 42 63 80 23 42 90 21 40 41
86 56 55 17 21 49 35 75 63 82 69
40 57 50 74 19 61 38 61 22 90 86
59 31 95 59 96 49 19 44 31 46 91
49 64 88 16 58 86 10 81 10 33 10
11 66 88 15 71 18 25 89 59 99 23
19 95 47 53 59 95 63 52 83 92 56
94 69 27 36 72 85 82 16 77 63 18
62 63 60 56 35 71 93 80 61 15 70
68 94 85 74 49 35 19 53 44 66 32
99 70 86 46 93 15 35 64 41 11 47
94 83 77 27 50 75 73 19 64 59 22
96 27 47 15 38 17 36 100 69 62 39
78 37 33 32 70 21 100 70 80 27 78
57 30 80 60 21 37 84 84 49 47 24
94 53 93 69 51 17 39 51 80 33 80
89 91 30 69 27 24 98 80 100 38 16
96 86 80 64 37 22 71 48 51 54 96
18 20 58 51 78 66 65 55 35 38 66
50 57 90 45 50 39 62 36 90 62 70
0.493278
0.430339
0.459052
0.342136
0.214875
0.366809
0.100522
0.348062
0.331579
0.391312
0.379094
0.415978
0.179334
0.443922
0.24408
0.339115
0.442503
0.267148
0.43018
0.258491
0.427226
0.127064
0.120264
0.461078
0.124006
0.274424
0.161235
0.155654
0.396754
0.314725
0.417642
0.162589
0.438339
0.426536
0.299887
0.367652
0.288234
0.273384
0.118791
0.3341
372 190
25 81
379 488
224 452
220 480
239 217
246 170
242 379
430 206
152 369
189 423
385 411
225 250
71 96
19 160
158 67
215 271
376 453
64 406
131 226
49 356
200 470
378 363
261 180
334 493
224 80
90 348
242 270
493 495
111 185
66 213
139 298
26 196
181 323
271 290
340 45
151 378
375 220
168 188
58 270
2157
5
