40
7
0 0 0 0 0 0 0
15 100 31 27 19 98 78
91 28 75 90 13 75 32
79 78 42 82 75 82 84
84 27 87 91 53 41 87
99 39 16 22 25 69 76
58 85 78 72 80 82 20
47 91 100 56 26 89 83
71 24 78 23 55 47 71
100 42 63 31 97 36 77
77 24 39 28 51 36 71
18 88 16 51 15 19 39
11 83 11 13 69 57 86
60 11 24 59 89 14 45
71 17 81 22 29 59 84
59 34 62 41 42 17 42
40 26 100 37 17 90 30
74 40 35 45 59 37 13
79 85 87 64 97 16 60
54 66 56 22 14 95 67
51 91 100 95 81 59 42
29 83 47 41 84 57 24
47 79 87 33 80 62 66
29 96 80 39 48 36 30
61 39 61 25 48 31 24
70 97 51 94 18 38 93
59 68 45 100 64 31 40
89 93 16 29 60 83 60
66 64 41 48 82 16 65
94 28 31 76 56 71 22
45 15 74 17 44 81 21
21 70 68 41 57 20 38
37 95 21 65 87 47 20
91 68 86 36 61 47 35
27 68 75 37 24 66 22
64 70 89 65 17 99 78
43 14 79 51 14 91 66
13 15 57 93 30 71 74
80 48 23 57 58 51 40
12 41 96 10 11 36 15
1.45187
1.47997
1.26581
1.3462
0.756132
1.60001
1.7347
0.726151
1.90902
0.86446
1.5074
1.05305
0.883365
1.06259
1.35693
1.91183
0.460582
0.794909
0.87715
1.72322
0.933521
1.4459
1.12817
1.37964
0.547391
1.661
0.671287
0.82262
0.689207
1.64562
0.426796
1.01977
1.68208
1.03478
0.446456
1.16654
1.28539
0.99378
0.627427
1.0919
84 353
293 431
136 433
290 405
338 393
288 483
68 336
383 177
181 224
325 183
498 396
68 289
269 99
276 483
242 297
53 104
171 410
387 15
174 401
16 114
290 485
418 386
224 278
410 337
86 7
154 353
483 20
364 375
30 433
55 185
25 47
148 47
281 307
38 438
72 134
171 383
3 116
88 69
124 42
101 128
3523.33
3
