40
9
0 0 0 0 0 0 0 0 0
20 10 21 36 53 20 10 24 75
64 59 50 20 77 18 78 35 95
16 57 86 92 11 100 71 43 55
61 16 69 53 80 75 92 59 77
63 29 61 27 68 64 32 94 36
74 31 38 18 21 55 91 24 15
71 84 35 23 39 67 27 57 69
28 12 93 48 58 78 18 31 74
79 96 48 44 43 33 63 99 52
77 31 72 60 59 61 86 76 62
13 43 60 91 56 88 23 85 16
67 75 98 15 25 18 26 40 96
57 66 86 97 24 98 17 32 32
98 61 57 55 62 57 19 37 83
92 12 84 99 16 26 92 21 35
43 90 13 39 84 63 41 27 22
83 35 15 73 28 85 90 12 18
87 55 93 56 20 25 98 76 49
71 48 61 48 47 87 36 70 59
75 17 92 82 38 43 33 64 49
56 91 43 36 65 18 19 35 74
91 74 61 24 76 12 60 52 56
97 97 27 35 41 12 46 76 10
61 94 18 14 82 94 92 12 68
47 83 42 15 61 99 58 48 99
46 29 82 22 73 20 77 79 65
81 81 53 58 62 28 99 12 21
99 19 88 46 16 66 48 55 12
86 23 32 66 75 97 42 16 66
44 93 93 59 70 59 60 40 20
96 66 72 100 53 35 50 23 86
27 88 72 98 87 22 83 81 21
55 49 60 88 29 64 51 55 46
63 67 62 51 59 74 38 14 54
97 56 45 66 15 92 43 19 67
55 48 31 70 25 49 78 45 45
44 33 69 47 61 99 28 59 20
63 83 20 63 69 74 40 14 77
79 31 62 12 52 91 28 99 52
0.39302
0.167605
0.291037
0.462751
0.344265
0.44882
0.378314
0.324868
0.322381
0.496672
0.431894
0.491971
0.333288
0.168053
0.415152
0.200798
0.263479
0.258905
0.175358
0.128244
0.387728
0.457764
0.455711
0.492117
0.48946
0.484791
0.366102
0.11475
0.410518
0.365584
0.429657
0.359709
0.256388
0.331405
0.348444
0.139087
0.437792
0.473285
0.235134
0.257358
433 19
351 354
215 375
82 489
28 451
78 125
253 268
162 378
171 255
469 41
23 468
471 327
333 216
52 14
146 444
268 330
154 174
302 321
130 304
15 132
311 335
42 117
337 440
84 225
413 27
249 176
432 16
167 255
310 462
483 417
245 335
84 448
144 27
335 4
438 444
190 431
365 48
231 20
125 283
456 112
3548.33
3
