40
7
0 0 0 0 0 0 0
76 83 73 47 28 81 59
93 58 13 91 34 97 73
69 20 12 86 17 13 90
78 42 48 14 40 25 32
23 95 60 33 50 28 15
49 19 53 88 28 57 88
62 15 99 23 98 32 64
69 50 14 37 67 15 59
67 28 51 93 58 25 78
49 95 40 42 77 50 14
87 73 69 19 27 89 11
11 25 79 44 32 82 71
21 50 43 56 67 21 14
83 63 80 37 90 66 88
47 64 85 61 27 80 66
50 21 96 12 72 43 12
66 78 49 39 31 95 88
76 98 17 53 97 57 100
94 24 26 54 15 62 65
24 98 50 87 85 44 16
15 79 26 64 42 97 91
76 27 47 71 43 62 49
78 10 88 91 12 89 57
24 80 14 77 50 32 100
50 99 59 41 17 31 79
88 70 26 15 61 57 76
78 30 72 52 63 55 97
68 87 82 83 77 50 79
63 37 60 74 98 41 93
93 21 28 86 25 42 46
79 45 19 20 82 31 71
57 50 80 62 66 27 94
49 53 49 17 11 92 23
30 92 67 90 34 13 37
95 33 58 10 52 77 95
51 37 93 15 67 23 46
37 53 26 41 99 33 47
53 16 65 16 100 20 12
90 42 74 83 39 93 82
0.237655
0.918695
0.799709
0.821783
0.541265
0.49265
0.719071
0.264674
0.84606
0.426761
0.389701
0.923237
0.454892
0.308755
0.812768
0.949866
0.916252
0.430504
0.677921
0.207571
0.684294
0.730286
0.403545
0.777153
0.51353
0.483507
0.52904
0.90486
0.554763
0.665258
0.652171
0.7054
0.90122
0.366217
0.516551
0.62936
0.636829
0.937982
0.619146
0.312271
378 226
352 441
427 167
54 111
303 444
37 77
108 378
45 168
463 3
443 346
271 110
150 349
479 147
313 468
436 9
60 444
193 128
458 417
51 117
330 338
208 287
438 111
463 267
112 403
431 366
205 252
303 292
95 287
335 117
491 109
460 291
314 58
7 129
53 442
32 262
492 123
276 462
68 91
111 123
89 77
5365
2
