40
3
0 0 0
27 86 41
27 21 75
28 52 33
61 47 90
48 94 66
64 17 55
74 30 43
78 67 69
44 20 65
37 24 72
19 25 77
48 31 49
97 50 46
13 36 50
44 44 25
18 60 70
83 91 75
99 20 24
44 52 85
50 52 23
59 98 41
28 51 24
77 45 18
18 56 41
95 59 14
78 96 94
11 47 83
18 18 12
40 81 34
34 92 35
82 40 10
38 24 75
78 77 99
76 71 31
93 91 54
13 99 56
91 35 79
67 56 91
13 85 23
1.53773
0.845457
0.706959
1.84905
2.15997
2.32092
2.06988
0.695933
1.80493
1.88876
1.41084
1.46633
0.829888
1.86508
1.63206
0.899661
1.26287
1.06801
1.41281
1.73995
2.43494
1.84313
0.754105
1.24072
0.75264
1.78542
2.41798
0.686791
1.135
0.719834
1.19436
1.2296
1.76047
0.574072
1.34981
1.161
2.05619
1.94312
0.607199
1.25201
387 111
150 326
240 25
353 63
18 213
157 418
190 42
467 448
351 42
150 177
315 397
283 203
111 278
316 391
7 204
157 262
338 298
314 149
372 271
165 492
358 88
233 407
280 320
104 290
16 193
4 183
282 269
80 372
314 125
303 162
340 435
164 253
332 167
217 485
397 144
442 230
350 1
311 403
456 63
360 272
10330
1
