40
11
0 0 0 0 0 0 0 0 0 0 0
59 18 89 65 19 19 76 41 56 95 38
12 34 49 28 47 85 86 56 85 36 81
81 51 11 73 15 65 18 19 64 37 55
79 13 38 33 77 70 53 92 48 55 84
27 68 31 16 56 62 56 79 97 52 35
36 76 36 70 25 76 51 62 95 46 13
97 37 16 59 84 16 99 24 62 87 13
87 80 47 52 28 93 28 68 34 30 67
65 41 49 12 37 67 14 48 90 61 56
96 74 22 43 76 34 63 95 28 37 95
44 14 100 45 88 78 25 57 96 70 15
90 52 27 33 72 56 84 88 14 56 53
97 23 83 15 84 21 16 34 20 79 32
48 78 99 92 70 75 91 89 78 96 63
94 64 15 76 31 34 76 64 15 26 62
88 51 54 56 47 28 73 45 40 83 83
100 81 47 16 57 44 30 67 87 26 88
31 40 28 57 64 34 22 83 51 93 19
98 60 83 16 87 32 86 68 49 56 32
19 49 47 97 27 47 32 54 52 89 70
20 27 91 35 29 77 91 98 15 35 75
80 22 70 36 43 69 67 56 49 96 16
17 40 51 83 79 43 37 45 99 25 98
68 16 19 90 84 87 69 98 52 10 56
71 67 55 15 58 27 91 33 56 59 46
58 85 23 76 94 50 94 64 28 28 61
99 62 48 88 68 16 87 20 18 28 79
89 92 71 14 60 98 10 66 18 40 19
45 98 50 67 62 55 10 29 54 29 17
48 87 41 64 59 76 26 32 45 56 88
41 37 58 50 20 22 33 60 79 15 66
75 63 84 30 20 30 97 95 42 62 89
78 46 39 34 30 47 90 92 74 85 54
20 73 16 14 48 50 64 74 10 18 83
53 60 26 62 65 69 45 60 20 19 52
12 34 64 84 60 44 52 49 15 18 57
55 88 41 42 83 64 22 47 38 78 12
86 88 10 98 42 85 30 30 73 25 66
52 72 80 18 24 75 82 32 16 38 67
0.64592
2.36881
1.97998
1.76205
0.720251
1.70542
1.56981
2.21549
0.733011
1.79891
1.57054
1.21123
2.20839
1.03699
1.8912
1.20408
1.79075
2.09185
0.733111
2.40128
2.13519
1.2726
0.805729
2.19576
1.57233
1.176
2.13861
2.1344
1.07694
0.519856
1.09236
1.56327
0.545747
1.61134
2.10067
0.843672
2.33481
1.69801
2.42961
1.87623
384 150
437 374
86 232
158 133
61 402
381 340
325 351
423 79
309 458
390 104
416 189
312 102
150 343
477 47
462 229
441 81
415 447
344 267
98 472
344 230
289 139
99 5
162 384
6 138
242 364
302 399
500 261
496 131
166 164
286 23
468 24
202 0
500 279
119 131
145 230
126 416
457 500
47 297
268 287
488 125
5285
2
