40
3
0 0 0
88 23 23
22 30 58
40 15 53
65 100 63
39 13 89
80 100 11
52 85 16
62 23 22
10 79 34
47 60 11
60 50 99
80 91 37
46 56 53
87 28 76
78 23 26
76 99 44
56 10 91
59 75 18
90 23 42
62 96 55
62 20 73
21 61 30
38 76 85
34 38 74
75 54 55
89 33 61
93 70 97
31 63 62
93 14 52
34 55 15
47 68 58
32 54 48
24 59 41
34 74 41
16 94 78
81 35 37
98 80 30
98 72 50
89 26 82
1.05236
1.10991
1.08154
1.4225
0.469711
1.14858
0.40654
0.773477
0.828645
0.764869
1.15917
0.373608
0.782513
0.804238
0.684172
0.618903
1.08764
1.23
0.744027
0.465558
0.670729
1.23327
0.609884
0.805584
1.07323
0.8423
0.82975
0.469839
0.673052
1.02996
0.498565
0.337769
1.33646
1.00358
1.39494
1.19395
0.81295
0.456933
0.777751
0.673765
367 422
178 363
182 16
256 135
372 426
375 486
39 258
44 248
66 223
336 27
316 122
361 73
475 413
365 192
248 315
480 69
305 63
424 384
461 182
167 260
287 475
234 212
430 152
287 394
427 46
189 124
295 319
224 276
183 222
455 40
47 251
177 2
293 313
451 12
428 7
99 470
448 486
469 302
355 76
284 332
3556.67
3
