40
5
0 0 0 0 0
89 22 63 79 71
77 98 26 90 72
45 61 29 99 15
62 15 76 31 95
22 54 18 58 45
27 75 56 21 10
77 73 70 68 31
26 37 53 32 64
62 17 100 34 16
70 29 39 26 85
18 94 98 62 87
24 16 61 43 73
84 93 95 58 94
20 39 57 24 41
75 13 18 32 42
12 63 91 85 62
11 91 26 59 38
48 52 36 74 69
36 70 55 71 42
51 45 44 64 78
90 86 65 47 86
34 68 40 52 19
28 31 38 20 86
79 89 74 58 28
20 32 31 25 59
71 16 39 85 79
50 60 89 92 83
91 61 33 72 48
32 45 48 20 91
28 37 79 67 31
48 97 98 36 20
88 13 50 80 60
66 55 62 14 92
71 64 39 83 100
27 11 91 68 92
67 29 92 11 54
19 37 74 67 86
19 15 44 62 92
85 99 63 84 81
0.329504
0.303592
0.250641
0.283242
0.118946
0.13357
0.214287
0.329053
0.334403
0.11525
0.167674
0.190072
0.150459
0.244175
0.180331
0.499646
0.266684
0.15116
0.4145
0.366759
0.260197
0.194339
0.164484
0.250275
0.475582
0.318951
0.161944
0.163199
0.390407
0.221136
0.299747
0.19787
0.477846
0.477631
0.448852
0.461744
0.392919
0.350838
0.409361
0.276692
340 201
337 118
275 101
122 270
486 488
46 313
142 452
483 478
404 276
174 496
468 29
197 158
417 282
197 85
49 156
51 167
117 313
409 57
174 321
373 308
307 363
269 368
376 35
422 280
255 16
397 327
335 246
265 486
206 82
266 155
353 339
474 30
488 358
356 156
188 304
183 101
231 234
137 246
26 66
312 363
10780
1
