40
7
0 0 0 0 0 0 0
38 94 100 39 64 53 42
61 74 80 99 86 36 16
96 48 51 77 69 40 80
15 67 45 91 29 35 82
30 41 97 52 59 58 29
40 91 57 86 54 49 24
73 39 50 35 94 80 21
51 61 71 22 98 45 43
71 32 10 56 38 78 96
59 22 90 50 21 86 82
84 45 78 79 62 51 62
47 45 89 92 71 34 67
38 60 82 24 17 26 97
57 56 76 59 31 16 84
77 86 99 87 42 71 97
63 10 36 67 94 89 76
91 46 33 39 76 20 74
39 89 92 47 17 50 11
88 23 86 74 69 78 28
59 34 41 76 84 17 89
44 22 80 57 44 25 38
45 10 76 32 79 16 35
50 73 73 98 89 92 34
26 28 99 89 87 46 74
41 38 25 18 71 52 40
91 72 100 32 83 54 83
30 11 50 10 27 32 39
28 76 56 14 79 72 34
79 87 44 23 22 37 99
59 85 19 34 59 35 51
15 17 23 98 24 100 14
59 72 18 16 74 98 66
41 45 54 73 66 67 86
18 56 80 43 47 86 69
78 54 44 86 59 77 20
50 54 41 91 70 52 96
33 87 19 73 15 63 91
89 100 28 35 25 63 88
83 42 68 15 22 39 92
2.17064
0.897372
2.47717
1.02494
1.34135
2.17774
0.765634
1.56275
1.32339
0.83705
0.743635
1.28247
1.56928
1.32293
1.40545
1.69133
1.16528
1.67832
1.63432
1.83323
1.89391
0.738519
1.53931
1.10983
0.718771
1.54527
1.96438
2.31139
0.958088
1.69966
1.35435
1.77522
0.991858
1.77614
0.923012
2.21686
0.508912
1.62605
0.749915
1.69501
67 462
118 171
486 409
72 340
406 45
314 52
434 272
291 384
231 103
122 473
383 95
81 146
231 375
478 78
43 68
287 261
135 38
71 126
136 130
232 456
389 435
127 105
284 120
213 266
487 298
6 398
299 262
389 321
315 204
385 64
162 443
371 469
80 340
237 320
170 321
282 29
475 81
461 103
170 467
354 15
5520
2
