40
9
0 0 0 0 0 0 0 0 0
29 12 12 25 71 45 53 55 68
16 73 56 89 74 60 24 100 16
89 35 42 67 25 43 41 82 57
24 54 18 67 33 42 68 12 48
74 84 20 36 43 20 36 77 67
41 86 72 37 65 61 54 21 35
31 50 72 48 50 55 72 68 36
18 50 47 13 84 56 25 17 69
54 61 83 81 57 81 93 67 48
19 40 56 81 26 30 47 35 53
24 42 38 84 72 55 12 21 98
58 20 84 26 58 23 51 23 71
49 92 89 75 16 16 16 34 22
83 91 63 89 60 80 79 79 98
82 13 39 63 54 88 84 62 69
65 47 57 96 27 59 23 64 46
67 53 82 76 90 28 25 100 55
40 11 23 34 74 43 35 85 63
44 77 67 100 98 79 90 87 45
28 40 19 66 15 86 53 59 65
46 60 68 16 72 85 31 12 23
64 15 63 36 61 28 51 66 66
43 74 96 11 57 74 53 14 47
82 21 20 35 62 19 92 28 72
54 70 65 28 95 88 44 72 95
65 66 74 42 28 97 68 64 99
78 45 89 82 30 52 74 72 59
93 91 82 65 59 42 17 84 64
35 89 19 41 93 86 25 77 99
48 81 13 74 20 74 16 28 62
13 21 51 11 14 55 35 96 23
79 98 34 61 51 69 17 98 21
13 69 49 12 93 72 92 18 77
98 71 64 69 46 50 23 44 12
79 54 67 48 85 17 25 54 40
59 28 15 37 32 70 35 15 75
53 24 64 22 69 75 24 67 39
49 31 51 97 80 74 55 12 61
68 13 77 98 88 29 43 46 92
1.29759
0.480996
1.21974
0.516617
1.27086
1.12215
1.42609
1.22629
0.491778
0.471496
0.975771
0.665411
0.508387
1.12108
0.92366
1.08399
0.63979
0.798569
1.14431
1.26728
1.13114
0.809169
1.15628
0.946091
1.36863
1.44607
1.38407
1.21184
1.06204
0.593506
0.430873
0.827632
0.996227
0.880888
0.939781
1.11406
1.28188
0.797766
1.39262
0.413303
250 293
350 105
200 352
126 254
65 104
43 281
453 241
348 380
476 158
198 242
492 401
13 211
247 254
379 92
141 186
106 155
272 69
347 252
389 3
155 88
318 184
374 392
86 174
289 136
146 445
150 161
274 238
16 392
373 356
85 438
291 495
294 428
488 312
215 17
414 271
392 241
240 481
220 6
289 152
262 321
2105
5
