40
7
0 0 0 0 0 0 0
75 33 53 24 69 29 76
64 98 18 55 89 58 56
74 42 44 18 89 67 58
48 35 55 81 52 96 49
78 14 21 20 22 73 90
83 57 13 80 16 78 19
70 77 52 38 21 32 10
18 25 20 81 97 23 86
96 35 99 56 27 48 71
49 64 26 15 82 52 13
96 57 47 10 20 47 77
17 79 70 49 56 49 100
52 27 37 20 64 93 18
39 89 75 47 83 99 39
16 12 14 78 48 81 97
72 92 74 47 78 78 19
98 50 54 77 25 62 80
20 48 74 97 48 75 45
13 42 81 21 21 19 23
22 19 19 28 82 73 72
52 67 22 100 25 98 45
51 33 44 91 78 84 68
89 12 32 12 38 47 90
93 11 60 93 75 47 19
66 19 91 79 56 16 55
89 67 27 81 75 74 29
99 73 75 60 57 58 55
65 16 82 66 81 25 45
11 66 78 46 76 41 31
56 89 68 81 53 38 51
32 49 69 77 55 85 98
19 97 59 46 29 10 14
75 84 97 36 20 62 93
67 23 73 33 96 57 72
59 10 82 57 57 15 53
55 67 94 66 97 52 79
93 62 93 19 31 86 32
31 44 26 41 79 55 78
61 35 70 22 34 63 60
0.491524
1.97561
0.677186
1.43195
1.44368
1.94113
1.46209
1.00481
1.37762
1.34874
0.4328
0.755523
1.60391
1.3475
0.995853
0.950175
1.02779
0.527602
1.51969
1.57865
1.34525
1.92657
0.921192
0.406001
0.422749
1.19007
1.54063
0.79387
0.920876
1.59638
1.78204
0.702738
1.7038
1.13422
0.925857
1.97065
0.932847
0.690927
0.400128
1.81319
228 403
79 434
376 286
110 384
442 438
208 228
124 75
417 90
418 91
288 317
298 230
337 244
312 495
208 310
287 407
136 293
127 378
419 85
129 348
183 124
422 321
224 469
202 445
238 309
421 1
121 80
393 293
322 487
494 392
377 478
370 176
146 396
278 126
35 39
204 9
51 8
323 462
409 197
273 30
346 443
2683.75
4
