40
11
0 0 0 0 0 0 0 0 0 0 0
22 63 51 75 48 85 55 27 64 99 13
44 62 13 73 32 89 91 21 82 81 49
78 13 19 76 17 18 50 77 91 55 96
33 13 18 65 81 100 61 98 45 98 28
50 73 100 69 24 45 64 65 38 62 49
48 54 12 21 72 21 100 98 81 70 74
53 50 92 68 14 29 14 87 54 49 84
25 48 91 53 22 98 91 41 17 26 83
20 11 77 10 67 16 83 28 45 67 73
40 45 54 85 67 24 86 28 59 18 45
21 51 25 15 67 94 23 75 79 60 92
83 14 58 33 90 82 51 50 34 80 43
41 77 67 34 65 43 66 90 56 60 49
33 73 58 74 50 85 58 49 94 65 96
31 55 90 35 90 66 34 27 15 33 55
69 14 98 20 14 45 83 45 85 78 94
77 77 11 32 58 68 11 75 91 32 25
36 73 23 73 55 95 34 51 24 92 63
53 19 43 21 89 90 48 87 63 68 73
99 52 17 41 58 82 45 35 77 10 49
93 80 94 11 30 21 11 37 61 70 23
31 80 15 14 66 24 11 17 98 26 74
99 99 80 35 79 75 91 41 75 65 22
48 81 87 13 82 65 68 78 85 31 78
47 81 47 61 96 24 92 54 70 89 96
39 53 42 17 60 91 20 97 16 86 70
80 43 99 96 29 93 29 34 85 67 48
60 73 92 68 37 49 29 70 67 20 30
62 49 68 40 62 45 49 25 68 49 47
59 75 33 97 40 36 67 78 45 41 47
65 78 11 79 47 97 74 35 73 45 67
33 10 72 76 52 74 63 39 13 21 83
59 36 89 84 12 28 64 23 68 37 75
85 53 100 73 92 86 62 81 97 24 20
82 67 84 52 72 76 21 58 83 31 88
69 30 35 21 67 30 85 82 63 97 15
75 81 79 13 30 74 97 65 39 44 75
82 70 78 25 45 44 28 67 24 16 89
68 44 79 55 26 26 70 98 60 33 49
1.83118
1.26503
1.17433
2.45223
1.75263
1.81244
2.40592
1.10092
1.83005
1.8352
1.00083
1.90108
1.08522
2.34987
2.42227
1.96869
2.42106
1.74252
1.45931
0.595644
1.68611
0.527492
2.01355
1.29736
1.48794
2.11618
1.90097
0.509581
1.67852
1.81982
2.33414
2.30999
2.14011
0.780774
1.37065
0.590382
1.65205
2.12698
0.976217
0.790438
72 318
389 87
485 416
159 404
219 494
83 248
291 109
214 392
449 236
398 203
311 499
448 485
14 258
367 298
150 443
7 444
168 441
484 403
117 192
382 122
268 428
244 37
185 53
298 485
145 126
72 455
322 132
5 460
320 392
59 460
473 110
228 43
35 426
370 121
306 98
36 358
170 355
103 466
66 374
116 451
10985
1
