40
11
0 0 0 0 0 0 0 0 0 0 0
79 72 76 22 34 82 65 99 10 91 62
20 51 65 21 72 99 78 56 36 22 28
94 31 28 71 90 18 68 35 24 25 30
70 72 67 36 36 49 51 21 29 28 97
96 30 80 57 92 76 99 87 20 62 89
90 36 57 89 28 73 79 70 50 80 41
58 89 57 33 22 37 79 90 25 84 13
65 12 99 22 74 53 86 84 48 90 63
34 16 89 32 16 64 45 54 18 20 23
65 39 57 72 89 85 10 48 39 14 26
55 49 28 64 45 42 40 94 80 89 60
60 18 91 29 51 41 11 19 85 44 25
40 66 45 65 89 53 43 31 13 29 43
42 78 71 32 90 26 19 30 92 11 62
13 45 55 18 19 69 92 100 60 84 56
45 44 26 82 67 21 32 81 56 39 23
18 33 83 46 16 20 85 36 79 58 20
43 38 74 68 33 15 25 60 27 42 34
33 36 87 94 13 52 90 30 45 47 37
54 15 57 92 16 43 70 85 27 42 54
18 66 58 18 69 65 44 25 92 89 66
30 94 19 98 32 68 21 50 83 80 43
27 28 40 41 24 96 69 84 89 13 68
30 25 25 92 16 68 45 64 18 72 98
81 18 18 62 29 32 16 93 29 11 57
43 33 94 85 27 88 28 64 85 58 34
56 46 22 28 11 34 31 85 30 39 24
10 54 12 27 49 27 63 60 84 75 83
68 63 93 35 90 18 96 33 33 15 70
46 99 15 100 69 11 96 67 80 41 65
40 86 28 23 61 64 80 76 100 40 75
44 84 10 59 61 48 26 44 97 32 76
44 24 73 77 98 89 40 16 91 19 51
36 48 19 94 97 48 12 30 27 55 25
24 36 25 23 27 11 70 49 39 76 78
33 80 92 96 15 16 93 96 74 89 24
25 47 44 100 42 98 95 17 54 56 58
92 87 97 58 30 79 44 67 31 41 51
10 38 60 81 28 67 57 38 62 65 51
1.52495
1.69426
1.89146
1.18727
0.693824
2.03977
2.2631
2.46999
2.49806
1.25587
0.593089
1.89639
0.850509
0.995239
1.28285
1.02375
1.77153
1.07255
1.90287
1.88306
1.10793
1.01495
1.60779
1.33205
2.33375
0.845458
2.33817
1.64445
0.898575
1.39968
0.585908
1.16797
1.05677
0.5768
0.822886
0.852474
2.04965
0.821422
1.12334
1.06462
6 416
496 103
330 261
321 381
274 100
38 432
189 218
38 282
366 300
65 241
249 134
50 447
434 499
450 237
488 67
385 240
383 112
98 366
388 313
476 64
372 13
456 427
382 380
163 98
213 7
14 434
381 176
6 390
64 454
473 17
380 482
251 175
188 69
251 383
131 146
401 127
212 151
2 310
23 250
54 107
5117.5
2
