40
11
0 0 0 0 0 0 0 0 0 0 0
91 99 19 63 84 37 48 44 56 25 34
37 30 77 15 70 32 85 17 100 84 96
68 23 23 53 35 29 44 40 13 41 45
27 43 42 65 60 28 55 74 99 80 91
82 76 50 20 63 45 90 39 68 45 26
90 74 22 89 39 28 91 72 25 89 53
98 72 65 94 63 28 15 25 89 92 56
89 79 26 96 11 45 61 31 62 60 78
70 69 65 31 42 91 87 56 83 55 48
55 78 71 32 43 19 10 27 90 43 14
28 15 85 64 38 30 12 64 49 63 90
38 89 49 26 78 61 70 53 96 64 84
11 56 94 62 31 56 48 97 96 62 100
73 31 62 45 36 29 85 81 46 64 46
76 66 71 74 35 36 86 36 100 56 97
92 95 95 48 21 26 71 47 71 83 37
67 88 86 92 14 44 85 75 93 46 61
75 27 10 53 34 19 89 40 17 37 79
30 99 54 91 63 18 13 10 19 86 26
96 36 20 11 70 29 89 79 59 80 48
90 48 73 38 47 95 35 65 28 42 80
81 30 66 49 29 15 64 56 29 80 24
41 63 56 83 37 74 62 55 42 59 44
17 92 76 54 44 66 88 69 22 32 49
71 29 80 46 68 39 34 16 16 11 47
10 75 72 94 26 96 27 38 36 83 60
81 48 57 91 80 29 97 36 91 47 47
69 53 93 96 54 21 19 83 82 61 76
40 19 58 44 82 45 94 22 77 95 38
58 22 53 60 97 59 85 21 65 100 23
40 37 36 54 55 69 69 99 49 97 99
73 70 18 96 80 19 58 82 63 14 50
12 63 20 57 37 75 55 90 46 23 33
30 17 51 22 80 81 17 22 65 64 70
49 13 11 10 88 88 13 63 63 26 56
13 77 55 50 31 86 95 73 56 89 91
76 61 34 47 61 74 89 26 64 47 66
85 98 92 31 92 69 87 87 28 93 20
38 58 76 78 38 59 44 59 96 87 25
0.884158
0.920464
0.279757
0.371503
0.969793
0.865578
0.765944
0.986195
0.795295
0.655723
0.490469
0.403605
0.639332
0.689928
0.538269
0.626019
0.786935
0.928217
0.510636
0.281861
0.411503
0.510513
0.971496
0.782572
0.259306
0.80889
0.417656
0.594577
0.584034
0.514695
0.981056
0.387541
0.863317
0.773177
0.548369
0.693569
0.259447
0.551003
0.806481
0.480014
402 221
276 169
90 213
66 73
304 288
355 328
119 183
309 20
213 405
365 94
151 327
337 63
349 117
298 59
167 349
369 412
39 103
144 445
224 284
159 408
193 70
492 28
460 82
480 271
408 122
202 426
345 256
361 407
72 238
439 164
433 453
194 128
170 413
157 65
21 262
330 150
166 199
165 279
134 277
425 157
2201
5
