40
3
0 0 0
56 96 14
84 68 64
40 24 20
41 17 66
32 48 68
67 67 92
96 68 43
79 12 39
41 18 96
32 59 12
70 82 71
59 65 23
31 22 55
13 24 100
44 73 24
82 16 20
48 65 74
64 16 90
45 65 64
93 16 15
88 44 49
76 95 29
100 27 85
34 70 28
19 48 94
95 53 47
26 54 53
10 69 82
67 38 62
91 54 71
91 66 91
99 64 28
18 74 48
70 65 47
52 88 91
63 76 43
52 71 51
34 51 63
58 66 74
1.59979
1.61202
0.406772
1.01741
1.937
0.598698
1.25301
0.97118
1.66587
0.859513
1.80239
1.82103
0.993057
0.791246
0.771072
1.26779
1.12011
0.818627
0.627963
1.60223
1.24663
0.618748
0.687667
1.16951
0.673507
0.680095
0.666615
0.488675
1.19693
1.81961
1.83926
1.86552
0.67174
1.65993
0.868022
0.806781
0.568021
1.06734
1.73197
0.570765
451 129
454 266
331 322
436 452
486 20
470 227
99 118
114 135
418 360
107 280
181 38
67 423
5 300
477 19
295 405
277 41
398 106
494 227
292 18
81 46
375 20
443 74
325 289
107 421
100 264
85 461
78 46
427 459
278 129
140 146
29 431
477 115
461 379
206 449
105 235
259 51
425 137
157 438
333 259
244 216
10900
1
