40
7
0 0 0 0 0 0 0
44 43 12 32 36 58 28
75 15 88 76 18 57 95
40 53 64 82 79 26 97
15 45 99 91 27 22 40
24 47 23 91 42 82 66
43 96 70 37 53 78 86
100 19 39 34 87 83 17
58 61 22 71 15 73 28
50 90 61 83 84 55 29
10 17 70 62 52 19 72
30 75 99 66 89 17 80
68 16 46 58 35 55 95
23 29 55 58 42 48 52
16 89 70 29 21 47 75
23 57 94 89 17 25 87
55 38 90 93 59 75 55
76 51 86 24 28 30 100
23 49 14 14 16 56 73
81 91 79 69 48 84 63
59 24 10 43 95 100 21
63 45 99 54 63 99 50
70 20 13 46 19 57 56
90 31 89 20 28 42 100
52 63 49 21 55 91 52
25 38 31 80 47 61 95
51 41 60 85 99 56 43
100 29 38 78 100 10 97
34 97 89 83 13 80 57
13 17 98 68 62 66 76
15 24 13 81 47 48 97
27 75 65 11 18 65 46
10 65 100 33 47 79 30
99 24 22 38 67 10 78
37 70 22 53 42 28 14
31 16 35 52 90 20 11
55 18 60 54 52 43 46
10 71 69 56 75 10 57
64 58 52 66 17 90 59
61 19 92 68 88 20 59
0.732528
0.713372
0.326202
0.503348
0.352133
0.425328
0.243019
0.851833
0.391925
0.705503
0.527368
0.904692
0.283674
0.753117
0.847175
0.324935
0.774139
0.976618
0.545757
0.251666
0.437147
0.385059
0.578054
0.576488
0.924323
0.666088
0.319131
0.588174
0.529186
0.960597
0.355114
0.953349
0.414234
0.736871
0.743493
0.58706
0.389687
0.244897
0.854909
0.224846
472 248
178 362
70 75
133 461
318 110
18 26
277 83
350 263
43 405
111 278
124 180
201 367
411 281
206 434
93 386
21 270
207 470
434 212
211 55
171 463
404 358
109 335
454 398
285 53
362 55
77 492
322 233
11 61
49 418
70 60
421 394
495 321
450 324
338 316
266 58
232 50
134 372
269 254
422 387
249 461
10425
1
