40
5
0 0 0 0 0
32 92 23 87 78
98 57 78 58 28
11 25 74 12 90
32 97 83 31 12
67 78 47 78 84
77 10 85 74 47
84 20 97 57 31
60 15 36 72 22
42 71 12 61 56
17 63 96 29 29
56 13 58 13 99
39 70 85 63 81
56 42 99 13 79
26 100 81 68 82
56 53 85 31 54
34 34 63 39 18
85 49 24 91 65
54 72 72 35 12
33 68 68 27 86
78 67 60 31 24
41 13 93 55 45
19 57 38 10 11
32 10 83 21 84
80 88 77 79 21
94 43 79 62 36
20 82 59 34 21
85 94 13 43 30
71 37 68 55 32
81 60 26 64 77
89 31 24 92 22
92 14 68 30 21
86 82 33 55 82
60 32 40 24 26
88 83 99 35 82
30 12 15 47 41
92 31 72 67 56
71 20 97 76 56
25 41 20 72 66
94 53 44 58 51
0.681517
1.03259
0.79314
0.597874
0.37443
1.20986
0.77486
1.34009
0.779521
0.328815
0.345005
0.959448
1.13209
1.46721
0.618152
1.22847
0.95027
0.431156
1.17304
1.29319
0.781293
1.47498
0.987634
1.43523
1.07022
0.487172
0.786953
1.38313
1.389
1.10271
0.537468
0.979182
0.930318
0.999747
1.35939
0.831644
1.41382
0.721648
0.465344
1.00056
323 446
224 416
366 310
494 238
117 2
290 55
186 146
274 294
331 462
356 50
430 205
34 437
392 19
41 92
17 291
471 51
31 463
250 446
333 345
499 412
229 289
18 362
44 270
81 251
453 438
222 119
109 155
430 147
167 206
107 363
393 135
75 53
17 405
136 323
50 379
13 331
129 299
303 274
427 158
199 270
5262.5
2
