40
11
0 0 0 0 0 0 0 0 0 0 0
34 10 11 93 21 15 36 56 38 87 82
45 38 76 69 22 87 42 95 98 25 87
28 66 83 91 78 66 18 28 26 55 54
43 34 65 40 88 63 98 63 54 37 82
80 70 48 31 24 100 24 24 17 59 81
92 17 93 45 37 53 66 50 66 63 100
16 10 76 34 51 68 58 88 59 37 72
76 15 100 15 30 50 69 21 74 79 95
62 16 38 46 58 61 46 92 95 73 94
41 37 35 32 22 61 53 12 81 51 16
61 49 100 79 70 45 55 24 60 92 44
33 51 59 44 24 17 65 74 47 43 10
58 56 86 69 27 64 18 96 53 74 53
81 12 44 82 86 98 13 43 48 100 97
56 25 17 13 100 13 12 91 33 73 57
69 58 29 74 56 100 36 22 54 78 53
58 87 66 59 91 89 10 81 71 29 91
63 11 63 50 28 22 85 60 94 15 95
54 61 62 100 64 77 23 38 53 44 90
39 44 33 97 41 56 57 48 99 14 63
28 16 90 25 35 44 87 88 26 91 40
50 25 77 73 12 40 46 79 39 68 76
48 26 65 34 30 29 57 60 54 35 87
80 97 51 35 31 71 92 33 34 79 38
74 88 10 87 73 89 25 11 43 69 14
32 58 93 54 38 11 12 35 95 73 80
96 31 10 98 15 97 100 87 70 80 74
89 20 73 29 36 26 71 70 90 35 89
48 63 96 19 49 71 79 12 28 47 66
43 24 12 62 34 86 86 68 59 90 27
19 21 48 31 54 82 36 43 39 24 27
90 40 85 77 95 76 99 69 81 92 97
72 88 79 27 21 79 21 22 11 80 83
79 84 72 82 37 22 30 49 19 50 93
76 56 90 75 44 20 61 77 17 99 95
82 40 24 90 86 48 75 30 32 86 65
72 76 69 19 97 43 37 26 42 74 47
57 97 49 87 68 35 98 49 14 66 48
74 17 19 20 78 31 91 69 80 99 58
0.248432
0.486294
0.123849
0.123939
0.17775
0.154219
0.404287
0.341079
0.433022
0.319683
0.385222
0.114753
0.155217
0.100382
0.264754
0.18117
0.345668
0.246065
0.410945
0.257765
0.409375
0.478402
0.392843
0.424418
0.182748
0.411098
0.209754
0.154572
0.15031
0.27506
0.412128
0.447602
0.357721
0.34657
0.200899
0.427045
0.205453
0.448043
0.337343
0.349634
130 431
224 136
458 374
108 74
91 346
116 167
489 327
338 298
461 173
437 402
191 10
447 393
481 186
413 444
108 19
465 188
187 87
472 348
100 329
80 321
471 158
312 297
200 466
14 352
242 278
498 419
136 209
236 291
331 25
40 102
192 441
159 287
497 104
291 80
474 226
494 240
170 13
448 5
216 237
247 12
3638.33
3
