40
7
0 0 0 0 0 0 0
48 33 12 69 95 64 82
59 97 51 56 100 92 77
79 44 52 79 96 72 76
60 45 98 75 65 90 67
63 53 74 44 43 18 13
88 66 33 93 20 43 68
57 96 79 99 84 21 70
88 97 71 73 88 30 18
96 24 17 49 42 24 20
27 23 56 71 19 66 33
85 99 95 18 88 47 68
94 28 91 46 66 70 17
95 54 84 15 13 19 29
99 45 43 78 64 45 37
33 90 79 84 85 68 70
37 54 19 33 94 69 69
92 51 33 77 98 67 92
89 83 87 16 55 93 96
54 62 19 68 38 98 69
55 64 100 40 32 91 42
29 59 85 88 18 19 19
78 60 86 20 43 61 18
51 50 68 73 71 51 66
27 95 32 56 75 99 34
51 53 52 93 53 32 17
78 46 87 71 21 97 52
37 30 91 71 44 41 28
95 47 37 67 29 40 33
49 61 23 40 84 41 63
37 76 46 48 99 60 78
17 73 82 54 58 22 29
54 87 68 65 19 13 59
78 52 47 85 33 33 28
41 80 59 91 15 57 13
36 94 59 96 37 74 88
99 87 29 70 38 93 56
70 67 61 99 53 25 49
28 65 67 74 17 15 77
46 55 51 49 64 46 82
0.640408
1.75041
1.27797
1.4812
0.976446
0.582868
0.613039
0.984201
1.65252
1.40166
1.5375
0.712417
0.788941
1.65895
0.581149
1.90772
0.943609
1.52846
1.03803
1.37795
1.70091
1.39843
1.21317
1.82938
0.607609
1.64097
1.79323
1.66899
1.51439
0.824085
1.34115
0.964327
1.05705
1.71821
1.75186
0.526636
1.87919
0.471047
0.631017
1.91909
78 364
454 64
236 68
112 217
116 193
195 480
181 69
222 48
55 278
247 21
256 449
408 482
187 405
209 321
291 411
197 192
223 32
485 377
487 409
163 386
135 220
124 139
238 91
94 495
126 80
249 223
340 187
372 484
326 207
156 278
59 291
88 471
84 199
432 5
352 95
108 234
269 219
339 55
338 238
157 247
5685
2
