40
3
0 0 0
78 58 96
33 57 91
34 57 45
79 51 56
49 12 42
76 37 100
39 39 83
61 56 80
75 15 52
85 24 66
85 48 27
62 34 14
58 84 41
70 35 30
43 79 25
22 100 58
84 34 45
42 46 91
76 18 95
10 39 13
79 19 91
60 93 90
91 93 52
100 33 78
40 97 33
96 55 86
64 85 98
71 79 42
62 30 52
48 14 99
78 19 63
74 63 10
50 19 70
10 55 35
18 23 17
74 97 80
34 96 91
47 17 62
50 68 56
0.327976
0.151177
0.417661
0.453935
0.492166
0.49668
0.366313
0.198035
0.316141
0.13954
0.424043
0.210377
0.324675
0.283135
0.355075
0.401005
0.239239
0.376803
0.480436
0.143754
0.245116
0.134475
0.245723
0.483412
0.428277
0.453653
0.331958
0.313682
0.306836
0.216793
0.213827
0.491047
0.253616
0.26103
0.172222
0.227202
0.335455
0.183305
0.174738
0.160335
262 55
317 333
269 356
215 487
180 97
173 132
49 267
304 459
45 2
456 18
253 428
273 70
75 126
282 65
37 181
437 424
496 54
214 369
219 104
419 96
129 314
276 163
65 402
323 492
451 340
174 169
147 402
435 353
229 386
40 488
466 352
235 468
387 143
370 237
28 424
231 71
200 435
230 493
362 349
360 184
3688.33
3
