40
5
0 0 0 0 0
54 40 13 63 95
38 93 19 67 87
71 57 76 84 22
16 76 87 63 47
36 87 84 37 91
35 79 90 24 95
16 48 85 78 90
76 33 51 92 34
79 77 35 11 67
61 45 81 22 41
87 76 30 93 38
77 13 83 35 47
20 45 87 46 29
61 27 17 85 71
61 44 77 20 59
33 72 75 72 82
18 91 95 67 86
49 48 51 14 46
47 23 16 27 26
50 30 86 65 23
95 90 22 78 66
31 92 83 74 86
98 77 96 58 51
37 22 52 63 58
72 73 12 50 46
84 66 16 76 82
29 52 19 38 74
52 76 17 60 34
19 59 65 21 52
18 38 52 52 34
24 71 25 84 60
11 52 65 95 19
85 24 50 60 31
76 62 12 57 19
73 97 75 75 86
32 53 58 85 18
51 95 11 18 62
37 83 18 86 44
87 14 55 62 43
0.472781
0.194352
0.173475
0.451336
0.223096
0.173296
0.147104
0.266883
0.404441
0.10373
0.15829
0.227974
0.111288
0.443076
0.390412
0.395562
0.206931
0.130792
0.339268
0.229685
0.451276
0.332362
0.118293
0.114996
0.466409
0.266744
0.284585
0.295407
0.408941
0.436867
0.412256
0.269653
0.308281
0.422864
0.336319
0.272516
0.482956
0.300726
0.295952
0.186029
242 306
77 281
498 71
286 375
182 45
302 18
181 451
340 335
398 387
353 63
167 326
213 350
258 334
325 242
220 410
38 80
363 46
35 47
114 337
450 71
414 110
128 41
194 165
236 443
109 11
339 25
216 60
309 451
267 148
450 405
264 352
319 416
408 493
137 25
500 104
15 26
265 87
319 339
123 427
438 336
2683.75
4
