40
9
0 0 0 0 0 0 0 0 0
12 82 87 54 35 65 89 24 14
74 16 56 92 61 90 27 62 50
71 28 15 34 29 23 16 15 46
36 61 77 25 45 72 80 34 19
26 78 46 68 73 46 84 65 18
91 18 88 33 13 66 67 30 45
53 79 52 46 47 82 69 30 39
42 52 26 27 34 66 75 37 24
71 38 70 88 90 10 79 94 70
57 23 28 24 48 95 18 38 48
14 53 26 42 16 69 31 15 61
37 26 41 22 17 41 87 97 24
59 45 85 45 45 16 80 88 48
76 41 30 94 42 25 21 57 42
41 67 15 40 12 39 61 26 97
15 24 65 55 94 28 93 17 80
64 65 69 50 22 48 27 39 89
43 11 30 31 17 36 62 74 55
79 29 12 16 46 13 10 36 62
20 95 96 72 80 46 57 21 70
96 38 26 43 73 29 28 40 63
90 21 93 62 90 100 31 16 76
91 75 23 82 82 67 31 17 57
86 34 15 19 73 40 66 41 99
80 28 14 11 57 28 36 27 100
33 96 35 83 68 35 57 96 57
41 38 54 57 46 27 23 43 53
39 58 18 20 37 43 34 50 88
82 23 91 14 16 67 15 63 76
28 75 48 80 92 25 11 73 56
99 25 35 77 72 49 94 87 41
21 44 36 95 85 76 10 26 88
74 90 74 18 49 25 89 35 61
84 15 77 97 29 99 13 24 81
15 97 97 68 46 18 33 76 66
23 83 43 24 12 47 43 13 15
18 30 100 10 28 21 66 25 60
54 68 37 86 39 94 91 67 43
31 55 26 73 96 60 62 97 97
0.985292
0.712026
0.731927
0.58376
1.0493
1.15073
1.14242
1.5833
0.414003
1.18524
0.602324
1.53349
1.07464
1.96881
1.38495
1.04183
1.91897
1.73543
0.843943
0.764948
1.79638
1.7475
1.30584
1.64544
1.53144
0.945784
1.71345
1.54329
1.8619
1.48687
1.43724
0.873152
0.770829
0.615431
0.631634
1.62954
1.69355
1.64386
1.4088
0.832493
105 241
188 247
163 454
476 441
136 452
461 57
198 264
98 404
258 201
499 496
469 82
9 4
379 122
76 458
291 49
212 417
74 481
354 461
350 17
117 384
53 108
266 323
225 328
326 270
458 311
379 450
156 329
250 334
314 166
147 480
327 104
230 465
103 112
322 347
293 311
359 452
109 74
101 82
380 106
198 349
4960
2
