40
7
0 0 0 0 0 0 0
47 15 100 95 56 61 34
42 94 39 58 34 73 47
39 33 60 40 66 93 76
13 90 32 58 29 85 20
23 67 19 35 95 75 49
65 70 81 92 32 65 33
32 71 80 97 100 71 99
30 16 85 77 47 36 16
25 78 84 25 99 68 51
67 51 10 38 40 89 84
84 58 14 34 71 47 12
20 41 20 26 19 94 22
87 36 43 79 70 54 93
56 52 32 37 66 88 70
54 42 96 39 80 21 27
69 62 31 27 76 44 41
38 43 29 43 50 46 13
89 83 91 10 35 86 95
100 28 67 36 45 35 54
47 84 17 66 26 13 93
84 97 84 56 72 69 75
30 74 30 32 25 77 20
13 50 77 21 31 43 10
50 56 35 18 60 72 66
70 87 46 29 38 75 76
99 57 100 89 62 53 65
43 58 79 12 98 32 68
74 75 15 81 39 67 62
77 81 73 13 56 82 93
81 61 92 58 91 42 83
25 93 27 56 24 78 72
59 43 31 15 67 73 24
70 65 80 67 59 70 83
34 36 54 65 66 85 93
66 26 19 87 81 26 91
50 41 32 79 81 75 61
34 16 74 69 93 29 53
94 43 86 69 81 89 47
98 11 86 72 15 53 48
1.08702
1.52992
1.73776
0.722438
1.53758
1.91519
1.05023
0.512805
1.79137
0.66836
1.16655
0.418645
1.0053
1.26905
1.33762
1.00237
1.37162
1.24407
1.47619
0.569964
0.687919
1.24397
0.835216
0.868583
1.07166
1.24827
0.654614
1.92434
0.961922
1.57948
1.24755
1.20209
0.956693
1.32112
0.439383
1.67196
0.518271
0.969365
0.742119
1.58979
40 398
240 211
68 399
116 41
45 228
107 391
22 123
185 119
138 157
53 238
346 249
229 388
174 59
22 238
105 338
415 222
412 475
230 274
328 131
127 156
306 52
196 362
245 444
201 170
153 461
293 284
264 69
138 203
112 328
352 258
351 424
477 52
126 129
32 240
203 133
306 496
122 276
88 247
36 285
283 157
2205
5
