40
5
0 0 0 0 0
55 29 47 41 93
30 86 91 85 27
41 41 78 56 58
14 73 27 54 19
16 49 71 70 20
35 43 71 83 50
74 32 11 56 43
54 73 18 59 86
77 98 26 52 73
97 39 69 52 41
55 24 17 88 86
88 33 35 95 75
60 46 57 74 35
20 17 73 99 31
59 18 29 24 11
78 70 16 84 90
32 83 84 46 34
89 64 91 27 28
92 97 84 46 100
14 98 88 46 14
63 80 84 95 71
11 71 19 73 73
79 80 21 15 16
91 12 81 45 56
72 51 47 59 28
61 84 13 30 30
17 29 94 92 76
64 55 10 61 89
30 62 15 91 57
91 47 51 81 45
34 58 81 49 72
41 52 74 87 96
89 44 20 76 64
16 85 68 34 81
25 40 57 23 81
81 46 72 66 30
72 52 79 38 97
31 84 61 81 56
98 95 93 64 34
0.900298
0.80032
1.35247
0.501232
1.25295
0.564758
1.06177
0.593112
1.40049
1.11375
0.387647
0.423278
0.436968
0.95323
1.45895
1.43738
0.957112
0.633072
1.15788
0.85864
0.466351
1.22178
0.782209
1.26408
1.09182
1.42317
1.01046
1.43662
0.845862
1.01387
0.453274
1.21711
1.32128
0.484961
0.797836
1.31978
0.484048
0.435462
0.661091
1.42001
82 462
7 90
227 462
357 88
250 42
46 154
251 231
270 494
84 252
255 385
177 219
18 67
344 499
39 460
320 175
457 56
339 411
375 237
146 333
271 65
358 262
22 69
146 442
5 72
204 110
263 22
138 245
288 206
179 322
262 321
259 33
41 139
483 10
121 291
97 324
88 47
353 439
412 421
414 468
188 475
11070
1
