40
11
0 0 0 0 0 0 0 0 0 0 0
76 51 44 40 64 48 40 94 58 54 86
88 68 95 52 25 79 24 50 36 47 68
72 69 65 77 67 26 87 24 63 79 46
66 22 62 43 59 51 27 19 43 100 91
33 58 26 14 10 73 55 53 12 67 50
61 50 98 36 74 68 74 61 81 75 42
28 73 26 99 16 37 40 24 66 42 54
45 69 42 68 53 48 86 32 16 35 10
78 36 23 31 91 12 64 41 20 65 58
11 87 17 23 70 91 77 64 74 42 92
37 79 69 77 66 11 69 16 93 38 78
65 85 49 13 51 100 67 76 86 97 20
74 69 57 89 81 87 92 18 48 63 51
10 25 42 62 42 26 14 96 14 55 76
67 60 13 66 34 80 63 82 32 87 58
85 55 58 20 81 94 57 14 60 15 38
75 93 72 44 14 63 98 91 95 31 54
18 52 99 29 53 94 82 61 26 84 44
99 12 51 53 72 50 87 88 83 68 18
26 58 27 92 35 49 52 86 31 92 71
59 76 54 81 24 48 100 91 52 88 11
36 54 90 84 62 82 85 73 66 15 12
100 42 99 12 72 11 16 82 75 44 87
89 79 85 67 72 80 67 94 37 79 72
80 47 78 85 87 91 35 33 27 29 23
10 61 69 89 68 45 37 10 47 64 34
36 50 72 72 52 64 91 12 42 78 80
36 12 57 85 72 83 27 55 48 80 38
73 36 38 87 58 30 21 82 74 50 77
15 71 82 31 82 64 82 19 89 49 38
41 59 59 40 19 21 50 73 42 25 94
12 38 57 15 23 18 53 45 90 74 55
27 54 98 73 38 40 75 73 11 93 76
89 55 76 31 40 63 78 43 31 47 92
75 92 67 15 56 27 95 13 18 55 33
53 63 86 11 99 23 55 82 37 43 33
27 90 26 99 59 45 20 23 79 99 67
100 61 41 84 61 62 84 90 80 35 11
80 53 48 40 38 21 46 43 23 23 20
0.516699
0.457692
0.452541
1.45161
1.28993
1.39079
0.822259
1.19648
0.651239
0.393736
1.10986
1.35161
0.365479
0.726961
0.95807
0.769066
1.42124
1.23569
0.449986
0.943092
1.12997
1.01082
1.08056
0.388247
0.895136
0.942163
0.722308
1.09573
0.888733
0.429926
1.20058
0.451727
1.34327
0.730621
0.599644
1.32129
1.36405
0.590278
1.39743
1.27844
219 185
260 374
85 59
349 388
98 208
293 491
360 294
181 386
237 169
3 489
265 312
230 141
334 152
168 353
327 494
467 144
159 93
337 370
177 335
261 91
219 354
244 472
459 411
352 394
260 207
356 86
120 14
303 11
303 321
13 27
182 381
393 198
329 198
389 285
276 304
490 361
143 389
111 361
353 284
103 241
10895
1
