40
7
0 0 0 0 0 0 0
77 57 57 27 26 22 59
35 84 68 51 53 93 86
48 60 44 38 64 48 82
56 42 76 40 70 39 42
31 36 29 22 99 41 75
40 38 40 60 97 16 88
79 83 67 75 87 70 50
51 81 61 71 17 65 28
81 75 26 85 75 79 53
58 97 88 19 61 50 53
34 84 96 44 86 21 52
22 83 54 65 74 55 54
59 67 95 96 43 82 59
87 61 92 65 46 98 60
57 39 90 69 38 41 96
19 39 61 91 71 53 17
99 43 45 91 63 100 95
17 26 99 67 91 16 44
66 39 84 46 82 71 31
11 13 99 27 43 84 66
40 10 46 77 64 26 99
10 53 71 24 74 63 60
61 79 61 88 95 94 77
21 13 80 94 54 55 70
93 38 22 62 26 84 21
62 83 57 66 91 29 91
18 74 96 55 12 46 87
59 95 71 84 23 77 22
82 13 30 34 88 28 69
75 92 97 85 99 99 99
71 43 47 72 51 13 13
74 43 83 91 28 74 45
87 84 64 48 20 89 71
30 48 60 26 83 55 12
98 56 25 61 87 91 35
83 63 92 22 69 22 57
82 93 81 81 28 87 30
27 39 83 20 12 29 45
44 19 11 71 71 34 93
1.26661
1.40223
1.50632
1.58199
1.11274
1.1126
0.924383
0.731442
1.12542
1.18719
1.58405
1.77682
0.447858
1.10109
1.84258
1.75146
1.68661
1.58596
1.83038
0.884122
0.705143
1.5832
0.965046
1.97495
1.33622
0.701442
1.40703
1.71513
1.11271
1.75524
0.9628
1.43341
1.42455
0.636109
1.58365
1.37696
1.8234
1.79519
1.24853
0.623664
326 38
266 175
491 130
56 74
9 165
444 361
453 438
143 25
200 418
106 259
139 320
79 488
312 493
222 449
348 253
54 87
376 308
448 68
316 398
449 76
273 108
314 330
60 371
393 93
473 386
132 319
218 23
432 165
8 53
218 280
106 500
428 109
189 49
284 224
181 392
172 211
51 319
331 98
11 242
92 122
11480
1
