40
9
0 0 0 0 0 0 0 0 0
82 85 73 22 31 57 86 10 97
29 36 42 24 11 29 48 17 68
45 80 11 46 39 98 84 71 16
10 36 62 87 65 70 34 24 67
10 57 27 97 46 57 69 78 87
90 89 47 29 55 32 19 94 51
53 93 18 90 92 20 99 13 52
52 53 44 56 65 60 79 32 70
80 42 41 59 99 63 89 98 19
69 23 19 97 33 19 42 99 78
10 32 32 93 31 34 36 31 39
49 23 46 68 92 92 18 72 56
82 20 79 19 48 98 89 29 15
28 97 10 52 85 86 69 77 70
58 83 75 42 28 49 47 62 76
51 60 38 61 16 29 34 77 15
77 38 94 53 65 36 47 85 64
46 91 89 75 23 84 50 96 39
84 74 70 68 64 50 14 62 50
65 89 23 41 15 100 27 20 66
53 86 33 10 51 28 100 24 91
61 64 94 85 44 54 89 23 68
38 65 87 38 15 18 78 86 36
96 32 50 10 79 56 96 22 76
22 29 90 75 35 86 47 84 51
56 11 95 77 92 47 54 21 32
34 81 73 14 66 86 62 11 56
78 54 10 40 15 38 12 15 98
54 66 59 17 79 18 44 75 22
61 62 45 37 10 13 25 90 24
25 14 27 10 32 18 59 96 100
72 61 72 50 26 23 33 59 39
72 92 66 58 95 80 42 15 89
29 25 43 32 56 33 70 53 74
21 70 21 22 55 69 47 82 52
66 21 73 46 94 93 63 51 68
85 43 67 63 40 100 85 13 29
32 84 43 87 74 94 26 47 72
82 27 52 68 67 49 45 90 71
0.312602
0.20455
0.418646
0.439898
0.384657
0.110236
0.278323
0.258613
0.434514
0.196333
0.488019
0.145026
0.429757
0.447738
0.240577
0.352482
0.221589
0.366168
0.347227
0.471616
0.122236
0.330244
0.38642
0.339167
0.456477
0.181921
0.460894
0.347009
0.103579
0.373745
0.219012
0.258554
0.334972
0.391269
0.193499
0.241602
0.336977
0.173681
0.161209
0.174973
313 164
97 97
149 66
461 401
127 36
30 52
69 298
358 407
229 322
390 296
341 494
319 121
370 379
206 60
306 257
479 396
117 149
477 299
289 143
215 437
194 364
384 161
45 79
378 267
206 440
211 257
320 301
437 449
451 329
414 320
87 479
259 35
164 160
127 470
338 313
180 393
40 392
98 174
396 334
469 31
5290
2
