40
3
0 0 0
84 100 52
23 28 37
23 81 24
76 16 87
70 99 36
41 23 21
60 100 10
19 65 49
81 94 84
17 44 57
45 58 86
94 46 85
35 58 38
14 97 87
67 100 26
95 55 15
26 84 17
98 77 55
87 100 98
33 65 28
85 11 53
85 41 98
81 22 60
89 35 51
100 57 32
42 39 63
62 35 12
37 62 95
86 83 21
69 53 57
100 86 73
87 75 54
46 98 49
32 88 97
74 62 61
18 51 52
31 56 21
43 73 55
50 88 90
0.743225
0.587389
1.03497
0.636457
0.477749
0.890318
1.35719
1.45945
1.03998
0.459471
1.39236
0.346536
1.22176
1.36315
0.652487
0.373499
0.939938
0.301193
0.871167
1.06953
1.23697
0.721853
0.810377
0.877397
0.756991
1.43574
0.955439
1.27402
0.519102
0.507424
1.11181
0.508363
1.12882
1.23731
1.00119
0.573028
0.762656
1.09524
0.550991
0.527479
335 83
234 72
401 201
12 481
118 7
238 451
169 168
297 446
230 155
485 2
56 294
99 316
435 251
42 363
337 388
454 114
120 268
119 58
306 439
104 102
328 117
19 316
61 386
239 456
96 373
211 235
257 60
127 96
397 479
358 30
431 301
158 246
211 396
391 442
108 412
237 342
45 320
406 186
184 153
492 282
11490
1
