40
3
0 0 0
91 30 44
80 57 44
54 67 24
99 53 75
68 56 82
74 40 26
96 24 63
19 59 95
41 85 70
22 56 17
57 55 56
51 24 79
14 18 44
35 95 68
72 16 96
78 98 13
44 95 25
22 24 29
12 91 94
46 27 60
43 90 41
80 82 93
20 93 71
14 85 74
84 88 44
56 96 30
39 73 97
45 27 84
17 75 100
92 17 79
33 56 20
73 44 48
41 83 90
28 84 18
66 48 28
69 52 85
68 85 51
81 81 77
47 100 51
0.883757
0.566558
1.08249
0.987406
1.07384
0.889768
0.484134
0.956978
0.352567
0.352467
0.385509
0.434872
0.504396
0.720784
1.13396
0.632218
1.01725
1.17903
1.00893
0.628028
1.12178
1.26882
1.04057
0.519043
0.683091
0.812026
1.40196
1.36443
1.21584
1.46253
0.77649
0.609319
1.49066
1.38141
0.306986
0.42829
1.15934
1.41112
0.82326
1.39988
389 354
76 49
458 178
133 51
253 465
374 491
154 430
267 21
425 48
175 57
443 230
203 305
409 151
417 245
79 443
193 263
176 226
70 455
227 56
176 13
470 140
203 336
196 37
417 395
207 452
199 401
397 359
192 397
477 235
223 217
165 298
433 429
309 240
100 334
159 444
216 132
149 443
29 203
42 277
487 385
3768.33
3
