40
9
0 0 0 0 0 0 0 0 0
66 54 37 86 55 56 39 91 92
62 92 11 75 49 36 95 80 40
84 95 85 66 62 93 28 33 48
42 21 57 72 62 16 19 23 37
39 23 71 77 49 18 10 84 88
79 70 54 18 99 83 23 46 25
78 19 25 100 13 95 11 21 58
70 55 69 55 29 83 82 84 84
75 71 26 48 60 37 55 10 16
88 66 22 62 14 25 30 85 64
53 100 13 99 88 22 36 92 88
26 39 23 25 20 99 43 57 86
77 17 70 57 66 61 86 95 100
94 25 47 74 27 85 33 91 92
32 32 35 74 68 64 79 51 33
67 85 79 28 59 44 40 16 37
51 52 94 10 40 18 70 40 69
77 58 52 76 62 21 37 51 60
85 87 46 31 31 83 94 74 43
69 65 64 91 88 85 20 56 51
87 11 54 55 82 82 50 65 76
37 26 41 20 18 86 93 78 47
87 76 34 40 82 41 89 85 46
35 53 81 78 39 19 47 51 93
39 45 74 42 81 54 43 53 54
56 17 71 76 31 68 51 94 71
73 23 65 53 61 89 72 29 77
71 34 53 46 49 65 87 81 51
36 16 24 17 30 20 29 51 91
17 91 22 39 84 29 48 95 59
87 32 67 36 96 64 45 38 22
23 76 44 33 40 51 76 38 64
100 59 18 78 99 32 70 69 28
33 92 95 52 100 56 100 51 91
30 34 44 76 19 46 84 64 79
42 86 51 57 75 95 13 71 70
92 99 97 19 81 97 94 58 64
79 100 60 93 26 57 80 80 27
28 24 46 59 56 61 31 46 21
0.965165
0.476702
1.04809
1.38191
1.3205
1.38625
0.396635
0.777311
0.596501
0.880742
1.37203
1.30483
0.481903
1.2908
1.11739
1.07352
0.931654
0.619844
1.27082
1.19601
0.4011
0.656765
0.310534
1.23083
1.21126
1.15325
1.40083
1.18394
1.33016
0.495724
0.360277
1.28854
1.36831
0.862925
0.700309
0.857238
0.406159
0.59234
0.959127
0.437062
20 278
60 390
417 224
200 301
307 5
286 76
55 359
474 289
131 431
232 273
443 208
134 478
78 449
79 419
407 59
334 50
405 472
211 470
468 122
343 168
45 390
274 150
484 177
73 268
206 392
295 50
312 80
20 110
147 500
20 321
185 75
452 41
441 150
278 305
361 53
350 243
205 7
481 359
104 276
40 177
2219
5
