40
5
0 0 0 0 0
98 72 95 50 60
31 61 25 90 28
63 40 77 83 36
14 11 59 92 50
34 69 78 22 51
95 77 70 59 27
52 94 79 92 62
25 99 60 42 44
79 25 58 27 21
69 47 40 70 17
87 39 39 40 22
78 66 83 53 15
95 52 40 86 35
27 31 13 45 63
89 62 16 41 57
24 42 40 62 42
45 45 19 15 93
16 74 39 35 70
56 28 82 47 27
20 81 29 22 40
46 43 70 83 77
10 16 68 33 76
18 99 24 20 88
37 11 52 34 50
44 56 40 21 19
27 15 87 62 86
88 44 64 83 17
52 32 13 91 77
92 75 29 65 93
81 59 80 19 59
33 71 82 23 54
64 57 95 16 35
100 73 20 47 49
39 88 47 97 50
46 97 77 76 25
51 70 97 74 78
55 25 67 85 20
26 93 44 63 88
60 59 46 91 40
0.373199
0.418364
0.498909
0.73838
0.312577
0.461931
0.784223
0.881673
0.815974
0.904162
0.903842
0.492857
0.357287
0.668206
0.470361
0.586846
0.408381
0.350433
0.604272
0.886539
0.589171
0.74787
0.386667
0.481506
0.364877
0.442164
0.604785
0.471893
0.968919
0.314311
0.452411
0.776906
0.225394
0.409427
0.216815
0.791614
0.358452
0.900655
0.36675
0.613737
400 356
455 422
185 319
91 376
127 374
44 3
479 165
142 441
278 303
193 420
325 262
430 241
2 292
152 278
488 475
14 291
58 2
397 39
81 57
162 277
489 225
418 192
168 391
56 325
419 103
326 353
308 149
82 15
201 474
194 293
405 227
91 408
118 234
470 253
211 383
290 323
87 144
98 255
394 334
436 126
5250
2
