40
7
0 0 0 0 0 0 0
62 65 29 51 65 52 39
74 88 60 41 83 96 52
92 24 48 82 99 35 26
53 87 62 60 15 98 98
12 38 11 39 44 97 80
32 86 31 64 22 51 17
87 64 22 14 56 87 97
75 89 22 100 27 13 65
53 39 17 71 77 22 56
29 24 97 37 40 18 36
79 60 26 21 94 39 22
89 20 81 65 15 74 49
39 59 82 38 74 83 20
91 65 15 23 14 94 100
40 17 72 56 29 42 64
94 43 91 19 52 17 76
82 96 36 55 51 60 24
77 44 61 24 41 20 60
49 58 93 75 16 29 30
77 85 98 16 50 18 11
20 69 21 25 70 98 20
41 30 93 93 76 94 81
61 56 32 17 10 35 38
71 85 71 20 99 90 87
56 91 62 30 58 97 76
47 72 12 42 40 63 26
16 78 75 81 82 69 70
61 83 64 81 19 63 48
50 88 52 89 93 74 55
53 19 43 87 48 97 89
34 76 76 25 90 45 39
66 38 23 35 37 88 84
94 64 58 82 27 93 27
44 21 30 84 68 27 35
57 85 79 66 82 63 33
53 28 20 40 42 14 79
50 40 63 60 87 100 60
33 34 62 70 13 29 39
77 37 52 10 19 33 40
1.63528
0.901602
0.936712
2.29461
0.985946
1.00405
1.38436
2.21726
2.27627
1.75179
0.86547
1.05033
1.99692
1.68902
1.95993
1.00524
2.34662
2.42469
2.06569
1.21018
1.02126
1.58879
2.00095
2.43385
1.54738
1.17155
1.33437
2.04325
1.5896
0.976656
1.71315
1.54885
1.101
1.12479
0.822712
1.71719
1.61975
1.94036
0.907579
1.63721
403 372
214 405
125 498
57 136
185 206
8 153
240 256
19 361
88 93
458 452
437 110
343 265
434 368
134 22
266 61
57 363
40 247
461 480
435 280
480 96
113 494
319 234
62 335
440 419
356 4
325 159
267 368
314 449
380 69
164 4
19 219
478 397
104 370
392 465
391 80
396 216
409 254
179 398
211 14
318 288
5332.5
2
