40
3
0 0 0
89 45 57
17 29 77
67 38 73
26 78 29
68 21 40
79 72 39
51 52 17
23 33 13
56 56 69
63 47 41
11 40 38
71 73 26
28 32 100
87 69 94
24 82 20
93 88 44
85 18 96
69 30 41
40 99 28
10 72 44
67 40 41
27 64 59
14 62 59
60 82 62
89 94 74
92 88 78
81 71 15
50 26 53
53 65 67
38 90 52
37 50 44
68 53 83
12 48 10
68 42 48
72 61 56
22 94 94
89 93 14
69 70 67
43 42 30
0.622078
0.703706
0.515488
0.716648
0.673215
1.6478
1.0784
1.97539
1.05609
1.36825
0.571989
1.85869
0.715162
1.03291
1.62809
1.76929
0.45431
1.50117
0.435555
0.513621
0.596647
1.30329
1.91036
0.996462
0.509547
1.85867
1.02113
1.41334
1.90155
1.2106
1.38576
1.31502
0.893615
1.43806
1.07927
1.21279
0.564052
1.50338
1.66688
1.75307
337 25
17 283
236 381
261 488
20 342
78 357
68 255
72 90
186 429
484 56
285 236
115 433
357 186
410 389
364 331
250 177
88 179
388 427
247 486
188 434
392 229
299 329
267 152
11 370
217 30
148 250
273 154
106 29
95 431
257 193
477 90
458 471
494 72
9 323
488 118
220 287
181 377
145 484
42 488
361 179
5340
2
