40
9
0 0 0 0 0 0 0 0 0
37 35 52 43 30 81 49 86 65
43 39 12 50 97 62 64 94 94
32 57 46 25 26 43 97 43 49
43 95 29 32 75 51 97 12 37
22 92 44 13 25 27 88 70 13
94 12 41 64 52 86 84 32 10
61 56 95 72 59 33 54 89 45
88 72 75 19 55 97 78 93 40
32 59 72 73 62 30 34 28 39
75 52 12 30 28 17 48 33 38
87 73 89 89 47 52 30 73 64
72 57 19 77 11 86 69 80 20
70 71 40 34 56 72 66 95 30
44 26 89 25 71 79 72 78 99
79 44 81 37 93 51 41 94 80
20 67 39 17 92 89 57 63 56
13 69 32 95 82 22 56 39 68
71 49 83 92 65 48 56 79 23
11 82 48 96 36 27 81 40 45
52 53 66 40 38 64 21 58 88
10 43 70 55 90 56 69 10 36
60 34 91 84 92 100 63 31 43
37 44 42 88 87 60 78 44 70
12 60 70 21 15 94 13 90 93
22 38 54 77 30 11 13 59 31
12 95 95 19 52 45 20 59 89
99 50 86 10 81 63 71 67 38
57 50 35 19 38 12 54 44 61
52 60 14 55 59 20 24 25 13
88 90 19 49 81 97 10 20 51
26 50 20 64 39 46 90 76 49
33 70 41 79 97 25 40 41 17
12 44 53 69 90 96 10 73 51
68 74 15 59 25 10 85 73 92
11 19 84 38 58 11 16 70 12
20 66 21 16 26 30 45 90 46
60 66 25 64 64 18 70 75 19
76 60 54 82 11 17 75 86 64
72 85 96 79 67 83 22 72 19
1.40906
1.75245
1.32311
1.65787
1.32045
1.38672
0.477094
0.445116
0.976376
0.68659
1.43445
0.931451
1.08455
1.08115
0.43738
0.97294
0.610765
0.914748
1.24087
0.760469
0.414746
0.409901
1.9012
0.579241
1.32602
0.829337
1.88225
1.79994
1.74922
1.38886
0.69454
1.88379
0.482824
1.49296
0.810851
1.44939
1.8893
0.755049
0.4193
0.524532
495 370
192 465
162 401
173 202
138 495
77 194
123 252
251 441
324 422
19 126
445 93
424 175
261 405
239 354
266 174
129 458
43 187
480 306
45 370
188 230
477 255
480 263
104 115
0 175
435 441
444 408
377 480
117 493
142 96
56 473
198 117
106 414
465 239
111 228
373 327
120 245
74 92
61 31
122 341
369 481
2092
5
