40
11
0 0 0 0 0 0 0 0 0 0 0
28 91 52 17 95 34 54 100 59 18 33
60 79 31 63 72 24 30 69 27 53 66
36 89 25 21 55 30 86 75 74 70 82
90 37 86 63 76 91 86 66 40 94 97
98 98 12 96 65 57 23 41 34 51 97
83 72 70 35 79 69 47 35 24 12 69
70 48 75 85 50 43 62 58 56 90 91
54 22 88 71 36 59 78 21 25 62 71
38 82 83 86 25 75 79 10 49 62 59
94 13 79 88 97 92 16 24 83 38 45
68 93 85 40 34 31 20 67 83 78 38
55 19 66 85 78 96 90 38 56 83 64
91 58 35 70 23 36 48 82 91 48 80
65 46 12 27 37 85 63 69 32 96 74
49 69 52 84 16 76 93 30 64 88 73
68 82 86 64 36 91 32 52 33 35 43
44 59 52 12 68 20 17 90 24 81 95
54 57 21 78 100 23 91 25 46 49 18
50 72 84 61 93 66 42 44 24 60 73
41 87 77 58 93 39 87 28 16 70 70
25 70 92 63 89 20 37 54 96 26 57
40 86 64 68 17 49 75 16 22 91 53
45 90 25 18 48 56 75 67 88 72 96
25 95 18 15 82 58 67 40 16 34 98
59 35 68 36 46 17 94 67 24 77 51
87 11 98 34 13 31 32 38 67 18 39
11 12 36 100 72 69 64 41 10 78 66
64 31 56 95 41 45 45 99 27 42 83
10 66 84 55 82 52 59 21 62 62 68
66 35 27 78 40 65 100 58 88 69 35
17 48 24 99 90 28 61 91 83 20 87
96 69 66 100 23 41 72 35 78 83 100
47 23 71 54 74 58 39 35 85 66 49
27 84 99 76 91 50 88 51 85 49 74
36 66 55 91 93 39 87 41 16 40 26
71 86 52 92 72 55 37 92 92 70 51
35 56 39 15 27 14 21 31 97 31 87
40 29 52 53 51 26 97 60 74 59 62
74 94 28 30 58 53 53 68 22 21 38
0.652063
1.27248
1.21769
1.5423
1.23271
1.50218
1.11309
1.1731
1.25575
1.8756
0.608681
0.836718
2.15648
0.888698
1.93524
0.739715
1.36329
0.835109
1.58908
0.992539
1.94971
1.40417
1.32003
2.39152
1.86647
1.66153
0.833238
1.95254
2.21719
1.2596
1.34892
2.49148
0.622007
1.87934
1.5146
1.00685
0.882503
1.44425
2.49299
2.0374
65 71
251 39
305 458
410 270
240 159
463 414
107 50
285 53
233 310
357 35
336 154
282 41
5 244
408 267
8 140
273 311
101 262
458 192
85 338
405 384
118 316
468 264
275 462
210 417
204 308
256 66
45 407
474 417
354 105
165 400
60 27
343 418
367 67
55 391
69 324
360 397
201 241
419 139
166 189
324 109
11190
1
