40
5
0 0 0 0 0
71 25 99 82 72
60 69 47 72 48
63 96 96 89 59
38 20 64 95 77
93 93 79 49 100
61 98 78 100 72
81 60 60 29 56
72 99 22 42 45
63 78 91 89 29
85 43 56 64 49
65 33 95 53 14
82 17 19 50 82
59 12 95 77 95
82 59 48 83 65
83 36 67 89 94
28 15 60 42 84
84 26 36 58 68
92 12 23 81 72
42 93 19 97 56
24 25 12 57 42
24 95 82 61 100
52 57 34 100 87
66 19 30 51 69
78 63 94 71 62
51 64 47 58 56
87 64 49 69 13
57 14 80 39 100
79 83 19 26 73
65 42 85 74 74
82 29 32 58 42
87 32 77 89 67
43 91 13 12 50
61 47 32 65 69
80 41 76 39 18
21 66 13 31 44
28 74 66 20 33
78 34 92 29 21
28 75 69 66 11
34 59 99 10 84
0.213337
0.351883
0.567927
0.366509
0.968285
0.434082
0.375993
0.535122
0.649222
0.852692
0.598792
0.482202
0.426705
0.207187
0.385521
0.546598
0.711029
0.814119
0.860792
0.477438
0.5744
0.605282
0.481573
0.390114
0.63165
0.96076
0.60769
0.704065
0.364293
0.614177
0.242378
0.986294
0.783665
0.389212
0.413293
0.586727
0.557632
0.346257
0.514761
0.447024
156 368
66 384
114 164
108 272
109 265
307 262
264 77
430 255
328 95
169 292
218 183
463 65
395 444
206 89
153 232
231 494
411 363
433 281
232 476
79 66
367 248
364 9
408 477
314 288
175 19
417 284
429 219
34 173
346 149
266 132
102 101
298 116
403 353
38 64
212 168
489 107
345 189
362 6
207 431
208 197
11460
1
