40
5
0 0 0 0 0
92 99 74 11 74
11 80 13 15 25
40 43 85 69 21
62 42 15 12 90
18 35 18 82 51
23 62 32 17 33
26 33 36 96 61
95 80 51 93 63
56 63 45 28 25
83 70 26 60 13
24 87 96 25 47
68 89 35 81 81
72 63 36 84 39
72 17 12 39 89
46 21 97 67 24
87 74 55 27 30
88 11 59 86 19
80 84 64 62 92
49 12 59 97 51
73 49 65 58 26
22 90 36 77 32
45 88 35 85 31
78 47 12 36 80
66 77 29 34 97
99 80 98 30 50
17 12 13 14 84
65 71 98 11 28
62 41 15 17 63
92 58 91 82 27
98 40 66 32 22
83 55 43 13 31
22 94 66 42 75
99 100 20 56 37
11 72 61 87 95
12 15 94 80 70
20 80 82 20 17
38 20 78 46 44
55 12 22 78 47
28 80 39 58 72
0.492944
0.425467
0.448448
0.766989
1.09764
0.800195
0.542005
0.652049
1.26769
1.11937
1.38483
1.2548
1.38205
0.783656
1.49029
1.31288
0.684289
0.431218
1.02853
0.334653
1.41368
1.27393
1.3544
1.19618
0.439171
1.29357
1.09539
1.15915
1.16991
0.547597
0.581748
0.822348
0.578352
0.956764
1.18423
0.506757
0.510164
0.89547
1.19236
1.11109
20 348
44 375
430 396
250 325
108 153
481 166
358 394
207 496
478 360
157 279
467 226
247 34
442 268
350 273
401 315
204 365
206 77
472 322
229 261
498 452
68 281
191 337
484 432
36 264
141 416
451 316
380 150
266 27
358 10
195 164
330 176
446 95
439 374
410 405
214 357
180 68
221 99
452 105
85 465
402 333
2588.75
4
