40
7
0 0 0 0 0 0 0
35 12 59 90 35 81 45
42 26 96 74 57 90 24
25 76 55 54 20 78 88
21 41 45 36 46 33 51
15 42 34 85 41 76 76
40 72 64 39 86 37 49
43 34 51 21 47 40 78
47 55 29 68 56 57 54
77 69 90 43 75 52 50
47 62 91 48 12 99 51
49 17 68 40 11 73 84
93 53 46 98 82 74 97
14 25 17 91 80 40 86
31 49 11 55 31 21 54
27 42 97 14 58 58 69
40 36 82 30 82 71 86
33 60 40 12 18 28 30
66 29 42 11 67 38 36
36 67 68 78 54 82 22
56 84 92 35 15 39 66
74 65 69 84 40 24 18
34 43 34 35 71 68 77
38 54 13 80 93 17 56
86 26 72 93 75 83 33
20 86 85 15 72 11 54
86 75 52 55 27 67 83
21 89 94 94 44 66 88
91 90 63 77 13 96 77
85 54 78 11 28 49 99
48 15 18 77 77 68 51
38 77 24 75 33 51 57
76 13 27 77 25 29 100
26 37 96 97 67 24 96
19 14 82 97 85 44 16
64 24 27 83 99 60 92
90 14 39 50 88 28 43
72 20 47 58 90 18 62
60 44 81 98 98 70 60
87 83 28 32 78 68 91
0.561151
0.820293
1.20186
0.512992
1.41692
0.996642
0.914635
1.15917
1.81386
0.910518
1.98197
1.56962
1.8038
0.834734
1.79755
1.36812
1.00034
0.674975
0.778927
1.49397
1.40112
1.11091
0.572619
1.61215
0.917609
1.67302
0.502823
0.476241
1.80345
1.74279
1.54858
0.517748
1.45359
1.13265
1.96367
1.80452
1.85483
0.592369
0.73207
1.1704
309 256
205 414
206 398
56 350
375 72
78 296
159 340
129 89
124 37
495 343
258 197
327 381
462 293
477 366
124 414
423 20
188 404
247 111
476 80
298 270
235 344
152 484
76 26
143 325
267 315
12 103
309 208
90 25
268 457
154 484
393 246
438 496
294 421
408 294
387 191
242 326
45 301
320 469
80 241
499 311
10765
1
