40
7
0 0 0 0 0 0 0
10 70 39 11 62 19 73
69 33 58 76 56 69 39
12 34 52 15 16 77 19
95 13 57 42 75 72 84
45 48 95 65 83 42 74
49 29 70 21 47 78 37
84 90 84 65 65 32 97
67 85 41 89 53 21 44
62 66 86 21 96 20 69
10 57 28 56 29 41 36
54 61 24 63 28 19 97
43 75 94 52 52 75 64
69 12 29 91 24 99 74
23 48 59 66 77 82 49
70 11 41 78 21 76 74
27 75 18 70 72 98 80
96 15 74 17 40 52 72
42 73 95 59 23 85 64
43 38 84 88 20 48 81
38 96 33 62 32 48 14
53 62 53 11 85 87 51
57 90 95 96 56 33 49
16 30 50 41 42 34 83
25 31 40 41 87 51 64
68 79 43 95 46 94 97
48 67 90 66 50 64 89
68 46 47 45 100 24 100
39 70 34 37 41 75 68
72 94 33 33 34 92 82
31 43 38 32 41 57 40
54 23 65 69 56 53 20
42 88 84 96 19 43 41
30 19 40 32 96 89 45
38 19 58 17 71 27 78
46 48 52 22 76 18 15
100 75 77 75 78 99 70
46 75 66 80 100 41 85
43 64 77 61 35 38 12
60 33 99 82 24 15 95
1.41175
1.1511
1.06883
0.366832
0.583951
0.722186
0.790285
1.44971
0.493912
1.22292
0.319744
0.445016
0.980501
0.9149
1.18321
1.40968
0.972483
1.07246
1.18209
0.894842
0.30535
0.342455
0.507225
1.43649
0.377257
0.435333
0.975541
1.04091
1.25455
1.39479
1.42925
0.599911
0.304794
1.15723
1.43304
1.12236
1.1149
0.651737
0.399152
0.671722
332 358
224 24
21 267
358 280
47 25
355 168
498 354
353 62
306 488
278 311
122 18
485 451
150 8
421 473
122 132
262 281
128 423
58 25
473 141
350 174
70 269
432 250
422 308
417 446
493 402
365 497
361 156
181 88
383 194
356 356
88 181
244 51
164 426
183 486
67 445
135 418
110 230
92 301
157 188
136 414
10845
1
