40
9
0 0 0 0 0 0 0 0 0
92 88 57 47 28 59 92 90 78
92 33 51 80 17 48 78 65 28
42 16 46 41 83 76 86 75 96
95 68 64 75 63 77 89 23 44
34 54 62 22 36 53 66 85 46
77 78 83 80 71 69 69 59 24
76 53 46 20 39 88 38 36 83
46 65 96 30 27 96 80 42 32
60 65 57 42 70 54 97 98 33
33 58 27 60 78 69 42 17 17
94 92 15 57 39 41 68 20 100
95 95 40 84 33 13 28 96 11
65 34 56 46 56 70 22 20 54
58 79 38 11 51 30 87 82 41
80 15 58 30 23 94 14 24 93
56 65 95 85 81 100 24 82 46
30 59 49 10 89 48 19 48 80
70 21 47 42 15 59 62 22 60
44 11 35 61 13 42 62 28 70
21 64 74 25 35 70 35 28 60
10 88 84 69 32 86 73 32 44
62 14 53 67 28 92 14 51 42
26 33 69 11 19 42 56 56 75
21 71 87 99 82 90 49 70 20
33 79 84 30 15 23 51 35 37
63 91 83 17 40 80 35 61 92
89 94 34 46 25 44 55 91 99
77 45 24 59 52 100 26 40 42
83 65 50 97 63 27 88 19 15
30 59 63 63 35 28 72 89 60
63 15 10 90 28 72 28 11 79
43 93 62 87 35 12 16 81 89
24 85 47 87 41 49 40 45 55
35 60 41 44 47 88 25 58 51
86 22 73 60 18 41 45 46 30
80 96 13 80 84 43 12 56 41
56 47 51 84 41 26 10 49 51
39 33 70 53 34 81 44 95 56
21 83 86 18 99 81 78 47 50
1.45597
1.3705
0.845312
1.36168
1.01562
0.619654
0.764698
1.00411
1.31684
0.557707
1.72316
0.4219
0.593822
1.48894
1.37187
0.59662
1.07221
1.36194
1.65903
0.780013
1.78516
1.68996
0.84124
1.37443
1.6868
1.36123
1.83306
0.75439
1.17279
1.34128
0.417576
1.0269
1.78022
1.29287
1.34725
0.934424
1.20563
1.38328
1.3477
0.969538
29 94
413 408
282 414
444 421
431 71
332 465
486 28
381 305
337 482
232 258
319 84
315 14
306 29
216 225
404 226
153 76
329 384
191 198
379 129
93 404
108 344
194 484
277 158
260 93
63 74
144 257
25 486
100 439
398 60
255 274
15 334
161 4
219 382
397 166
478 428
396 486
21 94
420 40
131 316
279 495
2119
5
