40
7
0 0 0 0 0 0 0
92 17 62 44 13 81 18
11 72 35 62 41 68 88
14 65 25 98 14 69 73
71 85 27 81 45 70 84
84 51 83 96 49 83 84
19 77 14 97 92 81 36
23 44 13 28 27 32 29
23 95 86 76 14 27 36
48 37 45 30 20 30 97
34 86 74 43 25 67 75
78 43 16 72 55 66 15
10 23 59 30 25 48 46
93 68 73 59 22 86 61
10 71 39 86 12 59 55
17 37 26 21 11 62 67
61 89 22 89 30 92 35
30 74 87 94 36 55 37
15 56 88 23 79 55 77
76 11 22 88 25 15 35
70 68 28 23 10 95 96
83 72 70 60 39 83 57
61 98 26 71 65 65 99
55 67 25 45 83 43 96
57 26 67 86 90 64 95
43 44 81 17 97 23 58
88 62 93 71 100 57 43
56 88 98 47 28 57 95
66 19 87 29 11 23 28
33 71 31 70 69 87 51
57 36 94 50 32 76 59
55 70 17 90 58 69 49
86 58 85 28 94 66 56
24 19 74 67 76 89 85
39 88 58 56 34 65 34
30 35 21 82 83 36 93
64 56 78 52 99 27 84
65 89 95 59 99 100 61
31 41 36 91 68 86 48
35 42 37 46 12 51 11
1.07587
0.99727
1.12392
0.963656
0.894125
0.549825
0.86541
1.14012
1.18492
1.23656
0.884642
0.990138
1.14704
0.471275
1.09809
0.904588
1.08788
0.476512
0.924886
1.41514
0.430091
0.667314
0.74981
0.323516
0.511372
1.41074
1.25626
0.879038
0.425529
1.35558
1.39816
0.445079
0.645317
1.23041
1.46922
1.2816
1.45374
0.301494
0.403702
0.516326
38 105
324 451
178 329
396 112
281 184
410 365
369 376
426 87
57 282
235 278
209 210
444 407
376 210
460 245
155 157
456 460
65 230
279 122
288 129
370 127
469 154
476 287
374 50
383 310
191 486
303 111
118 108
229 246
146 255
98 31
173 411
242 218
392 260
110 345
97 102
94 295
22 112
476 33
73 476
271 491
10890
1
