40
11
0 0 0 0 0 0 0 0 0 0 0
27 54 51 43 63 77 18 22 89 80 29
23 81 59 96 66 39 26 93 32 62 66
24 62 60 75 67 47 89 46 58 68 72
96 24 66 92 46 85 44 84 83 21 70
90 42 34 15 18 85 16 44 11 79 19
79 38 27 90 20 64 100 79 47 54 55
97 27 91 70 62 63 91 25 20 87 42
78 59 97 43 57 74 34 76 37 17 40
60 89 50 40 56 87 45 75 77 48 28
62 69 25 92 38 51 28 23 17 84 78
29 66 36 97 27 69 62 14 21 36 12
55 61 17 55 85 76 59 67 21 21 92
32 49 29 14 14 81 37 71 66 86 83
61 94 77 69 38 44 42 57 32 62 27
97 49 70 81 19 78 24 43 46 37 56
52 25 65 78 91 12 20 41 87 49 54
33 31 68 16 52 51 83 47 48 12 98
96 81 83 91 47 50 62 97 97 81 21
92 43 88 69 71 17 51 86 34 38 86
86 46 16 23 27 18 50 79 22 62 63
58 29 91 55 83 47 36 87 58 12 89
68 39 82 30 16 84 49 17 75 24 87
72 34 95 18 72 74 60 11 64 12 27
42 62 97 56 36 47 82 51 58 58 31
12 92 54 37 46 24 30 10 73 21 96
11 17 23 42 43 82 42 66 21 89 64
94 19 34 12 41 74 78 95 48 57 63
30 79 56 76 46 49 72 88 51 50 90
59 93 86 38 64 58 89 13 50 45 62
30 77 36 100 51 49 56 81 25 37 72
14 95 82 17 61 28 43 50 28 23 56
23 36 86 28 73 37 66 26 71 37 83
14 29 53 25 55 71 50 58 24 100 56
56 59 23 93 54 94 53 83 11 25 46
25 58 71 72 37 72 24 58 69 44 76
24 95 76 13 68 89 52 50 28 15 98
28 17 68 74 28 94 33 32 53 91 87
18 81 22 18 97 80 57 78 48 74 41
16 90 96 32 27 15 53 50 34 59 95
0.41206
0.515721
0.598409
0.752194
0.938895
0.691936
0.92345
0.393087
0.21662
0.909017
0.986417
0.740811
0.20587
0.490796
0.843773
0.671041
0.868981
0.395191
0.451493
0.232789
0.670478
0.873269
0.212146
0.512314
0.651629
0.936152
0.33714
0.805377
0.393051
0.873992
0.542887
0.831881
0.704597
0.992928
0.304366
0.992004
0.660168
0.534228
0.327791
0.975734
106 72
89 180
100 123
292 376
253 360
15 377
491 86
13 392
401 353
354 399
142 404
61 424
241 292
356 372
150 411
58 55
387 15
178 415
53 395
124 27
221 151
270 33
390 329
315 47
402 305
285 433
27 70
333 97
16 265
133 346
327 71
283 486
175 361
331 398
306 345
295 80
31 229
110 5
166 132
115 238
3523.33
3
