40
7
0 0 0 0 0 0 0
48 68 85 82 18 28 45
35 64 29 19 39 73 26
91 20 24 57 52 51 46
80 55 35 39 35 82 34
48 95 64 14 66 95 56
70 64 22 70 38 16 61
68 38 24 21 76 99 41
42 67 59 79 55 87 90
96 100 13 48 52 11 74
96 97 17 44 79 25 30
92 100 59 78 26 57 78
48 86 51 52 38 87 57
88 19 73 74 41 28 22
18 86 75 18 20 98 35
32 63 62 23 73 36 47
79 10 30 90 13 59 98
18 64 14 35 28 90 92
60 98 36 78 60 55 44
64 91 19 38 11 71 60
27 51 48 20 69 64 63
19 73 91 59 15 79 61
10 33 24 93 48 89 33
93 15 53 98 17 29 26
71 22 57 37 67 17 43
49 85 12 54 32 46 14
92 60 12 56 55 59 77
99 33 94 37 14 41 41
47 20 45 48 11 18 55
73 65 82 60 40 57 11
43 67 99 91 43 39 81
28 100 63 38 59 38 15
27 37 18 88 99 53 49
24 65 11 76 83 21 58
39 50 92 43 93 77 54
40 20 40 57 73 15 75
74 10 25 58 32 35 70
38 59 94 48 43 80 40
89 24 15 23 36 78 11
74 13 99 75 86 70 56
1.03085
1.40552
2.32452
1.94798
2.32539
2.4358
0.731867
1.43171
1.79667
0.561629
1.06137
2.25116
2.34179
1.13503
2.27811
1.7987
0.973593
2.28631
2.25439
2.22666
1.06379
1.17804
1.04047
0.795475
2.07539
2.20083
0.504022
1.09057
2.38781
0.781576
2.15456
1.97172
1.26336
2.21315
1.59775
2.33612
2.157
1.80642
0.518341
0.952238
293 255
354 134
433 374
11 469
428 348
469 339
473 361
80 396
362 13
238 49
148 332
101 95
463 123
499 327
386 54
113 173
233 314
387 110
283 189
237 165
228 431
13 62
127 213
295 378
78 202
85 381
364 249
303 279
399 68
466 110
175 235
56 240
427 427
393 135
113 404
45 65
51 238
38 173
187 366
400 185
5125
2
