40
11
0 0 0 0 0 0 0 0 0 0 0
33 14 66 40 62 59 22 66 10 26 75
23 30 86 91 74 79 92 49 91 94 76
96 32 54 60 84 52 60 99 95 74 19
17 51 65 44 15 96 59 81 57 43 62
95 82 18 13 76 23 36 32 75 68 11
15 13 94 85 36 93 58 90 48 82 61
35 91 39 68 61 29 58 12 39 75 66
11 96 12 65 56 89 48 86 44 27 72
27 68 66 53 77 22 24 59 88 80 50
96 18 21 31 61 51 20 17 96 78 35
63 60 88 100 91 68 84 26 91 22 20
95 21 37 19 64 33 62 93 39 60 23
29 57 64 56 78 77 87 39 100 77 98
20 75 84 95 99 88 20 88 11 76 82
60 63 92 11 50 93 31 26 90 40 52
85 42 74 65 29 11 33 58 23 35 59
82 57 77 80 62 34 95 82 69 93 28
21 48 62 58 79 74 46 64 18 53 87
75 89 42 90 90 97 74 14 79 65 13
41 64 16 54 21 68 26 13 74 26 95
47 84 61 38 20 22 90 31 24 76 10
43 30 30 30 75 42 58 27 56 15 29
99 46 78 99 32 32 88 15 29 49 89
62 70 53 11 63 100 15 76 31 99 33
42 72 15 85 75 38 60 35 95 61 23
22 96 98 45 11 83 93 86 27 30 90
76 96 89 81 51 12 98 28 91 22 50
30 58 81 29 21 53 74 24 65 86 24
88 70 19 76 63 97 19 27 73 33 84
63 53 82 17 79 25 85 56 63 66 76
51 94 21 100 39 71 91 83 88 40 90
66 56 82 90 87 39 84 97 58 96 86
52 95 57 27 73 79 100 53 19 76 35
93 91 52 44 26 11 41 62 88 39 20
93 56 54 35 17 22 65 44 75 10 56
54 47 34 59 83 24 56 26 54 95 15
48 23 83 62 86 55 93 20 90 94 100
58 99 91 71 53 41 69 27 27 89 22
84 76 48 63 79 52 23 97 34 22 36
0.814179
0.899999
0.312708
0.586682
0.368477
0.20155
0.52743
0.68234
0.486307
0.32469
0.20336
0.839946
0.345452
0.697815
0.278
0.440024
0.984685
0.469626
0.543094
0.773941
0.856958
0.471939
0.550178
0.535128
0.226003
0.835288
0.638977
0.591681
0.624757
0.962414
0.493514
0.201516
0.496632
0.525539
0.519439
0.592309
0.573509
0.979423
0.366852
0.598582
251 477
428 196
331 481
268 482
335 341
203 354
78 227
330 100
472 85
217 387
379 114
256 429
460 87
50 327
498 68
420 100
108 362
459 241
141 236
141 295
64 285
257 400
298 178
244 147
375 351
429 333
436 84
219 260
184 369
287 345
362 53
42 450
239 164
278 122
454 94
137 91
391 473
68 145
283 475
49 354
2788.75
4
