40
9
0 0 0 0 0 0 0 0 0
35 18 55 28 29 66 18 31 46
76 18 82 91 29 61 41 63 66
58 97 45 30 66 85 96 97 30
99 74 30 40 17 65 27 39 71
53 46 34 50 75 85 61 72 59
44 86 25 38 41 79 88 85 58
37 92 12 40 68 25 21 81 23
42 95 73 58 30 50 67 89 72
68 56 12 14 29 20 51 52 89
94 15 83 97 80 70 65 30 28
34 91 94 59 19 29 85 61 72
47 20 46 92 71 97 10 66 13
93 82 33 97 21 12 44 79 24
10 70 75 92 42 36 27 93 100
88 82 52 15 42 31 89 79 60
62 87 98 74 32 68 62 72 16
48 99 40 14 27 48 55 22 59
65 71 89 44 22 59 88 96 47
11 99 65 74 77 10 73 46 96
31 99 33 20 68 15 100 71 34
17 49 80 60 90 43 75 93 56
26 23 44 29 97 88 17 98 47
84 68 21 60 22 53 59 10 80
44 12 19 31 62 55 43 16 90
15 56 76 19 97 61 35 25 58
20 14 42 40 10 34 58 71 61
24 15 49 91 27 24 18 39 10
34 99 44 13 39 95 67 58 53
14 26 44 51 19 31 13 45 35
88 11 22 18 95 49 34 77 16
44 29 10 30 62 73 28 94 63
10 20 66 25 100 95 49 25 69
36 82 93 43 75 30 63 39 30
71 16 52 93 72 56 36 21 77
19 92 24 92 26 45 85 64 92
10 65 70 20 62 60 58 64 94
88 80 34 94 29 93 57 96 24
17 41 69 62 35 92 81 63 32
90 80 63 69 45 76 27 89 13
0.342913
0.117163
0.122345
0.236404
0.290205
0.471442
0.237407
0.414892
0.470112
0.465693
0.120779
0.336765
0.286647
0.292688
0.246237
0.254351
0.18944
0.229351
0.344406
0.400102
0.268403
0.100665
0.233431
0.499211
0.122824
0.246436
0.289083
0.49138
0.156399
0.139709
0.128449
0.415226
0.265402
0.298218
0.310629
0.245586
0.107064
0.3947
0.393001
0.341957
250 275
405 269
347 480
280 498
396 325
211 330
25 456
371 247
205 27
259 348
290 82
99 420
6 354
91 351
293 217
46 86
305 397
34 308
187 42
150 150
405 343
401 33
434 195
489 132
85 202
231 69
283 429
382 59
242 14
335 204
97 408
161 463
483 265
324 105
427 222
444 156
347 8
458 271
151 498
175 312
5217.5
2
