40
3
0 0 0
50 55 65
49 39 31
49 22 18
34 32 71
60 19 83
74 58 78
79 46 32
55 99 48
54 71 44
79 21 89
57 76 88
70 29 60
68 92 55
90 68 31
51 69 53
47 100 54
67 10 85
68 21 71
74 64 64
70 57 66
36 51 45
33 11 52
32 18 97
85 99 28
52 78 62
72 35 29
89 43 86
14 82 16
52 54 17
93 16 30
27 60 84
95 34 44
53 37 38
74 13 29
94 66 56
93 73 90
21 45 21
30 96 43
61 97 93
0.268246
0.45523
0.15838
0.259147
0.468184
0.26041
0.39181
0.444241
0.342948
0.142551
0.343052
0.13781
0.172383
0.135124
0.34645
0.377826
0.171705
0.147501
0.337427
0.15519
0.263226
0.386819
0.430573
0.264211
0.493761
0.28654
0.366567
0.419651
0.144229
0.230339
0.109609
0.169929
0.453795
0.237697
0.234697
0.396817
0.235013
0.279734
0.304008
0.231347
302 272
443 264
217 184
47 443
56 386
330 491
393 140
347 230
494 274
115 260
436 245
288 472
423 342
22 71
84 404
102 429
376 413
354 23
93 447
196 23
423 401
362 270
70 121
375 2
175 33
301 460
9 286
241 243
12 298
166 96
174 328
254 25
299 325
271 299
106 18
72 38
222 493
306 491
14 264
205 435
10920
1
