40
5
0 0 0 0 0
54 44 91 30 13
10 63 63 89 57
51 57 16 72 87
21 81 47 83 61
87 98 98 34 67
24 96 29 35 23
90 39 39 74 69
27 23 66 26 73
57 78 87 96 77
48 54 94 53 16
62 20 67 13 53
78 31 22 64 59
28 46 66 13 33
58 95 47 65 96
75 43 56 77 69
34 79 29 66 99
67 41 16 76 71
43 46 14 64 57
38 42 76 11 64
74 70 27 34 97
54 28 88 58 87
47 29 60 66 70
93 44 38 73 28
29 32 94 54 31
70 10 77 49 99
37 93 23 36 92
20 93 60 34 93
75 19 40 38 22
86 68 20 12 44
38 24 83 45 95
100 42 81 76 66
39 11 69 84 20
71 75 89 76 52
78 12 41 36 52
28 100 76 98 13
36 12 97 43 44
67 26 96 48 73
33 44 24 62 33
49 30 27 63 80
1.21114
0.889913
0.403439
1.3496
0.648061
1.35582
1.32945
1.33652
0.793835
1.26577
0.927059
0.624469
1.25868
1.11429
0.66686
0.713937
1.3867
0.678729
0.689437
0.615231
1.32977
0.932724
1.36712
0.63794
0.533783
1.31746
0.905157
0.373286
1.35669
0.703241
0.726032
1.22269
1.14825
0.775153
1.21039
0.597188
0.75683
0.959065
0.775138
1.37254
35 49
85 20
383 480
244 237
470 129
128 170
396 337
122 278
228 78
444 227
178 33
7 393
496 281
169 246
461 210
246 324
460 358
228 169
74 423
391 350
294 274
341 103
21 342
84 179
387 393
223 106
99 2
222 294
295 298
376 451
246 448
472 280
20 140
50 255
104 233
2 281
339 341
97 36
148 442
44 193
2676.25
4
