40
3
0 0 0
13 25 10
49 84 68
48 37 76
28 90 56
28 45 32
32 23 86
81 18 52
71 58 94
89 21 40
47 100 89
20 87 82
78 13 88
43 18 67
78 97 55
78 91 16
93 99 17
100 71 95
37 54 19
88 87 38
64 82 38
65 65 11
30 21 65
79 38 17
12 17 33
52 46 91
59 100 68
23 77 92
58 97 37
75 96 99
91 61 67
68 60 97
25 26 64
45 100 87
91 98 49
55 53 54
53 94 60
36 53 78
77 48 18
25 77 43
0.454226
0.279218
0.480736
0.360956
0.495156
0.219021
0.176696
0.225326
0.213298
0.168352
0.253376
0.359141
0.429594
0.208757
0.25752
0.471208
0.190238
0.290318
0.152648
0.427124
0.136162
0.123065
0.296942
0.116217
0.366334
0.314421
0.207344
0.233358
0.385665
0.215604
0.464292
0.308914
0.33046
0.332991
0.433683
0.255911
0.239685
0.444083
0.255851
0.344903
212 404
170 242
52 424
479 472
95 441
98 123
382 133
31 188
436 146
340 475
66 2
388 74
34 52
59 377
478 71
258 474
450 29
198 200
356 173
475 118
131 311
460 493
422 57
423 30
428 232
82 56
45 63
275 165
77 10
104 330
474 481
283 464
400 424
64 441
272 75
103 366
234 283
135 77
48 459
101 42
11430
1
