40
9
0 0 0 0 0 0 0 0 0
49 38 18 33 20 42 33 82 67
26 20 99 95 49 79 13 57 42
88 84 24 58 23 67 60 55 63
97 51 17 67 20 16 22 17 85
72 27 75 23 19 59 89 98 90
85 69 19 52 89 92 39 27 73
59 61 76 75 75 22 91 88 55
78 24 22 52 35 44 72 18 91
84 65 97 24 15 98 58 69 74
14 21 59 40 28 72 48 86 83
50 35 10 83 23 76 51 18 40
19 21 72 19 81 56 25 30 10
59 58 97 57 13 21 81 19 73
73 15 87 29 38 14 14 95 10
42 57 90 31 58 65 64 14 58
30 13 21 64 33 82 54 60 44
44 29 35 65 19 100 77 20 99
17 94 52 88 21 96 27 13 90
71 27 23 95 32 20 21 65 37
37 57 27 17 86 73 64 43 94
32 72 63 66 34 18 87 77 57
35 68 50 91 98 35 85 26 40
61 54 86 93 28 23 35 55 61
74 47 70 50 87 35 35 11 75
75 44 10 60 63 65 41 22 57
39 76 99 61 29 13 31 18 54
92 43 48 60 13 74 71 91 54
54 81 20 12 62 68 43 69 57
91 65 65 99 33 95 21 45 92
29 36 10 96 54 17 38 67 42
54 39 44 22 93 11 56 85 81
41 63 56 79 42 22 60 25 93
76 38 15 100 23 12 50 85 17
47 28 66 76 46 60 54 84 62
12 39 61 62 63 33 49 22 28
14 45 72 36 61 46 59 92 93
53 26 52 67 52 68 95 80 44
55 19 84 83 75 53 80 66 22
98 27 65 49 83 52 25 43 25
0.998545
0.541875
1.20601
2.06144
1.66443
0.527387
1.18866
2.34998
1.30123
1.74689
1.48045
0.908993
0.712995
2.14742
0.501756
1.17948
2.13124
0.669166
2.39993
2.00841
1.30955
1.95325
1.13554
2.09589
1.50212
0.632136
2.3145
1.02461
0.815441
1.99321
2.36364
1.74708
0.736441
0.559449
1.03777
1.49555
0.62677
0.69499
2.24058
2.14013
184 404
191 19
267 299
318 337
230 369
269 314
476 23
223 152
419 206
59 101
384 200
216 16
253 406
228 424
251 46
425 136
280 73
386 267
69 435
121 145
94 433
279 457
318 269
1 354
165 479
276 339
326 493
162 106
283 158
457 172
229 320
40 466
26 428
249 406
197 346
279 133
360 312
129 44
238 191
474 165
3421.67
3
