40
5
0 0 0 0 0
80 66 91 86 32
41 37 45 23 47
84 46 73 46 80
44 20 71 69 38
26 29 13 66 48
52 21 72 67 55
53 90 99 62 76
21 81 90 39 34
45 42 70 40 99
57 60 63 81 22
31 39 19 11 55
50 47 69 51 37
99 54 82 91 18
77 41 98 99 39
78 42 66 16 50
17 19 27 88 72
24 80 15 92 55
86 66 33 16 64
89 12 39 38 78
49 78 35 60 86
25 31 48 95 68
46 50 39 48 70
33 71 31 21 14
70 31 89 10 92
78 76 10 21 19
94 47 39 81 39
18 67 66 69 87
69 77 15 82 45
11 73 45 68 98
88 14 67 20 28
80 53 58 26 86
66 17 35 43 84
50 87 59 32 47
12 60 11 77 41
88 80 62 15 87
55 67 68 29 94
71 86 31 100 10
76 34 54 12 100
42 93 52 51 71
0.49135
0.27853
0.878922
0.270912
0.537012
0.667906
0.250917
0.577757
0.899486
0.223661
0.697797
0.686273
0.314578
0.762714
0.616585
0.671988
0.52404
0.314892
0.745903
0.352464
0.639228
0.957835
0.459615
0.864575
0.314081
0.636727
0.939862
0.424907
0.733652
0.397796
0.914319
0.972533
0.324484
0.512596
0.986736
0.520221
0.861724
0.282613
0.775548
0.554852
209 404
53 126
40 469
487 204
180 384
260 396
153 368
351 155
16 110
471 452
46 201
472 196
353 497
25 444
42 65
57 433
256 0
250 211
26 114
319 284
331 235
373 218
405 440
95 420
431 377
305 439
362 16
474 81
359 19
478 279
318 266
43 360
84 429
270 39
413 289
500 345
301 194
63 97
225 234
71 342
5305
2
