40
3
0 0 0
95 92 11
87 60 11
29 70 73
11 26 92
72 86 42
48 74 47
14 73 67
85 39 25
92 60 81
79 15 93
98 25 95
28 35 100
91 12 53
23 13 81
72 38 40
66 18 60
46 26 33
90 60 33
81 24 40
69 25 26
45 11 74
42 57 12
43 58 26
57 82 15
62 49 52
38 100 69
84 100 21
36 24 58
83 56 27
81 10 79
92 29 12
37 97 83
85 50 54
81 76 24
41 10 18
63 85 32
74 64 39
65 34 26
49 33 17
0.813932
0.467519
0.670541
0.238738
0.773063
0.966077
0.917641
0.737623
0.371082
0.569916
0.879917
0.796321
0.361196
0.427807
0.658588
0.367595
0.67725
0.858998
0.852003
0.722658
0.262439
0.20381
0.567854
0.47076
0.670277
0.558246
0.561703
0.793094
0.937447
0.643411
0.20054
0.415927
0.202028
0.926776
0.703294
0.314678
0.582283
0.928946
0.570914
0.681749
155 177
397 95
361 92
185 83
12 388
71 448
351 76
466 278
115 28
385 467
30 46
90 367
324 326
316 265
200 306
355 66
260 105
439 82
421 405
380 360
256 229
67 461
442 123
210 176
303 61
215 3
104 290
97 152
483 277
200 387
15 497
321 330
17 237
115 11
153 82
334 55
410 7
349 184
356 305
226 163
3428.33
3
