40
5
0 0 0 0 0
67 29 55 81 23
62 12 30 57 13
99 22 45 67 55
67 25 66 65 89
45 85 78 13 53
92 79 60 40 63
62 85 92 49 80
88 49 97 42 24
44 74 100 37 65
79 15 92 94 73
89 95 96 74 40
94 38 48 69 47
10 27 16 65 41
97 17 64 63 42
34 80 52 24 20
14 41 90 74 27
55 83 38 84 43
34 48 33 86 100
67 59 89 61 76
68 11 54 43 11
75 43 86 59 18
49 29 31 51 90
77 99 50 100 68
58 10 89 24 80
69 81 74 61 95
82 94 13 70 33
15 51 67 73 17
54 33 81 62 48
56 91 11 94 82
28 50 51 88 51
29 36 99 30 99
22 70 52 92 28
78 52 26 19 47
47 98 38 68 50
11 28 32 87 73
40 43 12 100 29
22 31 18 18 93
90 23 28 63 21
95 66 76 36 54
0.840455
0.782985
0.273226
0.839664
0.873973
0.43596
0.630635
0.481042
0.448294
0.773244
0.475338
0.95067
0.871633
0.247884
0.678761
0.270359
0.511971
0.596385
0.991552
0.86554
0.605646
0.463821
0.775764
0.624878
0.668465
0.546687
0.736273
0.240312
0.273146
0.428679
0.731655
0.983405
0.497929
0.555896
0.505712
0.323863
0.99034
0.699209
0.233892
0.47348
247 181
390 207
155 61
58 130
164 453
183 61
133 170
45 259
63 246
112 447
110 454
266 384
121 201
430 186
250 464
338 236
466 186
339 493
188 473
243 476
378 417
269 468
166 355
357 241
161 159
65 290
245 424
372 8
453 302
412 428
390 262
334 280
317 236
394 269
88 328
447 130
22 147
462 86
68 200
362 331
2733.75
4
