40
5
0 0 0 0 0
46 88 85 67 14
14 79 17 98 24
36 63 30 82 45
27 78 60 32 81
42 94 50 99 88
20 46 24 67 18
25 42 35 65 59
77 46 28 56 45
89 21 62 100 60
41 32 27 71 48
94 29 17 44 70
49 42 35 59 72
29 79 95 74 55
40 20 52 80 16
79 13 47 31 24
40 33 19 34 51
93 82 44 12 21
29 75 60 46 25
70 32 73 32 87
58 60 57 90 71
96 99 32 86 32
79 23 16 24 37
61 48 66 69 14
70 17 12 39 35
11 54 85 59 72
31 98 73 29 79
64 90 80 67 82
16 50 100 86 77
66 47 56 39 23
69 36 66 60 45
11 95 12 71 89
43 98 53 98 31
57 79 82 37 18
25 96 91 21 48
30 27 81 65 65
57 100 68 73 33
62 59 82 66 86
65 65 60 40 39
10 15 53 30 21
0.929542
1.00835
1.46502
1.10951
1.46716
1.20054
1.04796
1.48492
1.31408
0.977242
0.640976
1.10368
0.706197
1.44458
0.577185
0.840892
1.45818
0.491222
0.602979
1.14774
1.39558
0.529872
1.12066
1.407
1.30186
1.09496
1.43358
0.797486
0.735623
0.509781
1.38503
1.09498
1.49377
0.374111
1.04161
1.02598
1.45809
0.764237
0.96637
0.485731
492 76
75 189
494 267
421 89
231 241
411 458
157 429
219 192
100 106
209 227
85 227
54 73
444 18
17 162
90 36
143 411
369 14
67 349
165 392
322 429
17 368
83 48
266 81
430 381
299 118
448 319
61 369
462 61
386 390
465 185
262 242
342 148
225 393
66 496
351 379
383 187
78 53
63 340
371 173
182 324
2612.5
4
