40
9
0 0 0 0 0 0 0 0 0
83 27 39 95 51 97 80 36 35
87 72 24 80 98 28 56 31 61
80 67 20 61 11 93 76 35 29
63 10 58 41 75 17 98 38 87
16 61 98 88 37 92 22 66 32
10 10 63 30 33 83 61 10 51
40 59 68 27 57 84 70 26 14
73 78 55 28 63 72 32 20 26
46 89 60 26 35 95 29 83 84
89 84 75 12 45 53 22 37 30
38 23 95 17 10 47 77 64 43
75 72 49 10 22 79 60 34 97
42 52 84 80 68 13 63 48 98
87 28 84 65 69 84 44 73 21
37 68 55 93 15 30 99 70 53
12 44 39 33 100 52 95 71 17
85 24 51 66 52 17 45 44 93
32 82 20 33 78 66 77 32 53
96 16 54 13 91 74 33 25 65
64 96 19 34 76 43 38 14 62
87 69 30 92 27 65 22 48 53
46 24 94 48 65 18 46 90 77
12 52 100 76 39 83 48 49 48
88 35 46 85 32 79 50 45 39
64 62 31 19 85 75 53 44 98
56 25 41 61 13 45 46 40 49
29 98 62 95 70 59 94 75 97
60 45 97 89 50 46 38 58 42
86 28 47 48 18 37 56 74 90
85 92 54 84 28 94 52 35 77
40 44 69 76 70 20 87 27 79
23 87 99 99 45 36 76 85 40
14 87 81 99 42 57 17 28 52
17 72 51 39 25 22 12 15 41
41 41 59 58 31 78 30 86 90
75 92 86 69 90 27 59 59 38
80 82 72 94 24 34 90 23 89
66 82 70 44 60 62 84 22 43
40 78 84 42 51 91 80 74 20
0.714185
0.571394
1.23697
0.715301
1.14943
0.566795
1.1619
1.14921
0.779098
0.439464
0.992705
0.907274
1.4112
0.90935
1.32338
0.498267
0.973904
1.28115
0.68198
0.358255
0.94232
0.759773
1.18631
0.77905
1.45877
1.03811
0.461993
0.943022
0.736126
0.459449
0.800753
1.35151
1.31199
0.498344
0.381079
1.29658
0.754124
0.968023
0.73541
0.71286
413 232
93 301
172 273
132 138
43 325
376 134
352 138
146 462
0 251
370 444
440 78
58 3
294 430
152 447
354 117
336 297
29 296
250 51
152 108
93 237
397 367
401 360
473 250
308 389
222 410
391 204
64 360
38 163
308 14
376 168
328 272
70 279
168 395
337 37
463 200
1 1
169 390
124 22
340 132
66 305
5420
2
