40
3
0 0 0
46 15 54
52 46 95
100 83 56
93 73 36
89 37 79
16 87 56
60 19 34
92 31 16
67 92 16
94 79 46
54 88 52
38 62 98
53 58 30
87 20 51
18 15 51
15 35 82
33 17 74
77 59 26
46 100 84
88 14 29
31 50 39
51 29 66
27 43 53
76 56 100
48 68 66
11 37 72
36 91 66
45 37 96
72 56 86
77 87 96
69 45 67
34 95 76
16 21 100
24 51 79
66 81 16
52 47 54
53 23 46
73 81 98
39 85 73
1.79053
0.428276
1.38109
0.687549
1.55478
0.798036
1.96057
0.490906
1.65626
1.38985
1.1394
1.20555
0.893107
1.19191
0.642662
1.35438
1.74034
1.5391
1.66444
0.810762
1.84279
1.08323
1.59689
1.70524
0.532114
0.469778
0.874862
1.85498
1.01961
1.99428
1.24701
0.872293
1.60898
0.790743
1.10922
1.32356
0.848234
1.59179
0.886049
1.49743
266 355
104 19
478 454
194 340
360 399
443 3
239 212
438 244
152 41
400 260
271 293
158 123
430 457
132 206
310 452
181 248
240 327
480 99
293 35
311 80
45 102
263 246
430 190
162 467
405 488
191 198
333 68
356 22
8 212
143 194
144 81
493 401
145 192
152 172
149 487
399 391
470 326
441 374
416 411
366 29
3691.67
3
