40
7
0 0 0 0 0 0 0
55 66 30 18 32 50 21
44 77 36 80 100 33 21
54 47 61 89 23 34 38
96 40 85 10 91 75 49
80 14 26 51 56 94 54
58 36 59 89 15 98 39
94 46 44 78 94 62 23
58 18 87 11 82 40 82
38 99 62 12 73 17 40
96 26 81 84 65 77 35
15 54 96 54 34 93 53
48 19 91 83 74 87 72
19 22 60 43 23 83 93
71 63 46 74 63 47 68
50 88 18 89 96 86 61
93 97 33 26 52 46 80
29 70 23 85 53 21 48
98 17 33 83 82 21 89
67 14 80 68 60 62 46
67 56 80 14 100 49 81
16 49 52 11 74 21 18
18 44 71 11 91 15 50
11 72 77 100 46 15 35
49 33 29 17 27 83 17
47 90 84 23 63 76 69
92 73 50 15 92 18 99
51 43 73 84 64 85 85
10 82 55 64 67 27 26
58 62 26 72 90 76 45
95 35 76 41 64 98 77
10 32 80 80 18 41 94
61 95 23 62 40 91 10
79 73 94 71 17 35 21
60 30 84 42 68 10 32
84 55 63 89 76 79 26
30 13 77 93 72 60 47
58 11 80 57 17 43 51
96 38 21 16 62 51 100
43 91 38 16 61 10 89
0.437823
0.235317
0.222771
0.217729
0.420552
0.69859
0.955108
0.291873
0.472094
0.837611
0.698471
0.966312
0.75381
0.347305
0.655127
0.504567
0.228251
0.786955
0.633781
0.85989
0.258786
0.677394
0.726188
0.96267
0.354976
0.6437
0.525241
0.50583
0.418347
0.659549
0.907929
0.501787
0.856436
0.520595
0.424351
0.918215
0.673261
0.824709
0.300826
0.336252
214 26
77 171
93 216
453 241
386 390
440 359
255 271
459 201
215 442
130 96
277 86
346 285
334 265
201 160
173 323
3 274
395 325
52 328
441 252
229 38
293 68
411 88
330 200
156 0
168 387
133 121
313 190
99 344
413 344
378 429
435 388
395 486
11 430
257 30
44 500
344 108
111 243
117 130
395 496
285 368
2163
5
