40
9
0 0 0 0 0 0 0 0 0
77 59 84 21 30 91 33 41 28
53 92 69 19 83 13 28 86 19
36 98 93 18 52 52 54 96 40
46 71 83 99 99 12 83 53 47
32 57 60 72 65 76 82 95 30
58 87 37 30 34 71 18 77 25
58 23 65 59 19 69 81 22 45
53 58 59 47 61 98 100 34 89
19 12 25 49 69 92 59 22 52
42 31 93 45 78 43 95 91 88
21 54 47 81 95 60 49 88 70
59 47 21 30 78 92 70 80 56
10 34 12 25 77 82 45 35 68
100 97 23 70 63 63 21 39 51
91 50 44 32 53 76 40 51 40
93 90 16 26 80 79 100 61 92
75 90 54 99 16 99 35 67 11
23 11 44 68 56 67 43 89 60
12 84 35 55 82 72 36 62 81
93 27 72 22 87 14 52 75 67
50 34 54 89 67 27 10 84 75
18 82 38 69 68 90 85 93 91
35 76 44 68 18 93 78 66 71
41 97 90 53 78 27 48 48 59
49 100 41 41 80 10 88 10 59
100 26 31 50 95 33 25 71 35
36 79 44 31 16 77 33 27 50
100 32 74 71 53 32 43 12 14
94 68 100 59 21 78 50 97 81
92 17 44 37 40 100 81 54 44
95 53 16 69 83 68 80 25 20
36 23 49 56 10 56 32 18 70
87 45 80 68 92 95 25 53 70
95 13 38 15 72 89 14 46 23
34 92 23 59 56 13 59 10 52
86 55 86 57 28 21 57 72 84
60 14 49 100 17 74 87 35 64
24 44 50 46 62 35 58 74 35
56 49 10 59 21 97 73 36 86
1.60701
1.71058
1.22308
0.430063
1.79998
1.81039
1.16034
1.13595
0.417136
1.32315
1.83627
0.717781
1.7241
0.478749
1.20876
1.5613
1.26317
1.09106
1.53478
1.38157
0.965234
0.517619
1.74345
1.48613
1.54858
0.547506
0.647706
0.737929
0.748874
1.81987
0.619789
0.871844
1.84656
0.67774
1.43709
1.91959
1.67496
1.96859
0.696877
1.05529
4 28
221 363
331 347
360 97
494 457
395 358
276 426
162 50
288 353
124 347
494 331
257 403
215 86
201 234
209 412
88 356
331 432
325 156
290 78
212 129
208 420
193 164
377 306
352 435
311 160
334 231
308 482
131 378
192 289
55 90
221 30
242 287
217 209
56 236
387 65
205 415
285 118
160 267
385 0
392 432
2728.75
4
