40
9
0 0 0 0 0 0 0 0 0
57 12 60 85 91 81 36 86 38
60 51 44 83 74 77 88 28 98
22 53 34 10 68 31 88 29 35
67 67 100 51 21 33 35 46 32
43 59 84 81 62 24 73 39 38
97 68 43 28 25 56 73 65 85
12 20 73 75 18 80 45 76 61
79 50 56 70 43 62 93 83 57
38 47 18 47 10 31 63 24 100
62 65 67 35 91 41 97 76 23
27 18 13 53 66 97 27 21 40
23 49 94 62 60 77 88 100 83
11 19 68 64 15 73 70 23 59
36 84 80 71 39 92 18 46 29
66 68 11 100 14 42 90 50 95
60 13 42 97 62 16 41 38 24
35 12 53 30 85 26 37 64 54
95 54 82 41 70 26 41 86 78
63 24 27 45 57 63 12 15 98
51 11 73 34 17 29 51 34 13
55 65 24 61 37 43 88 100 20
12 55 78 61 58 81 13 56 69
43 78 100 77 64 32 38 10 10
63 94 91 92 30 45 36 67 52
32 24 46 79 21 100 100 79 50
39 96 74 52 23 38 61 12 39
57 44 20 96 74 78 47 71 12
97 83 72 97 54 54 37 10 84
18 80 12 38 60 42 52 70 38
55 79 89 54 32 60 44 83 61
27 58 76 91 39 30 72 35 98
92 80 76 13 80 57 74 35 100
56 56 46 77 84 28 54 75 45
70 11 24 54 100 88 26 13 12
84 31 89 24 37 93 30 88 89
61 84 91 90 90 65 85 98 18
88 92 94 20 95 85 55 39 45
65 53 93 73 22 42 46 46 82
49 28 54 26 50 70 68 90 61
1.68861
2.19085
1.1009
2.21587
1.67069
0.994105
0.605501
1.87405
0.593316
1.60473
0.809468
1.51659
2.17419
2.12283
1.61137
1.63681
2.43378
2.18925
0.776755
0.961574
2.05996
1.9477
1.80472
1.77952
2.2331
1.49002
1.72124
1.54976
2.09451
1.43395
2.40352
1.37671
1.94886
1.91341
0.676851
1.8174
2.18898
0.532429
1.76592
1.28326
249 103
11 488
121 9
202 405
326 240
34 232
420 125
99 398
43 429
444 165
67 474
27 364
155 382
167 341
396 77
25 165
356 319
157 389
271 461
83 111
263 115
263 249
45 455
230 186
496 58
148 56
475 231
249 239
103 178
460 215
197 451
337 429
60 460
17 149
397 91
237 481
234 126
331 214
488 400
487 337
2162
5
