40
11
0 0 0 0 0 0 0 0 0 0 0
92 30 24 47 76 62 12 30 95 19 49
63 52 60 84 33 43 31 82 98 53 63
59 24 46 78 27 100 90 75 100 84 16
54 89 35 10 42 11 87 72 54 53 43
51 60 47 41 55 98 11 42 86 68 25
58 75 28 28 18 36 86 56 13 20 62
20 11 45 52 90 14 59 63 47 19 73
100 79 66 42 99 35 32 51 13 10 28
96 46 97 83 20 47 39 81 59 11 88
25 66 73 45 60 45 39 33 72 11 67
11 27 92 94 44 69 13 41 87 40 68
58 75 92 68 70 84 91 60 16 46 72
99 18 45 14 63 61 20 50 21 88 71
85 34 33 98 83 73 32 29 85 43 92
37 45 87 79 21 10 67 53 48 81 90
85 22 85 88 33 82 32 83 61 54 41
86 36 84 73 51 71 27 93 86 89 92
46 83 80 32 93 54 37 38 24 10 12
48 10 19 96 54 57 14 22 57 49 85
44 92 36 81 73 49 47 34 47 87 55
12 23 70 17 83 86 81 78 91 93 47
70 81 12 87 51 11 32 18 85 37 51
76 50 10 79 67 25 14 75 27 61 55
66 24 51 51 27 41 19 90 88 60 87
56 32 94 42 44 63 71 85 15 79 43
97 12 72 79 35 99 62 43 57 93 47
64 62 90 93 77 33 97 75 38 46 15
81 46 78 41 57 87 13 100 68 28 14
44 71 91 33 96 77 18 27 21 89 60
44 15 50 55 70 34 36 91 64 97 95
70 67 57 48 95 89 75 27 46 29 15
79 24 50 10 30 38 30 88 29 77 35
35 26 31 70 72 16 36 93 57 30 53
31 19 33 23 66 96 99 38 72 38 11
100 48 73 87 58 96 88 69 80 54 32
60 41 34 44 65 71 20 38 56 15 35
63 21 89 90 80 51 77 79 59 48 70
51 63 76 38 13 52 63 60 76 44 38
69 43 25 69 73 27 71 65 56 78 55
0.843879
0.755035
0.349881
0.995672
0.837837
0.746923
0.566505
0.360612
0.831972
0.854369
0.837174
0.237863
0.398061
0.369445
0.933271
0.509838
0.676198
0.924445
0.746907
0.687198
0.850286
0.229012
0.604386
0.821239
0.934428
0.614945
0.703253
0.352672
0.817607
0.887334
0.254944
0.988046
0.818491
0.327724
0.238723
0.313836
0.289826
0.270244
0.791108
0.868347
128 63
212 466
40 433
322 442
16 270
221 13
235 141
67 42
134 37
125 268
33 82
241 185
209 409
136 44
227 353
392 93
254 265
426 426
165 372
383 271
395 124
25 310
37 108
367 237
454 304
369 84
314 74
28 464
228 253
341 170
180 212
67 40
357 350
8 341
410 150
217 473
376 155
120 68
21 500
172 455
5377.5
2
