40
5
0 0 0 0 0
100 19 35 68 86
78 53 27 70 90
56 39 77 100 21
85 36 65 71 79
74 70 21 68 29
57 83 22 10 90
94 67 48 57 13
31 58 43 58 42
70 99 28 96 35
59 59 54 26 48
27 83 100 62 76
73 70 28 87 14
25 46 40 52 49
19 67 55 89 33
89 69 57 47 43
67 61 15 53 21
25 55 19 30 73
27 59 82 77 10
25 57 98 51 58
55 32 33 60 92
62 40 65 65 59
85 76 42 49 14
72 97 72 77 54
72 18 38 65 79
98 92 24 73 57
21 22 22 51 21
67 60 91 12 64
83 31 14 90 15
34 80 63 15 77
90 15 78 49 38
15 25 20 79 86
98 81 77 24 49
66 93 79 24 79
49 37 97 72 89
92 70 66 66 41
62 78 55 63 93
82 31 21 31 43
67 43 64 91 45
38 76 53 23 58
0.278001
0.465864
0.59204
0.465708
0.557581
0.808582
0.318991
0.572054
0.424139
0.701936
0.380881
0.802505
0.689452
0.452168
0.8257
0.560483
0.770844
0.630429
0.535714
0.392406
0.625537
0.668499
0.360908
0.399175
0.809625
0.28873
0.241623
0.56739
0.250048
0.54734
0.843106
0.583076
0.985981
0.842915
0.27123
0.538164
0.906992
0.762762
0.219178
0.41339
195 217
354 17
208 367
384 146
177 482
395 303
54 442
455 210
63 199
44 295
384 71
459 79
39 342
270 380
497 41
74 382
408 67
99 27
119 473
318 194
485 81
380 339
364 304
32 437
322 149
287 27
366 490
318 277
24 260
386 156
477 12
358 69
68 380
165 346
8 44
192 316
229 369
321 324
478 246
21 281
3645
3
