40
9
0 0 0 0 0 0 0 0 0
25 21 87 55 57 73 16 69 98
14 80 24 54 74 45 76 52 41
44 43 39 12 15 92 89 46 27
65 69 49 14 17 26 38 79 79
59 10 75 48 68 78 34 77 91
34 12 12 91 81 55 31 82 30
30 66 91 38 99 79 22 93 29
93 100 35 58 34 57 61 13 87
61 49 90 58 81 100 15 99 59
89 49 37 54 99 20 43 72 72
98 29 19 24 29 37 95 19 52
32 56 51 12 92 11 14 93 38
73 38 24 49 30 61 62 19 52
95 36 18 86 56 97 63 72 12
43 51 73 83 13 38 48 47 45
91 35 61 25 70 49 11 71 78
68 83 69 28 99 70 80 39 17
92 60 65 37 20 14 78 59 78
77 54 36 26 17 75 29 31 87
51 43 56 76 36 62 41 75 23
66 33 25 99 79 79 96 25 97
81 47 23 21 51 98 17 92 81
88 86 24 40 40 27 63 47 19
78 17 39 28 87 96 67 80 35
51 18 71 93 80 68 68 46 15
29 23 86 54 36 86 73 40 16
73 60 78 27 85 52 19 72 68
53 38 87 75 58 61 16 94 72
89 32 79 90 76 58 86 80 75
37 31 60 29 40 27 47 92 70
49 90 58 68 100 28 90 15 71
71 99 81 71 63 13 42 95 79
24 87 20 68 81 80 85 20 34
58 62 73 22 48 36 69 68 29
29 66 37 64 16 93 89 44 49
82 70 76 38 28 75 53 75 62
24 74 31 10 55 89 41 22 22
47 94 86 59 87 84 67 87 34
38 87 57 80 95 20 54 61 90
0.726804
1.48077
1.21999
0.98748
0.43599
1.08845
1.397
0.300474
1.17118
0.618292
0.831856
1.30451
0.972787
0.768972
0.381847
1.09483
1.06269
0.780418
1.13835
1.15476
0.384528
0.792774
1.09442
0.848243
0.47061
1.26333
0.884234
1.08487
1.10501
0.73278
1.0909
1.49859
1.04414
0.859494
1.41095
0.939778
0.849866
0.89047
1.29967
0.604368
346 292
215 252
353 460
114 213
127 13
58 398
317 66
398 63
322 164
245 413
184 347
409 369
47 440
51 93
366 54
141 9
486 453
492 333
53 178
409 325
237 257
331 351
145 5
270 114
62 140
208 221
472 237
440 290
224 2
485 8
27 327
279 249
98 79
357 74
496 245
126 312
384 296
71 127
252 454
116 88
2726.25
4
