40
7
0 0 0 0 0 0 0
58 21 70 95 70 92 99
25 80 36 14 20 17 83
85 12 65 38 80 34 39
98 55 91 96 53 53 59
35 71 53 15 23 61 54
46 30 30 66 13 85 25
66 60 58 20 76 55 52
60 49 99 82 67 61 71
34 62 63 58 17 57 75
99 46 88 81 15 68 39
39 91 78 61 76 18 17
37 68 16 81 65 17 49
94 78 45 37 72 46 40
67 62 50 59 44 100 22
81 56 77 46 47 63 95
48 17 12 71 55 64 65
96 82 76 94 11 68 47
67 33 34 39 37 80 100
36 29 10 71 72 65 37
86 86 23 71 30 87 82
26 77 38 40 23 97 91
21 73 51 68 75 11 31
36 53 49 39 70 62 52
32 50 64 71 45 63 28
61 39 36 26 34 56 99
13 66 89 70 67 80 83
93 25 44 52 37 25 44
10 55 30 31 10 14 75
20 17 43 91 85 72 80
84 35 65 63 90 85 31
47 61 69 87 63 18 53
17 58 81 16 90 30 49
19 39 26 13 96 72 91
29 45 67 20 68 28 46
76 23 49 90 16 18 88
83 38 29 64 42 30 47
20 72 75 29 16 13 93
81 91 66 59 21 51 74
86 81 94 68 18 60 93
0.124188
0.413998
0.361633
0.163665
0.176339
0.17787
0.309973
0.135762
0.324581
0.134514
0.383228
0.435688
0.141025
0.37381
0.450604
0.12494
0.452636
0.490456
0.234393
0.483502
0.388089
0.472306
0.100445
0.433407
0.267166
0.19104
0.20133
0.115949
0.161696
0.432081
0.471168
0.363403
0.478045
0.42833
0.336736
0.127258
0.268505
0.326579
0.259597
0.388432
285 366
398 393
316 294
397 443
238 71
245 269
322 341
218 204
219 179
395 2
420 331
358 248
442 172
4 406
423 36
33 26
24 426
354 114
362 115
243 316
250 111
150 454
123 208
462 180
144 305
403 278
261 344
101 428
25 243
254 366
199 328
444 301
329 163
382 123
71 452
207 440
437 61
239 267
296 407
500 201
5325
2
