40
7
0 0 0 0 0 0 0
51 32 100 24 97 28 52
30 10 97 35 97 68 97
63 54 87 41 37 17 85
55 93 74 13 74 36 93
33 67 86 21 37 32 57
74 54 98 35 67 52 16
30 12 94 85 13 58 55
31 73 93 91 38 73 43
55 59 63 40 99 10 62
52 28 96 48 18 92 43
70 22 93 86 11 31 40
89 29 33 16 95 44 93
30 12 77 59 55 79 97
32 17 92 10 68 13 72
90 88 79 29 75 70 29
75 98 36 80 93 39 24
71 67 63 32 83 72 16
55 100 62 55 27 10 69
100 82 89 95 44 74 93
94 69 30 44 94 28 72
96 31 15 98 73 13 52
48 17 18 30 74 78 85
60 44 66 52 41 44 85
75 47 81 27 83 69 16
70 72 13 16 81 62 33
49 87 30 55 39 29 21
75 93 68 50 20 13 76
30 70 94 93 96 46 19
52 70 31 43 70 81 85
44 26 98 51 87 73 100
71 80 38 47 10 98 80
34 19 23 20 60 64 42
55 42 51 71 52 38 30
12 27 16 10 100 36 76
100 75 43 12 63 41 20
99 75 59 12 79 84 59
60 31 90 69 10 10 20
20 75 91 17 65 27 46
82 11 48 47 43 10 21
0.172099
0.236886
0.43193
0.449382
0.476733
0.405317
0.429063
0.436861
0.157756
0.350121
0.474454
0.287642
0.412241
0.232415
0.403551
0.460568
0.492933
0.158597
0.4134
0.471946
0.319274
0.120909
0.33468
0.166527
0.233701
0.106805
0.274392
0.471818
0.152
0.314649
0.286421
0.130452
0.250893
0.104753
0.287985
0.111413
0.295343
0.111362
0.413316
0.492066
221 144
372 255
218 244
183 290
430 70
112 251
303 348
108 368
378 218
425 422
420 447
490 500
185 277
247 450
327 92
431 37
235 125
169 268
292 86
166 34
37 472
128 178
247 494
419 162
92 498
291 28
188 435
195 117
215 188
269 261
404 435
343 383
163 479
245 145
391 237
194 461
453 354
110 179
399 290
336 205
2146
5
