40
9
0 0 0 0 0 0 0 0 0
46 17 41 93 64 32 93 65 91
100 58 24 72 15 67 94 48 58
37 67 19 95 78 88 90 28 74
57 88 80 79 61 54 45 42 87
79 29 39 66 18 13 36 99 50
52 31 20 78 92 32 48 17 88
67 47 60 54 70 71 83 83 60
70 77 25 17 16 56 81 68 61
18 15 87 48 24 60 23 54 42
82 37 45 87 22 96 48 72 93
29 34 50 95 54 35 100 24 13
51 48 34 53 69 90 20 80 17
22 69 38 15 70 73 40 41 85
87 33 13 91 48 10 16 58 24
46 34 52 84 74 94 22 19 100
23 95 51 48 75 47 22 31 82
91 92 15 61 98 56 57 24 72
84 73 96 28 73 73 11 71 72
82 86 65 79 99 76 73 58 49
61 89 35 76 24 71 19 63 36
15 88 86 32 24 17 35 91 30
61 85 35 51 86 54 62 34 80
64 56 63 82 96 33 33 35 53
88 53 76 99 31 50 20 45 43
78 84 62 13 30 75 36 83 42
100 72 91 33 49 95 61 10 31
55 28 22 10 23 56 88 30 75
17 42 60 53 12 57 32 21 97
77 80 80 15 97 86 49 82 72
79 84 35 43 91 11 29 48 10
96 45 61 80 52 78 42 98 81
67 28 40 98 57 58 20 63 62
71 97 91 54 39 36 12 68 29
93 78 68 85 78 62 99 15 84
94 33 88 34 65 67 15 51 93
31 82 17 32 76 12 47 18 71
99 80 43 81 28 76 10 35 89
60 95 46 94 41 72 52 18 91
20 83 27 41 42 46 78 17 90
0.227193
0.615016
0.200334
0.230226
0.269767
0.791404
0.625502
0.60701
0.664355
0.507712
0.983433
0.91733
0.221906
0.729087
0.594803
0.665537
0.813681
0.777697
0.555012
0.438685
0.510587
0.690562
0.540849
0.315904
0.967073
0.568962
0.651592
0.930929
0.235114
0.532468
0.237784
0.528415
0.867265
0.684443
0.231988
0.421625
0.311481
0.920581
0.761411
0.841961
303 336
112 19
58 420
470 410
221 233
258 117
274 230
349 419
84 284
202 495
31 155
443 480
140 239
7 291
92 300
120 2
423 261
355 252
189 255
489 382
147 116
310 6
316 107
179 56
170 457
43 270
320 309
325 347
414 400
474 112
45 330
463 24
115 170
79 160
365 180
388 268
221 460
126 381
388 448
87 489
2751.25
4
