40
9
0 0 0 0 0 0 0 0 0
15 75 46 80 31 67 91 13 78
41 39 19 44 21 74 22 20 64
39 24 83 72 60 40 31 34 24
64 97 94 88 93 92 11 34 56
52 13 91 46 10 92 51 17 23
48 83 65 69 53 27 70 18 61
54 25 25 92 28 63 98 83 21
35 44 76 69 80 78 15 91 33
25 98 73 63 27 89 74 100 73
76 69 63 24 96 46 22 89 82
35 93 67 94 93 94 51 80 17
97 12 78 54 94 16 20 32 69
71 21 16 63 99 41 27 12 71
34 16 52 49 30 26 33 45 33
64 78 31 64 38 72 16 68 78
76 53 97 11 41 86 89 32 42
64 87 24 64 44 12 10 79 89
65 66 77 50 74 30 42 34 40
38 40 65 49 29 72 33 58 30
13 47 51 72 48 36 14 31 53
76 76 39 55 17 55 90 51 65
73 98 44 87 74 30 97 85 70
78 59 34 22 14 71 10 43 23
91 27 92 43 49 73 92 36 41
12 77 78 63 26 29 98 12 28
40 98 49 24 64 98 95 28 51
70 40 35 35 66 63 90 51 52
62 18 88 53 85 66 30 17 33
96 35 95 42 96 82 96 49 11
67 54 80 78 10 59 18 65 80
99 84 46 45 86 76 73 93 98
18 94 59 35 89 30 45 79 58
91 34 86 61 67 53 92 93 94
37 41 39 20 15 45 33 20 40
95 79 12 82 13 14 89 40 31
46 13 73 31 79 23 44 39 47
37 81 55 58 56 30 85 43 92
60 89 23 14 52 22 55 30 25
44 43 21 78 45 62 18 57 70
0.820374
2.0159
0.999003
2.1107
0.562683
2.24819
1.8675
2.35293
1.52619
1.47652
1.99347
2.41341
1.01672
1.99164
1.98227
1.17071
1.02569
1.60848
0.528996
2.06505
0.639244
1.94239
2.21215
1.59548
2.06034
0.690877
2.03728
2.48916
2.1566
2.09972
0.747756
1.19057
0.550323
1.19818
0.671152
0.699348
2.33314
1.50417
0.92204
1.06902
168 326
412 457
434 68
193 68
422 145
430 114
27 485
111 45
96 28
273 332
53 184
490 46
35 431
78 177
309 307
445 12
153 481
470 131
35 119
340 429
183 153
53 66
187 288
369 105
437 33
377 72
397 312
35 409
4 276
446 227
398 258
2 451
343 202
398 105
456 451
124 326
324 250
473 102
364 355
435 396
5290
2
