40
9
0 0 0 0 0 0 0 0 0
84 83 51 38 44 76 71 25 32
57 86 48 26 39 45 31 21 28
84 88 61 62 81 52 68 95 75
78 73 59 48 99 17 23 11 70
51 31 41 86 66 82 17 38 85
89 66 68 32 93 28 24 88 84
12 34 71 79 49 87 51 57 96
70 53 37 13 97 34 49 92 87
39 71 87 49 42 80 33 57 26
31 53 19 100 22 15 78 84 70
52 46 45 19 77 23 35 90 61
19 63 63 70 45 68 75 75 49
92 85 12 32 11 73 80 68 55
93 33 12 20 48 87 67 28 89
55 60 92 15 50 13 10 25 49
14 22 38 99 26 93 97 97 50
10 45 55 23 44 72 15 79 58
78 54 66 35 78 53 27 32 38
81 10 68 10 65 61 72 49 81
12 73 79 82 21 25 42 91 83
46 75 46 32 15 88 35 99 11
97 62 92 54 98 34 90 36 89
41 85 94 48 76 14 54 40 23
84 38 79 86 93 49 78 27 58
73 70 47 17 18 56 73 50 37
86 67 97 39 93 71 70 11 47
82 98 87 38 10 94 24 12 51
57 46 76 35 41 29 17 56 16
54 86 72 85 12 88 58 64 67
10 37 67 27 59 80 97 25 78
73 81 50 78 76 71 81 36 43
11 98 71 78 62 55 69 52 19
70 29 31 72 77 16 27 86 89
49 81 80 91 44 58 62 27 28
39 64 58 99 84 70 56 27 79
31 11 16 65 83 19 54 79 50
61 25 61 92 93 38 56 69 39
51 65 68 51 65 69 53 20 56
100 28 47 46 69 73 42 46 53
0.680907
1.33561
1.51258
0.930615
2.21738
1.30764
0.684474
2.30432
1.75864
2.49586
0.949577
1.5573
2.15486
0.851679
2.38215
1.49866
1.52749
1.60829
1.17614
1.45719
1.56565
2.23658
2.31492
1.67943
1.0713
1.49087
1.53261
1.77632
1.17242
1.14064
1.52862
1.37646
0.756663
0.68319
0.98548
0.787182
0.7013
2.40801
2.36826
1.12897
93 176
175 434
87 29
385 449
176 131
206 241
284 442
334 383
326 94
202 114
238 151
347 1
322 73
99 302
335 203
415 307
441 141
109 362
269 463
93 215
271 420
496 235
282 72
91 192
475 408
451 217
38 103
393 191
247 83
322 130
67 86
120 279
418 245
161 36
419 50
35 2
259 250
466 367
310 42
414 217
2179
5
