40
11
0 0 0 0 0 0 0 0 0 0 0
66 42 64 93 24 97 74 56 80 95 16
12 77 33 10 89 16 85 93 24 99 23
71 10 98 46 45 79 62 21 37 64 63
21 75 89 18 89 44 59 44 70 48 58
59 42 78 45 95 42 72 70 94 24 89
54 50 22 53 79 49 91 49 42 21 55
44 55 21 79 64 66 15 77 68 72 40
86 89 62 13 69 15 22 76 71 17 90
70 71 86 18 27 42 67 88 68 60 76
54 18 57 35 42 55 78 61 37 10 85
58 51 75 53 77 88 20 98 56 69 66
49 68 12 53 81 68 12 49 35 76 16
90 83 24 32 13 41 25 37 86 83 55
96 15 64 49 95 78 55 12 100 40 97
60 49 27 71 23 37 50 38 26 64 54
77 32 63 50 36 65 75 49 53 59 32
93 88 47 69 30 95 92 11 46 25 96
18 33 32 16 38 60 98 70 63 45 99
17 19 35 42 59 80 19 50 42 60 71
75 61 33 64 83 47 73 69 96 85 30
29 21 87 79 76 94 67 44 65 84 30
27 41 32 24 97 53 13 62 92 70 17
71 14 44 96 47 29 92 49 42 100 24
39 100 95 83 73 23 91 93 56 23 77
28 31 94 70 21 27 82 36 99 52 58
82 57 51 48 10 71 32 75 29 40 22
99 53 23 34 76 30 26 72 13 52 20
94 10 29 70 36 53 22 43 79 88 67
92 87 22 14 52 86 76 80 69 16 77
83 89 70 90 94 35 52 29 53 16 56
63 89 57 57 17 75 97 51 10 62 37
34 14 47 54 38 71 49 19 62 92 53
84 22 59 38 27 67 71 85 95 18 93
17 99 38 20 38 100 62 70 64 30 65
45 69 21 27 69 89 37 80 21 49 85
78 59 36 96 33 26 77 87 55 83 90
41 66 72 37 86 68 80 86 43 56 94
46 25 81 47 65 67 69 62 47 88 61
30 14 76 79 21 42 56 44 33 36 68
1.6816
1.76655
1.6194
2.22844
1.54485
0.560942
0.720671
1.94211
0.856567
1.48511
1.1169
1.08394
2.33975
2.40908
0.824362
1.70464
1.18951
0.806753
1.44477
2.48709
1.30778
2.03519
2.45036
1.97305
1.13974
1.3635
1.22798
1.87617
1.55952
2.27009
1.28037
1.59731
2.02321
1.60555
1.98872
1.91285
1.196
2.22953
1.24634
1.11126
374 156
55 285
239 138
186 358
290 211
446 203
303 398
388 500
59 267
183 146
13 392
368 36
462 346
451 473
475 481
457 10
186 401
341 426
153 279
33 204
363 274
465 316
468 120
94 343
212 2
58 196
496 390
435 73
128 19
261 181
290 442
203 199
207 184
134 230
466 425
2 445
211 300
108 322
475 13
153 409
2177
5
