40
11
0 0 0 0 0 0 0 0 0 0 0
93 30 98 99 14 99 41 21 20 80 63
62 35 61 13 34 75 29 24 13 52 42
77 43 39 73 41 100 58 84 40 39 68
39 67 83 56 70 64 75 24 78 46 72
59 15 43 82 46 31 82 77 67 100 50
61 27 63 43 84 23 51 95 74 42 23
84 34 55 50 88 32 75 75 75 33 25
40 93 80 22 57 67 32 85 67 32 90
46 27 71 54 51 34 84 59 90 86 88
40 41 26 58 93 19 84 75 70 25 87
25 43 88 58 76 98 24 71 41 65 34
57 90 50 99 66 64 69 25 14 52 97
83 81 44 13 85 66 39 49 36 15 74
85 70 55 26 47 75 39 52 94 34 38
21 67 77 34 43 64 53 13 16 53 29
89 19 22 73 41 63 58 74 73 26 94
60 52 69 74 32 34 71 10 76 85 55
78 98 79 93 24 48 32 49 96 25 35
18 47 62 39 96 53 86 17 85 64 30
37 58 91 57 45 70 95 69 62 71 81
64 56 29 86 88 75 32 78 93 29 86
12 67 69 19 32 38 59 36 38 28 20
18 65 61 56 86 81 44 71 28 30 23
81 66 75 30 62 60 89 83 43 16 97
32 54 11 50 100 34 90 25 73 89 11
42 28 96 94 75 42 73 52 81 52 38
44 41 44 13 28 45 18 67 55 40 66
91 54 69 96 47 98 22 99 60 18 97
93 26 68 67 42 89 48 12 82 73 38
38 96 87 71 47 98 70 47 24 16 84
30 35 34 45 41 63 100 47 63 95 85
59 15 55 43 25 38 26 86 24 45 85
85 86 33 60 85 75 91 61 98 42 99
62 14 81 37 43 56 16 76 76 33 23
74 79 20 76 35 38 36 37 53 43 66
70 33 100 94 61 39 89 11 21 41 89
59 86 50 43 29 55 86 81 27 55 71
41 63 83 14 91 45 62 25 16 50 16
82 41 73 50 30 88 14 93 37 68 32
0.604073
1.04632
0.71127
0.864904
1.46275
0.830099
0.603198
0.419146
0.381892
0.452703
0.939399
0.5493
1.31387
1.0594
1.29301
0.564812
0.331968
1.46785
0.615926
0.63069
0.988331
0.760394
1.07702
1.19434
0.607699
0.410629
0.381592
0.458414
1.09685
1.39239
0.596693
0.536582
1.09262
0.690703
0.717526
0.336046
1.00739
1.19968
0.87078
0.607345
92 479
2 190
447 165
265 389
484 253
110 344
97 317
142 114
267 62
74 193
219 276
183 318
240 204
471 245
172 62
279 97
381 217
188 363
191 161
322 415
424 439
82 86
201 143
281 480
460 462
447 364
381 69
85 485
262 482
380 150
251 448
103 259
34 230
265 82
1 262
432 164
311 483
143 446
50 354
341 398
3648.33
3
