40
11
0 0 0 0 0 0 0 0 0 0 0
17 64 13 16 77 11 47 62 18 91 86
49 26 64 44 45 94 73 72 70 37 100
36 50 68 69 89 24 61 90 63 37 61
22 92 28 23 73 28 21 60 91 46 49
70 80 78 54 36 99 54 79 92 26 78
65 25 45 77 73 34 70 47 43 23 64
74 71 26 76 47 84 36 94 100 57 73
26 31 55 81 59 80 40 44 52 70 46
66 74 18 48 10 14 78 85 87 88 51
49 21 41 79 81 98 90 97 45 45 49
17 44 58 59 64 70 85 67 55 38 99
29 75 37 53 58 35 91 12 52 15 35
66 57 83 66 55 14 30 89 57 52 60
76 71 55 19 29 45 27 74 22 53 77
74 91 28 42 14 61 99 94 79 80 24
27 15 45 73 11 51 61 50 97 13 40
62 30 73 88 42 99 95 55 60 37 58
26 70 80 14 12 54 33 14 94 37 11
100 75 99 35 25 65 57 42 92 87 92
70 91 63 72 54 97 12 49 40 47 22
86 30 75 79 41 29 70 53 76 61 85
62 71 51 54 77 10 37 45 75 36 61
60 59 82 26 37 80 44 17 77 64 40
74 65 59 81 28 31 55 16 86 44 63
84 42 33 61 32 42 93 86 86 85 46
86 35 44 45 43 39 50 34 12 90 99
54 55 53 71 37 69 64 20 49 46 74
35 31 80 42 23 47 84 13 58 85 12
91 90 87 38 80 54 48 51 54 48 31
20 51 29 60 40 34 93 83 89 68 68
49 18 81 51 54 39 83 15 23 86 25
25 22 85 93 26 28 49 25 37 26 41
91 42 14 97 59 88 59 62 86 73 95
43 39 61 56 46 99 79 47 93 79 53
66 35 34 43 34 82 71 12 54 11 31
74 46 27 62 83 22 85 46 21 95 23
74 11 79 99 73 96 49 69 52 43 79
93 39 44 88 10 65 60 15 40 30 43
89 24 43 82 48 83 73 57 71 40 99
0.191565
0.444056
0.481801
0.313552
0.457818
0.323725
0.207795
0.491258
0.234172
0.199859
0.110894
0.262548
0.303156
0.400289
0.389246
0.327437
0.380732
0.230479
0.104502
0.443414
0.187478
0.457223
0.334552
0.311726
0.22185
0.262656
0.253317
0.458871
0.348946
0.227711
0.219261
0.487295
0.328936
0.298979
0.499818
0.111823
0.157646
0.121338
0.19903
0.141713
470 147
378 206
459 491
474 230
62 435
68 82
37 157
322 481
475 19
233 366
183 40
338 416
43 188
441 311
238 359
365 40
72 42
496 307
165 195
307 477
256 0
255 189
280 39
291 158
222 288
328 127
65 308
458 480
237 470
109 183
27 476
76 271
450 239
150 0
119 334
67 405
127 453
274 31
253 375
242 388
2717.5
4
