40
7
0 0 0 0 0 0 0
72 94 98 91 12 50 41
11 68 60 68 19 73 29
33 83 64 33 28 84 91
79 47 82 92 55 87 48
37 23 98 59 25 78 61
33 15 77 16 34 95 56
62 42 57 57 25 64 88
31 26 46 33 45 19 47
13 31 22 95 75 89 98
48 36 10 89 29 97 49
38 67 99 89 73 59 95
34 10 93 50 19 32 46
67 97 10 48 51 19 32
28 16 91 53 64 50 84
78 16 44 54 57 83 67
31 27 43 28 29 36 56
81 29 98 21 30 38 79
17 41 64 35 47 56 18
69 39 16 11 87 76 55
95 21 50 30 96 63 16
25 97 72 63 65 97 63
26 82 20 26 21 10 34
89 94 19 48 32 79 99
53 30 100 12 22 76 29
62 48 27 36 63 12 99
44 64 29 85 42 73 43
94 61 32 39 83 22 76
100 62 34 15 29 26 90
54 16 14 51 23 71 91
93 56 28 45 23 79 38
98 91 52 88 64 89 52
50 47 11 86 99 41 29
56 83 34 84 60 26 61
74 85 47 42 48 67 44
78 98 45 39 65 10 43
95 74 84 88 62 68 54
67 81 98 35 80 26 19
50 86 68 76 55 81 87
13 86 30 20 70 64 29
1.1095
0.80547
0.310268
1.0358
0.60627
1.28421
1.4665
0.936477
1.31759
1.05112
1.02292
1.17629
1.05825
1.13953
0.792403
1.12885
1.31015
0.388678
0.804354
0.61531
0.992262
0.327319
1.23721
1.41316
0.669071
1.37677
0.302693
1.45321
1.29587
1.3156
0.591994
0.63391
0.868629
0.316605
1.33178
1.26522
0.821173
1.34082
0.319099
0.814558
452 479
47 231
418 172
395 98
336 38
469 341
213 448
381 270
16 55
122 260
210 47
447 263
446 169
2 325
20 277
291 134
159 287
106 398
228 112
369 386
314 33
69 133
86 292
49 338
32 10
276 319
229 135
232 199
262 109
223 250
172 133
72 328
54 352
329 302
212 447
45 395
270 483
138 262
344 76
403 49
2121
5
