40
7
0 0 0 0 0 0 0
31 36 27 89 89 88 98
83 46 39 100 11 100 67
13 61 81 56 24 80 75
34 20 74 62 91 99 27
42 48 97 99 80 31 79
57 52 34 54 18 76 87
54 81 26 11 37 32 87
70 20 87 47 73 77 37
51 67 12 24 62 100 90
92 43 62 83 15 72 64
95 29 74 19 56 85 29
79 64 52 100 31 83 47
98 30 77 54 71 79 98
21 49 81 11 53 53 25
68 70 24 82 26 98 87
61 52 77 34 56 86 60
58 93 71 49 67 57 96
50 44 61 45 37 86 44
92 47 59 33 92 24 68
43 51 98 69 14 87 12
83 78 46 34 49 80 52
37 18 84 35 29 23 58
79 99 40 55 54 33 90
45 47 28 98 64 50 72
87 44 64 67 45 60 93
53 50 50 12 28 36 23
30 76 90 51 15 12 80
82 84 50 98 97 82 57
31 69 71 19 49 39 52
27 27 55 26 43 36 79
60 90 37 81 77 93 32
46 26 84 82 56 29 46
77 81 64 87 79 99 63
65 70 79 14 92 47 43
86 75 71 78 78 45 99
92 21 37 31 46 99 98
24 28 94 91 100 31 19
39 98 99 87 18 99 23
18 53 98 64 41 16 43
0.990768
0.887031
0.503356
0.338721
0.520661
0.909999
0.350823
0.979159
0.75076
0.977786
0.354364
0.415174
0.238086
0.257856
0.927115
0.450223
0.981027
0.63335
0.882194
0.382342
0.66014
0.419749
0.886156
0.728537
0.923514
0.451884
0.520755
0.715995
0.499904
0.891931
0.204951
0.962456
0.918941
0.239877
0.335357
0.838086
0.677456
0.935611
0.828545
0.931093
412 148
361 306
105 301
499 462
318 134
184 43
382 477
7 417
43 71
162 320
192 102
487 439
55 425
243 48
18 462
57 318
448 285
374 279
317 243
474 302
492 14
3 89
109 450
138 174
408 13
452 299
383 148
367 22
140 71
342 377
416 328
11 130
418 150
178 14
451 239
152 490
392 60
366 195
428 227
409 355
11455
1
