40
3
0 0 0
34 34 82
86 12 34
49 26 53
10 47 70
95 23 13
35 81 81
27 27 21
19 45 58
67 26 74
57 77 24
44 17 51
73 20 99
95 71 14
35 27 77
16 58 17
78 41 55
52 51 59
64 28 87
63 24 38
58 25 73
40 40 88
59 41 66
38 82 60
95 18 57
41 47 80
70 52 59
52 43 73
52 94 20
67 35 20
70 50 36
18 40 33
10 76 21
90 87 30
60 80 30
70 25 92
82 68 44
75 86 24
97 22 62
92 13 13
0.418283
0.635095
1.33837
1.25011
0.677677
0.507086
0.582082
0.776344
1.48213
1.36354
0.54856
0.304507
0.583894
1.44642
1.1723
0.689398
0.649579
1.08847
0.604187
0.652015
0.722779
0.555772
1.42125
1.34556
0.975331
0.60993
0.868588
0.369377
0.622051
0.410178
1.13898
0.430323
0.971097
0.628245
1.27562
1.08472
0.707723
1.14125
0.489364
0.921652
430 246
249 492
4 384
289 480
336 192
75 11
4 213
90 296
330 291
402 337
495 467
171 246
305 251
314 438
408 443
458 496
454 109
21 144
444 455
342 101
484 154
266 155
423 170
244 183
200 17
444 299
418 13
332 392
178 25
443 237
143 344
18 438
281 213
258 176
424 198
168 194
108 6
168 466
406 461
465 181
9970
1
