40
5
0 0 0 0 0
27 79 73 63 62
18 79 69 68 92
28 62 72 80 32
40 48 54 63 57
54 37 82 99 19
77 16 13 68 87
46 99 96 32 35
37 38 88 48 48
18 94 87 73 47
19 99 87 31 72
58 22 96 64 40
99 66 32 72 57
63 21 42 90 20
12 50 91 83 73
97 23 51 35 25
46 21 84 59 67
40 73 91 52 29
33 97 37 13 34
28 97 87 26 19
34 69 32 33 16
40 24 16 82 30
70 19 23 32 13
12 66 45 78 30
77 72 49 26 55
95 45 54 81 32
71 69 15 60 53
60 23 23 73 47
30 60 84 76 56
89 74 92 62 86
50 47 11 15 55
61 71 85 66 76
39 94 48 36 51
53 97 12 80 27
14 93 58 99 37
99 62 58 11 70
58 98 86 34 39
53 13 32 43 58
28 22 25 81 69
93 90 41 36 98
0.210224
0.80575
0.572978
0.642776
0.696001
0.566795
0.247063
0.44801
0.558952
0.362315
0.408605
0.390064
0.804085
0.939553
0.432424
0.66853
0.946351
0.244967
0.661774
0.921414
0.803275
0.613609
0.809716
0.542862
0.652242
0.619952
0.666643
0.640914
0.790621
0.470182
0.531439
0.492555
0.380498
0.338868
0.946244
0.626719
0.866745
0.858645
0.726529
0.663452
467 13
251 361
480 500
454 499
434 169
294 298
500 51
390 409
380 27
104 196
57 237
403 302
55 119
36 161
300 255
142 25
495 380
117 443
216 373
222 110
370 168
344 237
121 484
45 18
481 142
142 385
406 240
13 27
380 260
153 142
388 117
497 27
51 274
395 364
3 482
368 159
92 213
251 277
22 14
143 368
2130
5
