40
9
0 0 0 0 0 0 0 0 0
99 80 50 38 82 36 55 34 16
79 30 94 90 56 76 18 11 73
40 23 74 40 72 23 93 85 38
40 86 41 45 87 72 34 78 30
99 72 28 42 63 45 70 95 25
99 39 100 97 100 83 49 43 83
13 25 28 100 90 36 89 29 22
83 25 56 31 14 40 62 65 14
77 35 65 45 74 11 83 68 46
83 30 95 96 77 96 70 97 56
25 19 36 81 70 21 94 72 22
33 51 56 85 80 55 15 17 40
25 42 26 96 52 51 94 24 45
100 27 94 71 44 89 27 78 17
87 74 39 99 73 41 10 19 37
10 43 39 25 45 89 54 35 12
32 79 75 90 42 81 63 54 82
95 17 28 32 14 71 51 82 92
61 44 91 32 85 88 25 65 61
52 25 20 83 88 44 90 51 65
15 48 44 44 80 28 22 64 19
24 89 29 21 73 27 29 95 48
73 77 72 65 31 11 65 32 73
12 47 22 29 42 55 53 70 89
35 61 82 54 70 22 97 51 38
58 50 28 66 46 79 91 22 99
21 90 16 46 42 29 85 90 92
85 93 71 91 20 52 38 92 78
52 99 87 95 21 11 89 62 95
29 64 64 72 82 53 82 73 72
42 78 31 72 15 38 15 78 76
77 90 32 92 87 39 39 58 13
44 66 63 48 82 28 51 21 41
47 92 99 42 28 25 17 85 98
87 94 82 52 53 14 67 20 55
24 47 30 19 63 39 32 48 63
80 51 87 81 30 13 15 29 76
36 40 53 40 35 94 28 63 26
41 54 24 53 36 87 34 61 86
0.989025
0.716685
0.831787
0.646075
0.424964
0.8795
0.253121
0.956175
0.38254
0.241483
0.939421
0.935027
0.346201
0.966037
0.44453
0.413113
0.800019
0.609225
0.718445
0.851491
0.64325
0.734695
0.297131
0.889785
0.814329
0.561443
0.550844
0.824065
0.911788
0.803437
0.880005
0.907217
0.641112
0.29618
0.526526
0.257993
0.575042
0.782633
0.998035
0.341409
406 418
100 242
389 43
11 398
352 428
385 332
479 114
288 261
113 114
245 75
237 81
49 146
475 171
386 85
402 274
91 38
63 146
113 30
235 349
229 487
100 213
8 118
189 269
214 280
323 182
380 296
189 14
178 413
71 373
444 127
436 42
105 390
266 247
318 416
396 444
374 278
32 180
362 98
386 279
478 291
10785
1
