40
9
0 0 0 0 0 0 0 0 0
10 37 10 83 91 94 32 10 86
57 60 59 98 98 43 16 37 26
47 10 45 22 70 50 78 34 91
10 100 21 98 84 61 44 24 60
89 31 50 57 12 16 83 20 17
80 65 84 26 91 12 61 94 14
53 22 95 78 31 47 24 22 62
17 95 78 63 54 95 100 71 56
30 88 70 20 85 13 19 48 31
96 79 59 53 43 60 99 31 91
95 42 15 71 83 90 60 74 16
19 79 36 76 28 28 15 31 94
27 50 58 48 46 13 89 50 79
17 81 24 32 55 29 90 10 18
14 66 12 72 86 98 69 89 70
37 97 46 85 23 45 67 66 51
80 35 87 99 48 31 74 30 11
22 36 97 38 17 93 25 55 64
34 91 18 79 16 78 74 78 20
33 29 64 26 66 20 11 20 33
44 97 27 41 21 15 29 60 51
82 55 97 82 90 42 24 24 12
88 38 21 55 97 12 17 24 23
42 34 82 41 87 39 34 65 54
84 68 96 50 62 29 36 48 71
67 67 34 22 62 72 54 89 32
50 33 14 63 59 31 84 43 38
68 21 89 99 44 72 62 89 36
12 91 82 100 85 41 41 56 11
92 65 72 17 38 41 68 66 70
24 41 63 70 25 11 54 10 63
74 68 32 36 68 38 17 83 12
36 58 14 44 87 63 82 71 66
34 59 91 66 100 90 86 52 90
91 65 54 94 73 35 100 26 21
76 19 90 87 90 95 42 46 37
11 35 88 96 74 68 44 96 20
100 97 31 73 38 58 62 85 28
89 52 37 50 74 25 15 66 65
0.744096
0.64841
0.44576
0.791358
0.439263
0.899738
0.253138
0.741748
0.955596
0.722779
0.391433
0.7253
0.49875
0.46635
0.324944
0.245977
0.306073
0.838299
0.320005
0.854392
0.452671
0.935078
0.663074
0.803852
0.633888
0.67801
0.294058
0.829212
0.567876
0.604686
0.599434
0.942214
0.306355
0.669404
0.859639
0.355708
0.221055
0.822574
0.830616
0.908465
367 235
56 288
45 73
458 435
401 442
74 484
20 280
411 358
353 434
228 477
112 315
118 460
33 145
171 469
174 159
81 235
134 39
147 208
335 331
478 152
235 340
139 168
218 105
475 300
191 226
236 297
482 193
338 102
421 176
48 215
97 316
214 147
118 195
360 348
177 101
2 454
272 11
388 299
235 381
406 18
2637.5
4
