40
3
0 0 0
60 48 12
47 90 54
24 72 78
15 96 22
98 31 86
85 75 13
46 13 75
37 55 92
97 24 89
44 35 58
73 26 70
57 35 42
82 47 15
98 32 28
59 99 72
76 21 36
52 40 50
23 31 39
39 64 63
22 66 48
37 56 95
59 60 10
77 25 44
58 70 41
61 96 84
81 48 42
33 85 33
66 44 34
10 73 12
45 17 94
78 98 23
86 14 36
10 58 21
60 36 37
73 69 32
99 95 52
48 59 82
100 10 45
37 82 38
1.42208
1.10338
1.43901
1.7487
1.52052
1.55811
1.83804
0.808164
1.21595
1.20569
1.88933
1.09078
0.446567
1.53231
1.67511
0.625751
1.50034
0.96587
1.70806
1.57845
0.562174
1.09834
0.781344
1.43421
0.816234
1.34166
1.90611
0.995978
0.628861
1.54212
0.696197
1.11336
1.35741
1.17466
1.2851
1.44219
0.976801
0.765763
0.599236
1.2489
172 473
314 408
324 381
389 234
265 84
306 199
7 444
34 323
93 336
193 205
165 321
159 6
476 116
131 151
58 200
210 337
242 157
52 135
134 185
342 229
374 362
46 186
223 410
14 279
418 335
323 183
29 345
199 71
60 294
288 193
104 379
276 0
280 262
383 381
299 246
368 398
477 165
81 278
486 212
287 207
2601.25
4
