50
9
0 0 0 0 0 0 0 0 0
61 85 68 11 48 88 58 31 72
14 69 80 38 10 20 42 18 29
61 31 24 40 68 38 33 66 65
72 19 92 47 94 41 10 23 50
64 90 19 88 94 58 20 49 71
50 49 68 39 81 91 92 38 81
65 36 51 26 68 87 98 91 21
95 81 80 88 21 44 67 33 20
47 64 29 85 90 61 77 14 42
15 66 81 32 87 51 18 79 59
39 54 77 20 65 31 69 41 10
82 32 83 80 71 25 28 77 29
95 86 66 48 45 70 27 59 79
38 43 46 69 27 51 24 36 66
78 81 58 40 59 81 13 83 29
99 60 50 50 85 16 23 48 80
80 88 71 11 45 74 24 11 29
93 65 36 90 46 32 74 60 37
55 27 15 38 44 27 47 57 90
87 42 47 40 11 17 78 59 23
68 33 28 46 83 36 53 64 90
98 93 20 25 51 12 43 24 46
97 13 36 20 13 16 13 64 34
57 80 39 35 56 19 69 44 16
44 32 74 58 44 77 33 41 35
90 12 32 90 94 90 73 35 71
28 70 37 79 42 12 95 10 31
64 50 57 14 20 67 43 61 69
12 36 57 53 80 99 69 72 59
11 69 39 60 74 76 39 21 70
33 40 61 32 71 12 34 94 44
44 94 34 38 63 86 53 84 79
88 66 35 71 42 84 37 32 59
22 63 63 89 49 30 97 81 89
91 58 99 12 53 73 41 19 40
83 86 50 22 34 29 46 55 76
67 24 16 77 45 50 46 46 12
35 47 98 78 64 79 62 58 93
23 70 56 84 76 73 58 62 68
21 52 82 14 41 75 17 25 69
53 77 21 39 85 93 56 57 62
73 62 31 85 60 84 91 77 10
69 91 52 67 36 67 36 90 69
46 82 33 23 70 76 67 33 77
52 43 94 56 96 53 20 82 26
74 72 99 63 63 39 20 72 84
16 24 72 72 38 66 92 53 11
64 14 38 15 79 21 23 10 51
43 62 59 69 82 74 81 93 39
2.09449
1.18784
2.34267
0.816637
1.82491
1.24368
1.73208
0.722895
1.71315
0.675276
2.40482
2.03013
2.15768
0.903639
2.41915
1.56315
2.09489
1.08508
2.24249
1.88775
0.748669
1.72702
2.46921
2.07428
1.84877
1.45474
1.46842
1.51327
1.00674
0.794836
1.96417
1.31269
1.07533
1.43131
1.92046
2.39017
1.34093
2.3604
2.25388
1.32696
1.59703
1.7092
2.14826
2.48284
1.57903
0.507052
0.751642
2.24881
1.44822
0.599506
393 166
286 477
474 408
130 313
412 139
128 402
9 147
120 271
400 272
334 139
166 211
455 193
280 235
218 255
250 482
145 388
367 122
267 205
18 56
317 182
181 196
56 133
238 199
364 47
369 409
82 481
306 97
357 33
270 296
348 109
295 478
428 471
50 98
379 442
28 28
82 222
91 49
339 91
242 43
166 324
222 404
116 181
259 273
240 34
4 380
288 357
312 440
163 232
54 348
465 393
3307.5
4
