50
11
0 0 0 0 0 0 0 0 0 0 0
47 34 68 35 37 44 83 61 29 28 68
30 59 63 79 84 66 37 100 45 42 64
13 36 12 76 96 26 11 47 32 11 69
25 29 77 25 45 87 32 96 86 35 78
44 43 83 26 71 95 62 26 57 89 40
55 44 63 44 12 65 95 70 55 10 54
50 64 53 68 16 57 64 74 24 53 60
16 41 60 57 16 25 90 10 61 71 75
37 91 21 83 92 32 34 10 24 83 18
15 37 89 75 68 84 83 44 31 14 54
56 23 28 89 56 96 80 27 30 94 12
44 37 46 61 91 26 17 30 19 50 88
93 58 39 62 92 33 14 38 98 26 28
93 56 76 84 72 46 92 24 79 40 60
35 56 41 93 54 43 20 98 33 20 43
10 25 89 73 13 73 44 71 84 43 63
26 70 57 24 79 12 51 93 27 89 61
47 31 94 56 95 66 23 24 60 41 28
34 14 21 15 90 47 68 55 53 21 70
28 93 43 74 60 32 24 14 31 12 93
82 70 95 30 100 21 95 98 94 79 46
24 37 17 83 46 95 87 20 56 38 100
31 66 90 92 73 77 98 15 29 88 21
26 20 94 96 75 74 65 26 44 50 92
37 26 19 76 30 66 90 84 75 73 67
97 40 54 13 74 99 83 15 40 21 79
72 39 80 37 25 91 32 62 50 44 24
50 33 95 82 97 14 28 14 80 80 74
50 38 12 70 17 26 12 36 61 39 94
36 79 96 58 73 27 87 39 36 72 96
88 45 99 80 23 85 81 45 86 99 61
23 58 68 49 65 73 14 82 93 70 73
54 47 10 46 24 33 69 12 30 35 60
82 10 42 72 47 30 23 60 39 67 15
48 28 38 82 87 32 64 24 96 77 45
53 74 46 19 20 51 22 64 60 94 18
77 17 93 98 38 70 47 57 41 50 69
71 49 20 45 89 64 87 61 49 14 72
69 46 85 95 74 99 42 77 46 30 64
29 88 69 78 91 28 52 12 66 77 61
57 19 87 84 87 91 16 19 19 50 84
25 85 24 60 22 67 33 21 20 88 74
93 91 40 11 82 95 71 56 48 84 28
84 37 72 68 69 15 49 65 31 18 70
33 85 15 11 84 58 92 62 30 81 71
92 92 52 87 28 53 71 87 16 10 61
71 57 56 13 38 56 81 74 30 13 58
94 46 47 14 51 44 85 64 39 39 25
56 93 31 97 30 23 74 46 68 10 33
0.869792
1.25838
2.36257
1.47414
0.795067
0.785451
2.25007
1.51947
2.30168
2.17555
2.10295
1.67164
1.09095
0.938628
0.678333
0.877004
2.04781
0.541213
1.14206
2.43661
2.30858
0.501315
1.6912
0.949641
2.16516
2.0227
1.01155
0.731654
0.557445
1.52516
1.02403
0.758654
1.9311
1.1365
0.660947
1.05986
0.973191
1.47764
1.04869
1.51518
1.96112
0.534854
0.530909
2.32873
2.00174
2.10005
1.04598
2.37981
1.16075
1.1633
352 370
245 5
60 98
288 254
23 129
191 477
93 342
224 328
459 261
21 44
417 33
411 200
74 190
18 248
51 440
48 450
269 376
146 324
102 376
161 284
456 431
355 425
105 235
387 225
351 477
90 208
448 279
461 290
258 379
485 289
248 104
446 150
114 192
158 274
19 329
357 445
40 243
131 443
389 242
271 418
34 220
61 144
112 93
470 216
400 341
429 447
402 123
193 1
89 345
438 26
6640
2
