50
11
0 0 0 0 0 0 0 0 0 0 0
40 48 10 89 12 40 30 37 27 59 92
47 53 98 50 19 87 34 14 98 19 51
57 95 14 75 49 68 23 51 93 51 31
39 98 56 93 12 12 42 91 13 59 51
19 91 45 44 27 34 31 26 50 27 74
37 51 75 59 40 74 99 47 60 70 23
29 56 29 13 85 48 47 74 19 23 39
10 40 78 45 15 83 100 95 99 99 98
46 25 66 32 72 93 49 95 73 10 78
25 58 95 81 37 43 88 92 58 85 21
54 45 56 65 20 30 73 40 85 63 54
23 15 88 23 98 39 16 58 79 29 23
92 45 17 95 83 37 13 41 48 72 86
23 79 64 41 95 89 84 89 74 28 18
73 47 40 45 11 46 97 41 31 57 73
90 97 15 46 16 70 36 64 47 71 98
83 89 82 64 56 96 68 54 83 37 82
95 78 96 29 58 34 25 38 90 79 60
97 13 24 71 69 48 65 21 91 61 23
51 39 26 19 63 30 21 39 51 89 45
67 68 69 12 99 47 32 24 10 15 62
28 30 51 83 63 93 92 31 12 25 93
41 85 53 85 45 41 10 38 40 93 50
32 58 38 99 80 15 89 89 21 60 54
72 73 56 10 98 45 60 47 78 94 68
61 75 49 100 23 70 43 62 15 48 27
10 16 37 50 63 73 69 57 10 50 77
47 68 17 51 59 27 80 82 57 85 79
53 44 73 16 14 36 84 67 18 34 47
66 27 84 69 63 54 100 53 61 71 35
85 74 25 17 42 20 25 95 76 26 16
78 30 13 37 77 41 73 55 44 19 58
92 26 56 62 61 14 36 55 84 65 90
22 29 48 46 38 90 81 90 26 25 32
72 37 95 46 39 49 99 14 76 40 72
43 45 92 71 29 50 92 73 24 70 95
62 41 25 48 47 61 22 75 59 33 13
12 78 89 68 23 28 67 30 40 67 99
30 18 17 95 91 65 82 95 25 24 59
91 53 64 13 66 11 57 55 67 25 24
95 95 12 69 93 13 25 68 87 18 79
16 55 94 36 79 48 60 71 13 62 70
90 66 66 38 15 89 38 59 25 10 15
30 70 30 29 14 51 76 86 13 78 75
13 66 78 96 34 10 57 36 32 57 49
24 54 26 41 82 81 21 61 94 51 45
52 37 57 84 92 62 48 52 19 30 55
43 34 73 76 32 84 11 57 18 76 84
90 21 23 21 58 45 75 75 59 95 33
0.264241
0.12205
0.318386
0.236337
0.309417
0.229774
0.384155
0.234768
0.441531
0.185735
0.171387
0.104273
0.453302
0.350614
0.326876
0.469677
0.132101
0.260009
0.327378
0.168841
0.266744
0.161376
0.434024
0.21596
0.1351
0.439627
0.400186
0.239361
0.466111
0.281484
0.47108
0.19349
0.470212
0.217539
0.270196
0.188833
0.483523
0.487017
0.494438
0.452067
0.488021
0.33743
0.433332
0.468362
0.229575
0.407484
0.271888
0.148075
0.409858
0.321832
106 449
376 82
295 164
188 24
344 463
443 217
446 361
468 38
216 34
351 224
268 343
113 317
500 147
449 108
256 16
130 494
269 207
474 447
453 39
302 64
405 450
495 257
340 491
493 245
96 186
370 410
308 189
308 212
439 361
194 366
422 225
359 483
146 241
175 120
333 70
60 190
112 347
149 239
352 294
310 413
350 49
429 249
12 13
440 467
0 6
55 285
366 73
377 106
312 214
311 437
6560
2
