50
9
0 0 0 0 0 0 0 0 0
90 22 89 75 56 65 23 40 11
11 82 56 42 20 84 17 58 31
19 84 58 56 14 28 97 37 77
42 97 19 86 98 60 35 43 96
55 16 57 68 21 44 34 34 46
28 24 70 78 100 46 96 30 75
79 81 16 76 64 38 11 11 58
88 52 39 92 75 16 51 53 78
65 48 24 42 81 77 88 58 50
45 16 51 81 94 86 70 66 29
25 10 34 94 87 72 71 77 67
85 34 82 99 72 23 54 40 34
25 21 38 88 10 90 86 39 64
68 12 32 53 35 69 23 88 84
100 56 40 59 93 10 40 72 33
78 76 31 87 92 80 96 64 26
82 79 88 50 24 23 55 51 26
39 100 82 16 63 23 12 15 75
22 38 98 32 26 57 54 19 99
17 98 51 31 91 88 48 85 29
16 43 59 33 73 16 90 69 23
96 15 91 58 46 46 87 93 52
36 48 65 25 67 71 93 31 58
60 85 80 61 74 99 85 41 26
40 12 79 75 94 17 77 66 83
40 32 56 63 80 76 91 44 20
17 19 23 14 94 50 78 57 78
43 58 22 74 43 96 10 40 42
58 45 56 81 99 79 19 38 16
20 54 89 51 49 27 55 49 95
27 73 28 22 37 44 67 59 51
58 79 45 77 83 88 90 60 78
21 82 83 27 15 33 96 35 67
69 67 22 50 56 45 42 31 40
91 22 19 69 100 77 58 67 44
34 59 35 44 89 16 35 47 31
64 75 79 92 30 26 62 21 24
10 91 43 60 97 30 66 80 16
30 13 83 26 92 18 63 56 70
98 69 75 39 82 93 73 92 90
78 41 21 17 58 15 99 57 11
31 99 84 21 46 39 14 61 91
76 64 41 98 83 35 57 66 100
19 81 14 52 55 51 24 95 75
94 56 10 78 56 60 82 72 29
66 83 15 88 54 92 25 58 36
41 91 72 55 37 19 74 31 44
69 29 12 40 37 86 71 34 53
69 94 56 21 41 77 56 13 47
0.297251
0.459407
0.349382
0.112548
0.114762
0.336314
0.164809
0.424602
0.150608
0.434578
0.437866
0.216748
0.323929
0.310556
0.378018
0.344177
0.174086
0.219096
0.408575
0.219899
0.479909
0.329935
0.388793
0.448373
0.307458
0.244962
0.291001
0.217696
0.382769
0.43861
0.323291
0.417151
0.421271
0.28155
0.381893
0.251028
0.347045
0.370912
0.135836
0.304994
0.262743
0.443724
0.319661
0.133238
0.219139
0.435884
0.427352
0.344869
0.452404
0.262576
314 416
247 324
219 487
178 465
204 169
265 290
201 256
237 278
236 233
447 101
452 92
191 164
299 232
24 353
294 47
221 77
367 47
390 361
153 260
51 330
53 399
472 134
280 318
444 102
397 4
164 0
172 486
99 267
48 42
495 287
475 211
250 287
364 2
392 341
258 426
4 303
37 470
261 250
133 222
188 148
154 118
355 243
144 449
169 246
330 340
410 492
314 408
381 20
269 55
43 360
2699
5
