50
5
0 0 0 0 0
28 92 75 79 77
98 27 60 74 72
39 37 27 82 50
45 73 35 91 30
31 73 41 30 60
39 21 69 82 76
96 70 23 49 94
86 44 36 56 74
55 27 42 70 20
86 91 71 12 66
90 39 45 61 75
25 100 91 79 48
68 66 88 22 99
31 75 61 25 94
73 73 59 45 56
19 44 20 53 58
93 85 43 42 96
66 71 89 59 23
84 53 89 24 41
60 12 17 75 28
47 13 61 45 45
24 33 66 34 69
54 35 50 54 11
53 50 19 88 35
25 77 15 64 52
67 76 97 48 46
15 78 21 61 69
77 81 84 18 45
34 49 56 78 75
29 16 55 93 84
43 89 52 69 66
57 28 46 79 48
66 61 33 17 78
98 69 14 49 88
72 87 16 51 17
77 87 26 43 82
100 39 77 95 35
54 20 97 92 31
51 40 73 79 24
86 22 47 92 59
37 31 33 38 53
20 15 72 77 23
35 15 18 25 98
87 76 41 37 51
83 15 33 65 71
65 99 17 95 70
13 38 21 80 90
13 38 64 50 71
60 45 95 43 15
0.256375
0.494719
0.313647
0.332523
0.315896
0.684764
0.22779
0.273736
0.997895
0.591866
0.391095
0.508487
0.799851
0.447043
0.812826
0.808005
0.836563
0.733965
0.342905
0.390647
0.632351
0.442727
0.490225
0.469911
0.222921
0.470503
0.378267
0.487471
0.921779
0.441783
0.990776
0.815329
0.948247
0.289809
0.876763
0.734076
0.220444
0.849651
0.232092
0.296751
0.874285
0.610499
0.931873
0.309784
0.624207
0.222206
0.539488
0.311564
0.479718
0.201854
137 312
189 82
315 355
366 399
176 322
328 102
400 109
420 409
351 359
487 71
465 155
283 377
264 491
294 145
354 108
58 416
471 290
55 410
404 24
191 188
295 197
448 268
385 480
79 36
268 156
171 19
284 390
127 455
398 40
265 278
229 367
426 340
431 103
311 56
40 28
352 184
429 433
427 353
51 419
370 444
40 284
409 267
264 60
436 177
386 14
214 250
457 339
442 238
315 12
160 302
6767.5
2
