50
11
0 0 0 0 0 0 0 0 0 0 0
85 37 42 61 98 58 52 25 29 22 53
78 48 77 40 69 17 43 62 38 30 87
20 78 56 40 60 90 65 63 88 93 10
45 95 18 19 48 76 13 60 82 84 28
52 60 38 69 20 24 49 18 31 65 86
16 68 65 24 36 12 68 78 64 52 59
40 14 17 14 58 66 60 98 61 49 57
88 35 74 45 50 25 87 53 29 20 55
22 51 24 87 10 46 70 29 56 60 85
30 70 37 35 57 45 29 73 32 27 12
32 41 24 33 44 45 47 48 69 68 52
48 84 90 47 100 19 32 32 94 52 85
78 13 28 29 50 56 82 48 78 56 74
50 85 84 100 66 15 72 74 21 73 14
89 53 51 97 82 57 55 12 55 30 79
80 38 14 68 13 89 45 53 56 34 84
46 56 39 73 84 58 43 22 87 70 33
64 13 35 100 14 97 95 29 56 60 17
73 18 70 52 55 53 18 46 83 100 100
25 27 68 68 89 70 50 76 73 96 68
56 73 84 98 21 18 12 96 98 29 60
14 19 10 70 37 28 93 39 80 27 51
66 31 22 72 95 40 60 21 13 41 29
73 71 33 23 47 14 19 53 94 11 63
93 30 49 98 72 94 94 31 32 91 71
35 63 70 59 73 52 79 38 49 87 66
67 22 93 98 19 97 10 88 76 48 59
99 80 23 54 40 23 68 95 82 77 89
12 38 56 48 22 49 71 10 97 90 37
47 24 10 46 30 97 20 100 19 54 33
92 41 46 44 75 39 44 19 18 61 28
42 54 58 26 19 69 44 75 89 81 18
94 19 48 62 18 60 94 52 57 63 27
49 36 46 48 86 16 47 65 62 45 67
78 79 36 34 83 38 76 20 71 40 13
81 92 63 79 59 19 11 93 81 67 77
84 56 84 42 75 43 31 86 26 19 64
77 32 88 68 100 57 34 98 42 43 71
40 82 51 84 73 45 69 20 81 98 56
23 61 34 58 14 34 12 95 67 27 10
55 66 81 72 49 76 44 38 12 90 45
59 42 29 74 90 13 70 63 30 75 90
36 51 65 52 16 99 11 22 53 63 62
19 20 18 19 23 44 61 56 42 74 52
80 19 10 79 71 65 73 28 100 65 34
28 53 34 93 20 46 55 63 36 87 48
69 87 60 70 83 80 27 85 45 53 100
71 50 74 88 69 82 18 100 41 19 73
35 78 68 61 89 23 55 70 27 38 54
0.234062
0.938662
0.398078
0.575102
0.569666
0.867583
0.978905
0.515043
0.426909
0.623976
0.230801
0.664418
0.236236
0.998693
0.460851
0.29658
0.667108
0.940537
0.203201
0.971957
0.913895
0.290582
0.374453
0.597965
0.722229
0.297092
0.956517
0.712163
0.375712
0.513624
0.908138
0.516643
0.84968
0.218903
0.705356
0.705292
0.588189
0.25448
0.764948
0.864188
0.883524
0.928943
0.733653
0.322321
0.545105
0.222048
0.689192
0.68976
0.712903
0.969217
312 226
73 331
157 464
119 110
170 434
302 62
122 144
361 191
292 414
18 374
397 451
316 13
134 430
338 304
410 26
420 344
117 124
372 304
221 483
111 299
88 433
444 323
252 487
416 267
310 238
411 419
97 133
303 281
353 130
129 84
338 283
7 500
372 232
392 60
166 111
83 282
408 73
70 292
466 182
338 135
191 298
452 105
55 454
368 251
284 37
436 18
366 265
407 466
333 237
487 187
2648
5
