50
5
0 0 0 0 0
27 96 92 77 88
29 91 30 41 16
15 31 74 20 95
21 72 64 59 88
26 25 19 31 73
74 63 12 36 16
100 11 52 25 23
45 87 27 87 61
67 44 36 37 36
37 90 19 45 86
72 92 10 76 72
86 16 58 59 38
85 37 66 94 25
79 18 82 58 53
78 15 90 19 63
30 11 66 38 55
46 43 39 27 72
83 14 95 47 61
31 84 100 32 29
84 23 84 10 11
50 57 77 60 26
41 74 54 66 92
42 72 24 61 27
44 41 32 63 50
82 21 27 59 66
22 70 24 44 95
31 50 92 81 35
62 100 18 89 47
88 15 50 59 28
22 47 44 75 35
41 89 50 80 34
41 36 71 44 23
36 54 79 89 76
60 89 33 20 27
72 29 16 40 87
83 45 69 30 52
70 48 15 53 32
33 31 38 38 50
39 13 14 35 86
44 93 90 15 71
56 84 96 34 57
28 76 89 14 51
20 73 69 74 98
64 62 19 20 63
16 55 96 49 34
13 42 92 77 94
95 95 78 50 21
95 12 91 86 74
72 52 53 69 71
1.53369
1.73629
0.572056
1.91059
1.16227
1.764
0.824551
1.11825
1.67253
0.626355
1.85135
1.49346
1.29938
1.69032
1.36001
1.21718
0.423151
1.05797
1.10931
1.9664
0.426817
1.54474
0.805546
1.95619
0.566732
1.82917
1.12236
0.980581
1.62726
0.540455
0.741582
0.915466
1.81363
1.69818
0.772562
1.84937
0.846053
1.1896
0.601747
0.507844
1.02517
0.751792
0.765546
1.771
0.666969
1.92496
0.891676
0.999608
0.717262
0.572976
213 35
123 18
282 245
13 40
414 54
279 357
295 29
165 311
65 359
399 361
244 498
78 41
201 203
21 364
192 207
346 112
46 187
431 107
184 36
326 1
51 149
391 51
410 286
151 123
492 224
387 323
481 328
348 40
77 185
262 125
10 387
335 366
238 457
147 444
83 170
229 98
290 213
459 18
498 48
219 252
50 395
287 6
481 51
257 481
344 203
283 205
419 56
117 47
14 190
353 116
6517.5
2
