50
7
0 0 0 0 0 0 0
93 18 72 20 53 32 81
98 68 65 18 58 29 19
97 41 43 89 80 50 50
45 79 28 95 97 89 53
74 71 50 16 86 23 42
42 33 33 70 23 86 80
32 79 71 56 74 33 19
17 90 42 93 81 16 97
27 51 33 11 55 82 99
35 43 16 23 28 34 80
46 66 11 33 75 60 54
15 98 98 19 55 96 40
29 32 93 12 83 100 98
71 87 56 76 35 23 66
12 47 18 37 39 35 47
74 43 95 47 75 71 96
44 41 71 35 71 77 40
77 51 81 75 75 97 60
28 93 82 11 21 96 25
62 36 20 51 20 34 17
30 76 80 96 86 97 11
76 22 98 56 60 90 59
19 34 58 82 38 60 96
72 27 11 19 36 22 13
10 98 93 98 22 47 96
46 37 16 86 74 38 88
28 95 78 19 92 47 72
91 59 74 31 35 52 76
93 65 14 11 21 63 99
99 81 10 100 100 94 35
41 47 50 72 98 61 11
70 89 97 47 50 77 62
55 65 18 64 62 45 34
57 28 34 86 70 29 10
17 79 26 30 36 71 36
54 48 49 27 83 84 50
47 21 49 27 69 70 29
10 31 11 47 62 20 85
89 81 16 82 16 37 47
44 57 22 30 53 24 13
36 39 70 67 43 72 63
80 78 77 93 100 90 49
41 30 93 52 59 67 84
37 57 37 30 91 95 11
58 97 42 41 69 85 25
53 67 69 82 33 17 56
89 47 75 52 24 79 38
36 68 91 16 79 96 75
39 26 76 42 67 14 75
1.42845
0.384875
0.351209
0.954077
1.01171
0.871946
0.837675
1.06416
0.675715
0.780684
0.915325
1.3365
1.06189
0.571724
1.15006
0.594773
0.768096
0.817004
0.512338
1.14352
0.646261
1.42432
0.947613
1.21976
1.47379
0.953441
0.483003
0.50538
1.38241
0.459092
1.4688
0.861073
0.466276
0.838169
0.517437
0.815009
0.714433
0.881043
0.982424
0.359664
1.20084
0.750408
0.658788
1.13977
0.925258
1.2018
0.332046
0.453133
1.18643
1.03361
95 166
471 344
242 366
455 388
242 15
0 72
478 373
191 476
265 418
51 426
33 420
333 253
23 3
104 134
311 206
311 74
403 40
476 343
33 236
253 74
478 404
298 21
198 169
20 350
280 476
468 441
469 385
242 49
456 50
63 407
226 194
226 15
277 167
54 74
362 152
84 376
144 170
335 97
472 394
4 149
16 264
89 21
236 355
167 116
318 443
11 496
316 234
279 240
469 35
13 235
2702
5
