50
5
0 0 0 0 0
38 11 45 50 88
12 88 37 100 87
23 98 95 25 12
31 94 23 10 78
70 23 68 18 64
92 45 48 17 27
39 70 25 38 52
51 69 85 28 72
66 13 42 35 72
16 85 80 46 53
34 29 46 86 26
43 44 16 64 28
69 25 96 57 100
84 17 19 72 22
89 96 99 36 67
82 12 14 81 11
97 25 52 59 31
66 53 29 95 70
14 17 91 90 79
89 26 82 80 26
43 78 20 75 70
55 35 91 52 84
89 51 87 37 25
56 11 77 39 54
66 38 60 24 41
90 50 22 69 88
100 69 23 84 14
15 13 83 37 19
49 90 65 17 27
38 50 73 30 18
93 60 36 39 52
19 83 37 31 24
69 59 75 34 79
92 57 76 12 87
72 41 68 84 72
45 75 66 87 64
67 68 31 49 96
52 45 48 35 80
86 89 40 28 29
88 28 30 19 66
76 67 28 44 86
49 31 17 26 61
100 99 39 14 79
53 35 88 89 72
94 69 46 98 13
98 16 100 50 51
51 42 88 29 96
76 52 69 68 88
66 26 30 49 48
1.65847
1.35173
0.727805
1.55987
0.875976
0.734472
0.988306
0.620396
1.22445
1.25509
1.31267
1.6515
0.812838
1.30971
0.649925
0.423414
1.41682
1.35725
1.34374
1.98479
0.426034
0.419505
1.65749
1.1805
1.38078
1.55699
0.83218
1.7077
1.89031
0.6171
1.52396
1.55806
1.36106
0.831905
0.581109
1.99846
0.7626
1.80278
0.90068
0.962857
1.67425
1.84498
0.77375
1.94118
1.97534
0.909372
1.76742
1.52977
0.575253
1.46756
384 326
143 309
11 220
79 35
466 245
131 493
378 25
336 85
225 140
237 11
120 149
175 364
361 148
442 348
185 14
93 480
239 38
163 464
118 397
349 26
457 172
46 164
275 341
24 60
381 105
344 367
263 78
122 175
395 144
18 24
440 151
285 233
52 484
49 340
5 336
272 106
175 411
456 425
399 303
234 106
188 122
393 203
443 219
462 292
97 426
238 181
388 39
452 236
257 0
222 175
2681
5
