50
5
0 0 0 0 0
25 40 93 57 95
13 52 27 100 69
41 18 84 60 80
73 74 40 100 97
96 17 89 11 93
10 72 73 44 42
69 78 15 47 60
57 74 96 51 19
38 74 43 77 32
16 85 100 83 60
50 85 39 80 41
17 44 79 40 60
57 80 52 78 57
27 38 51 36 53
89 89 26 59 40
33 34 41 64 63
66 18 43 57 48
45 13 35 88 48
73 30 29 35 80
54 36 24 93 22
37 55 25 57 13
29 57 69 78 11
46 100 45 43 26
97 40 87 49 67
98 39 87 75 83
59 40 91 57 59
29 49 57 74 94
69 13 17 81 25
53 87 65 82 55
98 50 73 43 63
66 25 14 25 69
76 55 31 69 94
77 35 30 100 81
16 99 64 17 20
26 59 77 66 19
82 44 84 99 84
78 62 82 98 43
23 70 37 77 23
21 45 81 57 10
32 51 81 22 82
56 17 13 89 33
20 83 25 92 24
15 93 69 86 88
68 72 93 61 84
32 39 47 49 36
23 76 51 96 41
29 62 68 65 57
83 10 39 84 36
87 35 70 80 99
0.947582
0.744715
1.37781
2.37196
2.49851
0.608009
1.9621
1.78851
1.50122
2.27387
1.24162
1.9794
1.71904
2.25692
1.73099
1.85619
1.119
1.16496
2.38825
1.61667
0.585832
1.2096
0.894749
1.88155
1.52674
2.29759
2.17839
2.27541
2.17224
2.03651
1.46275
2.38685
1.37925
1.77099
2.4049
0.939167
1.37024
0.509321
1.901
1.13733
1.88965
2.25067
1.51899
0.943615
2.25671
2.1488
1.07577
1.41547
0.605564
1.05582
428 476
354 37
320 492
273 367
116 82
299 359
121 367
296 128
396 316
177 66
28 223
376 484
62 170
285 485
418 416
251 20
296 45
436 94
52 320
36 27
124 355
43 106
171 355
330 77
52 496
59 44
160 478
167 42
426 477
208 118
105 202
183 295
293 23
60 247
352 271
37 308
418 101
309 495
198 0
406 305
235 464
385 381
171 65
42 210
314 139
488 336
35 44
173 294
435 91
379 380
3436.25
4
