50
3
0 0 0
47 66 15
56 87 59
49 97 46
54 24 74
94 73 35
73 78 66
97 71 66
47 54 12
58 60 79
61 53 48
62 86 62
45 70 73
76 79 30
28 28 53
43 25 83
39 66 96
64 58 71
11 85 26
89 54 18
51 64 18
96 94 40
81 71 66
25 45 65
52 45 21
27 85 68
11 88 77
23 49 99
52 60 99
15 23 21
40 19 52
100 10 34
53 32 53
21 48 89
75 51 67
32 21 74
28 78 25
28 50 70
97 85 93
28 19 95
44 72 53
37 80 13
11 97 68
47 96 33
73 55 12
51 47 36
44 19 59
65 10 42
75 91 10
47 61 52
0.412233
0.49974
0.37866
0.392199
0.397066
0.103626
0.16257
0.377991
0.208119
0.385423
0.267345
0.369545
0.499766
0.416535
0.353147
0.389373
0.434243
0.114326
0.138604
0.115099
0.373312
0.302859
0.425892
0.226485
0.229707
0.256555
0.164264
0.405081
0.245933
0.245394
0.149603
0.225915
0.320427
0.144394
0.488943
0.383934
0.412148
0.122152
0.424827
0.416759
0.245816
0.470626
0.180983
0.177649
0.341521
0.111298
0.228094
0.255999
0.252182
0.135813
287 328
334 86
147 252
150 64
15 30
63 359
318 107
84 21
382 170
293 68
194 442
74 156
259 350
197 495
235 477
148 316
500 241
180 75
154 422
281 76
396 332
376 481
462 362
149 440
354 184
50 231
302 292
478 122
129 312
69 290
163 259
368 407
86 367
372 45
314 318
428 237
204 302
308 52
251 257
267 346
109 53
354 97
158 112
238 31
67 87
286 397
26 57
43 487
497 347
133 312
3340
4
