50
5
0 0 0 0 0
27 44 74 68 89
97 53 75 66 98
24 97 36 82 80
25 61 24 30 84
81 31 38 86 62
65 41 94 70 75
11 39 27 25 53
21 28 16 61 81
50 14 42 76 58
34 39 60 29 98
73 66 52 78 37
87 44 22 88 62
42 32 15 11 59
75 28 17 38 85
61 95 50 41 11
78 53 97 17 59
68 92 38 25 63
83 65 35 27 31
26 68 10 60 68
64 51 19 27 84
64 75 100 83 66
60 40 51 94 26
59 89 12 70 34
39 92 32 43 63
28 23 61 48 47
94 27 31 80 61
76 59 68 19 55
18 43 87 10 58
37 41 97 100 83
83 50 90 43 53
41 25 20 34 63
72 34 88 82 57
57 18 39 82 67
43 93 24 12 64
74 11 43 53 15
38 66 94 97 34
63 77 43 28 96
24 55 30 62 29
64 96 23 19 34
89 86 13 61 74
20 53 16 77 56
60 28 47 31 38
53 23 62 35 34
65 52 86 65 24
64 35 21 65 25
22 11 30 61 96
30 63 24 10 40
73 89 14 56 33
98 10 51 34 89
1.47255
0.764634
0.306522
1.26099
1.27253
1.10379
0.52326
0.736361
0.492086
1.41859
1.03396
1.0299
0.903783
0.834887
0.325053
1.28824
1.24269
0.323902
0.851712
0.49137
0.715372
1.22313
0.672032
1.22185
1.11742
1.40909
0.400307
1.40334
0.509738
0.432929
1.49182
0.79282
1.16178
1.40918
0.659097
1.18394
1.32996
1.16961
1.02195
1.06081
1.15833
1.47072
0.786743
0.950554
1.31523
0.810462
0.812717
0.967704
0.43945
0.717922
31 63
127 447
305 130
357 49
211 301
463 233
87 444
456 59
341 41
380 251
147 281
69 168
79 272
244 55
207 188
159 486
169 458
252 325
303 355
143 175
45 253
131 333
155 379
53 122
330 332
122 75
373 169
6 268
419 260
486 245
426 298
30 160
72 176
419 354
283 286
305 149
138 143
165 88
395 89
276 375
310 277
322 482
150 78
209 287
147 418
104 189
418 80
145 464
6 164
460 162
3212.5
4
