50
5
0 0 0 0 0
99 87 94 45 79
16 80 22 33 77
83 27 83 35 91
88 64 45 92 64
71 26 28 45 47
100 47 46 96 97
42 88 97 16 15
91 40 61 12 84
85 88 16 34 83
88 84 100 10 40
67 77 94 64 81
47 98 71 99 60
19 49 42 52 44
62 10 45 76 36
19 54 97 52 51
58 96 40 57 70
47 60 62 96 97
93 43 62 34 82
30 61 93 95 20
50 63 67 30 91
90 23 80 41 19
69 91 73 80 43
46 85 22 80 54
69 22 30 86 94
63 95 98 62 16
99 48 10 91 26
74 59 35 95 89
29 34 48 15 66
40 53 86 87 43
50 99 38 100 62
87 10 14 67 54
70 16 79 74 62
10 78 93 66 70
60 94 79 94 94
53 77 79 88 26
86 59 95 20 15
78 42 62 85 77
61 25 15 75 98
92 28 46 20 20
32 58 62 73 76
25 38 14 87 87
84 49 53 52 44
59 73 79 63 77
42 19 86 60 19
59 69 15 63 18
52 61 71 87 87
76 92 26 92 37
34 89 28 47 97
89 52 17 10 16
0.880597
0.733112
1.89556
1.82306
1.61729
1.27238
2.33614
1.84349
2.06824
0.95961
1.74468
0.921264
1.04873
1.46273
0.780767
2.00701
2.19472
1.11614
2.49135
0.937751
0.8677
0.564923
2.40371
0.90292
0.743741
1.55832
2.25061
2.16766
1.97387
1.52411
1.70803
0.652512
2.14146
2.25173
2.17819
1.70414
1.86362
1.27467
2.28162
2.08236
0.861996
1.52118
1.01913
2.15096
1.35235
1.53774
0.834208
1.63513
0.87519
2.01336
140 295
357 488
411 136
302 181
483 280
342 122
132 321
248 434
170 437
198 13
353 33
208 241
180 375
141 236
88 116
142 415
11 82
338 336
299 477
418 332
352 385
415 67
169 356
463 247
52 352
295 145
79 346
30 246
243 294
146 167
412 481
352 287
311 103
65 487
479 141
367 139
421 344
496 260
457 433
448 281
26 140
294 490
475 392
245 287
24 412
307 307
333 194
42 158
132 62
160 67
3658.75
4
