50
3
0 0 0
39 23 96
86 69 19
42 46 29
65 14 94
37 25 85
67 15 76
84 49 49
84 38 48
19 85 25
91 74 79
73 89 20
24 58 43
15 78 87
16 90 94
100 86 71
47 29 17
14 70 41
48 14 29
54 12 18
78 55 45
84 27 51
87 42 85
42 33 27
73 15 58
22 59 39
53 35 64
18 65 54
21 87 42
96 93 92
44 31 98
41 77 65
15 13 64
15 89 91
31 39 88
30 88 41
98 48 40
25 47 89
68 22 43
41 17 29
83 33 42
28 48 84
84 37 18
83 96 45
88 62 64
70 53 93
10 88 39
90 25 50
74 21 15
53 18 67
0.653733
1.82512
1.82851
1.73918
0.740858
1.71805
1.15811
0.48467
0.452046
0.559794
1.88576
0.636207
1.29302
1.54837
1.68081
0.580519
1.48758
0.619708
1.36209
0.813108
1.18592
1.23465
0.502989
1.46865
1.92332
0.82188
1.98641
1.83384
0.850494
0.65948
1.75883
1.30672
1.54005
0.855226
0.613906
1.45058
1.72126
0.840287
0.736067
1.92281
1.88991
1.45129
1.60626
0.767323
0.542962
0.694133
0.698216
1.43215
0.942634
0.427195
427 65
160 276
264 411
349 20
246 231
500 57
261 488
381 291
55 81
163 276
83 430
187 340
335 373
21 171
221 188
64 370
117 482
324 149
147 63
83 91
201 76
460 400
212 262
443 109
340 401
18 492
141 13
258 323
470 365
193 333
17 416
440 105
72 443
212 441
424 194
494 71
74 220
273 74
266 200
289 161
314 381
354 51
407 116
495 164
260 401
287 0
444 340
81 338
194 368
87 64
4343.33
3
