50
7
0 0 0 0 0 0 0
20 49 84 80 56 77 67
99 31 69 95 62 87 77
84 24 81 72 71 39 60
99 12 22 22 48 99 37
88 48 50 41 13 27 16
65 80 55 11 83 61 45
41 39 95 52 69 29 68
77 23 94 46 57 18 47
32 87 75 57 95 61 40
19 21 99 27 31 99 92
80 21 37 27 54 39 67
88 59 60 62 91 93 76
34 94 70 55 68 75 76
32 64 52 37 11 33 79
29 47 39 74 19 20 50
32 41 24 77 81 23 77
48 93 12 29 63 51 86
64 54 13 76 26 64 12
96 34 36 32 36 61 86
80 76 46 30 91 61 73
27 21 59 54 51 53 83
36 98 87 59 14 73 52
91 27 91 51 100 75 22
86 30 63 87 61 95 30
99 34 32 62 85 52 79
83 45 95 59 99 65 48
11 91 71 64 62 37 47
52 61 17 80 23 99 19
94 11 38 40 90 96 85
17 84 46 75 65 35 45
44 32 49 89 99 55 50
54 78 89 63 91 98 91
36 91 29 24 37 28 66
62 93 68 75 31 46 34
59 34 30 33 93 16 91
97 54 11 78 49 81 73
41 45 99 57 49 14 73
23 58 66 13 45 88 17
96 43 40 29 73 26 100
47 93 84 48 98 19 64
26 13 37 75 12 20 51
79 89 18 62 32 17 61
72 91 88 67 25 57 22
93 81 12 65 76 19 33
40 91 21 79 91 68 74
37 49 70 18 85 33 49
40 35 68 11 69 41 20
36 20 30 80 20 28 12
18 86 42 66 25 31 86
0.410905
0.498847
1.05322
0.93975
1.29943
1.36466
0.460196
1.56635
1.50587
1.93182
1.10708
1.7066
1.31381
0.566295
1.4172
0.504493
0.593626
0.570368
1.65708
0.74654
1.54278
1.74274
1.01157
1.59101
0.824772
0.755283
1.01751
1.66
1.57187
0.952655
0.70803
0.674002
1.31991
0.75553
0.609991
1.09489
0.526434
1.98784
1.22507
1.95413
0.945364
0.621446
1.90569
1.78562
1.79994
1.53382
1.99045
1.88001
1.34234
1.36864
411 282
189 221
442 194
228 448
239 354
217 202
192 240
197 54
290 266
113 320
138 391
348 484
197 351
161 314
158 357
354 58
445 451
248 477
94 29
36 465
25 58
197 33
297 210
58 72
420 500
486 395
207 155
34 333
111 420
492 183
331 319
286 475
162 474
222 469
248 65
420 81
29 5
125 84
202 1
113 463
351 491
244 27
319 373
47 114
183 360
422 434
352 285
146 437
37 481
200 108
6810
2
