50
9
0 0 0 0 0 0 0 0 0
23 48 71 44 64 47 66 81 49
75 31 98 74 24 10 20 14 20
76 90 25 45 81 63 78 49 26
27 55 29 97 84 82 47 98 62
73 10 45 42 95 67 13 37 80
53 86 12 81 77 29 35 47 29
34 41 21 64 79 30 12 52 57
29 78 44 70 11 89 20 20 96
81 58 18 82 20 87 37 94 59
42 39 77 36 54 24 34 95 75
41 97 63 35 79 14 69 88 14
68 73 91 22 44 25 71 69 37
77 59 22 86 47 35 77 99 90
32 44 14 34 66 71 60 91 34
65 36 92 62 49 84 42 43 48
42 85 30 68 51 61 78 31 32
43 91 19 14 93 60 39 98 40
95 84 94 69 79 71 83 10 78
87 22 53 88 32 64 21 94 100
53 39 75 65 10 27 12 66 27
23 50 60 79 27 39 78 60 88
74 48 39 75 17 89 73 77 34
44 95 67 40 50 11 79 50 92
35 84 85 18 41 59 10 78 51
48 99 68 12 83 11 22 93 43
88 64 26 61 67 20 47 27 43
19 96 77 97 80 92 94 79 20
32 14 41 69 21 41 19 66 93
84 95 15 97 76 29 59 39 38
47 87 58 90 46 20 30 83 14
24 83 98 18 16 87 42 22 83
50 15 12 91 66 79 53 87 100
72 61 88 100 66 17 82 18 17
12 69 80 77 75 66 18 52 39
65 64 80 95 88 31 29 60 40
63 81 99 47 28 94 33 49 85
72 10 78 61 35 39 88 72 27
38 33 13 96 51 83 23 32 19
94 99 24 44 96 41 21 61 96
56 66 56 84 74 96 60 25 34
87 83 83 33 10 41 17 19 69
94 28 89 88 67 92 97 72 68
13 23 20 82 52 82 44 88 54
87 97 97 28 21 55 53 48 48
25 62 60 46 33 93 28 45 37
68 84 14 90 66 48 77 20 59
67 51 49 34 41 75 37 76 12
19 97 13 30 41 43 65 50 61
91 19 22 16 75 93 11 59 83
0.391879
0.239458
0.476361
0.27664
0.121747
0.237212
0.173295
0.321229
0.435205
0.214424
0.300297
0.399721
0.350776
0.487354
0.119392
0.392771
0.249941
0.493364
0.248781
0.323105
0.122644
0.400153
0.370165
0.487854
0.383911
0.252773
0.483623
0.2761
0.361376
0.195745
0.125137
0.292606
0.234756
0.256563
0.483886
0.362257
0.370037
0.348875
0.155533
0.232096
0.352037
0.336083
0.142154
0.107863
0.482834
0.216512
0.368441
0.305392
0.315621
0.350299
240 120
36 44
110 310
254 65
455 242
457 184
17 13
440 161
67 394
411 275
412 66
344 306
232 7
430 476
294 66
125 407
176 493
97 349
398 328
405 29
79 351
133 473
247 496
357 50
272 379
181 145
389 355
359 34
427 268
26 447
377 130
110 136
277 462
302 92
0 90
458 63
168 396
329 279
195 71
214 31
426 32
170 421
183 269
3 413
431 294
195 232
448 161
310 198
286 22
172 231
3395
4
