50
7
0 0 0 0 0 0 0
19 89 32 50 87 60 15
55 95 38 96 42 51 84
91 29 12 22 72 85 52
49 71 25 64 46 19 19
73 64 43 32 55 73 86
78 94 36 53 89 17 93
75 31 94 37 71 27 10
51 18 80 100 98 23 22
27 58 66 92 64 96 31
97 67 36 16 47 55 11
98 34 79 82 51 94 51
55 98 98 84 55 70 31
78 26 32 38 31 62 99
75 80 67 79 96 91 25
62 66 90 14 18 49 13
97 18 75 26 95 18 52
75 12 97 82 49 73 35
92 37 80 17 38 15 19
44 81 98 18 70 20 22
100 69 71 69 38 71 56
30 18 94 52 96 41 65
45 81 56 88 68 37 77
28 41 42 50 45 92 78
60 16 47 67 33 39 59
77 92 65 74 96 78 72
27 64 13 99 81 27 83
91 61 56 43 92 64 88
51 76 76 44 51 94 68
87 14 22 10 27 75 71
14 66 88 34 50 10 27
96 25 69 48 69 11 48
51 49 79 33 23 28 94
70 68 29 44 36 99 19
59 26 50 90 28 93 36
93 53 62 10 68 75 92
35 81 31 22 25 13 70
38 49 57 24 88 55 57
42 15 52 33 92 48 59
90 94 66 69 49 69 88
96 21 18 39 80 28 75
86 14 75 72 84 77 61
99 100 39 74 100 31 22
22 72 93 94 70 36 35
59 29 18 40 57 51 16
34 12 13 47 50 32 50
59 40 12 99 59 48 43
16 18 42 13 90 21 85
70 10 49 27 63 62 45
16 42 59 65 99 81 33
1.12944
1.28821
0.522204
1.98111
0.954489
1.37418
0.758034
1.14889
0.744716
2.44822
1.22869
2.40861
1.29796
1.83692
1.17005
0.889417
0.874212
2.36228
1.55275
0.707359
0.768633
1.9528
1.2573
1.168
1.26717
1.84782
1.79014
1.99032
1.43637
1.89405
0.92241
1.37974
2.36647
0.822376
1.76829
0.867939
1.78108
2.13362
1.81789
1.61207
1.53421
0.777133
1.79793
2.08385
1.58972
2.0401
2.37364
1.44507
0.510837
1.01221
7 252
480 327
325 310
312 269
17 32
337 481
188 460
419 175
192 185
40 3
306 11
176 65
299 368
355 59
80 455
131 348
206 443
301 499
147 135
216 204
15 275
96 241
23 353
104 317
428 316
254 210
458 497
24 74
25 442
257 378
466 179
285 354
195 301
354 300
276 156
174 400
315 446
178 179
485 300
22 81
376 342
462 320
143 489
178 480
407 294
441 229
445 251
240 37
309 213
441 215
4528.33
3
