50
11
0 0 0 0 0 0 0 0 0 0 0
39 87 44 90 74 40 41 33 38 94 16
63 18 71 94 71 22 45 97 31 63 99
35 49 31 10 42 25 47 66 93 13 62
94 75 81 82 10 77 38 38 31 30 53
66 20 70 63 48 96 93 72 88 23 87
51 74 85 24 75 72 80 39 35 58 11
80 65 84 29 74 96 22 14 98 43 67
56 94 38 13 82 49 85 51 29 92 90
43 75 87 28 13 55 50 80 27 13 80
86 24 89 54 83 13 65 39 56 77 57
57 62 37 95 68 62 79 99 18 46 65
62 80 92 32 91 98 14 12 25 98 39
98 55 81 80 72 56 79 37 15 62 36
60 84 69 66 96 16 71 14 49 59 28
56 47 99 21 42 57 74 46 75 91 11
91 49 10 58 30 76 28 25 66 31 50
100 92 16 16 90 40 87 32 95 72 44
26 100 30 45 74 14 47 83 52 46 99
52 56 74 12 53 21 58 25 62 25 22
35 49 91 53 93 77 16 72 22 59 31
25 48 74 37 30 86 53 10 38 60 55
16 75 78 55 90 45 62 16 54 100 33
75 61 66 51 55 43 80 77 76 99 72
89 12 88 81 56 46 48 64 45 17 56
76 98 97 26 31 15 68 70 68 68 51
65 95 78 31 32 54 100 48 29 51 71
100 61 51 26 65 27 39 64 83 75 79
72 57 18 33 63 55 51 36 45 21 100
65 21 77 41 48 77 80 17 21 82 47
42 33 82 14 41 82 54 80 46 32 62
26 54 35 57 77 93 88 60 72 91 28
99 27 56 19 26 42 29 32 97 20 92
82 91 12 64 82 24 23 56 24 85 29
73 99 83 49 97 45 43 30 74 77 80
13 67 64 56 78 83 19 26 88 48 24
35 23 93 81 90 42 68 82 97 55 62
42 28 18 86 100 68 63 70 71 83 30
41 84 25 30 80 78 40 37 56 94 21
68 96 68 72 81 19 23 62 36 10 38
35 26 45 84 62 78 15 51 46 94 49
34 81 60 54 52 72 38 92 96 48 30
19 73 19 40 76 14 89 77 69 31 96
25 46 100 49 62 74 42 54 100 53 45
81 91 14 34 23 97 96 72 54 81 87
51 11 64 73 96 18 38 65 42 94 61
55 79 95 24 20 41 25 41 79 76 78
82 72 79 60 20 19 15 76 77 84 90
38 61 97 60 51 21 14 24 96 79 36
66 40 100 71 41 30 80 67 45 87 43
0.867399
0.837422
0.459125
0.81233
0.417155
0.231877
0.794859
0.930322
0.907124
0.971082
0.558405
0.708605
0.721759
0.679618
0.670788
0.650733
0.353982
0.304495
0.256829
0.348713
0.549295
0.507868
0.857765
0.882976
0.465144
0.88999
0.364102
0.383427
0.269172
0.458898
0.583635
0.292245
0.538934
0.230143
0.328316
0.477202
0.463305
0.295371
0.726369
0.826166
0.650406
0.743656
0.913967
0.247236
0.236592
0.650361
0.458743
0.585841
0.248349
0.315547
28 488
479 456
87 172
374 441
24 0
89 473
285 300
473 490
150 97
330 14
394 208
336 214
20 61
425 147
274 187
315 85
410 104
22 97
433 363
323 468
291 234
460 57
205 141
434 87
489 160
232 446
71 433
193 344
84 4
185 37
472 250
399 42
72 22
368 436
46 312
252 349
314 301
347 125
377 468
403 309
132 90
124 247
177 157
33 66
14 194
68 111
54 14
368 329
306 387
243 154
3470
4
