50
11
0 0 0 0 0 0 0 0 0 0 0
48 38 37 75 37 56 87 32 61 92 10
43 94 59 12 38 47 26 19 50 79 95
14 100 82 75 23 47 13 50 28 87 17
10 28 87 20 12 19 15 67 17 70 87
90 19 44 17 91 32 94 66 14 30 76
54 10 41 63 56 54 51 40 72 57 79
25 16 12 40 70 54 79 60 93 85 30
77 45 77 79 37 36 44 23 94 87 59
61 51 55 26 93 70 10 95 56 58 17
39 44 66 88 96 38 10 97 47 86 73
11 70 46 48 25 60 74 12 86 93 41
41 53 13 33 72 84 100 95 90 32 56
85 43 96 86 61 26 89 98 91 69 75
58 36 56 84 63 37 76 42 31 56 12
17 93 100 33 23 53 92 77 71 24 67
38 50 17 62 25 45 100 44 12 59 36
78 62 39 99 56 90 60 71 96 47 65
92 31 77 23 12 43 46 63 20 52 91
19 76 85 25 66 28 46 15 98 99 56
34 77 62 23 74 33 41 28 24 74 23
30 25 50 56 96 16 49 56 54 19 54
50 26 88 91 74 19 17 14 37 57 53
16 59 29 99 32 29 74 74 89 79 89
98 86 49 97 10 56 26 65 84 16 79
20 36 70 95 29 23 36 99 44 94 54
21 90 63 97 99 11 65 25 82 74 90
75 75 48 52 77 89 72 21 74 68 48
17 34 31 42 49 69 72 82 69 55 93
79 27 23 89 83 91 18 76 86 70 30
39 46 35 59 93 19 42 47 20 43 65
27 27 85 53 83 43 96 18 52 53 12
50 50 90 12 97 19 59 11 83 39 19
56 50 74 65 99 63 98 49 88 93 60
39 31 81 66 59 75 39 90 58 93 95
78 95 78 59 60 34 12 81 96 23 83
47 81 89 72 89 97 15 38 47 98 33
94 59 60 61 100 40 60 84 72 16 44
75 36 48 10 82 13 28 54 21 45 89
13 50 16 82 15 25 69 96 31 50 12
99 64 40 72 64 30 84 37 91 40 68
85 55 50 33 90 73 40 80 42 56 89
19 45 13 64 73 64 47 44 63 35 69
95 63 71 46 86 100 49 22 18 47 11
61 78 92 19 88 49 64 44 34 14 28
92 17 47 77 100 85 25 90 51 54 56
73 91 46 15 14 39 77 48 55 94 75
46 89 25 93 22 50 40 53 45 74 36
26 47 34 47 22 77 74 61 99 10 92
30 68 50 25 79 46 93 71 28 54 85
0.315572
0.992052
0.918826
0.919829
0.973158
0.792202
0.925175
0.551952
0.878608
0.761012
0.987778
0.461469
0.391919
0.608198
0.998125
0.312156
0.977317
0.922958
0.467208
0.304871
0.805857
0.728104
0.462944
0.409769
0.208221
0.558059
0.542847
0.300356
0.435817
0.59957
0.33093
0.249052
0.241248
0.881535
0.421042
0.725321
0.473825
0.928795
0.278982
0.314694
0.970505
0.367663
0.798823
0.637317
0.645575
0.790301
0.332355
0.879619
0.715496
0.804245
365 221
119 363
68 166
133 59
238 426
197 340
345 246
57 341
285 129
301 47
152 101
184 54
155 376
319 407
483 98
247 378
307 419
274 212
117 321
236 95
129 250
112 489
122 83
53 157
289 289
140 103
122 236
278 256
76 223
232 243
67 290
40 18
419 379
131 4
129 473
104 88
454 107
107 121
36 96
136 354
224 260
397 277
123 30
492 431
180 277
232 240
122 446
393 48
142 102
231 294
13610
1
