50
11
0 0 0 0 0 0 0 0 0 0 0
52 21 88 35 69 23 63 21 40 14 98
16 40 51 79 47 63 63 18 95 29 89
77 85 99 44 12 32 24 63 30 91 57
49 38 21 11 67 47 84 25 80 54 34
37 70 85 85 35 93 81 49 76 75 32
76 56 22 78 16 41 95 56 40 15 25
84 37 52 69 44 83 10 52 11 13 64
93 30 71 43 13 89 33 44 56 60 51
66 93 34 66 69 62 22 18 99 63 48
45 59 61 100 11 49 90 18 81 58 23
88 56 33 65 10 90 33 86 29 46 86
36 69 59 75 34 35 42 54 56 91 46
95 30 65 45 47 16 96 76 42 61 74
44 28 100 16 29 70 37 96 96 61 46
23 15 75 91 45 27 17 86 27 55 36
97 86 53 62 13 59 58 91 26 63 93
100 85 49 26 64 95 26 18 20 81 99
62 53 78 98 65 84 10 78 34 94 76
46 74 77 26 64 61 34 57 27 53 75
72 18 67 10 12 67 77 86 96 13 61
10 54 31 70 62 26 99 25 19 77 90
96 62 83 18 32 52 73 18 95 25 50
44 90 54 17 92 73 52 28 88 68 81
42 81 42 93 79 57 32 23 41 82 35
33 61 31 93 67 26 84 12 12 96 93
19 19 71 16 15 47 81 31 84 75 74
92 38 85 43 54 77 27 59 27 60 11
28 60 40 83 14 36 79 48 13 27 84
18 33 65 39 78 64 41 53 48 59 29
33 52 61 15 76 86 36 82 94 23 81
83 22 64 19 98 21 94 76 18 70 58
48 26 51 30 81 13 49 34 54 28 83
48 19 23 59 31 26 47 95 14 72 15
86 53 72 100 78 87 47 57 40 56 44
22 85 50 73 60 48 21 56 39 48 91
26 50 73 91 82 49 66 37 47 49 29
72 29 82 41 20 90 72 32 88 10 55
21 25 39 25 22 94 63 34 55 87 56
72 85 44 46 79 92 56 35 68 41 57
75 51 89 34 38 61 58 88 87 83 10
37 11 23 98 31 53 64 94 82 71 52
68 40 91 29 68 26 79 66 46 76 32
98 57 99 51 75 69 81 50 24 15 83
69 30 55 33 54 59 43 83 66 62 14
73 11 98 49 83 15 37 98 94 23 77
28 98 12 82 44 12 49 39 21 96 65
95 76 78 21 53 39 37 69 92 83 53
70 91 31 25 91 63 85 18 21 97 49
58 86 39 81 25 87 70 48 25 52 26
1.33039
1.95297
2.47391
1.02031
1.41394
0.829769
0.618064
2.46293
1.69337
2.20734
1.17597
0.588235
1.68898
1.44476
1.66832
1.71904
1.46783
2.41498
1.79322
2.13066
1.24117
1.1599
1.08961
0.623789
1.62953
2.40805
0.778696
1.41202
0.999607
0.65689
0.642955
2.27095
0.755333
0.924157
1.26777
2.20522
0.52853
0.999895
0.950859
1.90833
0.942872
1.78208
2.04664
0.858809
1.42147
0.827447
0.878934
2.15608
1.56391
1.66629
405 161
171 338
214 299
29 297
253 146
34 157
142 72
82 360
32 41
179 235
225 132
286 215
280 144
57 7
420 131
201 293
86 46
121 467
102 254
42 102
129 273
309 151
138 179
393 299
210 3
330 84
408 496
110 183
177 121
343 277
383 311
8 444
480 12
441 139
203 80
361 410
278 225
55 38
180 86
68 263
170 61
134 123
225 128
196 158
306 347
394 190
387 171
23 42
78 138
12 494
6705
2
