50
9
0 0 0 0 0 0 0 0 0
96 89 78 99 55 81 94 26 25
44 57 61 39 53 90 46 90 13
53 67 90 46 19 96 63 72 17
91 19 30 68 88 30 78 34 78
66 57 36 18 51 75 96 16 84
51 44 93 88 86 43 99 50 33
31 83 78 16 68 53 76 58 25
18 19 12 83 83 29 15 42 68
94 34 76 17 11 36 75 50 75
55 99 25 76 66 29 37 93 92
87 96 47 87 53 99 23 88 72
56 56 37 78 81 58 31 51 19
12 27 75 14 100 33 62 39 35
44 24 82 39 79 72 41 45 18
84 65 86 32 78 95 67 32 18
90 31 14 67 52 56 63 100 22
81 61 59 36 21 29 84 21 55
84 93 75 17 58 76 14 97 36
30 50 78 84 42 18 34 85 32
62 74 23 42 47 81 51 52 36
80 68 99 100 62 97 28 60 13
72 30 70 29 57 56 80 21 25
12 66 47 34 50 52 36 20 30
95 21 95 100 33 100 51 23 13
43 95 30 37 11 31 78 76 11
65 65 80 76 55 91 82 44 72
48 94 36 46 40 21 88 41 68
86 99 48 71 33 50 77 82 28
40 66 55 36 88 54 40 25 49
93 89 59 56 88 76 17 39 22
54 20 100 56 61 55 12 53 38
10 38 96 45 65 53 17 66 61
73 76 81 68 89 67 81 84 35
22 25 35 66 72 75 77 67 22
43 14 57 30 90 70 39 40 16
78 37 86 77 100 80 46 94 98
68 47 43 44 54 85 89 66 10
77 10 60 54 24 27 72 49 40
35 61 52 74 38 54 81 59 98
77 88 74 62 67 26 14 87 18
33 30 96 36 46 23 73 81 64
53 12 13 11 83 82 50 65 29
44 87 81 99 27 16 25 45 92
97 90 35 52 12 75 68 17 96
83 37 35 97 62 95 96 96 56
79 26 15 88 17 27 16 87 43
33 85 18 51 51 15 53 63 87
24 61 54 52 58 37 37 47 39
69 43 92 49 90 77 51 41 80
0.666589
2.21322
1.46251
0.826757
0.768708
0.784603
2.04863
1.46804
1.6384
0.65624
1.82917
2.07876
1.35211
0.5231
0.985746
2.06855
1.20055
2.08738
1.27596
1.1787
0.984337
0.82311
2.33098
1.42115
1.25067
1.65114
0.84841
2.26339
0.854291
2.23438
0.910695
1.23955
0.969661
1.42661
0.561762
2.36661
2.31979
2.30168
1.52347
0.701968
1.84244
1.99136
1.8913
0.676517
0.51728
2.44146
0.619739
2.47036
1.57451
1.98218
464 321
185 392
247 113
370 74
442 66
77 38
118 97
349 359
227 269
239 268
462 474
232 265
235 462
494 354
134 94
375 117
37 1
122 61
385 282
307 373
137 87
299 188
198 115
102 417
334 162
322 187
351 356
120 23
318 493
34 451
245 98
491 232
451 365
411 500
26 181
472 338
360 481
281 89
204 478
208 267
320 274
261 362
357 60
133 210
430 160
239 187
331 116
350 273
200 74
268 126
13690
1
