50
9
0 0 0 0 0 0 0 0 0
35 16 19 79 73 70 91 28 99
35 88 99 43 19 79 32 48 82
66 90 98 89 87 22 40 75 82
57 80 82 54 100 77 27 37 95
92 95 66 92 47 83 34 41 40
87 53 92 13 82 47 61 90 47
44 70 94 52 50 36 91 100 51
80 78 98 57 23 92 54 58 38
83 19 69 90 60 92 21 31 48
37 75 90 15 40 52 85 44 86
35 69 27 59 18 26 59 30 59
85 60 25 49 25 94 94 11 87
13 29 77 79 62 63 91 30 21
68 87 100 100 69 100 16 79 26
99 89 48 36 47 55 50 58 50
38 11 10 69 99 54 78 62 10
30 26 62 56 24 72 84 76 11
31 74 99 59 24 12 19 77 62
96 29 23 18 70 72 48 85 20
33 50 82 98 35 66 72 60 65
58 82 97 25 28 18 14 55 38
15 66 65 45 48 69 34 17 92
10 39 56 15 65 96 15 56 68
51 90 65 23 14 41 91 19 90
56 48 41 19 12 45 68 55 42
40 15 34 72 81 76 21 47 49
10 42 25 59 66 62 14 90 62
28 17 88 69 40 36 32 67 17
71 84 82 51 41 78 31 62 54
91 95 79 80 37 100 10 70 32
49 18 22 63 18 100 64 81 74
28 33 16 32 100 29 57 16 29
37 69 78 35 59 75 20 44 26
55 16 73 40 40 51 100 59 32
96 47 92 39 50 96 27 67 71
89 23 25 36 49 24 69 37 92
42 89 62 31 88 100 69 68 81
80 11 98 15 25 42 44 90 63
83 16 28 21 39 10 62 16 88
46 100 81 69 21 18 45 61 53
67 81 28 21 22 83 24 63 10
65 69 13 55 61 79 44 97 31
45 72 25 76 89 49 12 42 95
99 96 58 46 94 32 44 54 55
16 35 62 40 23 20 30 56 26
16 23 11 88 82 60 19 31 92
76 26 88 56 58 99 19 53 63
15 85 71 81 34 22 70 63 18
52 47 67 85 96 63 75 54 97
1.427
1.62508
1.75239
0.636738
0.961439
1.09067
1.6566
2.30217
0.646074
2.3945
1.44794
2.288
0.623926
1.37131
0.95983
0.550636
0.737056
1.83111
1.48195
1.96559
0.505558
0.520703
0.602834
1.23189
1.7005
1.80861
0.719631
2.30958
1.92045
1.81001
0.85216
2.46072
2.17879
0.880794
2.11866
0.733146
1.91402
0.527975
1.39187
0.507409
1.72727
2.16106
1.00791
0.602221
0.62837
1.96108
2.36329
2.19208
0.747073
1.26282
326 253
248 350
177 278
200 177
320 432
136 461
19 173
336 89
298 218
107 131
86 449
459 108
218 214
32 403
367 169
199 18
476 443
114 98
204 83
15 119
85 369
52 389
422 59
328 179
174 45
167 136
145 235
331 36
97 423
461 323
27 0
110 106
454 71
341 41
261 322
107 317
250 222
23 145
388 229
100 422
194 213
82 274
295 282
370 148
10 332
269 217
444 96
115 415
61 36
484 355
6722.5
2
