50
5
0 0 0 0 0
69 87 41 69 17
99 71 72 99 37
85 72 13 95 81
97 80 48 57 69
21 58 32 38 47
87 31 33 35 92
70 96 68 70 27
59 57 73 69 58
37 50 50 17 50
73 20 50 61 91
48 31 45 66 56
23 23 78 43 99
98 88 19 80 24
41 24 69 69 47
79 81 88 65 13
41 33 52 59 83
10 24 99 23 21
19 89 36 21 83
10 98 98 86 46
66 53 91 86 34
45 93 77 93 85
17 76 13 42 30
89 95 43 49 85
65 42 60 67 93
28 75 57 95 10
23 87 62 47 83
63 37 89 44 81
92 56 94 36 43
73 49 73 23 16
45 26 41 26 26
87 64 96 36 80
51 65 31 37 75
72 22 59 93 44
87 20 58 69 68
47 67 91 48 39
77 74 46 11 58
25 16 41 13 99
97 20 86 65 28
26 42 38 17 19
58 89 74 90 87
70 41 38 20 97
44 23 93 84 51
31 86 23 71 13
16 76 18 32 56
79 16 87 75 63
72 21 35 61 76
54 59 67 22 39
24 45 62 23 57
28 56 22 13 43
2.24422
1.84727
0.672522
1.821
2.43233
0.867617
1.09074
1.9216
2.01201
0.79622
0.677577
1.17595
0.562881
1.7608
1.02633
2.19783
0.831146
1.44087
0.563845
1.4077
1.57786
2.02273
1.40433
2.46243
0.75068
2.41841
2.0552
1.67508
2.33569
1.4874
1.69916
1.98864
1.50942
2.12448
2.40333
1.63708
0.576384
0.938076
2.25551
2.00105
0.645525
1.58431
1.05357
1.78094
0.844166
1.13918
1.29373
1.14006
0.531221
2.32769
380 316
277 23
286 88
42 384
90 99
101 298
40 362
201 309
423 139
193 136
174 15
341 147
280 283
389 479
467 164
373 309
295 99
431 29
473 68
351 154
385 129
334 171
387 321
122 385
203 132
389 351
117 142
412 273
469 417
19 430
211 107
134 364
328 449
260 328
488 403
474 117
202 101
453 114
169 119
20 257
306 8
417 192
187 154
72 467
82 40
413 315
293 462
391 416
149 297
303 423
13575
1
