50
3
0 0 0
24 17 95
16 68 58
22 30 57
35 10 56
43 65 44
66 53 59
48 33 18
83 83 30
31 73 12
83 95 71
17 80 37
26 79 39
43 72 70
73 33 51
29 62 26
63 24 85
98 82 27
86 85 93
61 95 94
62 84 67
66 32 34
81 86 19
19 54 85
42 39 99
88 55 40
42 51 87
88 56 59
95 69 18
61 14 44
80 85 77
54 45 44
36 57 52
66 98 26
81 80 58
98 12 85
41 73 62
71 76 18
86 37 42
46 75 99
52 38 50
49 90 72
51 23 95
85 13 76
29 12 92
97 39 87
80 58 41
95 20 67
91 29 67
31 74 19
0.616805
1.92884
1.3696
1.74283
1.07004
1.1788
0.580863
1.11724
1.50171
1.48988
1.48964
0.409359
1.51412
1.79347
0.554351
1.0566
1.30638
1.78847
0.69856
0.477228
1.7516
1.32412
0.722678
1.54776
1.67309
1.06969
1.35213
1.09401
0.936502
1.83882
1.46851
1.2053
1.4804
1.47892
1.62204
1.69267
1.84143
1.99615
1.74941
1.23138
1.5186
0.631662
1.03384
1.29134
1.43895
1.24362
1.00331
1.29752
1.9532
0.893004
463 137
393 120
500 3
226 419
481 167
329 117
169 313
8 467
49 16
7 391
44 442
371 252
415 55
470 275
232 107
247 277
450 442
482 68
108 478
12 33
183 372
173 130
338 21
79 42
81 391
285 221
420 149
154 327
336 68
61 337
381 213
477 356
403 338
349 413
465 107
439 233
337 112
144 214
93 435
313 213
357 159
444 41
23 326
455 32
338 491
161 131
412 82
224 192
181 411
421 63
3510
4
