50
5
0 0 0 0 0
46 25 45 42 11
14 22 81 96 87
80 65 26 41 33
25 99 85 52 24
92 25 28 85 37
23 63 12 82 16
88 29 91 44 33
29 82 89 50 72
34 98 28 69 53
87 54 82 44 59
25 53 14 33 81
39 74 93 51 32
23 49 62 95 35
79 82 95 13 51
31 25 57 22 97
26 33 23 90 67
47 60 61 64 71
66 26 41 88 27
80 47 73 50 41
76 100 88 76 47
33 79 52 90 59
47 57 78 93 31
52 14 10 38 95
43 58 25 25 28
15 58 71 30 58
35 38 54 21 79
29 95 25 45 93
12 46 45 41 18
31 70 76 65 65
47 75 44 70 59
45 86 66 37 88
48 87 15 64 61
78 64 95 61 40
28 57 51 80 84
37 62 22 37 24
37 38 95 81 35
61 35 51 56 42
12 93 20 19 81
56 83 19 38 42
65 91 67 92 83
95 44 39 66 87
99 60 92 96 57
59 96 10 32 25
14 38 69 52 67
37 76 78 53 82
30 20 97 12 93
35 50 79 24 21
93 36 60 33 35
71 87 86 81 64
0.519476
1.78704
0.908935
0.764126
0.616751
1.03964
1.66624
1.80041
1.57414
1.45385
0.824902
1.17845
1.49203
0.778311
1.53272
1.882
0.787857
0.455176
1.66351
0.740904
1.12866
1.67215
1.66182
0.634037
0.520706
1.48325
1.85196
1.06459
0.750538
1.36007
1.90564
1.16024
1.46905
1.21394
1.59069
1.5308
1.47232
1.36004
1.7803
1.50154
0.551252
1.7783
0.480311
0.79948
0.492409
0.901777
0.550106
1.99382
1.68913
1.50992
63 433
453 355
196 372
163 214
395 435
397 275
115 311
8 118
41 93
9 339
129 219
92 53
151 155
46 455
494 417
216 119
221 369
159 278
2 259
389 20
177 227
285 142
393 45
286 108
77 344
137 323
430 245
402 155
376 130
23 436
366 258
418 475
337 490
464 294
10 423
360 275
312 459
335 351
177 72
398 75
226 85
317 287
127 433
141 410
494 220
7 324
287 177
129 481
378 95
91 300
4470
3
