50
3
0 0 0
55 74 36
93 72 87
10 44 25
11 75 51
94 62 73
69 86 34
24 12 42
39 76 75
100 20 33
64 89 99
63 67 90
62 100 95
97 93 97
64 73 69
32 33 66
49 24 95
86 45 72
45 99 31
57 21 30
72 82 58
56 53 49
94 72 15
76 72 65
79 32 34
78 82 71
74 84 66
50 24 14
78 81 60
59 61 73
16 59 68
10 89 47
39 62 39
86 71 56
32 19 72
84 53 94
22 61 94
28 48 58
17 47 24
78 82 25
80 79 72
10 73 61
14 42 80
90 17 81
47 11 59
74 30 52
79 84 82
82 60 54
46 35 66
80 24 11
0.175987
0.373514
0.133842
0.274804
0.225559
0.281209
0.175446
0.420775
0.396663
0.452378
0.106469
0.140866
0.148903
0.176248
0.240433
0.408835
0.28743
0.132764
0.245003
0.12341
0.372133
0.428124
0.401345
0.41302
0.129754
0.323084
0.119938
0.264136
0.161458
0.199111
0.122329
0.491071
0.312026
0.492001
0.293386
0.102224
0.480413
0.309753
0.236179
0.166181
0.194989
0.449932
0.321619
0.257016
0.358537
0.213343
0.349684
0.496767
0.357546
0.357179
379 141
267 288
467 448
472 276
70 436
35 340
372 94
443 156
405 442
51 37
317 253
216 397
171 39
296 442
168 45
226 269
488 127
481 236
202 383
482 3
389 419
456 169
405 25
392 313
140 9
127 357
141 401
304 205
131 207
301 352
378 494
162 492
5 16
386 456
79 2
293 457
269 260
253 16
115 153
137 386
199 480
83 237
393 343
200 464
52 316
191 353
258 39
290 48
10 140
125 443
2866
5
