50
5
0 0 0 0 0
38 87 87 100 47
100 80 10 21 32
42 77 46 92 59
44 75 52 26 77
56 62 70 54 61
10 71 29 50 66
82 80 99 93 40
66 94 39 70 43
66 59 49 84 48
20 98 59 75 59
51 80 64 13 21
86 16 26 79 34
97 18 77 36 27
50 74 86 51 43
80 31 49 85 12
81 26 93 30 42
12 31 53 77 96
53 82 88 11 24
88 40 51 18 37
13 40 84 43 89
12 91 83 42 91
69 36 22 66 78
96 12 85 34 82
70 29 32 12 32
36 70 43 24 99
29 74 55 88 45
50 22 93 31 30
43 99 22 25 84
71 21 55 99 14
57 42 23 60 25
57 71 56 91 21
50 99 28 49 89
82 78 53 99 92
22 15 90 63 31
54 21 21 43 62
42 10 85 16 39
79 64 81 79 91
52 56 98 44 21
93 96 16 96 23
11 81 25 19 100
32 64 36 40 94
40 31 43 34 38
85 40 45 75 12
50 61 52 28 85
74 37 81 90 42
91 68 63 98 80
99 84 76 48 23
90 41 19 21 80
32 97 52 56 90
0.7493
0.537603
0.780332
0.440816
0.366909
0.951426
0.792883
0.225714
0.763625
0.688931
0.241316
0.589711
0.593941
0.997489
0.364644
0.274108
0.350546
0.675762
0.492629
0.395058
0.452994
0.875923
0.468684
0.430956
0.70876
0.994011
0.916831
0.393793
0.824378
0.64391
0.576225
0.592264
0.338016
0.701651
0.805855
0.263082
0.524744
0.419649
0.681679
0.749043
0.89342
0.910831
0.968157
0.726825
0.289785
0.234541
0.694732
0.448635
0.408915
0.900778
410 229
127 165
372 103
240 341
48 216
14 206
454 355
487 75
381 340
452 260
95 363
366 301
94 326
310 150
424 274
212 210
301 159
110 437
68 448
97 344
297 336
442 200
267 198
199 250
131 394
138 323
388 77
420 79
34 71
8 12
201 2
353 254
135 470
353 259
495 365
257 472
392 325
224 354
396 391
418 286
467 396
234 446
254 65
47 217
487 420
272 308
172 242
294 236
94 345
324 91
2741
5
