50
3
0 0 0
10 77 18
26 25 24
59 73 18
83 84 19
82 58 85
81 15 26
52 19 82
77 21 56
11 31 28
46 88 83
97 13 83
69 69 15
58 46 31
20 56 58
29 60 71
90 11 67
60 41 19
67 67 18
19 43 42
30 98 16
46 37 98
32 46 88
20 28 83
75 59 81
39 25 13
67 30 73
40 48 47
24 27 77
81 16 27
43 73 73
48 76 37
56 12 25
35 85 64
99 77 75
33 47 18
55 39 14
70 99 76
51 19 17
23 18 21
58 76 88
37 37 36
95 56 88
85 23 42
89 20 78
48 12 18
78 81 18
88 61 89
50 83 64
81 89 86
0.918729
0.587224
0.972485
1.9095
1.12422
0.832424
0.688013
1.88984
1.69033
0.632623
1.34516
1.77588
0.746889
1.38983
1.20812
1.75248
1.5293
1.26842
0.426401
1.08667
0.857397
0.82531
1.79874
1.09318
1.21323
1.69292
1.82337
1.64791
1.39386
0.567497
0.467789
0.87015
1.34092
1.29852
0.804999
0.981768
0.802444
1.0453
1.0752
0.680624
1.94873
1.91068
0.520359
1.54677
1.8468
0.652153
0.882616
0.953962
1.66304
0.732255
249 21
327 126
431 186
149 273
398 464
140 394
58 106
248 380
67 395
395 478
482 221
156 360
260 188
271 444
399 289
462 304
116 464
112 329
124 483
342 113
224 365
56 200
493 56
215 307
31 17
436 359
243 126
352 407
415 366
163 392
389 411
179 75
265 490
176 89
104 250
100 293
327 165
261 219
222 258
50 386
222 111
145 333
157 116
48 251
150 158
500 411
139 416
5 265
414 60
120 26
3157.5
4
