50
3
0 0 0
87 23 49
49 72 64
44 30 16
58 89 27
96 61 72
38 81 75
82 98 63
83 41 38
28 62 31
56 58 84
48 82 87
69 82 19
90 22 39
43 82 99
14 29 80
11 78 79
84 14 97
98 95 44
70 61 48
28 53 62
71 69 80
64 48 33
34 65 22
57 72 39
73 26 49
82 58 76
70 46 77
21 18 77
63 65 28
60 67 19
96 30 72
51 90 68
95 26 68
16 69 81
33 35 49
99 60 100
38 13 11
39 73 27
15 11 74
34 91 53
46 35 84
95 83 85
94 82 52
39 71 43
34 11 42
38 47 26
44 59 48
93 79 67
26 48 24
1.38389
1.75456
1.29826
1.24937
1.58627
1.77044
0.595203
1.73896
0.937731
1.90788
1.18498
1.80761
1.92147
1.68798
1.21729
1.975
1.82434
1.29371
1.17548
0.694996
1.97561
1.21413
0.668321
1.24209
1.12998
0.982203
2.24778
2.31292
1.99457
1.95512
2.43714
0.843431
2.47089
1.89242
1.6692
0.882175
0.838161
2.31378
0.543856
1.04034
1.72738
1.5666
2.05042
0.705408
1.58916
1.03123
0.700409
1.09703
1.31122
0.992783
402 133
185 76
427 207
470 417
54 228
114 67
293 105
334 26
148 441
126 338
346 121
39 283
486 184
430 273
66 14
15 151
17 122
438 396
456 478
152 42
340 274
449 44
65 487
372 485
55 422
191 105
233 36
333 500
274 452
273 254
359 348
278 139
61 484
44 436
469 29
104 376
15 406
150 360
109 105
36 227
31 220
94 204
302 82
428 277
36 329
80 232
155 121
295 178
497 215
139 182
4611.67
3
