50
5
0 0 0 0 0
13 48 80 95 33
83 10 16 80 43
81 89 27 33 50
33 98 57 84 86
91 39 97 59 85
95 24 53 85 64
23 52 31 13 69
82 39 10 59 84
94 90 10 21 77
64 80 89 85 37
40 89 10 56 83
17 23 88 59 28
93 56 31 35 26
93 95 56 10 56
20 65 81 71 69
28 29 33 68 33
76 93 71 38 77
67 66 47 89 42
95 15 27 46 50
62 81 41 19 11
81 19 12 18 10
75 45 77 86 53
82 17 69 52 52
52 27 73 19 40
95 59 72 13 52
30 82 28 58 24
82 39 99 12 37
54 22 72 30 79
64 17 55 87 96
75 51 38 67 34
60 10 37 94 92
57 84 90 35 42
88 70 16 23 31
64 19 68 32 82
75 51 19 50 70
31 50 84 68 38
58 19 10 45 87
64 71 99 74 86
66 87 90 94 34
47 15 11 46 60
83 95 41 71 89
49 42 63 46 51
18 26 73 99 22
38 30 42 93 51
70 26 50 62 25
36 26 73 100 27
73 73 56 94 41
89 42 73 68 85
93 55 24 69 100
1.12203
1.54317
1.05253
1.7906
1.52864
0.801639
1.3556
1.43516
1.85245
0.59965
0.723915
1.80813
1.41552
1.12811
0.684433
1.154
0.593976
1.66117
1.84048
0.751194
1.03726
1.62221
0.723755
0.495318
1.59919
0.596996
0.972373
0.54011
1.95373
1.23621
1.14716
0.994961
0.445587
1.3281
0.54484
1.07462
0.492233
1.60682
1.96111
0.818984
1.56704
1.03457
1.63767
0.588383
1.28219
0.743666
0.822224
1.54085
1.6946
1.75678
443 265
30 438
319 91
37 262
161 494
288 238
492 309
490 467
415 29
244 330
224 162
406 270
287 202
182 362
373 29
392 129
473 63
140 273
195 313
267 99
421 367
27 23
154 227
255 313
50 412
96 422
471 256
376 291
255 259
468 34
82 37
415 263
384 351
245 380
334 373
358 500
439 348
86 419
75 150
198 323
144 103
115 424
20 286
55 463
167 28
399 336
143 155
113 250
210 341
117 78
4540
3
