50
11
0 0 0 0 0 0 0 0 0 0 0
28 29 56 83 53 57 70 67 60 17 51
62 80 33 98 10 37 67 30 46 54 24
46 87 47 95 33 26 39 23 11 99 74
33 44 83 84 97 18 39 17 21 17 70
38 21 16 83 91 98 22 82 17 92 18
19 86 12 52 95 28 46 61 71 71 79
51 51 77 39 87 81 61 18 27 36 64
13 70 23 31 83 62 44 13 19 49 66
53 62 64 50 62 62 63 91 61 31 10
43 16 51 62 91 29 80 87 79 64 47
25 47 49 21 86 18 61 97 68 74 26
53 15 72 23 87 59 76 74 99 53 18
38 81 82 84 13 98 15 51 43 35 26
74 63 78 88 59 95 74 72 36 100 14
54 47 69 68 76 69 57 87 91 73 94
80 18 31 67 10 83 30 49 94 74 15
38 47 82 24 37 89 10 38 67 70 77
54 69 71 83 15 46 64 95 38 73 34
75 20 22 100 66 73 20 19 23 91 53
71 88 31 89 77 67 99 91 23 27 27
66 85 56 85 97 99 23 78 36 50 18
21 43 62 63 48 63 44 59 82 37 65
25 18 65 88 88 91 85 41 29 81 92
67 55 74 78 30 98 13 87 24 20 80
68 48 25 86 81 92 44 29 67 48 39
10 40 63 11 31 68 40 76 73 20 95
35 91 54 39 40 84 98 95 59 36 18
73 60 94 95 76 95 88 26 10 72 38
84 20 60 65 66 54 99 40 97 25 80
81 52 30 78 88 78 60 83 57 61 46
48 75 54 67 82 12 39 87 51 22 16
90 43 66 53 20 44 20 28 29 10 70
80 57 33 62 20 14 92 83 36 62 70
80 33 20 17 100 63 14 63 86 33 70
93 56 26 29 96 25 45 45 59 49 36
72 82 75 84 28 43 51 69 46 36 17
12 83 58 41 41 36 59 68 88 30 27
81 59 56 79 33 88 18 48 97 71 53
75 90 40 98 43 63 17 77 44 44 21
77 43 83 63 20 71 69 91 46 55 35
40 35 51 84 64 85 36 43 54 63 75
41 44 49 22 38 78 46 16 52 76 55
61 31 24 61 42 80 40 17 18 48 91
86 54 56 48 25 14 38 21 98 78 74
12 38 10 97 93 75 30 97 59 38 51
31 10 88 56 66 54 59 84 46 93 97
61 64 28 71 47 82 71 74 10 67 37
42 86 17 39 14 29 89 14 23 71 28
91 100 92 77 29 66 11 60 31 83 74
0.917043
0.234683
0.762725
0.547436
0.917051
0.745221
0.392178
0.349779
0.944969
0.652643
0.311636
0.957643
0.966291
0.327697
0.775574
0.683412
0.689726
0.78443
0.35031
0.493533
0.436965
0.263292
0.469211
0.259481
0.885403
0.882469
0.628908
0.377636
0.479354
0.3768
0.682394
0.867084
0.919076
0.9283
0.455546
0.207615
0.269763
0.47431
0.864627
0.534192
0.455658
0.862944
0.899999
0.842013
0.983724
0.438136
0.395464
0.815046
0.700405
0.78473
162 309
445 264
261 59
158 154
234 372
332 462
274 244
199 326
414 407
469 136
446 165
371 143
375 187
185 263
380 432
477 95
194 75
80 288
482 435
139 46
105 229
493 481
418 453
344 49
75 177
51 461
37 309
495 94
247 47
155 84
438 494
82 351
245 94
54 124
497 446
14 361
155 214
84 54
408 424
272 282
239 148
490 176
281 328
187 495
256 225
211 49
278 475
14 498
2 241
495 319
2708
5
