50
11
0 0 0 0 0 0 0 0 0 0 0
74 53 94 51 57 43 20 69 18 50 33
52 95 59 30 59 43 58 83 16 15 46
36 30 56 89 74 70 17 11 27 94 42
32 43 42 22 13 77 47 34 24 47 16
38 10 24 41 78 77 43 67 77 69 77
27 67 12 97 23 43 94 53 79 12 50
44 44 42 23 90 49 38 93 28 35 88
43 33 86 47 54 67 41 67 92 81 74
97 34 58 64 26 27 34 11 11 67 48
99 82 61 97 34 63 72 99 14 43 72
21 25 20 54 91 75 20 87 67 92 79
66 81 46 75 13 55 83 17 19 57 90
51 89 98 24 20 60 45 77 87 14 91
18 91 19 57 42 63 94 62 12 93 80
89 60 25 38 77 20 88 84 34 18 63
36 96 98 33 29 78 26 62 91 81 65
91 20 94 71 93 63 33 45 53 94 32
49 46 18 14 32 86 97 92 71 13 99
79 85 46 84 86 26 11 62 89 14 29
65 26 37 47 71 34 28 42 42 50 51
81 63 85 40 17 35 100 63 20 85 81
79 17 64 11 46 19 13 76 77 71 25
51 37 89 49 64 25 37 55 20 70 57
53 81 61 13 24 33 73 34 31 70 61
76 29 78 57 55 57 34 64 61 27 10
15 33 77 93 43 94 67 27 76 79 34
62 26 86 11 53 35 59 89 44 43 13
85 76 93 92 95 64 25 43 78 59 95
96 55 55 32 45 45 91 87 99 29 86
26 15 67 52 54 64 84 80 40 81 44
27 13 88 80 11 91 56 85 30 44 62
44 68 67 99 55 81 15 39 29 85 32
10 83 100 30 21 56 84 33 49 58 66
62 34 32 44 54 81 66 18 42 97 85
61 91 48 38 95 64 45 31 18 22 56
78 18 75 17 85 15 99 60 24 37 38
99 51 35 29 90 94 28 53 49 90 26
82 48 95 54 28 33 65 45 42 99 92
41 67 66 47 75 55 52 85 83 62 52
89 96 86 38 81 43 68 47 70 21 97
48 93 25 95 48 14 91 69 31 61 29
77 100 88 36 72 27 11 17 85 86 78
69 82 60 16 18 83 83 35 92 56 65
28 26 71 17 59 42 69 33 11 28 26
44 51 75 23 48 71 100 79 56 90 55
11 22 97 53 48 69 25 76 82 23 18
100 24 83 23 94 43 36 75 64 45 98
63 53 77 20 11 29 21 18 99 76 87
52 91 64 36 30 77 98 85 28 93 46
0.713389
1.72937
1.01487
2.1109
0.572768
0.790241
0.906471
0.704909
1.68925
1.22439
2.35371
2.49245
0.647537
0.908595
2.44932
1.78568
1.05141
2.38377
1.67869
2.22961
2.49275
1.20697
0.507657
0.718946
1.07708
1.6558
1.22796
1.54016
1.3418
1.61754
2.32925
2.41305
2.43592
2.34044
2.03113
1.15339
1.46357
0.558746
0.75743
1.54287
1.65951
1.07206
2.11186
1.74298
0.512714
1.83097
0.717573
0.923301
1.66721
2.05392
407 153
207 4
13 90
294 92
361 13
352 13
272 170
377 277
31 57
148 412
280 133
196 286
190 240
205 308
90 73
53 497
309 443
347 168
93 457
21 42
106 387
192 376
295 45
240 115
367 367
11 3
362 153
84 131
234 145
163 87
297 283
490 437
36 368
378 455
308 204
239 27
269 430
228 262
229 8
462 359
419 382
198 247
361 247
116 18
148 488
93 149
344 13
470 16
415 354
461 197
2707
5
