50
5
0 0 0 0 0
94 89 68 96 77
89 71 52 58 19
69 52 72 64 73
37 26 41 60 40
63 25 91 74 70
74 15 63 37 75
61 61 22 67 94
78 99 20 97 85
99 28 30 82 17
26 65 29 60 24
51 75 75 70 11
48 49 16 90 32
56 18 63 67 61
80 81 58 64 83
91 58 26 69 47
78 37 32 22 73
53 59 29 46 61
92 57 40 12 41
18 96 63 73 25
62 67 65 95 86
71 26 84 28 78
73 95 77 35 14
32 53 95 29 86
43 23 63 32 81
45 91 30 17 72
88 71 90 10 24
91 46 14 55 90
58 24 65 79 63
39 59 96 82 26
64 100 26 95 19
20 15 44 46 15
81 78 47 54 51
81 44 12 64 34
32 30 78 21 87
80 96 67 57 87
65 37 61 94 20
97 80 43 76 52
92 32 93 82 38
52 11 95 98 92
20 23 97 82 82
82 62 20 27 98
87 23 99 54 95
27 76 95 76 47
43 46 93 75 80
89 28 47 50 37
31 50 61 48 63
97 19 27 57 56
33 42 67 55 51
69 84 14 72 83
1.79517
1.30308
0.498123
1.86031
0.596155
1.62057
0.980291
1.82325
0.474552
1.00086
1.45166
0.651274
0.471777
1.07658
0.434488
1.14702
0.597751
0.812126
1.97845
1.36997
0.538979
1.31878
1.14157
1.88897
0.985634
0.71778
0.802366
0.620901
1.13915
0.839809
1.15115
0.485598
1.78807
1.88143
1.67621
1.52876
1.64788
1.9652
0.83677
0.817044
0.69835
0.438872
1.77017
1.61522
1.82038
1.18931
0.54135
1.11212
1.91137
1.92614
227 259
9 338
137 305
88 165
303 276
470 378
143 364
120 487
392 393
142 231
481 364
62 373
128 88
338 263
132 277
259 222
421 494
270 122
455 251
17 62
395 18
33 101
15 72
127 332
314 105
164 6
406 467
157 332
401 14
178 464
11 74
68 222
252 480
6 209
30 225
418 233
198 415
133 89
48 328
50 123
317 208
457 83
428 196
101 36
93 350
302 347
65 210
27 267
34 12
439 396
4738.33
3
