50
3
0 0 0
29 82 55
83 13 72
14 19 65
63 51 34
15 34 30
51 68 12
96 88 74
42 81 27
58 52 46
85 53 72
87 60 64
90 27 84
96 62 10
49 69 84
43 16 92
77 11 100
75 76 61
45 82 31
97 61 24
60 67 31
17 23 23
53 97 16
11 27 78
69 77 63
93 91 60
53 34 72
21 88 95
46 64 37
95 12 60
62 19 13
52 50 49
29 92 26
63 80 29
42 26 26
54 66 85
24 69 88
15 66 94
29 91 71
86 31 26
54 71 81
42 92 25
90 91 84
24 23 24
19 90 42
44 12 93
92 95 24
95 52 91
100 93 98
13 68 29
0.37166
0.137955
0.459448
0.389045
0.495362
0.281148
0.184942
0.2767
0.293395
0.213945
0.256176
0.406149
0.335041
0.334534
0.109147
0.172287
0.176221
0.406146
0.321166
0.369958
0.478353
0.301932
0.14854
0.328579
0.373237
0.230464
0.213988
0.100214
0.358012
0.119366
0.430022
0.303255
0.434485
0.207889
0.248086
0.246387
0.462046
0.180343
0.121559
0.235917
0.349293
0.487271
0.397836
0.205492
0.229093
0.104552
0.192261
0.132934
0.290309
0.371712
443 486
460 330
50 292
332 122
341 226
54 429
498 182
186 295
6 189
189 143
184 287
158 480
281 183
433 97
80 211
401 33
364 123
352 35
468 43
358 287
238 167
343 460
343 371
105 179
104 452
31 122
375 237
224 101
453 143
217 18
493 251
394 231
357 206
499 22
396 349
270 255
148 262
331 133
243 412
145 7
491 342
401 150
429 249
158 434
136 379
464 447
274 468
444 376
293 218
0 362
2758
5
