50
5
0 0 0 0 0
69 69 37 71 19
68 60 76 16 73
10 72 46 27 73
49 66 68 12 86
84 83 79 51 36
75 40 73 43 57
60 75 85 78 30
51 14 68 94 52
59 51 38 14 26
65 64 46 86 80
73 52 98 35 93
65 62 96 49 91
63 60 29 56 49
48 88 91 14 15
24 75 35 14 18
89 61 18 100 78
44 10 72 26 44
93 53 88 44 14
56 60 84 30 69
19 55 94 70 73
57 65 55 71 42
52 23 63 11 13
86 57 35 25 31
82 39 85 62 67
19 16 79 70 67
68 21 42 37 77
62 78 84 55 97
93 94 83 37 46
19 63 37 96 29
68 44 84 49 38
16 25 77 49 81
39 32 80 65 41
46 100 39 25 98
87 16 43 43 42
83 51 18 83 95
82 13 52 15 42
37 81 75 11 100
44 41 70 12 46
65 19 44 55 53
90 71 46 16 99
10 100 33 20 87
80 18 88 32 54
59 93 41 14 93
59 80 49 99 67
56 11 55 19 100
98 95 75 76 72
26 41 84 23 78
86 77 26 11 47
98 35 69 24 98
2.30161
2.05083
0.754677
2.33613
2.43369
0.693882
1.62864
1.11577
0.934042
2.27512
0.628799
2.12077
1.15554
2.15825
0.562995
0.635668
0.78566
1.5524
1.78451
1.40598
0.861151
2.24469
2.21239
1.37862
1.34863
2.37779
2.306
1.96261
2.15168
1.91975
1.02289
1.63123
1.4848
1.00895
1.02556
0.749496
1.82854
2.08957
1.94381
1.47285
1.18508
1.85417
1.28214
1.11751
1.13956
1.82874
0.878691
0.872057
2.18977
1.66823
118 328
220 455
374 72
476 193
360 160
95 129
431 150
186 225
158 216
260 326
193 469
330 83
159 469
148 75
446 449
471 0
15 101
471 412
131 361
2 245
84 181
409 81
487 197
117 347
209 237
1 447
365 17
107 487
273 93
349 94
23 429
382 492
410 362
344 398
74 26
398 413
40 199
251 63
290 185
269 260
468 190
301 269
343 211
375 373
34 338
105 65
257 492
149 378
142 393
61 499
13740
1
