50
9
0 0 0 0 0 0 0 0 0
43 22 23 32 77 13 90 49 72
95 41 99 47 85 57 11 48 45
77 84 69 74 37 54 67 19 96
61 72 42 23 68 55 21 25 12
19 57 93 88 56 28 39 34 58
62 38 77 24 59 81 81 34 85
18 13 84 92 71 37 61 71 56
71 78 65 78 68 96 70 26 34
42 90 68 80 23 74 45 27 93
66 53 49 70 44 94 78 100 72
13 77 29 33 74 33 80 56 89
60 94 97 30 72 87 82 82 46
100 21 39 48 28 47 61 93 68
32 20 38 88 74 99 52 95 30
58 62 53 70 49 43 41 14 94
98 76 40 16 48 95 77 82 76
55 58 82 43 35 13 71 69 91
53 52 28 69 49 53 23 12 66
66 28 32 89 43 18 23 65 90
29 37 35 46 80 87 54 80 53
35 76 87 97 25 92 22 100 34
66 52 88 33 90 53 46 61 99
79 70 12 59 65 91 32 59 59
80 34 84 56 33 21 23 48 41
52 39 51 80 71 46 88 40 49
96 44 26 81 91 80 78 61 71
21 52 57 41 43 52 53 67 32
78 89 39 10 99 83 68 30 99
34 68 46 62 41 66 73 88 73
99 68 68 78 38 65 99 43 99
28 69 81 38 79 17 43 31 36
49 38 18 40 25 73 60 99 13
32 38 52 79 55 67 65 78 90
34 27 12 88 100 59 86 86 49
26 34 33 99 38 44 72 38 53
57 53 18 84 58 15 74 54 90
76 36 29 51 22 60 10 86 72
47 74 81 50 23 52 48 55 97
11 60 16 99 58 68 53 18 41
18 74 64 74 49 63 87 35 21
12 62 23 97 53 28 53 63 76
37 83 74 30 10 90 94 59 72
13 42 56 18 40 56 20 88 72
35 28 25 42 19 90 73 90 92
12 25 90 100 16 15 34 54 97
87 79 33 89 13 90 87 84 29
81 82 23 90 44 95 71 11 90
60 77 70 96 13 17 50 33 98
66 50 69 63 74 69 88 91 24
0.55602
0.592963
0.330691
0.844651
0.463121
0.992207
0.266503
0.949491
0.290865
0.696324
0.238798
0.230852
0.99024
0.29236
0.328261
0.451448
0.733844
0.802203
0.243978
0.664155
0.653794
0.412987
0.617325
0.354263
0.536669
0.814172
0.230919
0.823895
0.783717
0.498057
0.626836
0.424426
0.282858
0.703222
0.832216
0.598088
0.608528
0.857822
0.941708
0.841861
0.275482
0.469836
0.915653
0.341095
0.476655
0.757155
0.470831
0.822383
0.724351
0.945802
240 289
1 49
192 438
129 372
35 157
18 53
130 335
396 89
218 62
94 203
337 242
319 492
125 207
253 209
23 354
208 97
258 190
320 408
114 289
89 283
329 294
403 311
126 12
395 268
111 252
63 282
252 339
447 194
210 34
9 226
248 73
111 62
194 137
73 50
296 41
306 204
422 10
328 27
189 278
201 58
486 103
31 339
131 229
444 140
341 493
423 5
323 413
232 77
85 458
407 99
3496.25
4
