50
5
0 0 0 0 0
89 39 51 28 39
57 15 34 69 15
84 78 31 19 64
13 19 30 59 19
71 98 50 13 87
76 62 56 75 45
20 86 38 72 70
66 29 92 38 49
23 15 63 84 83
56 65 64 73 13
89 47 35 47 73
78 23 59 91 16
28 12 87 36 50
19 26 69 23 86
87 39 91 27 11
85 70 10 91 60
28 82 10 76 94
81 87 63 90 92
86 73 58 99 28
85 78 88 87 43
97 79 100 88 60
95 89 96 35 41
56 99 50 98 94
37 58 96 95 67
12 16 27 71 99
80 42 79 10 44
89 63 21 100 74
58 96 76 55 13
52 28 73 79 75
67 13 62 88 22
76 64 63 31 60
16 16 23 82 19
78 51 13 54 45
16 23 26 96 94
27 73 88 94 94
94 24 73 67 63
20 77 67 57 71
62 39 90 45 70
79 99 23 99 72
44 13 45 49 71
63 58 38 84 42
12 61 99 40 10
69 100 70 48 95
29 66 36 57 57
33 22 51 92 38
47 84 49 77 90
100 55 96 24 62
90 58 14 25 12
31 41 88 40 12
0.102977
0.334861
0.282997
0.242573
0.314868
0.405319
0.402913
0.43442
0.178589
0.113023
0.18856
0.229766
0.160271
0.447518
0.189785
0.230205
0.49305
0.214163
0.362481
0.197456
0.387936
0.200539
0.4026
0.376118
0.256744
0.47644
0.374667
0.282041
0.148997
0.210945
0.381361
0.426328
0.335373
0.4377
0.267882
0.389336
0.354786
0.159322
0.26995
0.293887
0.299794
0.408412
0.139384
0.16535
0.444921
0.291101
0.211008
0.240186
0.357957
0.263343
351 272
143 227
303 192
245 473
254 309
153 222
100 296
368 174
97 239
37 443
171 475
417 139
82 194
176 27
168 151
408 481
411 394
208 77
438 182
380 69
435 372
74 430
88 366
74 75
344 169
136 127
4 58
36 375
286 364
87 187
86 41
303 158
9 255
17 158
175 433
414 49
311 492
1 470
251 485
180 440
461 225
399 199
219 346
332 332
228 342
148 323
77 149
313 445
307 66
21 449
3522.5
4
