50
9
0 0 0 0 0 0 0 0 0
32 35 51 26 55 84 77 98 85
56 42 25 39 65 74 27 81 34
43 89 84 83 36 40 68 16 11
88 12 18 52 40 51 13 39 67
37 32 41 14 12 95 38 74 17
54 79 17 77 95 83 72 31 49
61 98 64 70 51 51 32 56 79
40 21 98 97 52 64 54 59 71
90 80 78 20 29 62 61 66 83
34 43 74 75 47 85 95 90 48
44 96 83 68 10 99 66 94 83
95 13 49 20 72 69 34 37 77
70 19 88 98 36 14 84 19 66
51 13 77 89 65 48 98 78 38
80 92 95 32 37 62 24 92 61
53 70 92 74 26 10 25 87 47
30 43 11 62 48 20 51 56 20
25 46 56 33 78 54 61 69 60
30 82 59 24 10 57 10 45 24
53 17 94 11 48 84 65 13 57
64 53 10 36 97 94 90 51 16
57 58 70 30 88 31 92 52 70
47 34 29 69 50 58 62 44 81
49 84 79 81 31 85 61 40 100
93 97 45 28 24 81 69 45 17
53 64 14 21 59 48 85 29 73
93 40 88 17 80 24 43 74 49
43 46 59 41 46 25 17 47 59
34 28 79 62 78 83 72 26 77
59 19 49 55 57 96 27 16 28
10 59 23 28 31 68 80 14 87
60 85 78 59 60 45 68 32 20
52 55 60 39 58 25 20 32 71
57 53 12 78 47 73 78 39 93
52 40 74 87 50 66 62 29 37
88 96 39 68 72 67 94 96 49
100 24 14 95 16 29 99 59 85
24 93 95 97 20 17 61 100 27
96 98 76 46 95 93 82 52 67
32 40 59 87 53 61 57 61 54
69 90 43 32 99 66 81 10 50
33 33 36 25 82 78 12 90 45
76 55 13 67 80 47 51 56 77
95 60 86 69 85 95 87 56 86
92 50 11 29 29 94 93 56 61
52 84 99 23 61 87 37 76 46
27 10 75 39 92 65 95 27 12
82 90 68 78 93 85 27 95 37
25 85 30 99 52 89 68 56 78
0.463914
0.323498
0.43245
0.250113
0.369372
0.486974
0.408506
0.344805
0.453746
0.119284
0.121085
0.107298
0.29924
0.133446
0.418228
0.446395
0.253092
0.194357
0.13771
0.372191
0.157718
0.409124
0.245886
0.383387
0.277059
0.247038
0.479753
0.485014
0.418871
0.374104
0.441097
0.451006
0.362572
0.20452
0.491562
0.478472
0.458299
0.168164
0.383929
0.22562
0.212357
0.211691
0.184031
0.313425
0.189562
0.490251
0.112889
0.120542
0.113037
0.308044
372 119
144 318
158 198
233 44
4 94
184 381
49 319
4 390
118 377
23 407
219 81
311 91
480 359
287 400
76 220
484 169
108 279
335 37
144 259
445 147
413 191
257 116
112 312
136 208
249 23
340 61
377 245
52 73
109 470
94 256
85 375
428 28
149 136
216 294
63 476
282 40
224 433
183 1
108 130
218 448
67 406
301 145
436 158
174 78
371 339
451 302
290 338
326 153
36 89
394 14
2781
5
