50
3
0 0 0
28 21 81
18 18 31
86 87 52
42 73 37
14 49 94
14 11 72
92 46 26
74 58 49
15 20 85
33 52 34
35 83 81
79 56 70
26 90 37
87 91 66
18 38 54
41 25 33
67 24 67
83 74 44
76 43 59
71 32 70
71 65 26
33 22 20
68 72 86
87 66 17
69 55 88
45 96 12
66 37 53
25 57 72
21 34 74
44 75 93
30 60 20
48 72 84
59 20 82
62 81 81
36 76 65
88 51 52
98 29 36
37 75 45
39 74 55
65 20 17
91 96 78
95 64 40
17 70 34
95 77 41
55 53 14
83 95 79
50 97 74
60 83 54
16 70 11
0.475743
0.160928
0.165747
0.275839
0.209758
0.230879
0.486076
0.374829
0.345931
0.290569
0.359237
0.30424
0.288538
0.440872
0.389377
0.460254
0.189297
0.211431
0.486365
0.124291
0.369998
0.199462
0.394311
0.402901
0.2708
0.114199
0.297822
0.470303
0.490296
0.478365
0.370037
0.294913
0.168463
0.263894
0.12685
0.25317
0.396329
0.460084
0.41327
0.18323
0.412566
0.460866
0.469387
0.141036
0.383459
0.351895
0.154913
0.215089
0.221228
0.475623
217 8
268 425
191 413
321 426
42 15
45 356
273 134
166 266
27 53
50 240
261 422
76 442
159 333
65 476
252 250
382 465
163 449
406 397
218 440
206 180
370 496
187 437
94 178
425 77
92 79
60 374
342 208
294 300
316 397
285 319
314 361
187 340
440 470
161 89
148 336
328 330
86 371
4 92
110 478
161 431
171 123
204 279
385 137
312 379
451 20
128 426
388 10
114 121
258 338
368 323
3387.5
4
