50
11
0 0 0 0 0 0 0 0 0 0 0
17 11 74 80 27 30 69 37 44 19 34
84 32 13 34 99 13 12 39 47 91 85
53 47 79 62 17 51 82 64 47 73 30
60 12 42 83 37 78 66 12 21 76 40
21 18 22 29 85 82 57 71 29 74 91
24 71 87 12 19 23 64 12 47 86 15
23 51 54 81 65 54 70 100 43 42 69
60 10 55 47 98 79 50 85 84 57 59
41 86 37 12 17 40 94 38 64 39 22
52 79 69 14 53 62 87 23 84 56 44
13 39 50 35 73 31 84 98 54 63 100
93 37 28 98 59 84 38 94 86 77 51
22 38 54 20 85 73 32 57 55 13 98
40 64 30 50 11 44 42 63 36 65 23
58 14 32 86 96 15 98 31 74 31 100
97 13 49 33 70 49 34 97 64 21 88
17 88 90 100 70 84 33 25 12 92 36
70 31 50 35 35 69 15 16 69 98 11
30 18 99 30 60 15 20 100 11 21 92
15 48 24 88 53 91 67 19 28 10 12
48 53 77 25 94 31 27 40 46 48 77
20 86 72 39 30 79 70 29 99 93 60
48 19 34 11 98 26 72 35 47 94 27
94 49 61 22 18 83 19 84 71 88 30
47 12 40 19 10 18 68 94 89 72 63
34 65 99 90 29 68 81 54 37 84 30
84 84 14 30 49 34 37 97 38 92 96
42 78 30 41 62 87 70 32 85 73 97
88 15 81 89 96 74 30 84 47 88 34
83 51 30 84 32 68 91 16 87 76 72
30 49 100 75 72 90 86 72 42 61 77
90 58 79 62 30 58 11 54 90 98 96
40 24 64 95 37 89 94 59 30 86 66
99 18 35 36 43 88 59 18 11 37 79
39 44 75 76 15 93 41 56 82 37 46
18 52 64 44 45 63 69 60 45 57 27
68 18 68 25 58 24 46 16 90 96 54
29 38 49 62 13 50 34 18 17 33 87
76 64 59 83 21 94 80 29 65 94 91
31 46 77 18 42 20 89 73 30 20 21
45 69 62 59 37 48 85 47 35 45 33
54 75 21 14 49 89 51 96 36 96 15
59 94 54 94 84 81 36 96 56 32 55
100 49 47 59 44 100 80 37 85 55 42
56 99 16 68 56 65 100 83 72 43 91
26 81 44 54 81 79 64 15 72 16 19
10 77 14 53 47 16 96 92 82 77 35
30 30 29 41 26 34 78 91 87 80 77
69 100 73 52 31 32 64 94 54 37 28
1.41985
1.17329
0.790232
2.11201
2.04042
1.91318
1.49851
2.04847
2.44675
2.0616
1.90555
0.541541
1.87513
1.19827
0.693754
1.21682
1.2303
1.41952
0.977201
2.2624
0.957286
1.85013
2.10221
1.43929
1.74947
0.938327
0.957866
0.887609
1.68409
2.46697
2.2443
2.14073
1.03075
1.86429
1.15396
1.56207
1.45228
2.39195
2.04044
0.872169
2.20104
1.29005
2.40765
1.04502
2.14714
1.01607
0.930972
2.22752
1.15424
2.49941
310 495
220 105
149 270
288 142
263 105
210 189
301 286
412 202
386 207
113 35
334 492
421 152
167 320
369 271
164 403
362 157
469 135
56 242
472 105
394 270
260 405
215 144
393 395
21 453
142 49
201 400
349 483
162 62
162 271
301 133
198 91
24 48
195 354
59 498
11 97
357 129
207 379
149 363
30 61
316 104
225 308
69 191
42 465
83 490
469 201
5 313
169 113
97 262
461 4
487 337
3350
4
