50
11
0 0 0 0 0 0 0 0 0 0 0
71 78 76 82 28 15 25 50 53 15 56
24 16 33 38 39 80 20 55 29 14 79
68 62 15 91 20 45 10 10 43 55 54
80 51 24 82 31 66 100 98 92 44 49
83 94 62 57 28 79 18 60 93 43 26
13 97 66 94 53 85 70 19 67 37 60
48 95 28 85 14 69 63 73 41 78 46
24 20 73 20 24 15 13 13 78 24 75
21 41 58 19 17 11 84 66 41 76 64
85 90 69 64 75 38 13 81 22 32 24
77 90 100 63 26 100 85 89 45 15 43
80 50 12 56 49 30 43 32 38 57 21
84 29 59 28 21 88 67 81 78 73 79
99 38 95 52 30 53 86 100 16 32 28
71 10 29 79 60 35 96 43 97 63 60
81 19 75 31 36 79 67 66 18 46 89
34 99 65 43 12 41 23 46 42 50 15
32 82 26 35 40 12 81 76 15 45 96
93 15 92 76 21 80 53 81 86 97 62
50 53 60 98 55 69 85 25 87 68 62
54 40 71 34 19 62 56 21 69 68 19
88 70 30 93 15 27 29 12 64 18 12
44 26 85 53 28 61 29 73 83 80 39
75 51 14 85 87 54 32 14 14 70 91
51 99 50 61 25 11 92 49 19 98 21
66 93 34 30 62 11 75 17 83 23 55
76 99 59 59 49 74 83 33 78 42 98
62 52 34 97 23 10 89 37 93 94 14
68 76 85 32 27 54 81 79 63 70 78
42 65 17 66 75 65 73 45 37 51 75
46 57 83 71 60 94 47 43 36 82 53
81 28 93 25 81 91 67 91 79 69 96
63 61 94 29 50 56 48 81 60 64 59
88 26 65 79 26 46 22 98 24 98 95
74 35 33 45 32 75 40 45 31 46 90
82 13 46 19 34 16 32 27 35 94 76
52 82 37 25 48 91 32 75 10 86 72
97 41 40 56 60 97 13 24 95 46 24
75 23 48 15 90 79 69 71 29 24 16
80 87 76 60 60 53 91 32 39 71 90
65 86 62 41 80 29 78 10 74 40 75
80 24 50 25 78 45 23 91 13 78 11
88 45 95 36 95 54 22 33 61 40 24
79 43 61 87 43 80 11 42 94 89 51
54 90 33 87 90 53 57 93 59 40 51
95 64 77 86 75 42 82 100 32 62 79
21 92 92 27 83 10 92 79 70 33 50
37 10 89 80 42 13 81 36 67 72 57
69 71 72 100 65 24 91 66 34 92 99
0.140212
0.482752
0.121444
0.216606
0.408085
0.408663
0.422835
0.497767
0.211755
0.20472
0.204104
0.177057
0.112608
0.314928
0.442072
0.480398
0.31494
0.384241
0.165078
0.394466
0.185537
0.193852
0.25865
0.28703
0.359024
0.347669
0.138577
0.129439
0.196107
0.167077
0.259931
0.134445
0.197714
0.308297
0.222677
0.11531
0.468422
0.170654
0.44119
0.131863
0.387776
0.162181
0.383785
0.422448
0.38154
0.43851
0.426337
0.150119
0.489329
0.417604
262 307
181 2
182 327
23 110
244 73
346 66
266 238
4 177
282 182
234 415
11 177
96 460
13 49
279 81
138 365
155 321
39 115
445 280
320 211
90 491
83 10
281 131
262 123
59 466
331 109
1 335
47 491
185 294
459 413
156 14
139 201
384 16
421 248
119 288
494 254
136 490
190 210
196 236
50 265
324 25
471 162
34 427
380 378
226 31
219 139
74 80
63 355
112 80
289 255
494 286
2731
5
