50
3
0 0 0
23 38 54
33 84 95
12 63 57
54 54 22
87 65 56
40 88 61
25 32 79
31 78 61
36 50 80
16 20 71
57 20 30
71 28 13
27 75 78
62 22 89
53 37 69
64 42 90
79 20 75
10 87 20
29 73 28
84 23 47
35 88 17
89 81 68
32 38 75
51 84 11
96 96 61
93 34 23
32 45 79
98 81 34
12 78 68
36 82 92
88 21 66
37 61 68
53 99 48
60 61 42
76 50 90
22 60 51
59 61 31
60 16 60
41 74 63
35 79 26
65 32 63
19 66 41
60 43 44
96 84 57
90 56 67
83 97 34
36 70 46
85 86 98
28 34 58
0.643725
0.730731
0.865543
0.28203
0.265702
0.678971
0.83669
0.659699
0.75304
0.716459
0.500067
0.871388
0.392424
0.552576
0.287077
0.447071
0.687592
0.435828
0.882937
0.958117
0.545965
0.742348
0.293033
0.463258
0.370342
0.790109
0.724053
0.542835
0.655746
0.378676
0.836575
0.86985
0.657847
0.745104
0.547024
0.818912
0.983028
0.470931
0.305625
0.967862
0.508517
0.370281
0.531441
0.761156
0.566394
0.862343
0.962315
0.915038
0.616064
0.403132
187 22
447 405
272 190
63 420
157 198
327 481
255 466
47 444
7 29
386 115
84 424
67 270
476 311
321 316
195 303
354 244
302 330
103 302
325 467
372 410
388 72
210 86
403 72
135 17
48 248
107 16
43 60
301 232
241 430
103 456
316 79
363 23
182 94
300 266
99 321
384 316
110 194
315 95
222 386
157 71
363 79
281 281
411 172
436 113
350 373
494 411
162 41
150 465
353 207
328 81
3405
4
