50
9
0 0 0 0 0 0 0 0 0
20 68 23 83 80 76 18 17 50
15 96 40 18 30 24 89 55 23
13 60 11 73 41 37 20 71 64
54 65 87 100 12 26 80 61 16
66 82 21 51 50 13 89 63 74
31 42 14 40 78 45 12 19 50
22 83 91 79 69 28 12 17 78
65 68 84 95 52 38 48 14 67
51 75 62 97 62 58 96 44 55
19 94 12 89 52 93 62 15 84
88 75 43 55 10 61 14 100 56
39 96 30 87 92 16 89 76 17
60 90 76 29 24 13 98 97 48
73 76 29 98 81 75 71 48 24
99 33 72 34 89 18 18 86 33
43 68 88 77 26 33 76 67 75
100 96 99 25 74 12 80 88 14
59 27 13 91 54 74 60 83 98
73 90 27 91 40 94 18 67 24
42 73 93 94 26 63 67 44 22
30 42 29 34 72 55 33 39 20
36 52 83 19 82 24 70 51 15
40 14 79 79 94 75 56 14 33
24 55 33 25 11 14 95 60 41
100 41 29 10 20 16 26 49 89
19 12 35 60 40 92 60 93 56
98 89 69 10 64 56 73 74 74
70 73 43 58 75 12 65 18 10
23 18 13 71 94 33 57 92 32
63 59 21 75 17 26 95 54 59
40 69 66 60 73 24 68 48 35
70 95 84 78 60 34 25 17 11
99 28 45 22 83 75 44 91 29
13 50 15 90 58 18 15 72 84
84 48 63 80 25 82 76 14 58
62 24 91 99 75 60 12 32 38
25 36 99 77 81 37 54 50 33
32 50 92 100 53 72 11 56 31
67 89 48 44 74 27 39 82 81
31 88 49 77 92 38 82 71 87
14 73 89 88 25 86 45 79 33
68 28 100 43 77 31 78 89 72
54 93 21 33 12 48 83 75 81
68 32 22 94 96 76 81 54 72
80 62 51 32 21 81 74 17 76
34 72 37 75 58 31 25 59 100
44 96 28 10 46 74 53 66 39
47 53 43 58 55 29 79 37 37
70 82 45 34 90 80 74 86 98
0.923959
0.992389
1.26445
0.88313
0.965963
0.454016
0.79439
0.398747
0.773701
0.792462
0.568239
1.45706
0.813075
1.38912
0.936347
1.10083
1.45526
0.725787
0.484627
0.638649
0.874373
1.3996
0.908236
1.14083
1.335
0.327948
1.16696
0.466018
0.896236
1.35053
0.533056
1.23187
0.512059
1.03713
0.49464
1.42102
0.97404
1.12693
1.37056
0.315278
1.44144
0.690109
0.975097
0.686557
1.42779
1.42296
1.05998
0.778452
0.522195
0.457135
345 74
443 205
472 303
329 357
500 176
187 428
468 275
294 351
49 102
463 46
462 165
303 274
429 190
153 388
331 498
158 215
170 52
182 191
358 118
165 46
374 305
39 79
188 122
368 20
380 283
386 132
44 213
48 341
389 470
355 386
334 311
487 325
276 283
49 260
135 167
191 298
167 437
279 290
454 230
488 308
188 304
113 280
308 159
413 155
458 403
390 429
498 383
106 363
289 71
144 190
13495
1
