50
7
0 0 0 0 0 0 0
80 84 68 15 83 56 79
48 47 26 87 93 22 74
12 94 69 85 88 90 32
18 72 25 51 71 16 92
29 41 70 80 94 62 58
13 55 20 81 38 93 94
95 91 83 12 69 79 55
68 33 47 59 79 54 44
98 35 75 91 76 85 91
50 13 86 16 33 80 62
53 80 12 97 95 83 45
88 18 69 100 70 74 56
50 45 34 64 11 19 43
79 71 16 43 59 42 22
98 84 19 76 65 98 94
84 21 84 57 94 97 94
78 34 99 74 20 32 45
37 54 55 57 73 92 49
31 50 63 16 50 23 79
25 30 38 25 87 58 52
48 26 93 16 32 18 13
55 71 47 84 93 44 77
66 43 10 76 27 12 39
98 85 83 71 84 14 82
62 54 14 92 87 87 96
86 14 21 71 84 94 31
80 65 66 38 66 17 34
37 62 11 55 92 88 55
80 13 83 82 81 62 99
77 57 31 68 23 46 25
88 25 10 77 44 19 77
51 91 25 68 41 50 86
23 97 85 22 63 88 29
23 65 86 45 64 23 75
90 22 59 11 51 61 28
50 79 90 73 74 24 42
58 76 61 93 46 56 12
94 13 33 91 35 92 71
37 34 32 44 15 98 84
20 16 51 21 30 57 19
64 31 75 54 16 74 15
38 72 80 29 73 27 17
39 13 15 30 56 91 68
36 69 64 12 99 14 55
78 76 76 62 46 27 53
37 19 25 76 89 61 85
86 19 23 54 61 93 49
23 45 65 87 49 76 60
85 41 36 39 20 40 58
0.565784
0.275679
0.864051
0.960467
0.775319
0.749745
0.543186
0.48788
0.24118
0.743259
0.331822
0.351053
0.835629
0.719378
0.806193
0.855909
0.321125
0.284984
0.391602
0.810916
0.636884
0.336843
0.444833
0.909879
0.940614
0.974877
0.511703
0.723973
0.749404
0.261441
0.557316
0.718161
0.882394
0.98652
0.684351
0.895038
0.736019
0.38642
0.541026
0.868712
0.824093
0.427111
0.432331
0.955554
0.620774
0.642236
0.323668
0.617008
0.788031
0.686079
308 134
485 68
199 27
488 489
239 391
285 473
32 84
122 301
435 458
190 483
121 479
308 308
56 362
395 498
445 238
189 4
199 442
64 472
381 266
161 50
253 272
69 374
7 371
73 49
345 440
169 257
495 75
212 497
98 375
291 178
135 497
89 73
305 20
151 494
396 0
55 22
159 436
379 135
340 123
268 48
135 132
459 36
347 230
284 371
248 282
443 343
277 254
189 301
372 198
98 351
13720
1
