50
7
0 0 0 0 0 0 0
30 56 54 64 80 45 39
62 41 96 30 96 91 48
61 17 71 32 21 84 47
13 83 19 19 30 89 24
31 17 15 12 70 85 47
85 41 34 61 60 40 19
44 31 94 96 39 67 58
26 50 40 97 60 22 86
36 78 90 100 78 77 31
70 23 81 52 28 55 58
53 75 66 68 31 52 86
81 49 80 30 21 69 100
31 70 53 38 99 28 32
28 40 10 62 45 25 62
47 52 52 27 55 75 56
13 70 10 18 86 22 95
75 80 58 63 34 84 21
45 61 63 15 24 12 75
98 23 64 24 33 16 64
76 88 31 39 26 72 61
22 86 72 86 65 41 12
73 59 11 15 44 63 92
38 69 81 32 34 80 52
55 48 83 18 81 93 37
69 73 18 40 82 37 79
67 86 56 30 33 52 66
65 53 44 20 21 77 63
49 45 33 97 18 16 63
18 68 88 19 71 99 25
75 34 59 45 98 16 39
93 71 24 53 43 37 28
86 100 92 10 53 69 97
88 58 62 47 79 97 57
25 87 63 49 24 76 41
60 98 18 17 77 14 14
88 93 42 23 13 33 47
74 94 78 66 16 46 20
56 43 71 32 39 84 71
57 76 14 47 52 40 11
60 22 61 54 41 43 100
52 72 18 44 52 15 86
23 40 20 89 41 58 19
57 94 42 81 35 67 28
92 76 42 64 19 57 97
88 50 56 53 94 89 28
67 72 35 67 27 60 95
59 73 91 51 68 99 71
89 56 58 89 34 59 66
48 22 65 98 99 60 38
0.413421
0.512401
0.848221
0.40654
0.945592
1.2834
0.74188
0.387374
1.06687
0.358351
1.34469
1.35462
0.747003
0.87664
0.97936
0.805319
0.831196
1.1767
1.26873
1.43209
0.363558
0.603089
0.663759
1.08224
0.86824
1.31862
1.08669
0.79675
0.406061
0.717336
0.718175
0.373016
0.605634
1.3797
0.985164
1.39658
0.792896
0.937579
0.422658
1.23767
0.847165
1.40467
1.29836
1.35869
1.23676
1.46584
1.03311
1.25817
1.30553
1.07221
327 388
263 142
18 471
30 172
385 410
476 286
47 397
128 243
183 260
255 356
85 150
66 146
22 353
37 175
398 430
409 74
251 438
441 459
435 88
161 262
317 256
41 313
227 1
243 460
488 8
15 486
258 291
348 490
279 12
434 38
452 230
153 208
468 162
352 342
406 482
32 82
104 304
107 440
410 466
307 231
395 240
468 424
500 452
201 495
173 361
385 441
482 25
281 381
152 72
218 406
4435
3
