50
11
0 0 0 0 0 0 0 0 0 0 0
55 35 77 91 43 16 15 67 92 69 32
35 17 75 50 94 22 70 42 77 72 92
93 63 45 15 44 69 58 49 19 30 61
70 46 81 40 19 74 83 51 68 85 30
20 100 34 46 52 52 54 56 97 95 18
54 53 47 96 31 27 26 56 72 62 93
14 71 22 84 32 85 86 44 36 13 100
37 69 21 52 31 35 20 90 88 86 57
93 44 74 41 56 80 88 98 33 21 41
74 32 76 51 30 33 93 45 27 71 39
45 26 99 83 46 89 54 19 79 74 27
69 39 37 22 23 64 53 43 18 14 11
19 79 70 50 40 86 91 14 99 36 79
29 96 35 21 40 80 49 17 15 12 76
16 67 65 96 63 58 21 78 31 13 39
64 52 15 68 35 23 90 45 14 96 86
26 41 67 85 67 56 76 59 16 99 43
78 59 74 51 25 66 69 30 77 71 50
23 34 100 32 40 11 32 91 58 58 40
37 48 72 85 53 91 71 82 11 79 100
51 90 96 80 12 83 95 54 18 80 74
72 20 84 32 61 74 98 41 56 22 63
22 51 73 76 79 82 45 42 84 20 80
97 95 15 47 61 82 73 16 29 71 12
17 53 34 60 81 67 11 92 89 18 72
38 58 61 19 69 61 39 95 43 34 87
48 57 13 95 25 79 73 53 32 30 43
89 40 52 47 90 30 64 52 67 66 17
47 22 25 74 97 16 30 45 85 73 83
13 56 68 46 100 41 69 29 60 57 87
27 49 57 36 92 87 86 69 33 40 63
83 11 94 61 72 24 54 66 91 68 89
94 77 83 51 95 63 67 76 84 38 23
71 89 63 59 59 36 68 89 62 53 54
14 71 97 88 90 53 13 64 26 10 79
89 32 62 43 48 48 93 81 97 12 11
88 99 90 76 86 88 49 40 39 20 54
97 45 23 50 40 25 84 34 62 29 20
62 97 49 31 53 46 52 10 48 98 90
20 57 63 13 41 49 86 10 40 28 97
53 24 33 23 81 98 99 74 95 46 47
53 83 43 68 88 67 91 83 10 14 33
27 79 15 73 88 73 82 79 37 67 46
44 82 86 11 27 57 17 11 27 36 94
61 30 43 32 28 17 60 46 97 67 36
10 49 67 11 40 94 66 92 17 59 82
22 50 37 37 34 11 90 16 76 50 96
99 86 57 15 56 93 95 71 56 15 49
37 13 99 44 92 68 16 64 88 72 42
1.62329
1.79172
2.20777
2.23325
2.34169
2.05107
1.31962
0.689204
0.789775
1.70467
1.76749
1.47731
0.585689
2.24141
1.90125
1.7378
1.37784
1.82992
0.919666
1.93025
1.85599
1.6556
0.518656
1.27567
1.34691
0.626752
1.2364
1.59128
1.45444
1.19051
2.36898
1.03104
2.39949
2.21571
1.70001
1.93773
0.96242
1.7023
0.849817
1.76632
2.05356
0.716807
1.69003
0.514423
2.16491
2.29857
1.1222
1.63573
0.572956
2.48739
423 316
37 206
148 248
124 80
296 10
435 137
182 193
425 209
350 261
298 474
473 444
35 370
496 370
320 226
98 481
15 63
225 244
12 317
74 402
230 246
224 252
213 229
496 338
41 140
457 297
0 445
294 273
483 481
294 235
175 135
24 330
296 160
432 311
245 356
274 407
340 49
246 276
33 0
302 9
276 321
406 329
379 449
272 380
348 447
229 215
59 351
174 235
56 330
13 81
15 113
2720
5
