50
9
0 0 0 0 0 0 0 0 0
51 34 54 25 19 91 14 46 60
70 17 48 64 72 44 49 11 59
47 19 98 40 76 10 93 75 10
43 73 88 51 95 12 84 16 33
46 92 32 68 97 79 27 56 27
93 69 24 96 54 53 50 96 60
100 15 69 37 72 98 49 82 36
44 71 80 45 76 69 78 67 74
81 66 27 49 93 42 37 22 91
24 19 31 94 65 20 28 27 79
76 84 47 82 33 68 79 91 93
69 83 64 90 43 64 42 81 34
64 81 40 35 34 67 79 75 51
23 75 33 62 13 71 91 54 14
13 83 31 14 29 27 66 43 29
54 31 42 64 68 16 96 45 55
91 90 60 22 47 41 53 41 49
74 95 36 20 75 27 67 83 40
45 19 96 53 13 99 31 45 88
12 73 46 64 33 41 15 33 23
88 68 36 63 95 65 37 57 11
44 34 74 86 100 66 92 82 55
70 25 31 84 99 87 42 94 50
89 15 49 39 68 13 65 97 85
89 55 99 85 35 52 54 83 36
29 80 85 48 80 30 54 99 97
58 20 87 23 41 72 17 24 81
57 22 14 18 83 24 64 60 39
93 19 55 92 96 56 97 28 18
36 30 27 59 89 81 100 79 82
55 12 84 64 48 92 81 28 45
91 15 41 96 50 76 65 48 30
77 89 26 19 21 51 85 56 26
41 85 29 88 77 15 23 21 38
15 90 93 38 81 29 73 33 11
38 39 61 58 85 100 10 51 37
35 97 20 93 73 10 52 84 87
27 40 36 80 79 25 71 82 63
70 18 36 20 58 86 33 75 48
42 18 39 80 10 81 25 60 58
73 57 19 40 82 42 40 96 38
54 77 15 74 75 15 33 73 19
36 66 25 57 18 28 89 59 71
83 72 81 74 41 88 16 33 21
33 38 67 80 24 36 23 97 20
36 47 31 67 94 32 84 88 67
81 26 33 72 23 55 31 48 20
92 51 16 25 72 78 97 57 98
25 36 81 58 47 18 45 23 92
1.30853
0.624121
1.07832
1.09701
0.560183
0.564304
1.56732
0.585097
1.35944
0.677398
0.72362
0.866958
1.72978
1.94777
0.432613
1.10134
0.869555
1.06916
1.80877
1.94804
0.614817
1.55867
1.28082
0.536848
1.44794
1.30921
1.37177
1.98154
1.23729
1.11363
1.79209
1.37626
1.76514
1.31983
1.59588
1.47983
0.448072
1.76559
1.98991
1.75207
1.23435
1.47684
1.27487
0.674204
1.15249
1.8812
0.879328
1.43843
1.72895
0.786352
95 415
42 120
445 153
26 322
269 413
217 368
447 392
102 420
103 122
484 423
207 164
442 130
164 59
160 258
94 24
147 318
471 293
287 468
235 208
500 320
485 67
49 483
361 329
217 260
205 311
368 13
124 141
227 63
484 458
75 232
320 417
44 469
497 384
190 298
239 57
72 323
491 320
170 18
321 218
447 65
127 109
16 79
435 187
295 481
495 412
219 467
366 167
413 162
189 158
88 56
4475
3
