50
7
0 0 0 0 0 0 0
68 50 18 56 28 42 67
57 40 36 28 77 91 95
93 48 61 61 42 21 59
61 88 41 15 83 92 39
84 67 72 88 66 82 54
85 50 35 42 14 78 81
37 85 20 96 13 43 98
73 76 92 16 93 54 33
20 96 64 70 31 45 18
36 59 61 82 100 65 78
91 91 43 59 93 75 13
68 22 40 89 38 64 30
85 40 23 68 86 40 37
100 22 87 27 99 96 89
70 24 54 45 10 57 30
58 54 34 27 21 12 98
31 85 54 56 40 86 83
69 67 57 81 24 66 31
46 51 47 91 66 27 83
27 44 78 39 76 86 39
78 94 37 87 21 13 95
56 30 66 53 22 51 68
26 51 22 23 72 46 58
92 54 53 29 76 14 97
89 10 24 70 78 15 83
93 53 64 49 98 39 70
88 52 24 75 78 87 41
63 49 28 21 57 14 34
26 65 24 19 16 90 49
74 24 13 58 63 91 91
65 43 14 31 78 41 23
16 65 12 43 18 82 61
39 60 30 80 42 99 100
81 48 16 19 62 92 18
27 69 12 73 98 75 91
58 96 62 11 54 98 28
15 15 56 12 73 42 80
53 59 26 30 11 42 44
29 26 86 12 37 10 28
82 55 58 85 44 90 58
28 13 43 29 59 32 88
88 34 13 63 20 12 18
37 93 82 22 76 40 88
89 63 40 35 89 51 69
44 95 49 17 93 40 16
25 27 69 84 38 30 87
78 33 36 67 94 24 72
71 26 79 21 82 100 62
56 84 56 17 66 100 70
0.116862
0.356114
0.483046
0.455656
0.20403
0.177881
0.211405
0.233325
0.4856
0.248585
0.487365
0.142102
0.17857
0.420276
0.206803
0.494169
0.381559
0.487549
0.112685
0.275823
0.473971
0.213632
0.257796
0.304206
0.251723
0.323966
0.167843
0.436158
0.201599
0.481491
0.366039
0.147684
0.271249
0.118926
0.227085
0.169595
0.268203
0.456876
0.365492
0.175165
0.452697
0.353745
0.163173
0.222761
0.392214
0.130718
0.400341
0.47109
0.419908
0.43063
176 432
255 272
473 467
132 202
465 223
431 300
413 418
317 363
322 130
234 485
235 40
261 45
342 169
178 40
252 116
256 472
441 237
174 354
334 82
256 278
125 302
54 480
117 103
135 135
282 387
283 499
248 421
496 178
195 467
5 196
91 85
13 205
97 161
383 224
271 370
496 20
356 192
339 480
268 402
249 42
281 61
470 224
11 116
255 419
115 426
48 217
317 366
157 209
252 13
436 71
6675
2
