50
9
0 0 0 0 0 0 0 0 0
81 29 17 29 75 63 63 53 87
73 38 27 36 66 45 19 10 17
60 94 74 61 69 83 93 92 40
26 51 62 96 22 18 39 91 94
60 74 66 82 98 81 74 34 85
65 15 30 76 40 51 99 25 17
12 75 13 16 31 74 18 40 20
20 64 41 68 98 16 59 92 55
92 26 36 47 13 90 30 58 70
23 68 63 40 87 42 87 45 89
46 99 58 86 22 19 48 70 20
83 88 28 88 65 77 39 51 25
57 95 16 92 64 27 49 63 93
23 36 16 78 91 86 78 82 12
33 32 27 14 19 78 26 26 93
36 43 83 11 47 15 24 41 34
34 73 44 49 19 91 20 60 92
60 18 69 24 38 87 24 35 26
69 96 75 69 90 90 84 62 70
31 44 21 86 44 59 60 70 11
75 13 72 41 40 38 17 45 84
48 86 73 30 32 63 76 55 55
32 13 37 13 29 46 33 94 12
24 73 89 15 39 14 71 21 20
73 88 50 19 49 68 63 52 99
49 63 34 51 33 43 32 44 44
59 50 25 60 33 72 36 54 56
54 11 51 79 85 92 14 52 48
46 62 84 87 38 71 54 49 14
90 56 30 23 85 33 27 98 26
15 13 33 47 28 15 75 63 83
26 91 95 29 29 85 62 69 69
19 20 93 61 64 27 46 73 92
70 62 11 26 92 19 52 13 43
16 36 12 78 42 81 27 46 88
77 18 85 65 73 88 65 80 31
54 35 53 44 85 86 84 83 96
50 83 66 71 27 49 73 99 57
54 40 17 17 78 27 20 40 67
53 88 96 60 63 82 72 87 75
85 12 86 59 38 23 98 19 40
82 75 95 39 61 67 75 37 55
53 34 86 18 28 85 67 34 57
48 44 21 19 76 20 61 75 10
79 86 51 77 77 17 18 46 22
48 13 77 13 66 36 88 61 82
61 11 62 100 30 83 19 16 48
35 17 24 12 22 82 24 17 50
65 18 54 64 25 80 94 92 36
1.08095
1.07496
0.772448
1.30008
1.40383
0.491985
0.385624
0.846203
0.613237
1.10428
1.08682
1.42741
1.0219
0.518529
0.578987
1.47475
0.869741
0.445221
0.850524
0.773324
0.793761
0.714757
0.460379
1.288
0.397697
0.314493
1.27767
0.316563
0.931347
1.07739
1.23782
0.861012
0.495921
0.756081
0.447706
1.30415
0.440238
0.447349
0.708019
0.781526
1.40798
0.716216
0.406029
0.833707
0.481365
0.945383
0.631744
1.38235
0.576826
1.15501
163 494
59 195
73 373
437 218
164 280
36 441
307 451
164 202
151 291
446 368
466 151
497 164
391 77
374 178
183 479
492 301
6 127
190 45
43 262
430 226
149 117
348 494
50 403
346 395
362 433
46 114
454 239
443 154
199 213
201 496
248 248
64 412
416 231
408 212
370 94
13 327
306 77
298 345
56 128
237 233
315 141
224 32
343 307
129 181
127 494
364 227
388 21
145 91
237 76
137 130
6452.5
2
