50
9
0 0 0 0 0 0 0 0 0
13 42 59 88 29 58 15 67 98
80 37 37 100 94 17 71 57 87
89 28 93 16 92 74 87 25 19
11 86 55 82 46 59 25 39 94
97 65 22 53 69 90 66 44 36
86 82 19 74 87 23 14 49 94
21 81 88 46 84 24 46 77 19
31 72 91 27 75 45 82 80 70
21 95 80 54 74 91 78 36 21
46 11 38 26 64 39 28 29 87
31 80 81 28 58 23 24 85 27
55 11 100 69 66 78 50 44 15
94 20 64 49 18 100 41 71 88
35 76 18 24 55 37 63 61 80
23 92 62 61 37 99 83 12 81
68 96 56 34 37 81 48 49 72
91 67 36 42 31 97 99 47 11
60 33 74 57 39 26 77 92 21
68 66 57 94 78 59 84 57 46
67 97 11 42 60 65 87 32 68
93 57 29 25 74 13 80 43 93
51 78 55 79 24 97 36 29 97
21 47 36 49 89 60 19 48 77
91 26 91 66 26 19 71 11 59
25 93 59 18 43 27 14 48 72
21 17 72 49 31 12 10 57 14
63 40 69 31 71 67 92 36 84
21 55 76 82 76 25 29 99 52
87 97 84 13 82 67 42 18 19
56 80 26 30 74 72 16 75 27
76 28 99 46 52 85 79 41 91
60 91 56 83 79 68 91 18 13
54 27 100 62 59 56 13 23 24
64 66 25 41 74 64 78 84 17
95 70 49 22 89 69 39 33 64
63 46 92 60 64 15 33 99 71
35 31 21 97 81 58 80 93 51
50 100 83 30 59 85 61 66 76
61 61 61 49 90 25 23 75 79
28 93 97 88 46 56 85 28 13
28 82 80 94 97 95 34 39 37
45 18 24 53 33 42 25 69 25
21 62 75 56 64 66 91 28 45
16 55 41 50 48 23 16 14 57
63 31 43 50 31 38 89 52 33
34 78 41 26 55 39 30 99 62
70 14 17 27 87 61 87 64 25
17 56 40 58 36 44 70 32 91
69 35 92 65 37 61 24 17 64
1.75483
1.60783
1.77351
1.28095
0.732482
1.02212
1.63356
1.79768
1.51095
0.83798
0.519344
1.11296
0.975597
1.32383
1.87456
1.97429
0.66055
1.20189
0.778532
0.477477
0.73702
1.96928
1.65195
1.85059
1.0678
1.47354
1.27296
0.829908
1.96709
1.79307
0.77852
1.94009
1.82419
1.52094
0.657551
1.75651
1.33067
1.5918
1.43356
0.503624
1.1162
1.16255
1.89046
1.30687
1.007
1.69987
1.50464
1.95281
0.617777
1.9354
214 91
456 437
147 463
204 191
142 478
128 487
197 440
278 104
107 307
364 358
497 68
377 47
69 79
487 370
144 150
362 279
275 113
423 281
274 324
355 461
10 320
225 284
252 212
461 382
37 293
236 404
270 452
240 156
319 12
9 207
482 149
353 419
455 86
183 75
340 225
307 255
302 303
443 351
321 286
278 332
183 425
390 427
404 41
485 148
224 116
33 120
197 348
356 312
373 316
289 229
3376.25
4
