50
7
0 0 0 0 0 0 0
49 57 95 79 70 84 27
46 28 22 16 77 63 26
10 53 61 19 65 62 43
37 35 13 79 24 45 28
19 32 61 56 29 90 25
47 84 40 85 96 98 37
64 81 35 44 19 48 30
34 12 90 18 62 87 24
62 57 88 99 11 25 30
41 18 76 16 58 74 22
19 11 80 30 93 84 36
53 14 27 38 23 16 89
50 40 29 75 63 96 83
77 74 88 97 24 13 95
28 93 25 35 27 23 46
46 28 83 43 72 47 77
18 70 43 81 46 26 36
13 40 92 50 48 36 81
67 48 30 81 43 40 53
19 89 77 63 100 11 99
83 39 17 30 93 68 31
72 60 15 37 59 38 61
12 53 81 79 49 15 75
83 42 66 30 70 25 80
23 33 70 23 83 93 51
20 64 74 74 60 49 35
82 46 64 19 34 59 72
24 49 58 73 35 39 89
92 43 26 10 30 44 32
56 26 74 61 58 96 66
99 88 40 74 56 80 34
14 79 89 30 95 78 92
70 99 32 77 62 95 19
72 76 42 71 48 43 92
72 99 71 26 62 98 17
32 89 18 51 54 51 13
87 62 19 70 44 95 80
14 55 33 25 19 22 25
22 62 27 53 64 32 26
79 86 73 73 39 38 16
66 57 42 40 55 46 63
78 21 11 29 17 98 72
36 22 41 95 73 23 35
97 78 38 55 95 39 76
12 76 74 15 82 52 87
98 27 24 80 39 49 26
44 94 82 51 100 76 41
23 36 82 57 76 27 22
55 69 76 76 100 66 45
0.639239
2.39336
1.45673
1.03245
0.683149
1.4565
1.2937
2.37554
1.36706
0.769577
2.00242
1.60836
1.85399
2.00444
1.28376
1.4417
1.76388
0.770968
1.61833
0.863261
1.03442
1.5811
1.61554
2.1445
1.21723
1.56088
2.17969
2.47705
1.53694
1.08634
0.794667
0.876284
2.0047
1.96072
1.68581
0.950455
2.44089
0.809913
2.09247
2.0704
1.31762
1.36551
1.63616
1.87583
0.849056
0.631448
1.38535
1.24301
1.79351
1.2491
207 96
300 445
320 331
231 413
210 162
188 161
77 8
397 298
152 246
279 416
363 416
291 133
185 65
220 113
299 342
183 182
480 488
360 337
56 449
358 265
287 498
289 437
300 382
153 206
23 22
152 133
50 120
384 253
16 183
200 479
275 300
422 260
233 438
255 7
183 277
165 405
99 366
337 115
119 417
462 244
75 102
131 301
362 296
81 442
82 337
115 113
209 461
337 496
173 158
141 8
2610
5
