50
9
0 0 0 0 0 0 0 0 0
99 29 43 88 85 19 70 12 99
52 44 34 76 34 53 65 87 50
79 48 65 56 40 68 23 10 96
91 15 33 50 47 52 47 22 32
21 97 78 55 59 21 27 30 98
78 78 59 55 62 29 88 88 71
94 41 37 29 98 60 25 99 28
76 44 87 30 10 15 90 78 54
13 80 85 70 24 13 39 77 34
81 36 63 52 72 93 97 20 79
79 88 39 36 28 16 21 88 76
17 29 85 98 14 14 65 23 15
38 13 66 96 62 25 29 28 40
82 78 26 91 22 50 97 75 23
50 39 61 18 10 87 82 40 54
61 54 51 96 26 91 80 82 59
66 38 80 93 65 70 34 66 25
68 15 14 58 64 13 94 91 40
40 68 50 11 16 17 78 98 68
20 92 100 35 81 31 12 33 50
17 65 20 99 15 67 81 14 92
80 57 53 35 34 12 16 47 22
33 24 85 89 13 27 93 95 35
10 84 27 20 55 75 69 18 56
58 59 34 93 14 99 35 28 97
61 96 66 38 46 55 21 11 54
25 94 52 76 19 68 93 32 67
57 64 14 92 29 85 25 93 57
12 19 81 38 100 13 34 33 90
71 100 10 85 83 77 29 36 64
73 97 81 63 85 100 22 93 28
24 96 61 40 17 10 85 10 12
52 28 17 95 41 69 38 43 90
88 29 60 14 93 14 65 94 97
70 11 24 77 16 54 23 17 42
10 28 99 19 19 68 47 52 51
72 81 14 54 68 86 96 18 95
71 99 86 53 78 23 77 23 51
67 38 66 27 93 66 10 47 77
16 23 50 99 75 20 56 19 78
100 51 12 30 44 61 58 11 25
25 17 94 75 90 75 98 30 35
72 16 23 83 73 40 36 34 50
72 35 96 52 79 98 45 85 81
48 61 65 28 88 45 31 55 40
95 25 73 32 43 25 11 11 82
57 29 60 54 77 85 69 76 49
72 66 85 24 47 82 27 61 87
88 77 47 25 61 37 47 55 17
1.27466
0.971266
0.725664
1.01344
0.846933
0.925755
0.5453
0.706352
0.938651
0.502454
0.977306
0.361804
0.682338
0.844368
0.748074
0.731874
1.44277
0.609628
1.16908
0.739314
1.4349
1.24884
0.863802
1.16764
0.551117
0.643804
1.38472
0.645762
1.30086
0.663886
1.3878
1.12653
0.496688
1.46042
1.49109
0.53295
1.26646
0.579573
0.981093
1.35683
0.375168
0.730094
0.307053
0.31275
0.878762
0.898851
1.01726
0.401902
1.0691
0.93317
246 356
9 254
339 395
360 281
57 217
81 115
144 348
193 188
452 346
174 122
326 210
186 226
82 376
444 204
124 173
371 273
179 427
137 125
434 10
348 460
234 402
12 257
477 401
23 281
494 356
151 75
9 302
314 265
19 205
495 375
360 76
302 46
376 216
386 267
54 251
394 220
7 79
306 344
145 169
296 88
341 315
135 232
382 390
190 248
77 447
84 381
334 34
258 326
252 366
197 68
3290
4
