50
11
0 0 0 0 0 0 0 0 0 0 0
70 78 10 87 33 21 45 38 78 73 46
62 74 59 89 68 33 42 35 49 74 94
36 39 39 49 50 39 29 13 46 100 89
50 18 31 81 42 61 10 42 19 26 98
75 93 19 38 50 23 25 29 56 37 46
78 11 84 27 13 82 67 55 56 24 27
29 35 57 28 14 45 76 22 23 33 52
62 94 32 97 15 34 87 94 59 48 34
42 24 35 78 85 48 72 82 40 97 99
52 58 26 22 57 73 33 90 58 99 39
88 40 48 97 97 78 41 91 96 18 46
66 19 85 74 70 64 81 20 97 32 89
80 22 69 52 39 100 97 64 59 80 90
44 21 50 64 14 43 28 96 96 58 36
53 30 50 52 36 77 20 27 56 24 12
63 51 39 22 32 78 94 57 75 76 93
56 32 78 94 72 93 55 75 58 26 28
58 72 46 28 94 88 77 76 12 100 49
83 99 39 56 21 72 20 67 99 21 12
95 57 38 38 28 70 35 38 43 51 35
17 20 23 11 72 35 84 52 38 55 10
37 76 56 97 36 83 49 43 48 29 97
48 99 22 81 13 91 50 62 29 10 28
62 58 15 43 88 82 52 88 63 62 15
15 12 30 46 26 91 29 57 17 52 80
91 33 66 65 97 17 76 58 93 44 67
65 12 15 86 35 74 53 54 70 89 27
27 28 14 44 63 54 98 38 64 33 41
17 87 29 18 25 30 24 27 47 58 20
36 17 91 57 74 10 61 29 69 15 43
80 66 84 47 56 62 18 43 73 72 39
87 30 98 81 53 62 52 74 82 45 43
94 80 22 46 47 93 99 11 85 56 72
32 45 11 17 45 79 70 78 55 19 43
82 22 81 96 98 78 50 96 31 60 47
21 39 53 80 51 18 11 70 26 46 36
15 78 95 82 39 55 31 88 36 43 91
28 47 30 35 67 53 16 20 11 72 96
100 84 61 15 24 80 91 62 95 84 15
29 41 64 21 47 58 40 21 68 69 76
32 87 45 68 14 67 84 66 13 97 75
83 33 96 87 74 62 100 54 34 81 36
95 97 37 57 56 86 25 70 49 35 40
68 68 53 32 84 59 87 85 82 19 95
95 98 16 13 15 48 35 87 70 17 20
97 28 73 97 39 87 21 81 18 29 65
49 96 78 98 36 24 27 88 36 55 82
63 12 32 99 25 14 42 17 50 64 76
16 29 54 93 83 21 34 15 23 36 47
1.55479
0.886331
1.79432
1.48983
0.655242
0.698462
1.64522
1.0949
1.94981
0.908836
1.85019
0.700731
1.7939
0.604356
1.09157
1.96008
1.40522
0.5848
0.430443
1.24916
0.823203
1.34959
1.97298
1.03843
0.664244
1.85672
0.87423
1.38577
0.416597
1.72378
0.762695
1.57053
1.43679
0.857902
1.83626
1.79128
0.995653
1.68885
0.844762
0.787854
1.99453
1.61601
1.79866
1.40961
1.31605
1.84985
1.68871
0.612238
1.6352
1.42814
223 237
82 156
35 363
144 113
0 228
108 266
358 210
373 145
423 59
423 124
236 187
56 319
0 43
83 320
385 153
23 244
237 123
294 43
284 421
450 130
163 194
495 490
318 367
357 361
16 356
206 249
403 435
419 62
286 453
451 261
125 354
88 222
231 230
110 75
361 393
211 102
1 406
233 484
20 405
248 271
104 483
290 1
322 121
133 441
235 479
93 463
428 246
463 380
491 65
392 162
2636
5
