50
7
0 0 0 0 0 0 0
80 65 23 14 63 83 82
82 26 62 59 27 51 88
42 52 47 19 82 81 99
80 84 85 97 66 97 54
53 37 45 47 80 27 16
42 44 78 88 95 81 78
49 98 14 90 52 30 71
65 25 84 88 34 31 63
18 74 80 10 44 76 15
53 43 80 100 13 57 21
14 26 37 29 89 37 68
29 51 25 88 38 14 28
33 100 24 92 92 58 32
100 90 26 18 12 91 43
54 24 20 49 73 38 90
91 97 98 32 53 86 40
29 50 84 95 88 53 81
65 30 23 45 35 61 22
50 98 59 23 53 83 74
50 95 22 85 67 15 87
65 99 40 100 72 11 11
68 25 67 85 95 84 42
16 98 43 57 13 15 69
10 22 26 50 70 59 85
39 30 81 64 59 37 37
94 13 95 47 16 100 90
18 10 52 30 80 51 35
13 77 96 85 74 34 73
96 71 81 34 92 44 73
46 82 34 52 77 15 41
20 71 11 16 89 42 50
78 55 52 34 38 36 83
75 48 100 37 40 96 58
31 52 55 42 85 40 27
91 15 16 53 42 23 83
25 65 96 81 30 52 61
15 83 93 26 58 94 96
63 18 97 49 56 88 81
89 62 10 77 77 27 89
99 79 83 76 41 86 18
41 27 94 78 11 48 54
75 91 34 36 32 11 25
60 22 30 83 99 95 51
62 41 57 54 13 68 52
60 33 64 51 51 88 21
52 94 72 38 69 87 31
37 94 91 51 87 30 48
45 81 37 61 72 68 27
27 21 44 94 87 22 34
0.384524
0.468993
1.46704
0.371621
1.14613
1.35246
0.3735
1.20739
0.670515
0.876903
0.525752
0.942002
0.920578
1.06042
1.43034
0.716585
1.00036
1.21664
0.539482
1.06542
0.392327
0.803763
1.04136
0.367059
0.652208
0.795701
0.464055
1.19263
1.24426
0.787877
1.10441
1.09785
1.13195
1.31495
0.980861
1.41392
0.94369
1.22683
0.478202
1.39444
0.776632
1.06279
0.807613
0.621244
1.49653
1.17273
0.999146
0.650751
1.06625
1.44444
445 337
0 188
276 461
495 476
102 139
37 199
88 135
437 481
345 442
439 15
384 77
455 72
277 232
312 261
126 270
28 84
375 438
408 317
108 471
134 234
272 232
384 185
14 212
34 191
125 350
237 46
200 369
239 54
257 232
348 214
498 60
125 475
164 439
89 116
144 312
285 71
392 281
12 306
286 167
370 365
338 478
479 273
130 170
108 480
456 217
483 430
326 114
306 203
338 115
445 347
2747
5
