50
9
0 0 0 0 0 0 0 0 0
75 80 36 15 27 46 42 37 48
96 75 17 79 11 36 15 38 62
88 14 28 63 22 42 22 19 33
61 94 24 87 23 70 55 64 91
44 10 30 43 68 31 29 38 25
17 23 87 23 26 24 95 20 18
42 47 18 66 51 12 64 58 43
75 89 74 34 52 27 74 19 36
23 11 26 34 84 23 77 59 85
42 40 31 31 75 88 55 84 46
60 83 11 22 95 77 13 59 62
93 18 44 56 95 87 76 16 75
59 72 93 26 51 72 57 99 61
57 24 16 19 26 30 86 52 100
28 18 99 74 43 98 33 53 40
45 18 16 71 67 24 17 80 53
77 39 61 58 20 56 65 61 34
70 10 98 44 47 42 90 12 71
99 57 64 71 44 57 56 94 49
43 28 44 78 40 98 100 43 91
65 85 84 45 66 84 48 24 82
42 42 30 92 45 30 15 19 97
12 44 21 44 80 85 68 35 15
83 91 72 39 32 50 53 11 91
68 14 70 51 50 80 95 19 96
78 68 94 43 78 17 23 63 23
19 89 89 52 93 67 87 57 38
65 29 73 39 68 45 19 30 94
61 80 77 78 23 39 25 84 65
52 16 29 75 32 70 70 43 54
98 95 15 72 43 98 88 64 99
11 82 50 95 63 91 56 68 50
29 88 54 53 90 23 58 17 23
32 45 47 76 41 100 41 17 68
62 15 15 76 98 12 68 78 57
12 31 13 87 53 19 94 17 17
88 40 34 31 62 96 91 62 43
36 55 56 10 20 54 52 35 33
61 79 23 37 44 93 14 68 49
52 27 13 82 100 32 38 76 13
84 17 80 65 39 40 20 14 86
10 57 32 79 78 43 99 50 84
52 12 95 88 82 65 47 33 53
72 35 53 66 61 83 82 56 21
62 89 11 73 15 85 11 67 82
53 13 62 66 48 71 77 66 29
55 82 91 52 79 73 49 10 18
50 73 60 58 37 15 11 67 75
59 29 30 52 53 64 71 77 65
0.996345
0.914738
0.249793
0.412907
0.862628
0.714475
0.684739
0.445431
0.45135
0.447763
0.781708
0.732654
0.780287
0.717726
0.432533
0.987637
0.63128
0.704523
0.314602
0.363499
0.34314
0.839364
0.797829
0.655867
0.969795
0.646114
0.850416
0.909798
0.48741
0.808848
0.993976
0.772087
0.521283
0.444829
0.787179
0.527592
0.897662
0.968263
0.688361
0.678515
0.484322
0.827011
0.437447
0.483482
0.220452
0.782557
0.893972
0.569929
0.999344
0.88453
320 181
152 470
499 286
128 372
439 84
326 367
123 63
39 332
475 406
378 159
489 434
187 229
1 485
358 253
405 365
215 344
156 150
257 324
37 405
275 116
28 166
129 144
248 101
317 137
260 78
234 178
280 187
450 457
329 191
181 64
415 11
492 48
483 60
341 377
453 360
285 380
125 37
181 68
78 156
89 312
87 449
77 264
140 22
280 205
262 221
318 67
346 420
72 453
263 281
261 363
4336.67
3
