50
5
0 0 0 0 0
89 88 96 24 75
70 46 28 99 88
90 95 35 97 21
53 36 37 29 90
29 91 94 61 80
18 14 28 83 37
75 12 38 84 11
87 98 21 25 57
26 90 36 20 29
77 87 59 43 89
32 41 13 71 21
17 89 49 56 100
77 83 68 64 51
20 70 60 65 28
31 52 90 91 35
83 12 53 74 97
36 65 20 93 66
15 55 84 63 40
88 57 81 80 78
79 94 76 63 90
88 42 82 25 88
89 100 54 29 42
59 31 20 76 82
88 15 69 52 56
98 35 10 69 85
35 75 90 42 78
12 54 70 90 97
53 18 70 49 61
38 60 80 64 53
30 96 44 92 86
25 24 67 26 96
83 93 75 77 67
94 56 83 15 96
20 26 54 82 49
69 13 95 98 84
80 16 99 66 27
14 89 24 52 94
79 10 78 33 42
82 49 47 22 88
61 12 72 84 81
67 66 16 97 36
94 97 74 46 58
61 19 97 100 28
23 90 21 45 65
23 19 19 83 97
62 55 29 94 91
77 58 33 52 21
35 66 40 93 28
30 78 73 53 28
0.866689
1.16928
1.76405
1.19055
2.26984
1.26029
1.64292
2.311
2.43882
1.73582
2.06448
1.59547
2.33712
2.41518
1.55456
0.816304
0.857144
1.86695
0.610273
2.20454
0.630906
1.04755
2.12669
0.883447
1.3564
2.35291
1.96424
2.02514
2.19497
2.49032
1.9758
2.499
2.09356
1.42323
1.1287
0.541696
1.80529
1.31461
1.71904
1.33693
1.29519
0.526251
0.756476
1.34448
2.45524
1.25785
0.855261
0.898433
1.49469
0.70673
280 119
153 309
30 284
109 344
244 150
426 167
218 283
33 410
109 322
57 296
202 66
225 117
46 113
300 497
380 51
359 320
191 107
253 184
499 498
92 6
494 71
49 218
114 185
107 284
474 157
269 328
457 298
309 315
236 58
312 304
14 176
303 11
108 390
315 216
362 473
124 85
60 403
69 81
182 281
18 46
410 463
493 10
90 177
413 241
313 95
127 422
150 258
202 78
239 484
173 227
3606.25
4
