50
11
0 0 0 0 0 0 0 0 0 0 0
61 36 46 91 57 99 76 43 63 97 13
96 92 72 23 80 73 87 46 48 23 84
58 51 18 35 15 17 46 98 94 56 100
53 68 27 94 25 55 63 76 71 32 69
19 65 57 54 18 86 18 64 87 89 26
73 39 100 55 48 70 47 29 60 85 30
53 70 92 77 54 39 94 14 88 10 44
43 40 75 58 51 46 30 56 77 25 28
75 13 14 29 68 65 85 80 63 77 67
66 74 14 29 63 26 98 42 39 17 46
23 56 71 86 92 96 22 41 20 34 51
58 91 54 16 49 38 31 45 29 26 47
49 93 24 74 92 97 47 54 94 44 47
33 67 46 86 44 97 33 84 69 99 63
48 43 15 80 94 75 41 61 76 66 91
43 99 23 87 100 79 91 31 80 80 17
18 10 73 52 60 51 10 28 97 85 58
28 96 20 41 58 36 25 67 10 60 12
93 89 44 23 57 36 32 14 45 72 33
36 60 29 50 69 88 79 68 92 54 54
46 13 100 66 33 30 37 62 30 52 14
83 99 53 79 76 37 81 27 61 96 25
49 77 43 20 24 33 73 80 20 87 81
86 30 70 78 98 94 38 10 48 13 47
99 40 58 10 44 31 35 34 18 43 20
56 79 37 97 89 51 73 18 75 71 43
66 36 54 20 94 12 65 79 11 18 56
82 63 53 14 17 34 41 18 56 88 78
47 65 16 73 29 46 22 13 85 91 90
25 72 64 69 79 45 73 29 60 56 92
22 71 90 66 89 81 74 10 93 52 100
97 68 84 13 33 27 18 97 98 96 60
16 62 10 98 90 28 75 19 86 80 44
23 14 86 96 25 92 20 10 33 65 54
73 40 15 81 10 51 17 45 28 47 86
13 66 45 42 57 44 44 24 20 39 64
97 45 12 40 16 89 64 39 77 42 65
45 77 66 43 74 69 77 37 64 63 35
47 55 25 34 16 82 97 75 49 72 63
13 48 92 99 95 79 91 90 62 62 65
91 67 29 70 95 39 43 18 46 35 60
85 15 77 66 32 39 50 22 50 100 58
73 68 50 92 99 15 48 19 11 19 48
55 62 18 83 20 19 35 19 38 85 59
46 58 83 45 12 73 11 77 68 38 83
48 53 40 39 91 58 50 65 78 44 64
26 49 98 47 13 42 64 81 60 94 54
47 80 62 94 14 78 33 20 12 46 85
29 73 62 68 62 71 36 70 55 38 26
1.24567
2.46757
1.21723
1.75022
1.03488
1.64479
1.32293
0.990284
1.72231
0.665408
0.866777
1.25112
2.03263
1.94046
1.35871
2.18534
1.23888
0.746863
0.750918
0.954153
1.30136
2.488
0.805408
2.04915
1.91647
1.30923
2.35265
2.29405
1.58973
1.08167
1.05556
2.09052
0.746971
2.38206
1.02111
0.519555
2.07764
0.839465
2.10159
2.43299
0.880191
1.53592
1.30876
2.28285
1.63779
1.06871
2.29758
1.51939
2.27358
1.58261
422 19
302 151
352 66
277 359
39 23
19 262
209 226
170 494
499 92
144 326
333 24
58 192
191 372
87 200
269 179
201 261
29 449
163 174
103 186
407 399
344 397
315 124
15 226
251 276
295 425
191 294
61 181
48 291
291 256
169 447
385 260
351 4
194 487
155 168
96 149
222 288
284 159
222 347
346 212
48 80
192 226
163 263
38 100
281 237
442 368
10 422
173 35
162 366
372 414
446 132
3353.75
4
