50
7
0 0 0 0 0 0 0
72 34 22 67 14 39 22
30 60 79 96 77 12 100
87 86 40 37 54 71 97
78 67 61 22 53 27 95
99 85 11 12 53 87 35
25 93 80 19 63 80 27
51 18 98 39 13 52 20
90 99 40 14 97 33 92
77 80 60 42 73 92 94
72 17 13 17 29 54 88
95 20 54 52 41 68 61
79 40 84 51 19 52 12
66 85 92 79 59 57 98
20 22 40 89 23 87 63
22 70 100 93 50 31 64
22 52 43 32 95 28 15
74 51 85 19 54 86 46
94 97 67 68 23 49 35
85 13 32 73 61 21 85
49 74 62 53 78 77 49
11 33 56 37 58 25 95
56 14 100 39 89 52 41
66 37 63 51 40 67 27
62 49 81 65 26 23 96
73 78 38 83 90 32 19
66 62 87 98 69 75 61
61 32 11 81 99 23 43
27 38 88 38 60 55 13
77 96 22 20 36 38 23
72 37 13 55 82 23 34
20 27 20 41 47 100 83
98 18 89 90 48 100 46
12 41 35 51 68 67 67
31 99 82 84 86 84 66
24 40 28 91 11 52 85
90 28 43 22 57 78 26
87 10 80 68 26 12 79
37 97 16 30 60 89 64
100 40 72 34 74 49 52
69 33 99 98 18 89 52
84 86 78 54 14 27 69
39 96 98 64 11 35 77
81 56 10 55 74 54 27
83 77 77 15 13 76 33
53 31 100 44 29 45 67
58 22 27 76 56 48 89
68 44 18 11 43 38 11
33 94 44 49 31 46 78
17 47 61 42 28 37 34
1.87811
1.52896
1.47797
0.414036
1.81528
0.416329
0.734872
1.42794
1.63789
1.02414
1.51208
1.98033
1.14203
1.39718
0.792169
1.05556
1.44855
1.9462
1.66493
1.57228
0.597784
1.18945
0.769447
0.416757
1.23534
0.889361
1.36622
0.970571
0.693492
1.04665
0.44729
0.604952
0.942723
0.421977
0.98419
1.73939
0.981941
1.58386
1.11009
1.28408
1.5582
1.58247
0.563117
0.736789
0.978507
1.40354
1.22479
1.69143
0.530467
1.90487
30 475
335 353
389 201
340 452
404 492
317 405
152 314
186 236
486 116
182 38
183 244
334 140
222 274
365 144
125 407
334 212
304 379
266 446
306 251
337 47
96 80
8 436
245 214
353 238
262 486
376 296
498 263
238 283
194 221
421 74
179 456
390 271
445 235
169 294
204 221
68 50
76 245
419 308
194 305
436 346
409 357
325 241
248 30
274 21
89 84
264 449
125 63
164 186
313 260
252 463
6712.5
2
