50
7
0 0 0 0 0 0 0
75 54 37 54 32 77 42
55 65 39 35 12 36 100
96 94 90 74 87 29 55
39 30 87 96 96 93 59
82 73 20 87 41 40 33
52 97 20 79 74 28 75
92 75 13 49 84 14 40
68 94 43 68 17 20 70
68 48 64 19 73 49 21
35 52 26 72 43 79 22
20 100 52 84 23 88 93
27 69 98 57 90 73 52
16 77 79 51 36 82 21
99 18 34 36 41 59 22
36 81 15 23 41 23 46
72 22 89 10 48 25 21
43 14 63 37 37 23 96
70 88 57 53 13 46 13
17 83 76 14 83 66 18
72 83 49 43 10 37 57
32 15 71 30 90 43 36
73 68 30 73 71 55 51
61 30 58 47 24 49 81
29 50 72 54 72 44 94
27 50 92 74 12 97 100
82 100 72 65 14 100 20
37 73 15 17 65 38 45
94 90 96 31 93 22 18
67 95 31 73 47 64 11
85 84 88 55 61 21 90
47 27 86 79 14 90 94
60 74 57 80 47 87 66
55 57 22 34 54 38 45
26 80 78 12 40 50 87
29 96 26 87 53 61 40
21 43 94 66 38 35 32
29 84 93 93 25 75 50
20 23 45 74 69 50 48
87 32 70 69 32 57 75
90 56 29 83 87 16 88
55 29 78 96 42 28 86
44 82 69 17 35 45 48
99 94 99 15 65 76 91
89 89 10 80 80 90 48
39 50 45 18 26 96 73
42 20 60 90 12 35 61
20 29 87 24 74 51 19
81 74 51 82 90 42 55
62 18 89 87 25 69 37
0.774086
0.474661
1.98501
1.95296
1.58028
0.92835
0.606671
0.553125
1.56414
1.84293
1.47459
1.79946
0.867921
1.83921
1.35114
0.639844
0.827608
1.97919
0.436004
1.1606
1.84222
0.791569
1.84811
0.649298
1.85149
1.8162
0.823342
1.81508
1.15462
0.986886
1.46727
1.89785
0.725835
1.45501
0.680192
1.81823
0.90412
0.502925
0.868026
0.917408
0.593752
0.781271
0.599148
1.57273
1.57783
0.403202
1.73657
1.35639
0.872405
1.52005
389 21
30 120
43 108
453 283
263 191
194 53
49 203
419 166
15 234
18 23
192 275
244 397
238 218
120 402
471 483
443 284
331 136
233 239
389 450
357 458
179 320
350 216
121 242
483 141
137 71
352 60
310 124
157 82
227 123
141 66
445 39
148 178
430 106
372 157
50 370
179 287
469 379
66 306
1 194
173 271
154 449
469 64
209 68
60 42
486 225
166 472
451 36
432 90
94 209
259 35
2721
5
