50
7
0 0 0 0 0 0 0
69 79 18 11 35 11 96
24 64 79 86 92 74 100
70 72 28 92 12 20 28
48 87 19 42 43 90 51
39 80 88 13 33 42 37
28 42 38 56 66 36 37
64 19 20 95 100 18 87
50 51 64 96 24 59 54
72 99 100 78 32 32 75
65 82 25 78 91 89 56
49 93 64 78 66 14 87
83 28 87 62 94 55 10
93 57 71 77 78 91 27
27 15 12 24 70 37 55
92 13 31 31 36 92 16
33 42 91 61 66 20 15
23 98 26 48 13 20 29
79 32 43 43 79 17 35
58 10 25 71 90 76 99
51 17 87 62 63 23 84
66 95 99 45 72 95 33
18 98 84 100 46 65 76
23 86 35 93 49 81 73
94 71 19 93 100 90 11
10 37 49 81 13 25 32
71 38 12 38 95 40 18
87 59 89 50 14 21 34
64 85 50 99 95 10 39
82 48 34 79 74 94 53
12 72 14 29 52 19 80
91 85 58 31 58 61 16
88 38 61 61 94 64 71
48 63 18 16 81 79 10
20 99 42 73 58 57 63
83 58 47 47 61 55 28
73 35 53 28 82 45 96
55 20 83 24 64 99 76
71 30 35 58 52 24 45
80 98 98 30 44 58 94
34 50 43 74 95 62 96
29 74 83 82 59 76 69
42 16 16 68 40 65 45
82 70 56 21 52 59 56
53 93 34 88 76 59 87
26 54 10 89 15 51 32
65 77 22 25 58 40 21
66 64 56 69 29 54 90
24 15 69 91 72 14 47
23 21 30 66 50 47 56
1.35391
1.96603
1.51411
1.37083
1.80231
1.56805
1.42095
1.69192
1.31732
1.77843
1.19451
1.55536
0.670508
1.80091
1.1358
1.28317
1.45463
0.403532
0.739966
0.942082
0.412189
0.540996
0.401095
1.08359
0.825137
0.667134
1.13828
1.39514
0.685182
1.14755
1.44164
0.749827
1.07907
0.495687
1.62615
0.94209
0.519597
1.37374
1.19657
1.40871
0.595099
1.89295
1.92267
0.677451
0.713636
0.56086
1.27071
0.899391
1.24914
0.935948
480 392
34 271
157 217
299 406
369 180
291 273
55 434
249 319
204 367
359 112
341 101
66 218
58 205
477 84
239 297
364 110
251 186
68 81
457 276
90 76
200 435
367 52
173 493
271 190
422 225
464 488
253 212
149 16
212 200
294 33
409 129
214 395
164 494
182 65
125 410
426 347
37 441
109 433
162 120
96 36
470 336
420 473
494 344
22 139
332 426
38 244
398 118
316 78
63 496
183 227
13550
1
