50
11
0 0 0 0 0 0 0 0 0 0 0
85 35 70 51 95 21 76 43 46 25 96
22 48 65 87 70 33 81 75 44 62 37
97 91 93 40 52 14 83 69 52 66 100
96 65 73 15 79 18 43 73 62 93 26
67 18 46 71 10 52 16 55 96 66 67
52 63 30 67 90 78 20 97 91 60 82
73 54 75 60 87 53 97 53 66 89 76
36 86 14 56 86 44 72 19 44 65 81
81 98 12 51 30 81 63 12 47 34 50
60 43 45 53 26 78 10 67 39 74 24
11 80 10 47 82 15 29 75 23 54 24
35 61 64 74 54 73 37 93 24 47 99
24 67 44 42 52 21 66 32 88 51 21
97 82 88 60 34 43 83 75 26 51 47
97 91 97 29 34 73 71 14 97 67 24
99 35 27 91 66 41 47 84 30 53 67
20 66 56 52 77 23 39 73 84 89 83
63 63 33 85 44 44 58 77 81 40 89
98 80 45 94 22 62 100 56 77 11 42
88 42 63 94 58 25 89 98 17 91 34
80 66 30 20 74 49 65 10 87 32 92
29 65 82 88 80 41 41 32 43 77 25
39 90 66 42 19 42 59 34 92 41 63
93 75 49 15 33 22 14 51 68 13 11
23 15 75 84 44 48 27 19 75 25 39
93 33 76 82 29 31 25 10 71 50 100
92 10 26 46 98 14 33 11 21 38 30
83 97 91 53 76 56 18 69 61 20 96
57 50 90 84 66 85 64 74 93 14 43
79 22 96 59 67 28 68 53 49 33 32
74 67 30 16 10 23 96 65 82 28 44
68 97 35 77 11 64 83 94 68 92 63
65 84 40 73 39 79 16 63 51 96 33
80 57 72 48 49 45 12 73 19 92 79
73 89 58 48 15 52 96 55 32 93 41
20 70 28 34 97 64 86 29 43 24 13
97 96 44 95 99 59 53 28 59 99 47
64 66 21 32 51 83 41 44 90 67 33
10 37 75 26 75 31 40 83 34 70 31
18 26 83 34 73 26 93 64 53 16 78
69 52 72 18 74 65 46 34 28 64 85
26 70 95 44 52 79 15 42 10 21 92
32 63 63 82 50 57 55 56 21 98 12
44 26 64 93 85 92 55 60 90 36 46
63 64 27 64 99 96 85 78 45 29 48
25 64 28 85 18 88 72 47 83 28 15
92 99 99 33 91 79 19 77 100 45 52
67 88 23 62 40 43 56 35 31 36 75
40 72 100 27 67 23 53 83 18 21 26
0.551109
0.524899
0.765658
0.786799
0.824016
0.814611
0.636137
0.663051
0.549432
0.427523
0.796039
0.675357
0.26899
0.95543
0.611974
0.941106
0.230858
0.575663
0.683065
0.647575
0.468171
0.864678
0.485918
0.67278
0.327107
0.749657
0.557075
0.445464
0.546654
0.484547
0.201247
0.240655
0.214533
0.934459
0.238344
0.740758
0.880089
0.87273
0.76533
0.646181
0.896777
0.229543
0.568196
0.848687
0.447865
0.459141
0.290908
0.85602
0.902718
0.693701
347 256
341 408
93 191
1 476
424 459
130 201
289 267
400 291
54 385
110 500
112 352
216 22
304 250
337 213
264 421
177 168
11 253
58 199
201 225
493 248
141 432
405 358
22 417
233 275
429 368
359 479
349 386
26 258
271 291
364 338
109 303
275 21
80 278
60 433
159 0
450 315
194 221
164 477
121 286
325 416
160 166
158 379
240 89
229 221
175 178
492 106
148 425
71 38
495 57
0 89
4583.33
3
