50
7
0 0 0 0 0 0 0
99 90 79 91 48 56 55
62 32 67 30 14 69 47
89 10 85 78 58 88 75
65 72 13 100 48 85 83
66 57 99 22 32 82 32
27 21 79 49 66 29 86
67 63 66 95 34 57 51
100 75 46 58 11 34 67
100 88 18 13 72 61 74
38 94 100 18 58 73 29
26 12 43 16 55 47 81
90 73 54 41 51 14 81
77 70 35 90 85 18 85
11 31 59 15 26 29 93
89 29 55 34 79 49 73
93 51 64 66 95 42 87
63 76 60 46 32 24 21
60 89 36 57 40 39 98
82 68 89 93 38 92 99
56 13 95 15 46 76 47
27 82 16 98 42 16 98
93 40 84 92 63 52 56
96 75 99 33 24 92 88
25 12 88 10 30 89 52
26 23 96 40 42 43 67
15 70 21 63 36 86 80
65 96 69 66 31 77 84
50 84 85 47 48 51 61
97 40 53 98 68 66 26
38 57 38 61 24 46 83
40 73 63 24 65 72 55
51 67 100 96 49 92 23
61 69 53 99 14 16 45
63 21 80 21 26 65 29
97 88 39 72 35 86 37
36 47 77 36 79 79 20
67 75 84 30 35 96 24
34 62 10 27 42 79 38
72 18 26 11 60 58 43
49 19 68 86 99 59 43
21 52 100 20 23 99 30
72 49 39 76 64 70 73
53 82 77 24 77 26 70
67 96 93 47 46 69 67
79 18 44 35 34 18 53
54 68 95 82 76 62 23
17 51 59 30 28 86 60
84 97 97 36 25 81 43
29 46 47 58 65 89 10
2.30962
0.508717
1.91431
0.96782
1.5993
2.07091
1.26062
1.25076
2.41366
2.08455
0.593992
1.08443
0.57213
1.26102
0.624081
0.627039
1.92116
2.29997
0.581236
1.90392
2.01285
1.60648
1.66584
1.24367
2.45954
0.99085
1.26411
0.85813
1.71049
2.16698
2.00806
1.95207
0.879002
1.36308
1.47677
1.42367
2.20864
1.82958
1.80954
1.91777
1.38684
0.783486
0.531685
1.07021
0.547391
2.25816
1.8562
1.54529
1.57272
1.70345
215 39
450 422
331 419
257 370
430 254
477 493
451 411
167 163
440 417
410 151
392 404
246 68
146 202
167 492
125 189
498 424
227 425
19 249
435 19
192 151
88 436
76 54
25 365
196 228
490 285
5 83
337 153
264 326
162 456
382 388
385 304
330 152
300 241
5 278
108 261
208 463
287 446
418 446
97 477
262 452
229 80
116 266
186 251
192 181
402 458
87 80
331 319
335 25
218 34
482 372
6992.5
2
