50
11
0 0 0 0 0 0 0 0 0 0 0
17 86 10 61 61 47 33 61 43 29 16
28 79 100 43 53 41 82 39 65 22 35
57 75 47 96 98 57 14 93 63 31 84
47 26 43 34 68 38 47 84 48 54 98
33 43 60 58 81 98 57 88 61 71 12
34 42 68 69 84 97 86 100 68 64 34
15 23 69 58 77 88 80 77 90 41 17
43 94 19 59 36 64 43 41 25 74 87
28 44 10 37 26 15 57 13 57 70 80
60 93 41 87 68 97 46 12 29 36 88
52 91 23 79 69 49 10 99 27 72 60
92 12 10 54 45 88 75 13 37 10 66
54 83 48 16 37 17 44 56 28 74 28
87 43 24 78 77 45 24 80 46 98 27
64 77 76 95 71 34 26 75 85 62 24
12 41 32 35 99 70 23 82 94 93 58
98 18 39 90 84 99 83 48 17 77 96
52 55 14 19 78 96 73 89 80 35 75
71 37 59 53 59 92 32 19 69 38 27
33 71 15 86 47 28 73 29 36 60 98
55 65 75 59 91 16 59 69 30 39 24
100 85 62 38 45 55 84 62 53 48 66
63 65 26 40 90 40 97 82 89 35 44
24 52 14 26 68 10 58 83 71 40 75
88 61 33 88 26 62 98 68 71 57 61
85 23 20 58 13 81 56 71 35 34 67
12 70 96 23 72 77 38 15 93 52 84
99 98 87 37 42 52 98 76 34 24 40
82 30 53 95 81 37 63 28 61 51 44
66 50 51 16 81 76 25 55 68 48 94
60 18 55 80 87 59 42 18 75 49 66
30 89 21 18 81 24 44 80 62 22 10
70 18 67 12 55 85 87 80 51 22 32
65 99 72 26 72 62 69 45 96 77 57
48 18 72 98 99 84 75 89 55 69 42
67 85 53 79 60 17 51 36 46 20 79
64 74 32 34 42 63 12 46 83 66 46
74 77 88 21 80 29 15 99 100 89 17
31 91 23 86 54 65 53 39 28 41 93
32 100 16 45 23 10 47 91 57 79 83
36 38 22 20 41 39 70 80 25 26 27
25 90 57 28 96 52 66 38 45 41 62
81 26 10 95 98 63 92 10 44 18 32
22 61 83 49 83 24 56 19 60 98 13
98 10 10 10 44 21 63 96 15 41 77
86 40 38 20 82 19 20 80 99 18 47
74 58 72 73 50 47 52 44 63 32 33
46 78 29 87 96 97 74 68 80 68 59
31 95 68 99 90 48 63 22 36 43 85
0.77949
0.709515
0.922134
0.846672
0.491341
0.599227
0.823164
0.963257
0.875945
0.268247
0.531153
0.904686
0.620231
0.30963
0.262637
0.446624
0.963951
0.692969
0.847139
0.412783
0.276726
0.866417
0.52456
0.653057
0.398517
0.965086
0.825972
0.50779
0.514809
0.759252
0.681814
0.962776
0.881172
0.902846
0.414711
0.5019
0.97592
0.202888
0.559128
0.754843
0.582278
0.935213
0.54663
0.484883
0.306413
0.88678
0.456934
0.310716
0.732476
0.559654
96 435
440 412
335 386
336 373
174 362
13 280
186 426
78 364
333 346
274 483
355 39
48 117
433 151
363 142
187 178
247 457
111 374
398 393
338 356
415 129
108 382
148 281
87 306
151 211
465 264
325 203
229 4
366 400
375 185
484 4
52 253
235 394
419 390
307 228
136 42
146 345
50 478
94 409
126 90
442 461
222 281
479 323
314 430
409 319
52 226
239 341
429 154
396 312
437 425
8 224
6805
2
