50
5
0 0 0 0 0
89 53 65 35 17
49 59 20 98 47
75 19 75 26 62
22 24 80 96 76
61 36 77 78 72
13 49 32 52 48
57 12 70 22 75
22 60 11 26 83
71 34 54 91 63
39 92 90 83 12
76 42 72 36 47
87 61 41 41 45
55 96 42 100 80
47 37 63 49 96
88 54 68 85 33
98 24 54 21 100
38 27 69 10 87
72 91 76 42 75
28 91 58 81 77
51 91 10 43 36
40 28 17 60 92
56 23 40 93 60
32 69 69 85 73
61 70 77 29 57
30 64 31 74 96
26 63 66 99 95
95 80 54 95 94
16 51 38 46 91
36 53 94 53 42
81 92 58 87 65
62 21 98 91 26
30 48 15 87 60
84 45 73 37 19
88 62 41 30 63
73 90 54 47 60
29 75 30 73 30
62 29 40 11 21
72 100 98 70 18
95 89 42 81 49
84 40 46 49 21
36 50 98 21 20
25 16 17 46 44
38 82 85 63 10
99 10 99 82 92
46 53 34 22 66
49 32 55 92 61
55 96 61 69 16
100 44 71 69 47
64 56 87 82 71
0.345069
0.456026
0.495265
0.331363
0.138077
0.12141
0.147167
0.105669
0.276793
0.244283
0.379157
0.201346
0.351112
0.415496
0.387961
0.170278
0.40231
0.210007
0.454782
0.179698
0.360857
0.213848
0.212022
0.318491
0.260408
0.306161
0.483165
0.462362
0.230026
0.435922
0.430093
0.15644
0.236877
0.275994
0.230258
0.300758
0.168015
0.114289
0.186474
0.326824
0.309607
0.429977
0.205865
0.440206
0.18433
0.14852
0.120272
0.325551
0.133098
0.3443
324 273
357 63
362 421
360 416
414 153
482 237
438 158
25 68
42 318
94 4
8 142
384 254
369 495
468 445
192 487
421 299
39 184
251 234
410 226
0 78
253 369
475 429
341 67
105 345
345 429
44 170
315 365
412 314
469 358
348 200
179 416
186 446
219 68
488 385
54 61
196 130
226 264
22 176
84 67
63 186
454 251
17 268
386 179
367 146
388 471
96 84
209 192
210 149
298 382
186 227
7022.5
2
