50
3
0 0 0
72 98 96
87 80 26
84 37 42
42 54 93
40 20 19
71 66 45
26 89 36
77 60 79
61 81 21
26 69 41
28 67 57
94 78 74
78 42 98
27 31 29
93 61 36
71 66 78
33 11 29
71 18 38
64 94 25
23 22 36
48 81 76
86 87 13
46 28 68
84 98 60
84 71 37
51 81 86
71 37 87
96 14 98
39 65 21
76 41 41
26 64 14
31 73 40
75 62 10
14 56 62
39 69 33
60 40 60
33 83 40
73 81 73
67 30 39
66 31 37
91 57 59
64 80 26
96 40 57
35 89 36
73 35 47
100 63 99
79 87 24
24 36 48
62 83 86
0.901206
0.561626
1.17817
1.17767
0.429934
1.45293
1.18014
1.24736
0.885556
0.301815
1.44133
0.753801
1.05742
0.82344
1.45476
1.23572
0.970562
0.604812
1.14232
1.42325
1.00746
0.485179
0.564123
1.19382
0.804233
0.544992
0.685555
0.490066
0.468562
0.302409
0.458385
1.46604
1.02592
0.616229
0.851444
0.449875
0.424186
0.607159
1.49924
0.479414
1.30299
0.958993
0.471689
0.379049
1.31627
1.3425
0.730345
0.847997
0.659427
0.947719
13 357
200 223
262 341
172 165
299 181
55 296
170 287
430 230
310 354
346 75
150 128
280 76
95 135
344 94
69 389
26 302
27 358
403 9
36 143
292 133
140 221
287 340
156 468
183 142
104 286
164 357
221 79
217 199
445 379
150 40
189 90
105 227
194 386
386 141
245 308
154 35
209 269
301 270
281 135
164 121
306 3
2 401
420 346
94 120
40 201
428 465
207 171
189 135
465 128
33 227
4631.67
3
