50
7
0 0 0 0 0 0 0
58 25 75 21 54 46 10
28 58 60 46 44 81 47
44 57 62 59 66 89 79
54 61 43 74 25 56 98
48 81 73 52 10 94 23
10 18 20 86 47 100 31
70 41 88 40 97 89 71
35 51 31 18 62 36 82
53 33 12 97 60 75 28
96 40 11 69 66 40 23
22 14 74 30 88 33 52
12 71 50 93 87 18 39
15 79 16 41 35 20 42
13 52 75 17 82 53 72
89 49 29 96 20 32 84
69 65 76 71 90 89 14
36 39 19 52 31 94 72
45 73 34 70 41 100 33
80 11 81 74 67 50 98
88 61 88 88 31 96 14
64 87 26 10 17 57 87
99 13 83 87 62 39 14
31 71 45 50 25 45 73
16 32 90 33 64 100 86
42 38 90 96 46 42 71
40 55 60 11 57 15 65
36 82 16 92 71 35 78
24 63 79 37 46 46 50
13 64 70 17 35 37 73
16 50 47 60 11 25 62
50 100 87 73 43 76 45
81 51 92 39 99 75 45
92 11 34 50 58 47 19
19 83 37 11 31 15 49
42 60 20 14 70 39 72
83 24 66 11 97 51 45
67 25 70 66 88 100 28
27 12 83 31 19 33 11
61 10 38 83 13 45 24
11 38 49 88 53 59 85
39 95 48 48 13 28 30
57 94 24 88 89 45 42
40 85 97 33 20 81 95
92 24 40 10 98 50 78
98 93 48 52 14 39 31
86 13 32 79 60 19 16
39 47 30 66 58 46 57
70 69 93 68 80 85 74
61 87 69 54 69 79 95
1.05383
2.31065
0.692598
1.86107
0.565981
2.03932
1.30432
0.70178
1.03259
1.04232
1.94276
1.43803
1.80078
1.42066
0.84256
1.58272
0.817372
1.01195
1.59401
2.01642
1.25677
0.56076
2.05311
0.881414
1.54107
1.97253
1.97213
1.09401
1.67075
2.1548
1.37889
1.26232
1.50495
0.57925
0.943909
1.1494
0.733686
0.612775
1.79741
0.806438
2.27652
2.13793
2.48828
0.664899
1.06518
2.21648
1.5952
1.64858
1.56484
1.20743
224 206
187 291
175 360
489 234
280 334
205 76
401 212
357 190
286 369
54 493
321 246
477 398
216 401
317 270
231 264
411 51
247 234
254 476
5 389
80 108
357 123
306 416
287 60
48 432
402 320
409 76
65 474
393 74
349 400
81 234
256 140
419 203
348 203
417 106
210 415
477 359
351 49
239 44
109 419
370 500
2 436
203 401
78 377
34 395
253 247
140 20
172 495
235 450
198 265
243 65
2616
5
