50
9
0 0 0 0 0 0 0 0 0
82 72 68 97 89 56 25 13 32
86 14 61 79 94 17 58 43 61
100 41 96 72 69 45 36 39 50
90 11 45 100 95 100 28 67 45
67 84 14 23 97 51 73 70 84
51 80 61 97 94 29 71 86 66
46 62 28 40 75 30 63 30 67
16 31 97 78 20 96 27 44 47
25 15 71 43 94 48 19 54 95
81 33 67 92 35 94 98 29 47
78 95 57 97 58 75 42 52 42
22 24 77 87 33 49 59 90 15
35 19 88 47 20 36 96 13 41
85 42 23 44 65 50 35 68 69
41 25 32 19 97 34 39 40 70
66 16 62 19 38 85 43 92 73
84 87 61 30 35 16 75 12 13
48 92 90 69 13 96 64 75 97
24 42 55 60 43 48 67 72 53
87 84 38 67 92 34 100 31 57
64 92 78 50 92 22 62 44 61
67 70 25 29 73 46 100 86 94
41 62 49 19 65 27 33 54 16
34 34 69 50 86 52 98 21 91
62 15 52 97 17 20 46 77 19
28 90 32 20 62 70 26 12 97
78 62 85 72 68 18 75 30 17
68 23 20 45 31 69 90 35 78
91 84 60 17 78 79 27 68 79
55 35 74 96 100 71 71 56 74
13 92 62 29 92 68 25 84 64
17 37 50 80 100 40 22 12 63
44 96 75 45 10 25 99 53 98
16 79 64 55 28 40 36 12 95
57 20 31 27 76 65 69 87 52
79 61 44 26 71 90 44 22 66
60 20 22 37 23 78 46 13 87
67 89 94 14 68 93 79 35 33
77 87 81 65 56 37 65 19 45
24 42 97 24 86 98 63 63 61
82 46 75 11 30 90 89 61 70
40 46 60 51 77 84 49 21 95
84 39 96 85 29 17 59 82 57
73 86 27 30 21 83 64 99 50
10 100 37 73 95 29 45 83 94
78 17 85 45 82 56 58 56 33
80 48 29 42 44 73 69 62 86
97 72 99 72 20 59 68 87 58
12 61 71 42 15 46 10 22 34
0.46168
0.383443
0.104496
0.480702
0.218769
0.20704
0.452035
0.160922
0.384572
0.173931
0.449541
0.326233
0.21437
0.195196
0.12423
0.373385
0.16829
0.414268
0.208578
0.107131
0.181361
0.305066
0.26414
0.125537
0.230006
0.402447
0.399672
0.360565
0.170555
0.139149
0.285776
0.409033
0.179794
0.412517
0.13096
0.259828
0.445181
0.484503
0.397214
0.25632
0.495462
0.39588
0.185413
0.389531
0.192109
0.107512
0.299478
0.395663
0.240541
0.322277
105 120
303 22
236 494
490 395
365 458
454 168
365 222
379 66
425 152
473 118
324 171
496 83
134 401
203 383
159 323
68 36
91 392
498 340
12 129
399 423
191 431
467 374
58 40
192 457
373 196
384 226
4 394
17 374
402 206
328 192
346 444
147 351
1 484
381 246
49 258
359 140
412 268
55 424
328 26
144 348
203 451
170 102
421 303
452 190
473 494
22 225
128 124
24 26
264 432
85 178
2776
5
