50
3
0 0 0
100 54 21
84 45 84
27 12 28
20 15 86
51 91 46
29 81 95
54 49 27
34 52 88
72 84 25
47 44 78
44 42 70
51 60 53
77 22 46
75 61 90
27 24 11
84 39 24
88 91 71
21 45 93
41 75 46
89 94 53
34 85 43
91 49 22
16 87 31
73 24 92
28 26 85
57 65 85
62 53 43
15 58 20
36 53 77
25 89 12
64 99 73
17 26 61
85 47 64
91 45 47
56 27 30
92 22 89
65 90 20
91 98 74
65 32 34
30 33 31
24 21 80
27 15 40
52 26 27
40 10 99
40 30 48
18 63 64
78 71 89
82 18 80
19 15 100
1.40755
1.47353
0.696545
1.3354
1.22266
0.528301
0.570308
1.37672
1.0684
0.637182
1.43179
1.3628
1.42656
0.395373
0.579092
1.35524
0.587341
0.305819
1.44044
1.25921
0.691337
1.22092
0.535061
1.47033
1.45947
0.648195
0.671866
1.2072
1.30699
0.874088
0.882201
1.27054
0.33543
0.681897
1.29228
0.580996
0.353308
0.34566
0.910913
0.996677
0.667756
0.632395
0.61663
0.859106
0.373381
0.478064
0.811748
1.38235
1.34468
1.13998
414 210
232 62
118 129
220 122
130 19
172 93
479 231
203 338
250 323
217 140
283 138
244 61
208 27
27 207
451 70
410 454
375 273
82 469
259 358
180 356
458 9
411 51
229 113
144 174
322 415
498 22
386 42
249 471
221 286
351 30
435 426
310 39
190 157
199 182
300 488
278 417
316 60
485 185
272 175
198 250
343 166
173 195
403 74
107 462
123 348
62 302
116 288
128 324
451 135
29 354
6532.5
2
