50
7
0 0 0 0 0 0 0
12 32 26 21 48 89 29
39 83 73 88 84 46 95
45 78 79 55 17 78 54
97 38 48 14 61 75 55
67 18 43 12 79 13 23
95 54 28 42 12 21 67
47 51 44 74 97 100 51
37 85 19 70 46 16 53
91 71 53 71 56 73 25
70 98 22 13 75 87 80
74 58 59 78 43 88 85
77 46 12 73 71 44 89
22 98 74 86 25 87 54
32 77 29 34 89 89 20
74 70 32 42 19 23 84
35 92 50 90 21 25 78
13 91 60 83 78 83 82
15 56 91 84 52 57 30
42 47 36 80 89 55 47
14 57 21 61 13 57 37
10 66 36 67 69 39 67
83 33 76 82 37 46 94
40 96 26 69 83 99 14
89 61 25 36 38 19 77
16 47 83 47 94 56 46
67 41 49 78 59 32 65
94 99 85 57 81 79 86
10 33 78 91 17 35 23
72 14 79 23 58 74 26
67 15 87 60 60 22 57
83 51 81 50 100 86 68
92 15 50 45 27 45 68
69 48 36 79 54 45 96
92 33 26 89 22 83 29
53 53 52 12 56 78 12
69 50 93 22 66 52 86
28 56 78 21 99 23 85
34 48 50 10 38 59 85
64 49 97 28 31 18 77
66 28 45 44 51 79 14
36 17 88 33 55 65 26
23 32 82 80 35 85 87
37 22 72 91 30 30 71
44 30 28 62 13 65 88
61 25 70 50 70 19 69
73 57 94 14 29 46 31
17 22 34 77 18 34 35
86 57 82 32 97 14 93
13 77 93 80 100 18 83
0.134205
0.246407
0.495634
0.240602
0.223024
0.48528
0.145781
0.366404
0.222928
0.139709
0.382986
0.444016
0.299255
0.27273
0.267724
0.228962
0.225707
0.320148
0.355049
0.333439
0.333987
0.266351
0.468497
0.418809
0.432997
0.207367
0.256988
0.498625
0.406108
0.293556
0.456736
0.220029
0.303151
0.336659
0.162515
0.387151
0.399062
0.208593
0.480735
0.261573
0.406615
0.103271
0.164401
0.338461
0.132449
0.10184
0.41941
0.117631
0.248198
0.303773
284 447
206 173
410 188
175 95
436 401
304 167
243 431
180 361
143 283
351 125
394 296
237 241
62 62
98 352
457 319
418 304
497 468
472 443
246 88
115 411
379 394
93 369
403 135
271 498
296 202
134 270
439 22
243 406
386 63
457 495
375 153
472 87
254 459
412 140
394 397
485 307
12 482
70 166
332 44
164 191
113 145
68 180
399 351
136 463
278 389
34 416
459 246
289 378
82 325
484 141
3365
4
