50
7
0 0 0 0 0 0 0
11 89 36 33 54 73 56
17 87 99 97 67 31 91
53 26 52 82 98 96 27
43 19 24 21 20 58 38
19 54 29 25 21 41 57
92 84 21 48 63 33 26
43 82 20 33 67 77 99
92 79 63 96 67 59 88
10 25 16 11 65 42 46
30 35 76 92 62 63 83
10 24 37 85 75 23 49
51 38 48 81 64 62 61
58 76 66 18 59 83 68
97 22 48 48 93 92 97
81 95 44 74 56 64 35
69 48 98 16 11 33 17
76 72 23 88 25 87 64
62 29 24 46 23 55 94
69 90 92 99 60 98 81
21 32 71 68 44 37 55
36 34 14 16 98 79 45
82 63 34 89 72 64 28
21 100 36 86 98 62 24
53 55 59 26 37 78 29
30 84 13 63 89 88 47
94 15 81 60 75 26 62
36 81 14 100 69 67 98
90 90 42 44 70 68 38
32 33 50 41 87 47 25
68 48 23 15 24 58 49
41 29 78 26 62 10 43
16 52 82 65 78 60 98
96 93 39 53 47 56 67
30 12 76 79 92 92 48
71 20 63 75 33 40 36
10 40 65 45 80 81 23
47 36 16 17 48 45 25
41 10 46 11 14 44 65
87 38 47 48 54 49 69
21 96 32 93 24 57 18
81 77 86 100 82 47 22
78 77 60 41 100 39 61
63 96 57 15 18 68 72
30 16 95 26 62 26 90
51 10 54 65 75 86 74
59 16 40 72 24 51 74
26 88 82 34 94 26 26
57 21 82 17 75 83 35
25 59 11 44 25 92 64
0.473989
1.35403
1.02661
1.27282
1.2828
0.746268
1.0006
0.83734
1.03244
1.36668
1.27669
0.455535
1.09373
0.651905
1.16021
0.526795
0.797264
1.10137
1.4162
0.378593
0.69564
0.870649
1.49379
1.17617
1.27068
0.384625
0.669691
1.42807
1.30942
0.64995
1.41933
0.814097
0.939007
0.483158
0.374713
0.607457
0.703246
1.0365
1.0815
0.467862
0.464907
1.32249
1.19817
0.357334
0.593689
1.00857
1.20802
1.21345
0.8267
1.01871
437 181
201 108
263 207
466 229
346 383
312 464
80 430
63 335
82 12
359 368
158 224
298 406
311 231
395 93
15 491
408 253
87 222
456 247
429 184
39 213
17 190
165 140
186 82
74 164
362 244
461 471
290 220
140 169
254 470
33 269
372 492
443 276
382 83
329 255
207 385
297 219
317 414
47 105
336 62
284 428
397 409
315 353
25 53
468 7
177 112
491 53
295 95
111 61
251 314
276 272
2663
5
