50
11
0 0 0 0 0 0 0 0 0 0 0
82 55 90 52 95 20 90 19 30 81 29
59 51 40 69 58 24 88 20 67 19 94
75 24 80 31 57 88 70 90 28 55 68
12 84 97 38 55 31 79 94 17 52 73
91 66 62 23 46 93 80 33 45 44 56
35 48 83 57 93 85 88 88 98 73 26
29 84 79 49 36 39 11 38 19 100 87
91 62 65 17 46 95 42 18 99 16 54
25 77 39 91 49 100 76 47 74 95 48
74 54 48 39 65 78 53 59 34 43 51
65 42 25 57 28 47 12 92 97 52 68
17 96 66 14 85 11 15 23 11 85 21
22 100 48 72 99 23 47 12 69 19 48
60 96 71 90 45 78 76 51 31 66 33
91 52 56 23 82 18 76 25 75 46 94
79 25 59 27 64 80 12 90 75 65 74
29 75 93 19 63 60 61 74 29 96 27
37 94 11 100 25 19 91 98 69 29 11
78 90 63 73 64 92 58 42 46 15 33
20 74 35 49 12 58 98 64 28 78 54
80 49 30 27 66 23 77 11 61 33 45
69 97 46 92 40 100 40 49 36 100 46
35 74 81 86 31 19 41 24 67 82 13
36 99 58 87 13 34 82 100 86 82 18
95 63 35 87 27 53 58 96 37 93 59
21 27 33 46 46 34 27 93 92 29 50
100 44 95 63 86 65 46 29 97 42 59
89 12 79 67 82 11 48 59 38 80 33
52 49 61 49 89 81 63 35 90 47 37
18 25 65 61 82 91 55 20 66 65 19
75 25 99 37 100 33 52 96 14 99 48
46 27 20 18 51 91 50 29 76 85 54
100 36 52 62 25 93 35 59 11 47 53
64 19 16 41 78 63 91 81 16 30 13
46 59 70 73 41 11 32 55 18 81 98
96 81 51 28 56 14 60 96 27 59 93
86 15 77 72 69 17 93 65 14 19 86
13 55 96 78 85 98 13 74 38 37 78
99 69 98 70 63 26 50 32 29 94 44
57 54 99 93 15 35 70 10 58 46 87
80 16 27 30 59 90 25 24 65 18 80
87 55 97 91 49 80 69 39 17 63 98
25 35 81 51 10 71 81 68 70 55 25
79 22 49 18 46 39 57 30 46 10 68
71 77 36 64 10 75 90 82 23 98 56
80 42 38 45 90 78 67 20 85 32 66
77 58 59 50 75 86 26 39 86 92 93
60 67 10 74 82 23 18 87 11 44 55
64 31 73 53 90 39 32 71 62 83 48
0.888145
1.38111
0.954721
1.28153
1.27569
0.712788
2.45242
1.84045
1.40991
1.71301
1.65182
1.75237
2.06591
1.94532
1.5139
0.671513
1.3883
2.2386
1.47372
0.701623
1.50017
2.01341
2.26651
0.689977
1.59917
2.01302
1.59489
2.30539
0.725782
2.32495
0.756794
1.86236
0.822703
1.18889
0.737633
2.23314
1.32708
2.437
1.52517
0.555271
2.34825
0.748944
2.06747
2.06156
2.07894
0.861246
2.37519
1.55032
1.42195
1.00524
391 334
291 12
34 470
131 392
202 270
390 463
10 232
145 258
163 213
381 367
422 467
200 155
335 382
394 369
113 38
380 94
422 398
428 294
86 371
329 497
219 369
263 364
289 470
200 327
485 187
340 223
218 481
61 68
79 135
339 454
380 19
342 445
13 327
307 238
436 225
218 311
239 12
486 290
53 359
379 84
111 189
490 152
58 498
288 414
187 102
207 484
347 182
137 294
20 365
36 477
2756
5
