50
3
0 0 0
14 52 84
74 97 38
73 31 71
85 19 67
94 50 52
65 49 25
48 46 63
52 90 82
73 43 81
55 72 57
88 32 17
44 79 100
68 40 48
79 43 59
47 67 63
32 98 90
47 21 91
85 38 81
83 34 66
94 27 69
92 53 31
98 39 48
75 52 93
87 49 20
77 83 93
63 80 16
75 89 69
39 62 52
53 81 98
69 75 34
49 89 36
53 62 85
71 87 82
56 45 17
84 40 73
62 91 90
87 24 36
36 43 25
69 92 18
96 26 54
51 63 69
90 35 46
86 32 58
73 21 18
84 44 69
18 98 76
59 58 34
68 41 31
76 82 12
1.69395
1.35094
1.23643
0.551523
1.52238
1.63861
0.449608
0.520052
0.556111
0.998664
1.01901
1.21566
0.616859
1.00904
1.40606
1.59135
1.73753
0.402474
1.54272
1.48692
0.610908
1.85962
1.81656
1.39669
0.964996
0.878133
1.64648
1.37631
1.81653
1.83921
0.782389
1.32495
1.70994
0.523555
0.80531
1.75895
0.752871
1.29593
0.613653
1.16636
1.14864
0.740391
0.41133
1.3274
1.27498
0.460057
0.667422
0.956
1.07331
1.06883
48 191
429 121
60 119
334 0
384 445
301 57
6 90
140 311
13 454
46 86
257 262
150 416
239 243
292 478
91 302
112 317
8 448
285 182
436 348
313 217
138 368
350 194
234 298
308 300
225 66
360 137
159 163
87 50
222 21
376 357
381 157
468 435
328 279
446 391
387 148
180 152
440 396
471 390
35 278
10 165
372 223
380 245
328 82
462 95
477 392
307 1
74 263
344 133
339 398
127 25
2949
5
