50
11
0 0 0 0 0 0 0 0 0 0 0
11 46 73 22 53 69 78 86 23 99 29
35 10 69 21 90 33 68 15 47 87 73
33 29 48 36 50 24 98 29 73 49 22
68 74 56 51 31 57 11 94 95 48 18
96 72 19 19 10 14 40 23 77 47 20
16 65 13 87 99 96 19 14 97 61 80
84 71 84 92 78 69 19 42 34 40 26
26 20 62 94 58 68 54 51 25 13 44
51 47 58 35 12 98 99 57 30 76 37
18 59 98 54 97 89 15 63 47 17 57
28 62 63 87 87 26 47 18 59 59 69
17 95 12 37 21 100 81 64 16 67 63
39 58 19 43 55 89 64 47 100 98 55
79 70 21 30 13 55 23 81 44 93 22
28 15 29 12 26 64 100 35 81 34 32
47 47 55 99 95 17 90 25 75 77 61
17 52 39 24 31 91 10 81 97 10 44
67 96 70 92 76 19 43 16 22 27 62
48 63 50 38 80 39 49 37 18 67 80
92 82 97 40 28 70 12 23 10 74 79
95 47 30 24 49 18 67 64 99 53 59
20 61 47 44 84 13 92 100 65 76 78
12 23 74 53 78 86 44 59 81 97 37
48 27 82 25 66 91 49 84 62 20 12
75 58 96 23 22 95 83 30 46 52 58
27 71 87 42 28 59 49 63 53 14 96
82 32 42 22 43 38 75 31 14 29 40
98 34 84 55 31 49 31 34 97 68 39
60 18 82 86 33 31 42 67 84 53 51
61 48 37 16 88 40 30 89 44 16 24
26 29 74 92 94 41 83 75 57 11 46
69 74 100 19 81 22 69 14 57 11 69
41 21 46 85 61 82 49 19 89 36 93
53 89 17 23 81 11 28 58 31 13 62
82 40 83 49 91 53 32 57 25 62 21
54 90 87 75 41 40 50 62 46 11 38
64 61 19 95 56 46 32 67 34 40 21
11 98 93 65 28 23 67 96 79 45 44
68 10 51 83 10 83 13 92 12 18 27
91 64 14 57 73 38 53 42 32 21 47
47 16 19 70 35 20 90 22 42 100 88
94 36 10 71 11 28 66 52 15 26 42
50 74 32 20 32 68 25 37 27 45 53
58 16 63 40 76 15 32 25 11 10 12
29 43 62 12 85 88 94 19 37 79 18
47 75 80 78 40 74 87 76 90 57 31
43 56 28 52 50 10 40 16 48 24 53
47 61 13 59 31 37 31 42 19 46 67
39 83 42 22 12 33 75 86 60 30 53
0.947951
1.51092
1.93187
0.410187
0.843239
0.910806
1.71521
1.81716
1.02819
1.91349
0.77441
1.13765
1.99931
0.712193
1.86059
1.7086
0.457358
0.5875
1.58861
1.1657
1.48189
1.58649
1.48793
1.8326
0.983947
0.590303
0.607702
1.68287
1.84019
0.644509
1.86542
1.8485
1.04825
1.88673
1.18916
1.92094
0.672829
1.55566
1.38675
1.82716
0.656696
1.82822
1.98842
1.19615
1.84742
0.418022
0.976865
1.88172
1.97663
1.04055
29 126
374 163
327 262
39 79
59 173
368 470
4 283
484 284
83 387
415 165
370 27
366 342
346 198
347 191
437 318
99 53
250 254
11 340
34 226
44 475
440 412
38 164
288 385
297 376
197 52
194 475
221 218
148 174
27 121
4 27
57 135
321 217
324 452
465 465
145 202
118 287
331 261
381 107
346 256
294 260
104 347
177 378
425 261
467 280
128 72
336 299
300 406
109 183
486 17
290 291
2505
5
