50
7
0 0 0 0 0 0 0
96 58 21 49 13 16 58
21 10 46 24 47 28 91
25 64 61 11 74 84 15
86 48 17 71 71 55 17
59 100 11 14 96 57 69
42 33 34 46 69 30 90
69 62 76 96 29 61 19
99 46 90 67 100 17 80
100 97 10 19 78 47 52
93 62 95 85 10 40 53
71 71 68 21 92 28 97
95 39 81 73 66 81 39
83 57 63 62 21 92 100
29 89 41 70 12 38 64
61 87 99 87 73 81 45
62 62 81 13 12 91 58
39 50 98 86 36 82 86
11 96 97 35 57 45 45
52 52 16 82 71 74 35
42 14 69 37 32 20 59
23 24 52 90 90 74 77
26 90 46 28 74 18 52
40 80 25 44 93 37 47
59 12 65 45 59 47 39
38 61 90 90 86 59 68
16 26 23 23 17 24 29
27 73 98 30 46 47 35
91 58 66 77 16 92 65
30 82 31 78 48 92 79
52 57 40 45 64 98 58
13 58 83 32 10 99 56
32 76 96 38 53 69 97
57 56 21 11 68 32 36
24 90 57 93 96 29 20
63 53 49 51 47 41 59
21 57 86 53 19 80 77
74 68 52 61 91 84 49
67 15 95 22 38 79 13
88 66 52 27 94 17 43
94 54 96 60 68 94 99
94 12 43 57 30 15 11
63 15 57 50 42 67 52
19 19 23 66 67 89 59
13 73 51 10 19 65 41
55 70 91 40 62 44 83
56 33 83 57 48 62 74
59 80 18 70 50 42 57
39 11 97 40 72 97 76
83 84 100 46 60 21 16
1.75378
1.96629
2.41296
1.04694
0.571226
1.32674
1.16256
1.19174
0.962716
1.2342
0.749066
1.40117
0.669496
1.92272
1.00493
1.75148
1.7641
2.10398
1.59221
2.42671
1.43085
2.4582
2.18303
0.800881
0.977289
0.998735
1.71201
1.27154
1.01788
2.11232
2.31864
2.01212
1.97709
0.576109
1.19226
1.22085
0.628825
2.41719
2.03273
0.605528
2.32141
1.26057
1.60717
1.58069
1.35367
2.48893
1.42164
0.687292
1.43875
2.32219
416 276
36 252
57 496
71 191
58 445
370 86
448 282
475 189
0 289
265 39
110 230
65 304
15 363
442 192
14 492
187 496
351 123
183 74
72 293
294 397
435 302
365 85
191 103
393 42
399 177
420 207
135 76
209 180
223 500
51 301
95 350
62 380
194 468
278 223
410 116
488 197
312 273
358 433
399 284
99 403
306 472
491 355
415 23
104 22
181 416
395 352
43 385
48 459
495 385
14 182
6802.5
2
