50
11
0 0 0 0 0 0 0 0 0 0 0
61 71 97 33 98 79 50 42 12 54 24
34 81 34 73 39 41 74 25 59 75 48
66 35 100 27 86 58 85 14 95 16 35
61 42 90 85 35 31 41 62 27 19 60
14 61 36 90 99 44 60 36 82 87 85
19 57 72 64 35 45 54 89 96 69 33
59 25 13 86 17 82 95 23 76 39 57
10 71 71 58 55 62 64 49 18 99 97
87 23 70 39 87 86 82 89 28 38 81
14 58 14 28 66 87 65 64 51 36 99
57 78 47 75 13 66 63 62 98 39 59
63 63 14 71 35 56 56 41 73 26 84
63 35 17 25 100 75 53 63 35 41 51
87 10 84 97 68 49 95 17 15 62 20
14 55 63 25 98 12 94 59 49 18 63
23 92 38 49 57 51 15 88 91 75 31
12 71 73 63 35 79 75 66 45 21 76
39 69 36 87 93 59 74 89 46 15 63
83 100 46 32 86 98 34 36 21 54 61
57 49 51 46 64 67 78 87 31 29 88
94 77 91 89 13 86 27 92 49 91 24
96 17 84 49 72 45 94 20 69 80 44
90 70 29 97 36 36 61 78 86 53 84
46 32 79 28 76 43 89 78 75 67 27
36 22 66 25 72 20 99 24 28 52 58
22 41 47 28 88 13 38 98 93 16 65
20 77 63 29 66 57 47 19 17 30 65
49 94 42 74 69 30 83 63 32 14 57
68 53 66 42 85 14 56 99 93 12 25
99 72 10 41 47 13 99 77 40 58 13
99 90 83 27 36 71 36 49 87 26 58
50 94 82 37 21 52 43 41 68 48 14
73 75 43 67 29 20 73 91 22 64 23
64 51 52 76 80 42 27 61 91 32 57
19 97 51 10 74 71 62 27 67 70 33
23 46 88 73 42 54 76 26 78 92 14
69 57 45 65 35 62 95 66 59 83 21
60 83 29 19 64 80 13 38 23 36 89
11 79 80 49 71 10 53 36 22 12 15
55 51 51 33 43 33 20 60 98 94 89
56 87 13 35 66 65 19 61 12 89 48
78 79 30 89 52 56 31 70 32 29 72
46 71 88 73 48 56 38 91 21 74 94
77 43 30 85 22 100 87 72 90 64 72
38 67 17 36 49 69 20 75 17 81 33
62 76 96 83 24 63 19 38 12 96 100
100 63 76 11 12 58 48 62 50 82 90
86 92 36 61 58 88 18 56 92 76 23
16 31 17 81 43 55 41 88 12 87 11
0.510607
0.615244
1.02884
2.04449
2.01313
2.31532
2.11097
0.586204
0.586937
0.857977
2.1664
1.92059
0.802182
1.93905
1.79709
1.52097
1.69903
1.19402
1.07378
1.28646
2.15594
1.3314
2.49518
1.91962
1.90677
0.606208
1.99983
1.89966
2.2817
1.39321
1.05868
1.2155
0.732216
1.43211
1.50144
0.563961
2.22738
2.36742
1.68153
2.27791
1.12481
1.68319
1.60919
1.48022
1.63958
1.10172
1.18605
0.535804
2.22129
1.34742
119 137
239 414
493 450
311 30
279 368
356 134
2 125
122 258
55 45
451 276
225 130
434 295
109 328
207 403
186 306
379 142
400 278
311 33
365 220
488 9
49 395
459 397
488 357
250 438
226 462
69 95
256 460
488 498
94 234
475 49
304 29
27 33
41 3
81 437
494 99
131 313
250 77
18 400
321 333
373 465
188 340
211 169
197 420
242 219
417 244
156 300
328 484
259 129
409 37
245 114
3401.25
4
