50
7
0 0 0 0 0 0 0
20 69 65 25 79 27 96
28 59 14 39 66 30 85
70 45 45 77 71 38 25
100 46 47 67 15 57 34
69 44 33 77 99 85 95
91 46 91 21 85 26 73
15 48 55 71 54 58 69
57 99 83 41 88 63 91
89 78 92 28 72 100 57
14 25 37 21 10 23 93
92 73 75 90 87 80 41
28 46 86 61 93 93 64
44 48 98 21 24 32 28
61 78 99 54 57 93 82
24 38 96 10 64 64 76
77 38 52 23 43 74 96
80 37 72 27 99 81 17
93 18 91 13 85 82 52
48 11 87 54 84 59 17
17 95 76 13 97 99 51
60 73 84 71 64 69 35
21 30 43 55 50 34 40
64 19 49 66 49 77 42
98 54 21 38 53 12 53
25 48 67 91 87 29 92
94 54 25 33 49 66 85
41 45 43 72 21 15 69
74 45 38 82 22 32 26
75 34 50 56 76 100 95
64 59 44 62 83 76 16
51 43 62 81 41 59 86
71 58 55 57 68 94 64
36 30 24 18 52 34 91
55 96 28 23 14 10 28
97 73 96 20 42 91 64
35 100 52 24 89 19 11
49 57 95 25 90 70 52
12 40 94 90 24 17 53
73 82 58 18 28 96 43
28 58 29 16 64 99 16
69 50 29 20 12 61 88
80 41 38 74 75 83 94
35 62 38 90 19 40 41
10 72 96 11 42 57 67
32 63 86 58 27 65 18
76 24 57 28 80 84 49
45 77 31 68 11 81 98
54 11 26 13 14 70 100
61 52 87 53 16 19 75
0.481709
1.8369
1.73123
0.409013
1.26538
1.73298
1.46264
0.592826
1.41939
1.34801
1.7152
1.53534
0.435251
1.73008
1.87373
0.663486
1.18612
0.518379
0.448012
1.26671
0.931836
1.94187
1.62608
0.748725
0.914619
1.74988
1.02934
1.16329
1.87282
1.25138
1.15533
1.98239
1.23905
1.47933
0.723283
1.75827
0.707927
1.9082
0.816501
1.46165
1.29386
1.14047
1.23817
1.22983
1.09849
1.43931
0.483475
1.34789
1.69737
1.90641
251 251
355 293
494 85
269 216
255 180
260 275
414 138
108 185
318 389
6 173
33 108
440 307
194 363
77 246
272 313
146 208
253 388
466 105
438 415
203 257
340 74
142 4
197 441
100 96
87 221
198 44
285 39
46 83
488 98
363 486
335 387
109 154
61 138
59 112
418 240
230 269
148 68
193 354
368 123
144 233
257 365
375 449
94 165
76 14
189 118
407 213
214 205
471 145
143 304
447 208
13620
1
