50
11
0 0 0 0 0 0 0 0 0 0 0
35 81 93 84 49 78 17 58 22 77 85
42 34 16 60 77 42 32 50 41 27 71
98 71 72 70 98 51 42 36 45 43 87
39 32 100 58 77 28 50 100 40 52 84
75 92 47 27 62 20 88 81 85 37 39
74 35 26 71 93 50 65 99 46 61 44
30 15 34 13 13 91 76 51 51 12 91
100 49 39 72 71 95 96 11 26 13 70
71 12 17 22 91 74 57 77 19 42 47
88 27 37 90 31 49 14 41 63 20 89
61 96 91 67 41 100 79 22 18 80 45
14 89 18 20 37 77 18 75 99 66 79
39 84 99 44 10 39 84 28 59 92 18
63 83 21 15 71 52 50 65 16 67 84
34 25 31 36 83 65 36 90 21 57 64
85 55 11 100 69 21 96 34 95 100 89
86 49 59 69 50 78 79 84 78 98 76
76 73 100 85 19 22 92 90 78 65 86
22 13 64 29 34 18 59 53 50 43 49
27 70 23 94 53 89 67 16 10 24 18
32 66 77 16 24 10 21 61 29 43 28
74 23 69 35 71 32 23 85 93 15 46
91 79 37 75 51 34 74 59 40 31 32
20 55 11 53 73 68 29 39 76 34 41
84 78 47 91 36 84 19 51 36 95 72
32 87 69 47 35 36 66 48 33 82 10
52 87 20 69 81 61 85 48 60 10 81
48 62 30 14 37 28 84 68 87 61 64
96 58 100 26 37 84 41 19 58 89 65
18 87 31 19 63 18 36 24 85 11 64
79 83 92 78 14 97 19 28 13 89 81
56 65 47 55 90 35 35 52 48 21 92
21 89 77 17 17 60 89 12 23 34 72
64 76 30 44 81 53 13 48 17 33 54
73 53 33 66 82 17 29 55 55 78 91
73 73 68 34 49 66 46 96 53 15 62
27 48 70 13 41 34 96 22 72 63 52
25 28 55 14 59 68 25 22 30 59 91
23 36 38 54 97 15 99 10 54 54 67
61 10 59 46 66 60 15 94 69 19 53
42 52 27 51 16 52 19 92 71 48 80
55 16 76 23 78 68 81 13 13 32 62
10 69 23 28 12 36 32 89 60 37 65
92 41 36 38 90 93 46 79 98 36 46
63 35 61 56 85 30 36 13 88 11 97
25 26 56 41 16 69 70 55 20 77 34
74 59 57 26 37 43 88 93 83 63 37
27 74 72 68 82 33 44 69 66 81 82
91 49 43 94 21 41 87 50 39 85 26
1.22128
1.08072
0.995994
0.318968
1.42159
0.752249
0.313768
0.438905
0.704251
0.322647
1.41203
1.1356
1.45372
1.03544
0.894236
1.24449
1.10842
1.31029
0.883569
0.605768
1.43533
1.09078
0.993734
0.545084
0.980185
1.32336
0.458673
1.02411
1.2611
0.434907
1.44331
0.567764
1.31204
0.676477
1.00542
0.998983
0.631487
1.1008
1.07091
1.21683
1.2451
1.17522
0.943138
0.80874
0.503095
0.511686
1.08037
0.367181
0.415673
0.893138
174 38
344 319
208 151
372 426
401 446
288 246
423 427
299 410
55 455
26 369
36 205
34 87
89 430
258 313
392 415
130 81
295 356
304 74
249 2
169 496
70 225
295 284
455 210
384 296
185 223
68 364
144 172
167 332
108 493
239 460
461 400
418 264
488 368
361 103
151 142
102 346
179 125
237 246
206 439
309 244
396 223
387 269
162 391
427 299
240 495
120 436
188 378
361 197
458 294
175 253
2633
5
