50
7
0 0 0 0 0 0 0
54 98 74 14 82 39 23
80 100 36 59 71 38 28
49 87 76 32 18 48 46
11 96 87 67 44 100 24
61 22 13 14 17 91 77
84 76 75 52 42 14 89
50 30 12 13 23 37 53
33 33 40 79 81 89 86
48 39 15 80 25 32 53
77 45 65 97 86 67 58
92 81 22 46 85 57 16
10 54 44 51 15 82 39
25 15 73 66 17 88 83
72 79 34 30 32 52 93
68 18 31 21 17 46 64
86 67 28 61 91 32 86
93 78 94 76 78 15 97
91 61 16 19 21 78 45
67 92 67 67 18 39 47
74 57 20 55 79 80 39
74 46 75 50 56 91 21
68 36 45 30 20 99 79
49 29 99 60 63 83 43
55 57 23 94 19 45 45
99 47 78 72 63 94 54
98 63 16 65 16 33 45
39 89 32 30 72 95 25
44 94 26 60 84 47 10
85 37 54 65 39 82 67
78 34 20 41 31 42 45
49 75 72 88 81 75 57
37 70 95 38 35 96 53
90 17 57 24 50 82 92
43 65 20 43 47 84 18
19 76 26 52 28 57 58
40 65 56 42 21 34 34
95 73 88 14 25 86 69
27 16 24 54 37 24 25
91 79 35 94 56 97 45
94 95 81 59 33 25 25
36 85 55 75 41 77 91
82 20 40 75 80 56 18
52 14 77 78 81 47 17
60 65 24 38 92 72 91
37 33 15 13 94 67 20
43 100 71 21 38 53 69
40 23 26 79 45 84 50
28 44 42 94 68 37 12
61 81 74 97 66 94 14
1.17364
1.08366
1.27456
1.26809
0.691865
0.597888
0.965699
1.23557
0.871486
0.780032
0.436645
1.49673
1.22337
0.543859
0.583456
1.31812
1.02593
1.09294
0.986971
1.01362
1.34159
0.503277
0.536386
1.32277
0.912236
0.421637
1.39063
1.23392
1.44613
0.953598
0.829037
1.01162
0.92473
0.98505
0.426655
0.723299
0.516571
0.908413
0.330613
0.498238
1.12814
0.329783
0.975868
1.00348
0.747572
0.633818
0.447974
0.564441
1.09458
0.901479
415 341
124 172
415 401
56 328
148 110
349 15
438 345
383 49
302 25
49 107
345 100
110 458
296 228
211 488
215 476
224 403
38 219
194 241
222 398
226 450
270 15
345 201
313 495
373 436
443 178
408 313
461 382
334 22
418 468
292 116
211 13
30 201
486 250
62 174
45 420
130 450
411 88
128 200
152 467
29 258
202 220
199 395
261 238
162 185
468 337
134 46
360 370
235 336
334 431
342 387
3347.5
4
