50
7
0 0 0 0 0 0 0
26 49 95 99 78 16 46
47 29 80 93 65 37 37
55 46 78 20 67 80 65
26 17 57 67 90 25 49
62 43 25 19 71 65 88
16 90 75 91 82 37 93
59 77 67 74 70 84 97
71 14 43 66 17 36 19
69 39 46 63 38 65 94
92 40 87 19 25 41 29
32 11 53 91 18 44 86
54 12 29 37 63 84 92
76 30 46 100 89 58 59
30 99 93 88 36 64 82
94 97 39 90 63 32 15
65 44 84 92 89 80 59
12 15 63 81 100 28 22
58 57 70 39 77 65 80
100 44 77 38 50 71 76
63 89 48 16 37 77 88
90 65 50 53 58 55 20
20 33 24 86 93 42 60
14 38 86 97 34 65 51
90 41 55 86 97 19 42
40 71 91 91 96 75 96
36 21 52 72 47 23 33
40 55 22 47 11 71 88
80 46 29 57 79 98 59
53 41 22 27 97 81 60
49 75 73 10 100 71 86
68 38 42 16 48 100 61
100 41 17 95 67 34 95
71 84 89 28 70 34 90
53 81 30 10 40 19 95
90 11 59 47 89 27 93
83 96 81 11 72 36 53
49 80 26 88 70 12 35
24 33 70 91 76 88 46
54 75 19 99 20 38 11
65 53 21 46 69 14 92
84 86 11 92 93 36 46
88 61 24 35 22 46 51
87 51 99 54 70 38 76
98 70 55 47 99 63 62
12 27 69 63 30 44 94
91 15 14 34 51 70 70
23 87 58 38 44 51 64
15 14 51 77 16 18 31
88 28 33 24 82 24 93
0.75138
0.938738
0.372254
0.21086
0.550185
0.596395
0.88247
0.652436
0.260592
0.550362
0.410114
0.445114
0.659821
0.657796
0.929877
0.502812
0.642937
0.347437
0.456238
0.222676
0.966471
0.527433
0.923348
0.682874
0.898766
0.90863
0.518343
0.478648
0.701277
0.460099
0.586708
0.589687
0.337801
0.832111
0.890615
0.820599
0.850751
0.383568
0.555976
0.896492
0.894691
0.232253
0.925733
0.958348
0.461236
0.811151
0.733704
0.776173
0.366803
0.853537
156 101
488 246
293 134
320 280
275 255
219 168
427 404
451 264
207 436
379 299
308 93
498 102
433 154
358 60
361 304
237 341
454 0
174 234
417 63
282 5
448 324
216 188
228 245
6 360
166 368
62 449
240 494
477 211
455 212
44 485
254 452
212 314
488 81
442 216
330 274
223 56
463 141
376 104
5 457
108 498
270 362
134 230
225 182
10 244
431 120
166 124
451 145
346 171
315 476
187 191
6972.5
2
