50
9
0 0 0 0 0 0 0 0 0
50 57 91 22 44 14 62 49 45
64 20 52 93 17 55 46 14 84
26 54 17 16 81 39 32 65 70
11 47 87 82 42 98 38 80 83
74 38 76 92 13 32 91 32 37
91 68 30 49 75 97 62 64 98
84 18 71 87 14 17 24 47 64
76 59 36 37 37 79 58 62 99
42 91 40 93 12 75 94 73 72
89 17 83 52 61 58 46 88 91
39 73 39 60 46 37 70 45 71
20 82 84 36 82 59 12 97 84
51 81 15 84 23 100 66 21 85
29 85 14 31 18 92 88 71 80
82 14 27 15 88 66 30 30 67
33 57 10 25 63 96 11 78 68
43 36 26 60 19 27 15 85 56
60 14 57 26 79 73 95 38 51
83 24 71 46 20 55 59 46 100
71 64 27 25 88 52 90 41 16
88 46 27 20 95 47 63 98 80
63 50 34 81 71 48 11 21 73
21 98 19 61 19 31 76 94 41
66 17 39 12 58 18 36 22 28
24 20 52 13 61 18 66 47 47
53 27 26 69 66 52 72 45 19
66 61 53 62 38 19 84 71 66
64 21 30 11 77 63 66 84 16
58 93 80 19 44 66 85 19 18
20 77 100 91 64 46 49 11 33
64 20 18 38 30 86 84 100 29
72 14 11 98 50 86 25 83 43
28 23 63 34 54 12 93 31 67
87 69 87 30 16 42 35 46 86
69 60 38 52 95 74 50 90 98
12 71 81 27 89 42 86 57 15
17 96 12 74 30 46 57 43 92
13 100 100 33 80 47 52 72 21
52 80 67 51 13 52 13 55 17
32 63 24 66 20 65 15 43 33
62 98 49 64 10 10 19 53 96
75 84 47 44 47 56 85 66 99
61 100 62 56 59 31 91 93 52
18 27 52 86 64 84 69 75 94
62 15 76 53 76 35 45 73 14
93 78 14 15 18 45 71 57 16
99 43 39 76 96 84 35 20 41
58 62 79 48 34 11 88 23 25
64 89 50 67 17 10 57 63 49
1.48839
0.615947
0.9901
1.45639
0.578136
0.781393
0.831254
0.943119
0.795829
1.34349
1.35092
1.00982
0.89804
1.48603
1.2675
1.05253
0.546355
0.685547
1.48396
1.26284
1.12089
0.53771
1.44118
0.875106
1.0336
1.23641
0.678736
0.52489
1.24294
0.760971
1.17368
0.397692
0.322961
1.15481
1.0425
1.11572
0.479767
1.30808
1.33714
0.847615
0.45488
0.354983
0.591294
0.895181
0.392012
0.711861
0.780442
0.493109
1.28335
0.990591
491 481
461 366
99 460
120 239
1 246
350 390
160 424
225 70
383 371
96 242
9 398
126 343
351 325
439 168
454 129
319 226
494 308
244 204
141 225
451 359
176 168
330 135
486 463
25 386
237 462
18 164
441 282
489 479
57 170
55 268
145 148
413 1
32 131
277 240
461 157
96 248
77 166
3 488
283 388
164 50
33 183
454 131
150 112
447 391
88 42
427 117
27 65
372 83
10 48
291 273
4366.67
3
