50
5
0 0 0 0 0
90 86 36 86 79
96 77 71 68 50
90 39 59 89 13
32 98 36 35 92
27 14 78 52 79
37 12 79 45 10
39 58 77 42 34
74 49 22 56 61
52 20 94 98 35
77 95 95 95 72
73 48 23 10 78
12 35 29 77 59
63 43 82 95 41
25 37 80 36 32
65 32 58 67 60
85 78 56 80 75
30 95 36 35 59
81 31 40 67 13
46 88 32 57 56
83 56 40 95 88
16 66 18 49 79
63 31 46 81 97
28 50 31 89 100
99 53 14 39 12
93 43 71 56 95
86 58 91 74 59
69 78 33 25 15
23 15 95 65 43
49 36 89 41 64
88 82 90 31 92
24 19 73 87 75
29 11 34 45 98
88 15 44 70 49
45 77 82 39 35
52 97 63 33 46
21 31 59 26 13
57 43 46 38 86
70 49 30 81 72
54 74 58 14 35
17 92 36 77 97
84 74 63 24 13
46 78 67 37 46
98 31 62 84 68
65 100 33 22 91
80 83 55 80 24
10 80 69 100 43
19 53 15 83 88
76 28 76 33 81
19 10 31 71 80
1.28039
1.36511
0.443943
0.512098
0.561857
1.49578
0.964754
1.4281
1.37516
1.21985
0.702807
0.46812
1.36082
0.61624
0.498281
1.05771
1.38744
1.15333
0.538102
0.845874
1.29554
0.978414
0.393531
1.10997
0.773458
0.375315
0.869065
1.49387
0.972732
1.23188
0.902904
0.951608
0.92444
1.1526
1.16885
0.598069
1.09334
1.38059
1.43643
1.00074
0.875451
0.465443
0.619721
0.761841
0.597778
1.14521
0.62028
0.68968
0.653054
1.00986
14 265
417 140
262 235
401 465
90 111
343 473
85 407
24 251
27 28
388 294
457 206
121 428
38 162
42 91
62 432
272 101
6 174
270 81
373 464
336 278
64 54
281 317
235 233
381 382
96 230
313 318
461 446
257 384
129 258
421 221
96 327
412 154
152 152
234 445
16 392
21 101
79 381
272 216
13 484
177 7
36 263
201 158
354 76
493 252
141 473
3 313
72 216
16 351
134 242
184 71
6925
2
