50
3
0 0 0
52 16 96
50 89 45
32 21 52
43 34 78
100 43 35
34 45 20
17 11 11
19 26 50
64 29 75
36 96 91
55 13 88
30 61 83
34 90 56
30 67 75
73 22 69
60 78 87
39 79 100
34 64 37
36 75 81
74 83 54
47 82 22
35 20 17
44 41 15
81 58 96
75 97 11
61 35 16
91 59 54
72 46 36
89 34 84
27 29 41
51 36 91
76 12 39
14 100 16
94 30 73
53 84 62
40 34 77
86 26 18
79 18 75
75 15 98
73 80 36
78 98 87
11 23 28
73 44 34
86 86 33
18 80 76
62 87 26
82 98 13
88 47 38
22 83 86
0.619371
0.777229
0.531766
0.993012
0.466233
1.45753
0.425199
0.487934
0.506482
0.978419
0.413828
0.978868
0.577152
1.25032
0.780073
1.25114
0.632876
1.17738
1.36125
1.36488
0.315106
1.26431
0.982627
0.503045
1.39336
0.31663
0.318844
1.13156
0.436903
0.649173
1.37939
0.800542
1.46915
0.92795
1.35181
0.70254
0.943921
1.23348
1.23297
1.29201
1.10521
0.725765
1.19647
1.17742
0.602522
1.1359
1.24964
1.12936
1.03479
0.666736
2 31
309 281
369 14
60 242
224 492
451 207
67 128
303 464
164 364
57 112
16 478
193 259
483 87
111 370
67 342
389 330
334 380
68 335
329 164
366 101
104 368
349 426
482 151
282 68
55 296
324 463
190 273
192 363
304 482
186 483
40 263
411 229
344 194
121 12
230 14
412 110
463 299
388 37
391 272
188 432
263 220
17 212
49 147
393 288
374 257
320 417
86 198
205 209
106 427
90 324
3332.5
4
