50
9
0 0 0 0 0 0 0 0 0
45 91 89 48 16 25 44 75 50
51 85 61 62 58 98 73 56 34
84 65 75 95 16 28 60 57 57
44 74 33 13 68 23 66 90 14
17 93 36 71 29 97 53 53 45
98 47 80 18 32 98 38 60 50
40 10 64 42 28 24 75 69 34
91 69 78 86 92 99 84 28 58
85 67 22 73 87 18 82 52 60
78 64 20 59 22 28 51 52 69
97 65 49 59 53 84 67 26 43
84 60 43 75 41 98 66 100 34
69 56 80 85 19 22 40 34 15
100 95 61 48 79 27 97 46 61
72 42 56 38 23 38 39 93 82
34 15 83 20 88 88 11 14 54
37 37 14 31 91 14 41 16 42
98 12 76 17 84 37 62 56 25
40 77 64 61 52 80 86 28 44
36 78 39 37 72 52 42 11 79
63 15 18 13 71 75 44 96 61
91 28 96 24 34 91 63 55 58
11 22 76 52 56 91 55 63 82
57 18 15 86 98 32 88 30 85
74 66 23 47 40 99 19 84 54
67 78 89 19 66 93 73 34 80
78 14 31 75 25 71 74 45 10
41 99 18 41 27 55 37 21 56
48 39 61 77 91 87 94 25 40
21 87 53 77 78 89 36 76 20
58 44 68 30 60 88 92 31 50
58 14 57 51 75 76 12 80 21
92 50 45 28 24 81 83 25 77
31 58 93 19 47 32 68 91 95
96 30 20 58 89 16 99 50 76
22 68 80 86 25 73 67 53 60
98 67 25 56 40 89 22 25 62
96 51 60 89 21 95 31 53 56
63 82 52 24 12 19 69 34 49
73 91 29 62 14 22 45 18 19
40 45 69 23 25 85 50 76 84
70 96 75 79 14 16 80 55 39
90 11 19 77 71 97 34 73 86
75 39 28 30 52 37 80 97 64
83 69 13 54 30 41 18 34 25
48 82 75 49 60 79 78 70 37
49 38 11 90 39 40 76 61 32
47 33 81 41 78 14 31 81 63
76 87 51 14 93 70 63 99 38
0.790644
0.78408
1.49768
0.926847
1.94395
1.48496
1.78942
1.3548
1.82662
0.523627
1.50923
1.08751
1.40586
0.505114
0.805377
1.38553
1.73975
0.828279
1.37783
1.62974
0.993152
1.64976
1.47086
1.71516
1.01855
0.570344
1.12201
1.28368
1.1047
1.33933
1.83557
0.929564
1.07772
0.50041
1.05704
0.731247
0.941975
1.5635
1.59184
0.977652
1.07556
1.21022
1.60389
0.769926
1.69344
1.24215
0.573204
1.18997
1.4038
1.11382
147 240
117 5
35 413
68 28
319 488
282 493
225 466
4 310
392 482
303 90
376 492
269 489
240 78
271 371
388 293
311 249
444 338
218 296
105 121
320 245
65 36
181 360
485 448
443 109
269 381
415 158
220 470
291 486
322 60
97 30
385 467
383 209
122 183
253 298
424 281
464 498
63 58
346 64
376 83
161 155
423 312
29 233
143 285
172 222
235 144
321 438
3 233
412 291
283 474
150 210
3385
4
