50
11
0 0 0 0 0 0 0 0 0 0 0
39 21 74 50 87 18 83 47 58 97 58
53 60 13 32 70 59 97 94 95 65 77
98 18 68 65 89 95 52 53 83 62 33
15 33 83 53 25 97 23 89 11 67 52
77 64 21 76 93 92 18 13 31 14 72
62 16 16 64 67 10 23 17 55 81 12
88 40 65 47 94 55 89 39 92 79 67
71 27 60 57 43 19 70 71 54 67 70
61 18 69 27 80 98 45 57 16 99 39
97 99 34 76 40 89 57 16 28 10 10
100 65 47 89 13 14 71 54 37 81 62
57 70 22 61 98 73 87 97 48 35 89
82 61 22 20 10 33 77 74 28 69 83
57 77 77 69 77 70 82 70 23 57 19
38 11 55 26 100 59 59 32 71 77 15
96 63 62 21 92 65 73 100 38 27 85
17 80 80 25 63 12 66 89 18 18 82
66 14 12 53 79 73 87 24 17 59 75
22 78 90 89 50 78 56 45 37 15 24
48 85 76 99 78 62 98 54 15 50 87
53 12 69 94 75 31 95 84 89 11 34
80 26 17 23 23 39 60 10 97 32 78
22 10 30 89 30 97 50 35 33 50 32
52 18 91 34 12 76 49 62 92 58 36
69 72 73 27 49 58 99 96 19 54 90
19 67 72 50 64 17 94 60 28 49 28
33 12 92 15 43 32 33 49 61 30 52
53 69 28 41 83 79 29 33 23 58 40
42 57 79 72 73 87 74 30 15 13 51
31 10 39 30 39 36 45 33 72 64 25
33 42 67 94 57 61 52 76 79 57 32
33 68 56 91 32 20 35 42 81 58 99
37 63 78 49 63 10 90 53 85 73 85
41 64 31 81 35 73 23 42 45 24 82
13 65 91 21 49 60 68 61 53 41 47
76 83 74 25 74 39 26 63 31 35 48
85 67 33 73 43 87 42 79 41 15 25
88 50 86 21 78 85 30 94 41 59 57
52 90 65 16 46 74 42 75 66 75 43
19 68 62 23 49 59 23 87 52 45 85
33 47 85 28 45 47 22 59 16 33 92
40 65 64 75 76 38 68 98 86 15 99
11 91 18 35 55 56 64 71 97 56 40
60 47 70 10 99 32 37 80 95 58 44
84 86 17 87 99 17 53 72 35 36 69
56 52 81 48 87 19 12 24 92 94 79
42 20 67 13 32 76 74 96 84 18 87
29 61 51 28 14 20 91 38 30 72 15
12 70 88 52 73 11 84 86 77 89 20
1.6812
0.844832
0.44185
0.477304
1.57265
1.37895
0.872932
1.52539
1.80269
1.0562
0.718937
1.22483
0.796475
1.41003
0.747075
1.21278
1.13915
1.02236
1.18405
1.10523
0.475757
1.27248
0.859819
0.757003
1.1488
1.38078
0.509372
1.21585
1.24786
1.58859
1.90069
0.891024
0.836924
1.82597
1.51335
1.82692
1.19995
0.429465
1.90236
0.932349
1.87949
0.866657
1.63355
1.77637
1.52305
1.00534
1.16054
0.61426
0.927192
1.10566
214 346
252 296
312 144
329 464
296 313
49 14
144 89
5 418
449 496
84 241
432 158
95 469
422 68
151 335
476 489
109 153
204 449
387 52
433 23
104 386
221 449
200 421
498 213
408 250
276 433
251 368
314 303
371 40
450 101
183 267
493 134
25 471
342 375
13 360
7 216
334 328
416 170
201 278
306 95
237 219
15 471
460 363
379 277
329 309
386 399
403 193
339 69
158 419
320 400
415 349
13410
1
