50
7
0 0 0 0 0 0 0
60 89 72 46 36 49 92
88 91 18 53 77 59 27
76 84 43 91 92 27 22
13 96 21 15 60 60 64
33 22 68 44 30 69 18
44 15 38 67 20 58 36
96 33 62 71 96 54 25
44 71 19 78 89 94 100
61 61 82 31 87 67 11
95 86 38 99 100 98 73
91 73 62 59 49 90 68
48 32 52 86 78 100 85
54 35 13 88 60 42 36
25 41 48 92 29 92 88
57 99 19 56 79 45 42
99 99 26 92 84 92 18
11 15 49 77 16 71 10
85 73 84 53 49 34 77
87 85 74 99 17 91 59
30 53 13 34 73 29 30
59 97 15 20 68 70 14
63 21 46 41 30 62 21
63 39 98 42 54 58 90
24 36 11 69 88 37 73
96 82 66 97 52 16 13
55 79 79 93 90 22 88
16 75 90 42 96 36 42
96 89 71 91 24 20 72
61 39 58 21 83 34 73
11 23 88 84 71 70 76
46 60 32 18 21 50 75
49 38 21 49 51 57 73
69 85 68 65 14 65 45
39 23 19 62 53 77 73
35 95 16 96 72 61 53
45 33 56 20 82 37 17
88 50 84 81 62 26 44
32 89 11 34 82 25 94
44 65 41 69 51 98 71
97 93 46 31 53 45 23
31 31 88 71 29 81 80
68 29 70 22 96 78 10
52 80 80 50 96 63 75
13 83 69 64 67 71 93
17 36 42 91 99 28 22
63 48 36 39 19 64 11
18 77 83 93 90 67 46
86 64 56 97 84 57 88
58 85 51 57 44 62 57
0.545267
0.779546
1.17481
1.0234
1.24999
0.86482
0.651916
0.443921
1.08508
0.84805
1.34316
1.04279
1.43434
0.890673
0.941017
1.33787
1.18657
0.596628
0.359359
1.21182
0.751929
1.40195
0.429215
0.376554
0.8033
0.976133
0.990607
1.00393
0.515484
1.46675
1.31449
1.14431
0.482985
0.821343
0.690463
1.33717
0.677157
1.27421
1.10709
0.925857
0.390751
0.682679
1.4135
0.737809
1.37225
0.698838
0.618179
0.302887
1.43657
0.310571
214 427
85 230
205 252
281 28
232 185
51 137
478 302
458 350
465 82
491 436
313 462
240 318
314 417
499 339
476 217
230 394
500 335
52 377
125 237
160 275
193 136
64 456
285 234
65 444
391 407
18 41
464 78
473 203
242 60
449 17
120 326
378 168
242 112
185 297
112 110
480 43
308 466
388 383
221 39
213 184
110 495
11 346
26 147
389 330
292 329
15 433
487 281
71 22
136 87
250 334
3520
4
