50
3
0 0 0
66 97 22
87 86 37
80 71 42
60 33 32
93 62 37
42 62 54
79 95 81
31 14 76
60 87 35
14 79 62
49 65 22
94 34 30
61 84 55
48 94 22
70 55 81
66 53 45
86 24 20
43 60 100
76 78 75
34 70 35
35 19 51
46 61 59
67 55 40
76 67 68
96 42 49
85 14 98
37 46 32
77 13 21
18 59 91
54 15 12
53 28 93
23 56 66
95 64 99
99 74 43
74 90 58
38 52 57
16 99 34
83 29 10
86 64 87
25 85 45
26 86 34
16 94 65
59 54 70
32 99 79
64 84 59
100 60 98
72 99 54
66 98 54
98 65 32
0.202057
0.262535
0.436567
0.388927
0.490462
0.241496
0.4932
0.379378
0.113089
0.303226
0.489529
0.198643
0.300861
0.377266
0.440242
0.465024
0.180233
0.191022
0.108648
0.188779
0.30145
0.45978
0.346083
0.147622
0.167883
0.410586
0.136402
0.111886
0.335465
0.498033
0.377172
0.235969
0.151587
0.407952
0.12834
0.337932
0.499655
0.259267
0.355339
0.29801
0.223105
0.424158
0.399465
0.432322
0.150856
0.28438
0.148829
0.358774
0.185079
0.25334
327 184
490 417
361 448
339 483
363 476
103 52
312 402
285 48
77 24
247 429
403 32
204 393
309 63
93 122
210 130
319 426
82 95
260 310
4 367
189 256
28 105
179 58
29 342
205 495
471 87
124 444
32 291
19 79
173 241
456 139
447 229
403 154
272 107
255 233
184 9
110 61
211 234
99 152
111 265
332 54
101 483
384 111
432 374
295 255
95 375
317 230
472 178
372 88
195 369
440 419
3603.75
4
