50
9
0 0 0 0 0 0 0 0 0
20 57 39 81 85 41 94 32 35
51 84 14 20 53 74 83 81 94
75 36 96 26 100 65 34 16 41
60 37 97 72 35 52 95 92 64
66 82 76 82 29 34 16 97 48
18 23 37 79 64 58 19 68 35
73 26 86 25 33 62 29 13 77
47 11 29 77 20 73 48 74 11
88 14 48 42 85 13 100 33 94
45 43 81 99 59 62 53 66 97
58 17 50 90 81 51 35 25 80
72 38 90 76 56 67 84 66 42
70 14 54 36 74 23 37 11 91
40 15 55 16 20 43 17 72 72
75 90 86 84 96 61 96 35 30
66 63 79 19 11 35 48 62 98
71 51 35 50 84 25 37 73 54
56 20 53 60 38 21 44 37 21
57 22 54 20 86 51 51 41 63
19 89 45 54 68 14 16 18 40
96 14 44 21 98 22 59 55 12
33 67 50 77 63 42 44 73 49
51 29 59 39 70 61 13 50 40
19 66 90 87 13 82 17 60 75
74 32 19 74 86 50 58 90 65
57 30 66 69 10 55 60 24 70
23 76 79 53 30 35 45 77 13
55 52 81 12 31 94 95 26 31
91 17 70 75 78 39 77 18 30
14 15 52 19 42 15 65 65 21
96 63 78 21 48 34 39 21 55
76 79 23 86 37 24 71 10 96
75 61 45 22 13 16 45 94 15
27 25 95 87 81 64 42 21 90
73 70 22 71 72 69 68 47 66
70 41 71 21 79 27 98 72 22
50 89 72 19 95 15 55 59 25
67 55 30 11 17 41 55 27 44
87 24 84 29 13 91 45 70 46
100 76 43 87 48 50 65 42 72
46 40 100 94 91 89 37 85 71
29 52 44 31 70 22 86 15 54
79 61 27 44 75 72 32 34 82
57 79 66 56 45 17 94 76 83
66 98 44 23 76 36 56 70 86
33 25 13 66 90 85 87 24 86
20 18 38 22 42 48 76 74 17
78 49 59 21 96 65 95 35 43
35 14 35 14 54 78 88 78 40
0.985716
0.233793
0.605603
0.73979
0.728168
0.217443
0.343356
0.799518
0.296089
0.686824
0.598624
0.200472
0.459713
0.721316
0.592208
0.689062
0.664838
0.991675
0.317303
0.424704
0.202602
0.381957
0.509258
0.4553
0.644621
0.208266
0.63359
0.684959
0.614037
0.698299
0.609871
0.22877
0.761033
0.799184
0.995218
0.913603
0.891719
0.702669
0.737074
0.336682
0.470731
0.751951
0.776826
0.43356
0.559846
0.434727
0.769881
0.55921
0.344066
0.915069
437 324
170 172
462 488
95 207
103 99
8 162
154 231
126 174
442 376
84 16
2 278
32 46
106 301
3 328
26 312
282 314
418 6
416 275
202 75
64 148
346 308
197 474
285 187
177 124
100 119
28 124
226 93
197 31
170 490
437 362
62 446
395 129
278 20
7 197
57 3
42 15
281 104
161 119
58 29
467 380
359 469
78 134
15 7
270 122
35 20
475 216
57 260
390 255
393 208
18 19
3265
4
