50
9
0 0 0 0 0 0 0 0 0
89 33 31 82 66 76 39 46 62
82 95 51 22 53 61 92 37 99
99 73 11 40 77 38 92 97 89
72 56 84 11 12 33 26 63 47
38 28 19 31 75 79 86 75 91
97 99 79 76 91 57 100 54 10
92 21 20 68 92 37 86 97 29
63 20 98 55 43 78 11 22 56
13 99 19 13 93 15 46 58 13
90 21 26 82 88 81 18 31 60
60 73 13 92 73 49 92 99 21
17 42 49 35 29 79 95 83 16
34 47 51 71 69 40 96 60 11
70 15 27 84 100 23 57 23 88
47 87 65 85 62 65 93 95 86
84 98 89 68 88 41 88 70 53
80 87 95 30 12 39 70 34 85
22 87 53 13 52 50 83 17 66
80 76 13 14 15 96 47 83 41
68 99 24 88 71 26 33 74 35
42 59 19 48 62 18 92 39 56
55 15 96 49 33 51 85 94 100
61 15 61 99 38 11 63 62 85
60 60 86 97 12 27 28 57 67
45 82 38 23 23 96 18 70 40
72 69 93 31 96 39 93 44 41
68 91 35 45 69 69 45 31 74
47 32 88 56 11 12 28 22 55
37 54 69 83 29 20 13 83 13
42 14 96 26 33 58 79 78 82
22 24 34 37 54 56 50 36 23
94 94 32 87 55 41 78 29 45
18 19 51 14 74 90 59 73 24
76 19 95 29 95 91 80 21 28
88 29 36 42 45 72 75 92 31
97 90 22 59 94 80 37 29 94
39 59 84 21 80 88 61 55 64
82 92 69 12 91 61 93 36 24
22 10 12 22 55 52 79 89 74
38 79 52 11 97 50 86 44 41
85 57 61 40 44 50 97 44 78
57 19 70 95 87 64 56 28 81
37 71 14 23 44 14 26 54 22
43 79 94 26 13 45 42 73 91
45 61 62 27 43 73 60 14 27
99 16 33 58 80 32 58 21 31
42 14 90 94 32 79 71 99 100
79 87 92 90 14 55 50 85 42
26 10 67 94 46 58 90 58 80
0.507032
2.3662
2.13519
0.721548
1.18411
0.639022
0.50073
2.08166
1.10381
1.86927
1.26641
2.07606
2.03366
1.86622
1.27405
2.23393
2.31691
1.71793
0.86496
0.610186
1.18838
1.04957
1.4579
1.36779
2.47638
1.14946
1.26078
1.4647
2.03311
2.17556
2.14953
2.3251
1.83464
1.13591
2.19146
2.12127
1.81234
1.38128
1.41658
2.26847
0.642383
2.21387
1.78161
0.900728
0.648704
1.01944
2.46355
0.873647
0.628511
1.05736
140 367
214 50
431 336
198 237
260 12
394 179
430 430
414 499
105 450
156 382
180 425
20 238
366 232
114 428
404 181
375 149
327 327
408 98
58 222
161 361
62 219
335 276
426 204
134 168
447 495
319 55
42 303
455 471
42 209
13 21
38 315
240 320
44 289
7 118
162 107
238 186
233 132
223 303
237 248
433 5
406 460
108 159
0 140
304 371
176 181
317 110
72 149
17 191
66 272
379 463
6880
2
