50
7
0 0 0 0 0 0 0
18 76 46 71 32 22 75
26 42 96 79 76 32 56
20 33 52 49 83 55 20
11 26 62 22 37 46 38
41 10 97 13 30 29 63
25 44 39 31 60 18 42
17 64 83 98 52 10 44
46 22 95 36 58 95 18
23 14 36 33 34 76 33
69 13 78 42 84 36 45
90 33 14 73 15 65 27
69 54 29 57 80 83 21
100 36 40 42 12 69 68
98 53 71 70 13 22 65
33 71 61 86 96 92 15
76 78 36 27 35 42 17
25 83 85 68 45 31 43
14 83 46 87 81 88 67
62 91 97 74 63 57 53
99 67 58 64 68 75 79
73 22 32 40 19 28 60
10 25 11 36 25 23 36
94 31 50 18 31 77 97
14 56 82 11 38 82 34
13 99 31 92 28 59 86
45 87 12 13 37 78 55
34 63 17 78 96 72 62
80 92 47 18 22 17 29
85 65 84 81 53 38 61
87 83 78 55 85 47 87
13 34 79 77 15 26 67
90 34 34 16 100 47 38
50 61 11 75 71 57 90
68 94 48 80 73 63 53
88 59 72 80 46 90 87
89 46 29 80 80 43 10
41 19 55 100 82 19 43
63 53 97 76 56 18 34
99 54 64 72 93 83 48
69 91 34 63 77 32 42
54 95 22 85 76 42 34
81 40 49 98 84 34 21
96 84 15 67 73 19 78
89 38 43 58 15 76 79
57 90 95 11 28 43 16
98 22 98 11 92 10 63
20 53 76 83 46 79 36
85 32 93 30 79 68 75
17 28 51 30 58 51 39
0.358635
0.864
1.40473
0.360238
0.489036
1.449
0.921159
0.335928
1.34923
0.511261
1.05331
0.682795
0.795171
1.24341
1.11086
1.01669
0.847055
0.414712
0.784303
0.698711
1.25678
1.36778
1.00995
1.13635
1.09492
0.328813
0.731226
1.19118
0.60461
1.11352
0.676748
0.477869
1.16155
0.852576
0.376048
1.06312
1.43707
1.33392
0.991782
0.570168
0.360619
1.11008
1.24021
1.00529
0.382806
0.302555
0.739325
0.876516
0.321438
0.794956
407 193
489 412
196 306
465 269
38 132
129 267
430 184
19 237
489 2
464 54
362 395
398 168
168 433
418 443
91 465
474 139
413 312
228 363
474 215
347 476
474 103
161 483
239 362
11 4
309 180
171 486
59 342
179 270
424 335
89 181
390 122
238 147
216 278
88 439
184 464
243 378
69 95
158 223
328 189
487 344
312 206
109 392
222 278
396 254
336 451
126 155
203 220
141 187
88 452
128 74
13240
1
