50
7
0 0 0 0 0 0 0
18 50 93 65 74 36 12
59 87 44 27 79 16 67
62 24 84 58 52 37 72
16 88 62 66 28 82 80
99 64 84 87 29 58 90
76 45 69 56 57 100 62
22 13 94 36 64 15 49
28 94 66 32 43 28 21
93 69 60 14 86 46 68
64 99 22 33 57 79 54
100 16 27 39 58 91 100
32 65 49 98 68 69 84
64 88 71 24 70 66 36
74 20 33 38 56 41 27
52 85 69 48 70 63 91
91 31 77 88 64 55 47
27 98 44 10 10 61 18
59 77 70 22 31 24 53
78 66 76 50 93 95 10
37 60 83 28 90 26 18
50 21 100 98 60 27 79
13 67 38 78 58 67 64
56 62 73 42 69 53 24
100 21 55 88 90 86 95
41 64 73 80 13 47 52
76 24 46 16 19 58 19
91 70 25 67 70 47 17
45 32 82 77 48 62 44
87 96 22 18 100 81 53
35 35 53 16 100 50 89
21 75 11 40 26 64 40
52 66 88 21 37 13 29
81 92 95 15 65 18 17
57 94 46 46 48 94 36
35 76 28 72 84 39 69
69 78 64 69 19 27 87
39 21 70 29 17 81 98
23 90 95 33 78 30 91
63 51 46 88 39 12 69
73 29 45 51 30 20 54
84 23 77 65 79 73 32
48 39 32 53 67 39 72
16 56 80 71 53 69 29
53 34 89 30 53 16 10
86 72 43 51 86 52 68
14 60 60 38 40 34 81
56 80 92 31 56 24 54
25 63 95 59 85 51 99
50 85 20 37 66 80 77
0.268188
0.428001
0.336286
0.322599
0.210092
0.43827
0.28085
0.2709
0.248862
0.426589
0.186089
0.287478
0.440882
0.358702
0.338886
0.189923
0.427414
0.275757
0.157991
0.2269
0.146601
0.122083
0.192955
0.148714
0.200647
0.254867
0.240962
0.429802
0.239982
0.362886
0.158025
0.496607
0.267263
0.267782
0.116487
0.404702
0.131843
0.181761
0.143888
0.457822
0.142974
0.4673
0.477098
0.400048
0.481803
0.413896
0.360138
0.232469
0.490393
0.464049
68 393
74 119
332 484
2 155
36 344
60 226
5 57
235 472
349 275
219 421
70 55
242 120
319 351
326 231
392 201
162 100
5 282
168 359
41 229
363 414
227 416
497 337
5 289
112 31
282 465
239 163
91 369
10 470
152 35
293 249
68 471
39 294
464 430
104 84
149 350
51 446
428 268
412 50
79 105
25 289
471 393
143 276
205 215
110 284
5 420
162 1
307 137
206 293
454 375
306 431
2723
5
