50
11
0 0 0 0 0 0 0 0 0 0 0
40 90 63 95 80 79 71 34 45 20 30
73 44 44 66 41 45 76 39 92 38 53
58 83 37 25 92 20 73 78 69 54 98
87 81 30 11 22 99 73 99 44 88 44
63 82 45 11 20 15 74 29 11 51 41
100 96 28 30 38 80 67 52 77 96 65
19 94 46 73 32 54 50 65 46 25 64
35 49 45 95 68 69 54 92 55 58 38
28 45 68 57 91 36 99 59 95 32 78
42 22 22 63 41 88 60 61 41 41 94
86 28 41 58 24 32 74 97 80 16 31
46 34 24 68 46 17 75 40 57 60 53
81 32 64 58 71 28 54 88 92 100 94
27 71 32 45 69 42 98 74 94 88 56
31 32 35 57 75 72 61 14 79 52 53
14 55 29 59 22 70 68 10 73 90 53
77 24 79 26 89 17 26 55 48 38 68
19 57 28 52 23 15 44 73 31 76 31
94 96 73 80 75 97 94 68 75 78 87
96 55 12 99 24 97 55 21 86 33 22
50 28 12 100 36 65 40 84 45 48 75
86 92 70 39 72 78 34 18 75 58 36
100 23 11 47 45 28 69 65 45 35 88
70 41 77 29 35 69 96 70 100 69 27
82 43 59 78 22 47 66 11 53 24 21
46 93 79 36 37 97 74 47 74 80 20
88 16 95 31 45 84 60 14 81 63 13
41 20 66 48 60 94 98 63 90 58 68
97 17 10 81 89 20 20 27 12 82 85
40 46 19 77 80 33 10 25 45 37 43
33 39 42 77 43 57 20 18 64 64 36
53 87 69 23 61 52 58 44 24 74 46
69 25 81 25 60 39 10 10 60 68 82
100 16 59 28 75 73 16 51 14 73 42
30 95 73 33 73 45 97 84 44 53 64
56 54 91 68 68 20 93 67 47 14 42
75 41 15 89 51 71 46 36 18 100 74
69 15 51 71 51 55 38 79 45 22 33
50 30 47 38 53 82 29 13 60 60 55
51 77 45 52 19 75 85 75 20 68 36
94 70 25 41 93 18 66 69 21 77 51
54 81 41 85 15 13 39 93 47 61 71
97 90 32 62 61 17 41 26 40 71 85
73 45 37 96 77 14 41 81 48 65 45
80 74 35 39 52 28 47 87 21 36 37
39 12 49 86 59 78 95 26 25 87 52
90 49 39 30 17 51 77 31 11 56 20
96 31 70 77 62 78 72 72 44 87 43
33 85 83 94 67 10 63 100 70 90 32
1.48587
0.931751
1.5408
0.906358
1.41486
1.18635
1.48473
0.890999
1.70568
1.06011
1.4111
1.67821
1.73495
1.56551
1.04807
0.760123
1.23831
1.23743
1.61023
0.504473
0.654363
1.88279
1.26043
0.901147
1.45179
1.1688
0.894213
1.08263
1.66812
1.81642
0.536176
1.29889
0.998513
1.1501
1.66469
0.732941
0.932731
1.57753
0.612371
0.840008
1.22106
1.86902
1.38996
0.658358
1.66641
1.79818
1.82572
0.599742
0.777388
1.30964
18 42
181 24
31 492
182 361
155 418
488 102
421 335
34 246
400 93
167 347
313 229
168 409
292 369
54 184
329 189
259 122
231 486
102 490
184 391
367 389
150 74
46 108
76 141
153 38
311 262
217 395
77 459
217 182
98 340
408 451
224 339
489 241
212 401
73 138
399 491
466 389
177 472
413 397
126 398
458 249
29 203
117 150
272 34
478 17
245 188
256 290
160 111
464 177
239 159
318 495
4496.67
3
