50
9
0 0 0 0 0 0 0 0 0
52 64 90 45 24 90 63 20 62
21 26 52 96 90 26 49 81 74
44 26 80 58 94 97 48 88 26
93 36 90 37 98 93 82 21 29
24 81 92 52 15 18 58 20 20
76 65 99 24 17 45 50 86 41
54 13 63 81 62 59 14 89 52
67 80 39 62 65 24 98 57 64
69 73 73 32 85 98 66 50 14
94 37 33 40 80 86 16 82 73
35 17 68 63 19 73 34 37 36
19 60 38 60 61 13 38 27 34
95 52 36 94 78 57 10 96 97
23 80 75 48 64 23 33 61 92
36 18 18 11 94 87 25 68 12
36 34 84 44 51 21 84 13 65
100 49 93 87 37 20 10 60 74
85 58 20 45 38 86 65 88 97
33 16 20 64 10 21 42 14 40
56 10 65 41 28 35 65 74 81
77 86 87 20 68 30 29 10 14
15 100 73 22 56 89 99 65 73
27 72 86 46 65 30 69 72 61
85 13 37 59 93 44 99 15 33
88 54 62 22 79 39 100 47 52
82 91 64 74 20 47 53 94 43
74 49 93 15 17 37 16 47 80
12 69 72 80 64 83 89 24 91
50 48 26 20 39 78 44 70 66
24 11 73 14 63 13 56 67 50
58 73 85 18 93 65 64 87 29
65 51 34 79 39 11 88 86 65
19 79 62 23 70 49 21 32 89
55 77 80 34 36 39 76 26 53
89 76 92 89 58 67 41 18 42
86 57 71 48 56 66 18 34 82
53 32 60 29 92 33 41 66 95
75 47 18 29 18 62 34 19 30
90 100 100 51 72 23 89 85 36
60 74 13 58 32 67 20 56 91
57 24 41 63 100 35 34 68 70
63 74 20 67 77 61 44 77 99
65 70 74 28 85 90 65 77 76
71 82 75 59 21 69 75 18 92
77 49 12 34 28 42 43 77 25
38 30 97 49 94 47 14 52 62
27 60 15 53 69 75 32 21 76
12 75 38 37 100 72 74 45 61
99 41 61 21 51 100 50 72 14
0.510293
1.04122
0.959904
1.25205
1.21891
1.27871
1.1069
0.771492
0.72723
0.662113
0.820847
1.36585
0.839258
0.490758
1.43438
1.46543
1.12794
1.3667
0.589201
0.544539
1.19462
1.16598
1.36251
0.821975
0.77417
1.11262
0.383387
1.42435
1.37859
1.05462
1.06344
1.18931
0.704104
1.31118
0.397703
0.79891
0.399479
1.12174
1.02462
0.737031
0.816956
0.956228
0.407358
1.44662
1.34933
1.39532
0.793569
1.16221
1.11295
0.769131
132 100
176 133
466 432
410 108
246 245
70 418
171 122
327 389
172 107
103 179
345 285
382 38
117 446
280 280
262 74
464 204
143 180
357 7
75 412
70 264
236 223
102 74
471 128
101 341
469 358
152 396
183 36
488 55
180 139
199 135
429 345
82 404
473 143
75 215
120 457
489 152
391 92
295 158
500 257
199 277
243 282
203 223
465 470
420 193
143 229
367 108
324 48
146 464
196 137
183 229
2695
5
