50
11
0 0 0 0 0 0 0 0 0 0 0
92 87 20 94 83 35 86 85 96 80 95
31 55 98 45 35 28 100 76 85 36 84
20 91 98 56 25 97 80 85 18 66 18
42 73 87 80 56 57 20 49 29 51 95
38 38 77 58 15 56 97 86 42 32 46
95 86 70 95 43 59 88 15 40 16 82
52 47 92 39 72 76 89 93 96 87 99
83 99 34 63 86 87 87 94 17 82 24
48 56 38 15 73 76 67 51 10 88 44
27 94 58 18 84 89 31 43 23 38 39
33 45 14 91 92 11 85 41 24 37 45
79 50 96 77 58 46 73 23 53 82 70
24 20 92 34 11 91 26 100 67 19 96
87 57 94 10 72 46 83 18 84 55 32
18 30 15 56 95 31 49 44 64 14 80
91 99 89 18 98 24 62 49 65 19 65
44 69 89 100 85 55 81 32 41 90 52
31 36 96 98 27 97 11 83 19 25 36
78 70 80 95 48 58 32 59 23 17 44
16 64 91 74 73 30 17 73 35 21 23
73 47 92 83 51 51 24 21 60 10 28
71 71 78 26 87 77 12 78 44 66 42
68 56 31 81 54 56 59 17 93 46 61
76 33 22 45 17 50 41 83 52 58 54
99 46 52 91 96 48 85 91 21 93 60
54 11 12 97 59 67 24 70 10 39 56
98 52 24 10 56 37 71 50 41 22 99
56 22 62 72 66 10 47 43 23 28 71
57 11 30 61 74 10 83 65 74 89 45
78 15 30 27 25 43 90 20 62 62 80
53 60 58 70 35 62 10 25 46 44 45
53 61 76 82 40 97 14 30 92 95 68
92 94 85 53 46 46 32 23 24 27 13
63 89 92 21 67 62 34 15 75 75 81
68 63 82 49 35 41 35 98 13 86 65
85 72 92 93 91 10 83 92 25 36 12
67 85 71 33 78 95 81 46 12 84 99
52 69 63 84 87 21 70 34 77 64 90
52 31 29 28 41 75 72 72 77 12 80
89 81 83 48 96 50 38 53 65 59 54
51 85 36 16 65 83 45 39 61 57 14
49 82 89 62 42 25 40 88 20 59 31
10 66 76 60 21 52 92 19 59 24 61
70 59 71 82 81 66 62 25 37 75 27
69 91 54 65 14 43 18 23 84 24 35
78 61 14 25 95 79 17 71 23 70 51
59 88 12 63 58 70 58 76 86 88 78
72 18 28 89 69 65 75 71 33 92 23
45 68 45 37 45 93 85 51 91 58 92
1.88838
1.32866
2.24604
0.908022
2.02258
1.68948
2.37279
2.02515
2.06831
0.620849
2.32208
1.36662
0.812273
1.70037
1.39694
1.67813
1.1202
1.0114
0.501247
1.57936
1.16974
1.38667
1.18471
1.92038
2.46943
2.01827
1.36327
1.72646
1.76612
0.796084
2.04339
1.63162
1.90824
1.32279
1.46799
1.54935
1.33639
0.800024
2.30159
2.43209
1.60548
2.44834
1.63728
1.17133
1.72023
2.20901
2.42323
0.901295
1.64165
0.883893
452 35
17 439
441 133
286 58
71 434
84 391
41 5
346 384
403 183
498 86
414 307
280 280
171 311
12 12
394 332
192 149
149 113
303 225
74 181
74 359
90 123
405 474
373 452
207 97
357 242
65 279
420 95
455 86
330 288
140 125
408 0
301 94
344 488
306 388
387 64
1 28
289 384
306 137
269 274
316 493
202 214
62 347
84 181
84 430
342 33
238 165
100 180
197 177
265 134
423 338
2788
5
