50
9
0 0 0 0 0 0 0 0 0
22 23 84 25 30 26 40 75 50
76 62 38 33 41 96 78 89 79
80 58 52 55 21 96 21 63 29
95 79 99 47 71 37 27 38 98
82 66 18 62 18 87 19 60 27
10 34 62 95 59 80 54 33 31
86 37 36 29 25 91 60 96 87
73 53 36 67 53 84 25 41 63
42 99 37 30 99 88 59 44 86
39 41 88 55 83 33 65 87 61
65 42 38 20 57 38 29 61 81
74 92 91 68 34 76 39 69 17
31 18 71 57 19 38 66 20 60
67 51 37 18 60 40 39 89 80
50 23 61 95 25 78 69 51 62
40 73 38 87 21 69 60 84 19
15 52 77 59 44 11 60 27 20
29 74 31 37 23 17 55 42 71
22 33 94 37 27 76 34 81 68
83 40 82 80 100 31 30 66 85
13 36 71 10 76 94 59 29 44
81 40 39 78 58 45 57 61 51
95 73 75 94 86 33 84 59 15
49 44 47 17 86 10 15 14 51
45 26 83 89 83 76 44 72 90
62 62 81 64 37 69 62 61 20
11 23 58 31 18 44 70 100 75
23 36 70 56 66 77 76 63 86
87 60 22 68 51 80 83 32 72
15 99 76 21 14 28 53 81 43
77 31 43 95 15 66 99 13 30
93 74 48 32 48 91 17 12 20
34 87 39 21 62 71 32 79 59
32 53 43 61 34 26 62 44 29
43 61 81 56 12 51 69 17 90
51 29 85 97 78 49 36 78 42
85 24 75 76 91 25 50 78 87
92 80 44 38 98 52 18 36 95
84 27 86 66 71 89 31 88 14
97 61 48 71 61 82 24 31 64
87 41 35 87 87 13 64 42 66
85 35 76 94 48 73 60 32 61
98 23 95 12 25 74 64 58 45
49 62 23 44 84 76 35 68 81
62 15 49 80 15 47 72 41 42
36 99 36 18 49 54 70 100 47
22 89 72 60 67 56 76 84 11
25 61 61 54 97 78 14 12 57
18 38 48 13 29 85 69 12 51
1.78882
2.10993
1.9938
0.70401
2.2583
1.7909
1.06401
0.541261
2.35453
1.82386
0.844227
2.18488
2.27574
1.75044
0.865606
0.90768
0.842012
0.755675
1.85619
2.17716
1.54543
0.739342
2.10748
1.9336
1.73436
1.57764
1.15966
1.34433
0.892128
2.28258
1.77682
0.896435
1.39651
1.96899
0.59911
2.18886
2.35363
2.28347
2.35444
2.49095
1.4342
1.04261
0.704684
1.41934
0.691342
1.74839
0.722597
2.06004
2.47712
1.51174
264 427
251 186
115 65
200 193
126 30
103 388
240 470
10 1
352 100
261 404
198 227
353 311
415 267
467 21
93 119
263 147
354 447
117 36
29 84
478 242
180 91
385 134
140 116
110 25
110 284
68 345
345 75
162 457
496 276
385 419
367 90
359 481
149 364
369 262
243 293
90 71
424 338
142 189
413 250
100 110
419 463
339 359
479 438
213 11
307 401
24 334
334 496
263 16
173 126
18 103
2687
5
