50
9
0 0 0 0 0 0 0 0 0
94 75 52 85 80 96 60 27 40
15 52 92 94 21 23 35 65 79
56 71 21 67 40 47 48 83 37
36 42 85 22 27 74 95 78 39
85 33 17 80 65 46 92 23 16
97 76 15 15 61 82 34 61 31
98 65 68 49 53 24 72 17 48
16 19 70 54 86 25 78 84 66
20 60 20 83 61 11 63 100 14
57 87 65 70 14 13 33 13 52
77 65 57 55 21 55 48 63 53
67 27 40 50 20 78 77 46 82
78 48 21 99 83 73 66 78 94
99 32 38 94 81 40 99 13 80
74 76 31 52 21 15 56 80 15
88 31 18 80 28 48 50 13 10
65 95 39 34 35 19 63 76 45
50 40 42 65 45 15 42 54 91
39 75 70 32 68 52 43 38 95
14 89 80 49 82 56 69 93 57
28 56 19 91 48 33 85 70 43
43 28 53 44 74 60 79 51 38
74 20 89 38 29 14 39 71 64
98 42 24 86 99 61 20 27 84
37 12 79 51 48 63 15 36 61
82 80 55 80 63 39 65 33 57
69 78 28 20 38 23 94 14 30
66 43 99 72 74 84 89 40 46
69 81 97 28 30 30 31 82 23
23 25 44 10 61 76 92 37 72
29 98 19 44 36 63 26 53 57
87 25 70 18 71 71 42 57 88
99 23 14 91 71 77 32 95 43
17 22 100 17 89 62 22 60 87
27 23 24 90 33 54 24 34 92
39 94 91 29 31 29 19 75 82
99 35 56 39 91 40 98 46 13
83 50 67 55 52 90 12 71 87
67 44 49 32 85 60 38 54 96
24 39 18 92 26 20 16 10 41
67 68 82 19 85 56 76 90 59
66 33 61 44 85 44 16 76 60
23 23 47 23 79 41 34 20 72
71 88 18 87 57 83 53 66 19
37 14 70 27 83 48 43 11 35
77 64 27 28 98 16 85 21 63
10 28 75 53 82 41 10 96 91
66 81 43 88 60 26 65 88 78
92 11 37 88 46 66 50 98 36
1.85464
1.621
0.432076
0.572596
0.930854
1.66539
1.6129
0.716007
1.30055
1.21506
0.716414
1.60979
1.68521
0.876024
1.37928
1.87943
0.557599
0.974307
1.32135
1.0075
1.33162
1.63439
1.80031
1.00803
1.87094
0.814343
0.853486
1.1817
1.53448
0.497392
1.11786
1.47665
0.834269
1.49833
0.844503
0.594268
1.21894
1.05929
1.30075
1.73095
1.23635
1.8722
1.4885
1.30741
1.38254
1.92293
0.512053
0.885095
1.46706
0.40313
438 259
32 112
110 41
131 53
195 442
109 417
142 196
400 253
191 183
215 192
469 11
240 424
329 181
317 205
444 44
25 68
483 483
434 289
19 69
238 73
327 336
479 282
319 373
211 19
44 25
459 242
359 436
241 430
347 250
159 63
441 21
361 92
425 19
436 179
105 339
119 368
288 26
138 248
251 427
56 259
87 390
121 316
281 302
355 129
249 59
295 49
266 301
468 166
219 306
142 309
13225
1
