50
7
0 0 0 0 0 0 0
33 84 72 78 76 87 51
28 32 33 98 41 73 29
100 37 22 50 16 24 24
41 50 10 70 64 46 39
27 95 89 30 31 96 37
87 61 47 88 96 68 21
88 72 81 20 31 78 62
91 93 93 52 12 37 72
73 34 56 44 50 61 47
74 44 83 54 78 71 97
72 24 79 22 97 71 68
10 29 98 33 57 88 73
89 76 93 21 55 95 88
25 94 60 10 57 66 64
70 84 92 58 92 33 91
25 37 50 96 22 41 69
47 23 66 66 90 75 26
87 21 25 41 43 31 68
88 45 91 95 100 58 81
34 23 28 57 90 70 18
82 86 17 71 29 65 98
13 51 55 36 52 74 27
36 38 76 83 100 25 98
71 12 25 58 35 87 90
58 57 96 78 84 39 67
16 32 58 39 96 41 62
97 24 70 89 64 86 22
49 74 58 67 34 69 30
28 70 25 53 47 87 49
25 57 63 96 12 11 85
79 46 32 10 64 11 27
51 83 82 25 91 83 68
52 88 86 24 25 81 88
67 89 20 29 25 26 71
91 38 30 47 12 53 59
27 99 46 17 63 99 39
62 51 37 15 23 22 59
91 35 18 12 55 80 68
96 93 57 70 83 40 40
39 24 70 31 98 50 86
92 91 21 51 73 73 46
41 33 70 58 20 72 98
77 93 93 18 40 41 27
46 14 41 19 55 80 17
87 20 73 40 98 75 49
33 36 47 28 26 19 48
88 82 23 59 96 28 93
43 48 98 80 10 100 30
88 86 31 66 51 85 51
1.50699
0.840593
0.679834
0.615163
1.32769
1.60347
0.995215
1.07394
1.10231
1.49498
1.32842
1.14858
1.81904
0.420799
1.20795
0.974381
1.18907
1.30842
0.991086
1.49018
1.43158
1.42157
1.97496
1.61309
1.19253
1.02585
0.483636
0.601878
1.70845
0.672352
1.67875
0.882254
1.05047
1.07354
1.88295
1.82685
0.990122
1.17794
1.47018
1.28251
1.99118
0.442156
1.3207
0.834548
1.73371
1.80826
1.48575
1.63648
1.93443
1.10831
248 183
174 371
191 429
58 384
25 11
391 135
239 52
349 403
81 258
428 424
235 410
285 55
282 496
314 263
445 233
279 180
384 313
116 117
359 482
172 55
225 26
251 147
71 421
107 362
135 397
151 480
40 254
17 43
463 411
72 95
230 355
244 288
164 104
110 28
453 397
305 80
245 427
482 86
85 409
149 103
444 216
45 457
181 107
272 411
312 340
434 361
133 34
46 46
58 472
92 433
2772
5
