50
11
0 0 0 0 0 0 0 0 0 0 0
35 41 21 18 33 19 21 92 23 26 63
54 63 40 83 88 52 29 17 63 32 52
76 90 26 61 13 65 12 57 72 79 39
69 46 62 71 38 97 69 25 73 30 81
71 20 29 33 53 14 29 87 92 70 33
68 33 92 87 64 90 40 82 69 46 62
65 67 36 84 40 50 18 61 81 57 37
32 57 95 26 52 26 59 39 83 68 55
49 36 43 76 64 64 45 77 99 46 10
35 36 89 58 40 96 97 21 20 37 48
76 64 25 76 51 65 23 21 71 21 68
35 42 74 42 17 53 14 65 13 20 82
34 31 18 38 32 80 34 30 83 56 80
25 92 63 49 29 41 62 10 83 30 61
94 46 42 54 54 61 70 63 52 96 79
19 20 40 39 20 16 43 86 48 15 97
58 73 33 73 78 60 14 60 89 68 73
48 22 81 98 93 95 49 21 85 52 37
21 67 32 62 27 49 61 69 93 36 83
31 74 64 19 12 44 79 91 15 41 66
92 45 90 20 79 79 48 92 12 57 81
66 67 55 36 90 39 64 66 12 68 26
54 24 41 79 69 40 39 34 90 65 24
60 99 86 73 45 35 21 11 14 24 82
28 31 13 14 39 75 90 34 93 70 17
72 90 50 92 30 76 11 92 43 91 62
37 89 61 62 97 38 60 95 64 40 48
39 93 10 93 64 70 52 71 21 99 42
74 62 27 92 92 21 56 46 30 85 28
79 96 50 81 88 69 29 25 27 42 76
15 47 15 21 85 88 62 25 94 62 51
43 84 89 31 37 86 73 26 16 52 42
100 18 14 74 40 41 54 32 35 52 22
44 32 56 38 63 37 33 91 20 32 83
14 96 33 32 83 76 43 63 27 66 32
32 39 55 29 19 85 13 83 38 94 85
67 23 72 97 18 46 45 20 21 99 28
16 81 79 13 87 52 59 93 78 63 23
29 92 86 40 87 56 33 30 65 24 91
81 54 86 96 80 20 24 98 36 97 52
39 95 48 36 88 58 20 47 13 70 97
87 11 40 33 93 27 86 18 94 80 43
35 47 55 48 60 32 85 17 27 88 49
33 83 22 16 43 51 11 17 33 71 15
19 25 56 31 19 62 93 85 57 57 98
72 44 76 52 80 88 88 54 69 71 16
82 24 61 21 75 53 67 90 34 13 80
97 86 44 94 57 21 37 18 66 29 67
43 51 41 84 28 34 71 74 43 91 60
0.258056
0.442816
0.278757
0.156141
0.130549
0.265645
0.162121
0.363091
0.117137
0.380902
0.441724
0.367083
0.280229
0.387157
0.410819
0.148986
0.181003
0.454949
0.342613
0.182828
0.361032
0.326334
0.152225
0.4301
0.106264
0.465703
0.41542
0.208344
0.404386
0.364174
0.110831
0.154142
0.207921
0.17105
0.27257
0.202839
0.165357
0.285508
0.240157
0.20545
0.462252
0.203051
0.118678
0.490154
0.122389
0.291862
0.269373
0.404597
0.45653
0.217661
229 49
301 249
284 197
113 240
196 402
201 413
400 379
208 353
194 326
35 87
165 41
22 194
120 67
150 349
288 102
312 201
222 230
141 123
173 397
82 63
426 135
493 142
38 86
342 90
302 329
491 118
209 310
431 249
170 191
323 235
31 384
272 297
483 296
263 334
215 137
149 485
445 478
241 371
145 354
394 382
141 441
62 216
413 36
329 383
469 444
379 167
67 240
131 183
241 124
306 282
3288.75
4
