50
3
0 0 0
28 13 64
73 72 13
98 31 75
88 23 73
66 23 68
42 31 89
97 22 57
22 58 17
19 20 50
12 88 53
53 42 12
21 75 52
93 30 66
65 19 10
36 58 21
19 68 59
11 39 40
65 77 58
71 80 70
21 49 84
92 39 28
31 92 56
62 57 79
57 57 62
61 23 12
40 30 94
80 87 49
100 91 42
63 22 45
25 22 70
87 48 100
37 37 45
39 90 73
72 90 39
37 57 72
62 84 35
72 91 36
67 84 34
45 52 91
51 94 81
31 47 14
24 38 72
25 61 46
73 37 75
73 93 53
87 78 84
74 24 96
100 48 87
64 36 82
0.498419
0.420742
0.49139
0.699296
0.757098
0.941996
0.21791
0.23378
0.55406
0.425143
0.639615
0.206257
0.935952
0.478413
0.590701
0.419741
0.421613
0.866838
0.65544
0.707366
0.309828
0.832818
0.789515
0.702764
0.311256
0.984644
0.777497
0.899367
0.957208
0.598675
0.488117
0.610224
0.425481
0.580559
0.2801
0.548634
0.304276
0.82023
0.516545
0.928977
0.458536
0.826142
0.903125
0.819089
0.7708
0.458293
0.262222
0.639082
0.370503
0.462116
483 60
495 273
255 457
112 378
9 470
302 178
416 376
408 137
299 378
464 308
419 142
430 485
207 288
315 63
25 468
330 377
300 375
219 378
196 77
288 267
56 19
249 306
202 464
317 317
42 235
43 455
386 268
97 349
258 162
220 406
327 42
79 357
407 364
408 385
292 391
499 356
200 7
208 500
99 26
131 423
18 462
308 255
126 419
38 164
386 14
357 370
499 339
326 352
390 9
55 374
6782.5
2
