50
9
0 0 0 0 0 0 0 0 0
99 82 12 20 79 39 88 86 61
36 94 36 92 68 27 25 39 55
19 60 56 16 61 11 34 50 47
66 11 27 97 75 51 81 12 62
80 96 65 62 86 22 24 49 46
83 84 56 52 23 10 29 80 16
66 16 33 13 99 86 28 63 63
44 55 53 30 46 25 78 77 41
62 26 81 33 78 62 63 86 77
20 44 91 45 56 66 100 96 50
52 33 38 63 55 29 96 36 22
93 10 78 29 28 22 16 94 10
33 38 17 91 24 16 21 31 56
12 40 24 94 77 87 93 75 31
32 54 99 60 90 23 85 87 46
94 46 37 23 74 83 35 26 83
48 42 34 70 95 82 31 89 71
100 30 21 84 43 13 24 27 51
95 27 13 89 29 98 84 34 13
31 62 33 71 19 90 52 21 94
17 52 62 90 75 90 85 43 85
86 90 14 38 80 98 77 31 27
86 70 15 41 76 80 97 16 33
62 69 68 40 67 58 63 57 25
22 56 48 95 16 99 52 81 55
12 47 39 69 73 61 12 61 15
90 36 30 33 30 66 49 82 66
78 13 37 63 22 10 19 97 73
95 66 22 32 83 22 62 51 74
86 51 61 36 66 35 75 81 15
44 55 86 45 99 78 77 12 50
49 47 45 57 92 98 45 83 93
10 26 99 47 64 51 33 96 92
100 24 99 53 75 66 34 25 23
80 36 96 40 97 31 88 44 26
25 72 26 34 69 55 43 14 48
71 93 61 21 15 31 30 44 24
66 41 35 25 42 22 33 48 85
70 83 88 90 37 13 32 24 13
12 67 16 69 40 79 12 21 28
84 23 60 53 58 85 69 63 62
56 81 82 67 65 48 98 37 45
85 25 38 29 72 81 98 37 37
37 55 29 76 73 40 42 51 24
90 91 63 17 81 49 29 77 96
22 27 33 84 98 86 67 97 76
26 45 42 24 54 84 34 42 78
62 41 10 94 96 48 61 56 23
13 87 94 76 46 38 30 61 26
0.240581
0.150636
0.402405
0.182928
0.340751
0.241222
0.122174
0.138188
0.169356
0.307813
0.481114
0.436371
0.114022
0.47553
0.355922
0.465545
0.292034
0.139308
0.376531
0.324904
0.445573
0.413592
0.361742
0.285986
0.31139
0.277439
0.249074
0.143415
0.390973
0.416998
0.455252
0.180389
0.129765
0.303105
0.129189
0.480593
0.425308
0.236302
0.495675
0.197974
0.481063
0.388355
0.364557
0.248153
0.248773
0.39638
0.166707
0.231571
0.285835
0.208312
211 344
109 220
208 491
411 337
399 128
101 416
458 53
400 410
39 145
55 247
193 269
272 199
280 75
55 422
171 258
124 341
494 235
471 319
28 40
468 19
292 22
68 207
286 200
355 366
102 345
114 205
130 284
412 55
464 112
170 90
460 448
125 170
338 478
437 355
242 91
427 195
212 175
92 13
268 201
334 302
111 247
378 177
139 372
137 138
256 221
102 339
115 346
480 87
146 321
30 1
6620
2
