50
7
0 0 0 0 0 0 0
26 45 73 82 14 87 87
90 85 46 60 79 96 30
67 69 56 36 74 90 59
64 61 61 87 41 84 69
81 12 61 91 23 59 79
66 38 100 17 87 35 17
64 30 61 60 13 47 51
26 82 54 79 14 90 56
88 47 25 79 38 16 33
86 79 28 60 97 85 82
39 56 31 64 98 76 76
31 12 56 93 63 20 33
24 93 78 82 25 95 18
62 22 48 35 89 40 51
59 57 20 100 56 79 31
82 39 15 42 79 30 58
90 33 25 100 58 98 62
21 18 60 69 66 49 86
50 52 87 76 19 64 100
87 64 42 84 56 29 69
21 96 10 92 55 52 97
43 79 69 31 27 16 72
36 21 97 98 44 20 25
62 50 14 56 58 10 80
51 37 55 55 54 45 51
84 84 93 87 64 16 36
40 18 22 86 71 89 73
27 90 37 41 15 11 67
51 70 91 59 67 75 60
68 67 89 35 87 37 40
29 35 77 60 44 15 55
47 96 87 21 31 42 62
66 43 70 53 40 80 83
28 19 83 59 26 59 83
30 26 69 23 28 52 91
23 20 88 37 16 87 100
20 72 58 10 13 89 79
70 90 93 92 57 87 58
36 70 71 37 80 30 57
60 18 37 15 96 79 31
45 41 14 13 40 91 56
49 29 18 97 59 94 37
84 89 44 87 40 23 58
67 85 90 17 83 28 39
70 72 43 26 24 11 72
61 22 60 85 23 34 22
38 24 74 95 12 38 100
51 14 50 45 11 14 89
96 28 53 44 81 42 89
0.461106
0.156963
0.29447
0.251191
0.373632
0.383037
0.283434
0.187315
0.276375
0.222534
0.282549
0.436282
0.44011
0.374541
0.406465
0.237075
0.278114
0.280307
0.243115
0.108116
0.330041
0.41445
0.443895
0.212938
0.384928
0.200922
0.231894
0.264525
0.4742
0.400554
0.274745
0.139029
0.185144
0.279541
0.364641
0.277249
0.489508
0.37011
0.139549
0.213428
0.212383
0.26109
0.303997
0.330901
0.304176
0.396002
0.378463
0.451064
0.342173
0.469908
403 461
461 450
330 475
278 163
311 441
432 389
120 204
180 2
175 477
446 445
352 36
243 150
359 379
415 333
470 485
355 330
32 135
405 96
91 368
102 320
108 449
37 244
130 378
441 202
174 372
486 313
13 499
414 155
327 352
155 85
171 401
496 405
355 99
197 393
143 26
292 396
51 243
287 82
353 359
220 375
450 24
111 62
0 33
362 298
373 472
266 94
478 159
453 207
432 46
124 56
2709
5
