50
9
0 0 0 0 0 0 0 0 0
16 100 75 75 65 69 14 77 15
30 72 44 12 34 79 10 95 77
42 73 65 57 36 87 59 80 13
50 28 68 72 50 78 28 61 65
91 78 81 29 30 20 40 47 98
96 77 34 98 41 90 86 76 76
24 15 18 75 83 61 92 75 91
13 27 97 29 84 56 23 36 29
50 93 91 74 22 42 53 83 56
34 42 45 75 53 35 87 75 35
71 60 98 74 44 18 17 38 44
59 50 90 89 77 63 47 37 66
89 98 22 74 32 46 67 40 13
89 16 90 73 94 84 50 31 99
78 86 18 20 42 21 43 69 83
52 90 55 48 32 57 38 59 45
20 10 90 45 86 95 90 85 29
28 21 82 78 64 99 99 30 95
80 26 99 67 82 66 59 23 66
16 74 81 10 52 56 45 67 62
16 38 39 53 26 32 27 10 85
83 19 75 30 96 90 56 100 32
33 82 81 63 80 31 61 73 77
96 53 14 74 12 70 37 79 19
85 19 45 66 50 37 82 81 27
31 91 63 10 80 91 72 83 98
60 50 50 99 38 37 70 24 61
41 36 33 19 19 91 31 37 85
60 53 16 51 79 98 65 83 24
98 55 29 95 57 95 76 14 34
76 97 92 59 58 75 12 36 16
76 80 73 33 26 96 31 32 21
51 73 30 92 51 68 96 96 56
91 68 58 96 78 37 93 97 93
10 93 54 10 59 66 92 63 35
28 55 91 17 62 75 18 87 39
44 55 99 89 92 64 31 42 20
48 42 41 94 23 35 76 53 59
37 56 88 41 64 47 45 30 60
54 75 73 25 36 100 92 70 61
48 63 47 48 48 36 53 83 19
84 58 61 76 92 39 13 64 24
93 69 46 62 82 77 96 32 63
87 26 29 36 84 26 63 54 27
27 98 25 97 26 79 56 13 13
55 17 98 85 89 28 74 89 23
78 62 38 18 46 40 62 89 95
97 46 86 84 48 15 65 60 57
70 14 26 50 36 15 49 96 40
1.36954
0.468843
1.01573
1.39909
0.697982
0.84512
1.82274
0.447786
1.4199
0.555029
1.25525
1.83502
0.76456
1.05295
0.691994
0.645917
1.19784
0.833278
1.87284
0.664383
1.57518
1.34716
1.56337
0.990251
0.70763
1.97363
1.97418
1.55492
0.792879
0.862465
0.786964
0.546409
0.997738
0.707734
1.15028
1.25665
1.31606
0.442207
0.907507
1.70504
1.27799
0.672495
1.7222
0.478901
1.49751
1.47113
1.59309
1.24694
0.846952
1.9851
370 206
434 89
333 288
383 35
343 251
191 241
103 418
236 9
232 467
283 39
26 369
53 202
360 71
187 169
200 98
34 171
343 420
446 212
214 112
306 267
243 205
46 321
109 278
141 486
128 458
23 444
239 325
381 355
340 448
71 196
421 401
352 143
469 26
146 211
333 495
32 176
208 341
127 12
216 483
342 421
224 207
474 250
187 435
161 130
33 55
96 77
357 201
329 271
273 482
53 61
7005
2
