50
9
0 0 0 0 0 0 0 0 0
29 50 41 27 29 43 71 79 39
96 91 17 59 10 31 87 13 17
11 83 61 100 22 22 89 88 44
39 32 75 19 60 56 26 59 24
93 42 51 76 27 90 98 56 41
77 33 60 43 69 95 86 19 89
11 15 18 12 84 47 13 47 14
35 32 27 96 50 66 15 28 78
59 71 10 42 12 11 82 63 59
49 44 43 54 22 96 95 53 92
32 49 10 58 24 78 81 33 18
56 83 48 74 18 91 20 98 17
59 85 14 64 99 58 16 71 89
95 71 92 47 26 14 37 59 93
21 97 58 37 18 46 53 39 57
35 90 97 15 72 50 85 37 99
32 31 79 11 64 26 77 78 35
91 52 46 35 56 89 17 60 96
89 42 10 86 28 70 18 85 71
83 48 92 68 63 73 60 55 22
33 24 71 91 70 57 45 74 87
43 45 87 81 100 87 25 70 24
79 41 46 56 13 45 39 16 38
33 23 13 43 65 86 27 34 70
63 30 23 70 18 79 36 45 12
93 88 20 64 38 75 18 46 33
30 89 19 60 96 44 49 70 19
17 15 36 78 88 38 66 30 68
25 96 42 71 46 48 55 94 98
97 69 73 45 88 76 21 84 72
30 15 44 24 66 41 88 79 41
80 63 15 16 89 42 81 33 75
68 56 44 30 100 77 58 28 77
89 98 92 80 53 15 77 99 46
89 14 17 54 32 92 33 69 22
99 82 26 45 82 43 79 13 33
98 65 33 84 97 67 82 16 48
46 60 72 43 43 47 84 11 34
47 44 72 21 62 92 40 79 72
14 37 40 84 40 18 14 40 30
70 70 73 100 80 18 95 66 13
89 89 53 38 30 49 12 78 53
71 42 42 60 99 93 88 24 85
97 67 40 58 11 11 38 11 19
26 90 34 96 39 11 62 66 49
72 41 95 57 10 84 83 73 33
70 26 36 73 78 43 61 37 71
94 33 30 64 80 75 91 25 20
66 35 37 12 69 56 54 27 57
0.918984
0.30021
0.397868
0.289871
0.422644
0.432059
0.961413
0.558648
0.253375
0.737277
0.760652
0.444511
0.389115
0.565688
0.268125
0.229311
0.898217
0.652567
0.630415
0.426654
0.628994
0.227168
0.873076
0.959319
0.445314
0.2826
0.888544
0.756053
0.599845
0.483676
0.821563
0.434542
0.651598
0.848242
0.794859
0.965962
0.818299
0.684883
0.654789
0.587279
0.694704
0.759683
0.794798
0.51175
0.829742
0.275581
0.501625
0.583642
0.506839
0.632106
97 243
344 277
428 6
77 25
399 161
278 456
40 119
218 109
385 152
463 96
471 144
9 214
312 320
22 397
431 303
178 20
184 315
23 416
265 381
193 320
148 220
406 365
412 140
290 10
97 157
311 453
439 157
128 364
290 150
239 165
429 0
64 418
389 126
318 320
75 147
121 281
479 350
456 380
16 21
147 464
251 500
446 473
318 46
51 452
388 203
222 21
489 297
52 233
183 210
112 266
6602.5
2
