50
11
0 0 0 0 0 0 0 0 0 0 0
18 85 10 13 72 62 21 36 25 55 14
89 98 51 24 65 45 68 26 95 53 68
50 24 46 23 85 99 70 75 66 23 41
84 53 96 79 40 10 16 96 46 93 88
69 39 20 19 14 45 70 74 21 32 95
51 64 77 20 49 15 21 24 95 23 61
27 70 24 70 36 46 53 41 62 64 58
100 37 40 84 81 56 35 31 84 78 58
66 45 73 20 55 34 57 92 61 66 92
21 21 97 65 17 71 37 45 23 70 12
19 64 35 23 51 81 43 32 62 23 68
21 30 60 82 34 54 15 99 96 53 84
89 14 82 63 50 90 63 24 12 45 49
96 54 69 54 45 10 62 25 26 22 67
44 79 30 97 90 45 96 13 98 95 71
41 22 79 24 74 68 30 24 66 86 93
93 16 48 21 68 97 88 49 62 21 77
97 64 22 43 38 98 19 45 19 37 83
58 53 63 79 11 98 11 22 17 84 100
96 71 74 58 99 80 41 63 46 47 45
75 38 29 96 79 68 70 86 45 39 25
89 62 39 18 19 50 54 10 60 97 41
94 44 56 27 65 84 42 14 62 31 25
79 40 100 75 32 75 65 43 56 55 26
71 40 17 53 18 47 57 39 30 83 11
28 83 23 43 99 64 99 56 53 66 74
21 38 60 53 72 18 26 84 39 44 45
23 28 92 75 93 90 85 57 78 76 47
11 48 68 36 39 29 16 39 15 31 36
35 53 41 18 91 36 79 19 21 50 10
98 85 14 27 79 49 65 89 54 64 19
28 80 30 81 64 91 49 95 72 29 14
76 84 29 81 12 15 89 12 31 38 17
43 71 41 55 24 95 11 42 31 19 19
69 31 55 55 25 75 20 34 96 31 85
49 100 69 75 69 68 52 70 11 44 46
85 90 84 93 76 81 74 90 89 85 50
34 77 92 92 54 47 28 41 37 39 51
32 69 94 69 12 14 90 44 83 93 81
97 59 74 11 96 44 52 67 29 48 85
43 47 72 15 51 49 88 69 100 44 29
72 59 73 90 43 69 95 81 77 12 88
75 60 93 65 55 85 11 62 42 68 96
13 33 30 97 68 70 42 30 37 80 73
93 54 52 69 43 44 31 10 49 24 18
53 80 11 91 90 41 11 59 29 36 65
75 53 10 26 49 82 51 12 12 59 79
84 40 41 93 79 51 18 16 25 30 87
84 69 45 57 78 91 94 95 59 38 14
0.822855
0.750393
1.0275
1.13568
1.02462
0.481574
0.3427
1.29589
0.649979
1.13979
0.433402
1.43004
0.369242
0.373415
0.86698
0.667649
1.06525
0.400029
1.36043
0.945877
0.389624
1.45355
0.821179
0.357339
0.655006
1.31492
1.43242
0.690241
0.825051
0.612436
0.532901
1.05389
1.08808
1.47647
0.632569
0.32434
0.589957
1.21562
0.518052
0.965138
0.356531
1.25121
0.330298
1.24586
1.16804
1.10851
0.721319
1.33832
0.648311
1.0593
144 294
438 271
414 327
139 103
77 289
113 437
243 459
10 286
155 451
449 397
381 141
314 390
232 102
449 1
432 376
133 345
146 156
32 282
467 372
61 193
310 324
160 371
479 319
10 446
225 105
149 189
494 171
40 413
349 87
230 280
357 131
42 494
380 246
85 23
303 83
461 182
353 140
442 492
229 82
243 77
384 310
473 420
249 98
294 283
430 329
59 170
288 352
424 332
15 269
444 139
3325
4
