50
9
0 0 0 0 0 0 0 0 0
53 31 79 67 37 76 18 52 75
40 91 91 10 78 64 84 51 86
66 56 22 28 44 25 47 56 65
28 15 54 63 97 97 60 16 34
20 78 59 35 99 22 60 54 96
41 99 56 99 61 59 82 93 81
82 59 33 73 60 87 62 49 78
23 42 90 41 80 72 65 17 41
43 35 85 67 32 12 99 75 73
12 56 20 10 100 17 55 58 18
78 41 89 53 57 15 65 45 82
100 21 100 38 74 14 21 49 41
95 62 64 76 51 26 49 20 89
46 36 95 36 55 69 27 13 93
50 68 44 24 24 84 21 30 64
61 79 69 70 83 71 97 67 78
73 26 11 27 69 91 64 39 76
61 73 12 54 69 87 29 45 37
85 36 33 93 51 87 90 32 60
99 11 34 70 66 11 77 20 32
21 11 21 36 67 57 67 27 56
21 60 78 36 85 86 49 28 100
27 33 54 26 96 81 73 30 21
60 20 33 29 20 88 78 23 29
51 36 71 55 12 59 80 18 28
54 20 43 48 43 99 15 72 56
43 24 36 10 71 87 44 46 92
46 49 71 69 89 87 57 59 41
90 78 11 90 14 72 55 26 98
40 54 97 49 90 23 56 16 47
70 30 38 97 16 39 56 95 63
89 14 97 20 39 21 81 38 75
90 71 89 70 46 17 90 76 69
31 99 56 27 31 19 58 27 15
86 90 26 18 66 78 95 95 87
75 48 71 44 92 16 59 64 83
68 93 59 10 66 17 11 46 83
97 88 55 99 65 85 89 46 31
52 38 85 64 44 10 94 39 65
24 84 47 41 59 31 57 32 30
62 61 63 74 94 63 27 27 39
27 65 58 61 58 75 56 51 88
53 20 30 19 17 51 77 63 34
53 39 25 20 100 28 13 23 85
20 28 27 82 41 69 33 47 43
100 57 43 23 51 37 91 40 76
39 44 36 81 93 69 57 56 60
95 43 92 22 67 82 40 89 52
34 11 93 94 49 83 81 99 67
0.545521
0.346859
0.495984
0.902751
0.707552
0.26912
0.436737
0.569359
0.266101
0.666811
0.703967
0.437282
0.940386
0.642237
0.925403
0.655068
0.403333
0.730432
0.981762
0.920042
0.660222
0.929397
0.719051
0.888496
0.742378
0.726585
0.848395
0.799882
0.36949
0.574551
0.381595
0.700547
0.835688
0.889892
0.605715
0.432388
0.870155
0.370774
0.492231
0.503855
0.546442
0.664926
0.686129
0.808287
0.772227
0.988907
0.617422
0.31685
0.223585
0.216098
367 27
26 472
37 418
247 455
72 379
418 354
393 373
65 483
318 271
492 348
282 218
195 226
42 59
109 87
105 54
196 270
358 289
172 144
462 45
457 18
152 144
200 130
337 165
94 220
386 387
456 39
76 395
231 180
371 193
494 446
12 186
145 247
33 485
388 21
206 343
225 128
130 363
258 40
357 388
276 222
235 270
261 101
258 220
61 181
349 216
356 371
193 454
83 410
213 301
476 435
13485
1
