50
11
0 0 0 0 0 0 0 0 0 0 0
61 23 70 79 85 77 92 18 76 23 83
13 82 76 23 44 25 100 90 58 98 70
25 98 30 98 80 20 78 33 89 87 59
34 38 62 25 89 16 37 64 49 21 57
29 51 26 29 31 84 15 23 48 92 75
77 43 90 97 78 54 72 95 12 37 91
89 48 20 45 91 11 62 71 85 30 69
75 73 79 70 23 63 14 61 21 63 39
89 99 19 85 85 15 26 37 69 33 38
56 82 31 77 58 52 29 16 34 69 38
22 17 89 37 18 35 75 48 17 18 90
87 95 31 13 85 65 79 37 71 39 34
11 49 63 46 18 86 98 26 17 38 12
71 96 28 66 37 60 47 16 74 85 50
61 98 16 52 33 27 66 16 33 91 75
72 82 40 63 12 37 49 29 78 35 13
99 25 98 80 79 63 72 69 12 75 83
25 49 29 96 70 93 40 26 34 21 89
43 70 29 24 10 39 59 33 96 99 99
95 66 58 54 79 84 10 40 42 42 91
41 90 11 53 53 33 94 43 99 29 25
11 34 84 60 47 30 58 49 78 39 39
58 100 24 98 10 90 38 67 22 49 16
59 98 52 15 76 27 16 42 100 40 77
83 64 70 23 90 19 32 54 74 22 14
93 84 67 97 93 26 49 97 26 74 26
21 99 68 29 40 44 57 84 79 16 92
64 85 37 37 78 22 100 51 99 91 53
41 66 47 10 35 96 20 16 34 83 37
30 82 28 73 42 89 96 86 59 65 26
23 32 12 63 53 50 46 18 77 64 69
67 40 78 71 55 78 44 34 96 31 73
76 18 82 98 100 77 65 15 59 94 42
49 29 26 98 87 37 70 17 56 60 65
74 33 61 62 79 56 29 13 49 12 44
28 34 13 38 45 73 90 29 71 33 81
55 67 18 94 54 19 59 86 11 100 22
58 85 17 32 21 59 27 60 90 16 71
10 43 54 19 80 20 57 91 15 64 35
72 73 31 11 44 45 83 50 100 83 45
61 96 96 64 75 36 93 44 15 91 53
58 84 80 49 90 83 89 100 54 53 57
74 98 35 11 81 49 16 79 27 67 89
90 58 68 21 48 62 29 75 77 86 26
59 30 38 95 98 76 67 82 43 73 100
14 81 57 95 71 98 13 35 94 89 44
93 32 84 34 71 60 88 53 56 46 15
66 61 32 85 44 67 30 92 16 70 92
22 93 24 22 20 35 24 21 81 36 36
0.141022
0.492321
0.10525
0.483444
0.492516
0.315285
0.134448
0.46223
0.451255
0.233944
0.237392
0.339146
0.35999
0.445056
0.303368
0.442833
0.21012
0.255093
0.235907
0.316059
0.106161
0.427574
0.343387
0.3785
0.141342
0.38937
0.189245
0.452943
0.456937
0.282919
0.202232
0.455558
0.15442
0.410251
0.335191
0.25219
0.410549
0.246058
0.492387
0.358643
0.321969
0.463098
0.422895
0.366288
0.279348
0.195808
0.424179
0.407423
0.145532
0.144122
224 121
45 128
488 9
356 8
259 55
87 259
342 156
47 135
161 299
465 38
187 357
327 412
307 219
273 401
275 383
382 128
459 218
158 344
457 303
260 466
491 328
84 116
156 210
312 242
181 73
444 47
305 497
277 495
23 371
170 465
191 466
98 476
88 93
352 141
33 26
192 363
256 115
408 156
314 149
356 222
446 1
493 1
358 123
126 51
286 253
437 173
429 243
76 25
88 476
337 297
2708
5
