50
3
0 0 0
39 27 58
35 75 61
59 78 35
79 48 92
97 56 55
70 83 17
87 39 35
72 41 89
94 11 76
90 39 87
51 77 48
97 87 86
78 86 65
91 71 53
68 95 86
77 22 12
53 69 21
90 64 83
23 55 18
67 58 32
35 84 35
38 27 30
24 70 84
85 11 61
62 17 93
54 80 79
51 56 61
58 96 49
26 89 34
25 43 93
79 28 72
79 83 70
27 19 43
60 23 34
65 70 35
52 61 64
90 63 53
56 43 96
45 15 15
95 10 43
21 24 43
74 55 91
48 79 19
21 68 68
85 76 67
34 63 33
37 87 86
87 86 68
67 64 65
0.459177
0.274016
0.305115
0.489672
0.124581
0.369673
0.306558
0.479035
0.364473
0.463265
0.157176
0.177102
0.333658
0.106695
0.160521
0.33575
0.308259
0.468197
0.359173
0.106168
0.293475
0.384229
0.266767
0.394483
0.183544
0.296362
0.10158
0.350473
0.429691
0.491778
0.293997
0.493237
0.143901
0.417242
0.324917
0.140386
0.411012
0.4755
0.484621
0.240089
0.224535
0.238837
0.254664
0.222714
0.242522
0.463332
0.307878
0.198931
0.34101
0.44913
198 466
277 264
146 165
419 167
313 103
238 374
104 349
325 184
409 36
277 363
179 60
247 97
445 407
165 328
238 451
382 215
375 317
201 232
328 477
128 333
166 217
397 199
307 45
119 145
129 58
49 490
231 156
459 299
344 276
230 93
72 407
237 248
238 112
18 63
347 479
337 379
477 415
133 415
132 112
225 124
275 201
465 330
484 428
256 28
295 478
180 332
82 37
260 176
155 24
314 495
14265
1
