50
3
0 0 0
59 57 16
68 21 24
49 28 63
11 75 38
27 82 46
47 49 54
27 34 38
62 31 54
12 62 74
59 13 99
86 75 97
54 12 22
57 27 59
50 63 83
69 38 77
16 69 46
53 38 59
99 74 61
55 69 98
39 35 77
35 72 52
81 26 17
59 49 29
64 96 12
40 43 75
46 98 34
61 18 57
62 71 57
99 97 16
48 34 84
11 36 84
37 98 64
34 70 52
34 50 12
36 95 92
27 38 93
35 93 24
44 80 73
28 83 21
73 70 33
24 77 57
46 13 25
25 40 77
48 94 79
28 97 27
85 19 64
49 27 31
42 84 40
35 95 21
0.591038
1.41944
0.90141
1.49145
1.33748
0.32367
0.983698
0.858746
0.366468
1.00703
1.18459
1.15665
0.67167
0.302507
1.39649
1.16168
1.11964
0.696168
0.491964
1.37139
1.21764
1.48456
0.419548
0.744577
1.12824
1.01006
0.902903
0.414907
1.2886
1.34221
0.64899
0.427338
0.387865
1.44684
1.23147
0.303703
0.438116
0.999108
0.868053
0.775584
1.00578
0.89932
0.725668
0.77554
1.45735
0.411626
0.558853
0.80319
0.815323
0.629381
225 491
142 378
370 116
21 17
494 208
104 298
91 339
435 282
345 94
418 230
143 123
231 252
184 477
45 153
402 360
102 113
9 52
121 396
253 404
310 71
372 90
187 412
175 311
449 432
37 476
68 225
382 367
276 424
380 471
303 154
112 68
314 47
118 395
249 87
175 440
203 118
97 337
249 217
196 430
494 375
245 386
71 403
422 266
138 207
402 308
186 427
253 237
60 28
245 64
330 333
12895
1
