50
7
0 0 0 0 0 0 0
93 35 12 90 47 88 85
12 30 21 13 92 27 18
59 28 50 50 43 96 69
32 62 50 63 72 42 41
96 25 21 31 49 53 52
64 69 75 16 58 33 87
24 71 87 52 93 10 19
44 93 97 67 37 55 69
45 30 84 61 97 24 44
25 11 57 37 67 15 30
93 11 74 11 92 85 98
19 78 98 77 37 69 97
35 76 19 32 82 32 22
82 35 13 80 22 59 15
49 61 65 47 99 18 46
11 45 34 60 55 95 17
12 86 29 29 91 76 49
29 96 99 71 30 33 14
29 77 56 27 27 76 50
57 50 32 24 31 75 29
71 47 92 78 82 63 79
29 82 69 60 17 91 61
20 87 59 15 34 64 89
16 100 48 22 100 13 47
52 52 26 87 100 31 68
29 85 29 19 80 22 10
58 48 92 79 46 15 66
99 72 71 41 86 62 32
85 50 83 61 47 100 62
72 80 76 10 76 70 58
55 55 24 82 52 69 42
45 28 88 29 11 71 22
33 34 97 19 88 22 12
90 59 62 51 43 34 31
63 76 58 31 17 74 78
17 92 50 61 17 28 17
90 24 14 55 62 61 22
73 42 83 85 42 21 59
87 98 89 62 38 46 20
16 77 43 76 20 53 23
28 45 32 85 23 55 86
89 48 41 11 53 14 43
57 25 80 76 90 64 26
92 75 93 95 28 44 66
95 96 61 18 57 91 17
61 31 50 28 79 44 45
70 52 27 55 19 86 62
14 49 45 35 84 97 44
88 77 24 23 17 15 14
0.656595
1.86886
0.673021
0.709156
1.66238
0.711034
1.09097
1.44519
1.78028
0.568827
0.735319
1.33811
1.09168
0.769404
1.03796
1.06245
1.4996
1.34291
1.45959
1.06156
1.74427
1.79399
1.24841
0.926086
1.40179
1.37471
1.22011
1.44855
1.86897
0.941966
0.664096
0.901959
0.466516
0.529625
1.55486
0.712882
0.437237
1.77568
1.94273
0.584178
0.443456
1.79951
1.90383
1.35027
1.27134
1.56455
1.81503
0.763755
1.62699
1.4599
363 5
119 388
54 60
352 214
45 230
425 66
167 25
254 250
272 420
422 116
347 168
81 456
333 306
189 173
71 406
277 262
225 333
252 224
109 341
268 336
288 73
465 433
123 230
203 197
360 59
426 495
462 482
32 390
163 170
21 290
105 465
368 294
116 468
407 29
335 433
240 431
318 468
435 411
16 11
24 299
185 154
439 97
386 289
246 131
52 39
411 173
158 101
13 281
490 14
315 326
2598
5
