50
3
0 0 0
80 11 86
12 23 67
84 32 95
42 83 71
66 73 81
67 51 24
54 83 95
25 14 13
59 71 51
89 35 95
63 18 67
52 42 30
11 48 56
66 85 30
19 56 61
45 33 14
84 36 60
30 55 67
84 80 79
48 57 83
98 31 43
22 25 15
22 24 81
88 51 29
57 47 29
43 54 20
23 40 13
70 67 22
99 65 100
48 93 78
97 27 21
53 63 39
70 10 71
13 60 30
91 62 82
88 10 46
66 74 19
97 55 65
25 36 58
83 37 20
63 69 90
75 24 71
66 26 47
14 94 62
19 21 79
70 37 43
41 46 54
50 57 68
12 96 43
0.806556
0.409188
0.496731
1.47002
0.438593
0.581444
0.956844
1.4162
1.22023
1.20545
1.47885
1.08949
0.984254
0.801882
1.09355
0.577059
0.666957
1.4996
0.772835
0.377427
0.417217
0.464364
0.694775
1.10813
1.41689
0.57911
0.491797
1.49404
1.046
1.16242
1.11082
1.49457
0.333956
1.07223
0.745197
0.923115
0.730042
0.486941
0.512727
0.630911
0.807211
0.594516
1.31689
0.486104
0.56039
1.46114
0.334726
0.942142
1.44632
1.16828
237 123
359 28
200 192
99 206
0 129
222 353
419 328
482 376
255 191
111 57
486 331
158 269
302 453
123 146
433 367
426 470
8 3
131 207
329 80
389 156
296 81
466 83
6 278
230 145
272 178
272 292
390 369
319 280
86 316
276 338
65 21
287 316
227 232
259 371
442 413
258 79
113 423
41 111
138 198
270 205
444 395
355 246
246 414
487 479
114 12
203 151
7 433
125 477
329 266
376 357
12985
1
