50
9
0 0 0 0 0 0 0 0 0
79 30 29 21 20 58 83 93 32
82 24 82 55 85 11 52 30 83
16 50 23 90 25 81 66 32 69
41 83 71 25 61 91 19 53 57
78 91 75 48 22 67 96 42 62
75 18 83 12 37 98 95 48 67
87 89 69 26 45 27 47 57 20
100 79 71 17 70 12 26 82 87
22 49 75 63 32 68 66 38 37
66 34 72 62 35 13 93 51 89
11 67 79 35 99 82 18 34 28
81 76 36 68 40 68 41 32 63
82 59 95 13 42 32 35 48 90
10 66 82 69 70 94 82 59 21
81 41 81 22 89 38 18 44 57
14 99 12 96 13 20 66 23 45
85 84 82 35 40 57 50 16 74
82 43 66 78 27 56 38 16 78
15 52 19 53 97 11 100 10 35
34 98 39 67 25 59 71 87 57
26 24 73 59 22 50 60 88 20
32 29 80 13 85 67 42 88 85
42 91 52 24 67 30 62 14 41
17 78 97 49 12 55 71 29 33
26 24 89 92 51 74 23 40 74
91 77 81 88 98 37 17 32 26
66 33 50 68 72 14 47 23 61
21 19 90 51 95 39 99 58 78
43 97 62 78 36 41 18 87 31
22 93 94 88 19 28 57 84 13
29 39 83 63 93 71 13 30 34
81 75 61 38 32 61 87 88 37
27 58 82 17 94 44 64 95 17
26 66 53 29 64 77 74 47 78
58 21 67 88 68 67 36 28 27
95 55 46 70 34 65 35 80 70
11 24 49 47 34 47 83 27 42
21 94 29 59 61 65 15 52 31
63 36 62 86 48 88 64 95 15
82 40 96 66 24 25 13 59 72
72 35 13 90 81 43 84 74 73
91 40 77 91 84 87 12 76 77
80 31 100 36 26 47 26 57 61
42 49 33 57 11 25 54 16 43
58 83 81 10 44 83 57 77 30
58 41 96 10 18 52 19 51 91
77 46 25 41 80 80 12 79 38
72 53 63 95 96 68 10 100 44
96 84 20 90 17 31 35 95 57
0.422009
0.329572
0.398386
0.378787
0.418493
0.140919
0.249478
0.473249
0.356045
0.334147
0.470477
0.357978
0.491131
0.281201
0.465821
0.112514
0.41961
0.427513
0.407088
0.421221
0.414696
0.162303
0.457182
0.242441
0.335843
0.248357
0.125547
0.106656
0.124968
0.40497
0.362871
0.119136
0.251939
0.278636
0.181898
0.172164
0.411495
0.261303
0.348207
0.290899
0.40631
0.342279
0.217111
0.419498
0.256132
0.328754
0.166545
0.249879
0.105514
0.270184
404 28
390 18
370 400
292 443
177 401
82 460
434 456
366 46
32 257
16 31
408 377
329 430
109 239
260 300
197 397
140 12
222 30
18 208
116 283
167 26
187 206
273 50
23 61
58 86
134 105
263 246
411 65
127 478
467 234
348 354
347 120
162 437
357 151
322 414
369 160
275 194
137 226
448 416
360 101
113 192
471 250
235 230
380 297
72 182
250 55
122 145
356 33
51 208
186 102
279 467
3337.5
4
