50
9
0 0 0 0 0 0 0 0 0
27 69 34 98 32 100 20 79 94
56 56 23 80 25 21 28 89 12
17 98 95 35 57 25 83 96 66
51 94 60 75 45 41 83 81 56
75 34 41 47 77 93 71 15 55
41 23 91 11 94 90 47 65 55
57 21 93 44 23 14 60 79 51
27 35 45 46 86 91 90 100 69
45 96 47 29 67 73 22 81 21
36 63 95 32 10 37 28 18 39
57 19 44 51 28 66 45 48 27
11 73 73 15 64 74 56 37 57
88 77 66 84 20 62 99 95 82
44 27 18 79 92 21 18 88 24
70 76 51 37 28 85 93 33 41
84 58 49 14 94 16 70 17 69
63 67 63 58 33 54 47 91 32
57 66 68 80 96 72 79 80 49
83 80 95 61 90 25 42 59 95
92 73 61 54 54 81 51 27 52
52 29 23 42 74 86 46 52 21
91 12 40 82 60 92 51 30 33
87 13 74 24 50 35 78 21 33
38 11 71 58 53 26 20 32 62
42 85 43 93 83 92 44 63 90
81 24 46 36 35 79 51 68 74
77 56 81 18 20 53 74 77 83
28 70 59 85 63 69 35 19 25
42 33 24 11 96 51 46 40 19
36 63 28 16 39 75 97 92 81
23 42 56 12 73 12 55 11 17
37 70 63 91 66 40 81 74 53
86 52 32 75 81 86 83 75 19
64 31 70 22 69 39 72 53 31
87 70 41 25 93 29 51 58 14
61 84 82 17 92 39 35 37 22
98 45 68 75 91 82 58 88 53
23 16 23 12 76 98 43 16 92
19 28 52 53 18 22 67 38 16
32 82 98 63 17 84 48 43 97
76 62 65 54 58 58 75 16 88
85 58 71 82 80 35 52 27 76
64 55 93 61 89 73 21 72 48
94 94 47 15 87 54 56 90 67
16 36 32 86 97 10 35 57 58
45 20 72 79 48 51 77 40 50
13 72 89 98 91 21 100 81 84
47 86 56 13 32 45 71 46 39
86 13 37 73 57 46 23 91 74
0.452048
0.379103
0.257508
0.247316
0.259489
0.444135
0.465408
0.150912
0.228531
0.111608
0.349706
0.29348
0.339522
0.445175
0.465709
0.329837
0.264389
0.413867
0.168952
0.402472
0.397782
0.279319
0.346824
0.207959
0.195719
0.160451
0.181771
0.32719
0.378054
0.240978
0.433621
0.160288
0.468571
0.305643
0.202541
0.387094
0.231282
0.396236
0.441254
0.370279
0.329889
0.305519
0.421828
0.288159
0.267373
0.279623
0.232416
0.340354
0.436012
0.372378
103 178
292 248
30 490
414 68
430 267
196 287
397 246
417 139
350 384
498 156
401 374
396 409
41 493
262 290
307 235
480 10
363 143
284 58
40 425
357 358
241 238
240 214
141 125
339 336
204 285
231 355
466 331
268 342
73 58
372 11
292 86
499 336
235 320
14 308
314 67
402 315
144 347
391 121
9 456
492 162
19 251
500 49
156 185
459 184
68 344
4 178
303 216
212 199
88 429
23 33
4541.67
3
