50
7
0 0 0 0 0 0 0
40 80 81 78 52 90 99
28 48 97 28 63 78 11
58 32 96 46 79 82 95
30 68 13 86 78 77 62
34 41 68 57 21 91 68
65 52 37 18 13 44 86
41 88 20 87 23 14 52
27 66 64 26 36 28 24
84 32 39 28 69 33 52
22 31 18 22 59 58 33
35 27 61 60 10 13 49
35 37 50 18 64 54 28
11 96 28 25 67 49 95
99 33 48 18 45 92 68
27 89 51 97 18 99 48
54 36 49 51 80 29 18
35 65 10 27 11 72 73
91 11 80 35 17 13 18
14 91 69 65 52 26 23
13 22 69 17 94 17 22
48 95 26 69 75 98 80
94 75 60 12 59 50 48
98 13 32 42 31 57 19
12 32 62 33 42 39 76
99 16 32 89 67 85 61
81 46 69 78 96 63 100
41 85 44 21 85 21 100
87 95 63 40 17 95 96
53 85 76 21 69 81 21
46 61 50 85 95 71 71
89 92 43 26 17 32 15
16 70 20 66 72 37 54
97 67 23 85 15 69 11
47 51 56 69 14 26 42
99 55 62 96 85 42 40
30 46 43 75 46 96 13
41 25 67 15 83 52 87
90 50 81 57 28 59 24
97 14 15 53 67 32 80
47 50 100 84 39 96 12
21 15 39 80 95 33 82
25 51 49 88 15 53 98
12 36 56 95 15 44 86
40 33 59 61 71 58 86
94 81 40 70 16 75 36
11 96 18 91 78 53 52
20 15 55 57 65 44 83
12 75 24 93 78 86 20
36 55 80 78 16 50 60
0.482728
0.707319
0.491015
1.42384
0.887745
1.55478
1.86965
1.32541
1.37926
1.61597
0.792044
1.38459
1.02101
1.94748
0.623422
0.832269
1.97341
1.21708
1.60038
1.99326
0.93792
1.33983
1.61885
1.94651
1.84709
0.840882
1.45086
1.39811
1.95355
1.98235
0.692636
1.57987
1.05807
1.47614
0.858859
1.08389
1.87921
1.50814
0.500008
1.31681
1.27836
1.20245
0.959367
1.3846
1.98881
0.539076
1.8472
0.939
1.80484
0.523873
269 101
230 264
354 132
392 430
429 325
21 64
204 47
35 83
26 337
237 199
165 143
81 175
482 455
365 140
201 323
409 289
481 405
325 170
240 249
427 27
402 452
465 114
230 222
46 488
266 111
168 291
304 405
374 86
385 351
438 305
50 189
93 66
463 182
469 45
96 465
459 341
464 78
233 199
172 20
494 232
1 266
145 210
354 261
335 107
362 331
134 298
80 134
130 228
373 42
193 112
6497.5
2
