50
11
0 0 0 0 0 0 0 0 0 0 0
82 17 56 95 94 33 69 71 77 100 42
43 69 52 96 29 70 53 63 37 17 10
46 27 73 69 15 43 31 90 91 57 41
14 90 74 75 93 41 86 63 96 47 42
47 45 94 49 60 46 39 27 35 21 12
45 36 42 42 36 79 39 18 29 32 77
16 31 15 72 47 82 38 98 61 53 60
24 70 71 63 33 41 46 55 99 100 48
20 87 39 67 85 25 20 94 34 40 36
85 22 47 77 63 34 18 10 55 18 87
37 16 44 25 72 35 48 63 82 88 30
46 85 16 16 27 56 95 32 15 57 34
75 39 94 12 51 34 23 55 72 85 21
74 27 65 10 43 73 95 12 86 83 95
16 80 14 80 30 35 97 82 65 53 85
59 48 38 51 18 10 32 44 64 18 23
19 96 40 95 78 30 32 30 70 68 77
71 43 62 78 44 33 65 26 71 56 82
54 82 57 50 42 25 87 50 11 37 29
99 74 50 25 11 33 88 92 57 10 35
51 57 21 72 44 91 87 39 35 68 39
30 12 67 82 54 37 61 27 58 25 15
17 80 21 58 46 87 11 73 14 24 78
57 39 25 19 77 54 15 58 93 27 62
96 76 42 75 25 99 75 92 18 100 99
55 40 79 17 33 64 57 40 68 87 57
93 29 93 89 47 19 85 40 11 97 17
49 36 18 71 11 98 18 45 45 97 14
82 99 68 81 97 49 98 92 17 89 19
30 16 43 87 89 80 26 31 33 43 95
33 57 59 48 100 57 88 81 68 22 61
69 85 17 63 40 27 58 81 60 83 98
16 51 91 46 60 88 12 16 13 44 22
38 96 22 78 27 33 81 79 71 25 18
12 16 97 13 45 20 74 65 66 90 71
23 33 16 66 49 61 85 33 29 88 63
90 18 45 26 65 75 66 27 62 11 20
83 22 84 97 69 17 37 31 88 43 71
87 87 68 14 90 87 10 81 79 58 62
67 51 18 73 44 16 35 75 83 98 96
73 16 64 24 50 60 11 98 100 53 31
100 10 36 48 83 20 75 56 93 66 93
22 41 33 93 12 16 76 48 69 11 68
64 75 73 96 77 98 56 28 11 60 84
36 60 34 95 39 30 45 78 50 97 32
34 44 70 77 13 50 17 85 49 88 12
86 89 53 19 38 46 12 25 15 46 64
94 15 85 26 81 10 68 33 41 44 57
85 23 67 51 30 17 51 46 64 96 49
1.42673
0.709026
2.09196
1.29211
2.3618
0.808615
1.99362
2.47167
2.15264
1.56936
2.31102
1.20422
1.51109
0.663898
2.22556
0.957873
1.21739
2.22901
1.70289
1.6461
2.33839
0.56328
2.02793
0.622563
2.02383
2.48626
0.903901
2.21691
0.688384
1.44417
2.35812
1.21376
0.697959
0.606589
0.534515
1.21264
0.946874
1.56135
0.791141
2.45259
1.55915
1.82864
1.8077
1.30014
0.930192
1.41727
2.41656
1.84629
1.38906
2.07649
141 236
250 205
171 358
52 45
387 294
286 149
254 367
253 193
26 57
459 379
399 411
419 332
362 86
140 421
151 16
51 203
137 140
337 114
32 293
446 436
91 401
212 358
199 121
175 6
7 324
400 113
242 200
153 265
345 53
274 424
188 431
8 374
433 283
499 493
87 499
196 483
155 245
166 459
305 497
329 474
488 242
93 69
57 255
473 475
358 392
113 229
238 290
357 416
14 102
138 170
6522.5
2
