50
11
0 0 0 0 0 0 0 0 0 0 0
15 40 38 30 83 88 11 77 49 34 82
50 74 67 39 80 84 13 57 45 64 59
60 70 92 55 18 25 34 89 60 48 26
97 33 88 93 82 41 15 89 18 73 45
65 40 29 19 93 15 67 43 35 28 69
94 56 82 71 86 53 27 66 96 98 70
21 71 33 97 27 61 34 41 91 24 48
41 65 67 85 34 62 25 89 31 84 22
58 40 17 11 51 82 52 95 70 48 51
28 91 18 50 93 45 13 25 85 34 64
17 93 45 60 46 96 24 43 56 77 37
39 82 36 14 54 58 38 58 92 80 94
24 32 47 53 41 48 42 31 40 66 56
10 64 53 27 94 41 39 20 48 46 23
93 45 89 26 14 74 23 53 18 17 84
66 75 57 70 70 13 31 96 63 32 58
21 95 13 74 99 33 91 51 64 72 54
36 94 42 89 60 84 76 26 45 53 60
22 99 59 93 13 51 63 12 54 83 86
29 71 40 16 72 64 66 90 17 17 51
96 32 83 11 16 22 90 86 42 93 68
40 67 54 34 77 71 88 39 43 35 48
79 28 85 37 44 57 13 27 25 24 27
35 89 75 52 57 18 42 37 96 59 29
48 62 19 22 71 25 29 24 91 62 84
12 53 52 22 20 37 89 16 100 43 36
96 74 98 35 29 71 82 80 69 98 69
86 30 28 91 42 74 48 94 98 59 54
49 69 12 93 34 77 46 52 40 59 24
38 97 80 57 91 98 85 53 61 22 95
92 98 16 62 91 35 15 43 63 18 34
70 67 90 84 40 18 86 40 86 55 37
33 72 66 50 41 93 24 100 29 35 41
17 29 98 94 44 14 12 10 12 39 61
63 32 93 15 50 55 94 92 95 89 94
21 44 65 72 87 31 62 53 77 82 86
85 98 93 73 98 47 78 36 38 67 28
13 21 90 79 55 30 15 18 82 36 78
77 37 96 44 94 85 29 23 94 91 65
81 19 37 54 14 91 22 37 62 65 91
32 91 68 69 65 10 46 86 71 94 21
56 13 89 100 91 11 54 63 13 62 79
99 47 31 88 40 38 28 59 41 44 15
24 48 20 91 50 81 63 29 51 64 82
18 29 16 79 94 37 41 10 82 11 73
24 35 87 24 90 59 89 57 25 18 34
73 100 46 90 43 62 90 30 33 53 91
76 73 12 76 84 56 18 20 57 41 100
81 15 62 56 32 90 13 55 46 100 88
0.268352
0.149348
0.473442
0.159773
0.450228
0.185108
0.423303
0.307782
0.29286
0.31224
0.45722
0.254616
0.476295
0.182687
0.463937
0.268678
0.205623
0.161246
0.146961
0.234101
0.104827
0.144855
0.116456
0.347549
0.135461
0.267154
0.495675
0.162327
0.121012
0.422062
0.302671
0.457548
0.380449
0.491359
0.473323
0.208422
0.350812
0.102562
0.359903
0.41143
0.188945
0.425043
0.163779
0.463762
0.27383
0.193082
0.446841
0.297203
0.458408
0.332378
83 396
450 499
333 320
232 402
102 493
321 105
296 399
462 374
63 190
190 273
192 226
124 23
449 312
434 361
16 406
68 136
415 82
64 182
437 287
415 428
290 453
120 337
152 410
199 28
111 288
342 210
488 69
250 3
201 95
332 138
447 225
496 82
124 165
248 444
190 24
146 19
416 411
241 474
138 120
260 131
255 491
25 186
83 136
413 131
80 280
243 137
194 387
120 385
422 327
42 346
4493.33
3
