50
9
0 0 0 0 0 0 0 0 0
81 15 36 59 57 28 23 89 84
48 21 57 72 85 74 66 100 20
15 99 69 95 41 12 30 98 68
100 84 59 67 97 34 89 95 44
20 48 80 10 16 88 30 13 71
73 82 34 12 26 77 73 14 78
10 92 87 84 58 77 56 29 46
12 87 55 46 29 43 75 15 95
32 11 75 18 64 22 98 16 44
88 94 69 60 23 95 25 59 21
13 58 70 68 98 24 27 16 71
33 37 12 85 35 56 44 92 41
63 88 90 20 88 10 97 73 12
50 51 63 85 25 87 10 41 82
23 51 22 78 70 60 52 31 45
37 81 63 57 56 53 60 71 74
95 23 89 61 29 30 63 45 15
10 25 42 36 62 81 37 63 83
47 68 79 94 27 93 100 34 89
72 24 83 39 30 30 57 63 28
78 81 49 71 63 99 72 97 75
20 11 96 83 31 30 79 42 22
86 63 37 64 94 60 52 88 67
18 98 96 63 57 34 72 16 68
98 35 67 71 37 97 39 68 13
11 16 48 35 30 48 27 42 11
10 24 37 61 88 89 18 19 82
44 84 31 11 10 96 95 79 29
14 48 71 88 19 10 66 47 62
55 76 22 85 78 90 92 41 30
42 61 52 69 45 63 28 83 61
82 42 18 25 32 75 33 17 85
78 95 14 32 86 98 93 18 88
43 79 62 95 46 66 68 65 90
72 28 95 21 46 89 66 30 57
28 56 91 91 62 72 95 53 66
26 89 94 21 94 49 100 72 98
80 29 53 91 90 54 23 50 55
69 54 30 54 49 85 81 99 44
39 97 98 22 73 21 55 88 50
77 71 48 48 54 95 54 25 81
13 45 31 35 93 36 46 92 61
29 64 48 38 56 50 19 96 73
98 87 68 16 62 23 38 61 53
18 13 22 42 49 75 82 99 28
25 72 57 72 95 90 20 30 12
55 98 35 62 41 19 20 51 89
39 96 61 79 75 86 56 87 67
63 36 49 91 30 73 52 50 72
0.561652
0.809436
0.470175
1.47496
0.867532
1.75146
0.80117
1.37543
1.70943
0.781785
1.06294
0.58039
0.662279
0.791613
0.702628
1.45206
1.60972
0.724685
0.711619
1.08603
1.82852
1.71831
0.661509
1.90794
1.5201
0.913524
1.44994
1.35052
1.71298
1.60645
0.496838
1.37615
0.500846
1.81203
1.93289
1.31202
0.495806
1.93724
1.62904
1.91031
1.64944
0.899479
0.749044
1.66656
0.915438
1.95593
0.579921
1.1461
0.457903
1.32206
21 220
185 342
252 86
129 237
79 255
269 169
413 212
123 438
416 157
462 339
112 460
2 326
130 91
325 229
304 39
33 181
322 418
323 478
499 469
446 244
390 108
19 24
443 45
479 70
433 20
432 168
123 55
223 59
27 449
220 443
210 358
422 136
288 171
189 51
337 375
117 376
407 206
266 349
308 298
120 314
484 445
9 432
335 290
192 246
448 359
6 90
426 54
406 124
237 147
402 205
3441.25
4
