50
9
0 0 0 0 0 0 0 0 0
29 40 62 71 48 28 15 32 25
63 18 63 77 11 48 41 46 26
13 42 10 44 34 30 90 100 75
89 47 21 23 96 61 28 99 26
53 68 94 63 100 95 47 14 46
45 99 100 92 42 20 47 67 45
56 46 88 69 88 29 45 50 99
69 50 18 44 62 26 78 33 20
16 47 56 69 92 49 75 83 43
90 95 53 66 64 36 30 78 90
17 70 32 94 60 51 53 33 76
27 60 26 76 90 69 36 47 70
34 55 47 21 99 99 94 17 52
10 13 65 44 41 58 69 15 32
71 48 56 82 62 77 11 96 16
88 10 74 21 82 97 77 70 32
43 81 33 58 43 32 25 92 50
60 20 19 40 19 64 79 100 21
43 40 51 96 79 92 74 82 63
61 52 73 22 24 26 13 48 35
59 56 23 37 74 34 77 24 81
30 73 69 22 86 86 13 21 78
38 81 54 50 59 94 38 61 65
69 14 68 92 94 35 29 36 62
13 73 51 54 89 50 53 73 64
98 31 31 20 33 71 94 49 18
38 65 55 80 59 25 24 58 84
47 28 50 42 78 13 50 20 39
24 94 18 23 67 14 94 66 94
95 37 100 71 99 70 55 65 26
47 83 79 58 48 21 87 73 97
57 52 22 90 52 77 57 83 55
15 100 84 22 98 53 40 25 80
83 40 76 50 68 69 90 18 82
97 61 77 83 88 63 71 58 87
83 74 46 46 52 78 79 88 39
61 18 54 53 79 21 80 98 78
46 61 78 31 95 73 37 18 49
15 74 69 97 17 80 37 61 88
62 29 84 15 46 60 70 13 53
14 69 93 73 66 21 68 64 61
29 78 18 17 18 81 65 52 23
91 28 38 77 34 78 86 23 68
53 92 19 54 80 51 26 12 100
31 26 21 27 33 38 86 60 17
14 14 31 81 37 56 37 48 31
55 28 60 36 29 92 86 60 87
32 41 42 37 98 17 13 62 79
31 19 96 80 67 27 72 70 76
0.431234
0.570302
0.972993
0.320863
0.607203
0.537768
0.664521
0.36506
0.892144
0.985943
0.43994
0.778883
0.979205
0.916201
0.539421
0.342871
0.496449
0.565342
0.942901
0.885103
0.772669
0.680883
0.438641
0.828237
0.306831
0.458164
0.810891
0.306901
0.532954
0.736886
0.772865
0.528196
0.203371
0.791464
0.423842
0.908449
0.951663
0.943362
0.266776
0.44465
0.582333
0.570048
0.431964
0.429922
0.508085
0.671526
0.494218
0.475292
0.392462
0.849616
109 281
463 232
145 489
10 70
457 419
221 212
96 400
46 403
103 280
425 348
146 219
302 316
156 161
334 166
462 492
18 159
11 69
367 251
151 282
497 220
334 496
17 59
209 264
91 332
391 43
486 370
360 360
170 373
384 386
236 157
263 104
40 283
38 476
17 128
171 141
328 173
166 132
298 486
250 239
110 189
499 255
487 88
46 401
203 271
469 224
185 376
331 219
397 470
4 87
342 137
2688
5
