50
7
0 0 0 0 0 0 0
83 95 46 20 62 34 94
26 16 77 100 13 18 67
96 55 87 75 36 68 62
87 67 99 34 84 79 63
17 23 64 93 31 42 13
18 39 94 94 11 60 42
12 91 72 11 88 89 89
97 99 68 43 75 75 97
84 68 74 81 40 11 20
22 39 43 64 13 39 60
88 47 16 28 67 51 27
29 30 87 83 63 56 77
65 22 23 56 14 21 71
81 22 94 71 36 12 69
65 71 92 91 23 54 67
50 80 70 72 81 94 13
25 36 72 69 55 82 28
18 72 42 13 99 61 92
56 68 91 92 100 99 81
76 39 22 73 79 15 57
42 66 39 24 73 98 75
90 22 74 46 91 81 63
82 34 41 85 60 39 98
10 98 60 89 53 55 53
34 79 85 90 29 64 17
75 50 49 92 43 60 72
26 82 90 50 89 22 22
20 87 81 42 50 16 81
53 18 16 47 97 16 60
27 51 95 22 61 31 94
58 42 30 54 83 88 69
97 31 41 63 95 73 31
69 94 21 74 31 57 81
88 58 33 18 25 34 71
25 31 73 19 93 47 23
63 13 51 60 71 80 62
15 68 94 51 85 15 47
85 62 15 10 90 66 14
72 24 15 86 61 27 19
58 98 34 21 55 28 89
34 44 61 82 10 54 53
82 20 43 66 32 36 68
85 57 72 12 31 99 14
63 44 32 71 39 92 39
39 77 25 46 50 41 96
69 90 63 96 75 48 55
49 25 42 63 51 70 99
34 73 45 46 90 99 16
45 88 76 58 39 63 43
0.694929
1.88553
1.88102
0.605755
1.17665
0.715042
1.43652
1.11205
0.458563
1.43508
1.83629
1.79279
1.39771
1.63184
0.417932
0.783332
1.45627
0.787261
1.94135
1.18181
0.725115
1.39597
0.731735
0.756429
1.68062
0.880539
1.19342
1.77018
1.88749
1.97609
0.545772
1.4326
0.868826
0.466984
1.03811
1.9501
1.16361
1.35356
0.92948
0.417014
1.04733
0.632683
0.412602
0.485274
1.34756
0.695717
1.21737
0.877743
1.39878
1.99582
106 349
62 334
134 148
219 229
192 247
323 410
24 284
357 438
372 39
260 140
31 264
393 241
347 282
262 381
46 287
18 45
106 441
140 10
84 201
422 92
498 462
328 80
284 94
481 475
331 83
479 251
249 449
63 270
164 144
204 470
255 372
120 179
282 488
102 287
394 271
379 32
157 325
299 499
268 446
292 341
461 79
500 348
399 485
481 26
195 69
305 63
304 304
414 3
39 1
69 100
3456.25
4
