50
9
0 0 0 0 0 0 0 0 0
33 69 93 40 68 81 81 14 77
44 91 11 75 22 71 54 71 23
17 79 87 60 44 41 17 88 79
40 62 36 76 61 48 30 34 60
78 65 68 99 30 27 94 21 66
63 100 76 17 38 42 16 57 30
85 98 90 29 65 20 26 100 22
27 32 62 24 72 45 42 81 30
25 18 13 81 45 19 32 12 35
52 22 96 63 100 76 71 98 30
58 23 61 98 94 73 31 100 76
85 50 63 74 64 88 30 17 32
23 42 38 42 60 28 36 76 21
12 79 91 36 27 98 71 46 33
56 76 71 45 29 34 54 84 36
77 63 36 61 51 35 89 99 14
59 36 44 96 99 23 64 75 100
100 67 50 94 67 44 97 55 37
11 75 97 77 15 75 38 14 45
34 82 18 100 95 67 14 96 59
54 58 52 60 79 62 25 67 18
65 86 53 78 60 61 81 54 65
95 96 63 71 28 99 100 19 73
20 32 16 43 69 69 39 43 28
100 45 80 87 58 73 68 82 65
46 48 28 64 84 68 34 67 87
99 91 98 56 67 22 92 33 47
58 21 29 68 88 35 46 76 32
16 22 30 35 54 51 91 40 62
83 85 65 47 24 50 94 37 16
24 80 82 29 38 88 29 36 94
89 72 74 65 37 78 91 76 84
90 24 44 30 59 69 25 24 63
21 79 67 94 18 74 93 54 42
43 95 49 49 40 79 91 76 52
34 71 11 98 87 36 85 95 48
92 27 17 60 18 63 83 18 10
41 87 69 12 50 22 84 64 43
61 84 70 95 27 80 95 46 99
89 48 19 41 24 93 48 35 48
75 96 44 16 38 41 94 38 31
58 36 37 29 60 14 61 69 59
27 94 27 66 23 57 13 59 62
74 51 38 17 83 13 95 85 76
89 23 25 62 52 33 29 59 56
31 20 64 83 93 74 72 23 32
33 96 88 69 48 72 22 15 28
97 10 75 17 79 67 20 40 95
33 91 78 76 56 19 29 95 100
0.481532
0.494791
0.681669
0.251746
0.446515
0.498211
0.780059
0.442253
0.571539
0.853066
0.430201
0.441188
0.736654
0.243206
0.693963
0.989963
0.225436
0.524646
0.335597
0.667629
0.944383
0.426772
0.301383
0.512195
0.557511
0.309375
0.851449
0.268146
0.225807
0.511028
0.368012
0.844963
0.859855
0.575216
0.901392
0.398512
0.840939
0.98793
0.771797
0.809897
0.845274
0.262833
0.965519
0.476771
0.234666
0.910445
0.359357
0.355539
0.470789
0.39812
153 100
235 500
381 68
306 474
362 268
28 68
368 150
233 110
443 100
221 363
171 233
318 318
115 276
17 342
166 167
428 107
493 69
153 347
362 48
220 375
247 301
81 319
145 132
343 485
48 431
126 195
385 194
430 262
105 232
305 64
416 364
250 139
400 174
65 3
292 228
177 495
432 78
26 319
2 372
289 193
229 409
220 193
475 22
482 410
194 400
200 136
314 338
22 201
183 157
179 250
4590
3
