50
11
0 0 0 0 0 0 0 0 0 0 0
13 23 95 17 98 81 20 57 59 90 20
22 42 59 62 96 62 43 69 41 76 15
49 30 37 43 75 20 29 12 87 68 26
39 35 82 27 49 91 86 29 99 23 81
77 61 34 51 53 11 25 75 14 48 75
30 88 10 55 78 35 13 77 21 29 26
85 39 50 99 18 72 28 99 58 58 63
81 52 70 39 92 34 60 14 60 23 58
83 71 59 49 67 32 17 86 45 39 92
38 73 26 32 85 96 20 12 68 98 50
92 25 77 30 79 86 81 72 42 68 57
85 83 13 19 72 79 81 32 89 31 19
40 46 93 28 64 12 48 62 65 78 66
96 79 51 57 77 62 29 31 12 15 62
64 85 37 77 25 99 57 44 96 20 17
11 28 13 20 24 54 73 66 31 55 73
21 53 26 87 49 89 16 65 37 10 12
40 24 98 28 25 67 10 89 64 56 11
61 37 53 21 19 91 59 40 15 16 27
47 51 81 89 56 75 38 65 14 25 28
65 45 29 46 82 93 62 72 17 88 78
50 52 84 79 90 25 74 40 40 100 98
10 72 78 44 73 94 61 56 12 27 18
88 30 33 48 38 53 32 67 40 43 60
100 25 52 45 66 40 14 23 41 86 66
75 44 46 85 40 42 40 58 95 50 88
18 31 58 48 36 72 38 99 40 97 10
15 44 89 100 34 83 25 35 75 12 90
73 56 73 57 65 81 75 18 42 22 29
73 25 50 10 61 32 56 48 43 58 80
87 34 78 18 48 41 96 71 93 26 19
85 91 68 28 36 79 10 35 12 33 31
46 52 89 47 100 51 62 75 14 55 77
97 80 89 74 68 82 72 26 19 86 98
84 84 28 66 43 43 20 67 48 14 51
47 26 55 16 11 84 38 48 68 72 76
44 99 82 97 26 89 43 92 86 57 88
10 71 44 20 13 64 61 29 91 90 53
64 10 79 13 33 46 59 70 48 23 90
86 100 79 62 42 60 56 15 44 91 73
24 24 36 22 99 28 28 31 63 93 98
27 63 28 60 31 65 49 84 56 41 31
56 96 96 49 17 28 42 95 78 15 62
63 16 58 31 59 39 52 19 82 72 91
28 83 89 69 57 32 83 45 77 28 10
70 88 24 23 66 11 89 89 10 57 64
84 76 10 82 83 20 34 48 92 62 98
81 41 59 15 74 76 85 22 94 73 45
82 81 84 32 59 24 51 85 98 75 49
1.03909
1.71589
1.62766
0.59937
0.737209
1.33789
1.40776
1.02499
0.847869
1.95786
1.06425
1.04875
0.594079
0.446484
0.918633
1.56825
1.43246
1.7293
1.07372
1.81255
0.827265
1.14069
1.76374
0.692406
0.538258
1.95285
1.29643
0.680961
0.724531
0.837537
0.784263
1.1335
1.44343
1.43064
0.694202
0.454101
1.60095
1.85875
1.1663
1.62869
0.583022
1.17554
1.31018
1.41281
1.39955
1.37691
1.5423
0.809613
1.366
1.08897
251 400
114 199
130 342
472 314
489 309
219 178
445 9
88 452
152 414
259 200
443 403
320 124
449 5
227 304
9 40
123 133
270 38
9 417
74 487
51 465
369 489
349 425
394 227
271 401
245 340
214 226
8 234
391 97
166 135
307 103
372 213
179 297
388 366
467 265
489 407
37 188
32 254
235 371
26 98
416 125
156 463
221 366
413 379
391 132
127 399
31 18
367 347
454 211
273 25
138 400
3306.25
4
