50
11
0 0 0 0 0 0 0 0 0 0 0
47 20 24 85 56 25 41 15 44 89 32
90 23 79 37 74 18 58 53 86 48 57
64 20 44 16 76 45 14 48 88 73 78
44 28 75 51 84 91 36 95 29 96 73
38 31 53 47 16 85 98 84 51 11 21
14 99 22 81 64 63 40 99 52 77 32
96 50 36 39 20 51 85 10 15 63 77
84 66 75 34 11 76 15 24 83 89 24
47 69 67 44 21 26 11 61 36 14 44
26 12 75 42 59 58 73 13 48 85 42
77 52 35 57 49 33 57 95 34 28 10
93 83 87 100 76 27 91 88 90 55 10
81 79 68 97 40 93 37 38 88 27 82
66 36 78 58 57 61 30 77 47 41 87
36 25 66 49 90 63 27 19 90 86 78
73 77 44 90 98 16 63 46 61 85 11
47 49 39 41 43 82 19 17 58 75 78
88 26 61 23 78 87 42 75 85 25 11
46 45 42 95 50 18 41 62 42 79 28
47 61 93 62 13 92 72 70 79 13 95
81 70 37 10 33 13 55 23 99 62 19
35 69 90 43 60 35 79 35 100 81 97
39 17 39 17 92 66 66 23 56 95 56
56 60 58 70 91 64 81 38 63 43 44
46 66 29 73 96 64 83 43 14 76 92
97 24 74 90 95 96 21 87 24 70 87
11 85 18 49 81 10 35 73 64 60 81
19 89 67 98 89 29 82 82 84 97 94
38 61 87 58 92 52 75 99 21 80 29
57 19 84 41 68 26 92 69 31 95 59
40 26 64 13 18 47 13 68 44 86 10
68 98 35 16 64 13 28 36 59 88 82
58 12 49 17 78 31 99 43 88 40 37
45 78 62 50 83 52 95 75 13 83 98
79 31 18 21 68 98 37 92 64 60 16
24 58 27 78 59 85 95 40 42 19 43
59 49 52 86 92 45 35 84 15 90 28
88 86 73 82 87 56 10 66 67 65 73
84 43 91 29 73 54 10 32 96 47 17
77 70 86 39 79 89 79 30 10 37 95
29 99 67 14 87 57 75 33 24 36 32
71 56 70 52 27 67 10 53 58 33 82
25 95 77 88 71 10 31 44 85 94 38
85 75 95 69 45 32 93 14 77 97 66
81 61 22 81 21 100 29 81 43 27 38
75 43 57 28 70 43 88 93 96 73 59
39 41 28 38 52 44 64 27 12 39 93
51 57 98 10 40 35 66 10 84 72 80
83 67 80 41 76 60 42 73 55 96 19
0.622073
1.02338
1.28447
0.766861
0.88745
0.704642
1.21118
1.25744
0.883989
1.01817
1.73988
0.478826
1.64512
0.629065
1.85516
1.14717
1.21123
1.09426
1.82187
0.760792
1.34883
0.532626
1.15911
1.72524
1.39444
1.04397
1.31628
0.908342
1.13124
1.78426
0.713733
1.75137
1.00461
1.47544
1.60965
0.796132
1.43929
1.14414
1.0785
1.06055
0.654518
1.82177
0.80749
0.635876
1.71847
1.74781
0.972128
1.3601
0.574168
1.27779
147 198
205 434
488 495
264 123
79 158
383 355
467 401
22 157
171 283
144 172
185 307
20 262
2 298
363 459
237 494
387 201
95 143
354 115
403 245
324 198
431 35
305 266
427 93
323 469
488 304
442 461
487 26
301 461
127 71
4 485
202 207
162 173
8 49
410 393
256 44
178 107
100 107
273 300
230 206
54 489
188 365
36 482
298 323
348 151
393 168
441 4
87 381
125 402
42 470
79 498
2762
5
