50
3
0 0 0
34 93 51
94 54 50
95 40 19
35 87 96
64 61 47
68 70 97
87 55 49
54 92 54
31 63 69
12 75 80
34 92 46
20 30 67
85 30 82
26 58 18
45 62 100
70 26 23
90 55 35
100 13 50
75 33 92
89 43 59
66 75 24
15 96 55
28 45 14
86 53 13
62 79 37
19 69 10
40 10 58
99 50 49
85 47 90
12 72 34
82 41 15
10 12 33
75 61 81
89 19 79
48 19 21
59 46 14
48 39 61
82 76 42
70 77 89
63 85 68
14 30 63
22 41 44
72 66 33
67 83 91
88 16 49
41 62 18
31 16 33
13 30 20
50 32 11
0.407436
0.981299
1.35466
0.779531
1.3204
1.4053
1.41357
0.866559
1.0869
1.30329
1.06205
0.64777
0.946899
0.859745
0.573166
1.37003
0.623439
0.9694
0.983582
0.510879
1.13744
0.425953
0.447939
0.40531
1.43199
0.984192
0.413959
0.433804
1.42011
0.395263
0.454926
0.40858
0.481152
0.732672
0.707709
0.678747
1.07574
0.300625
0.345943
0.475703
1.29968
1.25322
1.43509
0.596218
0.607218
1.27947
0.670212
0.977017
1.29645
0.972115
443 51
371 58
12 199
162 283
477 351
188 1
252 9
284 362
307 329
215 481
288 143
100 285
176 10
431 29
462 303
415 351
77 57
322 34
442 333
171 453
449 216
338 368
469 426
468 202
370 435
431 196
168 262
408 229
256 131
411 478
65 42
152 499
224 196
80 272
411 401
80 56
478 278
389 405
264 264
426 25
476 39
195 394
191 406
385 167
8 379
413 41
46 358
349 224
232 112
475 145
2585
5
