50
9
0 0 0 0 0 0 0 0 0
37 53 58 50 63 68 97 55 79
10 18 23 73 80 80 10 17 97
67 85 87 84 43 26 36 52 79
60 19 37 23 44 61 38 88 51
11 80 99 84 88 90 43 72 46
77 27 95 37 11 68 66 93 89
43 23 50 74 29 19 70 33 72
88 25 24 53 69 62 42 11 72
24 61 80 61 55 57 63 99 68
42 22 96 39 97 96 67 36 38
68 29 62 69 66 72 20 94 83
33 94 85 74 17 32 62 44 97
17 64 67 13 72 63 24 64 84
99 46 69 89 25 49 75 100 66
50 87 89 22 61 100 69 24 67
71 18 62 90 91 97 94 21 69
76 89 83 45 11 56 59 35 29
20 24 90 66 90 85 59 57 25
96 85 83 12 69 78 69 73 63
15 72 40 96 22 57 91 30 20
75 55 40 59 53 69 18 59 63
71 46 41 35 79 78 57 94 42
81 56 25 38 23 74 20 32 10
85 55 50 43 19 26 54 31 86
49 56 65 90 78 61 35 97 47
73 75 14 24 37 19 47 63 66
36 34 77 93 27 18 56 82 17
17 66 59 84 13 70 21 73 60
51 73 66 50 46 91 43 64 79
50 36 42 25 14 22 56 88 68
96 69 46 21 36 55 51 62 67
58 27 24 39 75 93 25 29 43
53 71 46 32 28 23 50 31 63
63 94 34 95 17 98 99 96 12
86 42 30 77 48 54 17 47 45
12 71 90 94 13 60 34 27 47
78 38 52 28 26 69 41 10 49
52 27 23 82 17 24 81 70 75
48 65 69 100 60 53 70 43 82
22 22 60 87 74 84 33 15 52
10 24 21 71 64 21 80 49 43
43 27 20 59 17 70 68 85 33
15 18 33 59 71 45 27 85 43
96 56 65 83 46 13 39 100 67
17 96 88 70 39 84 59 52 83
86 22 41 89 63 44 72 91 71
14 27 19 33 21 34 54 11 24
28 36 94 29 26 100 55 68 17
90 91 90 82 72 60 56 32 27
0.434175
0.1571
0.496215
0.237237
0.190384
0.247767
0.418027
0.381375
0.369307
0.2437
0.235515
0.18783
0.130859
0.161918
0.44416
0.424918
0.303179
0.452364
0.12007
0.250052
0.18012
0.102645
0.188607
0.434098
0.13251
0.323671
0.151967
0.270882
0.263106
0.125633
0.229656
0.112992
0.351929
0.385653
0.104123
0.125023
0.103591
0.394717
0.114565
0.45343
0.302498
0.22379
0.397365
0.103901
0.157036
0.397774
0.46663
0.178778
0.19503
0.305021
148 165
83 406
405 267
443 410
172 261
98 441
380 362
136 379
267 165
121 309
344 363
270 15
341 348
129 156
9 460
14 490
196 281
207 332
220 487
127 141
330 320
294 445
439 421
152 122
132 16
179 292
252 106
165 434
7 267
349 239
411 133
434 432
64 459
147 275
179 259
197 342
340 0
203 374
21 404
308 39
19 27
349 441
300 7
470 472
271 200
76 259
497 430
140 369
114 354
27 418
3353.75
4
