50
5
0 0 0 0 0
10 80 70 71 53
12 75 46 38 58
36 49 78 38 35
61 11 86 75 100
21 81 32 49 55
71 39 86 66 20
94 90 74 23 24
96 80 21 21 55
90 68 95 59 41
52 81 41 100 78
14 65 53 16 16
42 56 36 81 40
66 85 86 94 62
49 45 72 93 66
23 45 78 59 16
70 67 33 19 66
17 13 57 36 97
59 57 62 76 27
83 63 77 33 17
84 88 72 64 23
67 43 35 11 85
29 84 55 41 68
37 33 35 25 82
47 71 75 97 99
13 70 86 56 46
77 14 10 10 38
96 46 81 76 56
19 43 38 58 14
53 66 69 38 54
88 32 90 50 42
90 61 14 12 40
60 36 73 88 91
81 31 56 15 54
21 97 14 70 77
46 22 22 79 82
22 23 92 29 35
90 90 73 24 34
69 85 37 77 12
48 77 70 87 46
81 49 99 47 74
26 17 16 34 65
32 72 40 80 52
97 24 34 54 30
44 41 34 28 76
16 36 56 81 87
93 22 82 77 32
82 77 85 94 39
11 100 37 28 51
78 90 18 13 63
1.48901
1.2746
0.937032
0.533271
1.14279
1.45243
0.982962
1.36564
1.10499
0.507504
1.06122
1.44105
1.44764
0.601417
1.42454
1.38026
1.14274
0.501939
1.40589
0.603527
1.2802
0.695582
0.390788
1.05642
0.861584
1.10774
0.382169
0.838859
1.11252
0.37816
1.28493
1.40175
1.01424
0.469431
0.33086
1.42657
1.37626
0.771856
0.422417
0.313163
0.582665
1.39847
0.972052
0.514783
1.48765
0.724678
0.487988
1.40607
1.0335
0.85873
400 372
230 193
180 275
352 470
210 30
371 425
467 294
495 466
285 110
345 351
465 123
320 290
259 190
307 196
344 339
5 347
417 162
69 449
132 394
137 205
189 416
134 264
213 49
226 121
82 124
101 366
434 180
283 423
449 153
246 187
133 183
298 63
246 106
219 189
256 356
477 189
213 247
389 221
262 239
317 88
317 357
412 92
207 219
380 90
262 315
141 33
50 404
299 130
420 68
296 137
6697.5
2
