50
5
0 0 0 0 0
37 33 30 87 66
41 28 74 60 73
65 85 92 43 96
98 98 46 93 71
53 64 13 88 50
81 56 71 82 94
40 99 20 42 100
62 94 91 30 15
12 75 91 78 22
14 25 87 64 49
93 54 72 78 22
39 60 17 30 64
85 73 33 83 12
45 54 26 10 59
42 59 23 35 59
92 23 22 57 60
88 44 36 12 73
15 74 46 54 49
28 54 22 83 35
46 38 13 26 95
72 39 54 45 79
32 14 97 63 37
28 45 71 53 67
63 44 94 68 80
18 46 51 54 80
20 79 17 71 42
57 89 82 75 17
25 18 18 27 51
35 59 18 71 32
68 43 96 13 65
10 20 82 54 66
15 65 17 78 85
45 63 60 68 63
94 78 53 75 13
72 37 50 13 67
73 43 72 92 39
34 32 11 32 43
16 27 71 94 77
33 78 87 65 61
80 30 10 46 19
27 71 89 10 86
21 97 60 82 66
24 63 56 21 19
85 20 98 31 46
96 94 58 82 70
98 86 76 96 13
49 31 79 50 95
70 100 83 60 55
30 76 68 96 38
0.565963
1.66473
1.27452
2.20965
1.78353
1.24793
0.546845
0.742572
2.30439
1.27877
1.78138
0.609581
0.597915
2.02039
1.42027
2.1289
1.76059
1.08823
1.67578
2.48128
2.32416
0.852941
0.719117
0.69007
1.2467
1.14007
1.18912
0.735553
2.40098
0.557793
1.3326
0.897765
2.33948
0.879104
0.716232
2.02772
0.870801
1.945
1.76479
2.18689
1.01381
2.39624
2.04757
0.761808
1.64944
2.35916
0.741466
1.93853
0.822511
0.799847
60 354
245 63
417 117
263 200
335 162
456 46
340 274
210 66
332 316
461 56
349 251
445 171
351 105
233 438
72 64
72 182
301 369
469 422
490 90
396 127
183 294
161 38
190 334
224 338
457 399
272 357
96 337
63 400
186 213
11 49
361 166
32 97
107 430
383 80
235 498
243 299
470 356
239 136
424 317
116 67
149 51
397 276
86 349
82 325
32 140
437 93
63 127
491 20
454 394
379 160
13500
1
