50
3
0 0 0
25 81 49
64 67 68
88 24 76
80 32 14
40 42 75
14 79 87
46 59 92
60 44 32
86 56 79
26 62 10
88 99 94
90 73 92
58 59 75
19 68 29
25 33 76
83 29 29
61 57 38
15 55 63
79 97 12
36 25 72
54 39 22
20 25 24
33 64 50
34 95 25
52 60 72
93 15 60
53 89 16
16 75 27
79 11 73
27 53 31
37 38 63
32 59 77
10 23 29
33 39 32
28 88 14
90 86 78
98 22 53
17 82 56
68 73 80
24 55 59
80 77 52
97 81 78
31 88 100
31 34 52
97 77 74
48 87 12
85 57 77
52 70 69
15 84 28
0.56303
0.812983
1.30756
1.2186
0.660682
1.1039
1.29719
0.731439
0.384782
0.336959
1.02759
0.408054
1.27541
0.369495
1.11282
0.515933
1.17156
0.741756
1.48676
0.676942
0.339844
0.451826
0.685207
0.678152
1.11848
0.728447
0.830293
0.934376
1.07501
0.8074
1.25572
0.550974
1.38553
0.870252
0.8429
1.20357
0.671966
0.835315
0.451642
0.837219
0.831868
1.07792
0.515937
1.09775
1.21769
1.0162
1.33775
0.477685
0.559157
0.733895
341 164
175 440
482 222
474 235
49 155
110 426
319 472
195 371
474 444
429 378
193 372
112 367
306 303
226 335
68 459
261 417
20 73
235 179
325 288
135 384
468 263
87 450
433 239
450 311
156 303
343 254
480 250
15 312
164 459
463 454
464 456
131 90
400 253
253 320
152 124
498 141
468 250
344 311
68 448
99 235
13 140
488 381
442 476
258 352
154 215
258 411
118 435
176 207
407 146
387 153
6707.5
2
