50
7
0 0 0 0 0 0 0
54 33 47 94 80 55 16
58 13 74 20 53 31 78
40 36 50 40 16 100 65
63 36 26 36 18 19 25
39 22 97 78 61 47 45
86 31 21 60 53 61 72
15 52 81 74 81 62 64
95 51 33 89 50 23 27
93 54 95 58 74 31 19
49 77 76 55 72 30 89
47 38 58 14 17 63 26
43 96 27 45 94 56 48
43 61 38 52 92 69 92
55 78 19 63 95 37 36
68 18 37 25 71 69 70
29 76 84 88 25 84 74
20 23 100 59 15 25 60
67 61 24 22 59 41 21
31 69 33 70 83 30 18
56 38 44 78 68 41 35
86 36 93 43 86 81 78
47 24 67 51 41 76 37
86 57 79 36 56 76 93
22 41 27 44 37 29 32
17 57 36 31 97 14 40
31 56 81 57 64 28 29
14 34 40 75 97 55 55
74 72 32 14 93 58 74
20 17 87 18 22 63 54
58 97 89 82 81 86 68
69 63 60 47 96 45 49
81 45 83 80 37 20 52
78 32 54 16 72 73 50
49 31 87 60 21 100 90
41 67 56 31 65 29 33
34 85 57 53 72 28 14
90 63 49 100 11 39 41
85 82 38 77 30 18 81
93 80 38 47 25 72 98
90 20 33 74 86 59 47
70 95 47 75 51 14 77
44 39 63 61 66 23 100
90 37 58 34 28 58 48
23 80 35 29 98 72 65
80 22 86 20 44 79 21
15 71 79 18 32 42 26
56 35 88 89 61 57 19
28 51 74 78 96 83 90
79 32 64 81 53 85 91
1.57621
0.861502
1.8343
1.81256
1.42794
1.35062
0.765345
0.715331
1.29078
1.07705
1.90283
1.0606
1.78098
1.88561
1.28109
1.18313
1.75053
1.94307
0.663025
0.868228
1.8258
1.04519
1.81074
1.24312
1.0928
1.92863
0.502401
0.51795
0.51553
1.00893
1.60862
1.43326
1.48878
0.848571
1.57237
0.955204
0.404089
1.08601
0.64343
0.994454
0.807922
1.23101
1.18162
1.65938
1.47292
1.2198
1.13674
0.786071
0.797661
0.895906
177 466
104 167
102 197
400 148
404 229
290 219
187 51
123 190
312 24
490 345
92 113
126 473
491 378
120 299
24 470
100 55
64 486
404 117
495 136
244 63
115 3
341 115
192 206
118 456
158 207
180 416
118 326
233 22
259 233
481 186
411 383
291 47
388 234
402 423
416 119
369 403
69 270
54 6
458 131
496 149
206 327
50 125
345 84
204 473
457 199
403 468
354 185
173 319
176 239
388 44
13380
1
