50
5
0 0 0 0 0
55 20 79 36 95
70 65 90 55 30
92 11 53 47 49
14 37 71 89 23
39 77 45 18 36
65 21 47 41 66
22 87 30 59 95
29 42 15 30 29
44 37 76 68 37
50 34 79 98 64
43 44 45 48 32
10 43 68 20 17
48 49 19 94 51
20 89 50 42 16
53 42 45 83 25
51 99 58 48 29
80 24 25 15 92
79 78 100 63 90
50 19 58 53 38
39 52 33 29 13
28 92 89 51 77
85 32 97 20 52
43 39 34 34 19
56 89 96 33 91
81 99 71 60 97
91 94 95 43 39
33 65 55 20 39
72 39 15 66 85
44 42 49 60 53
38 76 89 41 34
30 68 33 46 76
44 30 30 75 80
78 50 59 92 21
91 21 100 26 53
89 92 47 37 35
20 80 57 70 82
75 62 72 41 46
52 80 60 19 68
76 58 19 56 21
97 15 75 59 59
72 23 31 11 47
100 35 15 82 43
34 19 87 65 18
53 16 45 50 36
19 74 27 89 14
77 11 91 82 15
76 39 87 78 91
73 39 62 59 53
45 12 92 99 93
0.89697
0.681577
0.475901
0.250767
0.909992
0.822972
0.598103
0.258537
0.47958
0.767562
0.212704
0.502363
0.805718
0.622495
0.78052
0.479879
0.216724
0.701321
0.846043
0.396154
0.245623
0.584147
0.633099
0.443147
0.460929
0.984512
0.704675
0.589967
0.289076
0.261652
0.312223
0.30146
0.394406
0.531865
0.323117
0.971426
0.886051
0.842472
0.55913
0.562053
0.541193
0.76765
0.972409
0.474516
0.72067
0.463577
0.440593
0.7919
0.667453
0.205042
152 104
466 452
385 461
418 119
336 364
140 24
391 229
124 85
134 112
199 0
170 233
9 139
193 60
371 191
288 316
432 465
497 384
148 429
175 42
225 7
476 167
314 354
115 371
235 191
215 235
317 2
369 73
188 448
445 395
238 353
43 184
131 96
348 332
472 451
283 21
443 404
290 157
47 473
161 397
310 390
99 241
250 234
352 471
355 203
299 257
394 436
31 336
376 48
287 317
490 0
6557.5
2
