50
7
0 0 0 0 0 0 0
34 22 59 30 44 22 25
45 44 11 90 62 66 39
44 13 86 36 75 90 27
35 85 66 89 29 40 43
14 97 78 85 81 44 95
87 33 80 13 31 97 80
70 93 26 85 98 86 77
75 10 19 62 11 29 64
11 81 90 85 99 27 73
38 48 81 31 73 19 75
81 50 29 61 43 34 27
84 79 80 84 93 36 68
80 22 81 74 38 56 37
70 89 61 60 57 17 84
49 62 40 10 83 97 85
71 62 89 12 38 70 17
35 21 63 39 76 59 56
29 97 67 56 43 90 93
58 46 72 87 74 79 86
27 48 59 77 98 18 47
94 78 57 38 61 39 81
83 75 87 18 88 75 12
49 49 14 15 44 14 94
51 20 12 14 85 19 46
45 94 22 100 45 52 86
74 49 21 29 49 97 27
25 93 51 40 41 47 81
82 33 46 33 52 62 18
53 79 20 94 11 23 44
73 66 22 92 56 50 12
83 44 74 52 58 22 50
95 65 39 63 58 84 94
58 61 33 15 100 98 61
100 11 90 48 70 23 85
72 76 17 15 42 86 69
99 92 67 75 97 31 51
87 71 48 77 11 45 33
48 76 32 70 78 31 12
64 63 79 79 35 36 29
13 21 64 92 31 98 13
99 35 77 29 78 42 14
34 88 90 46 98 87 14
37 97 74 32 89 24 78
16 43 61 27 11 80 82
11 50 32 60 43 72 26
45 71 45 54 55 43 91
74 45 69 27 33 73 12
92 78 94 53 87 87 95
89 27 84 68 15 87 61
0.449128
0.30051
0.444802
0.23548
0.245907
0.332503
0.475593
0.33944
0.12755
0.248075
0.23176
0.324708
0.131438
0.119225
0.496103
0.247299
0.327395
0.234943
0.437686
0.220625
0.268075
0.340376
0.369893
0.12297
0.257911
0.49658
0.134187
0.121257
0.371343
0.47208
0.128366
0.114391
0.126559
0.418721
0.458716
0.105989
0.278506
0.440704
0.227166
0.477878
0.126699
0.413852
0.263214
0.265226
0.303184
0.322135
0.294369
0.414021
0.31921
0.156423
25 191
7 324
310 367
245 476
41 110
160 455
478 440
271 372
44 37
309 392
442 185
86 475
414 444
264 462
21 365
140 412
210 189
146 56
363 252
2 368
18 14
259 20
166 27
126 438
330 126
180 290
31 354
313 14
422 165
372 321
80 367
390 229
288 110
500 112
92 341
162 62
39 460
161 144
396 464
81 123
498 137
405 364
315 476
343 210
298 461
310 219
148 269
259 487
117 29
461 427
2764
5
