50
9
0 0 0 0 0 0 0 0 0
76 32 13 55 83 59 96 37 10
53 94 65 15 68 19 27 82 28
92 19 38 69 76 54 77 27 85
63 33 89 85 11 78 81 66 67
97 40 30 65 96 61 29 56 51
44 25 39 48 49 100 50 33 51
72 27 16 21 66 26 87 27 32
72 27 76 85 25 24 46 21 64
38 96 24 20 10 46 90 15 22
73 93 72 65 86 92 94 14 14
61 86 88 22 78 67 88 54 83
69 68 36 15 60 27 13 41 65
16 26 46 58 30 25 51 60 90
58 30 45 70 20 73 38 39 23
66 76 47 20 61 75 18 78 45
82 67 40 48 27 12 55 39 81
79 85 71 26 21 32 43 82 29
91 20 72 92 89 31 24 76 39
57 41 63 37 16 21 20 18 55
75 56 24 45 78 73 56 99 32
29 12 15 81 47 86 95 10 11
58 92 47 11 14 29 68 42 48
60 43 48 65 90 84 62 94 55
74 12 61 43 77 45 86 62 67
86 14 49 63 13 90 32 41 15
10 18 95 53 28 85 25 78 25
52 87 47 43 68 69 11 98 19
80 37 64 77 94 93 22 95 69
60 17 54 78 31 65 22 40 63
32 28 60 19 27 32 30 62 94
96 99 14 40 97 19 76 75 72
37 58 85 46 31 26 20 53 73
50 31 74 58 42 31 51 20 10
19 49 18 87 67 18 36 61 24
73 13 61 36 44 52 93 60 39
94 10 26 75 85 52 85 42 27
24 36 48 85 74 67 82 99 30
93 98 55 27 56 12 86 51 13
34 68 64 85 51 64 12 70 86
40 91 56 53 10 25 63 21 62
100 10 30 28 51 51 30 96 20
14 88 36 11 25 69 22 92 28
52 71 41 36 26 14 33 58 80
29 82 16 52 30 100 20 44 27
15 19 50 72 36 34 70 48 48
42 84 89 92 65 55 90 26 40
38 53 75 23 21 63 100 70 24
86 50 75 58 90 33 23 97 24
20 48 60 100 76 93 76 24 25
2.07741
2.09747
2.32485
2.33206
2.43716
1.44765
0.656829
0.830752
1.07894
1.29525
0.769008
1.13525
1.95015
1.23741
1.24584
1.31716
2.33073
0.788379
1.62643
2.18283
2.28041
1.4002
0.864088
1.96809
1.6629
2.26716
1.77112
0.926395
2.22256
1.83624
1.14443
1.1399
2.17249
0.93237
1.70366
1.89507
2.02772
0.593176
2.43468
1.3802
1.89901
2.19619
2.13539
1.55885
1.02818
2.46495
0.710755
1.45129
1.63117
0.662756
293 363
175 324
47 378
457 487
144 483
418 231
88 353
364 356
381 398
136 407
355 354
235 98
451 302
342 413
214 436
476 176
82 342
411 8
387 215
226 439
38 478
154 66
333 118
315 51
24 466
311 350
223 103
218 365
2 265
244 242
430 365
443 449
32 260
411 112
500 277
47 487
33 240
2 458
473 496
132 95
298 73
15 1
112 367
27 232
108 359
32 317
284 343
368 375
0 59
364 97
3180
4
