50
9
0 0 0 0 0 0 0 0 0
15 75 92 26 34 64 78 83 89
85 13 68 74 78 59 25 77 49
28 67 26 53 76 66 82 59 81
86 57 25 78 48 46 33 81 28
22 83 41 69 85 73 38 90 79
43 18 17 28 37 16 83 16 33
36 69 99 35 50 15 15 100 27
63 87 26 84 30 51 16 38 65
60 88 99 14 77 29 51 86 21
75 91 46 36 28 67 82 86 67
22 66 98 62 62 69 28 51 58
93 71 56 90 29 52 41 34 78
96 83 51 29 44 96 49 100 60
78 65 36 45 16 58 99 27 65
21 86 47 63 81 98 48 48 69
28 59 73 51 11 23 56 25 25
83 14 82 85 21 80 37 55 51
24 42 32 81 60 37 55 59 96
50 80 47 94 49 83 47 58 97
64 58 17 55 91 93 32 54 19
14 96 84 89 73 54 74 26 10
39 85 52 96 58 11 94 74 84
65 24 97 48 41 23 53 57 71
77 78 69 67 16 22 17 62 47
38 37 82 65 51 11 21 21 17
64 19 40 70 70 88 14 43 44
57 98 92 99 80 84 67 59 46
22 65 10 77 29 29 10 62 51
51 57 41 26 15 42 100 55 57
72 89 10 30 89 53 13 69 45
26 67 80 80 46 10 37 28 46
91 66 21 80 67 75 12 75 50
87 45 36 35 23 68 40 47 63
61 39 94 42 13 93 61 86 30
79 73 64 48 97 61 83 38 44
63 37 11 21 84 63 87 29 42
53 79 68 24 68 77 65 61 28
10 93 21 96 79 38 77 36 87
63 48 93 31 80 66 100 43 74
100 28 61 23 61 80 98 60 54
10 55 79 45 78 72 18 33 48
38 98 55 20 26 17 87 65 21
50 17 59 26 92 77 31 14 74
60 27 14 51 97 40 23 84 33
45 16 31 46 42 10 48 15 80
81 48 66 48 87 20 45 56 11
16 17 99 92 73 20 22 35 26
76 57 80 19 57 89 26 51 78
99 15 26 80 10 58 27 28 89
0.819274
1.46631
1.28559
0.914372
0.369761
0.540076
0.994332
0.945891
0.632106
0.920888
1.38851
0.934873
0.306455
0.756444
1.2441
1.10354
1.27409
0.972352
0.342144
0.649648
0.308845
0.768764
0.323645
1.15925
0.357541
0.378354
1.28025
1.20507
0.828409
0.899825
1.29379
1.47615
1.193
0.576766
0.686092
0.899851
0.410347
0.602188
1.28962
1.38285
0.30617
0.836549
0.444705
0.58922
1.34041
0.38796
1.16177
1.46053
0.39514
0.715641
439 17
376 88
107 275
266 305
378 403
210 119
256 338
365 455
232 307
198 337
359 157
317 498
499 315
111 402
158 298
40 126
398 498
322 261
342 70
381 257
388 406
202 236
220 407
152 223
263 135
108 34
160 330
18 185
411 190
486 275
382 167
62 453
189 301
405 309
417 472
83 183
40 73
416 419
133 234
162 19
13 276
210 81
137 364
151 189
170 306
419 431
203 178
217 473
147 102
432 465
13325
1
