50
5
0 0 0 0 0
52 66 30 14 65
38 65 89 57 34
16 58 93 55 81
66 23 23 55 61
36 77 24 79 93
66 94 79 30 26
12 58 37 82 94
52 59 85 57 83
94 65 30 10 32
29 41 75 44 16
30 50 66 33 85
89 12 87 99 17
82 52 84 89 47
39 12 98 44 33
59 69 82 15 59
45 35 77 54 53
40 40 22 21 22
91 63 49 96 43
71 60 83 23 84
22 77 69 32 32
88 69 51 48 31
68 75 24 51 70
63 88 43 77 79
65 86 68 39 52
62 46 35 31 69
53 52 10 75 67
32 44 31 78 84
19 56 35 91 93
10 80 67 26 93
65 65 95 69 61
28 98 66 30 42
12 94 13 62 42
25 97 25 83 82
34 32 47 81 23
67 96 83 63 53
43 87 23 87 24
43 80 81 89 14
59 10 31 96 16
51 68 81 32 80
62 60 63 20 16
48 65 73 10 30
23 85 66 14 62
75 59 43 72 38
23 17 96 18 29
41 82 24 52 16
69 97 29 79 48
35 45 81 54 36
16 78 63 59 14
27 58 25 21 64
0.524296
2.07092
1.59537
2.38406
1.65614
1.3696
0.791628
0.927671
0.704408
0.899508
1.01098
1.68646
1.64767
1.92765
2.39901
1.20758
1.2908
0.805706
1.8876
0.922114
1.32584
1.64324
2.10055
2.04012
2.24241
1.06888
1.27205
1.01237
2.47728
0.542543
1.55025
1.48058
2.18724
2.48869
1.42175
0.541601
1.13201
1.67986
1.83066
0.641154
1.33484
0.722291
0.629339
1.35199
1.68652
0.973885
0.649739
1.72801
2.11575
1.8685
232 402
374 419
28 252
200 464
385 459
372 83
62 412
282 130
36 124
147 301
214 67
406 98
102 384
203 253
404 438
311 0
479 142
140 400
392 428
412 155
213 183
318 334
281 363
358 240
85 230
429 498
183 377
241 451
302 153
283 185
349 5
217 344
185 438
450 461
283 259
306 347
449 202
224 451
321 230
345 238
358 6
214 222
378 192
481 23
389 252
413 158
308 74
245 245
89 3
408 50
2643
5
