50
9
0 0 0 0 0 0 0 0 0
77 18 77 91 85 41 66 59 59
63 14 73 69 32 36 62 96 49
86 91 83 75 74 40 36 83 79
97 89 88 15 47 22 34 98 65
55 13 66 80 96 76 76 20 34
46 77 63 100 72 34 99 89 95
44 73 86 68 96 26 84 64 49
25 33 81 83 88 35 61 19 95
80 47 62 70 31 71 28 38 44
56 74 57 86 79 28 46 81 89
45 56 15 20 32 65 44 88 56
41 78 31 70 46 44 80 69 23
62 17 61 83 94 12 76 44 94
20 59 32 27 18 23 63 43 37
31 88 12 72 87 34 98 20 65
70 11 23 35 91 12 69 55 87
18 23 73 70 68 55 23 22 98
22 93 38 25 11 35 30 61 45
47 24 75 11 100 61 41 49 81
55 15 43 29 37 97 100 93 19
34 86 27 30 25 34 50 71 61
43 95 44 38 73 98 19 45 47
56 88 28 25 52 48 70 46 84
32 75 88 50 85 47 86 46 87
56 65 94 21 59 73 89 57 82
83 28 21 26 61 69 54 49 86
56 71 14 57 38 37 82 60 60
13 10 18 95 37 67 17 19 98
16 41 34 15 84 18 13 11 51
30 87 72 95 54 69 31 72 21
23 73 100 65 74 81 41 56 26
38 36 30 51 97 32 11 57 76
24 100 40 22 81 92 18 35 27
45 68 99 92 96 24 62 92 83
98 70 88 50 36 60 53 81 15
55 18 29 39 69 25 45 77 61
93 37 79 97 86 36 94 57 79
43 15 40 63 86 30 54 78 29
97 31 71 15 87 56 90 13 90
91 94 79 42 60 100 51 32 13
70 20 87 60 33 38 48 13 50
70 21 82 93 87 46 39 100 30
62 33 75 68 82 36 28 44 42
78 10 76 53 79 97 46 32 58
49 82 87 76 60 11 57 78 53
26 31 88 34 100 96 96 52 78
27 71 99 79 58 21 67 52 10
88 72 44 80 17 33 73 97 37
68 44 80 34 45 24 19 27 62
0.93043
0.249975
0.692651
0.897707
0.669617
0.784429
0.748781
0.670233
0.734302
0.952532
0.405139
0.460052
0.964827
0.208386
0.357103
0.423608
0.225514
0.719776
0.367117
0.621119
0.369177
0.842383
0.961887
0.801582
0.275055
0.944748
0.234617
0.202392
0.553097
0.886392
0.894611
0.933947
0.583184
0.929946
0.59626
0.402273
0.809703
0.822305
0.252626
0.529688
0.300956
0.369364
0.690278
0.644344
0.818682
0.813018
0.7285
0.248173
0.441113
0.885032
190 459
328 87
436 330
201 422
374 382
321 204
352 409
224 409
167 435
328 343
78 222
478 447
366 264
324 488
280 12
86 165
50 381
111 498
481 450
68 313
412 69
54 86
243 49
331 126
120 290
140 163
458 489
2 408
418 90
385 320
131 206
118 60
366 274
54 349
31 444
157 434
412 287
468 201
190 2
245 492
146 75
348 379
368 52
78 449
445 34
128 179
195 9
145 32
229 220
331 334
2745
5
