50
11
0 0 0 0 0 0 0 0 0 0 0
51 54 57 50 73 57 85 50 52 46 51
90 66 89 36 30 53 95 75 99 50 21
22 89 97 78 45 29 80 79 48 31 93
88 77 76 96 26 59 46 25 70 48 24
40 67 68 72 14 61 65 33 83 85 96
63 56 38 10 100 70 81 44 77 64 36
39 17 49 27 81 68 55 83 19 11 76
82 61 81 66 70 98 90 70 33 26 98
39 57 13 67 51 82 69 94 74 67 82
89 54 48 85 38 95 85 27 16 93 51
16 22 56 38 22 45 49 43 94 64 22
67 49 46 41 57 24 91 60 22 32 46
30 14 87 55 42 47 67 14 33 88 41
96 87 36 80 33 40 18 71 69 61 69
44 52 72 34 84 73 59 17 88 71 21
13 65 59 43 61 51 84 53 36 86 67
22 87 72 69 81 20 92 56 83 99 89
34 75 11 79 17 55 62 54 34 78 89
14 89 66 48 48 45 75 65 31 25 89
17 52 21 38 25 23 29 27 49 64 60
98 73 97 85 72 89 85 94 63 86 97
100 47 95 86 14 37 19 76 14 75 87
18 75 47 32 87 70 55 42 69 49 30
20 16 77 14 17 19 31 44 85 71 30
38 78 82 54 47 28 20 93 20 49 22
32 81 36 66 67 73 55 57 79 82 40
71 58 80 38 67 73 74 25 57 61 28
96 81 85 85 25 34 31 28 67 53 72
95 21 69 33 73 87 88 97 75 19 43
89 49 89 100 67 45 26 86 42 87 49
90 81 45 54 76 49 97 51 45 65 96
47 83 37 87 77 66 81 88 35 32 26
50 82 35 25 72 39 67 78 43 27 88
60 14 57 75 62 95 58 89 46 34 63
88 19 76 84 36 85 98 92 29 48 70
40 52 58 81 46 60 75 30 70 81 22
89 16 81 33 12 96 90 90 69 60 84
84 37 59 54 34 28 60 84 28 31 10
76 15 75 65 12 17 56 14 50 78 35
53 90 30 63 43 14 41 20 68 22 80
53 32 31 65 13 43 35 12 56 41 39
20 92 67 40 50 100 93 40 56 40 36
27 59 91 84 90 14 26 28 60 32 28
73 39 56 68 52 81 54 97 66 51 63
98 72 60 71 47 85 24 49 48 38 69
35 87 64 29 65 71 85 63 58 26 92
62 20 30 66 96 53 70 11 22 23 19
34 81 27 77 75 37 51 71 35 47 16
64 52 31 48 11 50 52 77 69 99 86
0.2584
0.254106
0.415159
0.15508
0.387786
0.346563
0.371759
0.409884
0.184063
0.106882
0.409589
0.296523
0.378114
0.142028
0.177878
0.119118
0.404913
0.477253
0.115545
0.266628
0.112197
0.175417
0.473677
0.499456
0.192584
0.225419
0.410765
0.38183
0.413906
0.157552
0.403027
0.111695
0.144409
0.401771
0.330097
0.406444
0.472123
0.226006
0.428121
0.457224
0.269577
0.140309
0.256127
0.428904
0.287504
0.387647
0.31767
0.11223
0.201795
0.125773
117 68
275 111
131 280
350 303
482 200
125 116
367 461
107 343
298 159
389 296
485 157
29 397
489 352
263 132
139 329
346 369
369 493
92 332
489 155
366 153
68 167
212 254
450 61
325 127
101 457
493 276
14 127
191 213
161 163
230 458
270 73
476 298
26 275
137 215
72 78
49 190
223 209
296 268
334 212
194 186
196 413
435 449
179 56
45 485
71 480
430 87
488 200
111 138
18 350
73 11
2770
5
