50
7
0 0 0 0 0 0 0
97 26 73 50 29 34 34
15 64 73 83 79 50 74
63 20 23 14 13 86 17
47 99 45 27 75 44 86
95 59 11 77 16 45 48
92 58 13 24 89 33 49
27 32 24 40 76 62 89
99 15 100 40 18 48 83
68 24 12 59 55 96 79
99 71 96 100 47 77 98
32 75 18 85 75 25 17
90 14 87 54 89 51 11
25 71 11 92 63 72 80
43 29 37 43 11 71 71
40 36 85 11 90 53 75
84 70 55 15 50 98 100
45 17 68 82 68 67 79
35 24 42 42 37 22 52
29 21 75 97 89 47 52
17 84 94 10 46 81 27
50 15 14 80 63 45 44
93 20 11 62 59 93 64
76 54 50 100 43 71 24
79 95 50 95 32 35 95
20 57 18 73 37 85 18
14 50 70 93 99 43 41
66 91 27 29 20 42 86
79 27 29 56 46 56 62
28 85 76 54 75 95 86
53 91 41 67 15 10 66
58 71 100 72 44 41 44
33 43 16 63 43 83 13
20 95 10 50 63 68 47
38 23 54 19 60 90 85
76 96 50 42 74 83 60
46 18 66 10 40 90 12
75 89 68 87 80 34 12
41 89 23 35 48 21 40
74 42 35 13 42 12 89
34 45 49 54 18 84 27
66 33 56 50 63 14 77
86 82 90 93 30 71 87
86 61 59 77 19 72 38
98 77 34 75 57 71 69
72 18 62 43 50 94 33
44 19 61 57 77 66 76
93 86 76 80 12 35 24
47 26 30 64 88 44 52
97 88 95 52 49 26 32
0.103347
0.269848
0.263085
0.133225
0.316016
0.118699
0.379872
0.476294
0.345451
0.34349
0.396808
0.193146
0.492951
0.348658
0.362622
0.326211
0.13805
0.327149
0.423445
0.119133
0.478359
0.192558
0.330091
0.354239
0.282051
0.441887
0.216257
0.226169
0.244731
0.344808
0.462497
0.364948
0.363754
0.474176
0.404471
0.280908
0.469385
0.17456
0.169374
0.400407
0.168044
0.230587
0.467654
0.375312
0.371942
0.217073
0.119595
0.328607
0.4424
0.353894
496 443
44 281
320 347
361 454
229 84
21 200
420 156
310 392
134 459
17 439
314 74
232 461
194 319
15 219
38 287
429 114
309 154
477 446
50 358
316 333
9 129
218 485
189 295
308 218
99 354
169 53
115 142
209 298
175 121
469 122
444 131
231 101
273 224
79 109
490 436
38 65
256 73
464 439
438 204
328 162
260 407
135 234
278 224
132 481
92 314
57 399
161 410
484 222
400 346
5 450
2693
5
