50
11
0 0 0 0 0 0 0 0 0 0 0
84 50 22 79 52 16 14 65 11 63 80
88 19 81 32 24 17 85 29 88 93 66
48 98 57 87 29 51 63 49 28 40 64
60 100 14 12 98 69 99 64 54 29 59
45 82 30 25 26 100 31 94 56 25 26
63 12 36 15 98 87 37 45 32 22 61
82 48 44 56 89 14 56 12 18 83 29
78 97 77 18 15 54 69 72 92 42 12
86 92 40 68 19 27 47 76 70 60 100
100 11 100 98 95 88 13 52 70 75 81
55 99 22 30 37 29 99 76 17 12 46
57 71 30 68 84 75 86 65 71 84 51
37 13 90 80 10 42 14 100 65 40 50
49 59 54 66 75 66 92 68 88 17 13
59 82 74 12 31 97 47 39 40 67 78
27 65 22 58 20 87 95 35 58 95 29
29 24 32 50 90 32 66 30 63 73 16
43 74 52 20 91 83 56 80 31 42 43
69 30 58 47 91 27 14 15 64 54 80
47 78 73 34 30 56 76 40 80 51 62
10 92 46 72 23 96 36 20 13 18 35
90 91 94 77 25 26 76 55 35 88 100
28 55 62 74 19 60 10 17 19 12 51
77 69 66 17 10 78 84 82 16 95 66
65 74 46 87 88 23 40 83 94 35 71
46 90 60 36 17 33 67 79 36 67 15
29 49 93 53 99 48 76 73 26 67 42
71 64 55 63 75 43 29 20 24 54 42
77 95 63 68 76 28 10 84 60 75 19
13 33 56 71 39 82 21 57 89 12 18
66 93 30 55 26 23 17 86 55 90 19
29 14 88 37 86 58 10 95 85 30 70
92 37 55 66 61 11 18 72 31 48 68
53 51 58 87 91 37 68 73 95 30 89
21 88 96 93 96 74 76 43 58 97 85
23 40 53 11 41 92 61 66 44 26 64
71 13 90 28 52 43 36 55 74 48 52
73 17 20 100 82 35 45 91 96 13 71
59 10 39 56 44 20 40 83 67 70 15
45 77 91 76 45 61 64 19 32 44 14
13 44 16 73 85 17 73 37 38 10 29
76 55 10 92 100 74 80 32 49 48 66
53 70 13 99 39 79 91 28 92 73 25
22 52 43 78 45 38 52 19 28 77 84
97 92 97 27 61 46 40 45 29 10 50
52 27 73 95 74 64 90 32 75 43 57
66 30 51 74 27 11 47 20 81 22 56
23 48 48 57 45 64 74 27 36 89 92
57 27 59 72 37 45 92 36 42 13 50
1.98148
0.987991
2.04159
1.64269
1.67772
1.51755
1.18971
1.74381
1.9404
1.83507
1.17222
1.46488
1.19007
1.40454
1.17685
0.546084
0.895733
1.93464
0.83239
1.14976
2.38403
1.06838
1.23385
1.68313
2.44524
0.877817
1.20483
1.78626
2.48389
1.04424
1.52966
1.93708
0.749047
1.44129
1.14778
1.93237
1.05815
1.10773
0.625825
0.958977
2.37243
1.07084
0.895817
1.85367
0.542484
2.12204
1.49509
2.00445
1.96334
1.07289
110 18
225 57
212 237
431 205
487 264
369 365
285 279
387 111
177 152
108 286
242 27
396 180
253 415
397 228
419 302
458 476
320 83
295 495
224 144
413 323
18 230
85 89
393 230
194 340
188 439
267 211
208 313
92 324
131 281
410 211
249 166
103 360
282 377
8 416
475 139
163 323
184 44
451 452
124 134
391 200
48 30
250 336
377 236
103 254
160 98
333 163
155 344
290 35
108 5
147 397
4428.33
3
