50
5
0 0 0 0 0
68 25 17 26 95
45 30 48 78 17
60 66 10 81 79
88 73 73 20 14
18 67 37 45 25
66 26 52 56 91
21 74 89 45 46
20 87 71 38 33
16 20 85 29 25
44 88 18 39 70
79 49 89 39 33
72 82 13 44 49
78 25 12 75 40
29 45 45 35 38
51 88 93 29 37
97 44 67 36 84
89 47 85 91 47
57 86 15 72 49
57 57 57 35 71
59 62 79 65 43
48 40 69 17 50
83 15 24 47 24
79 41 22 52 33
20 79 35 94 28
14 94 55 75 88
81 91 19 79 56
31 49 89 27 36
43 33 59 58 50
39 93 69 32 88
93 73 46 62 74
83 37 67 19 25
94 39 33 70 77
71 71 62 44 93
10 46 71 54 52
47 61 67 61 37
68 78 34 14 48
36 12 53 10 28
57 69 21 14 94
77 21 56 43 44
77 27 33 81 61
87 73 38 29 87
94 36 80 85 53
62 65 88 21 70
71 20 44 49 92
73 13 78 80 86
18 43 46 83 50
38 25 38 13 84
67 88 59 68 39
92 85 27 97 79
0.684968
1.17067
1.27497
0.636184
1.79648
1.23388
1.53105
1.48975
0.464513
0.466745
0.731513
1.94157
0.507738
1.12647
0.883195
1.47659
1.73715
1.64907
1.23346
0.570287
1.41397
1.6332
1.78181
1.94309
0.809582
1.26526
1.65001
1.28714
1.63757
1.67425
0.917305
0.916861
0.494218
1.72265
1.51762
1.17367
1.08015
1.73541
1.46264
1.68933
1.24554
1.25683
0.57963
1.77325
1.50308
0.792563
1.54457
1.33535
1.17078
1.13614
72 294
439 47
453 221
280 491
377 96
406 303
187 491
172 149
334 172
219 465
312 186
412 452
246 25
347 299
208 187
250 17
273 353
85 188
203 53
388 58
181 199
292 27
241 486
375 211
459 329
67 181
231 143
88 465
20 217
98 79
411 104
302 321
458 25
464 153
462 487
498 137
392 444
477 208
286 29
285 385
338 384
496 467
54 97
229 19
320 328
233 325
375 357
51 281
430 436
96 115
2646
5
