50
5
0 0 0 0 0
55 53 15 74 18
22 68 43 59 19
25 37 34 62 42
90 24 27 52 61
97 90 53 68 36
79 74 42 71 69
92 19 45 28 68
54 28 44 51 83
46 65 13 14 51
81 64 86 64 16
19 42 85 89 81
35 95 57 48 53
25 17 78 74 32
22 91 80 85 71
61 21 46 21 10
74 58 91 75 11
91 54 90 54 19
77 10 43 47 67
84 45 48 90 25
33 32 37 22 58
93 14 68 74 19
96 18 18 57 70
25 82 72 90 45
19 68 65 61 73
70 18 53 29 50
78 79 62 97 61
31 14 51 73 82
47 85 13 18 81
14 51 83 69 37
31 48 38 72 48
60 10 48 16 66
33 22 20 56 72
55 85 29 58 41
61 80 44 48 40
85 81 72 54 49
41 95 73 75 42
50 68 22 38 50
93 21 48 93 93
94 50 16 57 84
33 74 50 74 56
43 95 100 96 52
51 66 25 13 14
13 24 81 80 89
80 74 30 47 20
66 58 100 93 11
37 33 51 17 50
98 27 73 21 81
67 40 94 50 33
87 32 33 49 86
2.41583
0.954446
1.12349
0.851458
1.62553
1.87473
2.21395
2.23634
0.727206
0.9311
1.44597
1.27758
2.46976
1.24833
2.14946
1.45647
1.64307
0.707298
2.32553
1.37865
2.1427
0.841528
1.08665
0.797583
0.968205
1.13297
2.3315
0.727075
2.16074
2.05045
1.479
1.37659
0.676964
1.3985
1.12168
1.04334
0.534947
1.48909
0.931113
1.05621
2.00386
1.35139
2.44807
2.05113
1.81749
1.49563
1.65116
2.07506
1.49174
1.12353
385 486
278 366
186 390
219 65
236 232
478 124
472 247
100 491
343 212
221 379
445 188
279 167
181 220
8 393
431 95
432 491
330 324
138 249
157 308
324 455
366 400
361 147
339 481
431 368
287 177
179 457
277 218
313 40
262 162
408 77
431 447
492 144
36 164
296 302
286 419
38 261
466 173
215 45
67 485
101 374
493 404
160 235
180 150
472 154
276 179
287 123
66 477
45 28
113 388
79 303
4401.67
3
