50
9
0 0 0 0 0 0 0 0 0
69 45 82 57 85 100 42 37 11
30 14 17 58 89 50 65 11 56
96 52 28 23 96 55 21 67 13
93 26 13 92 41 98 80 64 88
10 19 68 43 70 95 93 80 100
14 17 37 22 29 35 92 29 29
37 55 31 77 86 21 20 26 92
26 12 32 71 19 23 15 69 20
88 28 78 76 72 21 28 39 33
54 49 60 97 71 34 81 25 77
26 92 73 62 15 50 70 20 24
96 30 34 36 42 75 39 86 10
59 71 18 52 92 27 14 28 23
41 18 49 49 51 42 67 94 48
48 44 10 36 72 29 42 43 99
54 61 11 17 65 52 14 81 38
21 86 31 21 28 77 52 84 37
77 15 25 51 52 80 95 79 28
42 49 91 93 19 47 45 91 55
94 72 30 41 44 57 35 11 26
62 60 12 83 15 98 62 59 41
48 59 94 72 16 68 37 100 26
56 26 93 20 62 23 20 32 17
78 68 48 92 15 15 14 32 73
25 71 73 75 81 13 51 61 42
22 40 46 96 27 93 22 45 24
26 34 99 48 63 33 29 85 68
86 23 61 49 99 78 95 50 16
22 16 56 16 60 79 44 85 71
72 23 83 40 90 63 95 25 36
72 16 31 54 12 59 79 81 37
37 68 15 58 87 10 91 23 59
49 34 65 71 82 75 59 32 39
62 34 58 10 36 99 24 69 16
50 54 55 25 34 50 71 56 87
24 92 97 96 74 90 45 48 83
82 90 19 39 76 94 14 16 77
88 10 33 71 77 94 45 71 28
21 52 90 26 80 84 45 48 71
11 40 41 99 91 91 20 47 49
61 20 44 30 95 33 67 41 76
33 62 93 34 74 95 74 56 40
84 74 28 51 14 49 62 69 38
77 68 37 28 82 46 85 84 70
65 75 99 52 94 16 12 22 42
34 90 24 47 38 11 59 93 40
21 36 84 31 10 14 70 99 89
90 68 32 89 48 50 50 46 11
92 39 22 96 47 93 70 65 30
0.9353
0.496017
0.619549
0.651877
0.523651
0.911918
1.43654
1.11223
1.14928
1.48839
0.498385
1.22292
1.35627
0.991282
1.26012
0.862814
1.36507
0.615067
0.552397
0.423438
0.8388
0.809062
0.854788
0.951512
1.06023
1.42007
1.4153
0.587077
0.528075
1.38581
0.822428
1.33646
0.560984
0.945036
1.46961
0.575615
0.916337
0.308221
0.743054
0.853537
1.46326
0.929728
1.41283
1.00651
1.44242
0.696516
0.37939
1.37585
0.656771
0.790532
265 226
395 182
303 421
29 395
114 377
227 169
493 84
75 263
355 236
85 275
37 427
310 177
90 234
70 337
109 136
478 21
281 334
334 72
10 462
137 395
3 364
449 290
317 347
183 61
437 56
343 111
58 187
418 383
415 117
226 257
174 206
397 131
314 450
295 279
293 238
209 174
484 445
379 306
168 413
437 192
59 141
447 435
389 16
105 214
412 282
445 85
221 192
236 264
30 407
73 422
6435
2
