50
9
0 0 0 0 0 0 0 0 0
54 43 36 30 18 88 34 48 71
16 97 77 65 12 55 34 19 44
56 62 13 42 23 90 70 81 97
72 46 93 18 86 50 71 86 99
36 57 82 65 50 41 82 59 62
24 57 77 87 86 13 24 12 97
10 55 17 56 92 43 29 59 96
43 55 71 18 46 76 52 80 78
85 61 29 20 76 31 74 27 27
86 23 45 53 89 67 80 28 91
61 94 83 42 77 11 35 38 99
55 28 22 39 33 93 39 53 29
19 25 48 41 17 94 67 86 13
41 47 20 10 98 89 82 11 17
92 14 59 73 73 35 61 15 94
23 62 67 38 68 56 69 63 26
84 74 61 18 19 93 51 30 90
35 62 57 48 95 33 14 52 69
54 90 71 76 76 34 78 74 83
70 64 89 43 48 44 41 41 87
77 29 30 55 65 28 18 22 52
10 91 73 18 16 87 60 80 12
82 58 56 39 87 19 96 72 86
63 95 46 59 82 49 46 38 72
95 67 79 24 79 36 45 57 15
97 93 95 92 25 100 72 20 21
72 11 94 88 85 11 59 72 90
28 50 18 57 28 95 61 25 29
96 59 42 98 31 76 14 56 57
33 77 22 59 10 59 67 74 36
52 52 31 64 86 80 55 88 33
92 67 42 55 34 85 30 56 15
52 20 45 56 34 66 49 41 58
91 41 41 62 45 22 91 43 70
40 96 88 10 69 20 67 34 16
90 49 81 26 48 67 56 79 80
52 21 50 37 37 46 78 18 39
55 57 58 38 94 35 98 91 39
46 55 43 31 59 17 84 37 34
98 26 14 14 67 86 36 84 71
72 18 25 10 38 17 70 36 27
96 27 12 50 52 42 65 57 88
41 59 67 54 77 71 51 20 45
88 10 17 17 60 63 31 57 32
12 12 71 97 83 99 12 68 23
29 55 14 71 59 22 98 91 87
89 78 90 84 33 49 97 56 56
100 92 71 46 93 89 43 100 60
11 46 92 46 45 51 67 73 35
1.14529
1.42332
0.375439
0.745265
0.48308
0.97661
1.02067
0.549454
0.792291
1.26889
1.13984
1.2391
0.390487
0.785477
0.524784
1.43291
1.29163
1.13149
0.762627
0.644375
0.68647
0.815507
1.4051
0.958958
1.29349
1.24282
0.504371
1.40097
1.16572
1.12521
0.451083
1.45217
0.910399
0.791463
0.875178
0.320998
0.488724
0.503411
1.30557
1.13759
0.836296
0.570449
1.08773
1.00908
0.662388
1.38443
1.40556
1.43704
1.03356
0.394181
297 72
176 249
391 182
156 269
162 480
299 474
112 257
266 176
231 464
322 82
142 426
241 60
79 237
427 392
404 269
235 399
56 259
346 311
337 167
51 239
225 362
122 388
36 61
500 407
140 383
245 141
474 485
92 113
13 204
384 12
264 319
62 473
443 260
128 336
66 483
290 35
440 181
177 347
48 173
50 479
198 384
360 310
105 209
259 182
322 222
333 155
391 329
103 300
59 395
127 243
3353.75
4
