50
9
0 0 0 0 0 0 0 0 0
62 26 35 100 37 40 72 41 61
46 36 58 52 71 75 97 77 51
42 47 51 70 58 85 78 92 25
80 40 19 50 52 68 51 91 78
12 35 10 79 50 67 86 51 72
93 15 100 34 75 69 37 94 70
14 30 75 26 31 25 55 59 69
93 15 72 40 89 20 94 20 31
99 44 87 10 60 44 52 33 82
73 61 30 35 59 94 78 47 48
10 32 91 84 73 21 93 70 81
72 52 43 26 47 44 16 41 79
46 13 52 49 24 21 98 16 56
49 86 53 72 25 21 41 25 83
20 18 37 60 70 11 10 83 64
60 88 32 12 44 10 95 35 49
11 66 13 69 72 61 67 56 71
37 66 72 72 78 17 27 86 37
19 20 56 50 40 89 95 86 78
46 54 46 91 78 30 71 18 38
23 72 65 27 50 93 92 83 44
95 56 85 75 45 12 34 20 53
49 32 86 19 32 31 20 30 21
85 32 57 40 93 90 38 97 26
91 72 36 19 46 41 98 22 48
25 13 77 14 43 24 35 24 42
67 87 98 90 57 94 66 31 93
28 57 81 34 40 69 36 10 87
37 98 46 67 21 41 76 72 90
96 23 89 33 12 35 61 42 69
86 16 11 83 60 29 12 84 75
37 60 94 23 21 95 46 82 22
56 50 27 73 47 18 30 86 21
61 19 37 99 22 40 92 54 11
44 99 95 94 62 81 69 34 91
59 95 62 55 34 41 21 15 67
99 73 44 66 22 88 33 49 13
67 43 99 43 94 97 92 75 69
97 40 79 80 86 62 39 13 70
17 34 26 20 74 80 11 86 46
15 97 78 38 42 65 86 90 38
25 46 21 54 26 49 14 89 85
55 98 26 42 76 74 81 46 42
85 42 45 12 85 36 21 12 87
20 25 31 36 30 64 22 59 30
88 66 38 74 22 45 80 39 67
22 83 56 48 56 68 32 68 39
30 23 34 72 25 65 13 90 82
67 47 35 40 56 64 24 99 94
0.88349
0.217471
0.254838
0.972186
0.439965
0.958558
0.906039
0.912495
0.51978
0.381073
0.957629
0.78911
0.732528
0.770087
0.608454
0.772068
0.6656
0.391121
0.943484
0.245599
0.561428
0.637376
0.947829
0.234585
0.665359
0.769761
0.351994
0.555334
0.657927
0.703715
0.58404
0.857371
0.624104
0.274934
0.595532
0.7101
0.290445
0.7701
0.279623
0.893462
0.611977
0.423102
0.874803
0.302065
0.423823
0.479564
0.771741
0.942472
0.672864
0.292728
84 255
91 65
55 282
150 329
271 415
499 204
45 308
223 187
34 108
366 287
377 366
24 92
208 266
113 358
49 155
409 377
5 315
235 33
429 221
192 236
252 454
465 186
279 149
490 67
292 432
38 390
191 273
386 92
234 176
421 197
366 477
85 47
118 227
458 214
411 291
62 300
425 445
168 128
264 205
213 148
122 47
389 381
68 186
464 253
438 42
150 358
40 83
488 99
59 85
201 96
2629
5
