50
5
0 0 0 0 0
55 85 30 67 46
29 33 47 91 86
14 49 84 83 13
70 16 96 61 95
38 75 17 22 23
25 21 81 58 69
67 63 12 89 31
95 55 87 75 24
42 30 82 28 39
55 45 84 15 80
62 29 14 32 35
73 89 61 42 98
83 54 58 68 81
50 98 69 77 70
76 25 28 41 81
43 39 84 53 87
21 18 72 11 23
28 50 25 74 20
27 47 14 84 22
37 24 15 94 93
65 83 72 17 10
74 18 46 50 76
27 16 84 92 63
18 65 58 54 45
100 44 56 15 47
26 86 78 71 66
52 71 58 54 30
77 63 34 32 39
43 38 88 63 91
54 67 60 76 58
33 61 66 94 58
16 18 52 50 90
10 98 52 47 16
55 75 55 66 47
83 98 26 32 45
33 91 13 29 13
68 53 99 31 24
76 72 33 80 73
18 53 21 39 28
58 29 80 70 67
74 23 51 82 97
65 67 52 49 77
81 52 70 44 43
99 31 43 51 75
15 44 47 27 79
99 57 75 70 64
92 87 83 17 41
52 18 35 66 64
43 16 51 27 42
0.283289
0.364936
0.460306
0.466622
0.105818
0.140239
0.357883
0.392157
0.391676
0.144159
0.174936
0.192984
0.451587
0.131557
0.187273
0.216806
0.197415
0.310604
0.288132
0.14904
0.277395
0.319063
0.340927
0.400947
0.375283
0.492808
0.152225
0.29766
0.348792
0.141602
0.179676
0.117297
0.210683
0.387378
0.246292
0.22013
0.486227
0.224451
0.476426
0.434573
0.183363
0.487602
0.383598
0.459913
0.187796
0.379857
0.387675
0.213344
0.402373
0.133637
146 146
75 427
4 360
234 39
392 499
241 117
479 368
475 27
339 317
261 454
169 350
229 215
290 429
79 301
232 159
167 468
360 218
396 408
67 354
104 436
363 302
345 324
325 355
223 12
95 350
29 73
58 268
422 419
351 136
279 144
6 286
439 337
393 2
364 300
418 52
193 34
143 458
297 258
188 117
262 212
203 426
17 146
245 425
38 16
215 405
40 328
258 180
452 477
165 1
323 203
4391.67
3
