50
11
0 0 0 0 0 0 0 0 0 0 0
54 50 53 12 72 59 16 76 11 40 87
40 16 50 93 100 59 27 78 87 71 49
73 66 97 41 14 81 79 57 30 19 66
94 63 62 69 89 21 85 26 37 93 40
95 34 68 21 69 86 57 83 22 17 43
95 96 27 54 60 10 30 28 97 83 43
35 38 32 89 88 93 71 31 75 18 95
44 51 69 81 69 73 39 58 12 99 80
55 25 95 33 12 99 41 52 90 99 44
95 54 71 47 88 72 59 88 60 73 26
90 89 54 53 97 39 99 46 78 47 85
94 18 84 69 35 41 79 82 63 96 98
10 83 94 47 22 57 24 28 23 15 93
14 26 76 96 62 77 34 86 33 68 50
99 27 27 91 32 95 13 67 100 28 57
56 59 43 17 96 86 92 81 78 65 56
59 29 39 11 29 49 49 95 35 40 87
93 89 53 32 72 58 64 36 53 89 60
47 51 52 34 67 88 65 93 38 42 92
16 67 26 56 75 27 36 42 50 77 27
57 72 22 36 71 67 49 36 62 35 46
69 98 85 56 82 38 72 88 93 82 59
33 72 52 98 72 49 55 48 90 97 18
63 11 52 68 43 92 79 90 88 91 98
28 86 26 73 77 95 27 100 44 18 77
91 26 22 85 34 84 91 92 59 13 11
53 32 100 23 22 99 38 84 99 69 42
26 22 53 79 83 47 85 77 44 33 72
55 88 91 67 36 15 13 72 71 16 87
72 26 58 97 68 45 98 40 53 13 50
16 37 36 44 10 100 64 51 33 48 85
20 52 49 43 54 36 81 61 50 53 31
39 39 43 28 71 20 18 78 47 68 57
32 18 63 61 44 82 54 26 82 73 73
50 44 37 33 22 50 52 16 46 33 88
75 86 57 32 89 52 56 39 91 60 66
76 90 12 93 83 28 20 52 60 85 20
95 34 71 70 60 63 16 96 59 19 39
30 42 77 21 70 56 85 75 37 36 46
76 31 72 79 45 24 53 58 91 73 63
90 85 55 98 59 82 46 38 38 81 30
84 56 35 95 94 75 38 37 13 38 60
15 100 71 18 54 38 83 19 90 81 63
40 83 21 87 23 52 89 55 47 29 27
57 68 10 67 77 15 97 23 47 17 70
43 77 19 72 53 17 63 34 38 47 83
63 62 50 66 52 59 51 99 13 32 63
48 79 66 32 28 52 100 98 28 29 42
94 41 66 83 65 49 70 68 39 82 76
0.105944
0.388676
0.243857
0.318716
0.366718
0.18889
0.456699
0.209163
0.10713
0.109015
0.391345
0.321689
0.244812
0.392838
0.236869
0.147445
0.38706
0.170665
0.353569
0.432602
0.282712
0.415506
0.181747
0.345253
0.341527
0.231894
0.470593
0.4036
0.4902
0.466133
0.138761
0.260266
0.419769
0.335091
0.30579
0.394138
0.128975
0.199371
0.236692
0.3942
0.435382
0.221164
0.481187
0.183103
0.465895
0.473141
0.459947
0.428141
0.128697
0.217167
356 303
444 304
486 441
266 76
185 347
8 71
253 150
37 433
444 354
35 454
224 140
334 131
62 217
188 373
200 463
48 90
170 363
481 41
105 241
183 201
7 425
196 365
372 246
381 391
402 312
264 369
135 465
127 189
273 498
369 363
444 422
297 207
151 218
452 376
292 107
349 61
485 28
378 49
414 143
41 99
255 356
144 55
333 298
67 239
410 13
232 495
493 493
84 209
325 386
159 475
7005
2
