50
3
0 0 0
39 30 22
53 75 26
21 15 21
31 81 90
51 50 98
27 19 74
34 80 93
82 47 69
100 90 96
36 26 44
13 99 23
78 43 77
54 23 73
11 13 45
91 10 62
60 33 60
60 52 77
31 77 77
36 78 83
73 16 32
36 83 12
11 24 60
78 99 49
58 91 27
56 23 88
79 16 52
83 10 16
44 10 92
73 73 86
52 18 59
38 57 32
10 58 83
45 88 54
18 13 50
39 38 56
34 48 58
47 62 48
96 17 72
80 41 15
34 25 77
26 67 71
94 38 56
57 74 64
49 91 72
17 13 35
29 34 46
44 59 67
63 68 83
41 56 29
1.01901
0.880249
0.561371
0.829269
0.59298
1.26443
1.20938
0.526497
1.10785
1.32613
0.405576
1.1776
0.64207
0.516405
1.20852
0.843658
0.51313
0.617533
0.516912
0.692441
1.39002
1.07468
1.12132
0.693497
1.23298
1.24763
0.818008
1.246
0.975557
0.524795
0.384431
0.775002
1.37454
0.440949
1.02222
0.440654
1.448
0.400213
1.06439
0.714625
1.36166
0.598418
0.556564
1.43224
1.28323
1.13284
1.00078
1.2703
1.12422
0.306868
194 58
266 102
129 83
361 415
444 81
19 84
317 457
181 381
55 96
157 257
209 299
393 21
249 488
120 62
51 327
395 167
56 304
286 223
135 360
91 169
76 180
168 343
496 65
162 304
344 251
350 378
247 253
315 193
184 318
45 290
24 458
103 216
472 307
494 423
198 429
189 395
172 346
486 246
406 109
131 94
448 140
132 54
454 472
474 166
105 370
207 305
412 490
237 229
237 25
9 226
4230
3
