50
11
0 0 0 0 0 0 0 0 0 0 0
38 81 22 27 18 61 28 13 97 80 23
31 55 73 25 35 19 74 95 76 73 35
62 36 51 84 48 88 36 64 34 65 51
51 99 38 67 54 40 77 99 39 36 48
50 56 55 93 34 26 10 72 63 99 42
83 72 74 83 84 52 41 15 41 23 60
31 48 60 97 58 53 29 27 23 82 98
19 73 98 88 20 12 38 23 14 33 89
93 54 93 97 36 61 93 78 68 70 77
68 69 78 59 54 90 54 79 38 62 80
45 88 65 51 34 64 51 20 77 31 78
39 91 87 13 87 95 37 16 49 61 16
82 13 76 75 46 90 21 95 45 38 100
58 91 57 55 34 92 50 77 68 11 24
92 64 30 88 33 28 86 74 51 53 61
72 82 89 35 62 10 19 34 47 82 57
53 56 86 73 66 22 14 96 28 31 30
54 32 31 81 35 24 18 90 76 73 54
89 19 45 39 85 97 98 89 61 50 28
49 64 29 84 32 61 65 21 26 87 31
14 48 32 98 92 70 21 66 28 10 76
25 85 50 24 79 10 91 61 76 74 14
30 54 69 72 88 82 79 25 23 12 45
48 64 13 25 30 36 36 58 30 25 93
75 39 22 13 22 77 28 80 31 65 48
80 40 52 82 95 40 99 81 94 67 39
99 50 26 69 15 92 49 65 66 31 79
14 86 62 10 29 35 13 35 25 26 76
96 76 32 77 75 99 25 94 96 67 14
94 44 46 19 73 75 14 52 31 87 11
39 45 59 97 26 29 77 85 39 32 18
56 75 81 17 51 91 31 31 96 19 84
89 83 18 17 96 14 71 71 71 11 52
33 63 11 31 78 28 65 59 95 88 19
93 22 60 93 65 39 87 15 84 62 24
97 90 39 92 89 31 30 24 12 42 44
38 69 22 95 92 98 81 25 16 62 62
98 47 76 90 31 37 80 62 22 66 19
63 26 50 87 18 43 77 76 91 61 50
37 14 45 97 55 37 85 53 75 90 64
88 23 11 26 46 25 59 87 93 17 42
52 71 56 66 47 51 11 44 98 77 92
52 63 96 68 74 15 46 40 24 76 65
99 85 98 68 32 80 93 46 76 39 15
95 100 98 34 26 77 59 63 50 24 10
91 53 54 100 99 67 99 27 79 84 23
87 79 42 86 68 36 17 95 19 89 50
91 45 77 84 36 16 99 38 76 16 23
42 34 87 57 21 59 86 35 97 79 32
0.340261
0.654408
0.921686
0.554824
1.41081
1.17958
0.828501
0.726278
1.34291
1.41099
0.333709
0.773937
0.679348
0.948977
0.828585
0.526699
0.834918
0.513871
1.48366
1.44596
0.949163
0.647293
1.046
0.935457
0.347992
0.887432
1.1978
0.337542
0.964881
0.520026
0.614181
0.431319
0.619586
1.33675
0.964918
1.04685
0.5338
0.499679
1.40047
0.644011
1.4517
0.834393
1.45769
1.45388
0.713731
0.738006
0.305651
0.325955
1.3284
0.923697
137 198
486 67
33 490
0 193
306 334
332 347
188 149
84 491
66 44
100 17
26 275
134 32
419 473
199 428
81 360
138 106
348 460
299 154
329 478
419 161
461 243
485 204
384 38
46 459
176 416
471 403
214 144
227 119
306 447
340 104
12 419
268 112
241 279
287 363
383 429
45 448
449 236
307 169
137 463
399 39
370 168
79 356
119 341
247 311
374 40
383 341
456 299
252 406
38 168
97 448
2740
5
