50
9
0 0 0 0 0 0 0 0 0
59 26 54 73 61 80 29 20 79
17 15 25 47 88 29 64 74 83
46 74 74 32 22 45 26 34 96
99 37 50 42 83 58 28 13 14
95 27 96 27 72 38 58 86 38
76 77 50 35 98 94 10 21 31
36 54 46 56 74 81 62 55 83
31 55 60 17 19 53 25 96 96
39 47 77 38 66 16 78 48 29
70 54 38 79 15 53 63 30 42
90 44 32 69 81 76 26 17 57
76 41 95 11 24 30 79 50 48
17 62 55 92 44 61 55 13 45
58 82 53 80 67 99 72 56 62
15 28 28 40 64 50 24 29 76
92 38 41 93 94 21 88 68 24
39 97 99 28 97 58 41 64 23
39 10 62 90 91 64 15 91 18
92 10 53 100 44 30 89 21 10
16 35 95 79 34 24 18 97 12
57 88 30 43 92 38 35 85 72
36 84 92 65 49 30 58 16 32
12 59 35 51 66 66 79 29 31
77 14 44 87 52 95 64 16 47
81 60 50 95 12 24 40 86 73
10 35 83 100 53 65 73 14 24
45 59 46 38 28 63 18 36 37
89 16 89 40 94 97 18 60 62
66 16 62 80 52 47 27 17 46
71 32 96 35 86 71 17 83 76
11 95 52 67 70 27 78 19 64
82 60 87 57 80 16 32 11 52
63 62 98 44 81 31 98 99 39
90 48 62 33 50 69 86 81 100
65 53 22 62 27 81 55 84 48
60 27 22 77 75 95 65 95 90
72 35 58 76 18 79 39 24 22
35 52 10 77 65 43 39 75 81
88 13 13 86 18 56 92 86 29
92 88 52 98 85 51 57 95 65
66 13 39 19 32 97 92 79 56
49 85 13 80 100 98 39 41 81
41 95 89 23 93 11 56 24 93
14 40 95 59 10 19 72 81 40
90 91 82 66 77 66 75 25 11
25 67 53 58 26 44 99 99 42
56 15 70 31 53 19 69 40 98
50 88 56 55 15 11 26 13 13
60 62 29 32 91 16 81 95 69
0.645248
0.415099
0.471165
0.850248
0.709971
1.0677
0.416978
0.557383
0.917484
1.1789
0.649598
0.801476
1.36139
1.26617
0.9463
0.411199
1.30882
1.12828
0.799947
0.857228
1.0066
0.568818
0.89111
1.00355
0.953567
1.31995
1.25538
1.03439
1.12771
0.594007
0.774262
0.64567
0.480464
0.834616
0.953363
0.893333
0.532061
0.913478
1.43995
0.390026
1.05642
0.359599
1.44239
1.19021
0.845214
1.28345
1.17475
0.764303
0.579181
0.36179
278 108
436 40
228 68
1 368
408 460
313 427
467 362
171 216
492 435
315 241
455 408
159 278
84 296
93 462
206 305
10 469
446 356
22 156
125 217
220 74
406 349
266 263
388 231
400 465
290 246
232 449
274 339
56 491
267 47
52 304
82 279
221 121
34 327
418 305
1 457
434 64
351 128
457 107
448 383
400 85
38 106
94 409
205 355
265 405
322 87
253 441
473 432
170 253
220 45
257 106
2682
5
