50
7
0 0 0 0 0 0 0
15 64 78 79 68 94 36
57 99 73 53 31 27 26
42 47 69 72 51 70 60
93 74 83 10 86 25 14
83 14 38 77 92 39 49
52 80 74 23 80 53 13
13 11 52 47 32 50 66
14 34 83 39 41 85 48
12 52 21 93 43 22 64
55 15 93 58 31 93 27
54 29 58 65 82 38 47
48 71 23 17 20 31 45
47 35 89 26 34 99 38
93 31 49 34 16 94 97
72 40 37 19 32 59 29
44 56 44 59 36 49 35
68 40 12 63 99 61 43
79 56 93 50 17 88 28
46 75 53 88 54 89 13
48 17 30 87 25 10 25
21 81 89 27 45 82 17
26 44 89 43 94 68 89
46 51 69 91 10 87 11
89 67 84 66 34 41 53
24 40 96 41 86 91 93
74 68 80 67 93 26 16
89 69 24 81 30 14 82
34 14 99 26 20 23 98
78 29 56 62 83 90 23
98 81 24 20 23 58 72
50 86 36 33 66 74 22
36 19 77 16 21 23 86
47 32 34 23 24 61 93
87 41 47 24 89 88 39
68 22 69 52 33 82 74
74 23 81 56 100 86 57
46 98 30 62 90 98 70
86 74 15 68 12 21 89
91 23 11 35 49 48 83
37 68 48 11 82 22 72
52 34 61 83 22 92 33
82 57 59 60 50 40 41
64 39 65 59 100 16 91
52 15 81 23 97 77 11
10 37 100 11 66 38 16
91 84 86 26 51 27 20
53 24 29 38 13 33 95
61 33 45 83 23 94 92
91 60 31 37 10 56 83
0.674302
0.694665
0.214541
0.685903
0.823242
0.576048
0.239486
0.920227
0.965939
0.891308
0.231784
0.895361
0.583169
0.882755
0.357847
0.862954
0.668563
0.776516
0.783826
0.763814
0.240133
0.496737
0.85717
0.368057
0.411808
0.65628
0.534395
0.415607
0.834176
0.540747
0.778501
0.735671
0.217387
0.845548
0.203715
0.797556
0.435132
0.929065
0.941404
0.777325
0.950824
0.631911
0.532176
0.748009
0.246047
0.274126
0.911666
0.469538
0.498859
0.780665
102 3
94 141
382 459
61 427
348 318
375 182
171 284
161 5
197 478
274 225
478 0
82 13
308 87
406 34
366 459
121 179
136 269
71 266
184 82
293 497
469 210
194 343
155 466
116 210
52 370
220 456
2 418
131 222
492 224
188 416
244 122
152 436
112 382
9 223
195 212
67 98
338 273
173 38
449 170
374 112
123 395
133 0
480 411
320 180
198 358
434 359
66 192
243 149
365 311
153 143
13025
1
