50
7
0 0 0 0 0 0 0
49 21 78 34 24 36 51
100 31 16 37 47 89 64
23 13 64 77 100 63 53
71 22 86 57 32 48 74
25 47 37 19 41 83 67
36 71 93 98 19 58 68
70 98 81 98 68 99 96
79 71 99 51 15 72 64
68 95 97 70 18 81 41
81 44 20 36 66 84 62
99 67 72 98 23 62 50
89 67 66 25 61 69 29
39 40 78 21 90 20 26
78 77 100 62 95 25 96
89 44 62 80 16 86 71
48 87 40 31 79 73 23
49 92 73 48 54 70 41
72 68 77 78 21 30 17
10 29 32 58 42 84 81
65 11 74 75 32 57 31
82 91 87 13 95 97 63
74 83 98 50 27 49 87
89 70 70 10 67 10 49
72 36 36 67 17 91 62
68 19 33 35 14 55 24
58 10 20 27 22 28 69
74 59 16 12 86 78 72
41 60 66 41 81 69 72
79 39 40 79 79 34 48
30 78 27 38 70 43 85
44 58 84 33 56 27 83
64 49 90 91 69 24 52
44 13 80 12 11 75 56
95 31 14 44 89 90 11
99 15 86 63 47 51 59
90 15 42 100 70 27 86
59 35 63 27 27 43 29
58 47 22 14 72 98 47
31 89 21 29 76 33 48
14 47 39 51 95 24 45
83 23 64 88 47 65 72
56 43 60 95 94 23 99
36 78 17 27 51 22 47
86 80 28 26 60 78 19
15 53 53 29 21 56 85
60 93 96 35 42 79 35
93 17 47 51 54 30 37
47 33 10 56 41 10 80
58 17 18 66 24 34 53
1.57989
1.35492
0.551614
0.804007
1.45902
0.520842
1.29591
0.513797
1.40236
1.99757
0.667863
0.715631
1.69895
1.25398
1.474
1.50485
0.677321
0.40228
0.899434
0.989816
1.45291
1.23455
1.00302
1.72269
1.84933
0.682067
0.507801
1.33604
1.66227
1.66512
1.5488
0.579717
1.55798
1.48406
1.71693
1.22403
0.850866
1.38263
1.2263
1.51938
0.75233
1.63156
1.74759
0.669407
1.07016
1.36918
1.96259
1.57828
1.29076
0.704967
53 304
234 76
430 348
169 19
362 435
270 67
53 97
245 145
16 392
187 9
8 106
40 459
106 364
400 498
66 474
37 30
495 339
382 434
262 35
151 482
349 287
109 225
389 367
275 253
245 468
438 104
349 29
95 316
329 312
232 53
410 399
45 304
9 318
66 40
41 493
121 231
283 231
110 415
3 57
336 94
66 483
417 196
478 431
143 146
3 370
43 497
9 157
0 208
316 51
498 335
4476.67
3
