50
3
0 0 0
85 76 15
29 24 87
62 69 29
45 92 59
61 46 78
60 73 20
73 77 40
37 41 89
43 31 50
53 15 45
73 51 13
33 78 15
90 36 94
83 35 26
87 51 64
41 36 33
39 60 77
43 84 23
30 43 84
64 18 91
36 77 98
95 28 80
17 66 62
45 74 19
84 71 25
27 66 53
31 52 15
96 43 27
56 51 94
37 41 73
66 28 13
28 15 83
27 88 91
78 30 61
44 85 75
79 98 28
98 96 98
38 57 21
91 69 21
38 56 71
41 17 93
88 98 33
30 99 21
66 31 79
64 28 57
95 89 49
55 48 88
20 32 43
65 54 61
1.19576
1.11257
0.632557
1.0134
1.97901
1.41102
0.656085
1.27193
1.74399
1.11373
0.533422
1.41138
1.89618
0.616375
1.34554
1.94985
1.84705
0.486348
1.41544
0.775124
1.33493
1.52838
0.793274
1.1768
1.09723
0.766712
1.9337
0.731095
1.62561
0.562898
0.957899
1.32274
1.01038
1.45214
1.48544
1.19474
1.53494
0.913432
1.65383
1.91763
1.92009
1.43371
0.700343
0.552071
1.00759
0.618011
1.17748
0.502056
1.33297
1.16304
196 487
127 363
311 139
462 251
45 120
233 324
489 3
101 321
37 492
367 171
125 470
349 448
316 221
15 100
312 337
77 287
31 157
207 273
280 186
179 123
343 144
257 23
366 208
497 154
38 21
268 473
42 406
394 401
295 58
294 131
463 356
94 93
181 16
222 313
487 83
137 178
59 60
355 132
246 318
387 295
435 182
81 344
367 114
212 403
256 432
180 336
23 105
38 431
297 311
260 391
2717
5
