50
7
0 0 0 0 0 0 0
62 85 39 61 70 77 26
40 80 92 32 18 40 35
74 37 69 75 96 45 25
37 60 48 76 21 79 21
79 85 90 34 40 76 22
84 23 92 35 26 33 48
34 31 76 77 88 89 12
11 74 22 96 92 94 85
97 80 88 92 38 74 49
13 22 16 32 77 43 63
95 87 89 81 65 40 42
40 87 30 49 70 60 13
23 51 73 76 99 35 19
12 17 79 50 14 82 41
49 35 87 99 52 14 10
56 21 46 27 38 47 97
52 64 69 70 90 40 46
55 97 47 22 31 92 88
31 11 90 78 25 59 100
62 74 45 44 93 69 14
96 98 64 88 82 86 16
15 78 77 25 36 84 54
74 18 18 25 94 30 31
57 76 58 55 88 16 48
42 44 93 94 51 31 39
50 91 55 80 52 19 25
90 22 18 81 86 10 78
89 61 52 38 91 19 73
84 21 13 39 19 21 73
50 68 58 16 29 64 85
88 93 40 36 54 70 18
63 47 29 37 51 42 66
62 97 23 85 91 62 12
81 10 71 23 43 47 22
11 23 98 92 18 58 27
88 21 96 18 53 13 67
83 97 61 87 77 89 23
68 53 24 82 30 57 54
79 40 25 65 86 66 61
87 49 79 84 61 67 97
22 69 50 92 93 89 39
67 60 59 47 43 29 55
92 51 54 88 74 40 92
74 96 22 10 13 98 20
71 88 53 15 66 64 27
29 74 70 85 86 56 54
46 97 28 50 94 10 43
44 78 38 88 11 40 17
25 82 89 21 92 88 77
2.06317
1.46897
1.98401
2.42774
1.28732
1.23641
0.606672
0.600988
1.10406
1.17729
0.770561
1.59691
1.17625
0.519396
1.93833
1.98428
1.89866
1.21544
1.4539
0.910795
0.904571
0.671388
1.59364
1.4625
0.707104
1.98577
1.26499
1.57703
0.909208
2.35406
2.00787
1.47472
1.79686
0.509587
1.59098
1.05613
2.23571
2.33478
2.10561
2.21883
1.73917
2.24246
2.30367
2.37829
2.33334
1.40023
0.878486
1.55748
1.12147
1.22566
199 137
350 190
175 427
426 60
141 345
451 357
180 394
284 42
199 76
443 172
258 248
352 324
369 103
161 156
453 372
247 0
148 41
24 424
451 118
277 416
70 405
280 350
154 466
88 129
180 221
217 456
71 467
371 94
235 356
2 136
421 311
447 446
339 225
79 140
205 477
67 291
11 275
242 399
197 208
371 89
26 260
302 375
300 146
11 271
340 455
69 214
13 407
177 385
414 191
74 47
2745
5
