50
9
0 0 0 0 0 0 0 0 0
74 51 30 72 87 84 52 99 85
18 81 100 90 26 34 54 77 84
61 76 49 28 18 80 35 44 42
85 13 59 20 63 81 67 13 15
62 91 96 99 78 55 32 81 47
10 56 81 64 76 31 36 70 82
34 44 57 58 50 85 23 87 59
26 99 13 66 57 40 45 35 57
62 72 57 92 94 18 53 40 90
83 24 94 17 25 16 69 18 18
76 39 82 63 24 32 89 17 48
64 48 79 39 78 18 84 81 27
76 48 57 20 88 70 14 50 23
66 31 21 63 96 94 39 92 83
42 66 98 27 34 44 74 99 66
89 34 16 90 23 11 93 25 10
56 94 59 76 23 49 99 45 57
39 19 39 65 30 72 49 33 29
75 62 97 72 94 51 46 68 57
90 100 91 43 14 37 71 29 99
81 49 40 76 48 36 50 24 20
54 81 32 99 71 23 69 92 47
79 52 35 94 89 61 82 90 20
35 89 91 90 89 71 50 13 53
37 78 28 48 80 100 79 10 17
23 99 63 74 21 74 48 79 37
60 53 56 89 61 63 79 34 82
48 100 68 36 13 50 60 62 77
99 38 72 12 23 28 17 25 68
19 20 21 65 45 77 97 63 92
10 19 19 82 62 23 77 63 21
57 61 40 45 41 94 28 11 62
46 41 40 99 39 63 46 49 57
13 69 96 75 66 37 50 61 83
37 83 69 40 92 96 66 98 58
23 39 11 41 32 48 51 68 69
44 93 28 43 39 86 78 22 84
52 29 23 73 91 14 37 40 32
100 14 52 97 100 36 94 99 57
96 19 69 22 86 70 71 83 38
92 49 96 17 76 44 82 14 66
73 57 54 65 93 63 69 30 79
49 14 46 66 36 28 46 82 76
74 10 33 46 77 58 32 79 48
25 12 36 22 87 57 55 60 32
87 44 49 49 36 96 15 77 25
27 21 30 79 26 47 50 23 59
13 35 30 53 59 41 55 71 54
64 33 51 29 45 43 22 96 73
0.642656
2.35415
1.21981
2.47722
0.750711
2.25286
2.01114
0.856776
0.597013
1.55922
1.05054
2.26945
2.19966
2.0567
2.09608
0.732739
2.48351
0.938552
0.535674
0.601091
0.517292
1.27103
1.0703
2.26664
1.78667
1.62473
1.29832
2.08687
1.76973
1.8867
2.46144
0.73852
0.701442
2.25521
0.957606
0.678291
1.0764
0.516849
2.33275
1.54154
2.44493
1.91128
1.30627
0.940791
0.562968
2.43597
1.13958
2.35779
1.19935
0.706811
399 6
113 408
472 207
310 450
220 353
435 129
246 216
74 128
381 492
53 236
36 51
160 266
142 14
67 115
222 30
238 286
460 125
175 454
274 489
290 248
388 54
333 47
479 105
351 276
133 241
122 343
99 336
220 170
427 395
3 171
118 338
376 183
244 40
386 117
381 437
466 95
448 343
24 3
188 301
328 482
16 328
381 489
292 260
10 270
162 329
386 135
314 31
438 490
132 295
231 353
4516.67
3
