50
5
0 0 0 0 0
59 54 96 29 51
91 61 80 93 96
93 16 17 99 81
35 94 41 95 73
16 88 40 58 24
29 88 73 85 47
41 42 63 98 18
21 75 11 98 78
11 60 87 58 16
75 70 45 61 72
88 60 46 96 52
26 50 25 40 61
31 85 78 91 61
62 43 18 38 70
24 81 73 29 45
95 87 33 44 23
95 20 32 12 37
62 20 42 41 90
66 39 34 83 54
89 92 35 66 45
34 55 30 78 22
96 87 36 48 41
40 68 10 29 77
48 88 35 49 84
10 60 57 51 12
42 65 33 20 81
46 54 16 16 89
29 91 55 42 81
72 67 42 48 46
23 31 49 31 44
41 69 62 26 99
53 90 41 77 23
87 71 49 93 64
68 27 15 49 64
92 100 62 16 66
66 65 90 39 70
30 24 23 47 75
19 57 50 100 41
52 19 79 30 71
51 83 36 52 30
63 72 79 88 17
58 20 18 30 75
75 17 53 76 66
78 13 24 17 75
15 19 90 77 26
70 33 67 73 62
68 83 45 84 76
10 69 26 59 94
64 99 41 35 97
1.03949
1.05255
0.30447
0.832037
0.540227
0.706693
1.12744
0.624696
1.4696
0.706415
1.48426
0.891542
0.938047
0.861105
0.641657
0.879972
1.30084
1.29566
0.908691
0.81488
0.370634
0.487473
0.486862
1.14864
1.23714
0.547137
1.31471
1.29579
1.08523
0.563655
0.575472
1.42788
0.901572
0.61372
0.679743
1.29846
1.28293
1.21301
0.720166
0.856165
0.395722
0.916543
0.804507
1.10255
0.500557
0.99121
1.3308
0.76333
0.34343
1.22359
409 80
160 2
311 104
443 463
468 277
4 236
39 440
304 80
462 171
197 324
262 347
336 378
425 112
191 319
37 353
74 436
490 441
201 60
168 304
459 27
428 42
125 232
256 324
363 449
63 130
381 85
433 222
32 160
382 144
380 251
389 230
60 155
121 428
282 313
398 447
114 422
209 90
201 413
196 56
407 213
253 297
115 358
80 191
417 416
138 153
184 211
62 173
469 3
246 2
399 385
3366.25
4
