50
9
0 0 0 0 0 0 0 0 0
44 22 76 54 66 10 77 80 40
37 16 65 32 73 45 44 60 43
86 89 95 36 65 49 18 39 51
19 69 97 49 94 36 48 49 90
85 35 60 61 96 59 56 53 37
30 36 49 71 62 80 97 44 19
28 68 21 34 27 30 40 61 76
77 75 72 33 92 75 74 38 63
82 52 79 78 10 79 69 59 22
73 39 12 57 49 49 46 74 39
15 95 54 23 72 99 89 57 47
76 36 38 33 48 25 45 28 17
13 70 77 26 70 35 67 79 98
32 57 83 84 94 79 64 97 15
19 15 36 51 81 93 16 71 55
16 88 27 80 47 18 46 39 71
45 35 21 69 74 74 24 81 64
23 28 35 76 65 26 77 40 63
56 11 90 70 56 59 98 60 35
10 69 98 39 23 50 71 66 100
67 18 78 36 88 63 86 12 97
17 89 14 30 57 94 93 81 70
72 53 41 31 93 62 70 48 53
53 38 99 57 82 61 49 43 86
87 54 55 95 45 92 94 60 12
30 89 99 55 28 16 72 78 78
20 53 49 53 49 12 75 12 93
81 21 96 100 33 75 26 57 29
86 86 48 52 41 15 10 82 52
16 39 11 84 18 64 10 13 32
15 44 32 19 28 40 78 59 18
75 61 68 89 16 19 96 70 13
10 15 75 40 64 40 42 61 12
97 89 12 22 36 41 74 52 60
11 60 35 20 88 27 93 18 42
30 74 94 87 77 83 11 92 30
99 39 39 83 39 84 24 76 33
51 45 37 62 40 14 19 77 25
27 85 39 63 90 96 55 52 29
11 23 37 29 21 49 83 86 34
49 46 83 93 43 39 88 36 30
51 46 95 67 67 68 16 95 38
94 53 90 85 83 75 20 44 25
80 78 73 61 70 40 37 69 48
12 62 97 55 78 80 93 56 31
37 74 64 20 36 81 76 86 95
72 85 46 13 17 45 31 25 35
92 55 32 48 91 69 87 31 85
71 75 17 94 85 53 68 82 18
0.354225
0.380551
0.323676
0.492844
0.408377
0.356814
0.833812
0.643079
0.841016
0.515646
0.830413
0.949512
0.994995
0.398145
0.27331
0.840445
0.364902
0.752638
0.296469
0.534146
0.35075
0.400608
0.945601
0.908884
0.350904
0.634876
0.783302
0.781917
0.336819
0.40542
0.948917
0.428735
0.491046
0.928205
0.466493
0.926412
0.612644
0.422735
0.598913
0.545891
0.343031
0.747644
0.709095
0.921055
0.592393
0.602994
0.77969
0.565156
0.553767
0.85452
208 81
150 350
6 35
487 96
306 327
316 71
391 486
370 45
370 96
384 192
214 480
219 86
255 435
468 227
476 177
26 131
237 176
162 150
472 466
118 57
323 382
101 429
355 249
144 97
75 496
225 335
119 374
275 430
82 276
397 4
204 251
369 248
199 480
17 277
10 155
233 265
189 145
136 97
43 424
461 232
243 253
31 155
346 203
174 459
424 265
338 12
104 372
353 67
148 153
182 238
2680
5
