50
5
0 0 0 0 0
32 84 62 82 82
11 39 67 66 61
36 14 98 94 59
78 69 30 13 53
45 44 65 95 20
15 35 17 97 60
30 74 36 25 83
67 41 62 100 61
81 51 91 23 90
86 38 48 32 14
15 43 32 56 26
19 72 83 44 18
71 26 33 56 72
59 35 67 31 28
40 10 93 38 43
66 75 60 77 42
60 14 76 32 89
44 49 97 77 46
35 16 28 77 54
53 27 45 27 47
44 29 73 49 86
52 62 62 15 47
34 78 75 69 43
14 43 74 59 94
75 84 21 28 98
85 100 37 55 12
92 57 60 37 88
61 30 72 59 58
43 74 82 56 78
56 76 85 89 14
44 89 97 31 94
76 72 56 37 50
99 69 70 75 76
100 40 98 39 53
16 43 69 27 27
51 97 47 70 81
67 41 81 17 45
57 66 10 68 24
56 61 50 30 36
43 27 61 70 62
14 10 39 85 15
20 38 16 37 91
94 13 73 20 79
74 99 29 97 79
56 48 56 65 82
87 61 49 75 73
10 52 75 94 22
72 33 30 92 51
77 79 66 65 97
0.238917
0.472069
0.162278
0.104696
0.313129
0.252586
0.131095
0.118603
0.353249
0.380314
0.43665
0.36183
0.31698
0.295533
0.127969
0.120433
0.427825
0.140001
0.31075
0.229193
0.317511
0.126912
0.454724
0.336418
0.159015
0.31383
0.316239
0.133511
0.264195
0.222382
0.425971
0.134897
0.27397
0.39281
0.38499
0.490052
0.291766
0.299692
0.466993
0.348855
0.220007
0.175796
0.353941
0.434527
0.422655
0.475563
0.139798
0.291484
0.274808
0.423651
111 323
252 132
221 106
449 10
21 233
174 77
322 175
390 304
340 456
228 328
67 88
299 23
476 138
460 99
149 383
4 266
173 138
227 261
3 230
464 359
6 440
334 406
313 63
363 383
284 385
203 30
400 313
192 178
132 331
64 461
265 454
60 464
299 406
264 463
76 203
323 453
292 281
472 464
408 499
455 4
186 55
376 333
192 370
16 301
424 186
400 329
147 138
24 248
315 498
208 255
4531.67
3
