50
11
0 0 0 0 0 0 0 0 0 0 0
12 85 42 62 85 18 56 46 14 91 47
21 31 11 50 59 46 22 54 40 40 50
99 99 47 32 43 59 81 94 30 19 85
12 15 25 53 41 47 13 88 95 17 80
29 88 59 52 98 46 100 95 36 71 45
60 37 66 92 77 47 23 63 77 65 89
76 63 85 49 33 53 99 82 61 13 68
91 79 92 22 72 26 59 58 26 54 36
20 93 25 26 30 16 90 62 45 92 26
73 24 53 54 55 77 42 13 97 11 58
96 22 10 85 39 54 47 94 97 44 19
19 48 32 36 16 73 81 66 92 62 30
75 54 100 15 87 84 26 92 43 70 65
98 61 66 20 51 55 53 68 86 29 57
93 64 53 17 22 28 13 21 87 38 68
25 54 42 48 35 31 70 41 34 100 19
75 77 26 69 37 25 37 72 54 100 12
81 59 26 25 81 95 97 62 17 39 72
45 33 21 12 99 10 32 27 31 21 38
49 41 78 69 91 82 53 32 74 82 35
55 19 56 100 64 97 19 73 51 83 63
94 88 89 50 48 41 67 82 12 76 20
53 34 99 11 74 25 71 92 31 93 22
61 36 78 81 95 30 31 13 55 71 44
10 69 94 98 97 44 100 32 97 57 34
56 80 43 22 13 12 25 27 54 56 68
68 15 48 56 19 17 96 52 23 79 10
92 99 73 57 37 93 62 10 51 21 47
94 35 65 29 74 25 56 61 47 78 89
42 80 51 73 25 53 23 69 19 26 53
50 35 33 82 65 54 55 51 83 84 38
45 96 16 62 59 30 45 94 54 33 45
22 19 41 91 79 10 96 51 31 12 36
67 49 84 12 65 91 77 93 48 91 15
63 68 41 70 94 31 15 54 68 40 81
13 45 20 29 67 50 83 24 61 80 47
16 70 18 16 61 73 17 10 29 41 100
27 77 62 24 30 86 69 50 28 42 63
60 59 43 85 48 62 81 36 48 40 63
38 25 19 21 72 18 92 47 27 25 25
67 99 48 51 12 29 13 57 10 64 25
55 28 93 11 67 56 71 24 26 96 42
45 17 91 60 55 50 65 40 84 81 88
25 17 40 42 30 38 56 53 64 67 61
14 40 44 98 55 92 11 96 59 66 78
76 15 32 38 14 17 60 22 11 27 11
49 74 37 61 33 31 57 17 26 19 11
88 36 98 32 47 65 22 54 10 42 63
20 97 18 21 58 20 12 11 62 17 29
0.412278
0.204575
0.419935
0.340394
0.132547
0.406846
0.230906
0.3309
0.492857
0.388191
0.177822
0.355271
0.170686
0.390537
0.207722
0.380898
0.339275
0.372807
0.200137
0.373009
0.342785
0.241422
0.151399
0.280259
0.466222
0.305071
0.222004
0.468626
0.220077
0.318309
0.282043
0.116915
0.368762
0.217828
0.160251
0.108739
0.169318
0.356867
0.138511
0.209478
0.377933
0.361335
0.313524
0.237527
0.166794
0.326804
0.237669
0.483872
0.438524
0.257683
329 419
483 109
163 427
112 26
15 247
134 107
180 244
441 261
93 439
257 228
455 80
61 286
249 195
186 99
467 499
470 235
95 19
128 241
40 159
294 349
284 463
66 265
208 207
236 481
311 256
498 172
485 489
359 362
319 469
294 27
203 136
405 64
376 169
398 21
135 82
198 273
336 284
102 51
198 104
371 210
470 366
217 450
268 17
282 105
140 421
294 344
268 397
162 414
216 95
205 59
3168.75
4
