50
9
0 0 0 0 0 0 0 0 0
33 35 23 17 57 43 55 86 57
58 85 36 58 85 25 20 24 77
15 79 32 44 68 93 17 17 68
57 45 28 59 99 61 14 56 87
16 94 24 38 38 85 30 41 98
59 19 60 81 58 59 77 82 78
91 59 60 44 64 45 77 43 68
51 85 96 27 76 62 10 59 44
29 84 31 79 51 88 12 85 41
55 93 75 51 16 63 78 72 45
50 72 49 37 12 94 85 65 83
19 90 26 50 83 38 29 95 40
14 59 83 80 44 28 58 10 34
46 99 67 60 10 20 68 100 87
28 81 94 78 89 20 87 24 53
61 21 50 65 13 56 14 96 89
22 45 24 16 77 74 52 78 20
75 27 36 59 57 89 19 70 98
82 50 20 87 14 38 96 63 100
23 98 72 42 96 93 80 64 53
78 44 100 49 31 25 28 59 24
17 19 24 28 46 56 76 37 58
32 22 78 59 23 60 38 48 17
77 45 23 46 56 85 10 22 85
28 19 66 89 25 36 86 26 79
27 30 19 99 39 96 69 40 88
88 93 56 12 91 100 11 59 63
92 77 18 24 30 19 15 69 66
100 31 35 58 45 38 100 21 38
60 73 71 31 27 74 44 73 59
60 11 53 38 82 86 36 59 47
74 44 37 64 67 40 100 37 21
97 64 18 39 52 33 57 43 71
99 43 48 88 38 76 40 22 62
77 31 60 39 67 36 17 66 55
20 30 26 74 89 94 20 84 84
45 31 83 34 59 89 57 56 13
77 41 62 67 84 75 80 64 52
36 45 76 30 75 48 88 33 17
24 11 76 74 37 87 15 94 67
60 62 23 33 75 42 13 72 58
34 36 73 81 64 81 68 52 29
49 60 82 45 68 65 27 88 47
99 76 77 30 24 36 87 43 65
27 48 95 43 42 74 48 56 26
79 91 15 59 23 83 13 85 33
85 97 15 28 81 92 68 40 85
16 62 45 40 24 79 30 68 14
16 99 94 44 87 91 30 20 90
0.862863
0.729512
1.0426
0.370021
0.883082
0.895838
0.372382
0.544821
0.426212
0.837534
1.12119
1.12594
1.02884
0.504632
0.396113
0.528931
0.865279
0.491278
1.37984
1.03795
0.809887
0.342495
0.582895
1.49045
1.0486
1.20531
0.827375
1.1549
1.46025
0.540628
0.954659
1.3584
0.506716
0.930076
1.17828
0.418826
0.319278
0.90151
1.24007
0.455941
1.35972
0.705597
0.338628
1.29085
1.11742
0.382135
0.555188
1.35536
1.25311
0.462107
101 179
241 188
14 255
75 304
343 400
292 88
171 58
43 281
222 230
196 156
207 12
87 14
87 442
171 138
77 198
111 276
459 240
149 480
69 39
460 109
52 157
134 148
50 164
492 383
358 480
375 274
479 20
327 81
284 215
265 446
336 352
410 230
313 380
407 110
203 408
286 342
144 251
301 115
316 46
421 57
65 351
243 201
352 207
24 479
125 165
91 25
449 332
114 48
500 316
450 395
6677.5
2
