50
11
0 0 0 0 0 0 0 0 0 0 0
63 14 70 28 40 70 59 45 88 91 22
89 18 39 36 71 92 69 76 17 20 52
82 67 46 53 79 85 95 26 10 25 72
100 51 91 37 75 15 51 20 71 63 35
52 85 30 56 65 20 79 10 18 51 12
44 23 47 85 48 23 93 49 71 67 72
14 65 76 17 21 19 97 95 28 45 12
15 92 55 82 81 91 71 25 52 49 52
44 69 49 81 34 92 72 94 99 52 40
19 71 43 44 81 20 98 81 86 27 23
20 81 25 76 15 82 92 70 95 16 73
51 26 74 33 58 68 76 87 25 57 60
12 21 78 34 89 46 56 51 40 16 79
36 21 22 62 93 58 15 76 76 17 56
36 98 86 23 27 52 36 17 66 71 95
11 96 47 42 48 51 43 10 39 29 21
33 98 23 93 99 19 64 31 15 52 31
37 91 32 44 13 87 64 98 27 66 59
60 46 19 86 75 92 80 16 87 57 78
95 33 71 38 52 100 18 72 99 58 68
24 53 85 12 69 87 83 85 12 73 99
20 62 19 65 18 35 14 61 12 99 12
82 56 56 93 95 12 16 82 18 92 49
82 61 72 66 57 77 95 12 20 73 76
10 64 94 35 85 71 97 86 29 61 25
50 59 75 63 44 94 17 19 99 35 58
56 43 19 60 40 13 74 95 14 20 46
82 70 17 17 72 55 67 11 72 14 69
50 33 16 45 88 12 72 40 34 97 42
33 50 92 45 55 25 13 11 34 12 58
33 43 63 31 27 54 63 44 55 68 26
89 23 48 96 79 46 65 94 48 45 45
68 88 84 39 33 47 78 44 50 90 70
86 62 16 61 98 74 56 34 32 25 79
47 31 86 37 32 65 66 31 83 43 81
67 22 70 45 61 12 48 66 50 52 29
86 40 93 20 56 25 49 35 83 29 51
65 18 80 96 99 70 84 26 11 77 78
27 35 70 42 87 28 48 30 61 93 86
28 42 46 66 71 26 30 12 43 55 94
69 98 89 46 32 44 55 14 34 86 22
81 60 89 56 23 95 84 48 81 34 65
82 58 86 51 84 85 62 36 99 15 46
57 30 33 61 54 31 59 21 88 30 67
88 55 64 83 37 70 93 96 97 80 24
41 41 60 42 16 71 15 45 96 50 57
86 66 62 95 64 15 81 89 70 55 58
88 56 49 70 65 31 61 53 81 26 87
31 10 77 100 23 85 15 49 91 61 21
0.79712
0.236243
0.430261
0.849739
0.659795
0.867776
0.877078
0.614902
0.847716
0.353212
0.346431
0.343901
0.372402
0.630418
0.449867
0.46385
0.263783
0.769745
0.588411
0.853866
0.747704
0.458016
0.525997
0.850034
0.244092
0.224937
0.322674
0.518443
0.510893
0.615851
0.474497
0.429372
0.585404
0.873234
0.383539
0.835807
0.594846
0.225173
0.492139
0.206497
0.309826
0.876402
0.439061
0.328941
0.387675
0.568735
0.2764
0.716113
0.71338
0.349938
98 123
355 472
345 484
191 386
66 259
117 294
386 235
108 425
210 151
154 469
381 259
286 280
256 347
266 123
229 362
442 144
272 243
24 173
302 219
297 211
365 253
69 52
235 478
378 139
37 492
171 220
334 265
368 241
464 82
281 332
1 52
269 468
416 204
25 89
445 414
110 38
258 69
194 419
433 462
41 436
204 374
334 466
343 152
410 167
291 403
500 359
10 68
306 317
19 57
120 22
3347.5
4
