50
7
0 0 0 0 0 0 0
98 88 37 20 48 64 28
22 51 75 74 34 91 78
21 39 19 44 59 24 28
75 31 36 85 19 34 20
86 26 82 42 32 49 28
69 86 54 56 58 45 68
82 17 25 43 27 28 84
11 97 99 19 91 97 19
13 95 87 31 45 47 86
57 38 57 45 22 86 53
13 93 99 52 42 12 45
92 11 78 55 90 94 43
61 16 71 74 45 12 91
14 31 16 22 38 10 11
13 43 42 20 35 97 54
19 57 52 83 21 18 40
60 52 60 56 82 59 89
46 84 36 100 28 80 48
13 18 33 49 10 81 93
82 80 93 76 19 55 20
96 88 35 59 81 15 79
91 78 55 57 42 89 94
34 83 47 35 68 43 83
99 34 57 61 10 36 20
98 45 82 25 98 33 52
68 32 86 41 18 49 28
21 56 57 67 95 46 75
61 22 88 51 50 80 72
79 71 34 57 71 93 23
45 37 27 68 100 62 29
55 75 30 29 69 15 24
84 67 94 65 60 93 21
90 26 59 98 37 24 14
92 58 35 13 89 28 68
62 63 73 54 72 91 84
64 94 26 79 50 83 63
82 62 87 12 28 55 59
30 73 76 12 31 11 12
61 91 45 66 19 42 88
80 48 66 39 35 55 29
74 33 15 93 99 80 86
54 70 15 48 12 92 66
49 82 61 84 36 86 59
77 13 15 54 60 96 35
37 89 16 32 26 45 88
25 69 89 45 37 94 50
96 92 97 73 17 34 12
40 55 32 16 97 72 89
67 38 94 100 85 20 12
0.717195
0.499999
0.926822
0.234312
0.466083
0.691871
0.248008
0.379212
0.999769
0.854371
0.805749
0.399137
0.958792
0.443037
0.389799
0.291026
0.846742
0.92897
0.366595
0.745036
0.216885
0.890157
0.817839
0.391682
0.272993
0.239671
0.268482
0.901534
0.254372
0.805788
0.940556
0.981614
0.829723
0.761877
0.211697
0.344181
0.832384
0.278256
0.674658
0.698912
0.640371
0.915069
0.784345
0.334438
0.540679
0.513191
0.94024
0.539246
0.637285
0.337683
372 114
166 327
139 227
233 142
483 353
61 376
322 359
261 303
205 100
183 217
208 95
61 44
73 241
362 499
413 369
330 466
10 419
103 54
18 59
490 470
408 185
438 413
363 231
129 61
273 474
8 412
138 124
499 453
276 396
43 419
83 203
212 384
147 53
322 279
189 408
72 100
386 52
40 207
363 398
18 499
496 18
183 109
245 67
175 131
303 480
148 213
487 350
294 265
394 180
274 297
4451.67
3
