50
5
0 0 0 0 0
65 68 53 55 79
85 27 43 67 61
50 73 39 36 39
73 80 61 36 38
25 41 46 31 48
47 78 34 35 46
17 28 81 95 80
38 39 99 49 29
67 76 21 14 70
80 87 35 56 99
74 23 90 76 96
96 32 29 100 30
79 61 44 89 27
68 12 40 90 46
30 68 44 71 67
89 41 36 90 85
42 26 40 69 42
42 21 42 30 37
68 31 31 89 77
97 11 81 36 29
33 49 80 99 69
53 50 96 66 96
54 36 44 78 15
78 67 15 62 20
29 30 98 91 31
66 57 88 83 51
68 56 81 73 47
42 21 71 95 19
56 40 63 80 52
10 74 99 67 36
96 76 86 74 48
19 22 23 44 14
82 57 57 10 32
33 65 94 41 33
37 39 49 76 88
13 74 80 46 33
89 70 62 33 73
98 67 20 65 66
66 28 13 10 14
91 90 99 76 25
90 98 94 16 76
98 52 54 31 31
23 84 57 41 97
75 31 34 89 38
97 92 87 25 44
96 87 52 35 86
93 27 58 16 70
96 22 99 79 99
64 55 95 61 43
1.11166
0.596819
1.45462
0.822496
1.54883
1.72657
0.686243
1.73096
0.684667
1.94469
1.5817
0.556989
0.630978
1.68499
0.692369
0.876821
1.37088
1.932
1.46146
1.6774
1.82976
1.86532
1.24314
0.640815
1.88339
0.969042
1.74432
0.89413
1.06518
0.686458
1.27261
0.516983
1.5825
1.84091
1.13076
1.7244
1.92634
0.881205
1.07381
0.899539
0.966023
0.41862
1.83962
1.24428
1.06281
0.689193
1.61793
0.653997
0.831787
1.79142
186 132
93 394
470 61
121 235
330 129
446 335
148 170
349 114
388 139
55 498
338 417
311 180
476 458
2 44
424 143
139 111
105 379
432 402
395 123
64 163
334 114
204 138
317 228
70 220
197 63
388 475
476 267
361 219
236 355
403 400
101 425
96 192
409 246
131 314
71 152
174 447
426 246
67 365
385 18
439 52
75 186
0 280
471 63
217 73
441 459
306 281
466 172
16 333
144 42
145 74
4666.67
3
