50
7
0 0 0 0 0 0 0
69 64 94 74 83 44 87
46 43 46 35 15 59 54
10 53 98 41 48 55 38
15 29 61 14 71 21 40
33 63 65 41 84 31 59
51 85 33 17 75 37 55
32 56 23 80 27 75 60
78 20 60 29 68 68 76
54 83 35 14 66 21 73
10 34 86 21 67 46 72
16 64 20 71 92 64 10
93 85 22 20 30 60 64
60 70 94 45 41 57 40
87 72 70 16 14 29 26
16 77 21 58 13 55 76
38 58 41 93 56 59 40
32 22 25 44 16 78 46
17 85 17 70 32 37 98
60 14 49 31 16 72 65
40 65 80 94 72 45 70
66 71 89 30 41 97 43
61 74 93 31 85 32 23
34 20 49 28 92 98 43
28 31 75 21 70 55 50
93 59 63 37 62 55 63
16 22 58 47 33 25 78
27 53 32 22 100 46 30
89 41 32 77 94 34 47
71 23 19 51 20 41 44
87 83 38 14 17 99 73
99 78 35 62 46 49 41
72 100 24 86 97 81 16
43 32 70 59 15 20 40
37 71 72 94 65 68 59
42 85 32 70 54 79 18
29 79 44 15 62 68 16
55 62 36 68 18 30 37
96 85 11 62 93 86 33
36 50 53 100 11 35 16
28 85 78 72 92 29 85
44 84 16 15 38 45 36
68 73 40 66 79 73 81
69 33 43 62 33 17 62
12 64 92 37 81 40 59
65 50 30 62 96 98 62
58 15 91 45 56 33 63
84 34 30 46 40 14 89
71 59 16 82 21 69 43
46 97 100 83 97 51 33
1.18631
0.737642
1.06034
0.303669
0.475037
1.16682
1.33792
0.496257
0.551479
0.915666
1.43713
1.48232
0.639311
0.461001
1.49713
0.531074
0.885963
0.608713
1.38669
1.00687
0.783341
0.412524
1.2036
0.820415
1.25211
0.565635
1.01733
1.3456
1.06593
0.903643
1.10817
0.629712
1.27297
1.00861
0.43663
1.39579
1.44346
0.959301
0.708102
0.847358
1.02934
0.316922
1.04601
0.396188
0.507779
0.782774
1.37303
1.12132
0.743899
1.11035
330 99
265 276
424 151
202 449
336 271
42 214
326 185
415 364
332 299
15 151
433 435
383 399
131 186
374 158
486 389
385 166
398 431
107 447
29 362
232 269
14 124
475 53
153 408
260 256
174 481
188 450
244 267
42 446
14 435
103 265
479 194
106 309
283 293
209 407
92 200
180 244
257 456
181 220
111 258
402 163
9 315
500 370
361 452
69 205
170 495
258 217
151 234
192 54
303 334
293 430
4308.33
3
