50
3
0 0 0
72 65 74
28 86 61
99 13 78
53 100 49
75 91 82
53 52 29
82 63 38
27 20 13
89 66 67
29 18 29
60 89 52
35 72 12
45 45 86
56 86 30
43 57 67
46 24 22
100 41 82
20 28 78
78 18 63
61 98 76
67 42 80
20 100 75
54 46 40
28 32 32
70 92 15
86 34 73
83 13 69
72 97 67
92 80 34
39 58 48
51 98 51
26 80 50
58 57 79
68 40 95
21 82 71
45 60 59
29 96 35
98 51 89
23 30 66
63 74 80
61 22 15
55 85 10
76 16 70
69 44 58
13 42 88
34 31 98
50 37 31
88 47 74
24 22 93
1.62026
1.00866
0.677756
0.727372
0.816205
0.852065
1.93035
1.62409
0.91764
0.610559
1.769
0.562311
1.02325
1.85637
1.0938
1.46667
1.87653
1.36259
1.62878
0.930131
1.74387
1.3749
1.30071
1.90177
1.76833
1.39377
0.718627
1.56952
0.780759
1.29332
1.65693
1.48438
1.42833
1.82125
1.95155
0.669617
1.22382
1.29292
1.68391
1.88554
1.63604
0.950884
1.85141
0.584909
1.59853
1.12061
0.791139
0.974483
1.31327
1.99195
482 317
310 136
230 293
221 14
282 106
214 419
188 342
313 217
318 249
261 397
118 413
315 73
274 248
299 460
42 457
408 258
468 262
214 46
146 295
117 335
181 361
376 268
362 447
329 316
366 261
77 389
360 228
209 498
279 321
13 275
298 457
281 75
424 459
145 141
35 478
274 44
397 158
287 265
375 368
289 275
259 433
321 339
410 220
38 224
274 197
356 240
23 5
440 208
373 101
229 378
13810
1
