50
7
0 0 0 0 0 0 0
77 71 72 16 92 99 38
79 17 72 15 17 63 63
35 94 40 32 18 15 80
21 17 84 68 87 32 81
87 90 88 30 77 61 70
44 58 46 79 27 100 53
65 16 35 54 59 81 85
78 96 67 73 74 31 78
42 88 78 32 53 66 44
26 37 48 65 46 59 32
92 70 46 25 22 33 61
87 50 25 52 96 34 27
90 49 31 80 26 87 37
25 35 20 89 100 70 82
73 17 71 55 90 63 84
85 81 35 88 16 77 11
83 29 85 53 56 53 76
82 50 89 53 52 99 60
46 66 59 36 48 62 15
39 10 76 74 50 88 100
69 81 86 21 74 18 90
49 60 87 87 32 92 41
43 55 79 54 46 93 48
26 98 72 87 42 70 89
12 42 57 11 23 97 74
51 29 73 26 30 93 94
16 34 42 33 59 41 94
45 53 33 25 63 16 34
83 16 25 62 95 100 47
78 57 96 28 91 31 53
70 10 22 62 56 43 15
26 70 75 68 57 90 24
38 40 45 18 55 60 37
11 14 39 32 53 48 96
48 73 67 48 96 60 52
43 50 38 80 53 49 64
57 73 37 38 36 18 27
93 96 61 28 18 85 46
16 29 70 83 44 47 88
24 69 10 84 50 10 29
32 20 36 39 63 72 97
40 18 33 52 49 50 68
57 64 60 73 91 63 48
85 79 69 39 73 49 88
87 94 93 87 21 63 93
36 99 20 72 100 27 57
28 42 62 74 88 85 34
24 38 84 71 39 82 27
100 67 90 51 49 20 76
1.7302
1.28078
0.542028
1.63699
1.64759
1.72082
0.579319
0.584519
1.16176
0.608163
1.23804
1.66076
0.869559
1.2644
1.66511
1.46977
0.799622
0.493734
1.04769
0.523124
1.69803
0.927719
1.97902
1.44015
0.944013
1.35998
0.739677
1.39591
0.410978
1.77385
1.60537
1.41641
0.791591
1.23922
1.75643
1.33297
1.13122
1.06764
1.05536
1.27413
0.679246
1.66524
1.32235
0.598588
0.532052
1.17677
1.49826
1.71919
1.46856
1.32689
302 488
310 140
450 88
54 464
87 389
230 354
294 310
280 71
489 239
385 426
166 333
118 201
206 296
486 377
219 280
440 294
285 176
35 74
483 335
175 470
174 87
128 439
135 71
132 114
313 334
408 281
123 493
487 453
68 74
483 141
74 470
423 410
177 440
489 320
455 74
246 407
483 44
178 69
254 202
10 451
21 446
394 137
107 47
377 188
117 23
351 205
299 408
374 232
402 196
442 440
3443.75
4
