50
7
0 0 0 0 0 0 0
42 27 77 62 98 94 44
95 92 46 48 17 42 33
89 16 70 86 64 67 60
14 26 54 84 97 37 11
78 25 18 66 87 42 84
70 59 13 82 77 20 14
14 45 72 60 55 90 98
27 84 17 60 86 100 48
70 11 75 32 14 100 54
32 78 83 55 11 61 58
72 88 34 71 22 57 60
99 70 95 32 36 66 65
12 24 58 78 52 80 70
99 100 15 45 17 37 66
70 62 36 15 43 69 35
21 53 62 37 56 25 90
90 26 50 62 93 11 98
10 47 39 27 82 43 60
90 30 57 69 99 71 97
33 96 76 80 48 32 86
44 93 60 19 29 98 92
83 87 33 89 38 59 26
21 27 20 96 43 80 17
88 83 28 88 65 57 37
64 94 79 23 11 78 36
50 82 44 51 38 77 88
78 71 90 79 56 31 74
26 50 72 63 23 17 82
43 71 47 76 94 51 75
94 18 97 97 63 38 50
88 12 85 10 28 49 15
47 67 13 67 52 72 33
54 24 21 78 98 73 13
28 87 71 93 10 96 76
96 93 24 97 18 12 49
95 75 51 44 25 20 28
42 90 64 70 53 87 35
17 75 21 65 92 19 20
19 79 49 65 53 19 38
79 25 90 77 58 51 72
47 20 33 27 24 84 52
18 86 64 84 98 52 67
64 71 54 94 89 64 90
89 66 65 10 31 13 83
81 38 75 83 18 93 49
72 53 42 96 61 28 81
67 79 79 29 14 49 57
59 21 13 97 55 98 12
25 65 52 70 95 20 63
1.62235
1.33384
1.21911
1.3937
1.39416
0.892377
0.508385
1.28324
1.53074
0.814132
2.18051
2.39333
0.811607
1.03098
0.936044
1.094
2.24209
1.9663
1.69828
1.46749
2.07596
1.93956
1.4712
2.1719
0.890274
1.29132
1.18555
1.19095
1.43212
0.942761
1.0497
1.14317
2.2539
2.04845
1.72719
0.726767
1.24364
1.98373
1.60229
2.07215
1.99339
0.737168
0.694767
1.15312
2.28608
2.47409
0.734031
1.7623
1.34941
1.0775
276 58
233 430
98 118
357 462
400 18
245 472
195 151
34 172
285 187
388 120
437 425
105 138
438 3
370 432
461 30
465 384
369 419
85 173
353 36
21 444
488 210
326 90
325 30
186 65
25 442
380 90
462 254
93 464
120 214
468 462
233 172
481 148
457 17
288 105
333 34
75 331
280 173
369 242
493 7
479 408
284 487
342 287
202 369
495 489
127 172
118 476
496 420
126 404
233 310
397 154
6925
2
