50
5
0 0 0 0 0
91 13 96 55 54
36 77 70 67 42
59 19 50 13 55
60 93 37 60 22
24 37 80 75 84
56 40 30 31 55
72 23 34 39 82
58 82 27 53 24
85 69 70 65 55
41 69 57 96 88
84 83 74 73 82
33 77 77 16 66
91 65 99 58 90
36 31 79 92 89
64 16 50 62 43
29 93 82 72 98
64 31 69 59 30
25 65 40 35 35
76 87 59 67 80
54 42 21 49 35
98 65 20 48 25
29 61 70 79 100
42 66 28 20 46
50 56 87 38 31
32 77 76 62 90
43 97 23 73 56
28 89 100 44 73
96 47 44 91 86
10 46 34 21 74
59 22 61 67 24
55 49 98 20 46
31 90 63 40 24
90 96 44 48 54
45 63 48 61 57
25 60 75 52 63
43 76 32 41 91
24 54 54 19 59
23 45 60 90 84
87 81 27 41 23
86 86 85 24 84
40 21 70 33 39
74 39 39 18 40
67 74 37 12 71
80 95 64 77 86
20 57 65 85 51
98 59 96 98 28
89 40 24 45 87
41 97 51 69 46
25 68 98 21 96
0.414702
1.29089
1.86044
0.914634
0.898689
0.621962
1.70407
0.493431
1.90696
1.58141
1.09611
0.725092
1.96173
1.61724
1.93816
1.53651
1.80665
1.69022
1.68728
0.480087
0.408639
0.549251
1.97941
1.08248
1.17888
1.31849
1.369
0.411842
1.55145
0.795399
1.82836
1.78293
0.558299
0.578246
1.07224
1.05036
1.37371
1.01395
1.84284
1.10559
1.01226
1.41932
1.02006
1.31195
1.87009
0.856321
1.06291
1.11214
0.985359
1.20591
438 83
126 148
349 105
413 196
44 164
491 19
346 32
224 370
282 138
491 40
65 41
22 305
290 129
281 130
43 426
121 238
259 192
327 378
248 370
163 326
81 318
246 46
68 121
468 89
12 365
487 324
396 491
6 238
237 209
135 89
443 338
45 373
391 371
5 433
245 333
272 148
246 465
468 284
90 196
85 266
188 4
404 30
92 243
465 76
490 196
403 350
99 30
234 90
462 272
135 424
2809
5
