50
7
0 0 0 0 0 0 0
62 20 11 57 76 32 97
80 64 64 24 89 54 70
41 65 14 52 38 69 26
81 45 67 73 71 66 87
38 80 89 79 35 99 30
65 79 87 32 50 62 54
23 96 41 58 41 57 100
100 86 93 77 35 57 56
11 76 99 38 93 12 98
18 53 30 14 38 39 73
97 73 83 44 25 10 79
29 58 83 10 38 63 17
13 78 31 21 88 27 97
19 53 13 87 78 54 36
41 22 97 77 84 42 39
73 20 77 25 61 78 11
70 73 75 63 59 30 30
83 53 25 21 73 11 57
88 16 70 100 47 91 16
41 77 95 13 81 28 48
39 20 24 43 40 48 90
49 36 23 88 18 19 83
75 24 50 23 97 90 18
13 65 92 72 34 12 33
17 75 60 46 50 59 16
23 40 74 14 91 24 80
29 50 52 32 76 45 62
57 87 77 92 51 85 28
53 61 49 16 31 12 43
21 14 77 70 98 66 90
81 13 64 72 62 71 37
85 30 33 55 80 72 89
74 98 72 68 93 69 29
98 62 92 41 15 10 94
42 33 58 70 79 28 26
60 77 40 21 17 69 69
40 37 13 49 28 57 22
75 40 44 55 33 43 30
21 59 62 80 68 100 83
21 60 23 51 35 89 17
86 68 95 34 76 63 15
23 10 68 40 54 64 30
26 85 90 16 64 23 66
46 41 64 48 80 31 21
44 33 55 70 21 50 93
90 12 55 82 46 21 92
10 63 97 41 63 93 56
17 18 21 15 33 66 85
66 94 62 33 35 71 99
1.64093
1.3705
1.57213
1.66177
1.16323
1.57068
0.902928
1.77528
0.523789
0.903161
1.23709
0.883142
0.440039
0.680688
0.614166
0.589175
0.897798
1.47462
1.00036
1.73119
0.551337
1.59765
1.04451
0.821179
1.9097
1.33552
1.6597
1.36144
0.805588
1.93869
1.67612
0.707033
0.537465
1.62437
1.83702
0.940578
0.77587
1.69834
1.43948
1.42324
1.68925
1.29551
1.84325
1.05687
1.58284
1.40073
0.980315
0.655359
0.418304
0.991695
104 453
408 17
417 199
341 227
23 208
83 165
145 446
266 171
371 70
364 77
70 442
179 237
185 234
115 315
181 50
270 246
113 290
236 435
407 427
336 94
41 0
153 188
119 258
32 188
222 499
75 130
167 99
451 209
436 14
445 392
107 286
180 152
439 119
216 80
165 473
73 492
125 431
99 3
87 169
208 500
157 259
17 34
97 258
352 5
294 413
194 370
178 125
110 352
486 135
285 93
13135
1
