50
5
0 0 0 0 0
57 23 66 75 28
48 71 20 85 32
100 96 24 48 98
34 93 56 34 97
93 81 80 87 73
100 22 78 68 71
85 74 28 98 38
96 90 39 36 49
61 20 76 14 10
61 52 40 95 28
88 62 87 71 72
26 44 94 65 43
15 75 84 95 34
15 41 38 84 80
46 49 96 51 88
76 75 36 33 14
97 63 20 23 29
97 72 43 67 24
83 37 45 88 82
63 94 96 15 30
99 86 94 96 46
24 86 19 72 62
50 93 79 44 81
16 72 96 46 37
82 94 93 81 70
10 72 64 43 69
42 46 18 56 88
27 76 71 86 100
99 95 48 24 59
98 42 84 51 36
86 81 72 45 39
31 20 32 12 89
59 51 49 23 67
14 66 94 41 73
26 34 75 56 19
95 25 36 94 95
35 99 93 15 10
61 51 39 59 30
66 36 81 10 22
67 47 57 65 14
19 82 94 96 81
42 15 96 44 34
57 69 38 69 21
37 35 21 39 50
82 27 35 52 80
56 18 85 85 66
71 22 65 82 61
25 96 93 16 82
93 79 65 21 30
1.79612
1.27293
0.571335
0.598013
1.28229
1.80742
1.28368
0.66799
1.99841
0.802686
0.440956
1.88209
0.85251
0.991658
0.725145
0.480718
1.29632
0.704721
1.37809
0.712447
1.77602
1.62536
0.96562
1.15214
1.58023
1.03669
1.54759
1.00833
1.83611
1.86923
1.3154
1.08338
1.04904
0.623275
0.940034
1.35681
0.943249
0.767155
0.920499
0.831291
1.24082
1.34985
1.17568
0.420721
0.813089
1.01322
1.84593
1.08055
1.81808
0.521648
184 6
108 159
192 402
407 110
232 404
307 246
286 183
155 189
120 289
288 362
260 36
233 33
330 336
145 4
451 168
13 317
459 195
81 464
286 182
316 329
227 385
100 472
481 337
140 422
62 333
247 487
406 237
125 381
431 31
186 108
465 56
179 342
128 67
365 42
496 119
232 475
441 270
208 292
222 114
142 80
9 225
290 487
475 57
92 322
418 472
366 84
444 406
79 359
297 351
420 376
14275
1
