50
9
0 0 0 0 0 0 0 0 0
82 48 29 55 93 51 39 69 43
16 67 40 99 73 94 80 56 38
53 94 82 94 30 88 30 33 58
55 55 26 54 71 58 43 99 61
66 23 72 67 76 21 45 39 55
95 100 56 44 12 16 37 80 71
93 74 97 14 98 58 19 42 54
92 42 47 92 58 52 58 19 24
63 74 14 59 95 16 64 51 53
68 49 98 82 94 64 11 26 61
45 23 91 88 95 19 34 68 74
30 71 41 75 15 44 27 89 20
80 11 93 41 92 79 17 40 42
63 86 36 89 13 13 64 47 72
83 76 58 36 32 36 52 72 96
78 66 29 16 35 90 55 33 64
99 92 81 53 79 61 40 74 100
75 81 83 68 74 92 62 38 57
78 16 75 30 54 61 34 68 30
34 81 65 87 72 57 40 41 71
66 68 43 56 55 79 38 82 86
69 85 70 100 89 18 24 12 29
73 71 65 87 68 87 82 71 44
33 83 15 13 29 85 70 56 73
10 48 16 40 23 67 20 61 28
89 87 54 98 19 26 97 21 13
67 47 15 50 21 32 65 27 46
25 94 72 64 62 51 18 50 35
32 27 53 76 65 42 56 35 61
54 12 58 54 85 29 10 70 36
18 98 86 48 91 75 15 56 72
92 34 61 57 78 42 41 84 65
13 54 73 30 40 89 19 77 91
54 64 28 75 19 99 19 62 25
83 45 80 10 43 100 88 36 90
65 24 70 65 43 100 49 99 69
97 41 85 72 32 10 51 89 30
46 99 57 55 48 44 12 23 21
70 39 15 45 28 47 64 75 91
33 37 18 14 94 85 70 26 77
30 42 59 38 10 58 15 68 59
35 92 38 94 92 99 88 51 11
38 62 42 72 31 35 49 54 68
20 67 67 61 79 94 24 90 60
86 31 33 21 80 60 71 30 36
100 99 41 82 47 88 21 25 86
39 51 64 73 86 56 20 18 60
44 13 74 86 40 18 82 66 58
97 44 28 92 28 75 56 13 28
0.226867
0.985325
0.246074
0.738812
0.720486
0.671841
0.901941
0.412831
0.523839
0.936207
0.218076
0.926984
0.578883
0.471148
0.281021
0.373343
0.725349
0.556029
0.855776
0.554499
0.724755
0.916963
0.232169
0.770264
0.620282
0.997817
0.212049
0.635537
0.810935
0.437201
0.582172
0.616088
0.939592
0.77894
0.984722
0.337928
0.643259
0.475985
0.201135
0.487981
0.544021
0.533677
0.962289
0.492609
0.814939
0.479894
0.633034
0.812825
0.449895
0.566055
483 63
215 191
433 173
375 79
359 444
60 165
436 469
129 226
315 383
281 378
397 23
448 475
177 93
490 228
223 445
344 38
97 271
1 11
168 423
419 179
146 466
144 10
47 351
123 54
439 149
458 362
428 100
235 246
260 443
371 41
0 151
299 395
339 179
250 488
247 313
483 167
381 321
81 258
427 297
260 109
253 421
349 337
18 302
364 47
393 450
113 437
19 127
74 404
398 320
213 98
13670
1
