50
7
0 0 0 0 0 0 0
88 27 82 21 81 73 37
52 64 66 41 38 35 16
24 38 31 94 100 61 42
81 79 30 41 57 30 49
91 57 42 44 65 97 81
77 52 26 27 17 16 91
44 29 45 40 55 72 46
40 45 97 74 80 48 96
81 39 12 82 94 20 58
80 54 71 60 42 44 42
74 19 65 18 66 62 79
54 53 29 42 97 64 77
86 67 60 84 52 28 95
38 34 87 55 72 13 26
41 77 98 27 17 93 60
22 76 96 80 52 39 40
88 54 42 41 24 13 76
32 10 21 41 21 94 47
56 95 30 11 62 19 19
27 22 48 12 66 10 48
98 32 90 26 13 74 92
81 85 99 29 73 11 71
57 47 38 22 99 69 61
90 44 100 36 27 35 96
14 29 47 40 83 49 26
46 88 70 30 42 53 49
47 69 35 43 56 44 70
58 65 63 48 86 18 58
30 49 91 87 64 41 46
81 53 100 34 85 46 28
40 29 53 30 31 96 21
43 61 37 19 88 82 71
23 48 97 68 94 87 37
26 13 67 58 51 50 41
97 58 93 20 86 96 34
45 100 24 80 61 35 93
30 67 59 81 83 42 49
54 31 69 48 52 96 15
66 29 82 87 39 95 68
37 58 38 22 34 47 21
96 17 87 44 44 44 63
77 43 15 26 85 87 33
39 82 64 65 17 14 23
40 46 78 98 16 10 99
87 10 32 15 48 23 31
53 21 19 87 24 51 58
70 100 39 49 64 19 64
65 60 37 39 17 54 96
20 34 12 12 19 51 41
0.621494
0.459746
0.794814
1.43954
0.785072
0.656502
1.30308
0.783743
1.27011
0.966338
1.18575
1.21879
1.49366
1.41736
0.56832
0.888207
0.402501
1.42325
0.808762
1.29686
1.32358
0.629488
0.320127
0.586198
0.577584
1.10885
0.806546
1.37002
0.654466
0.440505
0.438104
0.988086
0.575138
0.961061
1.33945
1.10274
0.883176
1.2605
0.696732
0.752342
0.301264
0.59041
0.698424
1.27221
1.17544
1.28326
1.05708
0.727298
1.11841
1.28895
46 282
389 48
197 156
462 124
256 428
101 480
475 128
90 224
44 304
240 401
407 262
316 88
471 360
216 244
410 188
204 161
304 446
378 420
149 196
245 145
122 445
411 14
122 1
93 119
321 281
210 200
62 496
76 252
272 295
322 393
118 248
63 422
78 427
462 260
51 85
220 49
474 205
8 18
101 128
270 98
296 372
244 375
415 177
276 418
15 478
182 156
115 83
277 36
183 414
229 376
2600
5
