50
5
0 0 0 0 0
53 53 93 39 95
73 50 51 90 51
74 10 16 74 42
76 92 74 70 99
86 22 94 36 19
44 99 67 53 70
50 43 60 66 47
74 87 93 13 22
56 52 49 95 92
62 41 89 45 20
63 17 37 99 70
55 23 68 12 66
29 24 82 89 56
16 62 34 30 73
77 14 70 64 48
87 33 80 90 33
39 81 63 32 20
41 63 67 62 88
63 95 77 92 31
68 24 32 100 79
36 43 81 79 45
25 82 51 65 65
93 77 33 82 52
65 20 21 54 59
35 62 98 30 77
33 53 23 27 26
74 92 38 14 78
40 43 70 32 38
79 53 71 99 20
54 90 32 72 72
58 96 27 34 40
88 96 85 15 75
19 48 36 66 91
55 83 23 17 56
75 58 27 16 82
90 45 38 22 29
51 95 53 20 68
30 54 23 25 43
57 30 11 39 20
37 12 35 89 68
50 76 31 86 76
48 78 34 22 96
95 20 46 32 79
78 92 94 43 86
28 36 27 100 71
80 47 36 28 83
24 47 52 50 87
79 68 21 52 67
96 82 95 27 95
0.872538
0.718023
0.418235
0.27373
0.203249
0.976947
0.236383
0.772982
0.936357
0.297023
0.228433
0.800782
0.451423
0.867952
0.210293
0.625175
0.700614
0.705956
0.800382
0.880233
0.792227
0.689401
0.299572
0.554829
0.766643
0.416719
0.539692
0.319328
0.727082
0.236887
0.871498
0.297065
0.659904
0.420288
0.902489
0.472688
0.988988
0.64317
0.402118
0.547656
0.882157
0.476808
0.223901
0.203677
0.695904
0.493442
0.32379
0.338749
0.45427
0.502651
37 316
244 18
55 158
95 24
68 135
244 265
19 466
183 62
462 297
306 205
3 394
341 67
359 393
52 489
458 264
441 220
410 43
348 395
431 141
202 117
231 285
149 89
482 236
186 262
279 74
119 168
450 253
103 100
0 161
450 58
343 112
251 129
65 262
151 20
384 171
319 147
60 14
419 66
280 360
17 476
427 379
327 141
122 302
383 31
494 42
286 237
122 85
300 249
490 28
308 380
6890
2
