50
9
0 0 0 0 0 0 0 0 0
90 88 11 76 33 12 47 39 87
24 19 72 48 16 21 39 98 89
66 39 72 70 44 43 92 91 83
30 44 81 83 56 48 64 20 73
20 41 84 28 35 18 37 81 29
23 96 80 11 30 49 81 64 79
35 52 51 75 37 100 57 33 13
71 94 85 52 36 98 18 57 97
69 78 39 81 48 19 53 48 89
71 86 65 42 75 11 76 82 15
74 62 57 100 35 18 99 97 22
70 36 91 76 78 27 81 73 56
12 80 31 82 59 40 60 77 50
91 90 19 17 24 72 21 67 45
36 79 66 62 49 45 99 79 35
12 90 39 92 88 47 38 78 65
84 17 54 79 69 28 45 68 40
24 72 75 93 24 59 66 99 53
53 61 61 82 11 56 100 90 42
13 17 47 94 30 64 76 11 12
83 39 83 51 47 19 38 30 51
73 45 75 98 100 25 67 59 18
71 32 70 66 43 59 18 61 74
34 13 62 93 43 63 56 23 65
62 66 26 85 29 100 97 29 27
12 67 16 89 44 28 74 70 80
69 34 24 68 94 43 88 15 62
16 57 40 29 81 56 16 84 57
93 67 35 79 86 35 57 61 70
95 91 69 53 70 36 59 84 92
32 56 43 26 84 41 56 32 48
20 60 99 65 35 59 74 88 16
96 14 89 30 40 77 82 14 31
20 71 33 93 49 30 27 92 89
16 79 45 30 22 26 51 49 91
19 79 51 55 84 72 40 58 15
33 76 72 81 95 68 52 40 55
26 70 72 91 76 90 75 72 68
87 57 26 79 74 79 15 56 99
33 75 64 21 93 40 68 96 87
58 30 23 84 74 93 39 70 54
19 73 96 13 83 66 77 48 70
59 60 20 80 28 96 60 72 80
88 41 77 31 52 37 70 25 20
98 74 77 64 70 67 89 48 80
65 83 97 19 80 99 71 45 40
24 38 29 31 37 59 71 26 42
28 79 21 100 76 44 70 18 47
93 25 54 80 22 82 96 24 79
2.17747
1.89085
2.20517
2.29129
0.595274
2.32418
1.16271
0.851633
1.23992
1.73647
2.12917
1.40331
1.76983
0.513955
1.54039
2.39968
1.35729
2.42393
1.42042
0.868678
2.27288
1.96529
1.54757
0.544255
0.518453
1.63811
0.578151
1.39191
1.142
1.85591
1.17217
0.561172
1.01921
1.71434
0.635919
1.79969
2.15664
2.31408
1.55767
0.589678
2.24695
1.7244
1.07245
1.68165
0.96683
2.19258
1.66204
1.02748
2.42989
0.753597
27 265
365 28
106 389
190 483
65 217
159 269
85 175
325 95
391 177
402 8
398 386
236 34
300 65
170 209
203 463
196 236
492 451
297 32
233 355
189 230
91 302
53 28
254 163
211 340
12 346
19 323
240 479
380 338
214 355
421 500
332 218
87 48
69 254
49 280
99 266
212 455
397 424
83 240
58 145
322 487
216 344
143 127
34 461
45 242
339 461
217 9
495 321
454 357
7 251
272 4
13970
1
