50
9
0 0 0 0 0 0 0 0 0
96 99 67 10 15 57 17 39 33
56 89 60 65 23 71 86 34 38
85 35 36 49 46 18 44 97 38
84 54 51 64 22 82 18 43 85
26 13 39 95 35 45 24 57 50
42 47 64 51 79 52 57 66 12
69 82 56 78 85 13 43 36 42
49 73 97 35 27 25 24 41 96
87 57 95 80 74 99 92 59 65
14 37 90 43 13 27 77 26 71
12 92 76 93 76 74 31 14 93
92 60 19 86 14 80 95 21 22
11 36 85 24 12 58 32 47 71
91 87 62 15 54 74 44 57 85
61 76 61 66 86 91 90 65 31
33 92 21 66 55 27 46 99 11
52 36 57 72 100 95 60 92 77
32 88 45 27 63 13 99 82 100
90 52 25 14 49 67 68 70 79
94 66 67 71 48 93 16 80 76
49 70 93 28 84 80 74 22 65
55 93 92 84 71 15 61 60 86
31 33 67 50 47 34 94 80 53
38 51 75 87 44 91 47 96 49
97 71 61 95 39 100 92 87 60
38 27 95 50 30 57 22 25 36
79 46 87 29 24 98 23 22 76
70 90 47 41 93 94 87 48 47
90 77 21 68 78 51 78 90 15
75 94 66 48 68 52 60 95 75
93 99 33 23 15 62 70 34 74
11 24 99 31 42 24 59 41 63
62 50 36 24 54 96 97 54 95
17 45 46 91 29 51 98 51 43
60 89 58 62 80 31 31 75 96
82 98 20 17 71 83 98 78 59
56 71 27 36 28 17 52 72 57
98 17 86 54 73 100 85 57 46
65 60 21 50 55 38 50 20 68
51 90 36 39 56 75 45 90 84
84 12 13 35 73 90 79 49 37
14 65 41 66 48 71 29 81 66
64 37 16 17 18 15 75 97 74
67 36 63 39 56 40 20 99 70
21 90 84 30 14 27 90 52 87
40 100 73 68 26 93 35 76 16
75 39 79 43 12 14 32 49 72
15 76 48 83 24 90 41 13 73
66 14 39 26 16 80 57 84 52
0.367168
0.135221
0.171349
0.404258
0.351765
0.126349
0.339259
0.446723
0.362304
0.185914
0.345867
0.373469
0.350652
0.457292
0.217745
0.160564
0.497635
0.310669
0.229165
0.260133
0.21328
0.151457
0.472942
0.481516
0.186084
0.42323
0.256476
0.476257
0.337269
0.273182
0.256496
0.22752
0.162435
0.154034
0.11729
0.275636
0.493908
0.326963
0.156347
0.111678
0.350069
0.330274
0.241341
0.113544
0.197495
0.402413
0.46509
0.452868
0.239608
0.210804
455 449
169 495
366 458
29 329
30 5
101 129
471 268
220 402
500 172
203 106
67 34
498 49
238 11
379 477
298 132
62 115
306 171
23 336
2 61
109 36
293 117
237 342
45 79
368 160
301 341
76 70
450 105
412 401
278 226
79 165
256 86
107 233
53 429
190 399
64 126
63 287
423 342
119 5
86 337
166 427
50 449
297 30
319 106
83 499
62 306
270 494
408 45
393 143
28 403
330 356
2799
5
