50
3
0 0 0
94 65 88
24 24 50
79 100 63
15 40 88
57 22 46
17 68 86
40 15 13
90 94 91
68 34 26
71 13 43
88 74 14
78 94 92
81 98 51
12 53 98
46 51 43
21 84 26
63 50 52
49 21 57
31 60 11
70 92 27
11 61 53
96 85 43
41 50 99
83 17 83
90 11 64
72 46 51
28 50 47
76 49 57
36 57 64
70 62 22
10 99 27
63 93 97
85 95 35
72 45 77
30 80 70
39 79 31
29 45 89
74 64 85
29 22 85
63 79 11
23 65 77
90 30 78
68 44 15
53 88 30
57 72 49
82 88 31
39 26 74
42 17 50
43 88 57
0.324349
0.84647
0.556432
0.580977
0.945816
0.45387
0.255748
0.976854
0.554837
0.856869
0.319504
0.317037
0.515071
0.654875
0.697724
0.781065
0.50514
0.25295
0.293232
0.789149
0.800428
0.650364
0.273593
0.640793
0.626321
0.69772
0.970684
0.329944
0.849303
0.937989
0.755189
0.348841
0.752389
0.936909
0.839101
0.270191
0.743332
0.46157
0.460379
0.797428
0.427511
0.515891
0.949399
0.29862
0.762129
0.357529
0.664674
0.340335
0.904268
0.308373
220 199
74 490
425 119
379 30
342 117
45 55
483 375
290 494
24 456
162 7
380 208
162 180
202 474
332 272
14 453
361 221
292 500
117 372
462 89
223 165
146 355
431 39
426 316
140 194
387 233
177 177
4 49
169 155
219 394
367 33
417 380
406 193
464 348
189 231
305 282
371 411
221 41
401 438
431 254
205 492
31 51
500 2
412 96
225 245
494 480
447 160
34 82
355 101
107 39
332 410
13770
1
