50
3
0 0 0
11 43 29
76 48 18
66 61 26
88 51 75
94 11 50
84 42 72
21 19 85
15 34 43
85 28 76
78 20 91
58 43 10
41 89 10
32 59 24
97 79 82
68 80 82
55 34 100
83 19 97
78 15 77
32 51 18
78 72 53
22 32 25
93 56 42
83 71 29
84 36 47
26 93 43
49 45 93
50 70 60
41 10 82
64 27 96
70 75 73
96 43 17
76 62 80
82 47 93
81 14 13
17 99 83
75 94 13
48 19 70
45 65 62
35 83 38
69 87 21
39 28 41
24 74 45
41 56 21
61 73 88
85 87 27
92 35 74
38 25 69
66 76 82
13 85 16
1.78818
1.15766
0.905022
1.96739
1.48874
1.56846
0.708039
1.1407
1.63361
0.745745
0.545294
1.90454
1.10706
1.58172
0.969539
1.9745
1.83318
1.24827
0.627174
0.942879
0.77606
0.456404
1.30943
0.711812
1.86497
1.50382
1.92338
1.07569
1.0674
1.92877
0.895015
1.35046
1.60081
1.15759
1.64012
0.54661
1.79263
1.90301
0.41618
1.33452
1.4516
0.711049
1.95967
0.699326
0.596335
1.21631
1.46644
1.10973
1.49279
1.43548
388 469
213 286
226 93
355 153
465 277
60 243
489 365
35 313
261 330
416 185
116 466
197 237
203 124
431 111
48 431
190 443
496 253
391 298
419 254
398 102
24 55
295 389
61 418
301 39
443 359
9 168
70 117
175 29
315 72
374 402
277 204
246 287
429 435
213 392
334 25
221 74
416 240
336 164
388 444
351 46
370 55
262 232
147 100
249 387
415 298
306 309
180 389
446 131
70 417
72 411
13550
1
