50
3
0 0 0
36 83 35
43 38 100
35 58 43
57 43 62
35 65 51
86 43 86
56 81 77
51 51 28
100 27 40
75 78 12
27 86 81
81 28 70
16 82 53
66 81 98
11 92 34
75 83 63
34 64 29
20 48 71
28 72 34
92 48 100
22 90 19
86 80 81
55 29 58
19 43 28
60 29 45
91 73 81
22 86 91
50 76 47
93 90 15
17 25 68
38 26 43
72 41 61
99 77 61
12 39 27
73 88 30
31 64 100
99 69 52
26 11 61
39 74 35
68 58 44
12 11 11
37 96 74
93 49 78
11 82 46
74 96 28
57 82 48
74 17 60
67 60 74
28 46 80
1.1287
1.08664
0.342433
0.566126
0.817006
0.328425
0.893179
1.16361
0.95517
1.14982
1.15736
1.02174
0.56112
0.344188
1.33252
0.816912
0.462414
0.438021
1.05623
0.949256
1.23892
0.892317
0.632416
0.879948
1.04561
1.48127
0.434529
1.22685
1.10227
1.07715
1.48392
0.37916
1.13497
0.602671
1.36375
1.15434
0.812511
1.04568
0.923309
0.555936
1.07539
1.19142
0.705961
0.428928
0.701124
0.39331
0.41976
0.934246
1.17269
1.16724
406 203
417 252
8 182
16 279
159 262
385 18
205 467
233 478
473 418
152 157
131 183
76 285
436 96
300 177
319 168
358 52
344 98
440 205
7 303
330 399
60 239
498 83
65 288
191 409
198 86
491 382
23 361
56 165
336 279
153 60
149 255
44 410
499 156
361 274
432 184
450 379
391 299
423 89
298 396
419 221
261 272
472 175
208 373
487 376
478 162
138 249
40 26
114 389
322 344
126 260
13700
1
