50
3
0 0 0
39 95 60
11 50 75
14 52 53
62 27 45
32 39 84
86 11 39
31 19 93
75 99 65
25 59 24
35 50 74
38 16 52
23 80 56
76 89 58
60 28 69
71 48 61
77 24 56
85 10 27
85 36 94
95 47 19
26 81 16
100 65 79
60 88 33
91 82 96
54 10 69
93 52 97
61 71 90
72 30 78
96 42 32
74 64 46
46 21 33
28 66 47
14 58 71
97 86 24
48 12 78
34 43 35
60 96 94
35 77 59
21 78 80
84 38 75
29 97 71
100 19 98
41 91 83
18 67 23
86 42 10
84 61 56
20 28 16
20 70 24
53 13 28
79 21 81
0.462697
0.497699
0.159886
0.22455
0.2662
0.157912
0.44514
0.327902
0.218202
0.234018
0.198178
0.145759
0.114039
0.163116
0.279657
0.123545
0.347056
0.499516
0.29092
0.335391
0.43711
0.179069
0.303607
0.290345
0.455133
0.456026
0.182916
0.108994
0.189454
0.352662
0.455715
0.125219
0.286381
0.193263
0.186809
0.373286
0.467448
0.236667
0.239058
0.395694
0.431158
0.212869
0.498341
0.158641
0.395227
0.256702
0.231809
0.484518
0.487193
0.344515
405 425
443 376
459 321
189 314
283 487
6 333
260 59
475 384
483 490
155 27
92 148
56 426
364 272
218 110
357 103
107 100
60 37
229 327
266 395
77 99
279 284
236 279
133 444
77 499
111 321
44 301
486 32
139 192
365 384
496 474
496 104
29 20
241 122
34 493
28 307
150 398
445 343
276 287
164 313
45 189
175 124
13 221
453 390
137 59
298 190
327 21
230 154
26 67
488 491
5 207
6765
2
