50
11
0 0 0 0 0 0 0 0 0 0 0
95 88 18 72 47 66 30 28 27 27 62
89 100 85 40 88 27 68 36 89 38 56
11 64 32 27 51 88 40 94 74 84 21
69 27 73 19 47 70 40 10 66 38 99
73 56 19 98 91 42 33 68 36 51 84
49 65 13 77 70 93 71 75 62 86 38
86 24 73 50 95 23 74 71 47 15 25
84 50 31 17 66 97 97 96 82 95 42
28 97 21 13 33 28 39 50 44 52 35
34 15 18 83 72 65 10 72 36 91 25
79 38 88 48 65 39 90 43 14 18 24
20 57 80 29 61 25 17 96 13 82 40
18 91 93 76 66 86 88 43 37 92 39
21 36 45 93 51 85 19 79 93 33 37
99 67 95 54 58 84 96 65 38 69 83
30 81 94 56 48 36 13 22 43 80 76
84 80 100 60 36 51 60 46 77 75 80
60 78 86 35 70 19 64 68 57 75 79
53 91 97 73 15 93 80 32 93 51 78
87 44 45 90 52 25 44 100 88 29 65
69 92 74 53 14 74 65 52 32 86 69
66 90 67 70 55 48 32 93 31 45 100
71 52 40 64 57 66 96 71 64 22 73
59 14 100 27 79 62 11 14 54 28 36
85 31 97 29 28 40 17 53 26 51 23
76 87 59 60 51 72 66 52 18 34 52
98 59 27 38 22 78 35 45 81 78 78
61 19 30 11 62 43 37 53 80 96 68
64 13 74 64 61 15 25 27 21 48 48
67 24 68 92 48 47 23 55 94 75 35
51 84 82 44 96 33 13 26 25 77 93
83 92 55 74 53 86 34 62 29 77 46
74 27 97 55 94 51 70 75 33 27 35
27 48 66 48 79 10 99 88 65 64 64
29 17 51 33 88 29 72 29 63 13 30
39 44 74 77 50 36 23 24 24 16 60
38 41 43 62 45 35 42 45 90 28 70
91 80 86 33 97 83 70 97 66 98 26
34 65 44 38 70 28 54 86 90 82 18
77 53 25 22 18 69 58 25 36 38 80
25 94 73 13 99 25 79 37 97 97 26
46 77 84 84 28 21 97 41 41 58 25
33 74 23 92 93 94 88 43 48 19 42
10 56 86 93 37 22 86 38 36 99 40
39 90 61 16 90 55 78 94 67 75 47
40 66 29 73 96 80 74 86 17 29 80
95 15 15 67 96 88 26 27 30 91 69
21 65 94 95 21 100 54 84 96 86 79
34 88 56 72 52 11 23 80 59 33 72
0.602999
0.213292
0.743435
0.258138
0.60439
0.340718
0.748712
0.639997
0.902742
0.863638
0.278235
0.725071
0.775497
0.755668
0.225933
0.345339
0.544569
0.503614
0.334343
0.636081
0.859258
0.604154
0.922229
0.679359
0.659868
0.699504
0.215579
0.98361
0.468801
0.252883
0.410408
0.314732
0.458125
0.992949
0.719936
0.98999
0.69066
0.500982
0.229029
0.893654
0.985098
0.68487
0.245802
0.877934
0.2161
0.913563
0.504885
0.634356
0.855345
0.389627
210 186
200 284
140 154
323 227
216 95
448 446
335 205
1 302
132 467
2 75
75 411
279 334
317 362
466 430
130 257
242 323
66 160
469 302
238 481
265 104
35 409
133 1
290 336
177 289
482 19
46 177
69 240
9 365
248 354
68 496
187 119
53 338
495 175
373 159
325 193
420 117
344 437
136 228
411 254
266 474
491 235
249 200
366 365
235 440
316 260
400 57
404 312
213 56
365 190
499 417
6940
2
