50
7
0 0 0 0 0 0 0
81 46 56 31 49 10 54
35 36 18 98 51 92 47
88 29 80 97 93 81 26
85 19 49 75 57 76 98
86 79 85 72 54 91 64
16 20 74 31 69 60 75
90 42 99 52 52 92 23
65 74 40 61 89 62 53
32 73 10 14 49 70 66
15 52 58 82 41 55 94
33 13 60 94 53 18 13
81 23 37 56 56 61 48
96 58 96 53 55 15 61
69 85 48 39 91 90 98
46 97 36 60 36 35 10
22 31 16 59 95 44 26
83 86 79 37 75 46 92
37 52 81 71 33 82 13
41 43 29 45 93 69 22
72 84 97 22 65 97 17
74 51 83 65 71 25 40
86 95 45 39 78 42 36
45 61 83 14 21 23 32
97 10 80 29 68 61 86
33 36 74 35 73 20 11
38 27 33 55 58 25 28
53 61 43 47 42 24 92
56 62 36 51 88 47 92
97 98 41 99 53 44 83
83 85 74 29 31 45 70
75 45 35 69 75 89 20
69 71 57 95 95 38 66
42 65 67 35 45 97 32
46 73 60 82 87 35 93
53 37 44 40 66 44 32
50 37 65 89 12 41 37
42 89 44 95 14 85 55
53 14 37 64 78 72 67
12 23 18 82 32 70 71
90 68 31 72 100 16 45
73 13 52 33 67 86 83
41 98 27 27 24 58 37
81 10 44 44 43 74 43
43 69 89 82 72 10 97
45 64 95 72 98 92 91
79 56 13 67 94 12 33
11 56 48 29 37 18 24
58 57 20 12 47 44 52
12 11 12 53 50 100 61
0.932623
0.593753
0.938155
0.609435
0.918948
0.958254
0.454964
0.917913
0.757761
0.825443
0.406041
0.351516
0.243815
0.381605
0.710944
0.485498
0.419562
0.674548
0.892134
0.538593
0.99334
0.396221
0.705952
0.376185
0.957138
0.777559
0.581235
0.384044
0.566009
0.729455
0.71458
0.635063
0.281775
0.564853
0.234013
0.605064
0.401743
0.689785
0.878502
0.88984
0.83524
0.488067
0.234898
0.84947
0.617723
0.246626
0.983831
0.444637
0.234642
0.981001
170 309
266 70
354 341
494 50
257 192
209 70
57 0
126 136
440 225
454 132
18 111
380 393
468 184
76 243
224 55
478 475
345 44
94 390
381 202
297 367
334 354
371 496
91 85
123 225
192 143
54 55
58 308
180 208
2 207
23 431
461 201
42 271
70 273
174 258
244 491
215 377
305 22
5 53
438 28
395 156
395 205
422 86
65 138
308 458
224 482
490 286
485 121
286 250
70 162
167 57
6790
2
