50
11
0 0 0 0 0 0 0 0 0 0 0
75 79 26 89 45 92 86 79 88 32 93
83 64 81 42 94 18 25 22 99 77 83
54 38 87 72 25 77 21 16 22 10 51
89 14 40 65 87 84 44 83 19 77 13
20 89 86 93 25 16 48 67 27 96 51
34 31 50 22 71 82 78 70 51 29 95
27 99 50 47 41 63 13 30 11 55 43
82 24 29 35 40 10 19 10 44 45 73
38 79 62 11 49 84 52 50 68 34 26
30 23 77 63 82 26 43 43 91 99 41
43 16 63 66 64 79 81 51 91 19 84
63 82 47 37 97 81 82 21 19 61 34
79 38 85 36 89 61 17 22 69 49 33
31 100 36 23 76 43 16 72 26 62 81
92 75 11 57 76 61 43 79 89 73 58
95 51 93 46 66 71 78 28 59 42 78
45 87 81 29 37 30 94 62 93 89 45
50 74 22 48 40 51 68 17 60 17 28
34 84 57 36 62 31 24 72 51 34 66
93 93 89 97 15 79 82 53 78 33 92
84 74 71 91 59 50 26 33 71 54 10
59 96 25 43 64 53 58 44 19 16 53
48 49 20 16 23 56 89 18 35 70 73
83 15 80 24 64 61 72 89 64 63 41
47 27 10 52 67 60 56 19 18 18 82
29 21 10 82 20 89 64 69 40 68 91
15 19 60 85 91 72 58 94 36 56 21
64 31 37 66 79 94 71 89 36 91 29
76 56 66 31 47 40 45 37 95 35 70
18 11 35 14 65 87 38 66 93 67 20
78 84 94 44 24 44 40 35 35 99 97
76 77 39 66 89 58 11 65 28 97 88
42 86 38 42 94 14 72 18 66 66 99
40 67 30 31 84 55 37 79 16 20 87
43 28 28 30 64 87 33 87 28 20 99
72 79 53 39 74 45 36 10 51 86 83
66 73 30 27 76 22 23 66 46 95 10
21 85 55 67 67 40 52 26 29 35 38
11 85 95 62 49 30 25 20 29 71 93
38 27 34 93 35 77 90 84 34 12 62
68 73 99 49 37 24 49 17 51 16 13
45 40 86 15 30 27 46 37 43 83 91
70 70 83 86 51 69 45 49 33 79 15
46 63 18 38 25 71 98 12 34 54 80
95 70 12 30 66 34 27 69 87 81 25
38 56 74 51 81 55 13 95 80 23 34
30 23 15 13 81 42 60 32 45 37 72
23 53 18 60 13 34 56 57 76 69 95
23 42 62 50 24 78 38 61 56 37 49
1.1202
1.5913
1.28197
1.81527
1.72597
0.968159
0.47553
1.38367
0.720908
1.56956
0.934257
1.65248
0.839302
0.840032
1.2441
0.866558
0.71452
0.908528
0.451181
1.22974
1.62741
0.935836
0.977675
0.850281
1.65213
0.627976
1.49223
0.996254
0.579997
1.59905
1.93261
0.591149
0.420355
0.999015
1.76605
1.07223
1.34847
1.56116
0.847202
0.542933
0.611536
0.406212
1.31219
1.38713
1.3642
1.09827
1.48378
1.53797
1.58862
1.67829
307 256
171 465
91 221
473 184
142 328
237 71
331 419
464 205
23 136
449 151
85 376
193 419
374 417
203 222
499 80
291 14
172 382
447 237
400 342
52 99
432 37
325 113
14 252
237 351
161 338
175 197
438 66
31 85
64 239
115 341
88 294
375 409
177 428
243 320
93 377
431 268
361 286
442 414
159 60
98 379
270 152
495 457
446 347
91 120
406 316
34 155
83 326
137 143
100 194
477 453
13110
1
