50
11
0 0 0 0 0 0 0 0 0 0 0
34 21 50 45 37 70 65 59 12 53 55
52 25 44 22 57 32 64 92 36 29 40
66 54 65 92 41 89 23 19 59 61 11
94 96 81 72 94 49 49 84 11 81 56
40 28 87 29 54 21 23 27 78 15 46
42 65 30 39 20 72 16 31 48 16 27
85 60 100 66 77 67 23 39 61 43 82
85 45 47 30 13 28 72 17 44 58 87
76 61 26 34 34 95 98 10 98 65 83
77 65 40 90 75 24 17 54 88 97 17
16 47 64 88 17 58 61 54 44 29 62
28 32 23 71 42 51 80 16 100 92 50
77 17 80 68 34 20 90 14 14 58 97
43 51 15 32 71 25 33 84 20 25 13
22 56 72 15 54 60 49 75 35 91 49
71 50 22 55 24 60 92 59 89 32 43
22 99 95 68 76 81 22 65 74 82 36
34 72 57 28 69 54 61 14 70 90 80
15 41 43 14 48 73 96 56 44 54 98
22 63 19 68 18 97 50 84 63 27 99
68 41 84 46 61 45 26 38 35 30 14
61 46 43 23 32 34 13 30 36 51 43
64 32 55 26 43 82 57 52 85 59 66
77 61 74 34 20 85 57 88 44 100 91
35 31 32 13 70 82 66 84 52 23 31
16 39 87 70 76 75 28 80 93 38 15
62 24 18 21 49 12 47 58 55 87 74
16 94 97 80 88 97 73 54 12 44 36
56 31 13 90 72 65 91 20 79 31 72
49 75 87 84 38 17 10 44 31 69 98
84 58 14 93 76 25 79 85 99 67 67
46 35 69 93 43 82 30 50 31 72 40
14 73 56 77 43 87 93 53 76 16 84
30 73 45 54 78 43 55 57 76 33 29
55 73 18 84 75 15 89 15 18 82 77
77 31 68 86 22 89 27 42 91 22 80
51 81 85 13 98 17 93 25 62 16 21
100 60 53 75 72 83 98 59 29 67 73
38 74 35 20 17 29 48 90 50 100 66
33 44 22 77 65 74 67 15 83 63 43
84 46 57 32 90 84 97 70 12 39 62
34 20 20 64 91 16 42 31 57 62 19
90 94 86 55 15 68 67 12 16 77 24
37 85 87 36 24 56 75 66 50 54 94
84 19 75 30 28 62 82 35 43 49 25
18 43 18 45 29 100 46 90 83 19 99
34 42 83 19 86 28 34 83 67 68 55
10 85 98 25 72 83 11 96 55 12 23
45 65 39 21 94 17 43 74 74 43 72
1.43236
1.16701
1.82727
1.60657
0.466839
1.02256
0.569439
0.410465
0.501071
0.868474
0.687084
0.40785
0.510487
1.00974
1.95192
1.53502
1.35617
1.48385
0.918683
1.5883
1.37701
0.520585
1.45071
1.20018
1.60252
0.927111
1.56331
1.35824
0.479287
1.36351
1.77199
0.811534
0.854744
1.60392
1.40765
1.39915
1.86886
1.7169
1.16706
0.425273
1.66719
0.870501
1.31735
1.7759
1.61808
1.94671
0.661475
1.9302
0.482633
0.752202
257 275
213 147
10 30
424 224
489 207
364 492
275 60
36 184
387 69
212 232
161 371
241 278
235 99
197 69
278 117
260 185
344 480
137 152
108 168
302 325
240 407
268 480
161 5
51 252
297 472
232 490
13 267
19 222
125 67
398 298
49 139
436 140
310 301
144 114
280 191
29 143
115 47
437 134
416 32
461 459
73 479
402 227
211 493
461 406
25 137
364 108
454 295
17 115
286 60
23 486
6580
2
