50
9
0 0 0 0 0 0 0 0 0
14 55 65 44 62 98 96 18 50
54 84 28 92 72 52 48 10 41
57 35 87 88 10 63 52 20 71
43 67 62 45 31 33 22 94 31
61 33 62 22 73 63 30 12 65
61 36 57 75 46 93 48 77 88
32 43 22 89 84 85 65 35 32
62 20 16 69 83 96 90 95 28
41 85 30 50 66 23 70 16 84
69 97 63 40 83 97 76 21 29
70 21 65 64 27 56 82 90 32
95 19 74 72 36 63 78 72 30
46 13 99 100 49 78 20 56 66
35 96 21 90 35 34 72 15 64
50 36 23 56 88 70 85 72 13
97 75 10 34 52 15 16 10 89
62 80 66 68 51 26 43 49 65
75 10 37 57 78 39 43 30 20
28 81 63 99 52 44 59 37 77
57 39 81 76 55 57 77 43 88
100 48 92 44 94 17 68 27 63
98 63 74 69 48 14 47 91 19
60 97 46 51 58 29 84 17 87
56 37 82 58 43 89 92 29 67
84 97 70 30 52 100 48 48 12
39 73 77 33 69 75 17 61 21
63 98 13 86 38 84 27 18 94
86 94 94 65 28 81 84 84 92
16 39 28 59 58 72 56 53 55
34 33 14 10 36 13 92 60 97
13 91 73 87 85 92 13 37 60
14 60 51 24 74 42 22 32 43
35 59 32 95 61 55 74 99 86
80 61 60 13 51 28 24 14 85
88 94 32 54 76 16 63 95 11
48 64 18 69 42 29 46 21 85
98 47 69 55 43 98 37 74 70
64 66 72 60 54 55 48 95 71
21 96 77 56 100 100 55 27 31
43 92 90 71 73 11 87 90 91
66 18 17 39 65 97 97 100 27
98 39 18 17 36 87 86 62 21
96 61 15 34 43 87 95 84 57
13 44 26 74 53 88 76 62 23
95 53 81 38 38 28 63 100 55
43 14 21 84 56 81 63 63 93
24 96 98 69 95 37 69 41 63
69 32 70 13 42 60 18 68 17
96 51 45 26 28 73 84 45 64
0.538426
0.331326
1.12583
1.39843
1.33982
1.38096
0.508888
0.802381
0.310137
0.302565
1.30686
0.766827
0.931973
0.383815
0.310398
0.808198
1.36329
0.39889
1.20944
1.40346
1.41165
1.20516
1.1296
0.68264
0.945167
0.531752
1.39345
1.24506
0.703078
1.12347
1.12555
0.939113
1.168
1.46759
0.710561
0.415699
0.646742
1.22394
0.687372
0.626699
0.995192
1.1071
1.09263
0.373467
1.03203
0.594783
1.12809
1.12343
0.303429
0.701561
244 259
196 228
497 397
3 95
168 243
100 278
11 321
47 487
270 152
389 286
493 163
246 285
438 499
176 266
165 134
202 298
41 219
375 6
427 486
114 457
77 201
101 136
315 374
481 268
391 101
20 191
78 416
49 115
65 272
65 33
185 198
259 272
22 162
107 341
88 199
9 205
475 334
16 65
194 490
316 129
439 443
172 417
330 54
11 469
493 264
341 400
139 74
171 283
49 190
189 377
4626.67
3
