50
5
0 0 0 0 0
14 67 73 87 16
92 92 69 99 96
69 67 99 50 21
13 69 26 74 35
24 53 97 100 24
88 25 70 12 97
83 41 11 23 72
19 11 67 59 90
90 85 61 78 18
65 85 34 94 56
13 13 83 98 32
95 24 72 51 67
28 15 35 85 43
20 41 34 80 28
54 68 74 80 21
14 26 50 36 57
10 23 63 93 88
71 29 99 93 58
69 24 83 98 95
33 23 95 90 53
43 83 47 58 28
38 53 28 59 12
69 54 83 33 91
81 46 63 43 87
75 46 19 29 31
44 26 24 80 38
80 95 57 65 54
87 42 54 41 96
15 86 40 99 12
27 63 28 74 92
41 82 80 82 71
55 18 77 34 57
17 96 49 46 46
38 85 13 31 24
93 74 49 34 25
85 91 79 75 62
18 10 36 93 73
96 22 74 46 81
31 29 46 28 92
97 56 42 82 60
36 48 91 14 43
84 13 81 52 46
63 76 66 75 92
89 31 77 72 25
54 46 44 77 79
12 94 63 48 12
72 60 12 59 83
40 56 39 94 80
27 40 25 51 97
1.29565
2.01329
0.875427
1.93921
1.49459
1.78099
2.23677
1.84143
1.82249
2.38056
0.917399
2.24283
0.719354
1.59007
0.654905
2.13916
0.754014
1.46859
2.38039
1.68919
2.26595
2.291
0.844535
1.60873
1.71705
0.999534
2.02654
0.519603
1.03675
0.722644
1.87533
1.72549
0.652393
0.513864
2.10344
2.10609
0.893453
0.555608
1.21241
2.03328
0.74734
1.10737
1.67534
1.12463
2.14574
1.9205
1.26322
1.77587
2.0753
1.90797
395 376
328 26
252 424
331 122
12 456
67 140
54 131
247 325
289 160
330 374
151 449
94 482
158 167
129 239
317 88
99 415
224 28
493 487
462 484
210 97
249 305
351 257
68 216
410 417
385 211
234 273
190 358
444 114
323 439
436 265
65 129
255 83
99 64
28 277
442 48
402 128
203 265
262 441
227 123
197 373
331 241
131 354
173 479
26 434
214 64
118 72
290 403
302 253
283 112
422 79
13760
1
