50
11
0 0 0 0 0 0 0 0 0 0 0
93 94 69 10 70 23 91 90 35 73 59
74 56 58 13 33 90 38 59 21 83 68
33 14 91 34 87 35 43 54 13 15 61
10 70 60 84 68 57 17 72 69 15 17
30 66 27 76 36 95 19 68 95 63 31
42 51 73 82 68 99 34 98 98 93 23
41 44 56 18 81 48 47 38 14 69 88
57 33 38 51 16 76 51 69 21 22 91
88 93 61 97 20 62 10 34 65 12 31
62 99 79 75 94 55 44 17 80 69 62
71 31 37 28 55 83 19 64 93 16 55
29 63 45 40 36 72 56 81 68 73 36
66 38 25 82 62 48 79 41 13 31 45
97 71 27 21 28 13 58 26 66 43 66
96 43 33 84 47 24 96 63 65 80 43
67 71 64 25 66 69 48 42 41 47 62
42 67 22 86 55 38 75 19 72 93 95
58 89 56 55 28 47 13 28 19 71 14
21 100 14 51 36 88 100 30 91 73 62
68 70 89 69 61 28 30 66 25 58 37
14 47 53 74 57 26 41 65 57 84 73
10 41 81 98 55 55 85 21 71 80 81
39 48 66 46 67 85 73 37 42 48 20
48 50 79 97 17 66 46 13 64 34 82
13 66 48 33 20 11 11 88 42 12 31
52 95 11 90 36 84 68 37 97 98 91
37 31 69 80 58 15 11 39 80 69 45
25 15 34 82 90 13 69 16 87 89 32
76 75 48 15 43 41 80 99 64 66 80
97 62 19 63 47 25 49 15 96 18 12
28 11 37 24 85 89 46 70 13 80 84
24 39 37 15 71 70 89 52 46 36 31
89 43 52 78 65 51 89 49 60 95 27
47 40 38 16 30 94 58 93 75 86 58
83 51 92 70 88 86 69 37 13 26 41
35 32 10 79 16 70 76 21 87 75 17
61 42 25 25 30 17 81 61 11 66 91
10 31 43 45 56 36 51 68 29 73 32
65 35 65 98 51 72 68 51 74 30 41
10 98 83 25 78 84 92 19 40 49 28
78 10 21 56 98 90 48 49 63 88 73
37 95 29 31 27 89 42 91 56 68 99
12 73 93 39 63 38 16 88 50 73 93
35 57 66 100 64 18 56 77 17 59 71
61 54 100 89 44 48 85 63 45 29 99
98 96 10 95 65 73 36 38 15 22 51
31 27 63 95 82 32 88 46 22 67 67
85 71 25 59 83 16 43 72 92 78 82
38 10 74 22 64 74 34 53 18 43 66
0.198037
0.1551
0.238507
0.270783
0.481927
0.420048
0.199991
0.433339
0.460856
0.345239
0.458566
0.440867
0.299998
0.286505
0.443518
0.173503
0.466319
0.217528
0.122969
0.297493
0.414954
0.473194
0.116449
0.104691
0.343737
0.274606
0.36423
0.263353
0.224272
0.41269
0.260913
0.185448
0.322402
0.460157
0.479477
0.102787
0.126635
0.265331
0.27946
0.360618
0.375546
0.221438
0.28681
0.37157
0.126647
0.480802
0.336087
0.288295
0.25965
0.328618
288 243
399 245
6 92
219 194
255 24
476 185
246 158
111 466
142 465
302 312
165 460
161 181
123 235
458 495
23 345
98 433
365 108
149 487
22 154
465 404
240 293
493 369
49 495
420 436
130 40
419 345
224 82
260 151
409 160
7 446
236 383
48 94
49 120
344 367
463 69
387 51
225 192
105 73
55 370
280 265
133 360
104 143
202 369
426 357
208 96
42 212
441 226
47 318
466 352
170 422
4446.67
3
