50
5
0 0 0 0 0
55 23 30 48 74
57 18 51 97 26
50 43 96 90 37
69 12 81 10 37
19 71 60 69 99
97 65 35 16 85
92 13 27 41 82
23 34 33 100 93
50 48 85 70 46
88 74 91 93 84
13 58 38 36 100
53 25 96 89 65
69 43 81 16 33
18 28 56 51 25
52 30 64 97 63
41 57 62 78 37
27 53 16 36 26
27 22 12 76 15
15 72 51 95 73
90 76 87 50 86
39 63 99 65 67
54 97 63 68 68
83 74 49 64 52
51 31 63 15 24
31 18 81 14 32
57 88 23 42 54
74 99 62 78 66
97 87 89 18 76
36 26 15 65 11
34 24 12 88 29
78 49 67 36 36
99 36 53 46 11
51 54 29 46 47
81 37 64 85 11
27 26 59 63 47
85 73 42 17 90
100 96 54 80 30
65 28 63 71 56
25 33 17 42 17
31 22 20 31 35
44 73 85 59 35
18 64 87 56 10
27 10 47 63 17
15 69 73 17 39
64 12 60 51 81
17 44 13 59 15
59 89 95 93 17
93 22 17 41 79
41 79 88 63 30
0.884601
1.96705
0.51869
0.859015
0.992073
0.650824
1.61997
1.1597
0.519032
1.47283
0.447464
1.88641
1.78097
1.5097
1.57895
0.466748
1.22778
0.995872
1.71996
1.11065
0.729334
1.06716
0.79188
1.22512
1.94888
1.55947
0.481236
0.715103
1.97378
1.98904
1.39289
1.95648
0.616145
0.595497
1.95621
1.15971
0.989868
1.05791
0.552013
1.38187
1.1228
1.79654
1.39757
1.26403
0.432273
0.643834
0.565041
1.76797
1.01779
1.32568
238 65
397 182
385 462
327 178
360 53
377 428
398 264
232 448
137 351
135 393
431 454
402 281
53 388
467 238
358 450
352 493
347 336
169 201
154 250
143 220
389 467
189 99
199 248
199 201
201 257
141 100
449 328
230 413
239 63
55 128
325 431
299 107
351 21
158 390
382 365
441 480
350 60
34 462
347 334
403 256
361 245
280 305
147 214
330 347
305 88
206 432
373 496
151 117
19 308
58 319
12870
1
