50
3
0 0 0
28 94 97
83 27 35
87 53 27
77 15 26
43 29 74
81 33 58
45 10 88
78 79 52
23 24 31
97 32 71
49 25 12
67 89 72
63 40 75
57 41 52
87 18 91
68 25 15
55 61 20
27 11 29
56 29 29
36 72 83
89 65 15
30 42 57
56 82 19
69 45 76
21 54 100
26 42 26
89 50 61
66 37 63
76 68 58
80 62 70
70 42 32
62 27 94
52 58 85
38 86 99
17 67 29
23 54 35
34 94 100
28 35 22
87 18 86
35 68 47
58 81 21
15 51 49
50 38 73
40 64 26
84 82 54
72 32 52
62 25 22
97 46 69
32 95 47
0.295492
0.342807
0.89978
0.298776
0.973875
0.845011
0.214125
0.611293
0.947866
0.685737
0.343749
0.282854
0.682949
0.23641
0.38451
0.316437
0.3725
0.453977
0.483682
0.968302
0.781055
0.817621
0.513099
0.325509
0.433074
0.385664
0.388198
0.464178
0.698734
0.980718
0.234309
0.679029
0.329097
0.635316
0.282879
0.218052
0.594555
0.297093
0.68294
0.559145
0.962594
0.367303
0.274606
0.400125
0.674496
0.6346
0.455023
0.844665
0.229683
0.36578
99 216
173 423
230 307
410 426
278 97
236 489
267 322
206 498
323 381
136 225
99 234
164 416
33 109
308 64
239 76
42 82
221 444
374 169
402 495
366 411
71 72
72 307
233 27
193 225
414 492
416 177
347 489
249 386
50 256
322 460
438 208
252 279
103 37
235 330
71 418
273 442
120 220
417 122
219 284
148 83
25 304
90 447
293 64
293 332
35 102
420 445
479 140
101 317
462 255
288 154
13010
1
