50
3
0 0 0
90 81 93
90 73 75
63 21 64
31 43 77
92 23 95
36 56 57
87 93 53
39 45 40
90 49 56
76 22 48
97 20 46
30 81 16
99 69 86
26 22 12
14 72 80
41 21 11
95 21 45
100 99 21
92 92 91
49 18 92
60 75 12
29 78 80
92 88 84
59 89 97
71 99 43
77 28 42
20 69 80
58 23 15
62 35 76
95 42 11
71 26 96
56 55 75
66 34 69
33 38 97
37 87 16
70 71 29
87 45 95
73 97 16
37 90 71
18 52 98
19 47 71
45 35 63
36 100 50
74 69 70
19 24 100
79 100 85
72 22 51
90 20 84
14 65 14
0.374773
0.245055
0.385938
0.335223
0.359534
0.476798
0.225486
0.441771
0.379697
0.285252
0.370846
0.366554
0.196243
0.279696
0.189557
0.22433
0.158818
0.248711
0.352277
0.416147
0.225467
0.254408
0.102057
0.406291
0.302475
0.321539
0.290101
0.230616
0.451271
0.307297
0.410131
0.266871
0.297533
0.393842
0.487691
0.475169
0.248986
0.19638
0.473
0.212541
0.415401
0.260985
0.453942
0.422711
0.299742
0.396663
0.433028
0.319779
0.303857
0.1649
193 61
152 191
112 362
229 382
280 179
460 36
391 239
327 369
78 354
137 441
129 146
125 313
470 367
393 246
188 325
54 468
26 142
375 150
444 186
174 274
380 398
443 210
218 30
176 224
248 299
75 382
178 235
451 215
343 289
500 193
44 196
212 474
18 168
168 127
220 200
427 206
274 349
257 274
305 121
401 131
36 470
293 463
217 473
77 318
456 258
355 294
244 204
339 382
430 155
460 215
7190
2
