50
3
0 0 0
62 56 12
37 94 26
14 73 94
45 48 48
71 10 41
31 15 95
60 82 93
86 83 98
32 80 54
35 28 49
55 34 56
20 80 22
23 77 11
85 98 91
33 85 55
95 22 82
57 81 87
14 42 20
91 88 88
86 22 30
80 72 73
90 68 22
56 98 10
17 23 63
66 13 44
91 57 97
42 80 47
10 71 96
25 70 60
93 13 53
89 70 10
100 80 65
59 56 58
58 54 65
62 13 94
10 70 15
27 93 42
58 82 34
57 93 32
89 90 85
24 66 22
50 99 67
78 43 94
24 43 67
34 82 69
86 89 17
48 73 45
38 37 32
70 81 12
1.64489
1.63158
1.32809
1.99496
2.44033
1.44952
1.01514
1.60555
2.20892
0.631624
0.775899
1.48028
2.24786
0.529853
2.32634
1.02208
0.8165
0.927617
1.31776
2.31824
1.87844
1.78737
0.979296
0.537745
0.924245
1.31636
2.18506
2.45386
1.52927
2.3224
1.46436
1.6489
2.04401
1.51401
1.23894
0.632482
2.21286
2.20039
2.43234
0.929243
2.08339
2.29695
1.62679
2.28987
1.30238
0.672391
2.19246
1.68599
1.98259
2.36816
258 363
16 237
177 29
201 299
97 326
327 296
350 485
307 160
485 247
52 99
152 90
159 93
227 56
38 300
56 128
70 254
408 231
299 367
127 418
284 406
463 227
50 283
153 8
292 343
134 37
423 103
463 62
31 357
105 183
439 277
139 182
488 311
148 229
366 398
190 156
357 348
410 429
418 123
149 272
313 32
396 233
301 82
467 418
0 77
272 82
373 96
332 94
103 107
353 270
491 443
13970
1
