50
11
0 0 0 0 0 0 0 0 0 0 0
81 45 62 37 75 82 52 90 54 92 96
95 76 67 36 50 71 98 38 40 81 68
30 34 22 75 35 84 98 22 71 39 70
47 83 69 58 23 11 36 66 27 43 22
97 76 33 48 88 21 99 80 76 53 48
20 47 60 12 64 44 48 24 28 37 82
80 80 61 85 91 32 61 63 79 76 37
11 21 94 88 23 63 98 37 81 83 11
50 19 94 24 16 25 58 60 52 51 70
80 73 50 50 99 13 40 27 53 39 60
28 71 17 78 68 47 98 41 34 54 19
55 58 59 31 41 27 39 33 43 44 66
63 17 51 72 100 81 48 42 58 47 44
58 45 73 77 80 28 82 81 72 81 12
22 69 22 12 52 53 10 65 93 65 53
98 68 34 34 10 47 45 74 78 36 85
16 93 13 17 70 13 92 58 67 17 32
96 50 84 16 43 42 46 55 64 76 85
84 88 54 20 53 27 86 90 27 92 21
81 83 51 20 93 57 27 49 43 12 77
65 67 54 66 36 19 74 13 36 74 91
58 47 52 31 27 44 48 85 65 65 50
64 21 86 32 76 60 57 93 95 83 67
43 83 24 71 63 15 80 96 35 94 68
35 78 33 87 87 45 22 54 61 88 54
78 44 18 59 77 100 37 59 16 98 63
35 81 67 30 11 73 29 94 17 93 26
29 28 26 25 100 37 16 92 69 52 91
34 57 79 76 66 51 54 94 12 54 87
42 33 33 16 26 73 15 59 28 17 100
63 67 88 67 46 58 28 55 73 57 48
73 58 21 84 88 44 69 83 40 12 59
24 40 48 57 62 33 59 96 10 90 78
12 64 70 34 16 64 77 88 79 12 26
26 28 83 23 10 41 31 33 51 87 35
19 78 61 93 43 85 17 18 16 97 77
37 53 31 55 30 12 25 74 25 58 81
99 60 54 76 13 43 11 73 77 38 85
33 91 96 18 30 66 90 83 33 99 20
77 70 64 35 75 70 40 80 54 51 35
80 54 99 35 97 20 49 23 85 66 70
38 70 49 27 52 45 55 45 65 23 46
25 25 55 99 45 58 81 93 21 94 53
96 53 80 25 79 71 89 75 72 61 59
10 43 76 98 24 16 82 68 66 48 27
35 25 34 37 88 54 51 59 78 52 53
41 78 64 14 80 12 62 25 51 63 11
27 20 46 88 56 12 91 32 41 59 60
82 87 50 40 66 89 23 13 43 55 21
0.718234
0.813523
0.438767
1.67798
1.27017
0.852666
1.8114
1.12903
0.571734
0.868909
0.411577
1.8374
0.909195
0.789837
0.988333
1.03867
1.35998
1.53202
1.71631
0.447628
1.9777
1.42538
1.30732
1.1812
0.445879
1.55812
1.75839
1.90974
0.726253
1.82682
1.17786
1.31746
0.919243
0.692074
0.73708
0.805636
1.52064
1.98301
1.19189
1.42362
1.35633
1.51484
1.6625
0.787819
1.20333
1.1769
1.76585
0.762942
0.520688
0.562665
185 170
383 342
495 213
438 47
311 479
280 99
358 29
446 47
494 321
105 385
26 337
287 353
29 224
485 274
297 151
303 42
327 314
208 161
167 206
461 234
173 275
159 404
336 230
348 212
286 14
223 39
281 308
339 252
450 405
247 162
200 302
466 59
62 372
388 487
288 153
455 344
430 151
29 326
53 34
434 466
409 233
109 38
24 417
174 321
72 158
457 211
205 179
49 198
102 33
414 306
3337.5
4
