50
3
0 0 0
63 14 29
60 12 87
42 28 35
69 32 93
26 63 36
23 92 94
19 54 84
82 92 19
31 83 47
24 71 48
93 45 13
53 18 47
82 25 62
91 92 28
70 67 29
31 37 58
53 45 84
91 89 38
19 56 88
87 82 83
63 39 70
78 63 73
42 21 21
10 27 83
24 27 71
64 33 61
81 47 85
68 88 75
25 59 35
33 26 60
10 85 57
71 86 44
41 78 41
74 78 80
55 58 100
36 94 42
33 89 13
25 34 50
97 34 100
14 53 63
98 89 11
91 26 65
90 82 99
30 42 62
65 61 59
64 28 47
12 41 63
97 28 92
29 76 33
1.54349
0.71286
0.575678
1.00812
1.56324
1.7239
1.6631
1.95157
1.59396
0.826572
1.5721
0.690694
0.548742
1.90949
1.00362
1.97461
1.04625
0.668019
0.528213
0.682185
0.688479
1.55043
1.92269
1.6361
1.26507
1.30522
1.08902
1.73187
1.38526
1.6063
0.462573
0.910674
1.61418
0.880221
0.857285
0.486415
0.516666
1.5287
1.93844
1.79949
0.814002
1.04639
0.46125
1.07587
0.530691
0.418967
0.741817
0.418372
1.1397
1.61416
174 248
8 314
251 113
450 419
310 351
141 391
89 435
325 437
185 486
189 285
158 305
311 53
236 350
207 170
279 298
343 357
390 153
490 310
38 450
238 474
447 294
207 382
371 83
363 140
378 78
186 291
392 323
359 485
157 22
344 476
262 90
390 91
345 49
142 472
147 405
490 2
436 13
382 297
197 61
436 338
109 358
82 157
351 293
254 81
317 122
203 132
258 258
51 36
453 276
40 255
6812.5
2
