50
3
0 0 0
80 46 54
17 36 39
48 75 44
17 11 33
69 76 75
72 22 43
68 76 15
10 12 71
33 21 77
54 20 81
37 31 54
59 72 92
60 23 83
65 23 14
69 43 62
80 66 30
58 36 31
49 52 75
100 67 38
46 97 73
21 20 77
68 58 10
81 36 33
99 74 18
93 96 83
72 85 80
11 98 60
60 54 85
78 100 47
96 27 90
83 21 50
99 17 40
29 59 72
69 81 72
95 12 58
79 85 58
98 99 37
38 96 35
93 28 31
92 38 78
21 66 17
82 54 39
84 28 73
66 49 24
51 89 37
90 54 26
72 64 18
49 54 66
10 100 48
0.763745
1.29196
0.965447
0.955366
0.401634
1.81829
0.451571
1.2423
1.82959
0.488593
1.806
0.572614
0.843798
0.677683
1.85432
1.64436
1.65048
1.19384
0.520146
0.629162
1.18031
0.843584
1.49665
1.51241
1.0711
1.16871
0.611423
0.918207
1.42214
1.165
1.92984
0.723513
1.46065
0.453239
1.83923
1.85168
0.847004
1.86072
1.83699
1.34993
0.72577
1.84055
1.75733
0.692369
0.827729
1.47411
0.800645
0.987991
0.769366
1.42329
172 478
91 32
164 224
470 488
429 346
59 221
105 104
204 65
305 344
453 48
159 500
309 394
228 261
376 189
243 295
382 483
68 387
347 299
157 269
465 62
325 243
374 498
459 286
274 122
276 89
52 5
302 335
92 399
450 499
356 429
185 100
203 197
43 51
255 214
461 312
397 483
17 370
448 171
25 393
360 101
120 365
393 465
62 151
379 496
401 136
288 171
394 100
397 166
188 156
309 454
2754
5
