50
5
0 0 0 0 0
10 28 20 88 44
12 94 11 95 87
68 93 95 11 97
89 19 79 15 36
57 32 89 41 40
96 47 62 88 95
98 94 91 24 53
40 92 40 98 14
31 11 92 39 91
45 16 88 51 39
50 33 73 93 95
92 96 44 58 98
56 68 30 80 45
43 85 59 99 45
78 56 69 91 34
36 86 63 50 26
71 82 61 71 82
34 61 49 38 71
68 72 32 56 30
10 55 93 49 10
25 20 69 91 56
60 73 13 53 20
19 19 49 72 72
35 74 15 12 87
61 99 45 73 36
82 14 74 96 81
96 18 53 25 34
56 90 53 80 69
97 59 15 64 19
71 57 25 69 98
49 94 19 82 44
17 17 90 20 55
32 66 100 25 10
78 85 97 86 16
95 86 55 52 46
25 71 27 86 43
51 30 45 32 11
63 55 85 58 98
20 96 97 54 11
24 97 59 85 10
58 69 10 35 65
32 22 42 28 70
47 76 24 71 15
89 64 67 12 36
83 90 95 78 31
92 74 97 32 38
12 56 91 14 15
84 93 50 43 94
98 12 78 30 69
2.44571
1.59633
1.84201
1.03237
1.05108
2.38285
0.689723
1.25606
1.48566
0.522905
1.99047
1.80477
2.29617
1.53663
1.56353
1.21702
0.601149
1.5084
1.58052
0.602844
0.646888
1.68384
1.91425
0.711048
2.39585
1.86707
0.931921
0.979561
1.47298
0.667128
1.16108
1.15005
1.66632
0.6863
1.72249
1.52461
1.32098
0.946388
1.28061
0.919199
0.884357
1.41464
1.49237
0.56637
0.735211
1.20962
1.63099
1.71901
0.581988
0.525879
151 81
333 460
349 493
402 145
462 91
298 483
436 261
130 145
247 277
188 213
389 291
132 9
380 333
54 336
332 184
266 121
23 101
290 439
191 320
235 249
444 423
358 27
34 346
439 163
22 175
430 212
166 435
9 356
352 367
435 283
18 343
404 193
190 234
336 476
487 136
118 466
311 206
386 437
73 58
269 332
52 255
412 299
496 26
188 170
143 10
435 175
174 107
416 124
217 0
234 336
6940
2
