50
3
0 0 0
50 70 61
12 27 69
100 100 65
66 81 24
43 19 35
87 90 59
91 27 69
57 58 72
78 32 97
94 91 51
61 96 47
40 12 22
16 19 71
13 27 60
39 23 80
80 19 66
60 63 95
35 11 81
45 88 69
100 15 52
11 66 51
86 97 43
39 23 26
45 15 91
10 39 23
64 27 78
79 87 54
12 60 71
22 91 68
19 23 50
36 35 53
56 24 54
94 81 53
63 61 55
87 82 49
24 27 15
42 35 57
75 34 45
20 37 76
71 74 99
57 52 57
36 31 35
16 74 65
12 100 84
65 68 74
72 52 77
99 64 48
44 90 60
95 17 72
2.23806
0.538277
1.47167
1.23067
1.95497
0.774955
1.18507
2.12628
0.798162
0.774045
0.662155
2.12226
0.601414
0.903157
0.795263
2.23916
0.537692
0.811458
2.13179
0.920117
0.723487
2.3392
2.47261
0.948473
1.74356
1.56558
0.765072
1.01177
1.58712
0.976527
1.60453
1.28839
1.35138
1.52
1.1029
0.538779
1.32601
0.921237
2.12465
1.00163
2.00668
1.95858
0.562794
0.75269
1.60047
2.46921
0.503013
1.16027
2.17456
2.33065
382 70
100 132
279 446
103 186
192 278
451 300
340 476
71 89
204 16
139 166
38 186
110 381
399 50
343 189
383 317
266 177
267 222
350 38
172 207
27 357
360 132
231 110
360 162
375 495
249 266
95 42
304 473
90 30
321 245
387 8
160 450
170 115
436 25
260 9
19 476
280 359
298 12
255 193
175 301
26 154
294 98
105 468
38 214
248 266
483 499
272 337
165 269
124 4
192 396
149 233
6732.5
2
