50
7
0 0 0 0 0 0 0
48 51 85 19 78 88 75
46 63 34 70 86 58 25
41 77 19 34 77 70 15
24 55 27 23 27 79 57
45 62 43 28 52 19 24
50 55 84 78 45 99 92
30 46 51 54 57 74 68
93 50 21 19 94 73 11
66 51 100 78 59 77 90
90 18 20 32 96 88 25
79 42 35 22 57 17 86
60 44 30 20 90 29 83
58 23 84 33 64 57 79
87 89 50 99 10 16 34
26 72 75 44 59 86 39
21 41 55 79 91 54 68
32 29 63 80 58 98 18
65 24 85 48 38 42 72
31 11 15 45 59 24 95
63 46 85 14 25 40 89
71 15 73 75 20 97 58
90 47 52 47 28 40 78
49 65 31 15 20 36 46
72 31 44 11 61 15 35
42 22 18 32 43 51 57
52 33 12 67 35 50 27
89 25 75 64 65 44 99
83 57 22 79 23 78 75
48 24 71 73 22 36 35
91 25 77 18 76 88 59
34 81 41 35 27 82 14
58 93 27 72 91 60 26
44 61 99 57 17 47 48
100 86 10 92 47 49 95
72 22 16 99 56 56 66
10 29 27 15 55 63 42
74 28 72 22 96 47 70
81 57 37 98 93 82 68
10 20 54 70 82 100 46
96 36 78 72 49 31 38
51 11 96 58 74 37 56
23 18 99 58 71 46 94
21 30 21 99 76 48 96
27 18 16 97 22 91 88
74 76 54 38 21 53 72
29 52 63 40 27 56 48
76 58 43 64 81 88 68
56 24 34 48 61 87 86
27 26 15 86 76 87 82
0.799652
1.12593
0.8632
2.32153
1.21642
1.59344
1.50937
2.26348
2.40012
2.02516
1.40239
0.56268
1.2529
1.981
1.05324
2.16029
0.796857
0.638831
0.738119
1.60925
0.994168
0.607351
1.78285
1.61717
1.49622
2.47131
2.24471
2.32161
0.743889
2.20366
2.32389
0.756781
2.32144
1.41227
1.82465
1.81587
2.49831
1.71354
0.947009
0.692769
0.803934
1.68014
0.986876
1.50542
2.22005
1.72819
0.681993
2.41089
0.615954
1.67684
371 330
454 73
464 280
487 303
362 237
189 192
314 438
491 280
80 135
187 297
14 106
150 373
66 192
37 167
146 388
121 239
46 361
43 108
217 398
361 79
81 416
456 362
343 89
384 278
65 423
385 414
415 347
486 215
185 475
372 116
249 497
314 65
446 480
141 273
237 115
435 331
386 274
48 206
378 198
416 471
320 315
125 419
61 171
261 460
487 147
11 143
24 231
360 73
293 56
465 106
13190
1
