50
7
0 0 0 0 0 0 0
74 26 26 86 31 31 77
38 31 37 49 70 72 40
26 24 100 25 74 47 20
70 42 47 55 65 23 74
41 79 53 92 26 62 33
30 40 71 90 79 58 58
32 96 21 11 54 30 98
47 40 73 65 42 92 32
18 14 87 45 42 67 93
42 15 58 94 33 80 70
95 50 23 11 83 11 47
31 34 97 74 56 24 47
92 37 17 77 77 96 19
30 64 62 80 29 27 34
69 57 27 96 25 18 94
16 95 48 77 14 78 16
82 25 64 42 66 76 47
19 58 60 16 16 26 44
52 46 59 55 75 43 18
97 49 87 62 23 47 25
31 67 33 91 35 98 12
87 25 55 89 99 53 94
31 64 88 17 49 96 30
87 54 51 92 47 88 29
76 56 29 70 60 15 92
21 49 61 67 57 95 39
65 90 68 13 23 15 99
59 18 34 74 38 100 79
55 51 11 44 61 37 54
26 23 31 93 83 67 51
31 60 71 13 56 49 40
20 62 37 60 45 86 80
74 81 13 36 78 73 100
43 75 90 61 99 85 38
63 69 82 68 82 13 79
94 28 68 53 96 46 68
98 42 25 51 34 79 25
34 11 70 77 84 46 94
18 61 33 45 25 54 16
80 57 40 49 67 59 11
27 41 52 24 91 19 93
43 53 24 70 91 94 12
37 39 58 56 94 81 51
81 10 46 95 54 95 39
25 84 87 72 75 22 74
82 51 77 46 29 27 48
74 70 97 29 23 18 36
67 74 14 18 19 79 36
97 98 70 11 78 20 65
0.765295
1.07936
0.323768
0.36053
0.965478
1.29591
0.568358
0.616725
0.867531
1.08568
1.19845
1.48558
1.3264
0.3956
0.305554
0.448488
1.38589
0.356497
1.17619
0.38321
0.655464
0.654193
1.32
1.09773
1.18492
1.36786
0.642639
0.601766
1.29477
1.07891
0.682083
0.359363
0.659808
0.759753
1.07591
1.4325
0.479939
1.41394
0.687828
0.885944
1.18999
1.11021
0.787922
1.4749
1.25213
1.18725
1.25778
0.517119
0.950336
1.2679
115 86
155 105
357 245
482 44
285 224
405 156
24 342
293 423
324 184
329 97
150 338
389 108
199 103
134 42
48 180
81 347
490 85
373 220
248 134
68 47
368 14
41 414
68 411
196 219
410 88
477 71
402 462
334 271
50 434
58 184
415 272
329 100
74 443
194 465
48 461
465 316
401 280
489 211
425 335
237 354
473 465
336 50
34 114
413 279
204 60
345 272
36 283
386 9
312 33
120 285
6630
2
