50
5
0 0 0 0 0
89 27 22 99 72
57 89 84 95 23
36 80 31 44 47
74 44 89 82 76
83 31 99 51 61
78 57 21 89 97
40 34 88 56 77
68 84 21 66 88
82 96 81 74 54
96 59 73 16 91
77 87 41 11 92
10 68 84 99 63
23 13 65 76 63
20 70 63 21 93
52 27 98 70 95
81 64 97 25 31
36 18 70 62 60
63 72 61 59 92
16 65 79 84 52
46 87 92 85 75
85 56 96 69 66
16 35 14 14 24
35 65 46 58 48
96 77 24 56 71
55 23 50 96 59
54 51 28 13 56
63 43 54 41 59
75 81 23 55 93
48 34 94 27 70
94 63 69 39 88
84 60 85 65 86
51 17 35 90 58
76 80 79 20 88
12 72 91 60 93
43 38 39 27 27
42 59 55 17 54
39 75 84 33 30
28 44 68 36 39
63 33 83 37 96
59 92 55 28 60
21 47 96 96 79
79 47 47 76 37
24 48 36 76 67
100 39 88 87 50
63 57 64 92 32
71 68 72 88 89
84 17 63 36 59
80 24 54 82 12
84 72 56 18 48
0.300363
1.05776
0.863519
0.919728
0.954774
0.866886
1.32858
0.567867
0.581688
0.759009
1.2528
1.40631
0.472895
0.680008
1.46549
1.42266
1.30045
1.4339
1.37724
1.49728
1.20588
1.39579
0.669907
1.35897
1.14901
1.36065
1.42207
0.811796
1.07207
1.00949
1.0712
1.0994
0.932358
0.345817
0.347567
0.791896
1.01539
0.53878
0.407143
0.613532
0.378445
1.37855
0.819911
1.31121
0.862207
0.845376
0.468369
1.40586
0.572708
0.373054
11 168
234 288
282 195
86 500
186 499
363 92
169 440
140 316
76 239
300 23
451 204
384 467
345 58
369 235
18 401
146 169
139 423
111 456
377 1
98 383
207 465
419 472
36 142
363 439
103 497
357 56
28 408
255 36
61 98
331 144
251 362
89 214
46 102
332 485
191 172
92 457
423 497
12 341
106 308
191 98
298 138
312 383
203 446
295 419
92 145
430 153
126 110
279 210
344 319
164 184
3645
4
