50
5
0 0 0 0 0
19 79 31 68 95
44 33 22 92 97
78 38 57 51 44
10 54 89 95 87
63 59 26 46 51
36 58 93 95 97
82 82 90 42 44
64 94 64 69 38
61 45 73 11 62
86 45 35 86 64
66 37 14 96 75
45 89 31 22 55
88 38 82 20 61
88 29 84 76 86
89 37 80 13 54
57 76 18 28 80
96 84 72 11 28
98 59 77 69 67
17 71 32 23 71
55 24 96 73 98
88 20 11 10 70
24 11 51 41 74
42 88 12 79 33
63 40 26 80 34
32 73 100 39 12
38 34 49 57 33
43 32 38 25 52
37 25 80 59 18
34 92 53 25 26
50 76 95 75 12
97 44 54 10 28
14 89 83 81 25
18 81 86 74 15
13 34 97 19 28
18 85 12 86 59
69 30 66 61 88
90 91 48 43 62
21 10 69 47 12
39 51 40 29 40
38 75 29 45 26
37 22 99 36 44
88 10 86 81 21
94 92 95 11 70
67 67 34 96 10
70 79 44 59 42
100 75 57 52 31
96 34 86 82 96
62 85 14 39 80
64 69 68 39 77
0.347365
0.95527
0.593044
0.631429
0.717263
0.321878
0.491903
0.584703
0.295699
0.406414
0.332051
0.446184
0.489028
0.772981
0.844085
0.571737
0.393302
0.886283
0.717772
0.215999
0.468739
0.697928
0.720965
0.311295
0.612845
0.431224
0.485979
0.781602
0.306086
0.707225
0.835267
0.64439
0.596779
0.764347
0.49406
0.245419
0.466108
0.957991
0.870163
0.773593
0.645931
0.414601
0.418713
0.844247
0.468287
0.97571
0.629031
0.95972
0.362375
0.605561
464 147
218 162
259 152
435 66
134 472
169 28
29 290
214 280
241 205
452 326
269 360
403 364
26 347
365 73
490 3
1 206
32 281
379 288
242 235
16 482
244 152
305 393
152 165
195 180
209 355
27 354
318 181
34 18
381 79
498 99
248 416
301 18
369 328
30 492
497 100
108 491
54 115
165 435
39 178
68 217
465 242
88 267
500 400
78 424
270 13
53 388
390 210
424 334
443 427
242 26
6757.5
2
