50
5
0 0 0 0 0
86 46 34 57 22
55 79 75 79 23
59 66 24 89 44
17 52 30 82 23
50 12 43 16 71
97 83 41 77 77
28 29 82 28 77
37 87 49 29 12
21 18 68 32 56
74 61 54 83 58
19 11 21 90 37
77 59 87 22 11
99 88 51 44 53
75 33 11 60 46
40 45 63 32 41
48 66 42 88 47
33 98 22 93 50
87 19 51 82 77
57 84 23 82 16
44 95 85 27 33
15 83 48 48 93
72 49 60 34 67
55 18 97 14 11
74 40 37 94 68
14 36 16 99 77
32 78 50 51 83
91 52 85 57 59
71 22 64 37 72
48 40 35 74 80
79 10 31 74 69
86 58 10 20 93
97 37 61 28 60
25 10 87 90 23
57 96 95 77 10
88 33 26 87 35
43 62 33 68 100
48 43 79 19 37
80 14 79 47 12
54 10 55 30 58
22 69 80 50 68
62 49 88 76 29
39 79 83 48 80
20 74 98 71 64
57 31 27 18 61
85 28 87 11 89
24 98 91 13 51
20 31 31 74 40
16 46 11 32 51
47 100 17 84 19
1.55684
2.48631
1.99418
2.33232
2.40388
1.13145
0.728264
1.74279
1.42716
2.39815
1.85494
1.7852
1.79231
0.756102
1.29643
0.56837
0.755551
2.36627
0.721625
2.3756
1.67282
0.715852
1.76778
1.31818
1.53386
1.72752
1.00353
0.906436
2.42728
1.08638
1.25616
0.514058
1.31702
1.71942
1.53004
1.92266
0.645845
0.831652
0.743513
1.4979
2.45005
2.32695
2.3186
2.45994
0.886444
1.18876
0.88596
0.662886
1.46526
1.56169
16 321
58 254
247 215
472 443
469 453
28 230
307 69
146 145
495 470
24 65
261 470
14 387
0 336
208 20
47 55
232 461
27 267
437 89
273 54
152 141
408 85
499 180
155 419
383 104
458 189
444 164
212 103
254 242
162 293
60 128
266 133
426 344
216 465
315 164
125 108
122 321
452 93
467 409
130 94
306 56
372 201
323 404
473 200
108 13
74 419
135 360
328 351
138 308
22 115
337 348
4338.33
3
