50
7
0 0 0 0 0 0 0
69 21 22 54 99 21 24
34 57 34 68 56 11 97
100 83 39 69 68 23 48
33 50 60 67 26 91 35
31 66 13 13 70 88 12
51 35 48 63 49 51 84
25 41 12 51 34 73 53
38 16 59 35 80 84 18
48 44 46 58 79 36 68
54 17 23 89 13 99 46
70 90 59 34 16 88 48
68 29 45 68 37 35 50
31 53 59 30 42 63 73
34 95 35 19 52 27 26
77 96 36 13 63 82 84
45 79 86 88 99 23 80
46 64 84 95 18 26 63
41 47 73 23 15 11 84
59 19 33 40 82 100 77
85 67 68 94 86 89 15
26 77 64 91 60 49 69
53 15 39 25 68 82 30
47 99 94 39 52 21 21
29 64 82 50 56 15 88
56 41 24 39 43 15 61
41 60 84 18 35 97 32
46 23 81 22 26 37 50
33 76 46 21 19 28 22
63 97 82 94 48 31 57
94 85 20 77 30 71 59
14 64 60 42 88 16 94
73 30 89 92 20 12 77
52 21 95 37 20 47 29
22 63 85 53 35 63 39
53 12 32 28 100 62 100
36 85 83 77 16 41 66
61 17 69 35 72 72 12
95 15 93 80 11 66 17
35 97 66 28 22 65 85
99 27 93 38 46 59 85
58 47 71 32 44 89 80
67 61 20 37 87 64 74
31 30 57 90 58 14 41
64 34 95 10 41 38 46
25 38 38 67 79 47 51
38 78 56 99 18 54 89
100 91 46 42 96 29 93
100 19 59 39 69 55 14
67 54 44 39 21 98 26
0.950184
0.415357
0.867922
0.567917
0.493089
0.738014
0.327038
0.596309
0.421808
0.353457
0.24947
0.514229
0.288229
0.303715
0.955672
0.991921
0.420989
0.26751
0.494789
0.327023
0.918087
0.537817
0.612323
0.635821
0.661202
0.872063
0.556372
0.684493
0.921492
0.617492
0.353744
0.847849
0.798983
0.997011
0.852706
0.714945
0.610359
0.783973
0.322694
0.853837
0.318841
0.249454
0.270441
0.334722
0.756725
0.884766
0.278001
0.264653
0.982312
0.516811
463 328
434 50
353 268
183 64
10 488
447 53
316 259
133 23
377 74
140 164
133 356
457 345
491 345
370 261
447 395
13 262
372 109
297 121
154 23
430 182
288 254
181 332
241 167
78 67
237 420
182 213
304 123
391 340
444 274
202 479
20 361
303 60
137 40
437 288
460 492
418 328
134 360
204 0
177 263
447 110
175 159
75 153
434 67
314 112
379 292
135 485
153 184
278 99
464 241
90 290
13020
1
