50
9
0 0 0 0 0 0 0 0 0
83 58 59 89 45 14 24 37 84
80 24 64 15 45 37 58 15 67
67 87 39 68 43 15 25 90 17
34 28 38 30 66 94 91 44 12
17 91 81 20 86 55 76 50 74
60 70 65 30 90 58 37 63 55
24 95 58 88 12 13 75 91 78
92 83 82 76 17 91 93 50 56
25 64 64 72 41 98 53 47 63
100 53 57 69 13 76 69 96 91
42 31 53 70 15 81 43 75 16
92 25 48 57 96 30 32 56 56
78 96 57 13 12 44 19 37 44
23 69 34 46 71 85 10 85 44
49 27 12 93 85 39 73 75 81
41 73 52 18 94 90 19 40 78
15 99 55 95 41 48 32 38 42
75 56 96 86 93 32 65 100 26
95 36 94 95 77 36 42 69 84
19 79 56 97 44 36 90 78 90
23 95 20 79 29 89 98 77 33
39 41 94 36 77 27 60 39 94
57 87 86 45 38 74 85 77 94
85 61 41 30 39 52 39 98 34
99 18 24 21 45 16 69 71 24
83 17 47 36 82 46 42 64 69
97 45 65 76 37 26 23 11 10
44 92 98 63 26 31 27 47 26
41 72 42 81 80 80 55 56 77
25 67 64 99 22 15 47 71 49
61 42 43 30 52 58 74 57 81
34 65 66 39 39 25 14 22 76
31 75 81 63 76 26 69 31 31
42 27 36 56 90 63 58 76 94
36 57 72 53 37 94 60 52 15
42 96 98 80 80 23 32 74 99
13 20 75 78 67 23 66 85 23
42 69 47 78 59 52 19 64 47
56 88 56 14 65 59 86 45 28
82 15 81 53 71 97 10 42 56
58 94 58 64 21 64 72 16 37
64 29 94 56 41 33 16 99 97
29 63 54 28 58 92 62 32 61
55 58 33 84 60 35 27 74 47
39 32 66 24 55 93 80 100 16
96 11 56 75 28 28 11 11 38
50 43 27 59 58 92 42 73 60
82 59 60 52 60 27 44 41 59
61 88 93 19 50 69 33 16 22
0.890703
0.803406
0.792827
0.60697
0.662394
1.32437
1.1918
0.68426
0.846214
0.933429
0.813495
0.430767
1.20881
0.65196
1.46529
0.879094
0.457057
1.39718
0.896668
0.689171
1.16263
1.44354
0.848778
1.10561
1.32865
0.381208
0.763582
0.408322
0.962595
0.968658
0.903368
0.923385
0.437287
1.10981
0.690524
1.43414
1.1436
1.05629
1.01565
0.670755
1.37876
0.981284
0.982657
0.72392
1.15834
1.15936
1.36737
1.41384
0.338582
1.40035
14 335
37 128
159 274
175 186
482 79
163 205
14 298
86 247
253 88
408 11
246 66
237 16
293 117
370 245
499 214
315 139
266 296
13 9
358 137
156 329
289 430
233 114
59 493
494 1
435 190
333 285
254 240
317 225
275 265
492 114
89 328
33 260
292 44
202 265
379 457
119 398
299 312
301 9
129 171
53 500
317 228
359 298
203 230
242 500
168 481
383 269
150 26
321 203
257 0
55 413
3396.25
4
