50
7
0 0 0 0 0 0 0
23 44 14 83 91 22 96
53 48 42 42 42 57 34
87 42 68 44 23 39 91
52 35 37 11 58 78 72
89 87 22 66 78 61 40
22 67 19 10 23 44 93
20 98 11 12 40 67 70
64 91 91 72 30 77 56
37 71 86 97 33 28 40
46 75 86 45 91 87 43
22 40 79 45 40 35 45
49 84 37 33 27 34 38
77 61 91 44 50 43 83
38 31 75 67 59 22 31
15 55 33 32 89 86 17
68 87 52 91 97 45 35
54 26 47 19 98 70 56
88 56 92 27 77 72 84
57 52 20 91 84 28 74
51 45 57 71 63 99 19
65 66 39 88 54 33 51
11 70 92 29 97 67 41
90 79 92 34 80 85 53
49 65 54 76 53 74 22
70 33 91 47 80 50 39
43 19 66 26 54 56 65
76 82 95 44 74 90 57
89 64 54 82 68 67 55
92 48 86 88 69 85 72
48 34 38 62 24 92 22
25 62 33 57 35 29 10
30 65 62 97 35 92 19
54 58 99 42 97 45 71
88 46 81 92 31 85 88
87 51 96 32 14 28 33
100 37 93 82 90 43 51
48 75 45 99 36 83 36
22 84 56 40 50 68 55
94 15 50 91 67 56 99
43 56 94 10 69 43 91
37 71 17 42 39 45 48
11 84 77 96 60 92 49
98 30 73 85 88 60 52
18 36 39 81 68 50 31
87 84 14 11 78 46 76
64 14 77 78 92 50 39
10 35 55 68 19 64 17
38 82 34 60 88 19 68
86 65 14 71 19 22 25
1.52514
2.01591
1.44434
1.72765
0.588035
1.23923
1.4185
2.02219
1.32786
0.941008
2.12109
2.23637
0.741188
0.752359
0.706244
2.15638
0.900994
2.4562
0.784122
2.31447
1.40764
1.72327
2.42829
0.521814
1.39714
1.2686
1.71835
2.38931
1.48814
0.534591
0.555926
2.2783
0.978202
1.14527
0.736832
0.517697
2.39177
1.59896
0.779401
2.33648
0.541618
0.813833
2.47327
1.00887
2.13236
1.5485
0.994821
1.73481
2.25189
1.84401
385 466
292 427
97 99
241 279
312 384
132 477
260 177
50 459
155 7
452 419
187 30
384 175
53 411
85 462
114 18
130 421
426 218
453 65
168 487
454 219
63 220
91 489
8 478
199 49
234 158
270 184
65 374
0 94
280 251
117 379
418 43
64 438
392 220
381 196
212 178
41 78
364 381
116 303
298 311
117 251
157 241
363 417
474 234
127 212
106 43
33 280
396 252
381 30
171 317
281 412
6950
2
