50
11
0 0 0 0 0 0 0 0 0 0 0
21 92 61 94 31 10 52 96 74 60 97
59 81 58 47 20 75 74 55 38 49 19
41 49 52 85 93 24 59 30 58 84 81
40 78 92 76 80 83 92 16 98 54 46
95 20 35 22 13 54 15 26 54 20 18
16 67 22 48 33 32 61 60 12 22 70
26 17 27 77 57 56 36 47 68 81 83
42 26 97 78 84 67 82 35 36 70 71
96 46 97 49 78 19 36 65 96 77 84
26 69 69 84 24 21 67 72 86 11 29
96 21 86 60 16 37 81 78 55 91 80
13 32 42 65 21 39 99 76 21 49 84
57 13 39 10 31 42 38 48 98 86 87
35 21 81 80 80 24 60 57 76 89 92
25 53 75 17 40 90 64 39 19 87 75
54 14 57 42 68 48 99 14 30 75 63
16 26 67 55 71 80 94 78 70 27 92
61 35 69 19 78 18 35 100 15 99 60
54 90 87 43 24 17 41 34 39 61 21
92 53 100 87 63 15 50 45 51 42 98
34 62 40 16 53 82 17 25 71 90 15
51 90 98 55 66 66 39 93 79 30 54
45 63 54 34 46 20 95 90 54 33 51
92 39 69 32 51 19 63 34 83 24 38
44 70 56 40 53 12 62 82 42 55 28
34 67 100 82 48 27 57 96 87 30 52
96 81 90 33 71 31 21 84 22 75 82
23 65 79 88 72 74 91 82 54 86 85
32 52 100 18 96 14 14 72 32 32 97
79 97 28 62 66 38 49 94 19 46 23
78 20 62 11 80 14 13 58 66 69 71
10 93 38 17 84 99 34 56 72 49 86
93 67 86 28 98 39 56 76 89 47 30
17 10 50 66 23 52 27 75 59 94 33
35 86 72 32 13 63 59 20 74 30 58
83 21 23 28 40 74 77 56 44 74 91
15 91 35 26 96 76 76 73 57 33 57
70 67 57 21 31 96 20 39 93 80 99
25 28 85 95 67 21 25 55 32 59 97
79 96 38 58 64 32 95 51 43 26 80
80 71 25 29 69 28 24 14 52 56 53
60 43 78 57 95 59 58 94 14 29 43
89 45 29 43 43 93 48 20 97 73 74
43 46 74 94 75 45 28 85 38 73 64
23 95 30 60 79 22 14 26 77 26 93
62 78 74 36 10 52 42 84 71 62 75
73 65 96 92 84 41 99 11 47 68 39
68 20 79 24 89 70 75 90 73 21 86
76 56 54 35 32 26 25 32 12 64 52
1.31432
1.31955
1.22561
0.964544
0.759887
0.731551
0.636676
1.32087
1.1745
1.27897
1.02683
1.36381
1.48958
1.25957
1.2914
1.22401
1.22
0.747392
1.48538
1.36518
0.471167
1.49808
1.08865
1.24977
1.17594
1.44501
1.39933
0.648615
1.34401
0.386938
1.43626
0.360466
0.664206
0.688183
0.96042
0.437997
0.791572
0.417988
1.49094
1.41896
0.930001
0.387603
1.33921
1.10398
1.46339
1.32015
0.695539
0.746752
0.830787
0.609767
326 355
94 323
287 357
62 333
484 104
58 299
196 424
380 249
12 274
51 82
122 39
409 468
338 142
248 330
232 3
372 29
375 298
19 282
169 167
486 432
394 136
157 436
249 132
149 313
222 406
430 332
180 473
442 466
184 98
247 365
205 46
274 427
23 464
212 153
55 407
26 399
155 42
324 80
280 233
88 83
167 265
263 240
422 30
75 191
7 446
5 492
255 91
277 435
260 179
23 15
13635
1
