50
9
0 0 0 0 0 0 0 0 0
91 99 94 69 16 23 33 48 35
83 94 32 53 96 20 67 76 72
83 75 37 38 13 78 93 19 65
16 44 37 21 11 54 89 11 80
62 80 45 75 76 66 76 19 55
91 77 75 63 77 97 94 10 17
36 80 41 56 89 98 25 87 71
69 30 29 64 20 59 83 83 23
79 22 83 64 10 12 28 61 31
54 16 21 40 53 13 48 94 80
60 76 78 81 11 13 99 14 36
63 29 70 81 65 45 50 84 20
88 66 95 97 76 55 70 77 64
89 97 33 41 84 33 67 99 99
52 41 11 50 48 82 91 47 31
100 15 10 31 81 76 43 13 47
40 100 77 74 21 77 88 10 59
97 61 54 44 21 16 28 100 67
76 31 29 17 28 53 86 59 37
98 32 39 98 97 98 83 29 55
83 63 48 23 31 91 28 18 50
50 67 50 13 21 71 74 77 98
100 48 85 60 13 92 91 43 57
30 90 62 53 84 86 68 78 28
44 38 66 76 22 71 46 54 67
41 70 96 73 90 47 95 41 48
51 94 35 50 55 45 68 70 69
66 36 48 26 20 54 30 51 72
51 42 90 18 81 46 23 50 88
91 63 60 84 67 80 74 28 98
30 77 72 76 11 23 18 77 50
73 44 58 30 40 55 59 63 42
40 39 38 76 10 17 35 70 92
40 37 48 98 47 49 14 32 15
52 31 93 69 28 78 13 48 98
89 16 74 30 84 75 89 52 28
70 10 75 100 70 72 34 36 46
28 58 19 15 44 17 54 52 11
24 55 74 56 65 51 32 90 32
78 41 56 87 100 96 22 17 34
98 52 98 54 100 84 52 66 26
17 93 26 61 98 99 83 10 84
79 29 37 70 49 16 82 55 89
84 68 98 38 36 27 57 30 11
79 57 98 89 75 84 91 55 94
90 56 24 18 20 32 27 46 35
85 31 94 45 57 40 69 43 97
26 70 19 98 35 36 96 84 31
56 82 20 30 25 91 98 69 23
1.13877
1.59957
0.529527
1.43511
0.618591
0.716981
1.84899
1.6149
1.65314
1.39309
1.28546
1.61177
0.454832
0.46273
1.85086
0.616779
0.842592
0.803692
1.54785
1.48044
1.40466
0.923885
0.641667
0.534739
1.9827
1.64063
0.878553
0.937915
1.6392
1.99397
1.28733
0.462289
0.62154
1.80387
1.84767
1.53812
1.49513
1.987
1.96973
1.6468
0.99469
1.10534
1.66587
0.493945
0.743557
0.514203
0.804299
0.572983
0.694869
1.53553
372 477
201 234
466 486
88 372
293 213
253 362
69 347
453 260
223 265
451 10
209 311
112 348
127 454
0 225
31 154
485 435
132 78
88 40
285 18
271 279
236 114
441 471
343 471
401 185
49 168
492 64
344 479
372 279
485 254
444 351
310 335
356 10
307 413
144 128
482 390
435 153
15 141
3 396
265 477
150 9
346 3
401 59
476 191
148 407
254 386
102 217
337 101
406 99
148 482
326 404
4600
3
