50
7
0 0 0 0 0 0 0
60 23 41 27 22 37 44
42 10 55 63 54 18 88
23 78 93 50 97 82 83
30 65 17 41 87 15 92
66 34 72 15 24 44 47
83 76 92 34 89 65 27
53 14 12 94 95 26 64
24 56 96 45 16 40 40
100 40 74 19 81 51 10
41 68 69 92 46 79 70
35 49 55 85 99 41 85
75 51 84 38 60 92 29
84 76 74 19 14 59 60
32 86 27 10 29 71 63
88 60 100 18 35 44 66
79 60 32 68 79 80 32
82 24 28 33 45 58 84
73 100 68 55 14 65 51
39 58 82 55 41 57 79
72 73 87 35 94 60 94
28 42 48 16 81 63 46
50 70 77 66 69 29 65
89 86 21 48 96 30 66
89 96 24 21 95 38 49
73 96 99 22 62 75 34
58 10 85 81 51 27 10
62 20 23 18 70 85 38
97 23 49 81 94 48 83
61 48 55 98 28 10 22
91 44 97 91 84 42 34
30 98 33 56 63 41 71
43 41 50 31 33 25 47
41 77 50 42 63 85 45
64 53 92 43 30 72 99
25 64 29 100 32 50 59
70 15 35 23 18 58 49
15 46 58 40 93 12 100
92 51 98 40 42 16 22
23 59 61 77 100 55 37
41 58 56 75 33 29 64
30 82 29 80 20 36 93
83 28 10 65 75 99 79
26 53 73 67 54 32 42
39 82 63 85 67 22 17
37 16 71 89 92 63 66
39 39 33 62 46 34 70
99 60 54 54 44 72 30
33 99 89 53 10 43 30
13 64 70 98 81 40 46
0.630188
1.68534
1.84836
0.627703
0.851847
1.43634
0.448528
0.794238
1.95165
1.21406
0.982893
1.47172
0.894835
0.694914
1.67524
1.24149
0.734444
1.98053
1.38371
1.20915
0.872741
0.548959
1.61838
1.22835
0.442924
1.24585
1.64582
1.67514
0.504229
1.33771
0.971741
1.30645
0.402589
0.966412
0.978382
1.50195
1.71695
0.813927
1.32587
0.824465
0.866738
1.24163
1.49287
1.94514
1.72838
1.33853
1.50414
1.59539
0.796638
1.77673
55 337
482 155
207 222
392 243
245 327
371 108
94 72
0 471
451 106
260 482
449 332
86 24
419 119
140 492
18 220
144 367
479 119
305 163
53 122
127 125
405 283
69 41
363 477
440 335
115 79
224 317
355 274
17 229
80 253
219 79
284 29
133 245
171 491
156 128
252 453
137 134
302 406
443 176
365 158
311 201
355 433
226 11
103 315
221 357
29 205
381 225
171 154
122 292
484 425
433 177
4506.67
3
