50
3
0 0 0
79 89 45
62 58 73
40 15 36
14 52 88
59 25 70
14 11 46
50 11 15
83 71 64
70 80 50
70 23 76
45 91 31
40 23 50
79 83 18
14 78 31
91 47 61
71 19 83
67 66 75
99 55 29
94 21 41
70 58 35
46 96 22
33 80 83
88 11 42
45 17 100
20 43 98
83 91 20
69 57 62
69 40 88
10 93 18
69 85 35
56 60 43
82 59 36
11 52 21
69 38 28
44 45 12
88 97 14
81 37 42
30 87 94
46 11 85
39 96 56
92 10 68
17 90 85
11 67 63
74 52 95
24 49 58
61 45 97
14 71 12
57 74 57
17 43 51
1.88132
1.66201
1.75901
1.79744
0.866776
1.95832
0.580053
1.67146
1.63944
0.910945
0.57608
1.81943
1.52785
0.483451
1.94525
1.20397
1.81071
1.39805
1.58118
0.957392
1.19588
1.21567
0.821287
1.12526
1.97837
1.92384
0.630214
1.70352
0.541189
1.99115
1.27553
1.99871
1.01889
0.418864
1.37776
0.640254
1.52819
1.93836
1.64553
0.989329
0.600233
0.556385
1.18055
0.874928
1.54203
1.07835
1.53878
0.68938
0.662782
1.18451
482 479
209 325
426 422
33 150
378 171
340 453
289 421
455 433
59 4
318 387
63 99
115 58
383 341
395 216
405 207
271 372
41 191
309 500
314 38
146 91
412 230
495 433
277 241
278 253
77 370
496 106
93 57
496 197
142 402
382 372
270 253
148 171
114 496
283 129
28 223
91 15
204 179
432 139
400 38
257 405
122 384
339 175
39 27
107 202
483 241
183 51
248 213
152 382
29 411
96 153
3303.75
4
