50
5
0 0 0 0 0
36 56 85 13 23
39 49 56 77 96
47 69 10 85 31
78 77 47 100 19
60 54 92 64 16
81 42 64 74 62
65 20 90 49 35
82 12 92 38 63
82 82 94 53 34
98 97 42 14 63
22 64 37 12 76
95 48 75 35 11
42 20 16 58 96
99 42 86 41 55
19 60 23 20 90
66 25 69 66 47
82 81 87 88 72
19 20 17 99 39
22 66 45 73 55
44 48 44 86 99
60 19 45 59 42
36 77 65 100 44
94 94 22 88 12
54 61 86 22 96
19 73 26 19 17
42 62 41 88 41
47 91 38 96 65
39 83 51 93 39
79 68 18 45 88
77 65 88 48 35
37 97 59 95 31
33 69 78 53 33
44 63 26 24 14
67 64 35 25 68
24 42 72 59 46
64 51 60 82 37
80 37 32 26 22
94 18 35 63 83
53 67 11 66 21
24 83 73 86 16
41 46 38 68 46
60 11 41 31 66
54 30 44 65 58
30 45 44 79 96
17 86 38 64 47
21 77 11 79 19
66 62 94 98 62
33 54 99 34 70
66 63 30 17 51
0.621308
0.456401
0.200995
0.724835
0.797302
0.724002
0.21326
0.95222
0.95183
0.645865
0.870728
0.556713
0.397518
0.308434
0.277502
0.276152
0.790308
0.874117
0.332416
0.679473
0.365689
0.670272
0.892368
0.574741
0.409976
0.98383
0.951672
0.548516
0.760611
0.367447
0.784271
0.675554
0.328484
0.671018
0.258833
0.622935
0.86846
0.423995
0.728251
0.902251
0.398833
0.283527
0.666216
0.407304
0.610373
0.471318
0.269398
0.919897
0.961424
0.618632
111 338
187 419
40 229
183 153
416 203
356 66
393 356
5 58
432 500
348 498
463 39
346 249
497 390
172 101
115 119
367 369
417 270
223 103
125 313
126 106
157 158
488 340
105 430
113 108
352 192
219 323
409 10
358 359
397 390
303 241
311 357
259 274
232 464
298 397
159 307
442 30
114 354
31 223
90 242
265 216
231 279
85 7
415 94
428 423
205 408
108 235
11 93
282 256
393 48
50 338
4451.67
3
