50
3
0 0 0
95 45 89
20 69 40
64 77 100
84 83 66
35 72 88
11 29 69
91 90 41
28 69 52
13 16 24
34 52 54
30 99 26
19 72 75
73 65 85
60 49 34
37 17 44
38 24 18
59 80 15
48 59 62
99 53 21
46 42 23
38 11 78
99 92 50
76 25 95
13 74 94
92 59 60
73 64 36
70 86 58
70 87 23
25 77 10
21 36 33
46 52 26
20 20 66
17 26 31
91 18 94
80 78 88
86 37 58
43 94 20
56 53 56
12 34 82
34 99 60
63 89 52
91 88 96
30 15 99
79 67 80
31 60 48
90 14 15
62 17 65
12 28 38
51 57 35
0.208822
0.842958
0.949635
0.525175
0.296921
0.437348
0.38861
0.699557
0.581394
0.705538
0.290665
0.473258
0.832283
0.863237
0.376803
0.401492
0.231875
0.440665
0.28612
0.384954
0.869518
0.295579
0.922505
0.813212
0.343956
0.503518
0.72339
0.900613
0.968385
0.296329
0.490587
0.608547
0.454978
0.466163
0.443075
0.557827
0.912478
0.71267
0.921802
0.716791
0.832128
0.522624
0.268564
0.253661
0.747261
0.383845
0.647754
0.622447
0.674997
0.752291
212 391
136 293
474 226
436 481
451 182
467 44
383 457
160 146
125 12
142 238
4 36
85 84
159 165
299 56
469 5
197 83
66 31
459 308
60 226
298 164
226 393
451 248
56 197
440 414
433 269
23 154
170 4
160 52
310 427
301 244
414 182
492 75
53 6
134 58
294 307
209 409
219 111
196 175
1 48
407 185
57 460
122 105
433 497
247 64
153 484
198 297
152 135
144 415
285 134
152 478
13240
1
