50
3
0 0 0
71 71 68
83 94 99
55 15 81
29 25 29
12 35 41
17 23 65
77 69 40
25 71 75
18 83 93
45 30 35
21 23 57
12 77 83
10 17 31
13 50 59
82 41 99
27 36 78
12 17 19
59 31 69
17 13 61
39 52 49
46 40 99
56 61 68
13 98 45
41 55 29
21 14 74
27 28 100
34 40 11
77 66 47
33 37 25
45 31 40
94 11 41
26 69 78
97 34 93
58 94 54
44 75 73
39 92 16
50 94 76
55 60 91
23 85 68
30 85 60
95 52 60
72 86 14
42 44 51
67 57 73
25 74 85
21 51 32
64 47 20
87 30 68
43 18 19
0.873901
0.972525
0.600985
0.670049
0.577399
0.226217
0.545564
0.810709
0.611307
0.687971
0.56002
0.675306
0.33439
0.444255
0.403864
0.306284
0.859492
0.21817
0.384343
0.69679
0.868371
0.39107
0.274743
0.245291
0.897046
0.659825
0.227984
0.50256
0.624939
0.84804
0.209218
0.845113
0.614351
0.958649
0.751903
0.713395
0.288351
0.565822
0.623636
0.698393
0.990468
0.599841
0.546128
0.996085
0.278639
0.622591
0.771113
0.522595
0.884221
0.557609
251 346
399 354
138 378
370 291
337 56
404 8
45 127
376 394
65 263
245 251
114 288
460 276
344 191
170 215
389 434
499 300
110 15
135 471
107 312
136 11
306 50
411 49
335 290
130 320
319 6
298 446
456 410
52 185
323 49
239 401
278 285
309 480
242 379
176 203
45 485
341 491
339 33
423 366
256 350
426 422
172 1
210 77
87 65
353 10
418 296
83 123
184 145
391 118
489 268
113 67
3121.25
4
