50
11
0 0 0 0 0 0 0 0 0 0 0
99 61 32 57 40 33 37 36 57 90 40
83 45 29 33 35 91 91 94 29 32 75
97 40 68 30 46 11 31 88 27 98 49
60 100 68 98 96 55 11 25 75 71 67
78 76 62 89 76 99 53 55 22 95 86
80 43 19 39 86 32 51 17 43 77 21
34 44 96 84 17 52 86 44 85 100 34
60 48 37 54 41 47 25 99 20 21 60
92 68 94 13 64 90 98 72 39 75 30
43 63 46 42 56 92 81 89 34 16 48
75 93 69 99 50 28 69 14 86 38 93
61 84 57 99 71 83 87 92 86 39 43
43 55 15 83 54 49 40 22 74 37 15
82 67 12 16 71 24 50 90 16 95 60
51 86 87 60 41 41 62 55 87 37 85
36 40 18 59 25 48 33 49 99 71 40
57 24 74 84 78 61 91 25 99 72 56
23 27 48 77 100 91 40 32 81 86 33
62 27 32 62 76 23 79 41 76 16 40
53 81 37 61 47 59 71 40 60 92 92
99 87 21 86 45 74 73 67 80 72 79
55 15 47 92 76 30 92 31 68 34 12
42 60 71 77 83 10 53 56 32 29 61
78 51 49 10 90 69 21 29 21 57 21
44 63 23 20 65 40 40 37 70 84 44
43 66 15 20 23 58 70 28 40 82 48
82 16 35 57 92 91 96 23 10 50 54
77 45 84 28 89 68 41 40 27 27 33
54 13 34 38 45 100 87 66 86 71 63
97 58 30 82 32 45 63 82 51 31 51
90 91 39 15 75 77 63 53 83 11 90
61 69 44 91 28 56 51 54 35 40 27
85 34 49 46 74 52 93 59 80 100 72
82 83 98 63 77 90 33 38 81 42 58
35 80 47 51 36 43 55 38 35 99 45
50 21 62 16 38 87 24 36 93 82 98
37 89 98 93 72 39 31 92 74 89 17
56 15 19 98 12 91 61 42 32 92 61
45 32 74 38 16 71 20 76 40 21 48
42 31 58 55 14 48 21 21 88 11 25
38 73 78 34 69 20 54 16 98 73 48
20 11 33 41 73 42 74 36 31 78 78
88 30 13 81 19 61 77 37 58 89 81
77 27 11 43 73 62 87 54 76 49 27
11 12 63 82 40 97 77 87 82 70 94
85 25 69 13 24 22 94 93 12 53 13
78 29 27 94 77 33 36 25 80 93 17
27 30 49 76 69 24 73 73 46 41 44
24 15 88 64 22 13 52 67 90 14 92
0.636265
0.765415
0.359391
1.39448
0.444795
0.375016
0.848878
0.689008
1.1356
0.650523
0.435011
1.00168
1.49924
0.957968
0.358685
0.47169
1.22385
0.567472
0.696613
0.322489
0.447856
0.964886
0.698438
1.0369
0.57698
1.07677
0.684244
0.477481
1.0777
1.44263
0.960282
1.24455
0.8911
1.44514
0.353195
1.25377
1.04637
0.697861
1.088
0.979693
0.917492
0.542528
0.514283
0.428526
0.390069
1.17453
0.645705
0.891003
1.14069
0.72619
311 280
80 214
387 385
311 269
217 361
284 173
323 289
438 486
283 193
255 127
144 153
139 201
466 45
203 137
235 90
372 450
319 453
24 315
280 343
179 192
468 451
412 281
252 164
225 9
18 227
155 152
188 201
67 188
298 425
176 313
138 47
133 134
76 98
478 354
342 409
11 284
312 318
410 59
465 315
302 49
211 117
399 235
282 337
7 447
340 468
16 355
118 35
206 116
459 30
445 57
4538.33
3
