50
3
0 0 0
51 100 36
22 15 99
85 92 35
68 100 16
84 17 79
89 47 28
20 99 60
74 44 46
91 77 19
42 18 49
32 44 22
58 77 50
24 39 13
35 71 27
96 48 29
39 16 91
44 37 89
63 48 67
78 50 82
74 48 61
89 67 89
65 53 63
49 97 77
41 26 56
98 17 19
78 39 43
77 25 56
27 22 95
58 74 29
48 88 83
15 34 23
77 65 32
52 18 49
54 76 33
75 27 49
42 34 58
89 99 11
61 89 37
23 45 11
53 42 69
84 14 96
35 15 43
46 22 40
34 81 66
27 52 30
68 10 64
39 62 52
34 65 37
68 22 100
1.68479
1.75576
0.601426
2.33975
1.5827
0.873334
0.948794
1.30046
1.40396
2.35405
2.29057
0.628841
1.15703
0.966121
0.742159
1.25012
1.59021
1.83873
1.22029
2.47435
0.833415
0.707844
0.932471
1.87907
1.05831
1.09985
2.35959
2.4589
1.08399
2.0987
1.99633
1.32684
2.09215
2.16131
1.3811
2.33078
1.0852
2.145
2.42946
2.45014
1.55256
1.41697
1.65024
0.626962
2.38343
1.12305
1.54103
1.99102
1.12922
1.79866
52 460
474 449
408 244
256 330
326 55
65 451
126 81
368 57
457 440
236 208
58 29
325 117
314 445
472 354
241 71
461 363
76 290
251 190
82 342
249 138
96 252
397 167
373 18
434 109
103 232
185 85
351 242
455 78
247 381
126 455
482 428
452 271
388 103
390 281
2 33
416 297
428 304
313 262
306 392
237 57
236 27
18 108
365 471
397 284
370 120
127 453
293 389
458 94
232 21
414 349
6457.5
2
