50
11
0 0 0 0 0 0 0 0 0 0 0
25 55 34 49 58 71 59 42 41 59 22
56 74 80 24 67 86 53 72 15 23 28
89 87 26 48 19 35 41 16 18 94 24
91 91 16 14 89 75 50 61 93 52 79
63 49 97 40 11 80 29 100 65 88 45
21 74 90 100 98 14 39 41 90 15 93
78 100 92 34 79 46 31 50 77 75 65
35 77 97 41 92 53 83 96 19 42 89
35 77 78 51 23 17 77 75 90 92 55
72 71 49 56 41 83 11 76 11 61 60
91 60 25 38 22 45 51 59 74 35 38
45 58 67 45 26 46 64 38 87 19 32
88 20 75 32 14 19 97 85 42 26 35
65 22 52 87 39 17 83 63 58 22 27
13 16 86 59 100 46 41 52 78 35 74
64 80 27 56 29 11 100 92 13 14 76
66 78 38 89 91 86 55 35 82 66 42
89 57 32 27 11 75 79 63 25 96 65
38 99 81 21 55 23 80 40 97 98 41
63 90 87 87 54 99 88 61 17 31 19
61 14 43 98 46 71 38 95 87 27 100
72 41 27 88 72 74 76 95 36 76 55
37 45 24 30 70 40 70 23 60 38 92
96 39 69 18 51 78 21 15 14 93 65
99 67 21 17 27 65 45 32 50 65 72
27 83 91 27 87 81 44 72 74 33 19
57 74 16 68 27 99 63 11 41 41 79
86 89 71 65 55 45 26 72 35 69 22
32 46 98 97 74 76 47 46 30 65 31
33 79 91 41 47 10 88 66 76 79 54
82 35 66 84 43 29 62 27 75 79 31
87 76 10 99 88 48 79 36 78 66 57
83 79 78 84 43 43 97 64 75 95 18
32 26 37 36 52 37 51 32 38 46 76
12 54 46 24 45 53 70 16 56 77 34
78 95 12 100 59 29 85 66 74 100 92
88 68 75 96 20 49 43 77 45 83 30
57 55 49 53 52 29 80 67 31 34 74
15 65 19 49 89 18 61 62 50 98 95
18 44 100 55 53 94 87 75 46 36 78
57 47 68 32 19 73 52 21 59 36 44
32 21 81 17 72 72 62 61 32 45 84
64 36 52 10 68 57 29 59 73 57 25
61 18 11 91 78 43 73 88 53 46 10
77 51 45 21 75 18 40 23 18 40 14
97 35 88 81 58 44 23 49 90 49 17
98 78 57 89 94 10 85 36 56 97 68
26 77 19 79 82 19 36 16 80 95 34
20 26 37 60 69 46 100 87 98 78 39
0.216442
0.207423
0.370488
0.22539
0.413348
0.279217
0.213757
0.361098
0.185911
0.20552
0.320806
0.239445
0.2548
0.21022
0.41733
0.26755
0.267995
0.245624
0.483755
0.186981
0.217786
0.461692
0.285395
0.43183
0.414133
0.307369
0.291748
0.234796
0.393498
0.115542
0.221999
0.459183
0.464716
0.173802
0.198355
0.146487
0.167563
0.244665
0.145209
0.370413
0.368868
0.118537
0.381461
0.368281
0.447407
0.365232
0.487445
0.37097
0.240573
0.265871
295 162
293 353
14 80
436 100
309 228
94 382
282 492
87 194
46 499
274 117
192 290
309 306
285 279
177 354
191 219
486 195
357 332
136 210
143 49
62 19
129 48
65 118
306 253
470 235
389 405
80 348
11 145
374 150
381 45
445 162
470 18
394 161
99 331
349 172
170 421
386 178
205 492
22 366
459 156
221 426
127 304
127 270
270 465
495 262
270 272
149 253
41 414
319 461
292 60
376 227
3430
4
