50
11
0 0 0 0 0 0 0 0 0 0 0
46 56 67 46 69 22 89 92 68 73 77
65 95 62 99 79 72 60 87 89 11 75
45 36 73 61 71 97 44 93 82 79 72
82 88 59 55 66 58 62 15 52 89 55
62 47 31 46 27 80 29 20 45 55 12
92 60 82 89 43 72 72 25 20 52 36
27 26 99 67 24 43 80 22 29 35 33
74 50 98 27 40 68 89 71 60 89 77
22 21 69 89 89 75 16 14 45 70 52
83 62 75 74 40 46 49 31 17 100 52
97 80 98 65 66 51 59 78 91 29 46
17 16 51 58 99 82 80 65 11 96 45
63 28 100 33 69 16 67 62 86 81 19
48 29 93 80 58 38 50 68 14 18 38
15 88 25 46 81 22 74 12 83 69 100
65 67 41 83 28 94 69 54 64 47 96
93 65 99 83 22 89 15 44 48 69 48
24 25 91 10 15 85 96 57 93 10 50
44 71 71 65 26 22 13 72 14 92 33
38 72 64 97 12 34 76 56 51 91 70
17 90 87 22 59 87 28 91 60 62 19
86 12 88 11 21 76 47 91 75 45 33
31 28 14 46 82 96 82 43 28 19 76
27 84 67 88 20 18 46 12 26 98 81
91 18 65 91 16 70 55 35 60 31 26
55 58 100 12 94 95 36 90 64 64 76
46 84 78 73 87 87 79 81 71 95 100
36 69 42 44 17 42 85 38 27 18 62
47 89 25 56 26 72 100 60 48 41 74
70 55 36 99 94 39 31 23 96 46 75
55 69 21 19 68 80 82 12 16 60 26
81 97 93 45 60 61 55 57 76 11 32
77 11 55 22 90 66 81 57 20 50 20
49 92 60 76 64 13 82 38 17 29 58
42 20 66 62 65 39 69 90 99 61 90
25 82 55 35 22 30 16 17 61 94 45
65 80 21 91 21 61 85 100 15 48 97
44 87 70 82 17 57 59 96 32 83 47
29 79 76 67 61 68 74 13 79 71 81
71 45 56 45 29 100 35 15 19 70 62
45 27 66 31 68 20 57 28 65 70 23
78 63 64 13 54 80 46 28 100 27 87
36 94 11 57 70 69 88 45 58 84 10
14 92 77 85 69 40 41 94 28 58 30
27 36 77 86 89 52 68 93 38 45 38
42 84 62 86 97 94 34 86 74 58 46
60 67 75 13 45 47 100 61 10 87 21
26 98 65 35 83 47 54 48 90 32 65
77 30 20 66 97 59 23 33 17 38 89
0.665772
0.831339
0.582374
0.343902
0.61964
1.15468
0.736985
0.85764
1.00644
1.27771
0.781045
0.521446
0.590104
0.354741
1.05624
1.40921
0.936963
0.728978
0.317817
0.607534
0.336964
1.46738
0.431881
0.466374
1.37374
1.10936
0.465351
1.10019
1.23846
1.36855
0.822798
1.45975
1.14321
1.16459
0.519601
0.530827
1.11493
0.709741
0.356231
0.93337
1.1674
0.729033
0.609794
0.762897
1.45582
1.32706
0.624595
1.17473
0.304917
1.10685
190 290
210 496
162 483
325 78
482 96
160 266
395 88
185 97
435 220
72 308
16 284
279 68
276 54
340 302
65 421
369 362
119 320
468 33
439 497
453 104
345 425
258 339
322 16
162 318
343 431
186 112
103 192
225 227
109 281
61 106
239 90
160 399
212 345
91 98
61 266
368 211
182 496
146 416
250 379
483 451
443 134
403 242
67 473
23 71
484 370
60 18
226 111
18 193
393 9
105 217
4648.33
3
