50
3
0 0 0
88 61 17
74 26 11
14 92 10
92 47 90
68 77 28
44 84 51
66 14 29
46 91 27
80 92 67
24 12 77
31 54 32
13 14 94
82 87 50
35 100 70
37 67 95
72 53 82
23 13 37
58 14 28
74 31 85
76 93 47
52 54 24
55 24 25
16 39 89
53 69 36
99 67 94
58 25 44
72 92 46
98 58 72
39 28 32
86 22 62
37 30 26
74 55 72
36 98 47
63 63 48
85 20 61
48 49 90
99 44 46
83 85 26
24 24 89
53 22 65
63 46 53
49 82 20
72 34 55
11 18 12
86 44 61
55 76 56
21 61 100
45 37 56
34 96 88
0.344755
0.465133
0.110686
0.141108
0.381698
0.243515
0.234672
0.472256
0.261717
0.480832
0.219739
0.446844
0.349142
0.181678
0.466481
0.269739
0.110013
0.161067
0.187901
0.353372
0.181863
0.455779
0.228315
0.27384
0.212117
0.120479
0.258894
0.219958
0.274832
0.210812
0.382735
0.40739
0.400019
0.313209
0.172675
0.253846
0.434598
0.425039
0.416813
0.401987
0.204926
0.143513
0.263908
0.28725
0.12645
0.449334
0.476923
0.311189
0.373906
0.466281
365 496
7 253
24 407
357 216
364 433
374 461
102 492
311 237
156 185
304 366
347 92
383 428
229 235
448 210
343 461
170 377
378 199
321 99
2 297
3 142
239 483
28 352
323 391
125 215
6 224
33 219
143 112
157 346
479 203
233 252
216 164
477 400
113 198
40 347
221 286
495 99
198 291
20 381
148 98
37 302
418 375
391 483
460 32
260 311
160 398
281 386
197 268
376 147
152 79
394 332
6640
2
