50
7
0 0 0 0 0 0 0
17 55 62 69 22 96 81
62 49 88 94 77 96 25
19 56 96 82 95 13 37
68 92 25 92 23 71 83
87 49 14 92 60 79 58
92 77 85 56 26 87 61
28 28 26 54 90 55 46
79 25 85 44 45 44 34
82 15 25 88 92 92 13
88 44 94 10 28 59 17
86 74 65 98 91 43 29
39 15 70 85 54 53 62
99 26 32 19 48 14 69
15 85 65 13 28 65 85
16 32 97 40 44 32 49
67 50 52 60 83 73 81
35 32 15 55 100 100 77
16 55 73 67 32 60 82
43 28 65 78 66 79 63
48 44 30 58 73 63 29
84 39 73 20 71 89 28
53 39 32 39 59 23 29
63 93 47 48 51 54 20
21 79 32 35 42 36 71
82 84 17 29 66 47 32
16 68 99 91 62 81 64
36 26 69 53 54 17 58
13 75 34 45 58 91 28
17 86 14 38 10 55 16
54 80 39 37 31 91 100
12 80 55 93 98 23 64
61 10 70 60 96 67 98
38 45 58 99 24 57 40
81 52 26 25 86 42 56
30 92 67 71 57 57 61
18 19 61 73 68 29 49
27 33 77 25 10 25 97
24 49 56 18 19 80 92
52 80 72 37 19 16 87
53 27 42 100 43 84 93
96 92 52 65 49 21 60
30 33 52 66 27 72 86
53 51 12 57 53 39 19
79 16 50 14 47 75 58
82 82 69 81 97 54 14
25 54 80 88 82 79 70
26 99 95 19 16 21 30
78 70 49 16 51 69 73
59 49 55 14 77 53 24
0.978201
0.784048
0.33504
0.372681
0.740743
0.958634
0.613982
0.729651
0.897133
0.832316
0.595217
0.991019
0.354348
0.34578
0.785818
0.465259
0.743244
0.955348
0.411109
0.827331
0.91282
0.695394
0.31178
0.695325
0.884192
0.728558
0.376689
0.275969
0.765832
0.963224
0.788359
0.674842
0.967986
0.253243
0.863771
0.798818
0.594437
0.247465
0.675176
0.425859
0.349566
0.852491
0.565281
0.32033
0.610192
0.863736
0.760558
0.516863
0.885582
0.209562
427 219
209 483
100 373
159 367
201 140
350 125
53 111
97 26
394 444
494 106
468 350
288 70
42 120
468 296
161 239
389 154
210 102
76 203
303 361
351 391
197 386
409 276
28 239
361 268
159 146
312 399
115 313
433 116
4 79
106 118
305 464
498 314
81 175
184 233
135 343
38 238
361 217
363 319
123 441
385 427
10 231
188 422
262 148
214 394
281 382
146 295
195 395
351 348
388 272
102 500
3343.75
4
