50
5
0 0 0 0 0
80 76 27 79 45
32 70 97 75 59
46 42 36 41 29
63 88 28 90 30
55 96 59 68 52
79 37 91 49 36
82 42 24 66 83
63 30 99 89 31
69 36 96 90 46
23 52 27 33 78
91 77 42 19 88
95 25 13 22 10
47 26 88 70 23
75 72 66 80 91
10 46 91 74 72
79 38 44 13 84
23 83 61 86 35
21 92 57 10 26
69 21 97 20 86
20 71 75 35 59
81 46 66 31 60
18 81 31 73 38
72 21 49 71 77
65 75 53 13 33
92 39 100 52 18
70 38 20 67 19
84 65 62 34 54
50 47 40 75 47
64 73 21 90 54
90 47 18 26 54
93 19 34 17 100
99 79 31 26 92
39 88 13 46 94
67 73 58 68 96
30 94 21 61 25
25 25 98 27 84
49 16 33 47 21
37 69 63 93 18
75 68 43 71 26
29 75 20 84 19
60 10 48 69 78
30 88 63 12 41
58 63 52 32 88
12 22 63 53 85
71 100 32 84 42
36 83 96 89 12
51 43 86 52 23
54 33 40 12 34
31 33 22 57 79
0.25706
0.460777
0.282779
0.372194
0.203244
0.419593
0.115835
0.499709
0.427666
0.174807
0.453366
0.108626
0.193462
0.250057
0.358541
0.313258
0.230982
0.228955
0.209096
0.265375
0.234083
0.224468
0.161994
0.136685
0.403438
0.22136
0.248063
0.478768
0.417333
0.294444
0.137553
0.461113
0.203948
0.187501
0.285898
0.473805
0.277437
0.434175
0.132892
0.429843
0.303309
0.451704
0.457932
0.277103
0.100116
0.408207
0.430879
0.323376
0.464764
0.13436
216 283
21 16
177 376
210 273
284 411
469 414
44 22
495 149
177 59
399 432
443 210
97 73
230 199
373 373
377 440
490 400
186 64
430 115
367 425
387 208
437 214
345 286
434 351
148 469
283 72
81 127
76 200
1 176
433 202
107 349
153 53
130 356
352 92
22 243
222 465
218 78
487 15
120 493
294 359
17 149
208 166
418 427
190 314
171 249
147 231
39 175
355 160
185 460
290 98
274 217
4431.67
3
