50
7
0 0 0 0 0 0 0
62 59 79 100 44 76 30
62 35 98 89 36 87 80
44 59 14 57 50 42 45
43 10 54 23 31 71 71
14 62 81 48 90 57 73
99 89 34 66 45 27 55
38 54 96 41 61 26 29
54 80 46 71 71 76 20
87 34 81 68 67 21 84
21 45 98 78 92 84 60
66 49 96 64 37 33 23
100 44 88 70 24 69 85
12 79 100 47 53 63 32
49 59 43 20 41 59 28
22 51 80 33 64 20 21
60 68 79 51 35 74 16
24 53 49 83 96 85 59
46 76 91 15 79 60 45
37 35 27 83 40 48 48
98 85 19 30 36 20 30
25 34 84 14 81 66 34
18 87 28 36 45 67 16
77 92 98 88 28 64 82
42 46 41 77 55 74 36
90 100 66 60 14 74 93
35 51 35 51 60 60 38
58 93 25 92 29 73 81
80 40 31 44 91 80 27
56 64 13 15 30 89 64
80 67 33 36 14 93 48
76 12 92 73 38 57 73
30 91 85 59 83 15 67
28 60 84 79 81 74 97
71 85 83 86 89 15 34
41 85 10 79 40 23 28
61 38 18 82 57 74 33
71 16 90 61 71 45 96
61 66 58 84 45 42 25
10 85 81 34 34 96 66
86 45 30 46 64 59 44
68 24 14 62 79 21 89
58 32 57 100 89 20 87
68 67 99 43 15 10 43
46 47 37 99 96 38 97
99 42 21 41 40 36 36
97 15 14 70 59 57 90
86 61 30 51 42 62 10
24 81 23 71 84 58 34
27 74 60 41 70 43 56
0.100934
0.345146
0.184407
0.443131
0.360341
0.423353
0.319674
0.32266
0.399153
0.147982
0.446926
0.410712
0.262234
0.387072
0.328422
0.380343
0.45268
0.114433
0.270009
0.285581
0.344102
0.172737
0.322416
0.443484
0.31661
0.422434
0.354252
0.250756
0.410612
0.260411
0.35818
0.497937
0.393353
0.246507
0.152129
0.474619
0.193045
0.387808
0.111363
0.273322
0.407916
0.115884
0.324125
0.475422
0.243061
0.34001
0.169402
0.310528
0.167925
0.176066
261 325
75 75
332 231
167 436
2 208
137 61
8 59
421 345
294 399
252 429
116 148
398 368
232 490
109 226
428 14
60 0
115 419
444 362
14 346
70 142
355 183
483 64
79 402
182 345
166 187
230 202
187 383
253 436
423 180
254 299
299 99
31 191
221 16
387 189
88 233
338 152
240 134
37 230
281 288
129 224
348 145
458 365
468 337
395 240
125 251
412 255
280 347
206 388
377 165
469 19
6852.5
2
