50
7
0 0 0 0 0 0 0
52 26 64 80 23 38 95
30 54 88 34 20 83 17
49 37 51 89 30 40 68
51 24 83 43 15 26 20
52 78 94 24 44 99 98
68 32 13 92 67 16 89
24 35 25 49 99 65 49
71 96 56 98 57 12 21
89 38 51 45 66 72 18
83 27 43 22 52 89 19
81 19 97 47 82 32 27
38 41 86 61 10 49 19
25 80 37 75 73 18 13
11 10 35 29 50 45 64
92 13 57 33 54 12 40
60 99 88 29 64 49 46
57 59 87 96 40 46 82
19 15 62 29 15 22 22
16 39 72 50 38 98 25
45 84 70 72 47 69 69
87 35 39 20 89 52 38
79 13 22 69 63 62 46
57 32 43 75 27 88 61
41 19 54 16 55 60 82
64 29 16 73 93 74 46
58 83 71 46 62 57 62
75 91 59 70 29 87 93
38 98 40 20 88 60 60
96 37 17 90 18 84 55
33 18 44 83 29 77 12
31 58 40 80 15 75 36
10 90 53 31 19 47 46
95 83 13 69 66 97 82
19 28 49 16 97 40 93
78 71 35 30 47 15 13
30 38 91 49 66 79 14
42 93 47 70 39 59 43
10 90 91 61 19 67 78
74 45 19 98 83 58 27
97 40 79 82 82 81 22
84 62 24 56 34 95 90
29 18 16 35 28 42 19
61 10 19 65 85 64 27
17 72 22 53 97 63 29
82 13 51 100 40 51 44
40 82 83 16 79 63 14
83 32 73 72 63 78 16
90 76 77 37 69 43 45
67 81 89 76 55 82 100
0.623481
0.309974
1.40508
0.645555
0.30212
1.22723
0.954583
0.912693
0.714429
0.337401
0.728147
0.898511
0.675917
0.784505
0.563717
0.810245
1.18123
1.31339
0.730076
1.24128
1.27694
0.542878
0.749341
1.13298
1.43924
1.48279
1.49171
1.00704
0.807571
0.891257
0.386363
1.35287
1.46114
0.890995
0.452598
0.681329
1.29891
0.66512
1.29378
1.08625
0.408242
1.35076
1.39325
0.909414
0.874851
0.927473
1.11026
0.873026
1.428
0.347972
476 146
203 42
248 169
178 316
318 359
128 460
181 410
224 232
398 101
86 173
291 254
159 423
194 483
449 189
449 408
455 58
458 227
27 170
315 170
399 431
77 278
110 373
251 443
473 305
342 146
30 170
449 190
288 170
343 435
350 384
488 454
236 419
241 68
94 483
249 205
201 242
151 336
464 269
450 331
422 10
492 378
52 241
388 241
46 7
227 92
184 265
187 380
384 429
109 21
317 483
4348.33
3
