50
11
0 0 0 0 0 0 0 0 0 0 0
62 34 53 93 93 96 74 83 28 65 66
69 33 11 96 59 22 51 20 38 55 36
21 34 31 17 22 91 54 71 25 79 68
99 29 83 29 99 45 76 64 55 51 31
12 15 88 16 16 77 10 76 70 96 26
45 96 57 98 54 54 45 29 89 58 35
96 16 61 62 31 100 13 100 70 89 30
59 18 43 80 71 93 79 81 29 99 58
65 80 35 98 73 62 41 86 58 29 51
88 48 18 33 16 96 28 37 31 19 49
80 96 33 22 11 66 60 55 64 72 89
76 58 50 34 91 10 58 40 90 46 96
87 12 96 25 13 38 64 13 43 53 60
72 30 77 94 50 38 79 24 64 63 94
55 71 20 96 64 39 20 90 73 31 10
93 75 34 88 65 92 57 65 92 20 10
20 35 99 41 81 74 55 97 27 56 41
84 30 91 99 40 51 11 14 74 63 55
44 97 67 63 73 85 40 54 91 14 74
83 44 87 89 99 63 42 84 46 45 81
87 68 21 37 27 88 29 12 73 33 94
10 57 20 48 52 73 38 21 89 29 22
48 77 91 59 61 30 10 23 11 16 60
67 52 79 14 12 22 54 76 63 82 83
60 27 47 19 27 99 61 38 39 11 76
18 45 76 34 73 60 31 42 74 83 59
35 41 66 30 99 76 77 13 30 14 15
91 68 28 29 97 95 86 28 93 10 59
15 24 19 98 24 90 46 45 91 18 57
29 21 95 71 63 70 92 22 97 73 58
13 64 47 20 79 95 90 37 58 45 16
34 14 69 63 100 13 72 62 38 16 81
20 56 86 26 25 61 11 20 78 48 39
54 95 65 62 69 87 75 55 30 22 95
23 77 65 48 63 80 56 84 96 95 88
37 94 99 91 38 87 94 84 54 94 97
15 13 97 34 76 50 43 16 28 76 60
29 41 37 31 18 75 55 22 53 89 48
18 69 57 12 22 22 56 25 31 91 32
57 24 30 35 97 63 38 62 19 70 56
25 10 61 93 18 10 90 77 95 43 43
30 57 91 25 46 54 66 75 70 68 93
84 71 91 100 88 38 51 89 41 66 46
97 52 10 90 27 32 75 36 16 64 24
46 74 36 34 67 32 52 30 72 34 97
40 47 78 79 78 30 48 99 90 15 64
75 63 89 91 55 77 96 11 93 43 11
63 19 75 54 21 55 47 94 26 27 45
100 88 72 49 25 80 82 50 44 91 12
0.215247
0.458103
0.429285
0.494631
0.410309
0.369249
0.323292
0.44274
0.183878
0.160213
0.353282
0.319892
0.169564
0.108217
0.148752
0.249678
0.264695
0.41441
0.140139
0.43391
0.47118
0.203563
0.163345
0.28095
0.206491
0.475107
0.144597
0.207962
0.266117
0.44668
0.428883
0.410526
0.488349
0.428568
0.225922
0.384512
0.324383
0.28836
0.461432
0.329524
0.228473
0.472796
0.401931
0.466371
0.449375
0.341214
0.374596
0.436313
0.374081
0.250232
256 469
478 224
373 488
384 488
151 291
272 267
129 26
198 480
406 131
324 71
139 494
18 358
283 491
148 262
70 67
185 183
123 254
264 252
133 217
34 190
77 251
328 165
496 54
41 262
81 398
345 263
473 74
4 272
428 324
171 389
384 209
208 415
2 78
491 30
412 257
190 261
237 275
306 142
14 247
478 384
31 174
144 199
302 127
271 19
207 371
148 303
200 78
47 430
104 192
442 195
6770
2
