50
3
0 0 0
47 77 95
47 39 68
30 24 28
74 94 72
36 94 51
52 53 23
35 24 50
29 94 21
41 76 87
51 92 16
45 89 34
49 28 14
48 25 92
42 25 19
89 51 79
58 74 68
41 38 18
39 54 28
93 48 78
54 62 72
47 32 98
48 74 49
42 48 67
93 58 73
65 18 31
46 53 17
87 52 75
61 57 42
78 71 38
38 56 83
55 67 23
29 12 59
79 63 16
16 69 30
44 34 17
61 89 39
35 89 80
27 60 77
52 62 24
88 36 62
83 42 26
93 27 20
41 45 56
74 35 82
35 79 94
44 38 27
14 12 33
69 12 70
52 37 45
0.459784
0.146175
0.141004
0.303239
0.40283
0.422761
0.378831
0.114553
0.204413
0.2367
0.440193
0.37978
0.200843
0.263078
0.21414
0.404256
0.469089
0.426833
0.424864
0.124489
0.452173
0.252316
0.430164
0.418134
0.350038
0.129931
0.37723
0.29967
0.17828
0.263263
0.170552
0.271818
0.464247
0.379869
0.121316
0.177303
0.359068
0.360097
0.106836
0.402961
0.317662
0.46383
0.364182
0.171171
0.430098
0.342411
0.34057
0.219142
0.11924
0.292123
464 69
359 197
50 154
369 447
27 96
409 207
149 323
407 263
86 65
348 0
109 442
75 220
205 35
180 347
414 181
147 228
72 205
50 450
94 230
297 228
200 310
425 445
191 186
278 486
98 401
131 250
108 378
49 363
268 159
145 234
211 165
380 324
140 466
263 247
12 19
374 467
495 462
392 2
10 366
307 343
303 227
179 484
105 441
435 447
203 449
123 342
251 313
71 389
208 296
393 93
3187.5
4
