50
9
0 0 0 0 0 0 0 0 0
76 26 12 72 93 12 26 22 43
48 63 41 88 79 18 31 16 10
82 59 64 46 93 60 13 39 18
43 37 90 35 54 25 36 14 16
36 31 18 43 54 11 89 32 59
88 31 29 54 76 53 34 62 71
92 39 19 92 42 68 16 28 11
21 41 28 39 56 56 30 18 59
23 55 59 65 89 60 54 20 61
26 37 37 15 63 23 42 27 74
80 72 61 61 92 86 73 80 43
52 73 56 19 43 12 29 57 18
30 92 72 14 44 37 84 58 21
96 15 61 23 65 55 82 55 63
73 47 18 35 25 44 38 65 76
37 57 75 10 77 36 84 66 35
21 44 94 87 17 57 78 76 75
20 90 56 96 58 41 13 68 57
19 11 85 88 89 29 40 22 58
40 66 48 93 77 72 52 63 53
19 39 49 89 59 41 52 33 21
40 42 65 33 58 15 25 32 75
22 89 55 40 69 94 65 45 88
53 51 91 65 44 26 46 23 77
23 19 67 98 12 74 94 35 61
93 85 93 100 32 53 43 22 80
57 24 97 59 88 17 17 10 53
25 45 68 48 54 46 22 67 65
19 34 58 14 52 89 37 87 53
11 45 68 56 71 64 65 14 58
92 38 32 76 57 17 92 79 31
47 50 66 35 36 27 80 74 100
37 53 19 72 22 19 64 52 40
75 72 96 31 91 84 33 61 92
27 71 100 40 75 50 80 11 13
73 53 33 77 69 79 63 96 55
76 57 71 12 82 59 25 90 69
40 26 39 93 88 73 16 76 22
49 24 98 46 97 81 35 96 12
46 76 70 40 56 94 76 70 68
35 37 78 97 16 47 72 46 87
100 24 18 82 46 31 32 91 74
15 43 67 12 63 73 85 22 29
98 13 59 10 71 60 43 84 95
39 61 41 50 54 32 63 71 37
10 93 29 52 84 85 58 38 77
84 94 70 26 67 80 26 67 95
95 32 29 65 12 86 98 34 63
11 75 39 67 83 80 38 99 82
0.694527
0.782315
0.973516
0.612074
0.448638
0.709007
0.686242
0.672744
0.398698
0.967373
0.968251
0.272934
0.48463
0.441743
0.956586
0.57856
0.21593
0.477789
0.902914
0.491153
0.62992
0.670571
0.254822
0.937262
0.684794
0.75956
0.271157
0.490167
0.266081
0.562776
0.684741
0.900888
0.931772
0.539643
0.402249
0.359983
0.246534
0.903944
0.460491
0.75956
0.862274
0.289935
0.419592
0.40822
0.620281
0.459618
0.239853
0.269085
0.917641
0.357303
262 186
378 189
54 159
431 24
406 482
67 83
261 328
147 311
420 30
156 4
128 267
179 233
489 120
9 418
356 284
232 394
326 298
399 442
460 191
432 40
366 412
312 147
25 435
419 329
169 160
375 157
360 229
464 1
327 326
192 211
358 143
172 293
440 476
212 127
376 44
72 258
251 331
68 377
225 287
478 0
475 57
466 211
150 82
255 274
477 113
461 481
311 289
163 488
277 319
286 3
2614
5
