50
5
0 0 0 0 0
88 68 98 73 91
30 62 46 75 97
55 68 49 47 77
78 52 93 88 91
39 61 16 65 10
67 48 33 60 15
76 31 66 75 81
79 87 34 35 33
18 28 54 52 70
94 46 88 37 99
95 83 84 84 10
21 67 24 79 59
77 10 14 96 58
70 68 41 54 87
90 52 26 17 16
55 87 61 19 26
30 77 28 36 88
94 73 57 41 15
87 75 70 78 16
18 53 94 72 75
46 46 65 52 53
91 42 75 82 75
79 53 76 34 62
83 19 27 67 80
98 35 63 38 48
43 43 85 98 85
73 64 36 46 87
27 61 95 32 74
100 25 72 43 69
52 19 44 64 34
39 92 93 100 75
22 36 50 44 45
60 81 81 98 28
93 30 52 18 99
33 40 93 13 33
98 77 16 15 36
92 79 63 10 44
31 48 29 39 94
91 27 53 66 12
31 95 77 82 58
92 94 50 63 87
88 32 38 13 53
86 69 43 39 25
40 48 93 79 95
100 39 38 58 82
87 82 29 88 48
34 40 62 85 34
86 32 53 23 23
27 63 90 72 47
0.349372
0.320009
0.380165
0.299329
0.329749
0.426045
0.409533
0.111218
0.38803
0.289201
0.256406
0.334739
0.401192
0.444064
0.450311
0.333328
0.120795
0.441045
0.115839
0.451408
0.365254
0.35619
0.100481
0.242027
0.230194
0.277918
0.311466
0.334739
0.252014
0.255582
0.336642
0.335239
0.485489
0.160081
0.25273
0.230598
0.117759
0.349696
0.241719
0.103799
0.449773
0.372963
0.247609
0.341949
0.396449
0.420378
0.425475
0.469676
0.325605
0.475101
126 493
351 262
206 407
195 376
81 9
253 18
299 25
271 336
491 446
94 402
130 104
487 247
315 381
255 56
266 73
498 318
411 472
477 189
31 27
153 6
98 344
11 472
40 302
275 22
174 137
449 163
494 273
388 266
260 24
43 331
170 363
471 234
246 379
329 480
428 453
442 430
2 86
181 220
43 199
335 433
74 408
102 157
146 341
227 369
14 399
432 144
370 301
294 297
79 383
124 334
2850
5
