50
3
0 0 0
13 45 71
82 52 100
92 41 12
80 64 71
96 65 62
69 43 88
73 75 81
77 71 33
83 94 66
26 84 27
76 85 98
58 89 60
43 59 74
46 72 99
12 42 65
87 14 72
15 91 57
21 49 14
39 14 25
77 38 11
52 34 100
83 66 77
72 93 41
55 68 21
83 32 99
85 33 94
62 11 70
29 10 33
48 65 50
81 73 20
30 89 61
13 21 54
79 87 96
41 56 55
27 58 70
24 47 73
23 75 72
60 87 32
10 74 64
72 35 85
66 90 73
78 49 93
43 83 93
100 67 17
14 58 35
87 58 77
45 100 12
100 38 37
87 46 61
0.828194
0.332797
0.867964
0.770762
1.12389
0.811602
0.972601
0.338823
0.682376
1.01944
1.49969
1.094
1.42749
1.28612
0.453455
0.722131
1.44987
0.886776
0.463603
0.879006
0.84678
0.454078
0.609306
1.35338
1.49804
0.914515
1.15327
0.564872
0.86248
0.632774
1.46919
0.965034
0.454691
1.34352
0.856186
0.979681
0.468417
0.799255
0.697023
0.714767
1.31558
0.408857
0.921602
0.382245
0.959377
0.878403
1.09233
0.455967
0.790743
0.932054
67 22
406 235
426 465
267 69
308 405
240 481
228 494
366 450
460 263
368 70
341 499
117 488
212 365
386 25
340 155
228 379
478 455
478 308
363 133
471 18
159 347
193 255
143 208
299 322
72 476
422 317
240 398
53 404
332 165
73 164
315 376
479 17
80 332
448 404
95 335
241 289
16 215
160 295
103 139
344 15
43 156
266 385
55 9
309 475
6 201
134 440
145 384
211 259
204 279
117 476
2885
5
