50
9
0 0 0 0 0 0 0 0 0
72 81 26 80 64 46 16 51 90
62 11 91 58 61 68 99 54 40
69 15 16 65 43 73 42 25 37
76 73 23 90 52 43 42 32 57
75 25 54 13 95 97 85 59 39
14 88 32 53 97 59 45 65 88
61 29 14 76 97 49 58 11 44
46 25 93 79 93 60 77 45 61
48 56 63 44 83 21 88 52 75
89 26 25 58 83 28 85 28 97
14 50 50 33 50 40 39 43 89
76 68 27 32 91 69 12 78 50
63 90 11 36 83 65 61 60 82
60 71 43 67 45 42 96 34 46
30 75 21 33 75 40 34 73 30
70 31 32 46 36 29 10 36 55
68 66 71 17 32 34 13 69 28
88 100 12 86 12 64 42 81 43
76 89 14 79 89 55 44 59 31
86 12 35 36 67 79 79 24 27
75 45 55 28 24 72 46 68 51
39 79 54 77 42 36 15 34 62
46 69 31 47 87 71 45 65 16
39 54 100 13 98 59 63 70 30
46 42 44 14 26 70 46 53 92
40 76 80 86 27 72 39 53 77
17 42 93 75 28 18 97 81 75
57 86 51 76 99 77 52 56 99
73 30 66 43 85 10 99 59 18
96 41 63 94 31 84 61 34 93
53 72 61 74 83 46 70 29 96
34 24 69 87 78 58 40 94 59
96 63 66 64 18 58 16 70 24
34 39 25 84 25 60 39 26 17
10 79 14 49 33 12 72 86 59
90 39 22 73 85 62 34 48 12
43 82 16 54 37 16 10 48 85
65 18 14 12 59 63 83 92 52
52 12 50 98 67 54 68 85 47
72 49 66 11 51 52 59 95 19
10 12 20 15 79 13 52 20 13
79 94 49 65 62 26 55 95 56
17 51 38 32 36 50 23 93 18
39 90 91 20 58 58 66 63 46
64 59 38 87 17 54 91 87 51
32 39 89 71 31 94 53 65 67
42 25 41 87 33 30 76 37 20
82 86 15 30 14 85 59 16 69
28 56 59 31 81 15 16 12 82
0.869186
1.6418
1.95636
1.20118
1.93398
1.98896
1.83462
1.16996
1.47451
1.21069
1.20628
1.37068
0.522252
1.72178
1.12359
1.09537
0.665847
1.20959
1.25644
1.9229
0.638168
0.819804
1.52123
1.04932
1.55346
0.976429
0.485555
1.01369
0.670103
1.77826
1.8154
1.54942
1.43816
1.21875
1.36572
1.57393
0.524933
1.556
0.770337
0.490313
1.8328
1.17271
1.75964
0.699921
1.78824
1.32402
1.97038
1.36128
0.611846
0.663281
310 181
452 270
471 23
112 265
478 311
356 386
463 24
418 351
283 486
431 168
263 421
400 492
196 217
133 102
250 183
385 355
446 28
81 353
97 108
442 484
51 255
235 81
262 496
104 205
371 446
312 42
60 261
439 206
292 113
230 55
431 265
319 117
454 436
130 71
241 417
129 14
195 109
313 437
274 261
472 199
378 406
343 117
415 103
191 259
49 152
19 406
454 207
334 228
31 346
276 166
6547.5
2
