50
7
0 0 0 0 0 0 0
64 44 35 21 22 37 70
97 55 93 83 74 35 73
94 40 39 37 13 26 69
42 76 91 70 72 97 57
19 44 65 32 100 91 66
42 58 46 59 37 74 49
31 41 23 100 99 31 24
80 92 59 74 51 40 66
91 80 30 67 80 23 27
75 89 72 65 57 85 81
89 63 49 63 75 28 73
61 53 100 21 82 91 50
63 77 89 34 32 94 45
23 74 72 12 27 27 46
63 71 51 24 76 39 86
66 10 70 42 96 52 92
93 73 63 17 56 24 25
100 81 44 94 99 43 43
56 94 47 38 12 15 44
47 63 80 73 75 98 31
38 100 36 72 13 13 81
63 54 35 20 84 75 43
77 84 47 77 69 95 38
79 100 77 34 30 87 60
48 33 97 27 71 28 13
25 19 53 40 73 42 74
69 68 37 99 44 50 24
47 64 27 86 45 49 32
19 71 65 31 91 92 84
54 10 84 64 71 47 97
63 29 60 11 47 11 44
90 98 92 37 43 30 33
28 68 21 33 38 17 33
67 44 86 81 56 100 28
56 35 40 27 13 71 98
56 49 92 74 100 48 68
65 30 36 59 15 74 69
13 41 65 56 42 11 46
15 42 56 52 14 43 83
87 12 36 37 51 15 61
95 48 67 55 59 91 83
74 54 20 23 46 37 66
47 11 88 27 31 88 26
68 77 60 19 96 98 16
40 19 67 22 70 47 76
80 10 58 67 14 44 70
71 92 69 50 48 20 95
47 11 24 77 67 12 14
67 48 57 53 28 97 25
0.297877
0.348638
0.158412
0.229206
0.229056
0.214148
0.490227
0.312856
0.1234
0.266825
0.308892
0.297489
0.267607
0.487955
0.166239
0.481823
0.220046
0.379036
0.335664
0.46986
0.343617
0.111876
0.499945
0.104998
0.171797
0.251332
0.354463
0.402281
0.101556
0.386393
0.250832
0.206806
0.277788
0.354973
0.262399
0.442277
0.246217
0.28483
0.169233
0.282827
0.244996
0.221662
0.463817
0.182718
0.373611
0.338729
0.116905
0.404149
0.468994
0.163114
434 121
278 278
65 367
29 314
391 194
467 457
491 418
420 483
62 208
485 360
335 137
419 468
242 127
274 440
9 487
157 329
106 342
297 152
332 219
268 299
223 93
80 476
271 232
474 292
26 63
421 305
212 125
161 102
80 339
80 261
494 65
479 216
489 398
468 440
478 250
429 43
237 58
225 401
421 151
237 376
120 440
441 334
380 105
41 462
141 39
151 457
101 181
228 153
65 443
257 459
3380
4
