50
9
0 0 0 0 0 0 0 0 0
83 16 88 35 16 30 59 13 81
92 84 81 59 86 25 91 65 88
97 17 56 13 10 18 67 26 100
73 96 19 94 52 43 50 94 46
77 63 34 18 64 58 95 94 35
89 20 96 79 80 31 15 47 84
90 72 54 44 50 15 13 51 19
71 24 77 89 38 86 57 93 58
68 74 43 44 33 49 46 81 66
26 76 96 69 86 69 90 46 79
41 53 93 50 24 15 62 37 52
54 48 68 48 33 33 28 22 38
75 92 41 51 82 22 53 75 77
89 47 52 10 33 62 61 73 68
76 100 39 12 55 97 12 36 87
92 56 20 88 70 89 19 82 55
78 30 32 83 33 96 15 63 45
80 63 61 94 67 17 93 85 87
98 57 42 52 88 74 62 12 21
61 69 10 52 76 81 83 24 29
63 46 62 91 11 67 51 64 64
77 40 60 79 79 39 95 85 40
39 27 92 79 66 54 60 72 24
35 36 55 34 53 35 47 10 20
62 40 35 32 69 50 75 47 32
10 26 59 83 13 97 68 18 29
98 15 95 55 91 62 37 51 59
69 93 99 75 47 40 16 23 24
90 70 89 33 25 34 39 20 29
97 78 43 52 75 53 89 99 98
30 18 47 55 48 96 14 21 91
100 38 78 85 63 84 31 47 46
80 29 74 75 97 46 36 77 63
64 65 57 73 71 90 27 49 16
20 43 60 34 84 60 58 31 67
90 10 41 84 62 26 86 76 25
20 65 61 43 42 89 12 81 88
86 16 97 24 49 51 51 43 10
79 12 24 100 60 38 50 47 70
59 77 96 34 56 59 58 24 79
38 26 91 94 32 42 72 35 93
61 47 45 49 76 79 46 29 78
69 39 32 64 73 69 46 99 65
70 66 88 73 35 69 41 88 83
84 36 85 54 14 62 69 36 28
96 33 91 97 20 69 28 44 98
18 23 33 73 82 65 19 88 94
33 30 79 88 17 35 67 81 19
91 35 88 73 97 64 31 22 59
0.277418
0.713991
0.299297
0.68904
0.559511
0.471222
0.902109
0.581219
0.372159
0.565538
0.417139
0.3603
0.539847
0.367224
0.670477
0.230948
0.465041
0.286815
0.541026
0.776661
0.742323
0.821781
0.355105
0.269486
0.758112
0.583277
0.940364
0.755332
0.562418
0.355075
0.794041
0.774152
0.27153
0.986746
0.942708
0.743717
0.449334
0.370394
0.268022
0.474018
0.539508
0.532111
0.274931
0.839469
0.691371
0.271065
0.960704
0.58744
0.993788
0.329368
301 274
32 494
340 266
25 326
262 25
48 41
153 370
411 403
227 395
0 7
395 85
156 137
449 23
346 55
306 126
63 246
448 308
76 408
265 101
158 278
260 365
109 159
185 311
24 384
213 462
174 415
301 336
402 425
43 83
183 155
165 138
340 107
417 247
316 422
44 233
440 469
417 279
430 257
272 347
440 441
143 474
128 205
450 335
377 144
69 159
398 472
448 207
6 489
265 296
65 137
3477.5
4
