50
5
0 0 0 0 0
34 53 32 86 36
27 98 75 65 35
37 75 89 79 40
76 63 67 36 67
45 62 25 41 83
99 37 63 75 16
10 25 28 67 13
57 86 76 56 46
63 76 83 42 34
79 44 82 51 40
92 22 52 99 36
59 13 49 13 62
74 57 36 93 34
35 78 47 16 70
19 53 72 97 34
30 47 79 59 29
88 85 58 53 57
36 95 67 88 10
88 51 78 59 45
97 82 72 41 96
62 78 72 30 36
89 33 83 54 100
77 84 35 34 68
58 66 77 13 36
71 37 13 30 95
76 37 31 30 95
66 70 68 94 33
36 96 67 74 70
83 42 98 49 74
21 34 84 67 39
62 85 39 22 65
46 78 98 85 98
67 22 53 15 25
54 40 49 34 38
47 17 38 32 79
92 81 93 92 97
25 43 67 22 82
64 29 16 82 48
36 23 10 70 49
34 87 19 29 14
33 87 62 20 66
97 33 18 15 51
99 24 57 33 18
34 10 99 65 78
52 98 20 55 97
53 64 50 95 22
18 34 52 68 91
50 80 31 65 40
53 79 96 70 57
0.475065
0.189009
0.229532
0.24174
0.15918
0.417906
0.134049
0.162252
0.331077
0.365924
0.285221
0.211982
0.105883
0.123535
0.243486
0.115261
0.329088
0.424046
0.163616
0.356683
0.196097
0.474844
0.23925
0.123026
0.14115
0.34703
0.137937
0.286779
0.224438
0.209741
0.438928
0.47542
0.119555
0.229965
0.219985
0.30367
0.141037
0.14715
0.307903
0.196626
0.210086
0.227074
0.135266
0.172682
0.429352
0.151472
0.305377
0.196037
0.26705
0.102243
115 100
223 142
225 291
302 195
192 73
414 402
44 2
361 310
26 51
103 491
471 18
324 343
271 31
261 154
190 56
473 180
24 61
445 439
260 108
326 237
3 6
30 349
76 251
278 139
276 459
150 428
213 99
215 151
13 392
497 355
416 99
123 103
103 257
325 349
280 404
66 458
319 27
95 24
233 397
122 355
453 293
283 337
442 140
165 302
357 242
367 401
438 444
451 438
47 107
258 64
4573.33
3
