50
9
0 0 0 0 0 0 0 0 0
25 82 54 67 74 45 28 32 61
13 64 14 77 14 17 95 36 90
71 17 42 37 68 78 17 73 62
29 54 30 87 49 35 49 38 66
30 27 75 55 75 86 16 90 98
58 97 36 30 73 70 56 33 76
52 85 48 47 66 90 47 53 27
69 34 28 61 86 40 83 78 30
94 20 28 92 23 27 60 72 32
95 51 24 88 72 38 15 19 63
34 96 75 57 45 46 75 91 56
17 74 25 67 34 73 28 33 56
53 27 100 14 84 77 66 34 61
24 62 14 61 13 40 50 69 74
45 10 60 98 64 12 69 19 26
57 37 44 37 28 40 78 92 15
26 43 20 42 39 70 30 56 72
54 87 65 97 18 83 36 68 46
50 77 41 77 78 57 70 26 38
54 85 57 73 39 13 33 90 79
93 99 92 17 32 51 62 30 40
39 57 80 92 46 60 37 59 47
75 27 95 78 64 97 92 70 35
64 14 41 76 77 71 47 73 33
49 58 19 84 56 69 36 62 12
23 28 63 60 97 86 52 99 100
41 51 38 94 61 22 95 75 87
40 73 97 43 41 27 76 89 26
68 93 65 38 86 76 10 83 10
55 92 81 33 71 72 37 14 30
28 65 85 65 89 91 43 73 74
26 57 52 36 22 83 49 12 80
15 32 11 25 41 44 77 26 61
41 11 60 40 64 22 98 66 31
38 33 27 90 12 84 85 86 33
52 92 77 96 95 35 28 98 66
56 19 98 42 19 12 60 60 19
84 28 88 59 37 64 40 54 29
50 56 48 38 76 55 78 65 95
81 87 78 74 13 31 44 45 77
34 46 77 47 36 23 20 66 48
57 65 36 84 80 98 94 15 44
17 82 62 54 92 25 11 58 75
68 40 77 82 35 53 26 84 53
32 19 26 38 50 24 99 64 51
72 58 67 54 99 99 66 75 56
82 66 33 34 25 65 93 46 75
79 26 40 64 82 65 12 95 68
96 82 90 84 30 69 86 55 20
1.73754
1.747
1.1146
0.479631
1.49406
0.664837
1.06579
0.41458
1.46785
0.700875
0.551653
1.01787
0.414062
0.97437
1.63218
1.51163
0.897797
0.674933
0.734302
1.93154
0.547113
1.51522
1.68548
0.447198
1.49719
1.17787
0.882206
1.17679
1.8071
1.13319
1.85951
1.5889
0.845123
1.55698
1.11214
0.473135
1.58068
1.58333
1.60365
1.54358
1.88304
1.83028
1.56461
1.96009
0.995523
1.16617
1.36972
0.757224
1.02651
1.24398
325 471
130 325
476 462
376 336
316 450
442 80
107 409
463 12
498 207
390 64
270 25
1 272
90 25
42 396
143 113
93 279
62 443
467 426
200 347
20 6
84 500
457 271
96 299
410 434
491 27
385 432
288 230
263 492
148 105
380 111
30 101
72 50
417 351
269 142
278 140
137 483
67 107
495 129
60 478
413 445
40 425
419 228
232 448
130 446
41 89
281 221
0 357
489 35
327 345
196 468
13550
1
