50
9
0 0 0 0 0 0 0 0 0
68 48 31 63 64 96 85 55 59
26 87 16 95 97 46 40 60 96
97 44 18 94 18 72 73 29 15
69 70 90 24 43 72 20 10 20
61 53 21 88 42 94 26 87 68
60 18 73 76 35 68 95 90 10
87 25 34 100 99 72 73 75 53
91 77 37 73 72 19 75 36 24
39 22 42 89 95 35 16 60 86
15 53 23 70 35 51 85 43 86
57 28 85 16 67 56 84 66 82
82 33 24 83 81 61 15 45 97
62 100 45 19 89 14 74 91 61
54 15 22 36 79 78 55 38 37
56 68 49 33 64 40 12 88 81
75 14 59 21 72 88 50 77 39
77 57 33 50 65 49 85 40 42
21 42 30 48 77 73 64 80 37
49 93 83 65 66 47 32 18 89
31 18 95 19 28 37 37 35 55
50 61 25 74 77 89 59 71 38
10 44 51 61 29 24 91 82 53
86 10 52 42 94 58 65 24 85
14 48 26 21 49 27 75 16 69
89 86 53 94 35 38 51 63 82
28 73 52 38 76 90 64 49 29
22 94 31 87 16 30 12 90 75
14 77 20 47 14 63 97 26 52
53 20 77 48 55 85 25 69 16
60 97 18 85 17 68 97 83 12
63 49 97 80 84 69 28 84 56
69 22 77 56 64 69 91 32 13
84 85 73 91 24 17 23 59 63
35 70 65 42 86 24 38 26 20
41 91 75 65 72 18 37 19 13
48 88 10 79 90 67 84 36 60
80 86 46 26 89 33 90 32 46
85 98 43 29 65 21 15 61 51
69 53 61 90 55 88 59 87 87
14 85 42 49 74 14 56 38 88
68 38 58 66 36 63 45 86 60
17 77 82 64 39 78 73 49 38
43 93 35 21 83 36 72 70 56
32 59 77 80 99 35 76 82 40
31 75 74 90 39 36 64 41 30
67 60 95 55 83 81 16 56 92
41 88 42 76 44 86 93 86 10
40 31 64 11 25 90 12 97 13
37 61 57 36 22 23 14 82 31
2.13444
2.39584
2.2469
0.665551
2.44805
2.06224
1.33001
1.82682
1.99437
1.84208
2.15297
0.541335
1.77526
1.26878
2.30803
2.45983
1.85452
2.19812
2.19802
0.576438
1.7765
2.38609
1.23218
0.960261
2.47762
1.40791
1.9406
2.18913
2.37134
0.600318
2.42168
0.885428
2.06054
2.38954
1.50196
0.626206
0.600405
0.741024
2.08663
1.70238
2.01984
1.93882
1.2675
1.14209
1.75243
1.32424
1.69071
2.37589
1.47861
2.18201
219 71
287 110
316 163
24 241
153 367
209 43
255 177
129 355
382 98
58 156
385 84
245 405
233 154
11 373
33 98
355 356
352 450
132 381
129 464
345 471
222 458
403 423
345 184
500 128
436 396
26 368
153 40
364 373
360 25
315 45
124 479
149 294
480 126
449 378
244 211
500 326
315 6
493 386
424 259
178 191
487 104
133 482
159 155
441 429
337 250
256 318
500 292
92 314
141 420
299 310
3397.5
4
