50
7
0 0 0 0 0 0 0
90 70 17 89 34 83 12
33 13 26 26 53 64 88
80 34 90 30 55 20 36
43 36 33 60 86 100 84
33 10 51 81 88 69 59
56 64 93 34 86 29 30
58 76 21 74 15 62 49
10 98 12 90 16 39 20
47 76 75 94 66 48 93
96 35 69 26 96 37 16
48 10 96 37 18 100 49
51 96 65 13 51 95 18
58 18 73 50 88 12 47
79 67 37 11 29 58 73
23 43 31 18 56 43 65
10 66 84 73 36 83 94
10 69 41 67 69 35 76
73 44 84 36 80 73 41
40 86 90 12 53 89 28
13 30 63 80 97 72 91
30 65 79 54 46 99 33
88 33 52 78 27 28 58
33 69 12 62 85 23 18
38 26 17 41 38 28 13
55 35 89 25 21 91 61
98 90 56 57 34 89 64
94 53 78 75 25 81 99
67 94 47 78 76 32 82
43 58 41 48 44 67 61
76 94 22 56 71 42 97
52 93 28 88 89 96 87
64 67 41 22 95 13 88
29 83 36 22 11 43 30
54 41 16 80 87 14 75
88 66 22 24 43 69 47
35 92 52 52 17 79 16
80 82 64 24 43 87 20
17 11 43 57 48 93 31
20 91 82 77 85 81 71
74 20 60 55 10 51 97
97 46 22 35 68 99 75
44 47 31 61 39 61 83
29 60 43 72 99 29 81
73 86 78 93 93 14 23
68 97 54 88 37 18 42
59 93 75 58 40 95 70
75 64 53 51 26 87 55
66 48 18 73 46 10 86
23 72 76 25 37 42 36
1.08562
2.36878
1.56104
0.547478
1.32656
1.1192
1.38754
2.14615
2.26461
0.798028
1.32901
0.506576
1.26696
1.99733
1.61882
2.18287
1.87637
1.87556
2.31407
1.47726
1.47985
0.74352
1.52155
2.33534
0.67409
1.32932
0.851881
0.556671
2.3611
1.80634
0.572425
0.603122
1.34683
1.32541
0.574837
2.04559
1.95106
1.43837
0.655422
1.78826
2.29019
2.21234
1.70151
1.13828
2.37104
2.1211
1.60311
1.09856
0.559546
0.894499
412 340
462 376
375 409
445 76
416 483
304 28
432 94
339 267
90 235
180 131
417 419
228 207
28 110
448 118
467 489
100 320
240 225
226 155
66 374
14 327
170 80
262 95
450 351
416 320
487 53
415 118
341 473
162 416
403 408
333 451
490 470
247 499
221 432
493 371
13 335
297 460
342 481
232 43
208 68
224 322
309 0
493 492
310 379
40 331
213 280
380 27
463 420
313 312
373 296
11 414
6785
2
