50
9
0 0 0 0 0 0 0 0 0
17 52 94 99 87 39 43 22 43
62 34 68 13 57 69 23 29 45
99 15 72 26 38 85 87 91 23
45 28 97 14 40 38 99 41 16
74 12 78 16 67 12 84 47 31
61 74 62 86 32 38 33 84 69
61 98 93 46 79 81 52 84 30
18 13 86 76 45 58 82 44 41
45 74 27 59 98 49 55 67 66
67 62 38 33 46 89 73 22 52
66 89 73 93 57 71 87 52 78
28 83 38 38 11 73 61 23 67
72 42 34 28 64 82 27 62 20
91 92 80 99 21 90 92 12 72
56 90 43 36 57 45 51 15 97
100 55 92 51 73 29 63 83 86
48 94 75 86 18 96 77 22 32
27 65 86 68 44 18 41 65 32
24 95 94 36 53 34 45 83 62
51 46 56 99 69 94 77 45 58
42 99 14 41 20 69 98 14 77
22 29 41 68 67 43 81 53 50
67 64 59 14 50 81 28 14 53
46 78 73 48 63 26 39 43 20
56 23 77 51 51 27 64 17 36
65 31 83 82 43 75 46 55 71
18 21 68 87 84 90 21 93 45
56 46 88 92 71 81 29 98 44
81 39 65 98 87 94 45 58 58
71 10 58 81 72 100 70 11 58
19 86 59 23 15 82 53 11 84
30 95 51 82 61 53 57 64 72
34 88 52 62 61 49 97 50 84
61 29 74 49 73 69 53 97 29
91 83 11 57 55 86 76 24 18
53 24 63 13 75 52 90 47 40
47 79 71 49 88 53 26 41 35
76 39 30 85 28 45 32 43 94
68 68 60 54 89 49 42 46 43
76 68 32 40 71 30 91 46 62
37 77 69 70 33 87 64 80 42
91 50 94 13 72 62 16 93 48
50 13 91 33 94 28 32 20 86
57 68 60 19 12 55 89 18 84
100 94 82 47 17 39 52 14 38
12 35 12 37 22 49 55 43 97
33 64 36 47 45 32 57 59 77
33 48 17 43 16 85 56 58 98
90 96 80 96 39 56 21 54 86
0.283676
0.371752
0.43618
0.157331
0.389061
0.350688
0.418659
0.472863
0.304102
0.406179
0.172865
0.124329
0.45975
0.293013
0.161596
0.422956
0.212263
0.21359
0.339897
0.431603
0.460394
0.105298
0.243255
0.247509
0.304338
0.430311
0.45834
0.19977
0.214202
0.433293
0.107444
0.149314
0.165504
0.249289
0.379238
0.1746
0.100849
0.390345
0.482155
0.308738
0.327694
0.463881
0.177731
0.105689
0.156959
0.146819
0.461382
0.363853
0.221195
0.394553
215 181
14 162
277 360
342 292
427 286
297 377
470 252
413 186
7 231
309 347
197 118
353 439
261 210
338 277
300 447
364 174
99 391
382 100
358 4
447 394
47 232
315 110
260 20
376 228
180 476
372 150
460 471
244 206
448 70
109 237
370 384
375 86
287 424
170 485
146 251
80 49
193 326
332 111
71 223
101 431
111 145
373 112
401 374
159 215
109 468
252 440
45 19
26 84
186 11
110 211
6887.5
2
