50
3
0 0 0
43 82 95
38 70 26
70 91 31
16 10 87
56 53 97
59 42 89
15 91 81
80 22 92
28 64 22
54 82 81
97 28 66
63 30 15
70 58 80
61 22 68
37 57 92
99 57 20
47 58 28
58 13 46
71 10 16
57 63 24
71 54 61
92 38 42
10 10 90
100 32 72
64 37 79
34 73 84
99 64 17
42 15 41
54 99 92
21 23 90
20 22 42
90 54 37
37 37 100
57 75 99
81 89 52
72 34 52
21 97 15
18 78 60
28 57 52
24 77 18
44 19 23
14 99 79
38 57 20
29 28 64
55 26 31
80 14 89
35 59 60
78 96 53
77 59 36
1.08162
2.29981
2.28623
1.90457
2.49562
1.33827
1.72272
2.40212
1.29676
0.525076
1.63697
0.580824
1.59003
0.952795
0.807129
0.79862
2.03464
1.5162
0.625129
1.49918
2.02831
0.511936
1.08572
1.62392
1.7914
2.2821
0.85482
0.97628
1.38766
1.85164
1.13559
2.24115
2.0381
0.53637
1.59107
1.29313
1.03252
1.47725
1.54345
0.720931
2.09291
1.47375
0.588973
1.08929
2.14185
2.26829
0.819909
1.09878
1.41231
1.20832
437 94
10 469
134 444
212 256
95 204
176 193
185 147
493 333
400 9
487 257
464 285
261 377
0 44
460 383
107 465
377 436
116 295
472 426
216 349
232 280
166 144
449 25
329 426
281 396
65 434
219 487
232 81
232 263
277 403
110 151
120 335
310 394
243 92
363 131
398 8
456 327
102 271
117 408
331 196
44 222
280 194
290 197
329 120
49 42
317 458
226 348
298 48
350 308
102 331
105 71
13225
1
