50
9
0 0 0 0 0 0 0 0 0
80 30 76 19 10 64 73 52 18
55 93 100 90 56 33 46 27 36
44 49 79 55 94 35 35 96 82
82 37 24 39 12 92 46 84 98
38 20 17 90 50 69 93 27 79
94 72 58 41 30 21 59 60 39
87 57 22 70 58 63 34 13 30
58 33 98 55 35 76 83 83 27
73 99 69 40 42 31 10 11 73
40 62 15 83 55 50 27 28 37
77 52 61 12 73 88 33 51 93
16 36 35 56 35 21 25 97 44
46 33 56 16 90 35 44 61 52
17 21 43 33 81 43 92 57 10
75 12 19 87 12 47 67 26 88
19 86 21 95 48 19 74 86 14
57 64 85 91 37 32 10 54 85
80 82 65 69 96 60 14 51 77
39 58 33 70 20 61 69 46 93
97 70 94 74 97 62 15 33 18
70 45 49 93 97 31 22 83 74
56 90 81 68 46 12 82 40 67
43 66 82 27 97 100 39 41 91
31 61 57 31 29 11 21 72 33
50 31 23 29 27 63 95 26 87
25 34 11 98 99 87 94 20 70
46 56 44 80 24 75 83 53 87
47 42 61 96 95 48 81 35 92
99 65 78 97 29 37 87 64 42
27 23 18 43 62 17 73 44 43
99 48 20 64 76 89 30 37 89
24 77 84 100 62 18 59 77 69
11 52 33 62 55 18 63 51 74
37 52 92 41 47 76 56 93 42
81 79 48 86 10 56 51 84 37
30 29 81 80 54 59 14 13 11
83 25 40 26 18 67 23 78 57
97 99 34 20 33 27 52 53 68
90 95 100 64 18 25 78 88 72
52 18 27 76 88 65 64 37 57
87 63 29 32 20 79 66 65 38
96 28 92 58 47 60 65 57 71
48 50 83 41 43 86 68 12 99
22 100 55 17 61 20 97 28 36
82 89 44 63 23 29 32 76 37
77 81 65 61 29 32 24 53 51
99 59 28 24 56 38 74 94 53
12 79 13 39 97 26 30 38 46
39 88 29 77 33 28 80 27 90
1.67447
1.35992
1.81979
1.93113
1.36515
1.3714
1.31953
1.73011
1.16329
1.7194
1.82838
0.548024
1.99715
0.955644
0.507092
0.694492
0.598891
1.60761
0.535289
1.30208
1.77534
0.965876
0.717823
0.943121
0.434799
1.81001
0.898225
1.65981
1.0027
1.34359
1.21355
0.907519
1.04166
1.38014
1.78807
0.766512
0.523451
1.06257
0.408601
1.14178
0.597147
1.72312
1.16831
0.816195
0.411746
0.72958
0.542459
0.981352
1.91866
1.45209
184 113
43 485
5 439
471 432
465 174
335 316
83 291
420 299
4 200
343 260
294 48
442 261
361 57
331 335
121 21
17 65
418 443
183 171
178 377
355 131
72 207
499 326
46 269
265 14
414 212
149 193
205 92
168 306
253 121
400 190
406 183
303 484
313 440
271 147
440 334
69 487
135 264
459 399
393 288
77 115
164 172
134 20
204 466
93 494
61 372
71 399
313 316
441 420
373 305
433 42
3342.5
4
