50
5
0 0 0 0 0
20 59 32 55 55
76 48 73 80 12
73 55 37 69 89
97 97 75 75 57
54 33 65 18 59
67 22 37 51 69
26 38 42 10 11
85 89 43 52 21
97 51 41 80 30
95 94 42 32 87
57 17 98 84 79
97 45 74 24 80
70 31 18 58 36
56 15 28 50 33
74 20 61 43 75
43 90 81 19 29
73 21 61 79 75
11 100 52 59 77
34 62 54 28 62
13 29 11 41 95
48 42 51 75 56
12 16 52 94 76
47 98 32 92 48
43 79 53 59 57
59 25 18 71 50
63 65 41 33 75
80 20 28 38 84
57 97 82 82 43
83 76 11 61 66
45 91 26 15 100
11 35 93 42 39
35 10 93 33 74
10 56 36 25 85
100 92 29 69 63
91 55 21 56 95
71 51 41 26 34
72 65 25 14 98
30 44 15 31 42
62 20 10 90 82
24 62 57 45 64
37 11 66 44 33
100 73 23 51 34
33 95 31 77 48
20 31 34 26 71
36 22 77 17 44
76 94 43 14 46
45 50 33 56 80
10 97 76 12 15
90 54 68 10 95
0.909583
1.36096
0.567682
1.0807
1.19624
0.697334
0.851642
0.693286
0.306535
1.01048
1.2162
0.732498
1.469
0.989698
0.921908
1.28484
1.25091
0.370704
0.910481
1.00338
1.08161
1.4035
1.4875
0.550374
0.403518
0.799686
0.93905
0.799439
1.49869
1.11326
0.559641
0.427932
1.29026
1.10294
0.497371
0.620237
1.41385
0.495766
0.442605
1.36285
1.04306
1.31054
0.439605
0.806062
0.492496
0.953672
1.49349
0.483469
1.39668
0.748376
348 200
84 128
70 80
223 429
40 4
359 314
280 203
299 498
162 329
339 419
457 73
387 319
367 344
236 133
348 57
105 115
457 207
444 153
21 472
422 190
286 179
343 348
34 406
339 298
131 419
46 463
406 258
93 211
242 118
382 118
313 373
490 3
34 30
5 261
163 356
382 136
38 77
237 318
271 483
247 436
319 178
292 218
423 79
139 33
355 448
123 27
230 388
274 389
17 321
336 76
12930
1
