50
11
0 0 0 0 0 0 0 0 0 0 0
76 29 83 54 60 21 97 49 51 71 89
100 92 60 88 60 44 56 32 62 59 35
16 92 19 94 88 16 13 50 30 84 41
27 71 64 22 46 40 73 46 63 48 78
28 66 90 39 98 44 64 69 24 22 16
18 18 79 79 13 73 92 41 62 31 48
29 26 16 40 44 91 76 13 99 10 41
98 41 25 13 42 98 31 78 62 46 66
83 73 41 72 88 37 69 42 68 86 34
70 38 33 54 14 61 100 79 70 81 47
72 66 17 73 32 10 92 24 96 41 72
77 17 15 36 55 13 14 74 97 13 92
51 31 66 72 39 87 62 79 62 43 85
80 49 22 40 49 36 23 33 19 91 54
100 92 37 61 48 66 75 44 82 62 85
82 46 59 90 94 48 18 36 45 99 75
37 90 55 79 80 52 76 11 44 71 74
25 67 99 27 43 47 68 99 88 15 15
65 93 51 93 48 16 14 45 15 71 51
42 38 77 11 99 86 20 75 40 40 35
30 60 78 35 65 57 26 86 38 59 99
19 76 75 90 55 11 10 26 60 44 81
85 61 58 64 69 59 48 60 14 71 72
37 76 97 79 48 52 90 23 93 56 45
66 99 10 40 56 13 16 94 79 86 66
75 47 82 59 97 16 97 20 13 61 92
66 41 93 24 45 54 36 68 54 40 58
47 84 26 26 11 71 27 63 20 76 10
13 12 22 70 98 24 39 61 51 67 24
26 48 75 34 46 36 32 10 47 38 62
46 71 43 100 97 15 19 30 78 41 63
44 79 27 34 53 68 40 77 47 11 47
14 47 91 27 10 70 15 63 60 20 82
52 76 57 60 25 34 17 86 17 10 80
20 77 36 90 89 80 61 63 45 57 57
35 88 68 27 46 67 55 89 41 74 17
80 19 78 25 76 67 49 98 50 51 41
77 52 80 97 54 30 68 74 23 87 67
60 78 39 54 68 41 83 47 35 79 46
100 84 24 42 43 67 81 89 46 12 44
64 76 24 43 92 36 30 93 51 61 71
43 10 57 14 28 90 75 76 99 15 56
26 57 61 11 34 54 67 52 18 21 67
39 84 53 61 23 41 84 60 80 89 16
21 15 72 24 58 28 80 54 72 66 38
19 21 20 64 35 62 13 26 32 100 100
88 17 48 86 55 88 73 60 59 39 12
94 89 76 37 75 84 45 74 33 87 43
38 27 53 93 32 29 100 75 67 42 73
2.25516
2.17158
0.716177
0.606252
2.49293
2.27551
1.15799
2.48849
0.871809
0.528147
0.994381
2.28231
1.80227
0.949216
0.523306
1.1616
0.584307
1.87549
0.750525
2.15057
0.614482
2.17131
2.46897
2.4517
2.47629
2.32803
1.59919
0.783803
0.721654
0.96092
0.935749
1.87975
1.31885
1.21442
2.34737
1.7464
2.07389
0.987132
2.47731
2.17053
1.55695
0.573485
2.14928
1.36703
2.04886
1.63152
1.29604
1.82232
1.27315
1.97741
135 32
323 390
134 362
238 145
441 160
101 454
142 181
120 314
162 308
45 227
4 40
329 239
130 455
413 463
194 280
453 480
148 380
206 258
337 152
342 354
430 11
27 122
262 34
163 317
34 126
273 124
486 459
328 445
186 62
418 182
159 450
426 113
324 36
55 277
108 123
415 222
432 252
307 148
437 332
254 384
435 327
261 227
424 124
300 169
220 231
423 195
85 159
322 205
306 415
391 286
2660
5
