50
9
0 0 0 0 0 0 0 0 0
25 79 22 89 21 40 71 74 35
74 11 68 20 94 93 59 47 83
13 39 58 94 46 51 69 86 61
62 57 24 81 95 60 75 47 68
90 41 42 82 72 44 30 96 78
66 20 35 75 37 30 71 53 34
74 39 28 72 63 43 17 70 11
81 83 25 55 10 53 89 56 39
89 49 67 89 51 63 17 27 22
20 19 11 42 48 93 28 81 18
93 39 24 54 26 34 70 21 36
92 86 64 54 41 37 88 33 82
51 31 89 49 17 30 54 84 33
11 81 59 28 91 67 66 35 21
28 92 14 19 34 97 49 97 17
11 73 37 68 66 91 67 94 66
44 56 59 35 96 80 86 71 33
74 68 50 82 11 80 15 32 46
50 90 57 72 95 98 12 79 93
94 65 90 69 100 59 91 16 21
40 74 10 34 62 35 39 24 50
75 62 57 59 44 88 93 84 34
53 83 32 18 81 26 66 76 79
21 97 42 91 62 97 24 64 88
52 71 69 96 49 27 26 80 71
89 73 89 15 11 91 57 42 32
51 15 27 36 22 75 80 26 94
16 25 20 28 75 13 33 55 38
74 82 28 93 62 93 35 60 14
60 86 33 68 32 34 10 88 67
54 28 100 52 26 16 71 34 32
38 84 44 20 78 85 65 91 30
46 43 65 38 96 37 50 74 63
11 27 99 32 89 88 74 35 55
24 90 93 43 100 69 93 12 95
98 41 32 16 53 67 20 55 91
64 47 90 70 17 25 58 68 78
93 91 92 30 70 48 17 72 41
100 28 28 26 90 48 92 99 23
45 64 60 20 65 18 91 46 45
49 83 45 27 76 14 72 64 73
26 11 64 87 18 64 15 36 71
22 32 61 57 29 81 20 62 23
54 11 89 89 24 66 36 30 54
37 48 26 89 47 90 33 41 47
71 38 17 79 93 43 36 48 95
93 66 61 30 82 93 76 65 50
48 94 78 50 95 81 26 48 40
59 95 94 32 98 47 48 87 91
0.381722
1.3788
0.310199
0.886614
1.25369
0.957341
1.10193
0.641527
0.965949
1.3987
0.561142
0.657928
0.782578
0.972597
1.26832
0.497748
0.732701
1.03698
1.33
0.397446
0.55459
0.799927
0.494129
1.17868
0.515838
0.33716
0.463163
1.18889
0.415002
0.660282
0.844724
0.851423
1.14206
1.19383
0.551373
0.676884
0.462966
1.41634
1.14413
1.38942
1.41096
1.01442
0.53832
1.13753
1.07358
0.382994
0.803986
1.0095
0.40947
0.538973
434 236
86 415
493 381
495 383
412 253
290 342
85 393
177 69
177 432
254 469
73 127
193 342
94 290
234 421
177 48
429 259
170 105
192 121
462 332
329 76
126 34
276 388
80 145
473 186
42 479
427 327
429 423
139 248
26 373
209 253
436 11
282 325
149 105
357 329
127 178
154 494
302 415
198 134
210 196
374 98
69 85
297 486
265 322
313 86
347 294
191 81
314 88
105 188
122 314
281 27
4536.67
3
