50
3
0 0 0
11 23 52
77 11 82
43 57 31
54 78 42
49 49 65
63 78 19
68 32 28
84 30 60
67 12 75
69 41 22
87 37 79
17 74 82
37 55 88
39 16 42
95 95 86
31 87 99
53 77 79
29 36 14
56 98 34
79 66 79
71 97 11
95 44 91
92 77 27
87 87 19
57 73 38
16 51 72
27 58 50
62 74 26
42 26 10
18 28 84
71 10 21
61 80 11
19 22 74
29 25 84
86 71 98
65 93 87
86 55 32
36 32 75
98 82 56
78 62 48
81 69 70
45 14 39
72 70 68
30 67 36
100 69 29
17 66 12
52 93 16
11 20 39
68 82 95
0.701673
1.38187
0.697928
0.915077
0.642744
1.30282
0.775073
1.44408
1.63892
0.463959
0.587632
1.30001
1.57522
1.89876
0.435799
0.402711
0.888643
0.726439
1.76202
0.827092
1.31626
0.745189
1.86224
1.66443
1.55976
1.32514
0.926595
1.7802
1.13112
1.94135
0.739888
1.61005
0.707358
0.484354
0.633427
0.472827
1.08441
1.99307
0.554399
1.62713
1.36098
1.98341
0.63882
1.41859
1.63816
0.56979
1.36015
1.1489
1.27886
0.911443
380 283
489 330
171 311
337 480
99 420
164 409
290 443
421 304
454 153
184 171
445 34
284 64
44 32
331 198
220 13
394 124
341 421
234 322
410 325
122 485
202 6
449 456
202 261
447 146
32 312
238 259
360 482
98 35
33 58
175 31
354 294
309 7
480 309
27 143
192 101
224 301
299 277
123 204
198 225
70 308
351 156
88 381
59 486
189 217
235 45
406 465
134 95
452 229
383 226
229 139
2701
5
