50
3
0 0 0
83 60 60
49 88 10
97 40 98
45 30 39
76 21 48
53 85 93
33 19 10
34 13 49
54 23 49
59 59 80
78 39 66
42 26 98
80 91 24
10 98 56
89 57 44
92 44 71
16 17 28
72 38 88
18 42 15
64 58 71
58 53 50
74 66 28
79 41 87
29 56 66
66 89 30
12 79 96
39 20 86
90 92 29
60 31 38
91 93 36
72 91 14
24 17 24
27 45 73
68 89 30
10 67 55
21 78 25
71 10 80
43 84 75
27 99 37
49 53 37
48 64 68
52 90 30
21 51 74
28 39 12
61 87 11
27 81 100
15 78 68
19 23 81
12 68 50
0.410814
0.805542
0.951558
0.365851
0.53768
0.675819
0.556049
0.257523
0.36365
0.940868
0.881025
0.59451
0.439868
0.804668
0.995294
0.347897
0.337421
0.303867
0.419217
0.554421
0.476006
0.626772
0.564
0.260664
0.68706
0.612412
0.679197
0.348805
0.759225
0.268768
0.63436
0.944962
0.618493
0.442514
0.48265
0.218243
0.505127
0.427188
0.462985
0.490238
0.348827
0.495244
0.55922
0.572985
0.290425
0.910136
0.989954
0.995424
0.485464
0.557127
213 419
446 449
482 61
85 463
13 412
234 491
240 408
321 251
69 415
122 312
41 390
231 230
50 256
166 125
205 258
115 183
495 22
198 487
499 174
204 362
378 424
4 212
393 161
277 205
173 177
9 66
383 379
122 377
201 209
28 404
243 380
147 230
303 138
477 254
463 114
195 287
199 311
46 141
42 308
87 238
139 358
471 206
18 54
441 79
6 332
378 299
279 261
155 250
121 259
161 257
3252.5
4
