50
7
0 0 0 0 0 0 0
92 76 14 28 16 87 34
75 88 39 76 87 14 60
42 42 88 37 35 36 16
15 89 60 68 54 65 12
14 65 53 62 50 48 94
93 24 90 41 47 43 27
96 89 52 57 26 49 95
47 89 36 88 30 34 91
78 36 89 78 15 92 93
10 13 12 47 87 20 81
77 54 54 77 42 77 91
15 57 29 79 31 60 10
10 66 42 74 23 38 92
92 40 75 68 15 65 19
36 11 37 62 48 72 78
74 78 68 73 76 23 88
83 59 30 14 13 64 28
24 23 92 41 12 79 29
90 66 43 94 92 61 50
10 97 21 26 66 39 80
66 31 13 94 10 99 96
22 90 20 80 15 44 57
11 44 55 35 58 42 21
69 48 82 22 23 69 10
63 84 71 38 46 58 41
26 10 95 69 24 63 44
76 75 75 52 37 71 97
50 62 41 87 22 97 20
66 76 51 43 68 11 43
26 79 56 59 98 26 59
20 77 29 74 68 57 73
89 69 58 72 18 30 25
23 15 44 12 50 54 13
39 16 98 55 98 63 82
99 69 23 49 70 94 25
83 62 68 85 28 53 83
70 65 35 52 47 16 94
77 73 34 96 44 80 11
30 68 72 16 90 22 88
85 41 15 16 51 18 13
48 53 98 58 72 38 53
50 17 23 69 61 90 44
97 44 18 14 30 33 54
49 98 14 90 93 71 70
70 16 54 91 38 23 24
86 30 56 82 39 27 12
99 45 64 52 69 71 72
43 82 74 35 70 62 12
37 49 23 62 57 57 91
0.230439
0.533769
0.62291
0.884603
0.44985
0.668721
0.534395
0.535703
0.561623
0.466329
0.907868
0.901624
0.826423
0.265302
0.936798
0.507134
0.992496
0.245476
0.694944
0.769782
0.306298
0.442386
0.244515
0.531488
0.8849
0.317935
0.527828
0.402276
0.379454
0.42496
0.208248
0.673028
0.753115
0.292004
0.571891
0.918654
0.451023
0.312603
0.441374
0.765637
0.34047
0.43861
0.861403
0.369574
0.38442
0.505309
0.673748
0.228536
0.238096
0.365667
307 328
75 138
180 445
418 311
141 202
497 139
126 324
41 312
483 257
288 321
210 46
98 216
383 167
370 20
77 466
80 42
154 396
299 236
86 353
486 301
390 17
160 53
277 96
409 279
452 441
107 173
325 215
96 211
170 249
35 82
437 106
355 327
26 382
86 385
362 478
52 291
433 35
19 289
250 482
193 155
490 305
306 146
474 355
94 82
362 26
120 456
268 43
248 14
52 342
365 209
2626
5
