50
9
0 0 0 0 0 0 0 0 0
66 66 97 53 72 87 18 49 19
48 43 85 25 21 65 35 83 50
59 14 71 22 41 23 12 18 92
55 21 87 80 17 79 35 74 63
24 82 29 76 17 43 100 99 68
89 69 59 62 52 92 47 14 16
10 33 76 67 47 99 34 94 13
24 63 52 76 28 92 40 11 98
11 40 43 35 93 81 34 69 81
40 21 76 96 25 86 65 71 64
100 34 77 25 53 27 91 38 41
45 56 12 74 27 83 82 73 70
90 22 17 37 31 70 53 10 99
94 44 83 85 98 11 63 89 56
97 50 37 70 96 83 95 34 42
64 58 47 26 23 57 18 90 26
29 80 79 93 38 52 53 62 19
53 89 81 92 57 83 55 80 58
19 87 70 39 67 77 39 22 56
28 52 58 64 15 75 12 14 20
24 58 12 15 21 14 44 22 94
30 10 81 81 96 64 48 31 34
25 60 59 93 58 12 32 44 70
16 68 71 50 10 92 29 96 25
12 24 53 100 26 67 60 69 25
98 81 26 32 60 50 25 56 45
61 56 70 18 42 67 23 71 12
48 56 17 39 32 31 80 38 75
65 50 72 22 15 55 75 100 73
87 10 82 24 93 91 79 97 79
82 78 37 74 66 38 45 17 24
53 35 83 47 79 59 98 55 66
35 100 59 13 81 85 49 93 56
59 28 40 88 37 64 74 28 76
29 14 57 38 90 22 100 37 83
100 93 28 96 97 24 70 38 31
96 82 100 18 12 73 22 11 84
90 56 32 75 17 30 12 97 86
89 64 69 10 64 33 91 28 19
35 92 77 81 82 91 92 80 93
48 65 83 70 65 74 96 14 57
52 11 99 85 14 34 90 69 96
13 80 23 33 51 72 18 99 18
31 63 49 89 50 43 69 88 59
29 37 10 86 58 87 80 11 13
34 23 35 33 91 65 35 26 12
55 52 12 16 60 23 89 95 73
95 70 13 50 86 60 59 18 98
87 36 55 78 29 67 86 76 47
0.328643
0.821769
0.824122
0.302147
0.913356
0.84071
0.572421
0.217635
0.233787
0.957802
0.852413
0.301584
0.339001
0.912806
0.491452
0.264587
0.540164
0.635447
0.433282
0.646119
0.544117
0.840058
0.793715
0.421064
0.233943
0.657669
0.81206
0.929644
0.883393
0.492278
0.688537
0.821588
0.912251
0.437144
0.693557
0.308659
0.536603
0.996881
0.672068
0.561277
0.915213
0.265521
0.544723
0.590541
0.719414
0.756725
0.728174
0.573322
0.898035
0.694918
292 270
476 471
187 149
498 379
61 106
368 308
370 218
117 344
71 212
332 145
218 403
340 496
201 272
51 255
84 32
111 479
203 17
89 407
446 150
427 99
497 162
119 18
462 276
341 3
181 92
425 469
226 450
434 187
116 469
77 139
405 50
200 78
346 363
262 43
357 401
183 265
62 275
148 259
89 206
49 448
185 479
331 234
427 86
260 199
160 114
110 346
148 311
179 133
347 12
135 26
2696
5
