50
11
0 0 0 0 0 0 0 0 0 0 0
67 47 51 55 61 95 61 61 76 87 40
61 59 83 58 46 58 90 64 100 85 19
91 29 80 72 74 39 57 72 24 31 54
34 33 67 18 68 94 46 58 24 78 40
46 53 68 16 63 66 41 69 85 40 22
60 32 40 79 43 66 46 68 71 89 93
34 46 76 90 33 63 28 63 41 11 71
78 79 10 65 47 90 85 58 79 77 77
63 99 10 79 45 79 19 52 83 54 64
83 29 30 83 63 14 38 68 27 88 99
49 91 18 77 53 60 28 63 36 37 90
85 80 14 74 68 92 90 32 42 78 29
69 70 13 59 28 27 41 81 90 100 13
27 83 67 67 60 97 31 85 40 10 74
77 84 38 31 74 54 23 45 88 13 71
91 49 22 49 69 79 54 94 80 19 84
91 43 38 42 10 22 73 80 41 46 37
44 28 12 20 88 31 36 34 70 32 30
10 92 23 27 87 83 88 30 91 98 93
97 21 100 90 17 58 70 61 83 45 32
72 20 75 81 100 39 45 67 80 57 96
41 15 64 19 24 49 21 18 55 49 60
34 28 90 55 41 46 97 89 94 90 57
40 75 22 10 31 67 93 61 90 95 42
25 56 60 47 49 62 45 74 16 19 87
38 69 61 66 98 43 43 68 47 94 92
87 44 53 41 54 70 84 89 45 20 98
60 54 81 22 32 67 96 19 62 19 88
61 20 41 25 45 78 84 59 53 79 95
85 46 67 31 90 22 11 79 32 71 18
39 88 70 98 58 53 19 71 27 44 66
42 64 27 67 55 57 89 95 42 47 83
34 42 88 71 76 32 84 11 67 31 32
35 51 33 97 39 81 16 81 16 97 36
37 45 10 44 54 16 72 15 62 80 72
67 39 76 70 15 81 38 62 46 11 49
91 32 39 44 60 44 63 64 36 54 30
37 68 70 16 13 53 25 34 30 49 55
52 17 17 64 62 52 84 82 93 64 57
55 63 59 13 32 53 49 68 39 49 100
89 40 16 24 26 100 22 26 89 67 51
63 91 16 98 51 74 18 29 66 80 56
45 94 97 86 35 91 10 49 57 98 38
29 88 76 60 98 90 68 84 73 45 32
51 31 40 78 17 61 33 100 75 56 43
93 13 74 11 94 37 22 93 78 57 55
95 100 85 22 97 65 38 40 31 19 95
90 65 82 25 82 81 25 55 13 20 40
74 58 90 91 42 37 55 93 17 20 63
0.739204
1.43811
1.80403
2.38165
2.08061
1.3713
1.75816
1.11074
1.9383
1.0978
1.95796
1.34138
0.566861
2.35071
0.577907
1.87558
2.0187
1.15602
0.82762
1.70461
1.03569
0.972121
1.55299
0.882552
1.9326
2.45546
2.1934
1.69951
1.66466
0.538437
1.6457
0.548734
1.98793
2.27004
1.01042
1.03931
2.0411
0.539569
0.965472
1.04769
1.48253
0.549322
2.48169
2.05881
2.11052
1.35471
0.986897
2.1311
1.9416
1.20974
42 26
73 229
128 283
444 53
195 469
197 284
198 403
154 473
92 100
435 329
498 60
249 315
321 154
228 483
415 464
429 29
1 275
12 377
468 200
354 78
309 127
121 485
171 204
237 292
460 439
3 1
15 287
380 257
249 28
18 17
117 101
6 2
402 253
168 327
119 231
323 185
96 267
107 170
229 180
138 106
49 289
457 446
277 128
212 136
309 314
40 156
25 106
240 383
307 219
470 446
13775
1
