50
3
0 0 0
50 43 44
71 61 98
71 38 63
81 43 26
69 28 87
30 25 55
17 56 12
27 59 31
55 22 55
90 21 49
39 57 77
94 68 87
60 99 50
70 61 39
33 81 29
37 93 97
99 37 86
48 79 17
76 75 83
59 82 49
13 48 47
50 11 63
80 58 93
77 61 18
40 58 61
89 26 86
27 81 39
64 64 68
37 66 75
28 86 15
70 69 36
41 30 51
19 93 31
29 42 39
76 25 34
14 11 32
56 38 18
28 70 89
21 32 95
73 79 16
87 45 54
87 55 13
69 60 63
46 82 81
51 41 47
77 91 39
72 11 19
43 17 31
33 35 92
1.24726
1.32786
1.40692
1.17013
1.49037
1.13772
1.3442
0.338564
0.96629
0.605632
0.499558
0.574748
0.917021
0.794328
0.898315
0.503344
1.07855
0.436968
0.455162
0.514324
0.736535
0.62283
0.739277
0.304762
0.697577
1.3633
1.13198
1.14109
1.14828
0.756123
0.924992
1.39368
0.64069
0.924469
1.47618
0.816918
0.578503
1.2185
0.502098
1.15404
1.30766
0.839868
1.10215
1.06514
0.329712
0.997423
0.914026
0.70309
0.859954
1.41414
345 151
161 189
147 181
55 494
460 193
321 370
117 484
103 344
246 421
44 166
492 218
391 206
247 378
236 375
286 21
168 387
125 166
42 137
331 323
155 441
263 235
38 43
364 176
424 357
161 423
178 298
268 358
79 480
107 227
60 207
351 228
25 245
492 186
20 414
347 294
230 243
300 147
80 184
494 346
164 379
149 463
296 225
307 490
416 490
365 197
152 383
366 381
412 150
372 496
321 58
3276.25
4
