50
3
0 0 0
18 51 69
83 73 86
56 12 24
31 38 97
28 45 81
99 46 99
75 49 26
64 62 95
46 37 50
28 93 72
59 35 82
98 33 85
92 70 65
50 100 27
42 75 33
91 38 52
21 31 31
99 39 18
12 44 29
73 95 60
33 10 19
38 84 88
18 78 16
25 10 21
75 47 81
22 86 81
91 93 95
42 11 27
12 44 75
52 17 48
42 74 88
63 35 85
25 58 50
56 67 14
82 95 37
75 81 48
76 43 48
15 17 94
26 38 10
53 22 70
66 48 84
65 99 79
64 13 91
67 10 99
31 19 62
70 57 77
87 92 90
78 81 54
68 36 54
0.804109
1.74512
0.842067
1.79932
1.53537
0.405963
1.37056
0.820302
1.95716
0.841717
1.80067
1.21521
1.21071
1.24185
1.49474
1.4807
0.539673
1.50723
1.4782
0.980685
0.965814
0.607264
1.98994
1.85508
0.984224
0.582496
1.69871
1.12712
1.01636
0.659756
0.897585
0.527976
0.970898
1.87778
0.544421
1.82098
1.20996
0.841979
1.36848
1.02506
1.91746
1.32229
1.89765
1.49497
0.550125
0.659466
1.64523
1.89483
1.10357
1.75857
285 433
373 192
296 447
59 224
328 110
145 405
465 289
31 485
141 233
293 321
186 12
55 391
440 401
221 203
250 36
498 328
67 9
481 177
323 363
317 386
365 482
359 224
490 258
44 181
194 90
275 145
320 317
367 321
171 357
60 227
146 89
326 458
174 415
385 56
234 15
185 428
262 334
380 126
61 350
284 288
29 97
218 46
363 128
492 107
93 281
147 327
274 415
114 355
249 146
189 455
13630
1
