50
3
0 0 0
57 44 94
47 56 42
18 51 92
80 23 42
37 46 20
31 63 94
82 46 88
22 49 50
57 92 73
75 75 31
80 74 29
95 45 29
83 83 48
53 55 92
14 12 65
77 50 11
44 12 49
79 52 22
66 93 97
62 54 70
22 48 36
73 26 25
58 15 97
50 95 78
84 84 46
58 53 16
29 40 86
51 26 56
86 95 87
90 14 88
83 13 49
63 28 81
87 16 80
16 71 11
43 49 64
23 71 46
50 46 24
62 77 58
73 89 13
21 90 48
25 70 15
17 47 30
100 21 70
75 70 15
80 25 38
60 51 41
88 37 28
48 67 22
64 85 76
1.83917
1.51166
1.67227
1.38642
0.949087
1.27542
1.03109
0.486126
0.896258
1.40658
1.52279
0.961987
1.75641
1.23372
0.714128
0.524978
0.642338
0.649838
0.753411
1.68033
0.859172
0.502547
1.39331
1.27247
1.37548
1.87431
1.01541
0.615859
1.63211
0.937025
1.68371
1.86718
0.879467
1.08898
1.09102
0.931392
1.0226
1.57331
1.28635
0.538543
1.58063
1.92765
1.41071
1.30914
1.11452
1.61718
1.13598
1.99689
1.06608
0.748899
51 64
336 47
368 371
6 125
143 310
200 405
460 220
429 246
123 113
244 227
60 291
496 68
365 365
279 409
381 47
432 220
15 216
137 434
74 376
150 342
38 246
364 309
356 36
488 72
137 486
453 493
169 172
426 336
438 494
198 328
95 63
383 342
75 354
67 446
146 179
189 232
375 459
70 433
330 454
295 73
475 160
103 135
122 333
277 45
135 312
459 311
317 2
126 366
308 430
82 119
2664
5
