50
7
0 0 0 0 0 0 0
55 68 49 46 74 80 71
53 31 99 77 44 41 81
20 61 39 40 32 64 15
16 59 82 46 56 74 57
99 95 88 92 38 91 58
68 27 56 78 61 28 85
96 34 63 59 11 33 58
67 92 41 85 81 87 77
56 16 75 17 55 28 32
77 38 69 23 82 12 97
51 18 73 75 33 51 20
32 37 39 62 46 97 26
100 65 13 58 24 92 41
82 25 12 31 75 23 83
63 15 73 34 38 14 98
65 55 91 91 42 33 57
58 95 54 60 51 100 51
14 64 76 10 36 66 26
49 33 90 66 92 68 72
62 52 68 28 22 11 22
36 84 61 94 20 69 45
78 90 61 94 95 63 31
62 21 56 66 19 79 33
85 66 62 19 67 40 96
54 97 62 60 46 66 50
97 16 66 41 84 87 11
11 62 41 51 68 20 53
40 44 62 66 59 46 74
18 66 30 28 43 24 56
57 65 56 17 77 95 25
38 46 90 44 83 90 98
93 75 28 81 15 72 14
88 61 84 72 16 13 29
10 78 16 45 17 41 82
19 55 67 78 51 29 59
84 100 16 91 47 46 14
85 75 14 24 77 20 18
47 89 16 91 10 64 90
95 25 16 61 57 44 85
15 17 80 65 85 32 43
63 25 11 79 97 11 41
74 61 69 53 45 13 18
64 29 88 48 56 57 88
57 74 61 73 73 40 22
76 74 90 76 24 74 97
48 35 61 20 82 54 19
47 70 53 14 74 63 40
50 41 56 56 67 88 99
21 12 50 42 69 41 62
0.555754
1.96724
1.39261
0.691588
0.934756
1.18497
2.24926
1.90449
1.07904
2.2588
2.14209
1.53173
2.34939
0.562079
0.539152
1.93324
2.19566
0.780007
2.07499
1.57983
2.35103
1.20585
1.68521
1.30588
0.676611
1.18645
1.85672
1.73254
1.35778
1.11675
1.02074
0.993511
1.07977
0.838859
2.15126
1.10315
0.628344
0.905281
1.49291
2.03467
1.01921
1.3555
1.96331
1.97611
0.940714
0.913812
1.78389
2.38936
1.52839
0.762226
62 41
411 144
355 305
329 151
59 166
430 219
402 320
143 5
428 186
447 169
374 461
466 192
9 433
244 207
245 333
73 489
225 315
333 72
266 290
250 297
389 420
199 146
203 461
500 437
345 480
483 105
36 314
93 373
463 62
497 415
214 188
237 318
198 35
273 26
347 111
148 195
75 59
339 356
36 415
262 297
454 195
376 493
227 362
268 239
486 238
78 130
156 362
271 107
37 467
298 133
3345
4
