50
7
0 0 0 0 0 0 0
65 77 71 36 83 26 23
68 44 44 41 77 24 99
92 89 35 45 20 83 88
69 48 21 79 50 66 97
73 41 56 79 50 11 87
22 92 63 29 76 64 29
36 97 36 56 44 97 77
12 28 10 74 23 37 73
52 29 10 69 40 36 51
20 53 88 14 45 60 29
57 91 64 55 95 36 96
23 36 69 91 29 89 14
22 91 99 82 62 14 41
66 36 40 46 34 60 67
34 48 59 93 78 12 32
42 45 35 81 80 96 85
48 72 12 65 97 35 18
83 24 25 95 11 22 100
37 29 77 93 27 43 73
64 89 71 71 22 91 51
36 10 30 86 51 72 55
10 69 74 75 87 95 14
17 44 36 76 35 46 20
11 99 53 26 94 75 82
47 35 14 10 58 61 87
36 99 92 51 76 79 27
11 86 24 88 58 79 54
56 37 61 71 69 41 14
26 72 46 51 86 85 31
19 30 99 11 75 75 64
30 28 94 30 94 89 47
47 37 58 81 44 47 61
30 90 69 50 100 73 33
21 13 28 85 37 90 73
60 58 76 87 14 81 82
29 22 94 79 85 95 87
32 56 83 72 24 88 66
32 68 99 12 24 100 92
24 29 58 13 97 29 80
97 55 76 69 68 47 58
42 36 74 38 74 100 19
58 63 80 13 14 85 19
31 60 59 14 40 83 88
17 17 29 10 69 81 39
68 56 11 56 46 59 71
26 32 57 41 24 87 37
69 100 27 67 58 34 47
71 13 78 13 64 21 87
57 89 64 16 42 23 15
1.37517
1.07584
1.97657
2.38837
1.91081
1.64224
0.705657
1.60093
1.9051
0.973461
0.902683
0.955842
0.518608
1.67981
1.72568
0.594277
1.31403
0.877084
1.15593
2.15528
0.585665
0.816495
0.559762
1.12979
2.48325
1.38733
1.15616
2.14886
1.68055
2.23889
1.72
2.15212
1.80766
0.858789
2.4756
0.802375
0.811459
0.522825
2.17818
1.23114
0.646618
1.88708
0.538739
2.27518
2.066
2.30873
0.742652
2.1959
0.859109
0.923383
228 364
195 409
476 229
249 41
444 140
424 387
228 493
355 100
24 351
138 82
30 189
206 433
202 96
41 39
71 458
498 227
191 430
206 433
159 364
301 349
410 416
32 223
307 321
246 175
231 224
471 384
228 433
166 237
86 446
94 281
422 161
68 476
248 406
151 448
364 60
220 363
20 155
46 315
263 229
247 52
221 145
271 121
207 213
299 323
181 9
180 294
436 84
208 262
211 258
295 54
4456.67
3
