50
3
0 0 0
33 98 46
67 21 31
53 98 24
61 15 43
68 30 56
61 20 88
43 40 96
90 53 72
85 76 13
70 71 65
14 29 49
11 44 98
14 82 11
38 33 18
87 63 26
98 58 66
45 23 94
65 34 97
27 46 48
27 29 76
71 49 75
61 16 61
80 23 13
28 45 40
34 57 74
18 86 90
98 23 39
18 83 91
53 43 11
56 37 37
93 40 27
74 67 31
45 36 79
34 54 11
61 10 89
11 80 28
38 29 87
30 81 10
11 83 54
64 58 36
80 10 21
40 65 87
100 82 43
52 100 35
78 46 96
85 30 96
100 95 37
100 77 54
23 32 38
1.71263
1.90299
0.623685
1.37132
0.626567
1.05148
1.17638
0.969322
0.882064
1.09517
1.53199
1.73173
1.58619
0.631921
1.9229
1.02088
0.852823
0.507016
0.4472
1.96326
0.688076
0.644528
1.77478
1.46405
0.507928
1.17453
0.739901
1.97081
1.43315
1.40045
1.45096
1.41946
1.83621
1.17417
0.681294
0.583288
1.00732
1.40477
1.8987
1.46068
1.52405
0.883499
1.08025
0.870674
1.08374
1.36502
1.42069
1.64664
1.97932
0.489573
448 327
286 249
263 187
158 334
57 227
105 304
68 44
396 321
210 31
458 491
367 462
218 390
144 384
167 470
245 159
485 315
249 491
280 399
151 442
240 106
311 370
121 373
494 392
233 435
9 77
4 300
102 360
419 500
47 338
120 267
125 408
393 17
370 24
298 59
337 83
479 346
86 66
276 351
196 236
26 90
241 65
174 325
244 288
327 82
7 145
344 245
469 1
117 278
107 112
485 124
3250
4
