50
3
0 0 0
38 55 84
22 80 28
47 59 48
70 98 18
73 87 45
26 76 12
12 82 56
67 92 91
51 13 12
12 94 72
25 56 55
20 78 40
49 40 26
65 60 54
74 44 19
81 29 69
53 60 70
37 70 21
98 88 11
98 16 75
53 33 84
38 66 16
18 61 49
90 52 51
26 19 77
17 51 27
18 72 24
15 99 42
70 79 61
72 81 52
41 99 71
48 88 32
95 96 43
67 89 27
45 28 14
67 94 71
12 84 18
79 91 20
95 42 65
98 98 84
25 81 55
31 56 31
40 24 98
21 36 17
97 31 100
60 18 32
49 40 73
96 55 61
69 19 43
1.20919
0.506943
0.779645
1.76195
1.12901
2.48199
1.07126
1.57552
0.755876
0.686502
0.928514
2.19997
1.6178
2.2653
0.915938
1.65753
1.50991
1.32794
1.65833
2.34696
2.46388
1.37519
0.977187
0.587517
1.75997
1.21846
2.18666
2.29785
1.94094
1.95801
2.41806
1.07981
1.56947
0.908872
2.239
2.28388
0.697402
2.49505
1.9552
1.72702
1.36266
2.04573
1.81524
1.2417
1.98173
1.4832
0.703921
1.63843
1.89927
0.502678
271 27
122 188
151 232
330 241
315 77
57 202
70 317
300 143
464 492
223 206
483 277
156 185
79 344
209 269
140 20
357 193
19 65
494 448
305 43
98 135
227 489
255 347
405 166
318 225
75 158
401 332
88 331
266 205
185 137
197 125
450 373
44 293
336 123
33 154
494 471
403 245
45 23
33 85
163 236
312 337
289 65
176 404
140 95
86 446
247 228
77 200
306 367
138 30
202 0
305 168
13285
1
