50
11
0 0 0 0 0 0 0 0 0 0 0
65 23 14 64 15 22 83 54 33 14 28
14 85 88 68 74 27 16 56 79 60 95
69 85 24 56 71 37 33 40 27 83 32
40 53 17 42 63 16 56 48 75 53 19
46 22 15 14 89 54 10 63 67 29 80
10 82 52 25 79 88 64 10 83 44 71
33 69 81 84 57 47 80 83 65 15 27
20 36 69 96 75 84 97 99 57 39 89
22 54 79 64 29 64 68 22 32 69 75
92 54 71 45 73 11 68 89 21 52 15
56 35 85 94 80 88 24 23 19 41 12
30 52 64 53 74 60 61 22 84 60 53
34 73 75 45 55 48 79 74 47 77 41
92 82 78 26 59 98 67 59 46 78 10
55 76 14 15 59 54 83 22 15 40 46
20 24 90 96 14 47 70 16 42 26 45
26 62 57 43 48 17 13 46 71 95 56
47 14 84 14 35 76 56 45 56 12 50
43 52 25 83 12 24 19 87 73 87 12
90 11 55 19 43 88 96 91 48 24 68
76 33 35 12 53 18 80 17 26 88 82
80 33 82 30 13 86 21 10 35 35 28
61 99 66 85 15 81 12 69 65 37 97
69 17 50 100 21 96 64 81 46 73 12
14 29 26 65 79 78 34 40 67 64 16
74 59 77 67 99 37 84 36 94 60 100
64 31 46 58 40 52 13 37 30 97 75
51 35 13 56 10 94 69 33 68 88 71
70 61 72 75 16 71 19 71 77 10 56
14 50 49 70 41 83 89 92 70 57 94
62 92 45 71 93 73 25 50 66 95 46
70 78 60 78 64 66 99 68 61 50 63
12 92 66 84 69 59 82 44 66 77 54
17 30 34 91 44 62 69 68 37 27 45
75 64 59 22 16 58 11 66 27 68 11
76 49 31 85 65 67 99 61 85 86 25
42 28 75 18 33 47 75 55 54 87 34
38 58 52 19 96 84 14 81 65 67 87
48 89 49 52 38 28 63 44 78 68 84
30 34 86 89 86 82 25 12 43 15 73
77 75 65 84 20 72 50 71 30 62 32
28 17 62 52 96 48 39 47 43 22 68
97 27 36 63 94 67 33 58 81 72 17
74 84 84 20 20 49 89 39 84 100 68
41 43 50 13 65 43 50 68 66 47 64
62 84 52 57 20 15 29 84 13 65 43
60 48 76 46 100 74 65 44 17 50 36
80 34 35 80 87 69 22 10 32 82 23
22 17 13 14 74 70 87 55 41 96 81
0.599589
1.31275
1.62195
2.07979
1.32722
2.05388
2.18198
2.24682
1.40367
1.6685
2.20127
1.43521
1.16074
1.00132
1.41238
1.75642
1.36093
0.649864
2.0229
1.09458
1.31636
0.695551
0.546118
2.28435
0.718277
2.09147
2.23223
1.50934
1.55635
2.32089
1.95975
0.922624
1.13772
1.43588
0.60934
1.68371
1.11909
0.779319
1.92674
1.79084
1.26045
0.51232
0.572492
2.04571
1.45429
0.719202
2.22594
2.23187
1.39959
1.38195
189 345
255 408
395 495
193 359
463 75
105 81
78 11
275 86
145 9
75 251
190 155
22 280
63 269
372 35
239 200
250 74
293 93
133 25
378 135
279 266
203 429
268 218
417 243
376 5
87 256
467 4
250 427
7 262
243 342
203 398
433 32
364 353
421 273
146 18
303 485
219 201
272 451
248 149
67 309
229 342
150 483
198 340
452 137
339 256
400 284
258 125
94 86
493 15
48 77
62 76
2648
5
