50
3
0 0 0
54 62 78
64 64 76
74 50 68
21 21 69
74 50 82
89 78 52
32 53 74
74 50 43
57 71 57
65 88 27
13 28 42
68 75 17
13 26 52
10 95 26
84 45 19
61 17 32
70 49 90
55 10 69
75 92 63
80 86 21
47 92 57
83 64 73
75 36 59
60 58 53
41 64 16
11 60 91
96 19 93
27 36 39
41 22 71
38 72 71
14 79 77
19 85 84
29 45 23
10 65 34
22 23 18
75 27 77
70 46 12
52 34 84
62 69 77
92 97 36
96 87 85
97 66 97
98 90 85
13 21 66
91 37 11
68 90 66
47 91 18
27 32 34
24 47 55
0.722588
0.628582
0.495509
0.512024
1.52817
1.37201
1.6018
1.51311
0.634495
1.5903
0.886405
0.982061
1.62716
1.2696
1.35347
1.68414
1.14717
1.59485
1.37674
1.47693
1.33484
0.933048
0.87907
0.49316
1.66565
1.22294
0.750387
1.55769
1.75813
1.44777
1.06529
1.42367
1.403
0.961916
0.537509
1.83607
0.669477
1.29923
1.75881
0.499641
1.11933
0.493146
0.819087
1.71819
0.831578
1.26022
1.13019
0.83129
0.471054
1.46425
315 304
324 189
294 400
206 446
434 87
19 469
435 410
0 81
442 336
41 72
227 14
223 75
13 495
302 79
339 379
45 215
480 281
327 161
264 118
6 150
446 101
402 178
196 125
281 46
148 89
334 432
449 250
437 135
439 200
469 73
392 184
10 476
326 237
170 26
246 107
300 204
458 174
189 89
387 326
449 395
14 362
72 270
27 375
409 342
333 211
202 110
437 207
191 237
231 66
278 356
4521.67
3
