50
3
0 0 0
73 30 21
73 40 14
30 76 41
26 57 66
87 99 12
54 42 40
97 94 77
95 69 29
75 59 16
48 75 84
64 18 99
33 53 32
76 60 17
100 31 16
89 35 61
26 41 76
47 47 80
18 56 40
52 45 68
40 78 24
46 59 70
85 64 63
65 10 13
95 74 74
28 81 56
82 79 35
52 90 60
11 55 14
97 99 18
89 38 28
47 51 83
68 93 25
54 92 94
63 80 29
16 59 83
85 100 43
19 23 74
94 46 73
48 95 83
14 17 28
81 27 71
13 70 98
32 77 97
63 13 82
12 45 85
76 60 90
87 56 31
18 87 28
35 94 93
0.404481
1.45101
1.28624
0.823848
0.457867
1.32297
0.4343
1.33487
0.331631
1.25441
0.849894
0.54822
1.49848
0.441474
0.861809
0.592111
0.581508
0.79134
1.34623
0.877083
0.935489
1.21094
0.484435
1.41815
0.307858
0.717249
1.24857
1.31011
1.27222
0.310297
0.863329
1.23802
0.760251
0.429089
0.935307
0.976444
0.430089
1.06393
1.02391
0.580912
0.755384
0.302005
0.483239
1.17816
1.09451
1.21242
1.48429
0.975985
0.921862
0.452136
317 93
125 167
12 243
157 391
413 482
258 432
141 121
115 48
41 292
119 248
263 310
482 314
277 176
211 395
287 203
249 367
131 46
404 125
308 183
399 250
255 69
253 321
463 201
82 129
488 200
483 402
90 389
185 324
239 0
455 483
384 111
250 82
37 203
424 304
462 248
440 476
188 220
380 155
167 292
252 389
245 467
360 418
6 308
457 424
140 488
331 80
265 203
98 202
43 282
273 444
2783
5
