50
11
0 0 0 0 0 0 0 0 0 0 0
27 39 85 20 70 51 56 49 81 34 64
16 31 45 30 64 72 18 40 32 41 45
16 78 57 75 42 72 68 81 67 32 16
30 85 52 100 76 93 94 83 93 98 61
19 86 79 70 25 58 50 73 58 28 52
18 89 57 22 46 23 62 94 56 46 11
53 84 58 91 90 35 14 89 77 99 40
17 74 36 81 69 58 54 21 93 38 88
95 48 19 26 63 95 63 32 60 67 63
80 45 33 38 37 31 97 13 40 40 87
68 53 28 88 70 44 13 16 90 87 15
49 33 49 24 92 92 83 87 59 97 70
57 55 86 52 80 22 31 15 30 68 86
35 24 90 54 59 88 92 78 85 23 52
21 90 99 68 43 88 36 30 91 63 59
22 21 99 78 86 20 76 29 20 67 77
30 67 12 50 51 93 79 66 38 23 68
43 71 39 20 31 19 69 79 60 33 41
68 87 40 82 70 44 77 39 93 18 66
17 99 92 84 38 86 48 13 99 94 86
20 37 99 34 12 81 92 86 24 67 36
47 89 45 69 41 53 64 24 72 95 72
100 94 32 74 39 55 27 72 43 93 78
56 74 20 71 24 78 88 50 48 77 48
20 53 78 78 10 49 74 94 100 61 44
12 27 10 57 71 68 51 31 69 88 81
36 49 63 53 45 23 85 99 29 73 47
64 100 90 26 54 30 16 62 26 27 98
97 55 46 88 92 74 53 93 15 24 40
87 97 39 29 48 44 80 99 99 68 49
61 54 23 94 29 100 64 54 34 81 57
59 46 75 99 83 93 12 83 82 55 52
14 10 79 20 83 21 80 26 22 97 60
29 95 49 49 58 21 90 55 30 80 51
54 80 73 79 92 89 32 72 41 38 46
45 100 95 45 60 83 93 31 44 17 20
58 32 27 68 88 31 26 82 81 16 37
47 34 65 26 66 82 96 27 62 10 92
71 58 74 11 42 35 59 23 86 27 25
89 94 35 75 54 29 26 76 34 41 52
98 31 31 37 65 37 74 24 57 28 30
98 48 44 86 12 77 24 58 61 69 40
93 96 24 49 54 78 49 22 17 64 61
53 82 54 36 30 93 39 34 33 85 39
11 52 72 82 91 70 14 40 16 98 45
72 11 83 75 97 70 80 78 45 85 60
17 68 72 12 39 13 82 97 80 66 23
74 39 99 86 44 66 62 24 81 59 66
59 92 22 92 69 84 27 33 100 22 64
0.200253
0.765334
0.604964
0.35838
0.732163
0.529098
0.365693
0.65949
0.333905
0.964879
0.438448
0.817871
0.217404
0.319964
0.698417
0.721488
0.784282
0.514557
0.908762
0.316112
0.919598
0.789536
0.972416
0.812707
0.887639
0.639669
0.929329
0.338507
0.585771
0.652955
0.329094
0.509967
0.251567
0.808869
0.645519
0.700244
0.275254
0.845622
0.218032
0.736968
0.848355
0.707619
0.93612
0.80731
0.824657
0.401378
0.811611
0.228528
0.411173
0.412564
123 150
65 14
21 48
125 238
200 222
24 292
354 208
217 250
214 70
249 288
129 249
218 21
337 415
93 262
306 499
155 292
394 381
427 115
342 106
282 266
51 0
329 239
118 165
111 166
299 184
27 160
92 488
190 203
472 291
314 313
358 431
356 257
496 220
318 160
219 456
429 448
45 9
336 242
423 166
68 71
496 276
281 91
328 185
92 233
84 278
8 246
478 463
390 216
366 188
356 281
6962.5
2
