50
9
0 0 0 0 0 0 0 0 0
77 16 29 25 90 41 37 10 56
78 60 44 84 33 47 27 17 50
100 37 77 19 41 15 52 93 85
16 28 83 40 10 97 79 17 84
48 69 81 51 34 93 95 32 57
24 28 29 42 24 16 24 74 29
27 50 36 17 49 13 58 30 51
23 45 42 29 82 92 22 85 35
92 35 33 47 36 28 53 43 68
80 17 23 43 56 90 77 30 66
55 58 43 48 20 99 41 37 96
96 55 67 11 48 34 12 24 65
30 62 16 11 76 87 74 86 65
67 70 18 12 25 45 46 66 95
62 14 21 22 74 46 13 60 49
76 71 89 83 41 43 62 67 24
52 88 40 30 25 25 50 75 20
25 52 30 87 37 63 97 82 72
57 98 41 62 55 21 74 80 34
18 52 61 89 15 20 15 86 24
68 97 68 29 42 88 80 26 26
79 72 66 58 65 75 97 90 47
11 20 36 45 44 83 55 37 39
91 86 77 98 24 14 65 25 73
28 12 34 34 45 85 26 53 69
53 64 33 73 86 66 94 11 28
45 50 61 55 50 98 15 84 80
69 17 42 78 32 49 52 91 52
89 21 18 39 85 79 95 65 72
92 76 73 24 54 31 72 100 53
51 43 27 25 14 49 84 82 21
25 94 21 14 46 51 98 55 94
75 92 59 45 81 74 10 34 29
89 85 23 16 63 65 96 69 70
61 57 93 36 11 58 62 97 39
66 87 64 26 43 56 48 94 97
55 23 80 79 25 47 79 93 97
44 21 62 59 29 31 36 31 88
27 35 96 43 97 37 67 20 45
97 43 73 28 92 96 98 70 12
82 74 29 60 22 58 89 32 99
45 100 47 67 39 51 10 82 72
41 26 15 79 41 60 10 10 46
39 20 64 71 44 89 88 13 69
96 74 92 54 87 23 43 40 94
69 69 85 28 21 97 56 14 97
21 79 81 86 47 28 82 82 59
74 100 37 58 79 61 24 13 20
37 66 67 66 25 54 43 73 43
2.09071
1.31694
0.914665
1.1141
0.937639
2.18966
0.764649
1.96926
1.51218
2.45656
1.61512
2.22975
0.54113
2.14014
1.24934
1.36336
1.61824
0.672634
1.75285
2.0516
1.37642
2.05771
1.47666
1.60716
1.22875
1.25591
0.585316
2.429
0.629926
1.26459
1.01226
0.501757
2.48118
2.12143
1.36495
1.16924
2.30489
0.62407
1.09752
1.2534
1.21513
1.27811
1.10191
2.42139
2.25832
1.70058
0.98613
1.29225
1.48385
1.65431
48 125
115 15
266 119
197 434
426 58
63 406
267 362
178 161
71 39
344 293
303 398
331 117
432 240
259 427
203 80
349 303
339 231
314 180
162 190
110 35
435 400
97 33
321 336
441 267
82 239
433 253
368 365
288 449
182 272
351 417
375 345
314 168
173 198
245 62
309 265
224 71
421 361
393 389
185 184
375 120
212 12
89 361
130 414
249 263
189 234
171 299
81 51
174 349
478 261
114 395
6602.5
2
