50
7
0 0 0 0 0 0 0
93 84 64 69 31 30 43
68 22 48 82 43 94 79
28 66 20 100 73 85 20
81 72 17 97 43 82 67
89 29 89 54 68 75 16
21 19 35 59 75 41 76
15 84 33 100 40 56 62
82 31 11 98 73 61 90
86 63 19 54 49 62 96
82 54 12 20 10 73 13
36 33 20 99 32 76 78
92 33 67 25 79 22 53
82 65 99 40 92 96 31
34 64 21 66 41 18 61
87 78 26 46 79 63 73
90 79 15 10 20 71 38
42 16 35 27 57 13 64
39 22 14 23 78 60 26
54 62 32 27 80 57 90
50 98 84 97 49 71 17
49 89 96 19 98 93 39
40 89 35 54 28 84 10
77 65 21 78 97 63 30
45 62 20 81 12 25 26
38 94 56 19 19 66 60
41 63 21 50 40 85 26
11 64 40 16 61 31 12
51 39 26 85 30 43 68
89 85 50 76 27 89 31
49 89 99 52 57 74 45
20 46 41 79 54 39 43
87 36 26 44 93 20 55
25 12 42 19 63 55 12
91 26 49 14 10 72 100
69 55 49 36 68 61 67
80 64 51 16 31 87 46
51 34 39 87 86 37 71
40 27 42 40 72 34 94
97 15 25 78 50 25 21
72 65 52 37 47 55 18
69 60 72 58 54 70 22
83 66 38 19 74 49 49
20 20 75 58 50 39 94
50 60 24 73 96 87 30
70 91 87 93 19 41 37
87 60 81 99 25 78 85
36 47 25 30 68 85 91
43 33 76 20 89 90 16
93 79 40 84 17 67 100
0.353068
0.320466
0.571219
0.958173
1.28771
1.11076
1.10526
0.809947
0.961283
0.366666
1.17565
1.06085
0.616993
1.0514
1.48298
0.445506
0.469326
0.397942
1.06106
1.48092
0.435521
1.16807
0.507397
1.48761
0.340817
1.07577
0.455462
1.0408
0.775279
1.4664
0.468203
0.580639
0.961195
0.623992
0.697391
0.898891
1.2848
0.864661
0.957915
1.01698
0.503711
0.828596
1.23869
0.977097
1.49067
1.36641
0.928016
0.493769
1.04361
1.13881
5 61
64 121
320 2
362 360
318 463
264 372
144 187
24 372
125 316
215 311
465 408
114 224
303 350
449 122
488 159
130 92
133 476
349 191
207 338
42 380
117 92
160 254
216 481
332 147
472 360
315 176
370 259
412 366
14 380
69 31
91 124
87 39
122 68
317 486
293 243
297 151
118 129
23 137
100 465
307 481
272 305
441 276
355 132
444 396
152 435
405 113
8 342
22 129
55 286
301 10
6637.5
2
