50
5
0 0 0 0 0
23 77 57 58 63
67 83 43 94 28
95 54 94 81 75
33 59 17 19 35
87 64 35 76 41
59 97 14 34 93
74 15 68 29 96
89 74 17 51 85
12 89 79 96 13
89 98 58 52 75
69 97 18 88 71
42 13 47 47 59
72 82 54 13 65
24 17 52 40 36
15 71 25 98 20
16 85 19 19 57
67 64 46 52 17
57 81 79 80 27
32 50 47 75 26
17 91 38 79 73
59 20 27 59 74
50 45 24 83 25
20 97 62 22 50
12 18 59 91 81
39 77 25 70 43
51 44 63 21 77
77 97 64 70 64
55 14 80 68 40
67 93 98 95 59
76 47 37 51 90
62 91 18 39 36
86 12 49 10 19
64 46 84 100 91
93 44 85 95 45
41 100 59 57 89
65 82 30 32 71
100 16 74 91 47
89 57 23 30 50
78 27 66 16 16
97 48 62 90 54
70 31 54 11 15
28 17 100 69 12
75 36 28 10 34
20 16 42 72 54
57 67 66 10 17
75 59 60 21 91
52 25 78 65 74
65 82 80 54 85
77 87 83 23 75
0.809299
0.673681
0.324719
0.479232
0.322199
0.407484
0.239424
0.42122
0.281942
0.394999
0.627023
0.798766
0.421311
0.30781
0.564587
0.695774
0.840351
0.506183
0.510583
0.268797
0.734523
0.547384
0.248256
0.628273
0.6136
0.448721
0.215599
0.777842
0.926085
0.408607
0.67172
0.349591
0.467917
0.574104
0.504014
0.372649
0.594574
0.779119
0.263029
0.338075
0.378472
0.211606
0.95861
0.577054
0.481975
0.92334
0.883511
0.588484
0.660732
0.565513
454 78
348 430
23 148
90 63
413 49
19 106
109 58
310 132
12 446
97 58
127 437
146 305
49 88
50 193
174 47
42 353
128 358
449 417
45 192
255 87
478 442
123 446
14 339
467 440
77 376
213 386
499 176
459 42
200 188
26 175
460 192
318 465
68 186
315 71
410 177
219 188
429 328
37 109
372 189
415 98
117 361
112 324
351 8
427 178
307 448
390 76
145 199
167 75
367 386
174 74
3405
4
