50
3
0 0 0
68 88 68
63 60 23
83 94 41
95 69 55
50 73 33
89 72 71
79 38 16
19 83 61
15 70 48
33 26 61
53 48 27
62 67 62
39 97 24
78 66 43
64 49 42
49 92 73
36 14 29
60 82 54
55 40 78
65 38 59
27 87 97
81 60 11
96 68 20
70 100 75
34 86 81
48 100 24
67 82 59
17 56 90
34 53 72
82 54 29
94 53 20
43 15 17
35 18 10
13 38 94
42 84 60
80 92 71
22 14 96
20 46 51
51 70 40
55 82 92
40 28 58
26 20 10
76 52 18
17 45 26
23 14 46
80 47 81
52 43 14
94 57 54
43 97 29
1.43104
1.25093
0.696218
1.34092
1.65397
1.0478
1.73164
0.571857
0.468761
1.51452
1.11931
1.45547
1.13367
0.416983
1.74525
0.403343
1.63177
1.62866
0.586502
0.918878
1.2381
0.627877
1.82129
1.34028
1.83457
1.69925
1.16388
1.94264
0.665818
1.28911
0.494406
0.598799
1.74201
1.45702
0.879634
1.8147
1.30877
1.83877
1.1674
1.04207
1.34712
1.27331
0.772084
1.84589
1.07392
0.461066
1.02975
1.91471
1.98017
0.709834
394 386
446 142
86 283
243 422
421 440
158 236
321 105
359 158
158 305
167 83
145 418
268 387
430 78
103 162
201 210
138 485
231 148
128 97
291 401
250 356
406 243
97 126
147 356
26 164
158 247
423 163
26 373
348 320
265 157
32 56
460 376
40 92
424 318
7 0
303 81
173 28
465 368
25 119
428 180
205 28
486 26
141 342
74 374
284 141
389 38
312 256
314 492
172 268
317 325
36 464
3315
4
