50
7
0 0 0 0 0 0 0
12 16 84 12 20 98 13
54 20 52 35 89 79 37
65 61 64 45 63 29 26
41 21 79 49 65 91 16
67 17 47 38 95 96 30
37 50 47 13 24 81 11
32 35 28 93 69 12 96
32 45 88 53 50 37 80
71 26 34 70 97 34 11
23 45 56 55 29 35 31
100 46 92 10 75 94 82
89 50 58 71 12 48 39
10 81 23 98 14 32 59
53 49 77 90 44 89 55
20 71 77 99 91 91 46
77 22 26 21 11 21 66
26 15 33 28 86 77 82
92 99 25 77 28 35 29
34 30 70 56 71 23 46
33 53 98 21 18 68 73
25 27 34 100 63 98 88
55 30 43 61 26 81 74
99 26 48 61 99 89 79
45 35 78 12 37 27 97
52 30 20 72 61 74 68
50 23 80 38 75 38 29
87 88 24 42 83 69 15
52 42 32 66 16 30 12
100 42 39 39 48 43 29
94 14 29 32 34 98 54
35 34 22 78 48 51 79
17 74 13 20 35 20 53
28 95 60 79 26 88 32
35 83 31 31 56 66 89
21 80 47 17 62 48 83
48 73 74 12 74 49 26
45 97 55 59 85 14 97
86 91 37 86 18 58 83
93 42 20 13 67 44 77
67 41 13 52 54 68 17
45 92 80 61 59 24 85
16 15 20 88 40 48 55
99 44 59 89 54 25 98
72 91 75 55 66 96 22
72 74 31 24 23 31 35
50 31 60 10 98 87 66
39 31 54 32 44 63 44
16 37 17 79 96 45 38
81 28 66 38 65 76 35
0.410967
0.524881
0.920677
0.717186
0.888949
0.886124
0.587756
0.538649
0.851744
0.73453
0.219514
0.646062
0.595456
0.575484
0.739924
0.716562
0.91902
0.910161
0.766111
0.979557
0.573476
0.435487
0.556628
0.524565
0.909521
0.917147
0.202879
0.68636
0.790851
0.491677
0.771322
0.994863
0.622569
0.362172
0.80061
0.284673
0.348024
0.842593
0.349434
0.803979
0.743464
0.236997
0.691383
0.621901
0.9924
0.931029
0.503245
0.427855
0.540028
0.665174
349 417
194 165
106 352
385 440
231 53
159 112
431 14
291 232
245 132
453 263
103 59
132 210
337 138
37 477
326 374
183 325
278 280
160 382
486 390
216 46
24 141
474 69
452 59
341 414
190 484
57 200
316 409
372 436
426 113
7 493
171 141
5 261
200 480
239 159
208 67
126 35
313 466
160 466
203 372
249 200
376 74
280 160
194 205
91 401
430 488
124 239
58 322
30 330
26 396
470 467
3200
4
