50
5
0 0 0 0 0
100 94 39 18 90
28 66 95 98 78
82 84 59 98 57
51 34 84 87 48
54 32 23 44 46
16 89 54 49 67
46 33 52 93 80
85 31 51 94 69
60 59 39 24 88
27 38 59 89 17
28 36 48 13 46
63 67 73 66 50
36 11 48 41 62
98 45 94 66 60
12 43 45 17 80
45 74 76 99 45
68 26 26 12 54
65 19 63 51 38
99 56 35 37 50
21 31 82 56 84
72 38 27 100 50
42 93 49 57 39
31 65 50 45 44
40 49 17 100 71
18 35 86 20 82
83 44 51 96 47
68 97 100 93 32
50 69 78 24 31
84 34 46 25 79
92 22 18 64 22
48 22 16 41 84
55 61 52 54 38
31 37 21 43 48
47 36 38 90 100
31 45 32 37 80
38 90 16 27 35
37 40 36 21 74
97 49 76 100 87
88 62 91 91 65
100 98 22 22 43
41 95 56 18 28
80 17 72 91 87
23 75 65 72 22
85 66 40 91 24
42 56 58 90 49
71 28 22 52 76
44 20 75 38 60
47 51 66 12 90
64 44 39 95 33
0.469707
0.442356
0.315186
0.177445
0.375249
0.314979
0.423929
0.427294
0.29575
0.312864
0.213836
0.205802
0.193363
0.159716
0.394487
0.114947
0.248248
0.182048
0.213711
0.310953
0.304508
0.343136
0.236922
0.359537
0.3781
0.275736
0.357473
0.486824
0.1272
0.325669
0.435752
0.121293
0.262104
0.114178
0.107157
0.326958
0.250654
0.223339
0.332172
0.179816
0.25041
0.429219
0.448914
0.250228
0.320788
0.160022
0.156009
0.359428
0.322176
0.480679
453 313
385 237
392 493
191 304
233 14
296 493
300 355
179 215
255 197
110 452
52 36
38 13
439 214
27 249
44 259
434 186
60 369
402 254
419 260
477 360
125 257
51 117
480 94
156 83
348 330
360 154
20 442
395 313
116 126
385 266
32 202
266 495
261 77
393 153
50 376
371 392
117 2
85 41
472 497
470 228
235 317
249 321
9 481
113 220
78 188
432 15
81 175
427 373
310 429
274 210
4495
3
