50
7
0 0 0 0 0 0 0
17 62 25 34 10 52 91
43 30 97 27 82 62 45
31 85 70 87 29 91 28
27 32 84 75 71 59 13
35 34 26 23 65 47 64
39 73 12 94 50 75 79
25 16 25 65 82 81 85
14 91 94 25 62 81 90
89 38 52 82 10 21 50
65 99 10 93 68 76 25
59 41 59 60 43 74 56
67 95 61 42 30 68 20
55 90 16 20 100 69 64
26 98 18 96 53 23 28
62 64 64 29 59 27 39
16 29 65 70 65 54 51
31 59 12 39 66 79 42
12 61 29 71 47 80 59
86 85 85 17 43 29 30
14 30 81 91 82 19 95
39 20 76 85 33 60 96
31 44 90 14 29 97 33
63 12 74 52 75 40 74
85 58 36 21 65 71 28
68 66 56 11 99 36 68
68 76 14 90 49 89 87
11 85 75 92 20 45 91
93 59 82 40 84 77 67
51 88 85 73 55 83 51
17 51 80 42 73 71 91
59 78 56 52 57 74 28
95 82 41 34 53 79 77
86 35 84 89 67 94 91
30 13 32 74 24 65 60
17 16 11 83 16 65 42
92 93 16 100 20 98 13
40 18 84 32 81 80 78
59 74 11 52 100 34 97
34 40 43 56 18 95 55
53 88 93 13 45 100 30
69 15 39 92 98 17 90
48 72 89 34 81 37 29
94 69 37 29 44 91 91
56 57 99 19 62 34 97
53 24 53 48 16 65 56
85 70 25 52 46 87 62
33 25 100 44 90 87 33
87 55 64 91 81 84 47
100 91 60 10 82 74 78
0.829287
1.92988
1.88137
1.32592
1.36639
1.10946
1.95752
1.14382
1.53642
0.73466
0.95357
0.854793
0.861568
1.92507
1.36157
1.35705
0.699898
1.46696
1.52451
1.34794
1.63085
0.629634
1.81078
1.94544
0.836339
0.456365
1.6214
1.41415
1.26727
1.52095
1.94662
0.50324
1.3676
1.96249
0.868661
1.22155
1.60503
0.889968
0.919255
1.84717
1.19145
1.28865
1.11764
1.21357
0.687867
1.22432
0.773157
1.49054
0.739345
0.447366
235 50
122 198
180 10
330 391
478 100
73 483
221 321
31 72
482 332
382 260
253 426
71 271
281 115
65 100
6 204
1 308
168 163
324 193
126 123
151 0
176 496
142 329
176 456
444 364
414 206
102 56
356 482
11 360
85 191
18 126
402 141
298 429
414 258
142 340
140 456
365 444
191 133
147 0
489 451
5 58
446 481
374 297
171 435
396 61
18 334
48 472
359 195
266 3
389 412
83 312
6977.5
2
