50
5
0 0 0 0 0
19 35 14 56 64
61 48 35 24 83
56 45 28 67 20
30 32 23 47 47
31 43 23 96 69
81 10 63 100 58
69 83 91 79 65
20 57 52 94 82
15 71 81 74 29
71 35 25 78 25
100 15 80 89 88
25 26 70 51 19
63 97 32 15 82
38 76 42 62 11
66 91 76 15 38
49 89 38 48 58
98 88 86 68 35
33 88 83 10 30
75 94 87 67 29
31 86 50 92 80
75 69 79 21 43
15 99 55 56 90
37 43 66 91 35
80 60 85 94 17
87 39 73 87 59
80 43 75 62 53
97 26 29 62 91
81 47 82 25 51
75 59 43 21 72
54 33 36 97 33
58 43 41 73 32
36 56 34 94 13
31 30 24 11 60
28 16 35 89 80
23 71 83 29 83
27 68 62 64 100
87 97 32 80 69
35 10 83 91 47
53 57 41 66 93
88 28 79 65 58
43 82 91 98 29
12 17 12 78 28
12 100 11 47 50
56 95 83 71 53
15 99 10 61 80
91 49 66 35 59
98 96 29 71 38
35 48 50 60 38
30 39 16 11 12
1.0041
1.27407
1.32523
1.48085
1.58654
1.2825
1.93083
1.45783
1.54747
0.628638
1.38683
1.18052
0.601344
1.67708
1.97955
1.37252
1.57268
1.19047
0.779803
1.60424
1.28781
1.86086
1.69227
1.87523
1.33801
1.81163
0.943426
1.01517
1.31881
1.09976
1.50471
1.02515
1.85566
0.592648
1.06395
1.97211
0.715749
1.13143
1.97497
1.73961
1.08464
1.48514
1.84932
1.97186
1.78317
0.602102
1.46938
0.820892
1.27757
0.405659
126 148
200 3
195 188
117 347
110 90
204 470
373 191
429 306
498 460
386 38
12 305
123 451
60 242
104 35
242 74
209 306
413 203
362 2
411 370
67 118
69 183
311 313
377 229
170 409
179 240
288 282
169 331
133 97
326 213
95 441
471 200
157 419
91 408
298 183
390 71
125 301
14 93
162 19
211 47
67 299
436 336
36 51
38 216
327 396
30 313
481 336
206 62
477 256
97 169
411 487
2720
5
