50
11
0 0 0 0 0 0 0 0 0 0 0
12 42 61 36 34 78 97 31 14 60 93
72 50 84 42 48 95 95 94 89 93 40
86 96 98 27 97 31 87 61 41 38 40
35 18 61 48 67 56 40 29 17 56 66
47 21 94 99 29 21 38 76 95 38 47
15 78 63 99 66 16 50 68 20 94 33
76 21 46 47 86 21 81 12 89 81 93
91 29 18 34 28 68 64 98 89 48 25
70 26 53 22 95 100 24 76 24 99 40
92 20 63 43 54 42 32 77 76 34 33
30 82 88 18 50 92 56 56 33 40 22
34 21 31 57 41 50 32 18 53 28 38
25 62 87 85 65 22 50 73 17 87 62
40 42 99 93 19 19 58 36 38 24 54
41 42 83 82 69 27 56 93 99 78 97
34 84 87 37 11 59 73 43 88 92 43
79 74 35 89 62 75 80 59 45 59 36
31 26 79 38 44 24 52 29 50 31 57
16 51 79 80 75 48 62 91 26 79 45
31 26 93 35 86 65 22 43 38 70 76
23 16 91 14 22 16 18 11 90 67 28
33 39 89 62 33 40 98 74 32 66 84
86 73 23 34 88 35 63 52 48 82 86
61 70 36 31 32 54 23 10 65 53 25
40 85 87 97 58 79 59 69 75 13 20
41 30 34 70 92 90 89 96 39 48 64
38 21 56 67 100 19 80 76 38 78 33
52 88 89 35 53 47 30 75 81 30 59
49 45 41 94 39 17 89 37 98 46 97
44 59 100 55 73 49 69 69 37 59 36
48 71 85 13 14 22 18 48 100 20 63
25 95 32 11 61 60 73 92 35 64 89
87 71 37 75 95 19 52 78 21 16 40
60 26 31 73 93 96 58 26 58 30 57
47 17 89 21 13 100 22 11 11 98 13
79 81 79 34 93 93 41 58 84 100 59
40 70 61 93 67 14 14 12 87 73 39
44 13 13 78 76 71 22 12 99 74 87
35 59 70 86 22 46 94 67 52 70 86
30 71 25 85 86 11 82 80 45 94 73
67 93 48 51 15 50 95 74 20 85 58
86 74 47 44 29 32 100 55 61 84 100
27 26 44 48 39 31 73 60 40 21 59
13 15 99 35 82 10 58 76 23 45 52
93 89 90 50 97 39 12 36 11 22 40
53 74 91 77 33 84 97 97 38 39 71
84 40 29 64 50 82 44 53 41 60 68
25 21 21 53 20 38 26 18 88 35 93
46 37 52 34 90 91 63 80 43 64 65
1.14106
0.902889
0.743215
1.40881
1.31898
1.4882
1.02541
0.961394
1.49065
1.49407
1.40149
1.20099
0.97329
1.15315
1.06422
0.623169
1.39887
1.29756
0.469099
0.391218
1.29299
1.49961
0.973714
0.802562
0.808805
0.814988
1.07537
0.357761
0.611212
0.515637
0.456452
1.20482
1.18263
1.30053
0.733294
1.29241
0.978623
1.21216
0.709573
0.753676
1.33706
0.497707
1.03651
1.29754
0.441666
1.11708
0.873831
1.03213
1.17249
0.521009
61 230
177 29
447 24
484 422
35 317
78 284
337 374
62 431
81 441
218 138
64 23
343 104
321 96
459 243
292 364
383 447
321 13
476 498
20 287
132 197
314 343
493 499
260 290
352 226
368 12
453 38
411 117
238 291
10 482
75 111
172 332
155 455
377 453
163 311
5 166
298 22
499 22
14 357
234 476
338 9
191 349
323 392
132 66
104 8
147 476
370 330
205 389
472 241
144 152
341 315
3378.75
4
