50
5
0 0 0 0 0
77 19 92 16 33
33 51 80 77 24
81 31 58 54 63
39 23 49 39 28
81 88 45 57 77
19 86 66 60 50
87 35 14 56 44
53 76 99 20 20
63 89 89 89 100
82 16 51 14 73
32 55 73 40 90
33 20 19 28 88
47 22 88 15 38
65 46 40 11 29
22 92 42 54 82
40 15 75 90 91
55 50 41 87 40
52 52 47 91 55
99 65 62 22 51
41 93 87 27 28
71 56 60 45 69
85 92 86 67 50
99 58 49 51 35
68 60 36 68 15
27 10 95 54 56
98 79 11 36 93
48 60 26 45 36
95 26 78 34 66
17 13 15 48 93
25 75 26 34 16
77 22 10 78 69
31 67 33 36 91
68 63 83 62 47
25 20 68 29 97
31 52 77 29 18
78 39 100 71 78
15 79 21 59 58
68 63 20 70 35
16 24 30 28 33
75 61 22 24 61
33 48 65 28 41
59 88 53 71 66
34 26 56 61 69
18 80 36 58 61
31 46 37 27 24
53 50 30 63 67
52 68 41 61 65
26 12 67 47 72
20 75 96 76 87
0.50547
0.997351
1.59063
1.18715
0.617539
1.19418
0.445034
1.70949
1.54486
0.671455
1.30058
1.07999
1.61279
1.86722
1.1972
0.542652
1.25614
0.804286
0.842336
0.90445
1.58427
0.935823
0.515331
1.91626
1.40291
0.690285
1.53021
1.87245
0.958603
1.77619
0.916098
0.968215
0.446208
1.39714
1.15123
0.598125
1.17842
0.69844
1.6082
0.785168
1.16916
1.96817
1.4461
1.63484
1.88851
0.660733
1.94936
1.74737
1.71509
1.20916
43 223
69 239
98 494
187 339
389 100
143 36
140 277
481 168
174 335
73 228
370 236
163 230
291 38
183 219
254 322
208 438
464 200
361 198
485 155
486 58
337 308
415 329
492 460
254 363
108 14
149 93
483 50
202 459
9 284
302 92
212 118
148 207
363 64
256 338
308 348
273 204
201 362
222 330
175 467
156 446
308 450
196 278
94 93
348 395
234 46
277 183
214 229
291 3
412 390
78 333
3225
4
