50
11
0 0 0 0 0 0 0 0 0 0 0
39 97 78 41 20 78 97 27 24 25 87
14 70 57 25 10 22 87 19 94 36 23
64 36 97 91 49 14 43 65 76 32 79
73 29 32 43 88 70 27 39 56 21 56
60 88 30 25 80 78 61 54 79 30 66
46 52 47 67 89 18 49 98 89 58 25
74 17 25 30 93 90 50 95 21 46 42
41 80 68 62 43 86 53 50 79 84 39
80 76 16 87 82 15 15 19 64 75 33
55 90 31 66 87 47 82 19 80 10 11
10 91 17 27 76 59 37 59 23 42 71
44 13 94 24 17 34 60 66 40 82 57
62 45 87 44 35 63 30 39 85 54 11
51 75 28 40 19 56 52 29 13 19 51
44 69 68 100 37 37 84 68 74 84 43
90 50 60 23 93 11 20 79 51 32 64
16 80 90 98 72 65 52 80 56 69 50
79 12 81 60 93 92 47 43 34 39 45
98 41 39 89 60 25 46 28 30 52 56
66 100 75 44 49 15 73 68 59 13 49
76 64 45 54 92 41 40 11 92 39 34
29 68 35 16 17 54 44 25 92 53 48
11 82 72 83 91 24 23 16 78 24 27
96 65 52 75 79 77 27 68 12 76 45
85 73 15 73 21 96 80 17 59 11 93
50 87 83 91 21 30 74 91 20 85 47
13 58 29 64 64 55 79 95 50 18 21
50 80 29 90 31 89 20 75 10 35 70
74 74 24 17 20 25 48 33 54 31 22
22 15 46 63 98 41 41 14 20 91 56
40 35 25 30 93 28 67 37 79 69 26
11 10 40 10 51 56 48 94 52 76 53
59 59 100 60 47 91 65 78 10 45 46
40 90 86 39 32 95 15 60 94 35 91
35 64 65 60 23 68 75 91 92 73 29
95 87 17 92 48 34 89 13 20 97 57
47 40 17 39 51 25 56 10 65 95 60
21 32 47 60 68 83 56 68 31 63 55
26 30 65 82 85 37 10 99 47 52 66
93 53 98 57 100 32 49 43 88 58 71
95 74 70 24 50 84 79 54 95 35 42
39 27 72 92 72 50 71 39 22 57 74
27 88 10 44 77 59 75 36 72 71 12
76 11 31 92 37 12 35 32 93 91 85
29 40 31 46 54 53 10 89 29 43 29
69 28 41 80 99 10 67 36 72 29 38
70 36 30 63 88 55 75 50 55 19 99
45 19 30 27 47 74 100 25 24 31 76
68 36 94 12 67 100 33 28 77 94 33
0.829766
0.273948
0.678881
0.893297
0.850167
0.38567
0.322643
0.584623
0.512353
0.641352
0.79639
0.505018
0.804695
0.508001
0.668955
0.220867
0.666337
0.241938
0.765085
0.448927
0.449311
0.608031
0.59575
0.458947
0.296179
0.266207
0.572683
0.939251
0.534321
0.231565
0.540624
0.745415
0.902525
0.547928
0.359838
0.465243
0.483027
0.709938
0.251664
0.707859
0.972779
0.719453
0.216909
0.527083
0.669008
0.858766
0.796864
0.628373
0.534648
0.275724
71 36
102 444
357 57
410 19
355 208
264 476
500 71
322 215
222 421
414 10
434 296
198 220
322 419
455 396
173 164
459 36
120 165
205 208
13 37
288 486
427 189
124 482
368 373
430 111
68 168
303 286
130 61
126 497
436 287
209 450
119 192
453 127
290 172
455 430
44 309
361 39
204 199
230 43
294 263
172 243
74 462
319 9
122 420
88 445
234 328
406 353
266 24
339 285
481 136
73 129
13100
1
