50
9
0 0 0 0 0 0 0 0 0
35 16 42 89 88 24 25 94 67
70 26 43 22 54 50 41 12 22
73 63 75 48 53 64 59 63 84
49 25 94 44 30 74 83 84 94
29 54 50 25 100 32 83 96 22
36 45 98 90 72 88 91 37 20
58 10 85 46 62 53 16 23 24
87 63 44 52 84 93 48 31 81
83 78 39 59 47 13 60 68 82
89 59 50 48 84 61 40 98 45
25 45 14 60 68 52 13 96 57
49 25 79 86 20 80 73 45 70
48 62 47 81 90 43 30 49 12
92 57 12 14 16 10 39 65 26
92 98 63 73 53 78 79 83 14
75 68 21 91 39 100 56 46 73
21 43 52 26 67 48 82 42 10
31 67 53 94 85 80 33 43 91
27 20 75 50 98 49 35 36 82
33 28 10 18 72 43 90 78 89
98 51 68 75 87 30 59 78 73
26 24 32 13 35 13 89 52 29
66 48 99 27 47 31 64 60 83
95 43 10 98 44 55 10 79 89
40 13 36 83 63 38 96 41 37
60 47 44 47 97 69 17 12 18
34 74 21 48 22 75 20 55 44
73 10 21 61 58 63 27 78 93
21 82 63 81 79 25 20 91 80
39 94 88 65 91 90 69 32 75
45 77 28 25 44 86 31 27 62
23 41 20 21 10 26 40 49 70
98 93 87 67 12 16 58 47 78
88 60 88 10 63 34 29 26 54
48 20 25 88 16 66 16 21 74
42 37 17 38 27 60 92 45 21
44 10 81 83 87 30 96 22 75
86 68 61 10 61 20 65 63 94
14 31 28 47 70 100 40 15 20
78 20 77 91 96 28 70 67 100
90 92 82 75 88 87 22 40 68
45 20 63 49 30 20 43 55 19
76 31 31 13 43 100 22 33 52
81 42 51 23 45 95 90 94 25
41 87 66 50 62 41 41 71 14
69 25 21 66 28 46 45 31 94
82 27 84 89 26 48 63 63 28
13 81 11 50 83 99 88 54 69
84 90 84 97 82 11 59 10 66
0.350179
0.908406
0.613631
0.861078
0.564731
0.416473
0.807418
0.461033
1.13621
0.639446
0.600589
0.365955
0.475243
0.66581
0.528528
1.21345
0.408295
0.459274
1.05444
1.18072
1.32545
0.956485
1.03029
0.400521
1.13122
1.02002
0.575117
0.469382
0.304
0.346475
0.658276
0.362755
0.638745
1.14935
1.29296
0.493083
0.486648
1.3385
0.860977
0.405417
0.552864
1.1452
1.2712
1.25245
1.25151
1.18934
1.21676
0.859609
0.806306
1.36494
283 153
64 286
288 314
464 358
213 209
341 265
93 284
300 217
112 156
17 424
169 140
92 337
100 6
148 207
153 96
384 53
331 214
179 71
4 395
382 322
217 150
142 314
275 153
286 264
397 143
226 389
408 254
263 102
262 361
349 439
181 307
136 30
215 117
75 315
279 110
490 333
85 146
52 473
319 35
455 375
119 0
436 138
415 265
97 462
154 358
255 450
244 358
216 321
315 423
416 212
4420
3
