50
9
0 0 0 0 0 0 0 0 0
81 17 47 50 76 28 66 26 66
66 49 78 32 16 14 96 85 55
31 22 30 37 59 39 81 50 54
11 55 86 39 50 21 69 42 30
37 68 54 80 18 72 15 61 68
42 81 15 51 15 14 22 82 91
85 29 38 10 60 41 44 71 43
25 97 31 32 16 82 45 92 100
27 87 92 28 53 74 13 92 78
15 71 100 70 11 93 12 60 58
23 62 49 60 78 34 15 25 18
68 67 75 57 55 73 36 71 23
19 61 25 20 25 42 84 27 54
52 98 68 69 27 77 84 91 89
67 10 99 37 14 15 67 59 87
50 48 13 36 58 76 100 13 39
97 76 60 43 59 70 55 78 67
42 78 55 65 31 56 77 46 83
21 64 75 54 65 57 51 11 63
59 32 61 75 64 30 92 41 23
79 41 12 50 30 98 34 81 74
66 37 45 30 34 64 99 70 47
26 19 95 21 51 22 27 36 87
92 44 63 36 17 54 12 28 57
44 27 19 17 91 79 95 49 99
66 45 87 70 92 26 50 95 67
48 73 86 62 58 58 37 50 69
28 57 92 13 74 37 89 35 50
81 84 96 22 17 56 24 12 84
97 29 51 100 10 25 74 26 35
13 29 15 98 24 80 41 60 72
14 64 10 63 60 88 95 18 65
54 82 26 76 27 22 35 27 94
12 59 31 82 64 86 40 82 73
72 53 77 77 82 86 97 49 15
68 82 94 21 39 10 60 82 73
53 21 78 92 12 78 22 49 11
17 87 93 84 69 78 13 88 99
10 34 48 50 29 88 72 46 39
34 70 18 42 20 82 85 89 88
62 38 55 73 16 20 28 67 40
50 20 69 70 52 61 47 67 23
19 28 11 99 47 83 72 24 89
35 14 62 29 45 15 24 26 31
22 77 29 23 55 48 64 17 51
67 35 55 89 82 45 41 62 37
54 97 38 26 33 87 60 96 72
90 78 94 23 35 25 28 15 96
89 80 56 85 18 57 74 41 34
0.488879
0.824817
1.42728
0.423392
1.01467
1.7181
1.47969
1.7169
1.04989
0.885692
1.12659
1.65041
1.91886
0.888256
1.34088
1.23619
1.92838
1.91323
1.18367
0.439275
1.55606
0.779822
0.453233
0.428574
1.7017
1.68261
1.31885
0.844321
1.32081
0.834442
1.53258
1.26656
0.508651
0.718476
0.736711
1.95741
1.50766
1.69117
0.590029
1.32241
1.03607
0.829742
0.505901
1.4678
1.09737
1.00283
1.60683
1.14359
0.919066
1.16291
323 226
267 18
352 28
292 339
13 183
207 157
210 418
451 81
317 385
298 242
409 230
164 361
34 401
282 352
452 210
72 412
222 167
285 75
86 386
157 385
92 310
138 29
301 457
338 374
87 153
232 9
3 481
76 239
494 375
333 308
143 368
425 293
412 491
332 73
55 324
143 175
305 53
64 465
47 66
299 83
428 182
493 101
0 338
395 321
397 58
437 271
9 454
312 178
420 283
7 104
13005
1
