50
7
0 0 0 0 0 0 0
69 36 73 95 20 40 74
80 59 95 95 14 42 58
63 29 76 59 72 96 100
83 54 79 18 53 14 65
79 12 43 79 73 90 23
92 14 95 40 74 88 49
17 13 81 37 37 61 33
96 18 90 88 32 49 20
50 33 82 97 81 69 25
11 41 84 80 20 88 93
62 60 29 36 92 76 52
37 94 75 97 84 76 58
71 57 39 90 84 88 72
97 17 78 16 83 45 24
100 37 67 96 75 67 16
97 15 37 10 58 38 66
40 86 28 58 55 87 63
78 26 19 69 23 94 66
71 64 41 59 15 21 40
58 88 36 69 43 90 46
89 46 81 55 72 45 97
58 94 10 10 97 92 76
22 42 96 50 40 75 43
53 19 70 86 76 72 84
18 48 71 36 28 55 15
61 51 46 23 56 43 98
73 70 83 14 46 83 34
47 57 45 57 100 66 83
37 62 99 10 100 30 34
11 20 15 54 14 33 56
29 12 41 47 94 67 15
12 12 37 70 76 27 28
67 11 14 42 87 28 49
39 78 15 60 49 56 87
34 61 20 51 49 79 98
96 52 76 58 22 14 27
83 14 89 47 53 59 48
88 63 74 47 97 75 77
73 85 92 78 93 75 92
19 44 11 31 74 74 43
80 10 89 90 64 84 74
49 94 71 13 59 48 95
67 12 69 20 88 18 92
79 13 60 77 78 24 77
64 87 93 41 77 24 22
18 75 45 65 99 59 89
48 45 95 76 76 55 71
15 15 64 79 95 68 78
27 97 76 29 62 78 15
1.43584
0.367758
0.359599
1.43758
1.4228
0.814108
1.06782
1.43111
0.463089
0.954718
1.42329
0.624934
1.04263
1.06448
1.05952
1.14106
0.342539
1.19173
0.383016
0.313781
1.31521
0.449253
0.358681
0.50553
0.578619
0.811733
0.920069
1.3794
1.28615
1.02048
1.0977
1.11847
0.487972
1.18768
0.730736
1.45051
0.980204
0.831419
0.639163
0.45645
1.15841
1.28745
0.76451
0.455182
1.10282
1.3526
0.742449
1.16342
1.28866
0.575609
295 186
184 156
295 227
336 17
124 216
247 366
301 234
245 422
379 432
462 373
287 230
455 500
63 327
219 386
493 378
260 387
204 463
216 10
90 443
489 135
281 279
388 240
103 474
243 281
51 342
436 367
49 68
100 462
349 467
57 35
21 39
202 227
138 298
274 494
351 4
122 160
27 114
434 152
272 294
33 0
77 431
420 67
209 269
179 182
181 482
16 135
201 266
105 258
52 168
244 421
4671.67
3
