50
3
0 0 0
90 55 17
53 46 95
80 82 91
50 10 28
36 56 11
37 33 26
14 45 70
11 37 23
41 78 61
88 96 45
75 93 38
35 95 34
94 11 50
34 77 12
12 55 50
15 15 77
35 20 80
27 85 68
35 28 16
66 65 50
46 94 43
18 83 28
69 11 45
39 43 20
56 12 90
63 98 71
92 24 97
96 20 100
32 35 17
47 12 69
20 91 24
74 50 10
84 63 51
60 26 23
64 24 34
34 81 98
17 55 94
43 39 16
93 96 16
22 93 25
21 28 44
57 66 10
60 75 41
12 27 91
83 57 47
64 48 59
74 51 98
28 83 83
28 51 28
0.953102
0.447621
0.882346
0.41725
0.752889
0.300891
0.847338
0.314425
0.491309
0.798805
0.748442
0.848516
0.668729
0.413255
0.650721
0.554785
0.452332
0.676544
0.504899
0.215342
0.45877
0.887087
0.496134
0.616208
0.299902
0.449886
0.495804
0.575242
0.215228
0.631503
0.570301
0.908779
0.227135
0.251033
0.471422
0.316484
0.912589
0.894588
0.581143
0.707776
0.776226
0.940149
0.850569
0.245176
0.617063
0.274129
0.527227
0.753434
0.684269
0.789318
229 267
192 188
8 404
369 252
127 13
467 2
326 58
14 110
499 251
447 321
285 492
144 183
397 154
142 108
128 25
398 336
39 273
409 3
330 223
341 18
375 97
374 55
175 103
453 48
120 10
450 407
395 55
77 456
316 98
280 93
247 414
118 387
57 276
124 43
479 154
404 184
11 266
98 141
172 460
461 162
89 455
455 235
1 406
429 390
494 264
216 212
403 118
150 16
134 324
254 371
6212.5
2
