50
3
0 0 0
65 50 33
97 73 76
20 22 31
28 92 31
14 80 66
22 67 78
83 39 94
21 33 25
97 11 75
98 98 92
10 17 33
39 17 82
37 19 36
19 70 88
33 29 89
78 27 73
93 58 31
93 35 85
35 90 30
84 88 31
89 77 75
89 80 14
73 22 55
59 91 11
55 84 32
98 22 56
61 60 53
76 44 46
63 59 79
16 31 25
22 40 40
30 76 80
21 73 43
91 42 52
90 12 53
99 77 86
39 44 17
80 80 34
76 79 21
86 64 42
48 28 79
57 25 70
72 56 76
19 33 85
53 56 63
36 15 39
79 81 42
86 53 31
82 43 73
1.21077
0.470409
0.386252
0.959301
0.326779
0.502705
1.01662
1.48003
0.396721
1.08626
0.572842
0.83102
0.542947
0.665855
1.23697
1.23351
0.657569
1.35478
0.703838
0.849979
1.26379
0.385733
0.349635
1.32714
0.53064
1.31238
1.35878
1.17866
0.431574
0.851956
0.782084
1.46488
0.61832
1.31958
1.23113
1.29987
0.387225
0.725844
1.22563
0.708877
1.20664
1.07777
1.06703
1.20017
1.16112
0.925234
0.320725
1.38244
1.15247
0.864113
242 118
348 258
323 483
352 286
301 180
304 481
78 458
259 160
435 218
360 265
236 496
202 257
173 215
492 193
440 274
348 166
331 78
387 497
321 246
380 294
198 476
60 264
349 423
335 465
204 402
335 160
452 379
496 472
315 238
411 352
17 90
379 374
231 289
222 240
53 285
318 189
244 497
251 416
377 269
215 297
2 25
207 24
203 27
210 489
429 238
129 420
47 401
468 372
409 29
62 91
2708
5
