50
11
0 0 0 0 0 0 0 0 0 0 0
30 38 84 42 27 35 89 11 11 82 15
39 53 58 45 77 90 50 16 16 12 20
11 58 19 67 96 78 26 36 22 33 20
36 38 22 70 88 63 29 72 90 64 65
39 65 56 80 49 83 42 90 68 55 89
48 82 48 23 66 53 80 67 70 56 25
95 43 67 68 35 13 18 63 25 88 86
58 80 29 25 89 44 52 63 18 74 97
51 97 65 73 37 95 78 88 67 39 20
29 83 98 25 37 28 28 97 12 41 87
63 98 43 97 51 100 83 98 55 36 21
23 46 36 15 64 67 59 62 94 35 79
88 42 13 57 95 77 37 81 95 19 54
21 85 78 19 43 39 55 82 72 64 36
93 46 98 45 17 25 42 58 48 76 39
93 25 21 54 13 65 100 97 86 53 12
96 14 10 68 74 52 83 68 32 60 35
45 42 87 66 91 27 31 33 26 77 52
32 62 33 49 81 73 86 88 88 24 73
89 99 55 15 54 27 38 87 72 66 55
63 61 56 51 55 18 43 100 50 27 45
64 80 34 29 84 22 16 70 26 25 66
55 75 52 34 63 56 30 99 42 79 64
72 39 32 72 65 43 92 59 30 88 72
76 11 72 92 75 20 63 88 63 61 54
80 86 35 17 36 19 90 18 66 89 62
76 47 14 28 39 23 37 18 92 38 89
78 86 86 50 76 64 49 98 24 13 48
26 58 96 69 61 31 74 22 90 71 47
71 90 38 96 17 87 83 71 81 49 73
98 95 88 38 35 57 16 19 44 15 54
99 38 13 56 64 69 31 52 83 99 66
91 72 89 99 12 24 99 83 78 11 14
73 22 70 53 12 37 59 44 10 84 54
69 43 88 14 37 78 84 42 49 43 12
57 88 32 36 34 31 66 58 54 99 75
40 63 18 26 82 35 98 45 55 50 28
34 11 31 98 42 34 31 26 83 34 72
94 95 59 90 51 16 62 36 79 29 15
49 75 59 87 55 74 71 95 36 79 29
21 70 91 24 34 42 74 23 12 67 84
20 38 85 100 72 11 77 78 73 89 79
76 73 22 18 89 38 30 20 14 61 94
88 92 16 96 43 49 11 80 37 52 66
72 86 35 28 50 13 20 41 22 62 97
10 27 88 75 43 12 30 91 70 26 97
66 63 37 49 62 35 20 48 54 52 10
44 61 87 25 31 32 22 70 90 17 88
13 91 32 44 36 71 52 49 38 44 74
1.77409
1.52913
1.43193
0.900768
0.543585
0.94049
1.76216
1.87972
0.597703
0.424362
1.56853
1.35762
1.64938
0.72127
1.66517
1.38508
1.51847
0.93449
0.430824
0.566472
1.9309
0.495497
1.40878
1.66107
0.849548
1.5192
1.44868
0.555306
1.19862
0.727677
1.96328
1.29175
1.40824
0.412165
0.613833
1.04871
1.91359
1.61135
1.93507
1.76848
1.70659
1.98466
0.955874
1.54941
1.09723
1.04702
0.596131
1.8343
1.76016
1.08914
187 91
486 25
66 26
415 493
82 429
400 350
113 196
48 156
392 493
74 218
195 31
67 255
314 255
313 322
28 287
348 129
157 27
436 397
174 122
338 78
133 459
104 190
497 181
473 232
51 60
322 338
84 100
111 481
151 99
434 324
414 153
382 135
76 136
440 325
296 481
164 340
188 25
121 136
14 80
477 160
484 471
467 87
377 309
442 219
400 184
239 427
383 107
446 459
300 116
499 2
2685
5
