50
3
0 0 0
52 40 52
68 63 79
82 92 82
10 93 40
84 77 31
22 92 77
69 49 45
13 60 11
64 15 97
49 100 78
77 19 82
22 31 58
39 43 92
71 60 33
35 46 85
27 82 57
77 53 71
92 41 34
34 37 36
14 51 81
39 46 16
73 34 16
16 83 79
33 16 63
17 45 33
96 21 56
88 65 12
52 39 56
77 74 48
83 53 67
77 63 81
50 25 78
83 92 48
40 84 80
15 48 27
12 36 91
16 48 16
11 22 38
25 35 30
25 67 43
46 17 99
29 28 88
53 30 50
87 13 76
24 98 38
17 36 63
33 34 54
39 68 99
27 74 87
0.280036
0.608595
0.90397
0.468943
0.651563
0.855596
0.892382
0.349498
0.969165
0.989745
0.710493
0.341262
0.986508
0.965071
0.558157
0.474447
0.620159
0.536299
0.444135
0.583874
0.761424
0.671632
0.262526
0.37839
0.464407
0.693298
0.327807
0.281776
0.310392
0.912688
0.482407
0.427191
0.20895
0.89781
0.947823
0.357911
0.281791
0.604114
0.659784
0.202983
0.627359
0.202219
0.696756
0.760951
0.30943
0.598518
0.443615
0.802609
0.369904
0.458486
357 364
469 333
79 53
349 388
298 127
200 86
97 79
230 155
20 269
278 3
217 313
401 363
245 273
317 48
99 357
402 141
65 174
174 492
412 336
50 245
339 99
249 340
319 135
175 80
79 66
374 365
377 385
159 457
361 285
409 442
497 373
3 386
113 262
486 256
330 307
101 376
236 322
438 129
26 242
4 207
407 281
282 148
457 450
499 60
340 320
251 284
258 191
377 75
178 2
182 100
4263.33
3
