50
3
0 0 0
68 20 83
55 90 30
76 78 24
31 23 90
84 80 96
39 96 24
92 32 94
91 95 54
46 68 78
50 89 25
59 47 14
65 73 61
10 68 42
56 68 36
67 60 54
93 86 27
87 48 87
42 66 63
82 15 26
28 42 16
54 90 56
37 13 91
18 82 31
30 26 16
48 88 84
59 23 70
63 59 79
71 52 70
56 55 43
19 50 79
76 19 75
24 45 26
18 13 28
75 33 76
75 62 71
74 21 54
40 75 92
62 59 92
96 23 19
28 85 66
22 46 31
33 37 99
31 37 60
12 75 38
26 20 20
13 17 75
71 81 58
64 53 91
26 40 84
1.955
1.1019
1.25972
2.37587
2.4807
2.13153
1.60743
1.6081
1.81274
2.36491
0.782728
1.50114
1.63459
0.937915
0.543279
1.01866
2.25086
1.03953
1.12911
1.65265
2.23066
1.0043
1.89044
0.569053
1.19643
0.745615
0.540699
0.796964
1.00622
1.61247
1.4932
2.00448
1.30626
1.45736
0.993627
0.685043
1.99045
0.774814
2.10501
1.79399
2.48348
0.642737
1.1746
0.617845
2.35982
2.34839
1.58481
2.1244
1.01433
2.40768
87 55
381 206
31 289
386 0
304 392
137 372
497 298
346 218
177 138
326 417
166 477
68 183
328 57
195 345
310 91
129 313
170 449
31 479
109 225
171 277
92 242
111 407
352 306
419 333
464 212
194 228
286 292
195 337
245 304
335 44
234 159
357 237
441 241
69 221
70 249
381 186
52 19
434 302
101 338
194 264
224 474
193 136
242 65
3 424
386 9
352 464
433 397
246 203
403 218
284 410
3317.5
4
