50
5
0 0 0 0 0
19 81 58 11 44
16 52 34 14 85
28 34 28 25 78
42 23 51 71 41
41 32 94 74 91
49 95 77 49 22
32 66 17 44 100
80 58 83 63 86
89 51 20 83 21
36 70 22 28 42
72 11 59 22 100
82 57 46 27 38
26 43 61 70 39
90 50 69 49 65
58 99 87 10 14
14 19 77 14 88
58 59 22 46 37
12 69 94 88 82
93 24 95 81 81
33 52 81 85 93
65 79 66 18 50
21 62 71 86 93
93 14 97 69 45
76 88 26 23 28
75 67 99 73 35
46 65 76 50 35
20 100 24 17 62
21 66 55 80 82
98 96 56 77 43
11 39 75 11 69
29 79 23 30 68
15 77 82 27 33
35 32 23 98 26
87 53 97 55 20
75 94 79 47 47
74 15 13 21 29
32 53 88 89 10
18 48 47 80 72
36 96 64 28 24
49 31 62 97 98
55 55 88 83 73
54 67 58 66 39
40 72 81 41 15
83 86 46 73 94
78 90 21 94 11
61 58 22 54 65
72 27 37 91 33
40 74 63 27 68
57 71 30 28 10
0.513251
1.20883
1.15983
1.30327
0.562625
0.393392
0.89879
0.415837
1.4047
0.862711
0.50492
0.489205
0.941252
0.975568
0.502969
0.858229
0.714797
1.43702
0.992112
0.664089
0.595975
1.48671
0.624835
0.49914
0.464663
0.433653
1.11201
1.26646
1.14302
0.415975
1.11188
0.902321
0.797722
0.736298
1.24836
1.4676
1.26483
0.925344
0.930205
0.51651
1.33863
0.691269
0.645061
1.38725
1.13068
1.09781
1.40533
1.11202
0.761111
0.40241
320 337
492 376
460 344
290 210
49 152
347 178
126 152
98 392
171 370
19 17
267 439
110 317
344 219
476 373
5 478
366 39
26 309
480 327
114 347
199 200
441 426
358 159
349 327
305 178
334 72
303 269
371 19
398 262
490 421
182 267
476 80
10 40
312 207
337 450
432 100
307 128
17 347
266 162
372 472
139 156
302 413
461 35
469 289
78 65
286 34
171 210
282 71
142 410
436 494
13 472
4480
3
