50
9
0 0 0 0 0 0 0 0 0
41 70 51 45 31 21 90 18 82
25 67 56 87 96 48 16 40 100
85 49 71 100 67 25 61 80 45
89 40 80 58 64 58 19 85 19
48 50 61 21 29 90 46 18 22
86 90 51 85 74 85 16 35 11
22 90 98 54 100 51 63 82 59
99 67 57 49 58 13 95 41 85
38 42 26 100 23 100 59 67 78
77 69 12 51 28 79 30 82 91
42 52 94 95 30 95 81 61 95
74 73 19 40 25 87 15 14 95
54 86 11 88 79 51 83 90 55
26 97 78 92 98 57 39 94 63
85 89 82 91 72 46 17 93 28
99 35 43 24 99 78 84 73 36
64 78 74 79 21 94 44 15 21
56 25 84 63 71 40 32 11 52
54 27 12 86 31 67 66 82 37
57 59 93 74 92 35 27 17 56
35 14 32 57 91 42 26 71 70
40 18 39 67 84 12 74 13 20
71 89 72 33 49 44 17 74 77
11 84 30 88 15 33 44 33 55
16 16 95 49 39 19 76 65 79
52 57 17 51 16 84 84 16 26
58 71 35 36 69 30 32 53 46
47 82 36 56 85 88 41 42 88
42 78 75 74 38 82 57 82 28
95 45 78 34 15 93 25 98 71
85 22 53 65 30 70 41 31 58
71 69 42 45 25 80 63 79 100
74 70 93 86 67 85 37 28 99
25 93 61 41 94 26 25 32 70
83 96 61 29 65 60 50 48 35
31 11 61 77 67 94 51 73 19
95 24 66 81 48 74 63 19 60
69 17 58 73 49 58 66 70 94
63 31 60 57 81 84 87 59 54
99 50 12 18 45 44 71 83 14
21 75 82 97 74 47 92 54 83
40 15 21 35 25 71 71 41 81
52 13 67 33 21 18 100 73 52
83 88 73 16 88 43 35 70 53
11 36 91 97 87 50 82 59 84
15 48 84 17 77 81 85 56 79
43 23 78 93 83 83 75 66 13
19 66 89 74 37 16 76 78 16
68 63 98 30 51 77 13 57 99
0.996731
0.602793
1.03816
0.709745
0.896328
0.671143
1.45957
0.912985
1.26495
0.617062
1.29111
1.43663
0.6458
0.956491
0.871641
0.724512
0.80484
0.563147
1.23385
0.308319
0.391427
0.476394
0.742746
0.57952
1.33393
0.970751
0.813771
0.409064
1.08626
0.722845
1.48514
0.554648
0.830285
1.30999
0.982123
1.18504
0.353315
1.15832
1.20583
1.17871
1.05585
1.16919
1.49835
0.882083
0.342803
1.20532
1.21716
0.571561
1.02402
0.812272
462 185
266 200
351 117
222 324
177 334
56 160
67 273
46 66
162 191
142 463
94 111
180 75
170 366
494 285
435 91
138 220
160 126
229 320
15 307
476 485
61 287
318 288
127 83
184 467
255 400
433 57
165 315
114 34
255 376
55 239
486 458
93 262
396 315
20 233
15 68
307 483
226 35
379 461
448 207
24 369
154 93
167 180
485 239
421 454
350 318
463 52
253 51
111 423
132 352
28 142
2809
5
