50
11
0 0 0 0 0 0 0 0 0 0 0
20 12 29 30 17 41 98 26 36 41 89
49 73 98 65 53 29 25 71 61 85 88
28 85 74 64 55 35 83 35 100 38 46
76 13 49 57 62 91 25 34 47 26 58
20 81 84 60 26 80 95 43 72 62 72
80 34 35 87 67 65 81 13 37 97 22
85 66 57 95 54 28 55 21 12 14 24
42 33 44 38 32 67 39 17 45 39 80
84 86 91 85 73 60 29 20 53 54 66
94 66 91 31 94 73 66 67 65 31 44
85 71 43 26 28 99 87 74 27 56 87
90 78 30 67 12 79 16 32 64 18 93
22 73 68 96 77 58 47 14 41 34 30
90 52 98 86 15 10 18 25 66 13 89
58 47 82 51 54 48 12 23 12 10 98
41 86 68 81 87 89 63 66 96 92 60
98 28 10 99 74 76 18 55 41 63 95
48 79 100 67 16 69 76 58 42 39 46
22 55 38 67 19 93 64 46 96 56 55
11 21 31 39 73 90 23 47 22 29 74
27 89 15 83 35 36 16 91 30 29 100
71 37 24 71 21 15 87 10 93 76 18
77 83 84 44 49 62 13 85 95 25 68
22 60 20 23 60 45 63 15 67 31 30
85 34 58 45 85 56 45 42 58 80 73
100 65 80 29 77 82 17 69 20 89 70
63 13 12 63 40 22 44 37 20 49 94
30 89 81 19 93 75 42 33 64 39 33
94 55 21 35 41 34 97 93 74 18 19
84 59 50 99 31 49 87 56 99 84 35
53 18 85 85 51 97 97 95 100 57 35
18 83 91 48 74 50 17 64 18 97 38
47 72 52 80 57 17 71 68 79 72 11
16 19 47 63 34 99 70 57 45 92 64
96 44 87 87 95 44 33 27 83 79 95
49 28 87 22 73 13 91 12 16 72 38
27 51 66 46 45 80 62 70 49 30 51
64 23 86 95 71 41 66 79 72 17 12
78 30 98 76 26 76 87 89 90 54 97
77 73 25 17 46 46 57 27 12 25 22
91 41 97 13 71 92 80 47 28 68 78
58 94 61 36 21 86 70 84 43 34 75
62 80 23 53 100 45 54 24 28 97 55
31 70 27 19 22 86 12 76 71 63 45
90 14 57 23 66 45 98 68 41 98 51
15 57 56 35 26 35 94 39 83 78 14
94 63 69 20 39 18 39 82 79 37 75
52 33 77 52 67 59 11 83 78 73 96
88 13 19 48 53 19 39 42 38 52 71
0.125616
0.259392
0.314544
0.208505
0.450787
0.313044
0.45985
0.335743
0.278438
0.320831
0.457994
0.217918
0.100672
0.294026
0.313017
0.497606
0.460104
0.156789
0.4125
0.242267
0.331984
0.459295
0.318352
0.280121
0.234817
0.170129
0.325585
0.33736
0.268469
0.380535
0.148199
0.263314
0.381911
0.420689
0.389416
0.388354
0.286428
0.199479
0.161423
0.369516
0.117167
0.441664
0.181931
0.303715
0.444483
0.32423
0.196864
0.432681
0.28272
0.20932
118 378
500 17
433 322
394 147
395 393
404 317
266 249
139 169
360 179
302 194
87 335
304 472
293 153
228 166
185 376
157 147
351 278
96 335
138 36
201 316
196 252
92 180
220 187
59 129
469 135
54 75
57 78
268 313
159 500
227 373
92 352
123 406
51 3
226 251
339 276
382 106
28 80
314 457
405 444
163 242
44 167
445 149
329 432
77 192
1 202
114 318
18 181
89 142
307 287
269 390
13550
1
