50
3
0 0 0
20 89 52
61 73 98
22 16 18
93 93 62
68 54 43
43 19 15
57 12 14
45 41 82
85 71 51
68 69 17
36 32 92
74 36 76
58 43 33
38 13 57
72 80 100
23 44 45
77 69 99
92 54 98
16 53 67
48 59 14
68 74 33
23 90 11
92 73 16
21 16 17
18 82 56
60 47 43
15 48 76
92 58 27
87 86 18
43 63 12
28 89 26
28 44 36
95 75 83
14 61 12
80 57 32
40 38 89
91 91 46
20 74 14
74 12 97
51 84 90
64 70 43
57 95 19
51 71 98
16 95 99
55 54 71
73 52 97
98 19 42
69 84 29
75 81 88
1.44975
2.06357
1.3033
0.605697
0.801199
1.44323
2.36662
1.98961
2.12399
1.60472
2.41081
1.58703
1.60784
1.4247
2.25395
1.58103
0.619905
2.34886
1.13999
0.681137
1.36087
1.48245
1.83566
1.30147
1.12238
0.742378
1.57871
1.95548
2.47999
0.627804
1.1355
1.79479
1.5343
0.597885
2.10248
2.18117
1.0012
1.33464
0.67355
1.09771
1.43799
1.59761
1.9224
1.61999
1.77674
2.39287
2.44615
1.23277
2.08338
0.777973
5 204
187 442
314 375
126 396
22 496
408 59
162 394
31 71
91 304
258 72
160 143
417 207
379 461
260 331
385 10
55 379
226 378
127 70
266 493
73 368
183 457
256 256
130 157
262 442
475 44
426 27
237 467
488 84
458 319
332 95
413 101
248 129
456 121
356 18
358 110
249 476
308 311
470 191
234 464
396 409
203 201
128 60
402 247
91 18
426 75
33 80
27 347
369 103
324 32
301 335
13580
1
