50
7
0 0 0 0 0 0 0
27 86 57 29 49 42 54
44 99 86 93 20 16 84
23 35 36 69 39 14 89
37 38 35 22 57 51 69
91 49 70 63 47 73 83
21 47 97 41 71 61 47
23 47 43 45 60 48 46
97 35 29 73 76 52 61
20 49 36 25 98 58 51
78 96 60 49 39 78 77
51 11 66 81 41 33 30
89 78 99 59 30 83 39
47 58 45 36 62 63 73
77 18 80 97 48 26 27
63 14 65 16 64 59 10
89 37 16 48 51 46 69
100 32 100 51 82 58 72
28 35 75 43 20 22 93
55 62 20 90 26 46 44
82 58 25 41 63 64 83
50 23 83 36 71 95 29
93 83 51 96 42 65 48
13 95 10 88 15 27 58
68 71 63 59 10 86 13
72 33 10 61 55 44 35
94 36 41 75 21 89 63
17 62 49 66 43 26 51
40 65 34 18 46 50 72
56 64 88 31 54 72 71
30 61 99 30 55 22 13
36 79 19 89 67 75 36
71 69 42 47 86 47 76
57 53 76 43 95 71 100
58 39 39 41 84 99 24
46 54 52 32 66 88 70
94 29 93 18 93 63 80
70 33 73 82 66 98 76
32 51 98 96 70 56 97
51 12 27 48 94 74 59
45 82 89 11 30 91 94
93 74 39 53 51 64 11
74 10 77 98 96 12 56
77 36 78 72 100 71 84
59 97 82 10 65 54 35
39 12 36 40 60 18 71
62 15 87 48 71 25 72
34 49 38 86 70 14 59
91 23 84 52 61 48 30
58 84 30 54 43 36 26
2.14654
2.24088
1.3749
0.81189
2.16329
0.716736
1.37166
1.11803
1.07456
2.44613
1.76534
0.85132
1.07126
1.18635
1.00612
1.3848
2.2619
1.78251
1.88608
1.66067
1.50924
2.3498
2.25793
0.845561
1.37546
1.83948
1.32959
2.16392
1.68653
2.33392
0.61562
1.30776
0.958379
1.63596
1.32398
1.59731
2.47056
1.39389
1.2177
1.40639
1.64962
1.69714
2.3155
1.64933
0.613114
1.79838
2.42283
1.7762
0.813641
2.42074
312 264
180 257
264 225
244 142
168 167
272 284
351 378
360 169
337 294
386 148
71 292
83 34
477 394
343 30
101 363
115 390
245 82
371 406
163 390
120 117
452 405
68 361
276 293
266 369
487 405
232 342
21 373
166 430
259 330
222 30
258 360
107 237
347 200
63 56
401 132
250 36
456 457
265 433
486 260
258 438
97 131
248 244
205 361
269 187
12 492
29 338
30 362
441 227
72 166
201 157
6815
2
