50
7
0 0 0 0 0 0 0
95 10 48 28 72 73 31
10 97 25 63 17 65 31
60 50 14 74 47 59 45
83 67 11 53 73 24 53
41 57 60 89 90 54 46
39 29 44 56 81 27 90
59 34 78 27 39 16 94
52 33 67 28 74 82 40
51 80 59 39 87 45 95
39 81 94 58 53 54 41
90 40 11 100 58 93 10
17 91 14 91 19 43 97
86 55 32 42 85 22 57
31 82 21 26 59 85 95
62 93 87 48 96 70 38
42 47 57 17 17 15 37
21 41 95 42 19 37 44
46 42 94 87 52 50 38
35 62 77 97 75 48 61
34 20 88 88 62 46 51
85 39 46 46 23 84 76
67 72 90 72 47 15 31
56 68 56 89 59 74 45
64 81 97 100 65 74 43
94 28 57 67 95 82 78
15 54 95 63 92 17 71
46 37 51 32 62 51 99
98 91 63 88 97 84 38
89 62 56 28 72 25 12
95 16 83 73 75 59 37
88 59 25 90 50 73 97
80 55 97 71 54 41 48
22 23 25 81 93 50 57
96 31 15 15 65 50 48
71 34 56 95 72 11 98
62 87 47 19 15 11 15
86 44 28 11 52 73 90
87 25 45 43 89 48 32
77 21 40 92 58 55 94
17 22 31 67 32 61 28
24 28 69 55 86 87 52
79 59 72 20 31 52 65
66 21 33 80 91 32 21
25 80 36 95 93 11 33
94 77 54 34 44 63 56
89 100 60 65 40 40 45
43 49 40 88 70 56 77
43 99 15 81 65 67 52
95 99 45 58 58 25 36
0.784882
2.03994
1.46061
1.74538
0.62298
0.996158
2.3561
1.82792
2.48367
0.578896
1.26074
0.636295
1.3478
0.562691
2.42507
2.20122
0.787934
1.18223
1.03539
2.33488
1.89347
1.55974
1.50173
1.62477
1.37293
1.09899
1.3848
0.970705
2.42174
1.26421
0.868177
0.937638
2.34206
1.76418
1.09956
1.24664
2.48633
1.94462
1.54682
1.32257
0.968446
2.26952
1.24633
2.07661
2.18852
0.685785
1.43287
1.96036
1.79085
2.35744
450 91
222 281
301 247
39 104
479 330
283 151
183 48
135 149
102 453
6 110
206 214
270 384
112 266
70 459
94 364
244 393
288 342
416 1
446 490
116 288
297 246
386 242
336 417
187 199
59 393
451 415
286 291
424 9
17 294
350 63
279 197
316 486
491 162
412 355
4 23
114 263
58 223
77 143
126 375
321 120
463 73
290 245
156 100
326 98
123 402
278 456
278 320
309 316
411 92
117 268
4608.33
3
