50
5
0 0 0 0 0
47 17 34 88 27
100 67 61 90 65
80 30 73 32 92
32 51 83 100 92
89 27 52 41 38
57 25 79 87 28
68 47 38 90 47
10 28 15 57 69
97 52 11 58 33
95 38 17 34 96
67 94 88 45 14
41 63 78 25 62
94 83 56 65 94
87 34 45 100 62
95 38 17 47 95
35 84 81 64 87
47 46 55 82 62
39 56 96 28 50
13 59 58 61 90
14 83 53 71 12
93 11 58 82 29
69 42 47 32 30
73 66 62 65 57
97 14 88 80 65
74 59 94 97 35
51 72 52 89 18
37 32 73 30 59
92 20 48 91 54
32 80 71 47 13
68 50 79 47 73
67 50 16 67 58
34 33 50 57 56
68 95 17 11 41
30 77 76 33 15
52 27 65 99 25
45 54 84 88 33
56 48 46 80 74
88 85 79 33 90
11 36 53 63 87
65 40 67 35 93
89 12 53 59 43
28 18 97 71 35
65 80 37 80 94
53 72 81 93 44
90 79 45 59 32
77 59 99 26 92
55 10 32 15 93
97 39 98 39 16
66 46 70 24 44
0.518033
0.28943
0.397688
0.260149
0.605068
0.552704
0.482388
0.963954
0.734347
0.201631
0.477636
0.583121
0.293023
0.202022
0.752927
0.422313
0.912558
0.586985
0.312487
0.525573
0.379948
0.893504
0.70652
0.698355
0.876031
0.710667
0.611154
0.342569
0.480981
0.624634
0.212651
0.233057
0.52114
0.604468
0.805828
0.416664
0.746518
0.477175
0.376063
0.264198
0.848595
0.930081
0.815733
0.939986
0.368897
0.501134
0.393806
0.71281
0.595613
0.998741
498 218
110 458
309 369
428 441
416 69
86 366
268 247
102 355
484 219
210 463
179 334
135 445
291 201
10 191
19 144
407 498
155 156
40 493
134 27
449 53
467 136
397 310
180 321
404 388
109 85
94 276
446 143
497 322
345 311
4 162
447 34
18 329
416 135
476 120
404 49
0 445
344 106
142 274
65 197
74 358
17 495
59 256
269 20
234 416
241 417
306 133
25 32
139 277
423 233
86 373
7025
2
