50
9
0 0 0 0 0 0 0 0 0
95 71 75 90 96 57 82 96 94
95 16 11 83 10 94 11 14 75
85 60 35 86 64 45 27 42 18
73 74 71 86 40 96 65 86 19
49 54 10 38 40 97 89 37 78
96 15 50 32 68 57 41 13 74
86 19 27 66 60 70 37 84 17
54 91 36 28 57 92 83 20 21
41 20 25 49 35 95 86 69 21
90 16 76 86 78 30 31 16 61
15 90 98 82 96 90 90 38 39
67 29 64 99 49 59 65 35 30
83 90 89 57 81 50 90 12 52
59 19 36 57 98 62 53 42 51
56 40 36 100 14 15 68 50 23
84 97 76 69 62 69 16 96 55
11 48 95 22 20 87 72 55 28
41 48 18 49 29 20 55 23 35
87 33 92 49 59 35 89 13 92
27 57 17 24 98 54 88 28 14
33 24 97 24 24 63 12 52 19
55 70 90 58 70 90 26 65 24
98 15 56 11 27 95 26 57 78
37 11 19 22 18 15 10 36 11
95 61 73 79 16 33 94 23 81
30 18 84 20 87 11 10 64 16
18 99 100 31 73 37 60 48 68
40 78 83 56 55 38 41 52 45
71 75 22 14 77 67 89 89 82
86 57 37 63 68 100 75 25 75
46 84 22 76 30 40 29 80 46
57 64 99 61 89 70 50 53 77
61 50 10 39 20 91 68 36 67
36 97 11 10 70 95 95 42 99
95 55 87 69 55 66 59 80 27
24 75 40 87 79 37 17 95 97
47 58 65 96 61 17 10 67 99
12 68 66 88 10 100 68 31 35
65 33 34 96 91 22 69 16 37
23 17 19 44 79 95 56 77 33
63 59 33 36 25 41 16 50 90
51 48 88 32 72 61 51 20 77
69 71 42 22 69 22 43 55 38
78 23 45 93 63 70 63 52 18
57 51 39 92 58 22 26 56 12
26 43 91 85 63 68 63 17 27
76 69 74 100 20 61 100 67 81
55 89 38 79 81 38 19 76 24
79 88 68 43 41 52 72 85 39
1.07036
0.62323
0.822805
1.40574
1.12938
0.796782
1.04649
0.363609
0.545867
1.35889
0.503083
0.423238
0.678271
0.398015
1.41234
1.12188
1.26639
0.548676
0.571188
0.540796
0.331933
1.00659
0.602529
0.671157
0.894229
1.26865
0.998811
1.26743
0.422859
0.761862
1.06561
1.01906
1.29018
0.687085
1.43416
0.85003
1.3955
1.41023
0.784067
0.923082
0.980417
1.01194
1.19654
0.391303
0.768585
0.925726
1.00291
0.892712
1.25969
0.799591
123 376
225 321
3 461
59 273
432 445
485 476
216 45
142 49
315 220
226 435
480 333
466 469
449 3
464 202
21 360
302 27
246 284
232 318
432 92
422 180
38 423
125 288
324 355
59 401
241 405
90 275
54 279
49 438
124 129
312 500
331 17
249 136
337 189
338 315
47 167
99 22
443 99
403 66
113 405
218 46
416 199
368 150
445 371
141 417
165 0
428 492
386 315
441 62
275 183
3 52
13445
1
