50
7
0 0 0 0 0 0 0
96 80 49 30 37 94 65
15 84 18 62 76 91 85
67 40 38 21 65 62 17
53 26 30 45 71 89 25
60 55 28 83 24 11 40
82 97 69 68 81 25 69
59 17 32 95 48 75 40
40 32 10 14 68 45 20
43 83 16 23 12 51 70
21 44 67 42 69 30 31
45 70 45 54 12 66 91
75 86 71 63 22 55 69
86 93 68 81 92 77 42
74 42 54 10 94 50 42
36 49 80 16 84 76 72
96 90 89 73 38 94 26
35 46 78 98 18 51 33
81 18 86 29 74 36 70
12 17 62 77 70 92 47
38 23 32 26 100 89 71
69 14 80 26 86 25 37
32 98 58 80 93 82 86
27 68 71 24 22 91 37
76 84 75 62 69 54 81
15 84 15 36 88 56 19
87 96 22 28 68 22 88
62 48 88 46 64 31 21
87 64 68 59 66 34 87
12 25 83 36 21 99 29
28 53 94 60 21 56 91
59 46 33 66 27 36 31
10 60 53 84 24 34 63
15 79 46 94 64 90 35
90 61 40 60 37 73 71
29 67 24 45 80 28 74
47 96 83 37 94 50 17
51 22 77 29 28 16 40
34 63 72 47 68 48 59
66 40 14 65 37 65 99
86 50 82 52 27 93 53
97 31 54 36 45 93 34
23 52 83 33 29 28 100
94 86 40 66 31 63 68
19 87 85 51 88 96 52
14 54 36 55 94 54 19
45 82 56 31 85 78 56
10 50 36 13 75 96 70
40 58 19 44 75 38 17
24 39 81 72 74 38 39
0.904881
0.598457
0.331375
1.44293
0.816236
0.353594
0.903193
1.2
0.476561
0.924659
1.01067
1.14329
0.748194
0.300763
1.37037
0.935988
1.35623
1.23603
1.45168
1.41365
0.508356
0.422333
0.689696
0.757846
0.742855
0.599335
0.615494
1.06816
1.04322
0.415982
1.20831
1.3147
0.306753
0.481054
1.35101
0.875552
0.90921
0.906076
0.98484
1.0952
0.329357
0.527451
0.841151
1.00287
0.866746
1.16667
0.755821
0.395114
1.20492
0.433603
416 150
465 194
63 469
482 480
445 450
167 171
249 149
476 176
151 306
322 84
262 440
44 402
453 292
146 279
417 96
323 226
447 490
223 296
427 469
52 153
22 186
235 426
251 398
289 247
332 209
208 218
48 218
94 177
92 476
97 427
219 48
142 41
452 297
491 426
290 202
68 409
500 492
378 434
289 323
134 132
22 482
259 404
3 477
422 111
250 396
464 92
208 302
207 301
456 148
186 346
13430
1
