50
11
0 0 0 0 0 0 0 0 0 0 0
92 100 30 70 69 30 85 96 92 15 47
46 81 27 98 14 70 27 54 14 43 33
35 91 61 75 31 81 82 30 41 47 31
76 60 44 21 63 18 38 45 100 68 77
55 46 30 57 26 62 70 57 41 12 59
54 19 53 37 66 54 40 86 12 38 100
61 44 51 91 68 46 68 40 78 91 79
33 39 10 87 94 34 40 38 43 53 54
34 82 47 44 58 22 21 54 47 67 25
62 47 77 75 37 58 67 40 49 93 56
40 75 16 10 13 38 47 97 80 50 26
20 73 74 63 43 24 94 59 57 45 45
13 94 66 49 17 57 92 19 18 28 48
43 98 29 81 87 98 79 27 90 97 64
78 100 90 80 84 80 52 93 31 75 11
35 56 29 48 15 74 86 34 44 59 69
61 89 71 75 87 80 68 75 62 80 82
72 82 81 35 17 31 52 19 88 31 11
61 34 85 65 79 75 99 65 92 37 97
36 77 80 69 95 44 49 36 21 16 32
39 70 29 39 59 67 18 30 21 89 75
79 15 85 27 97 35 76 100 53 89 50
36 18 96 14 89 49 78 57 65 52 97
27 54 10 44 53 88 69 15 62 26 35
92 44 88 17 99 71 99 44 82 52 43
48 26 82 87 62 94 62 40 70 64 80
53 23 35 33 42 61 72 51 66 26 12
86 50 84 12 40 91 86 68 26 84 47
95 46 79 90 17 61 14 29 58 28 65
61 88 19 10 67 66 12 35 48 47 17
44 63 90 60 81 83 16 46 53 77 100
53 65 68 89 28 61 68 86 83 27 70
96 69 13 53 40 28 22 53 29 10 30
42 57 37 66 89 19 44 100 75 76 60
60 14 29 39 49 79 61 87 69 88 27
71 36 20 48 54 23 93 91 25 73 83
71 50 63 100 21 96 63 23 38 46 76
40 18 84 43 73 37 94 75 29 74 29
30 54 18 44 74 72 44 71 52 45 76
55 23 81 69 67 28 59 98 11 83 73
65 77 26 58 44 49 81 22 68 68 50
13 21 98 41 84 84 19 92 13 61 60
90 84 94 22 68 21 27 94 41 33 47
54 29 64 13 79 82 43 63 67 88 36
34 53 92 42 73 44 81 68 88 70 87
84 76 56 43 21 63 32 83 12 45 36
26 40 40 44 64 48 14 96 56 60 73
40 66 30 76 10 41 35 68 61 27 27
40 82 20 82 95 66 43 13 25 80 68
0.995347
0.681551
2.44683
2.03623
1.219
1.85982
2.01679
1.56005
2.35795
1.59003
1.19756
2.42474
2.18845
2.37101
2.38431
1.18089
1.4073
0.896805
2.3621
1.86102
0.725841
1.27784
1.72326
0.724097
1.79379
1.71595
1.75058
1.42552
0.734802
0.825525
2.29245
0.6082
1.42767
0.653926
2.22594
1.4723
1.36369
2.24947
1.29739
2.02425
1.26309
1.99456
1.97556
0.682953
0.53371
2.11862
0.81309
1.53876
2.48783
1.5341
2 8
382 171
432 199
18 340
289 84
447 264
87 173
329 106
334 273
89 86
115 227
356 381
397 185
417 410
28 26
168 335
496 110
324 124
18 265
438 132
6 0
104 278
114 144
66 8
202 126
37 455
19 427
434 249
82 297
191 454
380 365
49 72
430 70
98 233
99 467
177 238
465 184
478 71
247 490
130 92
125 419
102 363
182 198
191 475
267 374
233 218
204 275
255 231
262 33
274 499
4533.33
3
