50
3
0 0 0
27 27 70
10 10 84
49 63 33
95 51 33
38 100 75
97 21 96
43 35 85
67 96 79
93 24 100
79 90 52
64 55 42
85 68 93
57 17 87
19 69 54
45 68 75
87 70 35
73 43 21
34 10 78
29 54 64
61 84 98
46 22 84
52 27 88
24 29 52
46 41 65
69 15 18
47 17 45
100 24 91
94 57 51
87 99 41
46 28 87
86 11 79
97 38 68
73 68 95
29 37 96
83 70 86
39 88 20
62 52 32
82 80 96
92 47 70
59 95 87
61 28 38
59 37 97
15 58 50
55 84 56
34 38 50
78 77 79
78 77 59
12 17 64
42 35 57
0.559639
0.680168
0.216251
0.923358
0.917864
0.25937
0.654053
0.519985
0.489106
0.561609
0.903533
0.951906
0.263584
0.63455
0.510568
0.588417
0.597287
0.856588
0.469876
0.272262
0.775676
0.258229
0.642223
0.984378
0.483873
0.888303
0.305544
0.527608
0.42293
0.914763
0.415602
0.410208
0.714225
0.832516
0.749125
0.962751
0.417952
0.555918
0.910323
0.78641
0.355759
0.756704
0.758096
0.497131
0.465015
0.738146
0.430915
0.946462
0.945508
0.328001
300 381
99 320
407 386
404 103
299 25
347 298
40 351
62 282
490 492
350 308
439 310
266 374
448 113
406 410
64 396
47 81
89 197
490 263
371 190
187 427
16 294
165 125
215 351
481 285
20 88
64 416
206 259
207 326
228 94
223 340
476 408
469 430
277 110
173 55
108 182
455 370
362 398
244 483
495 472
190 103
148 265
299 336
204 43
152 215
329 362
256 278
480 404
301 460
137 426
341 51
4780
3
