50
7
0 0 0 0 0 0 0
67 41 14 38 49 27 41
45 79 20 79 48 61 91
57 98 41 34 10 77 23
84 84 29 43 60 88 77
87 95 23 74 87 92 46
17 68 67 93 36 70 37
95 66 10 83 38 46 73
34 15 25 53 54 30 52
87 66 88 84 87 20 23
80 18 44 21 10 92 86
35 97 86 88 26 43 38
13 89 37 55 98 19 71
90 58 66 73 49 37 96
44 30 60 38 29 10 68
100 35 71 75 61 35 49
25 44 68 10 63 11 74
87 54 12 70 29 61 64
58 23 14 90 78 16 77
87 54 28 82 43 81 81
82 54 59 62 60 16 59
24 95 53 88 79 23 21
42 68 87 16 65 10 10
40 17 17 31 70 50 94
97 14 72 88 39 50 49
95 96 95 100 85 26 83
29 29 55 69 69 65 35
63 71 39 70 31 90 85
48 100 76 27 22 32 74
31 79 96 23 15 52 59
25 62 41 25 49 59 33
61 76 83 96 43 63 67
23 65 15 62 11 63 57
17 16 83 73 88 21 46
69 43 21 53 81 19 97
70 66 69 67 59 95 64
30 74 21 80 62 83 79
53 43 58 19 38 92 99
32 25 38 25 61 52 87
43 81 88 61 20 73 52
97 80 23 20 86 63 96
86 71 16 83 40 20 93
23 94 11 98 85 48 63
93 93 35 12 82 31 24
94 100 81 25 27 79 41
71 60 67 33 27 93 68
87 93 45 16 87 55 21
68 48 21 33 16 56 80
42 87 97 70 83 10 49
62 82 90 59 46 22 48
0.343354
0.241238
0.138747
0.273965
0.37945
0.133525
0.130341
0.364268
0.197392
0.233121
0.178276
0.476514
0.113465
0.317291
0.208591
0.188019
0.104389
0.443606
0.143956
0.215405
0.174261
0.343213
0.248491
0.3651
0.332339
0.342645
0.204686
0.34326
0.47083
0.222771
0.199734
0.291082
0.484494
0.144513
0.309228
0.450837
0.224035
0.407488
0.203062
0.216206
0.201333
0.393992
0.134049
0.378317
0.42003
0.488106
0.388051
0.153357
0.296973
0.144545
264 209
481 136
26 436
469 468
3 355
9 166
385 94
392 37
399 218
467 61
48 168
337 426
315 74
192 64
3 300
73 211
254 121
16 250
341 317
251 129
357 16
222 181
248 333
129 121
467 101
326 273
422 321
268 17
245 147
398 308
32 373
279 443
130 179
235 169
162 108
131 471
215 133
418 116
359 277
303 48
444 310
329 1
155 338
343 90
12 37
469 330
152 199
168 405
263 368
221 364
4575
3
