50
5
0 0 0 0 0
79 64 77 94 22
33 22 53 75 74
67 27 68 19 40
43 69 46 20 72
75 88 49 74 49
65 42 20 89 23
65 66 88 55 64
75 67 60 97 51
23 72 14 48 28
33 27 20 94 47
92 57 97 88 91
23 96 99 48 67
44 42 15 57 85
91 22 73 19 85
74 32 71 29 52
33 35 32 50 83
49 85 27 16 88
46 29 85 16 86
94 34 66 83 16
40 39 78 65 85
67 34 61 49 27
21 31 25 41 96
80 49 66 18 52
68 75 94 95 92
11 99 93 61 35
70 89 31 44 100
97 19 42 78 10
60 19 46 85 52
87 17 14 72 63
88 95 21 49 30
54 81 58 22 26
31 51 93 23 47
61 97 95 86 45
51 56 94 72 45
51 24 75 98 31
97 47 46 83 10
77 32 45 89 28
92 69 91 52 86
23 54 95 58 87
78 34 42 11 56
49 26 100 74 17
65 12 27 79 85
38 28 93 53 54
16 61 65 40 78
62 54 86 68 24
62 85 37 20 22
57 72 39 45 51
61 68 73 83 78
86 19 79 64 52
0.447425
0.41589
0.250109
0.841697
0.479747
0.812868
0.935227
0.94818
0.632985
0.648647
0.573405
0.552818
0.939971
0.277719
0.606745
0.882981
0.508548
0.820431
0.399261
0.314643
0.212943
0.799165
0.736567
0.412696
0.947602
0.502577
0.685985
0.705774
0.887614
0.690396
0.518046
0.93695
0.325761
0.268235
0.580636
0.214453
0.500225
0.823836
0.322304
0.604437
0.817543
0.906355
0.997564
0.638336
0.6719
0.292278
0.357952
0.70223
0.902583
0.405839
283 402
454 489
31 65
256 301
56 114
355 170
418 185
279 122
221 134
472 341
206 319
282 412
79 324
252 339
447 44
217 223
390 320
295 31
30 224
148 347
135 192
263 225
202 333
343 63
115 177
461 229
370 26
165 143
485 191
367 210
84 112
206 103
347 406
191 80
28 240
12 212
348 128
389 374
161 40
412 338
10 341
466 358
185 423
163 296
110 58
369 137
431 281
246 55
382 440
432 272
4638.33
3
