50
9
0 0 0 0 0 0 0 0 0
30 72 81 53 22 70 22 35 32
93 34 64 46 90 91 24 20 49
60 43 34 77 16 23 40 58 18
44 64 62 33 81 46 41 35 58
22 91 30 85 15 20 46 85 89
50 33 79 94 38 72 72 18 80
98 28 11 23 29 46 77 48 81
59 78 72 49 93 17 33 41 26
12 14 15 31 43 89 81 82 34
60 29 25 21 44 15 21 43 33
47 45 36 86 16 69 59 82 79
40 20 86 89 43 98 63 56 30
22 49 87 19 53 24 80 66 71
84 98 66 100 53 32 53 24 72
31 95 58 52 55 70 10 25 65
54 93 82 30 26 90 89 67 91
30 100 18 54 38 92 19 29 71
46 37 18 40 47 39 11 93 44
43 59 38 58 65 25 55 34 77
93 22 83 93 56 39 21 59 94
19 66 49 61 79 68 90 18 67
98 78 31 73 70 84 86 73 63
64 18 82 38 58 57 75 50 40
65 88 79 99 61 59 32 59 26
28 65 54 74 82 93 62 87 31
58 97 93 95 76 37 32 58 48
68 17 66 52 17 22 52 65 13
57 56 41 60 52 83 22 80 39
89 77 36 67 89 30 15 95 11
68 19 23 60 61 60 37 53 11
97 41 75 74 35 34 11 48 62
60 73 37 90 85 86 68 30 37
56 75 47 21 74 92 55 42 75
87 52 59 64 32 50 85 17 37
47 12 90 83 63 67 77 26 74
85 84 26 60 46 90 14 87 53
35 96 92 19 74 56 45 71 100
94 40 75 10 35 98 63 30 25
55 38 43 31 91 85 11 54 72
81 71 37 66 45 58 93 46 92
13 44 69 25 51 17 28 80 74
16 65 52 28 89 82 21 56 43
96 37 30 60 41 28 36 63 79
50 26 47 29 93 18 43 71 100
60 95 81 37 24 14 67 85 23
54 28 25 43 65 44 85 68 81
50 93 13 44 24 72 60 68 81
94 18 38 48 81 89 80 14 32
33 32 85 42 25 61 80 92 41
1.15841
1.35126
0.730735
2.00205
2.12081
1.03713
0.808433
0.576724
0.926207
2.12775
1.05351
1.65133
2.18424
2.32828
1.594
1.55997
1.78725
1.32303
1.51285
1.25788
1.31022
2.42992
1.2212
2.00787
2.48042
1.96103
1.70029
1.07394
1.5035
2.4918
2.17076
1.46203
1.96523
1.31007
1.67088
0.734417
0.533758
2.49192
1.1983
2.38166
1.6433
0.586218
2.23432
2.352
1.78776
2.32458
0.808521
2.24129
1.36018
0.592115
169 182
226 14
498 460
248 441
236 347
388 182
491 436
450 229
16 376
136 445
68 187
280 30
240 303
98 286
27 50
53 80
85 77
322 416
143 324
457 107
338 374
457 59
299 103
125 395
138 219
372 348
22 75
157 319
333 284
236 20
295 391
178 288
235 120
376 11
303 254
135 454
180 43
111 74
224 296
71 212
297 493
20 112
114 125
184 77
266 484
143 245
328 282
447 464
323 342
56 113
2677
5
