50
3
0 0 0
15 25 17
12 85 36
69 51 33
24 92 46
90 57 20
86 48 80
69 34 77
57 35 89
100 92 31
75 81 17
33 40 83
28 82 48
13 74 39
23 75 12
48 55 65
15 18 89
88 85 37
80 61 99
63 29 42
32 25 64
31 46 74
88 80 87
60 68 90
17 45 23
93 88 88
58 23 51
83 95 34
79 33 24
19 13 12
53 44 29
67 52 54
39 26 64
51 97 45
40 58 14
95 72 36
81 88 16
57 14 81
40 73 66
70 95 10
44 100 90
83 22 62
75 85 74
36 11 80
42 56 84
30 93 29
79 62 48
82 60 39
50 70 86
53 77 16
0.660299
1.11122
1.37129
1.59229
1.16499
1.95115
1.17028
1.06262
1.62165
1.15536
0.989137
1.79064
1.88091
1.62595
1.17871
1.11233
1.61273
0.526665
1.41545
0.855888
0.764012
1.95543
1.18378
0.421479
1.77365
0.423492
0.442566
1.33447
1.11168
0.747058
1.77023
1.49126
1.70336
1.75705
1.03046
1.38936
1.26945
1.88776
1.38944
1.5299
0.507942
0.823742
1.29673
1.04098
1.60576
1.68382
0.924476
0.504367
1.22168
0.642535
421 272
469 0
63 384
13 442
291 176
331 269
72 52
88 23
21 66
419 305
443 482
81 350
485 455
277 69
218 207
475 323
88 479
484 138
115 250
169 299
38 71
200 432
390 341
84 461
313 440
164 419
394 335
383 359
460 183
53 440
296 109
252 366
107 82
251 167
328 273
242 463
475 351
66 155
291 113
450 431
357 143
226 266
369 457
351 418
301 404
165 479
215 67
399 255
327 412
249 162
6777.5
2
