50
7
0 0 0 0 0 0 0
43 75 85 82 38 26 68
30 88 83 37 59 69 35
64 55 27 95 10 24 91
84 24 81 56 90 60 99
67 17 57 58 12 79 42
98 94 77 78 42 99 55
31 97 63 85 49 68 23
55 14 32 13 74 47 27
15 14 89 53 27 49 90
50 47 27 50 28 100 66
28 48 31 90 41 74 100
68 17 94 24 65 43 60
38 15 31 89 44 75 46
48 82 56 39 17 100 33
88 62 75 87 91 49 24
46 37 47 79 96 30 79
86 83 17 64 49 79 24
11 94 60 65 71 71 57
94 13 58 34 17 18 84
99 70 68 56 38 31 78
47 19 47 54 25 23 98
68 58 77 39 27 98 86
37 97 82 88 41 24 75
13 26 92 57 65 63 48
18 22 64 51 51 59 100
90 56 92 77 76 51 80
76 60 55 76 68 91 28
22 82 36 41 16 63 79
51 56 15 27 99 24 36
85 77 95 91 61 15 38
90 82 58 38 68 39 29
46 23 11 20 82 48 54
69 48 66 58 31 21 23
100 80 35 25 92 28 71
11 77 43 54 98 91 11
58 88 66 31 30 98 40
42 27 92 17 23 91 14
27 59 79 89 23 40 26
37 68 32 91 22 85 84
60 40 56 40 78 82 63
95 55 70 35 28 27 95
56 95 51 95 73 19 55
13 49 50 58 10 64 49
38 84 24 62 22 37 95
68 75 92 39 47 67 54
21 57 42 29 31 77 39
82 52 64 87 52 13 24
76 72 67 74 93 77 18
41 18 10 100 65 63 90
0.98737
0.416719
0.892211
0.460397
0.447006
0.487289
0.852033
0.987597
0.944146
0.58156
0.304187
0.256716
0.487907
0.853942
0.33985
0.985726
0.536582
0.84225
0.907591
0.402302
0.872153
0.677215
0.793854
0.759815
0.560692
0.805269
0.576107
0.591807
0.209664
0.642926
0.485404
0.381971
0.504189
0.737039
0.888359
0.70419
0.744214
0.33697
0.759036
0.437614
0.684227
0.575169
0.979546
0.968996
0.657682
0.58653
0.6659
0.483393
0.385206
0.424241
361 49
239 357
499 117
253 139
109 165
389 38
383 19
138 405
327 384
45 92
255 172
445 295
179 147
355 372
82 60
465 161
352 327
391 427
283 9
203 304
228 142
55 312
75 413
265 190
376 164
330 340
358 364
149 126
148 314
223 63
386 233
293 104
42 488
83 99
162 499
467 238
18 125
352 92
333 111
474 444
68 462
144 405
61 15
263 371
73 314
423 434
178 103
370 337
340 280
393 90
3416.25
4
