50
5
0 0 0 0 0
44 27 50 20 98
93 40 53 65 98
23 21 40 95 66
54 73 72 43 90
62 97 26 82 35
21 25 57 18 45
69 60 45 72 94
34 72 89 32 36
17 68 52 57 63
56 29 63 31 50
72 47 95 72 98
57 59 78 30 67
22 92 35 46 25
23 79 32 82 92
27 95 86 25 98
67 41 33 11 75
99 55 79 32 67
26 23 31 99 52
27 70 32 44 31
43 20 53 15 13
93 57 28 99 22
54 100 13 50 54
50 44 15 54 34
46 17 72 84 40
31 97 31 86 71
18 60 72 77 56
48 86 57 29 66
89 52 20 79 46
69 39 83 62 76
30 57 52 55 83
58 50 82 61 95
46 74 44 35 42
72 94 85 78 87
28 80 100 33 55
61 45 99 23 24
43 68 48 17 96
70 95 67 92 42
58 35 47 37 43
45 27 49 71 63
95 84 51 15 58
84 100 55 94 21
86 91 32 15 52
81 94 84 84 14
18 89 56 38 64
74 58 32 51 94
24 72 19 30 26
93 28 78 85 81
71 60 27 85 44
93 90 28 51 87
0.708636
0.376356
0.471156
0.985712
0.987959
0.798919
0.703705
0.252029
0.598669
0.315748
0.55643
0.966914
0.779064
0.948232
0.61918
0.540889
0.424022
0.993203
0.94102
0.974708
0.365353
0.748542
0.478324
0.483522
0.870963
0.738077
0.553339
0.724117
0.829707
0.504958
0.224145
0.238785
0.498422
0.624318
0.700477
0.595537
0.646483
0.649589
0.831341
0.821819
0.799061
0.664906
0.81231
0.855115
0.506242
0.475994
0.492862
0.705864
0.343379
0.868678
384 120
48 204
452 33
201 43
42 135
220 265
55 41
324 479
358 133
270 454
484 337
487 445
125 119
473 305
229 367
210 61
332 135
443 214
113 188
31 399
446 396
438 211
290 262
82 135
134 102
442 236
181 303
41 118
147 100
289 221
43 273
276 379
44 302
341 321
106 18
469 356
252 247
13 307
383 86
466 161
98 299
479 271
492 280
324 48
452 399
218 227
63 336
30 406
435 443
372 302
13895
1
