50
11
0 0 0 0 0 0 0 0 0 0 0
54 73 37 26 86 39 54 13 25 63 45
82 84 31 96 92 100 16 93 30 13 31
83 78 64 39 10 36 23 99 49 49 48
11 52 85 23 73 35 88 16 36 88 85
68 55 21 21 38 46 87 33 53 75 40
32 44 69 38 48 85 31 15 57 19 46
40 90 77 75 66 98 23 88 24 21 95
17 24 55 60 38 75 95 45 86 10 78
82 50 70 99 48 31 18 59 27 46 18
80 57 14 32 70 15 85 38 88 87 21
18 100 33 16 74 28 81 41 45 44 97
32 21 86 83 33 66 28 23 72 33 31
84 22 33 68 83 49 70 23 41 63 33
20 67 18 21 21 83 73 36 63 52 39
78 47 28 12 17 43 61 24 27 13 99
61 21 50 47 95 67 44 16 46 28 73
79 79 56 63 27 83 31 67 57 95 11
12 81 27 42 52 88 72 48 55 54 70
92 53 11 46 42 34 19 38 70 51 48
44 71 95 60 28 50 40 52 99 91 23
90 16 56 82 75 59 85 46 96 48 95
18 23 14 76 88 62 42 43 60 61 25
79 69 24 41 82 74 74 83 96 10 47
53 58 56 30 60 13 86 40 83 59 57
67 52 16 66 33 97 20 71 47 63 96
33 13 79 99 22 15 57 62 46 40 100
64 77 42 91 26 55 59 92 40 84 17
79 61 66 47 90 21 80 33 41 62 27
58 75 15 80 50 68 42 91 12 88 100
22 35 88 60 41 36 96 10 57 59 24
43 55 11 27 99 28 31 80 81 96 47
18 45 25 43 100 54 24 100 15 55 44
71 60 25 10 79 51 24 75 26 39 12
97 12 33 75 15 52 18 91 71 32 48
55 90 89 45 46 61 41 12 11 60 37
31 64 75 94 33 77 87 75 31 66 73
85 54 73 95 67 17 44 85 58 27 80
82 61 26 35 28 76 96 55 87 15 41
71 67 62 11 93 90 94 88 84 97 54
74 11 40 73 52 30 95 66 47 64 87
49 26 60 95 72 14 33 76 94 15 69
34 38 94 30 64 46 67 95 82 24 36
67 61 55 76 70 67 34 80 67 52 68
24 87 70 56 92 89 16 49 25 45 66
63 70 98 73 27 89 36 63 71 90 58
53 38 52 93 60 30 50 60 47 52 47
20 63 36 93 58 21 47 100 61 31 72
25 42 18 17 61 39 17 92 52 73 75
31 25 23 91 80 66 65 56 26 42 21
1.25571
0.656471
1.93414
1.10191
0.760452
0.7464
1.4709
0.877923
1.43449
1.63365
1.94999
0.525264
1.56318
2.33708
0.671278
1.47386
1.07757
2.25822
2.22886
0.884509
2.05045
1.92889
1.71458
0.826506
0.979496
0.926001
1.34087
0.713912
1.04349
1.70622
0.547991
1.64105
0.904233
0.705342
0.5504
2.44553
1.63038
1.73314
0.594003
2.24276
0.910882
2.18887
2.38232
0.969402
1.48077
0.652079
0.713964
1.78922
1.38945
0.729022
194 471
443 239
499 6
363 351
90 173
410 366
280 47
355 404
202 376
367 293
194 354
21 122
490 245
459 452
342 206
159 234
396 121
412 124
496 249
482 481
298 387
114 18
112 317
467 214
461 127
428 8
173 127
416 255
171 92
469 107
59 20
393 449
300 125
287 122
186 280
415 325
424 79
404 164
428 176
85 283
276 153
250 74
443 207
1 382
187 490
461 122
143 191
439 3
191 253
123 402
13245
1
