50
3
0 0 0
16 27 66
90 85 68
87 42 26
39 82 89
75 32 88
66 38 38
29 54 41
17 93 73
35 95 58
26 28 31
20 52 69
27 60 99
86 21 46
59 47 25
32 63 39
88 85 36
26 20 11
72 31 83
67 13 42
77 44 63
94 73 26
87 15 71
58 77 69
39 67 66
36 49 71
74 20 16
64 18 83
40 10 73
12 67 46
34 97 16
93 40 74
75 38 70
99 56 70
98 76 73
21 54 87
93 16 56
72 41 88
32 78 92
43 78 68
79 87 92
53 11 55
12 49 80
33 26 91
73 88 63
85 41 97
92 50 28
48 74 27
74 77 67
63 54 65
0.608846
0.273759
0.338497
0.866227
0.712572
0.719636
0.326923
0.694589
0.838439
0.56165
0.297073
0.220889
0.268139
0.95115
0.599588
0.210289
0.633168
0.494459
0.283222
0.613561
0.94857
0.637826
0.784944
0.218094
0.613002
0.359231
0.908613
0.642142
0.699866
0.283147
0.655738
0.575932
0.886804
0.292172
0.413427
0.377473
0.870589
0.504291
0.548485
0.773569
0.632539
0.961182
0.210837
0.454739
0.407935
0.207367
0.206275
0.328127
0.765012
0.274389
187 106
499 201
138 223
337 318
421 479
493 26
464 493
183 435
187 221
194 342
380 293
151 362
99 30
226 330
298 21
165 335
98 438
208 66
484 310
465 474
113 210
319 298
102 83
249 392
255 217
398 247
412 434
441 405
68 71
0 64
202 219
87 341
51 107
462 299
477 132
67 299
207 478
102 200
227 88
0 364
272 345
180 176
291 419
85 304
19 68
206 400
122 368
195 386
263 385
362 255
13865
1
