50
3
0 0 0
43 11 26
20 44 46
93 66 63
92 97 22
37 81 62
13 80 15
85 60 68
38 57 13
40 19 54
86 71 43
88 70 87
39 99 55
79 16 52
11 96 49
54 42 26
100 55 29
83 68 29
19 11 99
24 85 89
73 83 15
43 46 78
77 41 91
50 79 70
41 33 11
24 26 62
59 23 96
96 34 82
69 37 95
64 34 46
68 77 61
69 27 52
83 43 44
11 44 14
62 16 28
78 83 100
63 86 53
90 13 60
64 52 99
59 71 50
72 39 35
41 60 13
71 19 83
60 52 31
67 67 39
21 82 81
100 63 60
45 14 68
10 70 98
76 20 33
1.18145
0.342221
1.35624
0.886996
0.486775
0.770915
1.46073
1.3445
0.870039
0.300375
0.889303
0.321641
0.749103
0.641014
1.35863
1.03423
0.956554
0.454504
0.750353
0.310505
0.431643
1.29698
1.35056
1.39962
0.394235
1.02121
1.05821
1.11415
1.29946
0.733674
1.11142
0.710042
0.349545
0.887104
1.12109
1.1466
1.14165
1.46115
1.41804
1.30277
0.838814
0.543555
0.77191
0.564741
1.22455
0.94506
1.12525
1.36023
1.10404
0.349398
418 272
333 234
338 387
421 7
44 416
327 77
45 420
325 247
262 158
420 100
216 182
270 235
90 210
376 307
196 314
88 217
256 455
406 400
440 135
492 335
258 386
299 57
243 192
15 250
119 347
482 330
341 441
380 500
73 110
215 259
137 236
43 84
174 260
16 319
333 70
313 149
262 426
490 240
302 218
84 332
190 218
312 386
175 246
24 223
365 260
2 69
7 42
364 62
70 383
40 328
2695
5
