50
7
0 0 0 0 0 0 0
22 49 73 57 28 21 89
83 27 42 52 20 84 50
19 95 44 89 14 69 46
37 39 11 89 73 68 16
80 91 34 92 86 88 99
87 17 54 25 41 68 78
14 20 39 59 80 76 49
93 88 44 83 24 94 64
26 20 15 82 88 66 46
69 22 41 36 40 79 82
63 66 12 55 51 26 68
82 24 37 26 43 40 60
73 97 65 83 54 82 25
69 88 43 66 60 21 73
46 20 61 27 20 63 42
45 23 86 27 12 51 67
79 67 69 33 80 83 85
13 31 84 82 60 97 37
73 73 10 20 52 11 79
83 33 68 79 96 11 87
47 75 24 85 14 40 61
85 92 59 80 65 26 65
34 92 95 65 11 39 89
60 34 90 89 95 67 89
77 39 81 26 75 30 89
34 23 13 48 94 13 60
25 83 33 62 99 95 93
73 50 27 51 38 52 73
11 99 61 88 91 37 79
25 40 20 97 46 90 35
55 51 27 52 72 26 13
47 53 24 98 64 90 86
26 72 50 12 30 76 11
28 92 80 18 72 19 52
44 68 84 89 44 92 17
25 75 58 90 42 66 26
87 61 40 71 27 12 54
43 94 18 41 68 11 95
90 57 40 98 55 64 86
48 13 20 33 52 65 33
25 82 79 17 79 33 47
59 76 16 66 77 41 83
62 31 58 22 62 38 98
14 60 95 51 48 54 91
76 23 85 67 46 67 74
69 98 73 28 46 78 88
64 48 20 17 13 53 12
99 11 83 72 76 84 25
48 82 28 40 48 36 66
2.25631
0.960458
2.01752
2.27467
1.43095
1.80171
1.18485
0.753134
0.919157
1.16235
0.953052
1.34259
1.74442
0.942896
2.1025
0.781536
2.06314
2.45268
2.01201
0.554412
0.545237
1.36979
2.07414
2.01316
1.35342
1.93976
1.07287
2.29113
2.32413
2.28452
1.83877
1.24128
1.40311
0.865582
1.57987
1.29765
1.61195
1.48978
0.545213
2.28933
1.11662
2.10549
1.23603
0.920793
1.10881
0.509899
2.20236
1.83365
0.786524
0.72624
292 133
419 75
294 210
279 485
480 206
100 443
200 103
352 399
84 198
26 295
276 14
405 409
279 144
182 69
36 83
226 169
432 138
133 462
423 198
57 411
234 31
485 352
17 244
313 19
331 181
340 410
212 143
311 495
71 133
153 177
410 37
122 354
456 429
1 500
218 109
347 381
394 103
14 480
62 33
204 287
68 38
352 340
271 11
291 257
370 470
150 12
176 460
331 404
53 288
364 140
2720
5
