50
5
0 0 0 0 0
16 49 48 21 85
38 24 41 21 58
77 10 24 54 30
28 13 19 41 43
20 53 18 41 81
92 84 14 11 55
44 48 58 11 11
44 93 84 61 32
43 39 49 58 42
48 41 47 94 57
72 98 29 65 24
62 45 77 60 90
98 67 81 85 45
94 10 11 99 76
66 21 44 29 75
46 54 82 18 20
45 92 65 64 94
73 29 16 10 75
32 88 15 85 28
57 80 94 22 100
13 24 11 43 61
80 99 54 68 35
27 55 70 47 52
83 17 90 42 64
57 29 32 69 15
14 20 100 96 69
55 77 71 45 87
82 92 84 48 35
52 99 95 98 92
52 66 33 19 91
35 20 72 22 94
45 21 29 89 27
61 41 33 32 21
67 21 41 33 57
37 46 71 25 69
83 41 46 88 83
49 79 48 69 62
96 33 78 16 16
99 31 77 75 20
39 52 57 69 77
23 58 33 67 46
92 93 19 42 50
12 30 83 28 44
24 45 14 68 40
99 28 23 68 10
18 80 90 54 64
45 30 63 71 77
84 53 40 27 73
63 22 79 99 100
1.02644
0.746906
1.23781
0.618552
0.707139
0.647225
0.370597
0.84795
0.464675
0.686936
0.438505
0.574243
0.49887
0.898806
1.0005
0.746102
0.685473
0.879873
0.374433
0.662642
1.33164
0.381406
0.335977
1.4995
1.341
1.18734
1.01962
1.30294
0.310155
0.323385
0.729502
1.36268
0.927163
1.12985
1.21039
0.719169
1.28357
0.568805
1.4551
1.33219
0.602766
1.40434
0.338435
0.590016
0.322872
1.08887
0.68408
0.441705
0.771203
0.523325
498 497
130 131
260 309
417 346
413 232
92 376
108 48
35 324
346 200
179 468
469 40
290 55
16 16
361 103
106 159
85 50
250 483
476 343
97 139
77 129
429 82
500 106
418 202
9 156
486 172
479 98
383 321
428 229
412 223
88 481
387 70
313 56
268 198
145 139
475 283
7 83
212 134
474 388
385 404
77 195
56 203
462 204
176 20
363 295
451 144
421 98
316 124
374 270
432 400
171 101
2598
5
