50
7
0 0 0 0 0 0 0
64 20 50 40 89 16 62
16 44 48 95 50 78 85
47 40 17 77 82 38 17
28 71 34 73 31 67 65
59 79 96 54 85 33 50
17 16 93 49 14 83 51
69 55 68 51 90 65 63
15 98 34 15 58 11 47
50 36 76 21 35 47 49
53 14 21 51 92 62 15
75 15 82 17 11 65 42
11 73 60 29 52 56 11
100 95 92 54 75 80 49
35 94 83 52 47 48 48
52 85 91 30 93 41 35
96 29 60 48 68 66 29
93 85 62 82 93 97 43
12 75 95 84 91 19 59
88 75 42 32 70 80 14
21 12 51 87 97 18 16
10 77 74 83 80 67 13
84 60 87 29 57 12 13
43 80 62 81 23 68 76
75 64 91 99 27 77 64
50 45 60 20 50 60 86
67 19 79 84 74 67 98
18 78 17 32 74 30 31
11 34 65 52 23 10 100
31 46 90 79 84 40 12
53 38 78 40 87 29 36
44 72 65 83 82 39 57
78 73 92 30 42 25 68
59 11 65 57 30 40 57
93 86 67 65 13 50 13
70 34 69 11 99 63 19
40 52 38 34 56 63 27
64 39 71 83 43 35 60
60 39 67 47 74 62 40
66 62 44 23 74 70 34
11 36 73 77 34 15 17
10 74 70 91 27 60 27
43 24 23 27 86 58 24
37 25 92 17 55 58 33
47 33 51 17 19 82 59
10 29 92 60 35 70 89
47 22 69 84 25 95 47
39 97 61 82 36 54 75
29 73 67 38 62 59 41
36 28 51 85 16 31 35
0.499623
0.786296
0.378498
1.26744
0.91121
0.950432
0.974386
0.752985
0.432049
0.547101
0.476167
0.598675
0.416768
1.04143
1.46537
0.6167
1.00879
0.576014
1.38834
0.480775
0.466698
0.865148
1.22237
0.454013
0.701784
1.38673
1.37722
1.13367
0.686425
0.43568
0.639049
1.46091
0.500404
1.38368
0.772487
0.813539
1.27432
1.34758
0.79957
0.856454
1.06149
1.14574
1.28025
0.514728
0.357622
0.503116
1.0061
0.4088
1.11706
0.83399
343 223
94 350
456 255
177 371
399 143
376 500
336 29
24 378
128 467
187 273
391 41
223 258
6 226
214 263
279 226
222 33
140 321
231 275
13 268
176 270
405 408
23 403
307 344
239 367
251 29
12 226
338 269
12 448
248 471
255 369
291 287
261 442
434 412
120 462
89 155
263 484
200 182
455 143
53 463
280 220
75 166
244 145
233 226
28 429
150 497
408 314
460 405
328 2
104 63
219 301
3266.25
4
