50
5
0 0 0 0 0
63 57 53 95 11
57 52 19 18 92
90 63 85 56 56
40 57 80 89 67
54 91 12 13 22
66 57 54 50 36
35 70 63 42 72
55 98 20 64 15
31 16 66 55 13
66 20 36 60 82
83 73 48 26 68
90 49 88 81 89
61 47 88 99 45
84 10 70 41 19
24 39 91 11 35
83 72 100 91 86
57 96 57 59 68
72 74 46 36 82
93 68 96 78 91
12 27 31 40 21
54 73 40 26 61
14 41 41 61 23
17 94 17 60 50
21 81 60 15 70
54 36 76 55 78
43 52 73 44 17
11 29 87 43 50
35 98 82 28 30
39 31 34 87 49
47 73 87 75 32
90 75 61 90 85
52 32 61 85 91
68 22 65 97 64
42 47 47 46 66
30 82 16 42 93
18 46 53 66 23
83 75 91 35 85
75 10 53 24 39
97 35 33 44 20
92 12 84 24 33
69 18 22 46 99
33 40 17 24 49
85 51 34 37 69
10 48 49 71 60
55 45 53 70 37
50 58 81 10 31
25 94 49 99 43
64 19 66 37 70
33 28 81 21 48
1.68089
0.839792
1.79811
2.49851
0.549945
1.27285
2.48253
2.22004
2.25161
2.41074
0.832253
1.46166
1.95162
1.92305
0.834978
1.08048
2.15549
1.65616
1.38013
0.680608
0.853167
0.564439
2.31194
1.03897
1.35477
2.12105
0.965124
1.46986
2.14767
1.84378
1.53301
1.35241
2.45213
2.23529
0.975994
1.85555
1.30851
1.72303
1.11758
1.32801
2.23406
0.58532
1.82109
1.03438
1.25365
1.11956
0.501303
0.938081
1.73697
2.29176
473 405
135 344
330 26
474 149
93 434
297 330
448 161
235 444
4 336
231 160
421 163
322 456
164 389
121 359
182 350
423 185
93 267
494 125
109 458
325 460
416 493
217 413
56 220
259 410
449 1
350 408
455 212
475 32
56 399
180 82
473 221
43 364
159 279
224 99
396 338
400 460
105 241
57 326
96 240
259 326
111 496
120 189
135 494
129 240
326 85
407 225
181 485
429 70
93 370
14 349
2644
5
