50
11
0 0 0 0 0 0 0 0 0 0 0
83 34 12 52 67 85 63 44 46 28 16
33 85 73 72 40 17 88 42 33 60 15
38 60 62 37 100 15 81 81 59 40 33
68 32 92 84 24 19 95 58 99 49 30
43 71 42 86 48 84 74 88 78 70 73
30 74 42 40 86 64 72 30 78 29 85
28 50 98 90 22 95 25 85 41 21 29
84 18 66 70 62 10 26 18 49 90 10
76 36 19 64 12 51 53 15 91 64 81
87 44 69 44 78 49 34 43 71 85 66
74 88 34 15 62 26 97 70 24 54 90
70 28 25 31 70 80 17 12 70 51 49
58 84 10 55 42 45 60 82 86 16 65
85 71 21 89 13 86 82 77 49 19 31
34 12 75 35 46 32 26 70 67 59 57
76 22 75 30 99 79 20 76 68 55 81
25 18 61 45 51 90 30 31 72 74 40
43 56 27 73 25 70 93 100 89 76 83
32 99 10 19 42 83 85 20 73 31 87
92 10 40 34 86 27 84 15 56 47 42
43 16 64 96 17 20 59 53 49 87 52
94 69 87 41 52 65 87 82 81 58 86
48 30 59 81 70 81 29 25 58 65 45
86 85 89 55 15 20 91 82 91 50 79
97 50 64 53 49 54 23 38 38 72 49
36 83 29 98 99 76 92 67 63 12 29
37 10 82 30 97 23 88 77 71 49 44
44 26 42 24 68 49 26 59 10 67 79
54 79 30 65 96 52 75 65 32 56 88
94 66 23 16 75 11 76 87 71 39 50
39 78 33 12 32 25 55 22 40 60 57
28 19 68 88 42 68 77 13 91 32 62
13 80 91 59 65 98 86 31 90 75 83
91 20 16 15 41 46 56 96 81 82 12
29 24 10 53 27 66 42 17 57 44 46
28 25 21 69 29 94 37 57 37 70 94
33 66 39 25 11 46 64 48 38 12 93
54 47 23 14 74 43 65 92 43 23 22
81 97 51 13 29 94 42 30 94 82 67
85 51 92 63 100 90 96 84 76 85 64
12 80 38 41 41 36 26 66 63 86 21
83 30 75 57 71 61 39 37 86 14 63
83 71 25 79 59 11 65 45 13 79 45
95 58 52 70 12 75 30 30 69 76 14
99 22 93 62 50 69 18 67 53 81 48
58 30 54 37 29 84 28 57 68 83 91
75 90 81 82 24 46 62 17 23 47 51
56 85 72 71 12 15 90 41 17 88 79
78 50 87 96 92 88 52 68 47 41 60
0.827412
0.833047
0.855584
0.359786
0.328136
0.524231
0.546382
0.541952
0.496134
0.400574
0.728055
0.462182
0.686205
0.734327
0.219841
0.209193
0.635808
0.658414
0.798274
0.325234
0.693686
0.221081
0.858969
0.990584
0.756878
0.240151
0.260152
0.775366
0.410191
0.586762
0.73025
0.73407
0.911455
0.686854
0.817106
0.585014
0.676638
0.616221
0.321557
0.546047
0.297469
0.386123
0.787953
0.810837
0.806584
0.723045
0.413419
0.654863
0.474991
0.331862
382 487
257 229
3 494
62 177
354 30
141 488
458 260
294 44
375 346
326 388
60 95
350 84
55 111
108 432
138 448
485 171
166 458
445 326
301 118
431 373
145 481
442 361
415 410
195 393
496 294
444 25
229 112
355 169
396 69
193 237
193 500
407 20
433 244
10 120
344 193
303 500
483 100
58 69
37 38
13 360
322 80
315 410
4 118
109 72
392 115
396 431
320 430
44 125
18 224
15 282
13540
1
