50
9
0 0 0 0 0 0 0 0 0
29 77 99 34 51 41 14 47 83
97 91 77 37 75 44 80 70 27
24 18 19 85 81 84 64 72 72
95 24 27 98 87 39 68 20 30
44 82 69 16 89 25 67 19 84
83 75 74 48 99 28 84 11 92
90 54 96 71 81 84 95 27 39
41 43 15 97 94 87 58 10 36
59 91 66 11 69 34 51 36 46
15 65 77 47 96 93 46 82 99
63 28 17 19 76 99 72 48 63
89 43 39 40 58 55 77 27 43
55 21 48 96 62 62 90 66 40
75 16 51 10 71 18 50 32 51
12 77 65 83 92 44 30 29 34
48 55 13 26 23 74 35 50 81
42 45 33 52 31 27 40 78 45
51 14 92 91 29 91 87 63 27
81 14 66 98 60 28 96 90 91
89 62 71 46 24 24 86 39 98
14 31 13 87 74 87 40 50 73
44 37 79 86 31 60 95 59 67
54 60 28 58 92 76 77 78 33
94 51 19 66 22 100 43 21 54
96 50 92 40 85 78 23 97 17
84 100 79 11 80 24 37 39 60
26 74 35 34 68 79 62 10 34
52 70 16 39 69 92 20 70 83
76 28 55 85 58 31 76 48 93
46 48 59 29 44 72 73 73 18
63 35 36 60 39 38 81 53 61
78 87 17 28 46 95 38 36 54
39 76 74 94 27 29 16 12 50
63 16 25 52 90 65 100 93 80
23 81 91 19 94 30 75 28 72
66 12 44 53 92 86 14 15 93
35 17 43 35 26 19 35 77 99
27 81 10 60 100 34 15 100 84
78 27 97 27 74 85 77 41 67
45 92 46 67 39 27 67 67 56
10 61 14 81 83 26 20 72 67
83 30 72 66 96 88 55 68 79
87 19 67 54 34 18 29 76 17
15 70 64 46 45 90 60 63 98
10 32 28 98 70 21 19 19 16
13 45 67 48 72 73 81 22 75
56 15 19 74 79 69 17 10 79
11 45 40 63 57 10 71 87 22
64 61 68 27 63 40 41 53 32
0.385691
0.41783
0.457153
0.167072
0.392155
0.2192
0.327655
0.40308
0.10637
0.126858
0.258581
0.277824
0.228662
0.258701
0.212811
0.331236
0.462205
0.463561
0.229059
0.181128
0.38501
0.123435
0.452458
0.126265
0.181604
0.233051
0.115345
0.46894
0.441223
0.320318
0.276402
0.336574
0.299152
0.32228
0.114604
0.365002
0.366
0.381196
0.47158
0.465954
0.236547
0.264719
0.175257
0.174094
0.29795
0.348276
0.208357
0.215105
0.346335
0.293128
65 270
292 406
177 362
346 315
396 484
141 315
286 157
264 355
459 357
32 497
396 176
53 364
61 220
195 237
113 414
446 362
153 242
387 279
21 426
76 258
283 297
186 92
77 241
493 232
289 357
267 198
103 452
405 438
336 95
226 224
199 379
203 3
433 447
164 223
35 333
43 290
489 87
338 470
29 408
41 31
385 194
151 250
422 279
460 383
333 416
111 303
98 488
450 28
207 358
58 482
6752.5
2
