50
5
0 0 0 0 0
22 88 28 80 49
18 17 48 88 91
42 50 57 61 79
25 31 51 65 96
13 70 47 80 11
34 12 59 97 38
10 52 84 77 46
58 92 35 31 96
42 90 93 56 37
26 29 78 50 30
94 50 24 68 51
87 64 91 68 92
60 61 24 28 98
60 61 55 55 81
30 75 28 16 52
90 63 91 58 76
25 100 90 43 62
21 97 38 68 91
56 55 32 41 48
98 33 19 84 94
68 52 79 22 86
31 42 64 31 19
18 68 58 38 97
56 76 82 83 99
71 61 23 96 75
39 19 62 81 15
55 87 68 94 11
63 85 46 67 70
80 40 92 14 30
78 53 10 33 90
20 72 57 13 20
83 27 87 23 39
90 94 28 83 79
30 13 59 78 90
14 58 87 65 74
81 16 34 91 31
76 14 90 97 84
42 55 26 77 89
69 49 78 29 46
38 31 58 20 41
33 79 59 63 81
25 79 38 100 53
19 98 19 21 90
96 78 50 43 83
68 10 43 49 51
36 15 64 10 78
96 97 60 25 82
47 54 56 45 10
63 73 38 41 86
0.487973
0.433336
0.300799
0.130464
0.395136
0.309171
0.220106
0.353863
0.188434
0.301818
0.199302
0.454582
0.397649
0.482757
0.443832
0.304193
0.207065
0.482491
0.263071
0.246406
0.406776
0.101197
0.474145
0.37476
0.474794
0.492832
0.31307
0.429386
0.293647
0.437736
0.386389
0.464021
0.283853
0.298166
0.482283
0.207527
0.344656
0.369917
0.385362
0.138144
0.161183
0.305174
0.301357
0.220665
0.181796
0.149141
0.191095
0.496277
0.179616
0.308608
196 496
36 212
233 444
460 243
34 27
137 316
137 203
95 379
39 87
427 127
62 462
239 121
181 293
484 244
390 119
170 402
205 325
467 328
188 100
126 287
231 45
197 251
104 449
400 478
59 255
85 258
331 62
384 411
229 414
41 36
267 332
329 208
452 103
443 254
359 251
84 469
469 472
491 75
309 282
199 361
70 65
354 243
41 252
406 135
279 112
179 248
312 87
75 245
408 68
326 344
3457.5
4
