50
3
0 0 0
89 87 99
26 70 72
100 35 56
90 28 94
60 96 32
24 59 18
41 23 60
35 93 70
72 25 98
22 38 55
11 21 45
93 85 51
43 86 72
19 12 100
66 53 89
20 84 35
39 47 43
69 46 38
42 34 18
37 79 20
13 61 71
89 80 18
41 51 70
12 20 62
65 94 48
37 39 95
20 35 59
94 16 30
97 22 31
29 73 23
55 23 93
38 82 88
30 17 33
70 15 83
79 57 93
34 17 76
37 11 67
78 60 47
55 77 96
66 62 43
96 18 92
65 49 90
55 85 78
92 98 72
45 71 53
26 42 97
26 48 71
72 64 72
96 63 70
2.07124
1.72388
0.769414
1.62712
2.3129
1.76313
0.508816
1.87898
1.08471
2.36855
1.72469
0.97635
1.59253
1.06374
0.898202
0.705831
1.59007
0.827591
1.86782
0.725955
1.47684
0.542476
1.21264
0.838442
1.29921
0.890557
2.45801
1.72851
1.56083
0.517941
2.36939
0.697478
1.7903
1.24667
1.78067
1.83506
2.41556
1.47395
1.23346
1.85471
0.528327
1.24769
2.2028
2.34314
2.34635
1.9955
1.58597
0.948411
0.599067
1.72045
259 20
284 330
113 343
48 157
312 489
39 328
36 256
196 324
457 101
48 444
70 153
128 406
208 306
247 176
401 107
429 117
26 323
402 377
291 60
25 77
99 305
205 487
488 86
426 104
19 171
287 191
138 439
297 204
174 29
339 448
229 317
40 199
151 404
209 162
307 394
373 16
319 269
13 239
202 487
246 267
486 289
77 303
206 173
490 21
148 323
330 153
452 22
255 401
457 359
46 279
4581.67
3
