50
9
0 0 0 0 0 0 0 0 0
96 14 28 19 75 19 29 76 30
62 12 64 63 56 36 14 82 85
80 42 68 18 82 85 72 51 22
76 70 58 19 43 80 32 10 18
90 26 93 85 16 56 12 43 78
49 17 69 86 78 78 78 54 31
63 69 76 34 67 30 49 54 59
70 53 85 32 100 96 40 32 50
98 99 56 15 86 38 79 98 87
80 27 41 26 83 93 10 64 45
83 43 80 63 12 45 50 78 53
75 29 70 43 59 89 15 96 86
16 30 85 31 59 12 35 18 78
100 66 71 23 53 84 53 15 71
99 30 50 53 65 42 77 87 33
94 12 35 50 86 19 47 42 99
75 27 44 66 39 18 63 13 48
80 35 90 71 33 56 67 79 23
21 85 19 26 19 39 55 88 96
26 87 67 70 55 44 96 69 60
41 28 44 98 69 55 51 31 29
35 15 50 89 82 94 34 41 10
77 27 37 77 92 97 19 50 16
71 14 18 90 67 12 33 32 67
34 86 16 48 64 11 31 80 39
30 75 15 62 23 30 79 32 57
15 33 64 86 40 55 72 19 16
23 61 29 90 90 45 97 49 10
49 31 94 97 18 22 79 17 99
90 57 31 40 63 30 88 25 82
99 16 59 15 33 56 45 78 26
97 67 99 17 64 50 33 58 25
56 25 40 25 41 77 86 64 87
68 94 17 67 28 18 86 71 14
68 66 94 26 75 21 75 36 77
59 30 46 19 68 46 11 60 93
30 26 61 46 87 92 84 85 64
43 94 43 37 59 99 60 44 70
97 62 60 88 39 35 98 26 37
67 48 62 93 31 19 53 82 47
53 10 84 53 39 52 61 33 90
64 50 50 92 17 79 81 83 15
81 18 73 90 22 26 84 34 51
66 50 12 31 11 72 38 58 18
79 84 68 57 100 69 36 21 62
53 85 15 64 69 100 49 58 93
16 94 58 42 76 14 65 88 54
19 99 98 95 12 24 34 54 17
52 51 66 66 87 42 62 48 77
0.18055
0.484834
0.131789
0.2773
0.180695
0.260812
0.412696
0.147116
0.195681
0.498579
0.49883
0.258789
0.109999
0.368043
0.470994
0.269852
0.43283
0.247503
0.160516
0.374115
0.107932
0.40302
0.466958
0.10269
0.389481
0.176282
0.367377
0.225424
0.349121
0.217028
0.15678
0.498351
0.407863
0.288699
0.214488
0.342485
0.220968
0.462704
0.374146
0.212214
0.193735
0.346025
0.420902
0.272442
0.254154
0.146233
0.437634
0.325607
0.318102
0.216146
293 124
414 53
251 362
317 74
70 53
91 98
305 180
188 380
166 258
324 73
89 454
141 423
236 362
380 147
115 199
495 134
31 74
355 298
209 315
63 361
265 405
143 85
475 459
233 410
369 426
29 422
230 243
162 255
397 13
155 226
446 29
400 431
440 500
469 95
52 15
431 296
222 287
392 434
213 320
345 395
1 15
65 339
128 315
439 373
156 199
66 122
106 151
40 251
139 132
265 382
2667
5
