50
5
0 0 0 0 0
38 82 92 32 36
54 21 98 17 41
53 54 91 33 16
96 13 21 31 27
81 55 22 16 18
57 18 62 78 87
61 72 12 22 72
22 71 12 66 23
84 51 16 36 90
66 79 29 99 40
39 83 38 17 44
17 88 89 18 38
73 46 29 70 80
51 73 63 49 20
92 64 27 72 93
43 91 26 16 94
55 75 76 75 24
36 68 24 55 47
45 42 32 93 77
52 75 29 19 15
10 18 68 86 98
98 39 88 34 10
41 23 28 12 85
100 60 34 54 24
56 87 38 16 100
42 53 85 30 27
89 76 89 33 29
98 55 19 46 86
41 12 27 54 23
11 67 25 37 25
32 50 90 21 19
76 54 69 11 37
100 95 77 55 38
74 37 36 50 63
83 67 16 50 100
18 50 68 82 60
95 43 29 88 87
41 14 19 41 86
66 85 65 51 22
58 26 46 85 71
91 99 63 24 33
90 70 91 28 80
70 78 19 87 89
40 36 93 30 54
100 41 28 11 17
12 83 45 16 66
89 68 50 97 42
48 18 29 93 97
44 46 22 67 97
0.241219
0.973233
0.757046
0.554467
0.504809
0.714289
0.50721
0.74836
0.339866
0.681674
0.272798
0.910881
0.419423
0.339554
0.895184
0.383423
0.763309
0.655063
0.483429
0.894871
0.669378
0.566714
0.660928
0.69474
0.667833
0.381647
0.756351
0.811098
0.327271
0.992373
0.528489
0.860372
0.96023
0.939201
0.660898
0.230523
0.434896
0.543398
0.207031
0.695101
0.580796
0.848989
0.605273
0.629491
0.991461
0.220398
0.21137
0.380109
0.619762
0.452103
329 117
65 116
204 98
382 95
397 157
347 83
396 64
393 426
352 52
299 199
267 128
442 194
28 281
330 472
145 325
338 141
482 252
149 121
97 354
240 316
153 403
433 94
375 145
468 125
346 209
94 491
115 2
424 391
497 465
94 44
284 289
239 263
161 351
399 33
49 215
40 367
229 293
17 23
71 171
154 131
309 358
483 367
251 26
86 445
269 99
499 290
388 269
52 402
8 284
380 104
12990
1
