50
5
0 0 0 0 0
14 88 30 93 75
19 70 74 89 28
22 77 25 27 19
51 12 53 13 86
63 47 96 62 45
71 60 32 100 65
62 96 80 95 22
100 43 51 51 80
81 25 15 60 36
24 11 32 72 84
91 89 33 78 23
17 42 14 48 32
70 72 97 77 87
45 45 16 42 99
51 60 57 46 50
86 68 80 89 86
69 95 75 88 67
61 39 42 94 44
83 25 51 99 47
66 84 87 62 64
82 16 31 51 30
54 17 18 92 11
91 56 49 18 62
85 97 49 91 80
92 50 71 36 74
80 37 82 73 61
23 82 63 65 73
98 35 73 52 79
72 59 92 75 99
22 23 21 93 17
38 38 19 53 89
48 90 100 43 96
77 46 49 93 47
68 70 70 95 65
63 18 33 75 35
28 28 51 45 49
23 71 54 56 72
48 59 95 66 44
75 52 97 17 85
54 99 91 19 59
61 88 99 29 13
56 53 83 14 57
15 47 26 11 60
97 49 10 96 73
18 86 45 12 56
23 73 62 76 54
27 61 25 86 77
74 87 78 54 39
43 72 39 62 25
0.240673
0.316757
0.119817
0.353383
0.392962
0.429508
0.212375
0.115686
0.332903
0.282675
0.108124
0.391257
0.37608
0.195077
0.335537
0.465499
0.250695
0.487599
0.189042
0.402802
0.308128
0.368698
0.448359
0.239212
0.434628
0.124117
0.328027
0.330786
0.166022
0.365946
0.44835
0.441205
0.281133
0.482996
0.421524
0.446044
0.233122
0.255363
0.458593
0.436423
0.19353
0.140928
0.276154
0.329343
0.310688
0.34458
0.422101
0.386899
0.268033
0.339852
60 276
63 339
91 345
12 400
491 280
47 281
475 488
431 215
441 208
246 192
433 361
350 316
267 169
129 357
43 56
252 358
161 23
52 425
103 151
200 398
168 119
253 429
140 208
111 455
66 172
439 73
414 98
160 64
8 98
72 426
384 31
377 500
467 454
490 185
112 230
373 198
197 155
142 160
430 128
150 8
167 115
11 286
71 198
138 136
246 86
464 365
344 53
378 201
375 341
222 79
7077.5
2
