50
9
0 0 0 0 0 0 0 0 0
30 73 97 33 74 95 85 27 72
11 30 64 68 60 65 33 67 97
20 26 96 61 20 25 96 94 78
17 24 74 73 60 10 30 59 74
80 97 27 52 34 99 17 59 85
94 77 83 38 73 70 26 14 40
38 99 94 19 70 39 84 44 68
76 68 36 89 44 75 82 86 10
84 32 16 77 77 46 58 87 56
92 79 29 28 94 34 51 73 25
63 48 79 95 45 86 50 81 11
53 85 53 96 37 50 17 61 54
90 100 68 47 44 11 39 86 49
49 47 12 24 63 58 46 74 41
56 43 38 59 68 84 67 46 66
51 69 50 69 78 90 44 27 60
49 20 72 39 71 15 64 46 30
19 83 34 64 41 61 83 53 90
90 53 66 29 92 15 42 11 69
47 27 11 97 77 45 54 89 36
83 97 25 11 26 59 74 71 18
37 90 44 17 13 48 50 55 52
29 40 57 54 13 40 35 18 98
26 99 58 61 71 46 11 40 82
69 33 66 62 42 75 20 69 88
36 82 37 82 100 53 45 97 15
32 19 54 35 82 34 86 91 62
67 13 11 56 72 19 96 55 18
48 45 39 36 30 76 31 53 35
18 10 40 100 34 79 85 44 73
92 86 43 37 96 84 93 54 81
60 93 42 22 88 67 91 52 73
53 81 33 86 69 50 96 45 22
20 27 82 39 35 85 51 100 84
44 40 58 33 60 99 30 64 32
89 80 24 17 92 83 77 45 50
10 87 38 59 44 85 87 58 11
74 34 61 38 36 63 84 54 88
53 50 43 94 69 85 55 48 73
90 81 87 13 13 65 97 44 100
79 50 17 38 98 37 72 28 11
91 33 94 64 56 11 73 19 10
87 44 27 78 100 54 24 95 78
50 18 31 19 97 94 93 22 89
77 44 10 88 72 19 14 53 76
26 69 59 60 62 95 18 20 96
55 75 74 43 59 26 42 89 75
70 72 73 11 89 10 100 14 22
52 67 81 85 77 86 25 42 19
1.97763
0.869694
0.943632
1.4187
1.52956
0.759406
2.25517
1.3093
2.48769
2.39959
2.25915
1.40669
1.94465
2.23287
1.86801
1.29204
2.26073
2.38312
0.91312
0.663873
0.651486
2.1861
1.49523
1.09263
2.0628
1.77099
1.95445
1.78055
1.38083
2.48432
2.34142
1.01698
2.31246
1.86186
1.29482
1.28006
0.76969
1.55396
2.20748
2.17574
1.47365
2.25515
1.42485
1.42765
2.15944
0.940915
1.20213
1.62332
1.04177
1.85023
392 172
399 41
87 322
306 345
167 363
150 108
352 129
112 420
152 112
58 427
349 335
144 144
414 452
368 466
372 429
449 106
406 229
472 181
473 346
244 151
331 27
78 269
476 149
73 137
359 454
441 375
0 188
95 198
127 123
267 105
471 429
426 102
284 247
208 33
183 153
62 427
1 111
451 291
55 359
285 146
336 423
458 12
10 428
426 25
9 494
86 47
75 112
38 277
50 276
456 59
2752
5
