50
11
0 0 0 0 0 0 0 0 0 0 0
96 30 73 60 83 76 65 96 58 65 70
69 95 13 81 85 96 78 71 36 15 10
25 55 82 54 11 81 42 35 41 65 92
67 32 98 54 98 62 56 99 31 56 60
73 34 14 27 95 68 37 61 87 21 32
41 74 58 37 97 17 52 83 32 39 19
62 56 37 52 94 74 41 86 34 15 15
11 96 14 79 81 84 69 35 35 18 69
94 45 29 85 93 97 88 82 82 78 97
20 74 90 76 32 23 16 95 41 81 62
67 25 59 61 50 26 52 14 28 47 74
31 89 40 79 83 31 59 90 89 15 25
12 73 85 27 54 30 89 42 78 30 20
37 75 60 35 26 73 40 85 78 13 80
72 68 99 27 32 15 76 74 14 93 99
99 16 16 40 16 52 56 31 41 53 60
54 83 90 72 38 94 49 16 75 15 89
99 74 91 29 20 40 97 38 17 54 13
26 80 40 67 69 90 28 82 28 81 61
94 95 65 90 11 10 10 39 20 73 38
28 86 38 45 15 45 91 89 38 50 93
75 78 30 33 42 13 60 100 95 45 27
16 19 24 50 39 97 99 56 30 14 93
100 57 19 77 11 27 67 69 32 95 91
93 32 94 77 70 80 71 76 31 50 99
45 60 92 87 86 16 31 18 73 87 50
19 95 89 11 77 68 52 74 59 79 43
52 54 55 40 45 38 57 14 25 75 13
94 48 57 78 45 68 58 54 75 55 55
25 36 49 92 18 38 62 56 93 43 68
69 79 13 75 56 55 37 34 46 34 42
64 42 60 43 62 27 76 14 90 90 88
72 64 42 39 77 43 25 42 31 79 58
61 79 30 52 83 14 10 45 12 55 47
96 77 98 23 88 10 83 98 78 19 55
95 26 63 67 90 72 30 48 38 61 99
53 39 43 78 93 49 46 93 59 25 99
54 89 85 33 38 58 80 57 29 95 17
84 51 12 29 52 26 94 18 31 56 21
14 32 52 37 88 11 79 74 34 11 29
42 66 28 98 77 93 94 10 40 10 57
58 66 23 85 35 68 57 70 56 36 62
100 34 10 31 16 86 55 61 34 83 65
53 22 34 38 77 35 88 88 44 36 93
38 80 19 33 65 70 92 61 18 75 73
92 59 49 21 86 58 29 51 38 98 72
38 33 79 54 60 11 24 74 23 55 19
63 35 60 81 91 88 96 40 20 72 98
63 49 88 65 42 76 67 47 92 40 29
0.110041
0.488943
0.292559
0.106166
0.44292
0.284367
0.455462
0.333287
0.296418
0.185656
0.385598
0.341908
0.165622
0.479316
0.259863
0.415063
0.288178
0.344609
0.239009
0.151875
0.139681
0.239141
0.410758
0.300294
0.397861
0.336977
0.47115
0.42615
0.231778
0.133991
0.184038
0.444696
0.277753
0.118424
0.401093
0.485336
0.104306
0.28294
0.181581
0.120483
0.197136
0.242015
0.38384
0.3775
0.162606
0.138279
0.401469
0.141823
0.481676
0.323057
363 354
291 429
25 111
428 66
61 27
443 161
0 481
227 365
161 351
40 130
70 197
371 374
32 446
146 302
85 212
409 425
53 379
76 432
13 65
379 239
365 470
158 66
194 238
378 118
66 190
448 217
395 242
1 167
147 241
230 261
491 393
226 223
19 205
282 480
336 427
133 190
334 111
177 434
321 426
372 14
408 215
56 122
141 64
248 355
164 102
206 131
402 387
125 427
52 437
481 398
4546.67
3
