50
7
0 0 0 0 0 0 0
12 48 34 84 82 89 61
29 54 83 68 25 69 42
92 71 19 18 92 66 53
32 64 48 81 31 82 42
71 79 36 20 86 91 98
46 31 10 48 92 65 54
55 33 53 85 74 38 23
10 95 100 82 85 83 40
80 18 42 83 54 45 53
41 43 75 72 83 34 87
19 35 74 69 47 80 38
42 100 71 17 11 89 12
66 97 39 14 39 51 65
46 68 80 43 96 95 73
85 15 12 47 31 66 62
43 50 18 37 100 100 39
73 66 27 57 54 64 56
80 23 82 87 24 23 49
44 98 50 57 11 45 99
21 98 26 84 89 43 60
15 54 32 89 51 49 50
12 87 19 50 10 11 63
14 99 42 59 84 40 97
100 70 23 14 92 41 50
46 92 78 63 78 43 86
73 88 30 74 80 32 61
34 37 18 29 26 62 71
65 79 42 98 22 44 27
58 94 14 32 99 74 47
26 61 67 64 22 77 28
23 60 86 47 44 39 100
58 50 81 33 28 31 93
28 61 74 78 12 98 19
62 58 51 66 85 92 91
31 66 57 87 82 72 28
93 23 80 17 65 40 68
88 22 52 31 49 21 61
77 43 20 31 49 84 12
10 58 67 70 35 68 100
74 28 91 55 47 20 51
76 38 97 57 84 80 20
37 78 95 75 66 52 44
70 37 43 47 69 87 78
63 75 77 31 76 88 48
21 83 60 50 82 98 33
25 58 82 86 77 29 71
46 54 68 55 89 31 96
23 29 84 22 31 65 46
94 66 15 84 100 98 29
0.714167
0.270354
0.806181
0.882426
0.602729
0.471218
0.50162
0.830571
0.422631
0.72268
0.306123
0.487127
0.360554
0.440788
0.941172
0.218002
0.692732
0.588845
0.54101
0.853217
0.59628
0.945559
0.492145
0.699668
0.396868
0.719639
0.974942
0.683669
0.735999
0.33688
0.783867
0.567989
0.510454
0.212629
0.784372
0.906452
0.79344
0.272754
0.788987
0.656521
0.965323
0.970883
0.826008
0.925177
0.81448
0.995904
0.7115
0.277603
0.602557
0.843792
233 94
203 186
311 121
433 36
111 187
478 326
357 374
187 435
456 315
156 1
78 272
26 244
404 69
399 168
180 172
367 236
464 213
478 14
46 76
271 451
17 373
217 279
160 499
434 294
255 107
78 118
383 412
219 328
440 380
7 400
382 201
468 475
361 228
133 404
408 418
44 0
4 297
340 287
256 239
329 310
57 12
96 263
490 87
262 486
162 364
212 396
258 248
0 385
319 398
296 259
2776
5
