50
3
0 0 0
59 70 84
96 70 99
77 64 97
41 22 98
18 13 81
84 47 87
52 40 53
17 25 34
17 89 13
66 35 74
88 40 45
73 97 100
48 63 81
23 57 41
49 32 86
11 44 31
31 16 90
78 83 28
84 80 38
45 20 94
88 53 38
44 43 73
34 92 46
61 29 41
36 69 51
31 22 97
88 31 97
51 80 20
23 20 90
66 10 28
17 77 80
27 28 18
58 45 54
20 29 76
63 84 33
12 91 96
85 66 21
66 63 95
99 21 55
79 82 72
30 99 40
51 73 51
10 73 15
90 42 60
53 49 21
86 19 25
68 31 68
37 92 72
59 76 75
1.6063
0.801734
1.8766
0.464
0.403019
1.43227
0.534824
0.889515
0.791987
0.458321
1.46631
1.991
1.80377
0.539645
0.841838
1.37205
1.67002
1.78916
1.24781
0.640565
0.412962
1.6988
1.73365
1.91684
1.08107
1.28509
0.573369
0.431607
1.73232
0.779973
0.718962
1.81716
1.63314
1.39707
1.19045
0.963425
1.44566
0.442955
1.58638
0.540352
1.2203
0.677949
1.03886
1.5421
1.36242
0.794093
0.777722
1.56242
1.96845
1.03045
488 267
146 431
67 343
157 440
85 221
87 128
112 17
273 288
67 459
413 465
104 471
160 49
386 220
429 491
445 431
216 196
163 42
408 334
395 81
289 112
275 43
4 412
226 41
438 398
302 28
407 388
139 134
331 499
384 286
9 153
374 475
323 309
9 460
181 267
0 499
42 326
182 468
201 60
21 237
209 235
404 494
377 228
3 283
255 422
166 94
163 252
71 235
303 40
120 27
150 488
13575
1
