50
7
0 0 0 0 0 0 0
73 71 18 66 89 15 32
76 44 23 22 87 15 97
45 26 64 96 46 37 43
19 68 61 58 25 59 87
21 34 89 55 81 86 49
77 43 51 84 84 10 58
65 50 24 56 100 94 96
62 89 93 70 19 11 21
70 21 94 84 99 64 39
76 62 72 53 98 27 25
14 22 82 59 23 19 51
75 27 70 73 53 31 30
56 89 20 57 80 39 65
54 75 44 98 22 39 100
18 91 60 59 86 15 98
56 49 52 37 85 16 22
81 27 59 12 50 27 88
33 49 38 61 96 75 64
87 82 34 32 86 53 49
50 61 88 32 44 83 84
50 88 91 34 43 42 40
54 53 89 44 76 16 61
36 52 93 62 39 66 70
64 43 78 98 38 59 24
45 41 48 28 33 24 95
57 38 35 100 41 13 13
56 72 95 18 70 38 17
95 24 55 71 66 94 67
26 74 83 36 73 25 27
15 51 77 68 80 53 31
47 63 23 97 64 85 34
80 12 83 39 42 94 80
84 27 84 61 38 78 39
67 36 90 19 61 65 58
94 25 46 23 85 51 20
17 32 50 92 12 19 75
25 85 26 92 85 23 62
90 27 41 27 17 94 61
11 13 20 11 46 70 27
92 35 77 31 43 98 26
10 53 30 100 49 70 34
63 64 21 92 46 31 29
96 70 14 11 50 91 89
66 12 28 71 70 55 97
82 46 67 32 37 12 63
78 100 97 91 92 27 83
42 82 16 89 59 54 40
24 41 23 87 40 92 53
89 73 80 90 27 82 71
0.573979
1.95392
0.604847
0.648183
1.2443
0.614537
0.84467
1.99114
1.31465
1.92868
1.95157
1.80056
1.55431
1.48405
1.96969
2.41584
0.800637
0.919569
1.00853
1.11129
1.81835
1.1321
2.26241
2.43254
0.61606
0.948092
1.47948
2.45502
1.74078
1.26518
1.98727
1.2835
2.33567
1.91127
1.94665
1.26826
1.03598
1.60608
0.769916
1.88505
2.38943
1.8208
2.10765
1.61019
1.16636
1.66137
0.920154
1.04234
1.39027
1.64829
377 22
453 6
481 401
245 370
336 141
354 110
359 19
388 96
293 260
288 365
78 121
208 326
58 344
416 26
55 164
418 220
8 399
215 210
370 439
147 462
177 154
168 54
134 226
279 135
21 323
2 225
95 335
371 216
219 292
29 482
280 14
428 354
224 448
477 499
167 19
57 297
469 208
490 74
224 318
120 51
416 121
111 379
185 77
362 384
437 176
274 186
168 87
73 33
434 188
37 20
4510
3
