50
9
0 0 0 0 0 0 0 0 0
91 34 45 41 42 10 66 73 56
81 23 67 65 77 23 64 96 70
49 62 95 18 31 47 37 10 69
87 43 86 50 39 98 48 35 43
83 77 86 32 18 86 58 25 86
48 16 96 43 22 23 73 55 99
43 89 36 54 78 67 39 59 61
51 71 99 34 15 60 28 77 40
42 15 100 39 45 98 29 41 87
42 69 76 79 21 72 38 21 26
76 38 69 35 77 10 93 22 74
19 40 51 85 58 45 39 42 46
51 79 58 21 50 77 54 41 61
76 40 91 95 42 19 82 69 50
66 48 96 63 79 63 41 60 16
87 19 98 45 51 60 83 52 47
95 59 18 43 95 34 78 59 79
29 85 45 68 85 80 15 99 38
89 73 96 86 20 58 67 92 82
36 11 10 61 71 56 67 63 90
93 26 81 79 41 30 27 55 91
84 33 24 92 83 61 92 79 29
65 37 28 93 33 90 46 14 58
92 17 10 38 54 95 67 43 88
75 56 73 61 82 19 74 51 26
36 77 24 93 55 61 44 87 37
40 59 20 16 73 100 47 80 47
80 22 87 38 97 65 39 10 11
98 28 39 14 76 98 58 90 17
18 32 72 74 73 17 49 82 85
98 51 27 95 13 93 49 86 36
14 71 24 25 32 61 66 15 44
67 35 41 29 58 85 56 20 57
79 50 30 76 83 99 14 18 71
86 81 41 85 86 56 30 68 79
56 58 55 43 38 57 69 57 63
25 30 47 59 46 75 88 78 95
37 92 93 79 57 66 67 36 50
34 11 70 17 40 12 10 59 25
12 63 17 57 69 71 43 14 100
10 70 93 82 22 33 21 57 61
83 65 78 58 99 11 60 52 55
92 43 39 11 38 15 35 23 60
30 70 77 89 47 61 39 23 64
14 19 58 60 54 44 25 52 31
90 76 56 15 80 21 96 40 23
45 70 10 71 17 22 64 97 35
93 18 84 14 40 41 22 49 59
18 38 47 14 26 34 83 14 36
0.475653
0.936402
1.34038
0.443801
0.494259
0.580457
0.810256
0.878951
1.46846
0.836587
0.35399
1.48378
0.945015
0.792164
0.92177
1.46757
0.733039
0.348763
1.15168
1.04722
1.21932
1.43721
1.46153
0.463865
0.303997
0.832256
0.392734
0.336548
1.15366
0.831037
0.384265
0.41659
0.826475
0.657946
0.957929
0.675877
0.61082
1.11127
1.36059
0.92062
1.13082
1.43049
0.590891
1.46277
1.17385
1.49165
0.666911
0.622176
1.4578
0.975747
93 87
139 84
126 200
476 216
455 176
337 102
486 140
330 400
12 286
177 435
418 167
51 91
223 233
485 280
0 371
400 129
97 137
336 290
33 336
441 430
390 484
357 293
472 482
112 87
132 136
56 387
271 139
177 180
376 61
324 379
457 456
456 293
477 340
98 225
105 487
449 121
400 241
422 11
119 424
404 153
315 256
250 246
282 26
121 497
404 72
11 261
78 90
346 233
210 263
383 406
13315
1
