50
9
0 0 0 0 0 0 0 0 0
72 86 31 87 52 93 73 67 60
25 76 84 12 32 71 45 51 60
95 50 56 10 23 93 66 39 29
49 14 96 92 31 19 19 27 45
31 39 64 38 58 90 12 45 20
76 41 94 40 36 32 79 17 77
42 96 51 24 48 80 74 65 65
54 78 40 86 58 28 11 96 66
76 94 39 16 77 86 47 56 100
34 63 24 38 38 12 64 78 26
57 34 45 99 98 80 99 65 25
44 13 47 98 86 80 63 83 18
90 93 95 88 18 26 36 34 79
24 47 62 78 83 67 15 21 32
67 12 31 37 83 13 48 46 99
30 94 44 58 85 22 11 44 43
11 42 67 72 14 90 14 69 23
85 34 37 87 59 99 31 81 50
39 46 90 21 32 10 22 17 56
30 43 14 17 85 43 47 88 21
37 46 35 88 42 88 79 42 23
59 59 96 24 10 87 96 46 69
10 18 13 71 81 86 22 83 45
50 84 73 67 33 33 49 27 57
57 35 89 21 28 87 52 38 49
35 37 68 38 64 12 76 62 45
14 35 78 71 97 33 99 31 89
28 84 59 95 44 59 45 84 39
49 35 90 99 42 34 57 81 56
16 32 82 93 89 78 95 18 83
69 74 45 11 92 32 17 98 15
58 44 15 76 24 82 42 77 73
100 32 16 56 72 30 85 96 33
67 27 17 88 93 41 30 38 52
86 20 92 39 38 85 38 25 45
99 90 27 34 80 84 53 34 65
78 90 24 66 46 17 99 45 78
48 30 15 65 32 73 54 27 92
37 49 86 78 40 85 59 62 36
69 49 91 54 34 64 20 26 83
30 91 53 45 17 47 85 62 16
47 61 15 84 55 16 69 29 60
32 40 76 89 29 88 42 86 25
17 12 58 31 41 49 18 88 97
38 30 25 22 89 66 22 47 81
10 64 81 20 25 64 44 50 69
35 15 57 54 57 59 60 16 30
80 38 68 59 44 47 32 91 87
27 88 28 93 10 69 18 92 56
1.29991
0.321301
1.06278
0.456271
0.375483
0.61809
0.480466
0.323749
0.695018
1.46692
1.40035
1.22831
0.518774
0.947155
0.915839
0.400103
1.23043
1.30243
0.730991
0.614072
1.30276
1.42407
0.718657
0.617973
0.638759
0.846717
0.868645
0.863591
1.16426
0.620027
0.519441
0.506432
0.996554
1.30245
0.736418
1.35778
1.48453
0.837581
1.14892
0.488308
0.355535
0.36928
0.645131
1.33712
0.349418
0.507559
0.486876
1.48767
0.714689
1.24317
344 466
359 382
289 196
313 304
368 59
119 121
351 8
15 320
498 298
306 264
341 424
30 393
245 315
469 11
21 179
151 87
332 86
339 432
334 270
78 243
151 371
463 351
238 78
223 100
154 4
235 124
293 497
32 33
344 471
57 149
169 371
444 12
162 394
198 54
91 97
296 323
325 241
410 436
345 63
499 211
447 20
191 311
479 234
456 386
72 293
128 17
401 377
303 466
359 76
242 393
6545
2
