50
7
0 0 0 0 0 0 0
40 19 41 90 47 72 11
17 48 16 75 21 22 21
20 64 43 72 49 13 97
39 86 84 82 80 67 77
91 45 59 11 56 91 89
51 59 60 33 48 37 23
66 16 75 86 46 97 43
48 22 49 89 75 75 41
67 35 52 16 27 59 97
27 100 83 25 27 55 42
72 77 32 16 87 90 25
29 58 84 14 37 18 75
14 41 69 54 82 26 14
35 78 30 82 89 94 33
72 81 29 23 39 34 68
10 75 81 74 85 56 53
42 54 59 15 99 42 37
55 30 30 45 15 49 25
38 80 84 29 40 88 44
63 78 59 14 15 82 54
99 50 76 72 87 28 78
34 89 14 48 94 66 96
93 43 23 93 70 45 97
37 70 84 36 72 79 49
45 26 43 42 90 65 10
44 59 76 91 53 97 30
94 42 48 32 29 37 48
100 21 80 26 95 46 68
52 80 57 18 40 70 99
51 20 58 85 24 13 50
57 69 100 24 83 52 93
87 35 11 73 85 38 15
23 50 22 80 93 72 10
73 15 97 47 64 13 99
99 15 61 76 43 31 65
74 23 40 80 17 45 95
50 16 29 82 25 68 20
78 85 27 44 74 31 92
98 72 11 46 89 72 80
94 56 80 47 74 80 38
55 71 14 37 12 96 74
47 30 69 42 34 13 50
43 53 99 98 65 78 49
42 51 85 43 38 13 94
39 92 73 21 70 99 61
21 23 44 62 74 60 88
42 39 49 64 43 29 41
28 90 94 21 71 71 81
38 68 67 70 62 42 40
0.395117
0.941821
0.62797
0.454444
1.40522
1.06048
1.44782
0.846018
0.310622
1.22278
1.37896
0.859006
0.697246
0.841757
1.11112
0.448984
0.989762
0.671768
0.486688
1.31863
1.46943
1.26727
1.29142
1.01374
0.689065
1.42369
0.597411
0.60851
0.362367
1.14691
0.326673
0.394752
1.45426
1.07078
1.14466
0.622426
0.448653
0.82906
1.2489
0.689854
0.83728
0.765821
1.3214
0.355212
1.01104
0.316517
0.673557
0.639894
1.22678
1.08887
286 255
451 82
120 114
192 427
354 470
406 167
14 447
248 69
344 228
401 331
35 89
457 22
387 361
206 450
258 157
454 380
128 474
439 60
190 321
203 344
449 175
85 33
367 268
54 346
58 62
127 223
439 383
93 464
436 402
357 185
138 2
167 325
280 131
130 166
199 491
60 278
150 390
140 332
480 115
314 319
101 432
57 100
94 108
59 39
194 184
251 16
457 407
243 217
393 141
435 19
3366.25
4
