50
7
0 0 0 0 0 0 0
84 19 99 41 18 91 17
99 81 70 28 98 51 96
67 28 33 66 66 18 87
29 21 50 13 46 72 83
57 57 34 97 35 45 64
72 14 66 42 49 63 53
88 18 49 15 75 72 41
83 69 55 65 93 80 81
96 79 68 84 21 39 64
75 69 83 93 88 69 57
10 86 72 97 43 51 90
22 52 43 59 28 90 62
64 71 39 74 66 60 36
14 53 30 30 26 29 18
70 51 11 29 82 99 52
59 80 13 52 67 30 42
31 88 13 46 31 11 24
39 11 26 39 40 85 45
100 30 59 21 50 19 75
47 25 77 21 17 25 97
44 18 63 68 36 46 99
69 49 98 100 40 14 55
100 88 68 49 23 30 16
93 29 32 92 29 14 89
69 97 75 98 88 99 89
77 86 91 90 31 22 87
89 60 87 41 56 46 71
29 49 52 25 15 27 99
16 19 47 92 71 92 88
32 22 97 48 74 82 70
39 79 39 58 50 32 91
11 29 58 36 45 61 28
75 82 59 60 94 82 45
70 62 85 94 23 94 27
71 24 31 61 77 62 87
99 94 72 59 57 31 36
70 31 83 80 14 17 25
34 83 77 93 29 35 75
68 36 10 37 74 72 41
95 65 73 36 32 66 35
50 35 32 14 69 71 68
58 17 21 70 51 54 70
37 83 36 58 90 65 99
72 80 80 22 61 57 91
78 29 17 77 100 95 46
69 80 13 84 97 27 56
35 63 27 96 13 91 16
68 77 93 38 63 78 88
79 99 35 93 66 11 17
0.616531
0.87788
0.422005
0.319673
0.914904
0.217933
0.288558
0.636439
0.656803
0.888267
0.534664
0.828827
0.964492
0.405025
0.72094
0.2566
0.385685
0.846515
0.259816
0.628621
0.510755
0.27849
0.734092
0.419598
0.705078
0.857915
0.730677
0.397742
0.794788
0.977458
0.554532
0.860027
0.715775
0.32707
0.767015
0.742106
0.388159
0.73462
0.849643
0.408905
0.938391
0.74164
0.901505
0.402146
0.402053
0.903378
0.619533
0.315722
0.739942
0.782433
281 191
382 322
172 87
9 201
332 342
300 423
258 215
363 61
330 395
105 400
408 32
88 208
233 413
201 440
262 195
42 190
51 46
335 407
100 161
471 20
285 479
467 303
276 77
373 114
108 4
177 440
77 51
407 393
267 24
356 197
324 12
120 94
413 349
256 336
206 33
224 359
244 220
242 194
160 8
255 227
128 402
361 83
243 417
489 394
7 220
47 319
319 401
308 230
33 96
91 431
6947.5
2
