50
7
0 0 0 0 0 0 0
29 18 34 45 88 25 93
82 50 76 33 90 71 79
71 23 28 63 17 88 36
72 94 96 60 42 47 89
10 60 16 86 40 45 19
10 26 44 59 45 17 86
51 68 73 12 83 81 57
47 89 77 61 74 54 41
89 48 67 99 52 69 35
28 17 89 29 15 83 66
72 59 52 63 34 13 33
65 61 35 46 31 25 40
12 18 38 51 45 80 96
96 39 69 32 91 73 48
22 52 16 12 58 91 93
47 95 59 89 86 29 26
56 61 100 47 65 38 75
84 26 18 69 39 59 60
39 12 86 84 14 79 76
17 34 66 19 21 38 43
100 23 44 79 34 32 67
77 44 59 14 19 63 71
55 57 69 87 80 23 76
32 52 25 97 58 54 15
10 50 51 55 75 48 38
11 68 92 51 24 93 99
64 10 70 14 16 86 42
99 45 53 79 62 42 80
84 90 24 35 45 55 67
86 25 15 34 28 14 13
28 95 35 38 92 100 70
70 33 23 73 89 84 54
27 40 71 80 62 95 34
17 66 57 93 24 74 41
54 34 89 93 18 16 12
68 32 41 94 21 99 38
14 84 99 69 54 76 42
28 17 62 23 85 90 47
16 94 67 78 96 45 95
38 81 91 37 30 26 60
13 49 65 72 79 48 84
51 36 14 57 45 37 45
63 97 58 100 25 74 37
70 47 81 95 14 93 76
83 26 96 42 86 55 23
35 85 91 71 85 21 44
76 74 53 23 63 24 31
89 80 92 85 39 86 69
82 25 99 94 21 53 86
0.115234
0.181349
0.260012
0.224643
0.437028
0.370637
0.255918
0.329001
0.207848
0.144326
0.326675
0.41943
0.119517
0.453245
0.112006
0.491135
0.43481
0.318996
0.249531
0.182372
0.432735
0.183364
0.211594
0.446127
0.291713
0.472372
0.489553
0.494726
0.239623
0.338068
0.132073
0.348022
0.363212
0.180938
0.266617
0.286803
0.406488
0.346191
0.404259
0.159329
0.414786
0.293481
0.177277
0.109778
0.490016
0.49393
0.202634
0.18106
0.148966
0.235086
255 457
59 366
288 126
356 443
320 411
205 279
140 344
103 37
4 94
267 201
52 170
267 109
374 235
132 59
463 395
456 166
107 426
62 379
110 273
42 396
188 60
278 424
457 35
473 4
59 250
254 232
270 141
177 369
373 211
319 171
388 75
357 398
287 241
46 0
401 227
99 206
231 336
363 116
16 27
107 31
196 132
370 219
38 239
388 45
302 442
208 19
358 77
108 269
326 275
496 432
4511.67
3
