50
9
0 0 0 0 0 0 0 0 0
16 21 92 78 77 80 41 65 22
16 90 51 40 97 81 92 20 15
19 12 34 48 92 40 56 31 63
89 91 86 100 73 28 96 61 28
33 53 93 58 71 27 75 33 19
17 90 70 14 34 22 78 79 87
33 73 15 57 88 26 42 74 21
42 81 57 40 81 63 58 69 90
56 13 31 24 76 12 69 19 24
50 48 64 52 72 14 81 84 18
15 100 40 86 86 63 13 54 42
61 89 17 23 26 58 42 34 93
72 24 51 15 77 24 62 71 50
38 56 88 40 47 72 90 97 83
56 32 26 49 32 83 49 89 67
27 55 31 41 27 47 48 52 43
86 36 38 50 28 38 54 44 77
89 39 95 18 81 11 76 76 51
54 53 95 74 79 37 42 31 91
56 93 19 65 38 40 93 50 37
97 99 68 52 84 61 72 96 54
61 69 41 29 44 87 15 78 69
97 29 17 62 64 54 20 31 71
65 69 20 64 66 33 92 90 80
22 58 52 58 96 79 29 76 27
21 71 48 25 96 14 48 59 15
58 96 60 10 85 86 99 20 57
17 65 61 42 89 39 66 54 85
98 67 23 41 92 30 71 100 62
61 14 74 10 17 93 46 74 55
43 98 28 29 37 45 89 93 58
86 97 59 81 97 55 50 93 49
13 20 29 97 95 78 50 43 88
38 54 75 15 74 15 91 43 40
84 19 95 39 92 78 40 96 25
16 86 56 51 12 22 64 44 56
34 100 24 35 41 48 33 26 58
35 96 23 34 64 92 71 82 82
96 18 98 43 52 18 66 40 46
46 95 44 73 14 96 39 96 33
64 97 56 29 100 73 29 34 91
26 80 70 38 13 40 100 98 12
52 22 17 86 85 38 12 66 79
34 69 28 44 37 21 67 42 89
44 81 46 23 77 51 21 11 100
42 51 15 37 47 13 66 41 97
88 53 41 67 13 96 90 26 47
55 95 33 58 48 83 25 61 31
23 99 32 46 91 66 56 47 92
0.112447
0.458992
0.381799
0.488963
0.199051
0.326171
0.191105
0.211171
0.162323
0.128575
0.105675
0.218007
0.248077
0.195764
0.430206
0.131886
0.376167
0.417337
0.442625
0.193533
0.418781
0.204635
0.392309
0.368419
0.266748
0.176234
0.212162
0.383818
0.15973
0.369373
0.492624
0.353238
0.462171
0.323787
0.247692
0.127659
0.136467
0.438316
0.238344
0.126803
0.240794
0.194385
0.401242
0.442014
0.239164
0.25862
0.13348
0.452011
0.120697
0.17782
391 294
119 254
258 411
422 293
325 99
285 271
238 350
176 482
305 334
192 432
483 304
451 175
177 295
318 158
22 397
39 114
242 435
449 371
94 120
5 186
143 312
16 124
96 303
362 271
201 487
473 395
158 27
407 63
392 423
467 177
95 278
391 227
488 228
405 268
289 19
375 52
260 439
215 440
485 84
499 387
8 442
321 328
345 403
394 350
126 257
226 108
76 148
49 389
21 312
355 146
6772.5
2
