50
9
0 0 0 0 0 0 0 0 0
44 84 41 89 63 62 22 44 54
50 45 55 69 66 69 62 80 71
48 63 59 51 71 90 45 11 51
83 20 63 52 50 55 100 19 10
38 82 92 59 53 63 45 28 10
74 11 100 69 99 12 71 90 91
24 50 54 93 48 60 44 65 71
70 42 58 81 94 34 46 28 68
100 18 37 58 20 30 16 11 18
37 98 19 37 88 15 88 76 75
95 15 59 71 35 83 88 48 51
11 82 71 10 58 33 65 31 17
21 75 80 53 72 17 41 85 47
57 85 44 34 100 88 26 28 37
88 32 16 64 97 40 66 46 95
59 64 54 18 56 38 97 52 26
69 58 25 18 68 53 83 73 56
38 56 59 16 57 30 82 38 87
43 37 10 70 23 31 16 88 17
43 78 64 14 17 23 55 85 89
64 50 77 68 83 95 30 62 81
19 10 36 78 43 85 58 77 97
87 89 82 49 79 90 21 94 38
32 42 62 90 69 21 63 58 75
25 98 97 18 16 20 69 33 47
81 47 90 66 40 18 10 51 33
18 17 88 19 15 90 72 96 23
78 64 39 10 73 10 19 43 54
59 76 58 27 44 77 72 85 48
19 80 81 72 42 75 89 35 28
86 84 53 98 43 42 28 19 48
75 62 66 87 18 74 18 27 47
98 56 49 61 42 54 62 43 62
30 48 48 10 39 51 73 63 14
65 38 59 37 88 73 76 40 91
19 16 89 53 90 28 48 22 61
12 55 25 59 10 52 17 96 80
12 68 45 20 84 74 93 51 30
15 83 16 29 51 81 35 59 83
80 54 62 36 42 30 100 60 95
52 76 23 59 84 82 40 16 73
86 63 45 56 34 19 43 17 61
18 45 20 74 15 28 44 93 63
39 28 35 25 47 93 56 85 26
74 24 51 54 28 56 94 93 19
88 85 12 63 67 59 69 14 68
71 81 98 72 54 23 59 34 45
78 35 59 78 57 58 63 57 49
59 66 14 39 69 11 62 81 95
0.684631
0.432774
0.701721
0.580775
0.749618
0.386972
0.91112
0.242049
0.982909
0.915562
0.346584
0.431279
0.522087
0.86483
0.577136
0.864755
0.70311
0.452122
0.484332
0.923166
0.770398
0.628523
0.55949
0.796442
0.583802
0.638423
0.796816
0.83163
0.940303
0.22583
0.411009
0.440783
0.618065
0.484051
0.593927
0.544303
0.466489
0.61617
0.35136
0.627414
0.852107
0.839925
0.791593
0.373831
0.996103
0.915457
0.321514
0.307407
0.398651
0.807815
437 259
490 405
331 31
373 500
447 54
277 176
34 13
40 203
404 58
287 251
130 413
229 307
44 431
299 36
92 295
468 332
388 333
345 455
433 435
186 494
190 339
330 136
456 426
488 499
286 468
31 30
258 34
187 240
16 191
43 221
134 441
77 99
439 238
362 430
205 31
268 104
84 307
166 455
352 105
39 338
185 396
265 408
133 226
202 51
180 225
88 258
118 122
195 214
88 91
338 215
4403.33
3
