50
11
0 0 0 0 0 0 0 0 0 0 0
60 68 87 16 34 92 29 65 42 92 73
80 73 88 39 82 39 31 95 88 84 15
97 67 90 43 22 23 67 76 61 70 65
28 51 53 86 63 40 94 57 38 90 38
20 34 30 32 93 56 30 77 42 31 78
16 46 14 58 83 93 55 97 30 11 61
14 82 47 33 22 87 46 67 30 61 87
52 43 13 62 77 60 48 23 99 88 85
54 73 79 57 85 99 32 69 45 51 76
63 92 31 29 40 20 99 95 17 55 33
77 97 19 52 10 93 21 84 59 94 93
47 43 93 76 41 92 69 41 40 21 72
80 47 34 81 93 60 61 11 21 52 42
96 19 17 73 70 81 61 29 78 13 53
71 97 56 21 50 19 100 79 49 89 59
98 55 13 60 57 65 97 84 16 81 82
19 99 16 50 33 16 57 83 84 52 89
84 38 33 41 35 28 17 99 100 51 86
46 94 70 30 33 16 47 67 61 45 66
70 63 100 31 49 26 36 77 74 56 72
22 57 56 22 13 61 78 64 25 45 54
47 28 84 73 92 13 38 48 89 14 19
97 64 75 95 58 29 26 80 24 33 38
88 53 62 29 87 89 93 34 57 32 13
94 57 18 15 16 98 41 59 49 73 39
17 70 11 57 18 33 13 33 72 31 82
12 33 51 53 80 35 49 59 71 37 61
80 30 65 44 74 67 18 90 26 48 56
51 11 95 54 43 45 27 70 20 27 70
62 44 16 67 71 51 19 29 76 60 19
33 15 58 70 53 62 73 52 94 47 45
71 53 32 87 82 20 50 88 65 63 92
71 75 37 85 31 21 64 33 58 42 58
49 92 98 65 78 19 60 34 54 42 54
76 28 51 91 46 25 24 46 97 74 44
18 24 52 14 76 28 45 88 77 75 23
86 98 37 43 76 50 78 37 58 19 85
29 93 30 77 23 99 53 14 45 64 77
11 54 45 22 18 53 99 28 98 41 37
71 34 27 69 43 87 32 100 90 23 67
48 92 70 36 18 67 62 37 19 83 67
31 44 38 98 37 87 52 88 58 50 76
42 70 67 40 17 41 66 51 49 48 50
84 78 20 54 45 84 83 87 55 48 48
39 42 27 91 16 81 63 68 36 59 48
71 76 42 53 29 29 20 91 27 60 59
23 81 17 20 70 24 90 19 54 78 95
32 21 37 76 39 62 60 68 62 34 87
81 57 39 81 10 50 86 75 92 60 62
0.844481
0.806005
0.967036
0.580876
0.616636
0.92529
0.408119
1.1131
0.955602
0.665991
1.23817
1.05463
0.513243
1.40795
1.06537
0.372257
0.883279
0.5453
1.08398
1.48257
0.889031
0.446482
1.17548
1.33254
0.713486
1.35722
0.723891
1.38379
0.417589
0.440726
1.28868
0.947709
0.577768
0.570221
0.934508
1.4324
1.29014
0.540177
0.638241
0.503838
0.845777
1.35395
1.05784
1.23062
1.1819
0.531997
1.39462
0.867792
0.767345
0.349539
71 24
137 95
21 479
173 403
133 496
222 383
170 264
5 421
157 486
490 42
284 351
291 195
349 147
321 10
421 243
428 52
195 5
307 112
109 77
49 102
330 47
151 388
486 286
244 403
304 163
477 305
287 326
274 26
434 206
461 75
336 186
68 107
379 310
393 142
185 177
469 455
209 238
141 347
282 116
445 172
22 253
95 377
77 123
315 197
228 76
53 12
385 154
327 33
449 130
41 2
2692
5
