50
3
0 0 0
56 77 57
65 16 17
82 93 64
28 28 27
89 55 51
14 70 38
17 48 24
81 49 80
77 25 34
49 93 10
47 89 57
61 17 32
24 57 62
93 69 73
57 45 30
61 53 71
46 58 15
31 16 73
79 62 80
83 67 27
16 95 79
26 14 30
44 39 24
65 67 12
51 14 28
98 76 78
88 27 58
26 100 46
51 80 65
62 78 34
60 67 84
70 20 92
55 82 100
17 57 19
90 32 67
31 15 26
62 26 60
36 70 48
31 65 42
16 80 14
64 57 46
95 76 87
14 44 83
55 31 58
10 15 26
47 27 68
51 49 93
36 83 55
87 28 51
1.04852
1.6344
1.17975
1.07902
1.32001
1.66259
1.77797
1.19603
0.733955
0.902306
0.647978
1.41478
1.74792
0.790892
1.63791
1.0917
0.43707
0.470878
1.98297
1.79747
1.68211
0.547279
0.829063
0.748705
1.64366
1.19951
1.24752
1.18645
1.8335
1.79916
1.91088
1.37828
0.42412
1.15836
1.08365
1.95504
0.943191
1.56739
0.647962
1.56276
0.545706
1.56462
1.14904
1.47592
0.41484
1.55918
1.11747
1.88661
1.33845
1.85053
95 41
384 96
314 296
127 449
311 354
372 483
311 374
490 150
106 371
162 96
447 184
353 315
471 79
66 7
137 49
144 117
459 227
261 184
163 189
256 490
432 432
382 1
170 78
196 73
278 64
151 441
481 103
70 321
316 144
431 255
5 238
190 81
246 92
291 131
6 441
451 114
418 459
460 139
226 332
275 456
324 22
103 2
286 468
491 183
345 361
10 291
318 74
242 392
471 485
256 256
3203.75
4
