50
5
0 0 0 0 0
24 14 17 80 29
49 91 83 49 84
71 58 34 90 61
62 44 52 73 82
80 18 28 40 86
48 58 33 90 23
24 32 35 99 66
68 99 43 27 97
15 59 53 68 79
65 49 43 35 17
20 14 21 27 46
16 78 89 79 80
18 69 46 52 39
28 81 98 93 54
73 35 77 54 45
79 47 72 70 83
77 62 49 49 66
99 40 40 94 75
35 82 15 87 50
28 99 29 39 12
47 49 94 48 60
73 99 37 13 23
93 71 100 52 96
36 58 45 24 66
22 10 70 92 31
62 88 12 94 41
50 27 12 65 85
53 73 30 43 74
79 90 59 24 30
81 96 13 37 19
84 60 93 93 47
98 57 54 63 60
36 33 34 65 53
38 94 12 66 60
29 62 93 77 100
65 20 50 24 46
22 33 35 13 44
29 96 69 40 29
92 21 33 87 40
72 19 55 44 100
53 91 29 43 48
34 74 48 31 16
56 60 50 98 66
27 53 94 90 30
77 89 77 19 35
56 99 34 78 98
79 21 25 41 51
50 22 96 15 47
75 48 60 36 67
0.466902
0.714181
0.281263
0.841367
0.445222
0.304096
0.57979
0.431266
0.654885
0.739938
0.421893
0.683699
0.43889
0.414365
0.349263
0.260432
0.622406
0.309451
0.313387
0.743702
0.717833
0.566686
0.669019
0.6777
0.521097
0.859319
0.48864
0.813083
0.577303
0.398515
0.303031
0.603656
0.753906
0.536886
0.364696
0.50109
0.798544
0.838051
0.46123
0.481364
0.968722
0.211223
0.515977
0.516671
0.501456
0.272503
0.909915
0.303933
0.881817
0.348264
336 218
437 333
409 459
493 231
217 252
350 284
341 310
445 234
3 252
122 79
95 102
377 379
271 234
28 380
448 483
183 77
186 421
6 149
134 63
34 357
235 468
188 134
77 116
257 53
459 276
310 143
309 390
121 290
58 235
44 375
129 3
137 225
137 44
238 305
40 113
173 345
177 499
250 286
213 244
165 404
219 97
232 397
442 357
381 294
270 194
427 28
11 74
226 447
494 322
4 279
4501.67
3
