50
3
0 0 0
59 71 63
72 33 100
44 41 80
76 99 29
12 55 32
83 46 87
80 13 39
30 44 97
43 15 74
74 14 63
97 46 65
60 22 76
59 10 19
29 70 25
82 76 90
96 57 51
39 78 48
29 31 78
31 41 64
32 38 94
64 64 11
85 60 99
91 93 83
44 39 79
55 77 53
20 45 95
95 42 69
17 86 11
74 45 59
48 61 52
99 11 25
33 47 97
97 33 20
92 92 77
81 24 94
91 64 72
92 61 13
63 16 52
90 60 44
92 55 35
84 44 88
80 79 98
59 84 74
55 47 74
18 61 74
22 48 95
98 65 24
90 68 86
35 92 55
0.25933
0.434527
0.212707
0.430215
0.220026
0.445037
0.266387
0.112737
0.215851
0.381422
0.418046
0.464348
0.182453
0.212463
0.253188
0.105722
0.239962
0.113219
0.405939
0.317331
0.290112
0.384458
0.248861
0.372138
0.190075
0.318234
0.102388
0.265122
0.388971
0.40361
0.460403
0.293563
0.18188
0.161944
0.314791
0.483393
0.158023
0.497029
0.373753
0.351374
0.391912
0.248107
0.4994
0.2743
0.358774
0.219725
0.217747
0.425385
0.212878
0.259804
480 420
141 233
163 40
376 65
308 482
484 282
47 360
416 229
209 390
111 289
321 45
465 68
373 184
435 48
142 161
411 364
168 184
388 359
296 333
312 121
244 296
413 327
362 395
229 310
262 188
479 340
468 301
270 222
450 232
20 126
2 226
361 330
345 264
479 119
147 489
457 62
190 485
331 124
295 72
260 55
96 293
432 426
117 297
47 186
243 230
294 118
460 362
481 492
348 264
250 479
2912
5
