50
9
0 0 0 0 0 0 0 0 0
25 76 70 64 10 46 20 30 68
60 98 84 22 41 98 26 40 36
84 34 19 41 83 62 71 39 89
45 18 71 53 99 27 52 98 70
17 85 88 60 71 57 48 13 69
51 83 17 40 37 42 57 52 32
54 22 76 62 15 73 98 22 81
35 98 24 58 41 74 50 26 81
60 24 96 39 52 19 94 39 92
39 87 78 16 98 95 27 51 39
70 13 72 48 55 16 83 65 41
54 21 86 58 92 17 52 14 58
91 21 84 60 27 51 80 39 48
34 40 99 83 91 73 20 24 91
86 36 99 83 66 36 11 64 44
74 36 53 91 31 78 79 41 53
100 26 94 22 20 80 61 89 15
75 21 28 14 71 36 64 34 72
82 46 88 55 28 45 67 51 20
93 44 85 86 62 59 21 82 98
80 10 85 91 46 13 88 22 35
11 29 59 69 68 67 38 93 26
49 65 86 16 51 71 36 50 85
87 65 75 66 39 65 58 78 95
16 11 17 12 51 28 84 63 63
34 41 30 51 76 80 76 72 11
53 79 65 22 17 86 15 18 68
33 15 37 66 51 80 100 93 58
70 51 62 64 89 42 59 94 89
59 62 33 15 74 49 70 98 99
84 25 48 18 61 66 49 50 21
29 89 76 63 39 34 41 44 47
91 33 56 67 10 34 86 62 88
87 36 64 21 75 79 37 54 84
53 45 36 100 67 69 92 63 28
63 87 80 81 38 80 30 67 36
17 58 60 26 42 24 90 11 80
54 20 77 61 14 83 86 87 60
40 25 10 68 83 65 97 36 91
87 16 20 12 15 76 39 29 24
49 81 12 70 25 39 91 17 25
69 18 54 43 96 57 43 76 50
15 20 64 36 23 88 37 95 97
89 83 79 66 28 39 94 83 73
97 80 25 40 56 41 50 20 74
36 76 50 85 30 53 95 89 42
68 39 95 94 47 29 75 59 23
25 77 35 38 70 50 19 85 37
55 38 61 29 52 55 63 37 91
0.172669
0.174152
0.412643
0.243618
0.335279
0.316528
0.135499
0.23266
0.197737
0.149999
0.301179
0.357603
0.256571
0.185401
0.251146
0.454636
0.380625
0.389043
0.25574
0.348932
0.132942
0.383068
0.337702
0.224454
0.216504
0.139897
0.245228
0.285853
0.189085
0.46581
0.296552
0.103146
0.196171
0.336895
0.293379
0.388584
0.33673
0.360409
0.37317
0.294308
0.376335
0.102898
0.425465
0.142969
0.293985
0.419331
0.233025
0.45325
0.266806
0.223393
451 452
42 410
372 310
418 162
32 74
32 273
125 12
484 74
482 369
116 489
484 93
309 209
396 484
0 266
108 428
183 291
384 257
347 42
365 416
485 17
20 334
242 247
271 7
135 209
337 161
36 204
442 63
181 397
51 494
122 140
413 15
280 402
230 279
29 377
191 147
298 345
131 117
132 98
86 396
56 206
80 224
303 108
307 388
37 266
444 284
177 40
165 449
135 381
295 156
380 0
6765
2
