50
7
0 0 0 0 0 0 0
63 78 19 78 74 24 31
28 82 35 53 47 52 80
89 42 74 20 92 22 10
19 16 26 24 66 29 26
41 12 98 34 13 49 32
82 29 59 39 91 27 64
55 79 75 58 14 51 91
11 51 15 11 25 27 80
72 54 15 52 44 93 62
49 54 35 29 55 86 48
66 16 94 89 38 62 29
97 85 22 79 87 30 38
17 72 83 41 79 90 36
100 38 14 15 13 70 17
96 37 60 89 54 69 88
90 89 35 83 65 96 96
63 82 70 50 62 38 28
64 100 11 99 36 91 58
15 22 48 91 48 43 89
79 40 73 59 89 93 98
86 58 51 74 34 37 36
70 56 10 24 13 49 84
83 67 63 11 45 85 12
94 89 65 61 98 22 87
31 85 68 90 83 26 74
69 96 76 52 27 46 22
84 46 58 73 57 75 47
18 61 79 21 53 98 84
57 61 78 18 79 81 88
56 79 91 64 16 60 10
24 16 14 38 81 81 54
70 85 83 89 36 10 17
29 68 42 64 43 17 99
53 97 25 71 95 56 36
43 93 55 72 34 38 42
48 63 37 82 76 90 68
60 64 73 70 82 86 88
49 27 86 63 39 60 18
36 45 79 55 24 53 35
15 46 80 84 30 58 75
56 97 72 67 20 72 37
88 72 96 32 85 100 53
22 48 16 33 70 56 49
69 79 74 99 36 75 16
15 37 55 77 28 70 23
79 64 62 11 60 89 62
43 73 67 95 31 54 98
13 43 90 16 42 77 33
36 15 25 10 28 87 98
0.256669
0.946118
0.247702
0.539913
0.932309
0.215256
0.213732
0.398882
0.432789
0.705932
0.55072
0.36311
0.950579
0.989634
0.794749
0.209621
0.857486
0.75558
0.452187
0.239575
0.891112
0.805448
0.816263
0.519686
0.238539
0.798597
0.800147
0.902327
0.377101
0.473951
0.20957
0.947609
0.544375
0.405654
0.356426
0.839893
0.623727
0.60076
0.980829
0.467908
0.850316
0.412702
0.927765
0.792805
0.206651
0.96392
0.47467
0.411288
0.836955
0.562709
253 422
50 298
335 188
458 181
134 382
497 354
471 453
320 146
27 422
391 416
120 362
327 407
445 497
257 364
433 134
83 497
370 206
412 142
391 42
463 81
422 327
232 189
358 168
352 387
24 300
436 119
118 164
254 293
293 476
476 139
86 321
176 148
2 38
459 89
3 20
281 474
83 201
366 276
162 335
361 442
437 355
420 447
185 384
152 457
37 394
457 396
100 333
401 192
76 54
46 359
4565
3
