50
5
0 0 0 0 0
58 25 46 31 35
80 72 26 20 11
45 36 23 58 84
14 47 46 56 81
88 25 94 89 15
96 96 25 47 23
10 77 25 44 34
17 87 65 19 66
61 27 93 45 52
98 57 23 37 84
50 82 29 70 22
82 32 39 86 18
44 22 50 83 99
83 23 98 88 57
88 97 60 84 36
97 66 18 50 35
54 68 91 15 38
81 44 24 99 74
61 86 66 24 81
71 59 79 31 23
44 24 50 15 70
40 87 36 52 13
99 34 87 74 72
33 55 48 43 31
94 36 57 94 65
87 93 35 98 80
55 33 33 54 15
80 33 84 76 69
46 53 70 95 99
91 73 68 24 41
16 33 88 97 80
27 93 94 91 92
39 54 34 83 85
36 93 38 51 52
65 60 64 56 57
13 33 21 34 86
59 49 42 51 27
29 72 11 66 95
47 79 100 79 89
78 96 26 50 27
79 52 42 91 20
14 32 33 47 60
39 41 52 57 53
58 91 35 88 29
34 85 64 22 46
78 72 10 83 21
10 33 60 40 11
52 36 14 88 14
97 99 53 49 27
0.866213
0.314886
0.564097
0.992514
0.326254
0.460929
0.554781
0.26113
0.98059
0.892551
0.975176
0.77871
0.424327
0.866002
0.851621
0.504078
0.578585
0.871431
0.690583
0.863098
0.645516
0.75108
0.738147
0.630944
0.507545
0.355965
0.682486
0.240267
0.224923
0.228735
0.350836
0.389503
0.408714
0.408293
0.417547
0.737113
0.411293
0.490087
0.513276
0.604238
0.213751
0.646581
0.34882
0.626132
0.634672
0.466996
0.95426
0.353666
0.392503
0.4551
281 487
234 288
155 446
125 119
33 438
87 163
337 250
254 351
85 304
399 493
29 458
180 195
143 334
308 73
456 280
16 417
37 495
205 472
85 228
499 31
383 422
429 147
485 446
496 211
283 490
14 386
219 24
134 204
460 205
381 427
49 35
201 116
230 283
261 104
427 54
51 176
411 196
225 332
238 34
224 6
107 172
274 13
243 235
1 18
320 487
238 16
74 170
22 134
14 244
448 385
6777.5
2
