50
11
0 0 0 0 0 0 0 0 0 0 0
70 49 65 46 46 45 18 38 86 89 85
84 16 62 12 74 71 24 41 55 71 16
66 53 89 100 76 30 96 79 18 87 19
29 59 27 80 53 11 21 39 74 74 51
95 45 17 82 91 19 65 17 17 70 44
42 86 78 54 13 60 64 58 80 72 60
52 70 98 39 14 13 73 53 58 20 14
32 52 12 11 24 45 90 64 54 57 85
44 92 21 73 29 14 84 66 31 69 35
60 56 94 25 94 45 95 29 72 40 14
61 26 13 33 55 40 39 50 86 75 88
81 31 11 91 21 14 69 55 35 73 35
88 31 81 86 62 21 35 86 40 44 66
58 59 61 79 34 96 33 59 49 43 32
27 71 73 28 54 83 100 52 59 67 84
32 53 32 15 75 75 64 11 14 35 45
97 100 43 33 47 21 77 30 15 76 18
100 85 32 11 14 53 18 61 62 79 51
17 26 42 61 93 30 55 37 95 11 62
33 79 95 92 17 59 66 78 35 63 98
68 72 17 83 42 10 96 15 100 50 88
17 50 40 58 75 74 99 59 55 36 21
44 70 39 81 37 15 28 43 27 13 57
19 26 23 66 92 86 14 20 86 49 96
55 26 11 92 90 85 22 57 12 95 52
11 92 37 70 47 35 96 35 51 33 47
76 80 55 13 49 82 73 41 97 57 20
42 54 39 19 45 32 71 90 41 18 61
14 60 54 75 67 32 57 76 10 34 69
48 74 36 62 82 89 53 70 87 100 51
56 44 10 98 26 35 63 44 42 77 18
60 37 10 79 99 64 74 84 16 46 81
33 55 15 65 85 89 42 77 11 98 69
70 46 43 52 35 27 43 72 19 84 15
52 40 13 56 96 31 85 79 86 58 12
30 91 12 79 14 53 31 74 63 51 55
99 37 92 62 25 59 88 77 15 97 28
50 54 16 10 85 12 63 85 59 31 56
55 67 56 77 22 25 80 65 69 94 98
87 80 92 99 18 86 10 55 60 29 54
98 63 28 57 79 22 12 18 85 99 78
90 11 88 38 32 53 38 78 47 34 38
28 74 57 77 22 42 91 86 38 84 52
31 52 66 43 75 56 18 26 72 64 47
45 17 42 39 59 93 50 86 70 94 28
100 34 96 84 81 33 80 97 14 79 59
97 29 28 30 22 99 76 85 44 52 18
80 64 41 37 79 15 77 81 99 50 26
51 25 85 47 31 87 43 13 68 72 61
1.31961
0.892412
0.31191
0.695554
0.315603
1.2334
1.05765
0.78739
1.15643
1.19306
0.430623
0.880793
1.18545
1.37101
0.861834
1.44665
1.30144
0.437414
1.29884
0.350648
1.19466
0.63751
0.504815
0.489335
0.699343
0.688721
0.52547
0.942433
0.377633
1.04796
1.13064
1.34577
0.874045
0.405457
0.85975
1.49046
1.29837
0.719229
1.22871
1.03228
1.32957
0.595706
0.796423
1.24814
0.367197
1.27264
0.853018
0.331505
0.53978
0.480522
311 229
320 196
54 145
357 446
197 256
261 305
129 277
322 168
244 294
105 98
379 366
288 371
124 333
142 127
351 355
80 37
146 341
381 449
277 488
428 299
325 258
219 129
137 441
219 356
113 375
129 490
355 415
177 384
485 66
388 214
332 146
452 174
122 374
161 116
130 384
209 367
269 169
354 118
325 71
184 62
345 240
431 349
125 290
354 76
171 174
171 15
452 251
133 202
63 154
250 307
2651
5
