50
9
0 0 0 0 0 0 0 0 0
22 10 52 58 93 34 49 77 63
95 80 84 10 73 27 70 73 85
69 11 26 39 36 33 84 22 65
28 20 36 23 28 61 18 55 38
30 46 55 92 60 55 37 37 60
85 38 10 86 14 87 95 19 17
50 85 36 40 80 80 31 30 83
75 28 24 28 43 10 16 55 79
74 83 94 73 72 20 82 34 89
95 51 50 80 32 72 92 44 26
12 54 81 45 38 40 11 18 90
80 55 12 79 29 70 38 28 66
79 91 68 95 36 14 30 94 34
28 23 29 99 86 54 96 92 59
10 37 70 13 34 13 89 100 21
92 72 41 25 58 100 50 41 64
88 65 12 29 91 59 81 67 71
67 12 34 37 43 93 40 78 60
39 98 75 34 38 33 94 58 65
56 54 10 42 52 14 99 55 83
59 80 72 82 38 66 29 89 85
25 92 37 69 54 74 59 67 30
54 59 18 70 88 58 83 51 39
32 53 36 13 23 36 11 10 80
94 92 85 33 96 89 25 96 60
73 63 65 18 16 48 95 60 95
48 49 85 86 45 18 78 70 69
96 12 20 72 47 20 22 90 28
72 92 94 14 89 12 54 16 41
77 70 10 42 88 68 71 79 48
17 63 90 29 16 73 69 41 91
19 97 81 89 24 87 80 26 65
73 81 55 34 63 33 79 20 77
64 88 43 42 47 91 54 79 68
11 75 84 31 85 56 72 48 96
27 80 93 92 63 11 32 45 55
61 14 72 55 29 84 82 38 37
74 46 48 79 19 40 50 47 18
14 79 35 61 72 87 57 22 50
95 52 80 78 27 29 89 26 85
11 95 39 78 64 99 11 82 70
74 82 53 25 29 29 12 87 30
18 65 98 17 95 74 25 94 34
94 22 79 77 40 71 56 75 83
61 34 84 64 28 43 87 22 92
59 19 34 71 85 33 91 58 67
33 11 68 78 28 65 81 26 88
98 96 93 74 94 67 72 46 78
50 23 97 72 99 11 85 88 96
0.435659
1.40419
1.98179
1.83078
1.31539
0.431534
1.5581
1.81709
1.70182
0.864849
1.84341
1.24675
1.07497
1.96784
1.73194
1.16511
1.12428
1.17434
1.10642
0.675962
0.752134
0.659324
1.86965
0.506179
0.472806
1.05742
0.988955
1.00608
1.17992
1.95503
1.2692
0.677906
1.32924
1.17639
0.867876
1.02605
1.69503
0.548008
0.460461
1.02839
1.76736
0.794017
1.38754
0.982082
0.622066
1.35523
0.783874
0.96052
0.651334
1.19028
109 68
83 128
386 317
63 287
195 110
399 383
256 170
82 172
100 321
283 107
32 100
1 86
69 59
5 457
448 457
155 351
447 126
285 245
456 425
51 225
117 461
402 385
189 288
490 386
58 57
495 480
494 472
90 70
316 104
370 189
51 354
33 438
436 285
500 254
9 318
136 210
122 425
490 109
5 240
358 408
115 327
361 340
21 126
494 279
202 165
103 165
463 159
443 76
275 268
477 428
6887.5
2
