50
5
0 0 0 0 0
34 53 85 45 21
94 92 39 45 62
60 51 72 58 29
68 15 42 80 95
90 81 59 30 52
25 95 21 55 12
25 27 41 67 11
89 93 11 25 96
60 76 29 11 53
23 61 98 85 33
85 99 66 89 17
77 14 56 83 29
31 33 54 62 85
44 87 99 16 31
17 91 75 94 65
13 52 39 76 70
42 66 12 94 20
93 72 44 41 68
42 41 19 58 53
49 76 14 36 66
27 20 24 60 14
44 77 41 33 56
10 28 74 29 72
81 36 100 90 41
89 58 71 84 57
69 29 48 22 19
77 67 34 35 27
26 52 20 51 18
43 98 43 28 83
86 68 45 74 17
64 40 63 86 29
93 91 26 43 35
61 11 98 99 80
65 44 88 67 61
64 23 60 19 50
52 49 58 70 87
84 14 96 94 25
65 36 62 98 42
45 30 66 74 33
91 64 83 80 60
35 32 62 12 42
60 26 73 42 47
54 44 65 92 56
29 46 51 24 33
86 72 56 92 54
98 65 22 67 32
48 88 74 35 47
24 48 59 18 34
90 96 69 40 85
1.4293
0.603739
1.51546
1.41378
1.51911
1.66378
1.33035
1.82526
1.59394
1.83446
0.872637
1.48555
0.910231
1.31354
1.7955
1.03975
1.31162
1.23242
1.29246
0.812687
1.60468
0.931902
1.74382
1.42089
0.474089
0.771788
1.776
0.754828
1.36736
0.75433
1.92167
1.83379
0.61701
1.84347
0.973474
0.549595
1.94966
0.66015
1.2803
1.10051
0.474912
0.948246
0.778215
0.588074
1.57578
1.35016
1.70292
1.32636
0.442286
1.74145
290 120
17 70
308 243
349 382
258 223
125 256
356 212
390 390
17 65
242 387
414 222
331 497
287 328
4 465
411 279
64 392
117 10
356 359
17 181
409 91
269 279
30 340
259 271
344 264
203 326
93 230
13 200
32 35
195 158
196 290
13 344
26 325
381 16
363 38
128 473
497 84
129 97
245 287
68 59
468 53
27 0
101 99
390 243
306 153
378 11
290 457
165 346
430 463
388 176
305 44
4455
3
