50
7
0 0 0 0 0 0 0
58 17 79 93 44 30 46
98 75 30 94 52 86 53
57 67 89 16 33 27 49
46 68 67 43 22 71 29
53 30 68 73 42 73 63
46 22 59 64 60 78 43
65 77 62 79 63 25 34
14 75 31 24 58 67 63
47 53 67 34 24 29 97
41 91 63 89 17 57 74
81 75 87 86 58 21 95
20 48 69 96 80 29 17
59 32 99 44 28 13 23
40 33 73 35 49 90 27
54 76 98 76 25 56 12
64 73 26 27 13 56 32
58 47 39 40 88 42 75
91 84 33 89 28 52 94
55 73 90 56 86 39 88
24 96 96 56 30 69 68
45 32 64 37 15 50 54
40 18 52 36 94 94 32
19 60 80 33 26 15 99
47 96 42 90 36 80 83
54 41 35 22 86 68 12
87 19 18 47 60 12 52
90 77 82 88 53 98 75
25 36 35 63 16 86 56
70 40 43 22 72 58 58
100 47 82 40 62 41 15
18 95 40 39 19 34 81
89 17 97 99 15 39 22
80 44 21 96 95 71 10
86 25 48 60 19 45 78
16 57 33 80 24 88 32
68 70 92 38 47 84 70
75 86 25 89 23 72 73
24 17 47 37 65 33 62
18 47 35 74 64 94 44
20 44 97 82 71 25 72
77 62 78 35 34 21 70
52 39 28 21 45 62 92
76 77 28 67 96 49 24
40 41 85 98 16 91 30
59 45 57 45 43 46 59
72 45 88 98 73 62 61
29 70 67 84 76 59 31
92 65 79 88 38 49 41
20 73 46 11 83 25 16
0.465766
0.99673
1.11935
1.32844
0.564546
0.380637
0.836122
0.845389
0.93513
0.303851
0.355677
1.23799
0.793132
1.42024
1.46744
0.684958
0.53758
0.386478
0.950956
0.502372
1.37705
1.29497
1.49611
1.35571
0.331738
0.868256
0.745049
0.977524
0.797198
0.409881
0.667082
1.35714
0.731792
1.00938
1.37727
0.901379
0.379378
0.936881
1.18654
1.24754
1.05409
0.596301
0.487913
0.487258
1.14315
0.482917
1.43948
0.304251
0.735592
0.304212
117 137
32 414
131 203
124 12
465 492
329 185
73 233
373 181
87 272
393 82
359 357
323 307
2 400
308 452
451 388
220 478
346 438
231 124
181 46
291 349
67 284
372 10
216 278
391 418
31 301
226 152
200 447
269 418
222 211
269 185
379 272
440 137
416 224
220 104
411 249
168 145
342 471
103 419
42 343
110 159
184 47
206 201
388 384
485 323
234 396
51 13
288 61
487 24
166 358
185 85
4488.33
3
