50
3
0 0 0
22 52 37
67 27 80
26 25 71
22 32 28
33 73 74
54 14 42
36 88 33
18 50 55
45 19 84
40 87 10
63 29 96
76 32 29
79 58 31
94 25 40
39 57 32
56 92 33
42 68 30
29 80 41
25 53 96
14 59 40
94 65 24
78 20 13
94 85 97
52 54 20
41 35 86
27 71 51
18 35 76
83 25 27
18 94 55
12 13 78
84 62 80
23 31 47
91 46 13
15 90 11
38 55 95
12 66 14
36 29 86
82 18 55
70 65 25
97 100 80
57 74 59
32 28 57
27 13 97
64 27 71
52 39 95
70 12 74
34 27 23
91 61 17
94 60 40
1.03889
0.730968
1.06837
1.07029
1.45713
1.53395
1.77941
1.26013
1.05077
2.36508
0.643885
0.52885
2.06604
2.34618
1.69706
1.32452
2.40947
1.5329
1.14829
0.586376
2.46373
0.65369
0.746921
2.44751
1.66798
0.505489
1.26877
1.71701
2.45301
2.21879
0.711075
0.541698
1.246
2.48818
1.10766
1.76648
2.19282
1.66836
0.847176
2.45829
1.62072
1.36019
0.767139
1.5306
1.3933
1.77025
1.46579
1.64526
1.28013
2.48468
394 36
35 53
132 167
445 1
37 2
189 310
456 70
152 377
239 245
295 241
70 141
201 422
378 326
476 256
171 52
30 330
229 123
453 262
439 155
129 309
331 491
96 394
206 287
202 77
182 358
77 414
260 64
248 347
222 489
361 371
197 95
312 174
446 414
290 252
495 127
461 488
191 455
75 482
120 258
453 452
200 356
60 389
137 1
215 418
261 317
143 135
285 145
290 279
418 177
407 29
2478
5
