50
5
0 0 0 0 0
22 58 49 47 38
92 80 14 77 63
89 100 19 13 70
61 86 76 71 69
23 89 74 60 87
11 35 63 40 87
62 17 50 95 10
51 37 90 65 44
32 19 99 11 20
85 78 47 90 90
85 63 87 78 98
85 31 39 27 79
57 72 44 33 77
31 62 94 17 70
88 98 59 77 25
30 54 33 39 30
67 73 29 27 96
22 75 97 42 90
56 94 37 60 23
21 30 71 25 94
81 49 29 63 65
100 11 38 66 85
66 64 99 23 74
13 25 98 27 88
45 81 36 46 54
67 67 67 32 19
13 21 92 68 24
62 42 61 60 63
91 17 68 65 62
18 31 77 42 54
77 87 20 81 66
99 12 31 11 97
51 32 17 25 49
66 52 89 31 33
36 59 17 11 39
44 62 25 87 45
67 36 74 78 66
84 79 67 62 14
15 72 61 71 93
39 51 36 79 36
68 25 11 10 68
42 98 67 36 87
34 74 89 96 92
65 56 51 63 77
94 92 98 16 48
87 61 37 89 43
12 78 30 30 12
48 75 80 45 87
40 26 39 91 71
0.105453
0.302296
0.274153
0.277413
0.100194
0.338651
0.318739
0.371281
0.119246
0.224188
0.377132
0.180369
0.435779
0.239698
0.137664
0.24351
0.130846
0.143519
0.38146
0.100492
0.303198
0.117395
0.161398
0.221923
0.443624
0.132053
0.429521
0.436629
0.152602
0.431681
0.169526
0.274433
0.102654
0.157643
0.212269
0.33524
0.134348
0.179621
0.223234
0.219831
0.437836
0.370449
0.335904
0.486414
0.130962
0.35545
0.292293
0.367495
0.410113
0.306705
358 384
12 121
62 13
333 136
161 336
40 302
402 312
73 296
264 324
395 320
368 485
374 260
274 484
200 464
241 331
51 170
448 362
204 31
145 321
89 275
121 477
393 384
240 47
147 437
181 128
279 27
150 295
92 499
498 3
405 261
48 341
31 347
36 109
497 462
112 415
54 204
318 494
168 397
147 436
234 380
376 320
409 424
168 242
299 195
247 309
60 217
454 190
224 260
133 446
49 347
6860
2
