50
7
0 0 0 0 0 0 0
13 61 75 29 45 36 38
71 46 85 42 85 37 85
69 94 83 67 44 29 86
45 81 36 39 50 36 46
84 78 46 53 57 42 48
31 29 97 94 60 34 35
92 12 51 92 20 99 42
79 29 27 56 100 33 95
89 31 47 59 17 95 23
21 44 16 17 98 27 66
50 11 81 60 81 80 94
22 20 11 29 43 97 59
40 15 51 78 65 12 97
86 73 90 46 58 96 58
41 80 29 72 66 98 96
36 27 63 55 57 63 58
65 83 10 43 78 89 11
69 68 83 42 52 43 30
79 81 54 89 41 79 80
96 45 31 11 27 28 29
48 53 23 26 28 50 56
13 62 41 46 31 31 88
13 41 57 12 74 63 69
73 88 54 95 39 17 29
77 48 33 83 69 39 52
99 68 36 97 92 19 65
100 26 59 46 43 52 74
94 86 50 96 40 55 66
55 37 37 86 46 10 76
78 12 81 75 35 47 58
91 22 42 59 39 37 85
86 95 72 36 20 28 63
22 69 44 15 87 90 39
18 26 31 23 50 75 58
47 92 12 18 64 33 66
30 32 49 17 20 90 57
63 72 97 15 93 48 26
51 40 42 42 57 28 95
89 28 22 90 70 43 50
82 99 61 61 57 93 41
45 23 35 25 77 16 53
20 32 82 55 95 96 16
91 82 65 86 79 74 88
75 18 51 47 58 39 14
59 63 20 85 87 22 63
86 71 86 16 21 100 85
78 33 65 71 15 62 16
16 29 69 65 14 47 77
97 94 56 35 64 94 21
0.685064
0.42998
1.27066
0.823055
1.19774
1.6684
0.99366
0.718803
0.986231
1.29762
1.30753
1.29247
1.207
1.44992
0.84776
1.04374
1.74128
1.6391
0.784781
0.511803
1.48862
0.724242
0.980016
1.36636
0.741084
0.409491
1.07428
1.10813
1.24744
1.32606
0.425613
0.919845
0.739936
0.760742
0.997556
1.19675
1.82936
0.927303
1.65952
1.94941
0.83297
1.21762
1.18168
1.70671
1.43403
0.836962
1.10535
1.47743
1.18964
0.650427
431 24
223 235
362 128
368 477
262 349
191 424
351 201
422 99
147 413
61 439
329 463
470 425
397 145
85 437
487 295
272 147
336 128
267 363
61 351
471 75
196 162
121 469
171 308
235 65
43 332
414 132
489 176
289 420
169 245
24 374
230 165
468 26
353 113
353 496
249 127
264 86
57 282
127 24
429 168
332 400
107 123
188 233
481 439
327 15
394 7
429 383
425 313
71 201
324 491
435 123
4485
3
