50
9
0 0 0 0 0 0 0 0 0
34 13 43 30 39 13 72 78 41
34 34 94 72 90 17 77 50 33
48 99 75 60 38 14 70 42 28
26 29 76 92 22 50 18 12 16
16 40 94 38 24 91 63 42 36
95 21 68 100 49 96 91 68 76
91 14 77 80 54 73 40 22 67
93 71 80 49 48 23 76 93 77
52 34 99 79 50 50 42 73 72
90 52 18 12 12 50 37 71 61
90 91 72 82 25 33 99 81 36
89 21 40 40 81 86 20 62 45
78 34 61 19 91 80 21 51 79
70 41 92 65 41 15 94 12 50
24 96 17 74 35 52 37 47 43
28 33 98 52 48 10 32 81 37
99 12 21 70 71 43 40 23 58
16 41 69 64 14 15 65 39 80
79 30 65 80 59 90 40 100 22
60 22 35 78 12 82 10 74 65
90 98 13 17 67 15 78 36 40
38 86 35 57 16 45 35 80 71
48 21 63 14 12 27 25 30 94
99 70 17 60 69 43 22 57 38
64 29 77 70 100 58 94 99 15
30 56 28 39 10 73 95 71 24
75 24 39 62 31 99 37 25 84
99 13 29 70 75 59 65 100 81
89 40 26 41 93 18 72 36 48
44 12 86 55 42 54 30 90 88
67 11 90 50 50 52 39 12 10
62 35 95 100 66 60 10 66 84
59 82 12 87 92 13 98 54 94
78 64 70 42 59 11 27 59 50
60 35 87 78 10 18 54 59 10
100 60 44 78 60 68 72 21 35
48 33 72 28 46 86 11 54 21
85 51 32 71 82 25 89 77 81
43 22 71 31 62 78 40 65 13
82 20 46 13 90 20 13 45 73
64 18 95 85 34 50 82 76 14
63 82 12 62 99 78 14 14 18
90 45 31 25 100 90 60 87 28
55 50 42 77 94 71 95 88 65
16 34 77 48 37 83 29 35 98
78 44 100 53 75 88 39 51 30
11 21 34 44 30 52 81 100 12
11 41 50 27 64 29 61 24 48
13 63 49 23 50 97 65 71 79
1.61354
1.68896
0.915859
0.41106
0.822065
1.60173
1.7165
0.490269
0.788293
1.65541
1.01563
1.87461
0.738602
1.94488
1.214
0.814746
0.42736
1.53696
1.36406
1.28274
0.751039
1.90916
0.976903
0.833305
1.99168
1.47641
1.56196
1.70865
0.886701
0.763435
1.82166
1.86747
1.99654
1.16059
0.540726
1.90433
1.29406
0.471291
1.8578
1.15577
1.60812
1.77673
1.39195
1.31988
0.916049
1.10286
1.19364
0.421672
1.5092
0.836948
237 284
402 427
284 488
259 437
375 170
329 143
62 289
265 129
233 276
302 277
89 444
382 250
321 245
417 59
413 136
284 493
71 421
96 61
119 328
259 328
188 166
70 171
73 56
256 126
153 465
47 334
291 420
322 352
76 280
460 296
213 343
31 61
258 80
363 124
203 450
413 33
363 77
409 461
359 46
433 72
297 287
280 465
241 117
168 254
405 458
387 357
438 181
137 184
487 113
299 296
3281.25
4
