50
5
0 0 0 0 0
89 93 48 37 21
21 88 46 66 46
50 22 94 16 51
65 16 81 48 34
82 33 24 28 98
58 74 89 69 49
29 77 47 44 74
35 31 20 42 31
68 13 84 90 35
57 37 36 89 80
35 63 77 30 65
70 48 36 71 57
27 30 100 30 60
33 44 34 86 88
62 95 47 96 64
88 58 33 17 40
91 69 80 83 83
82 12 53 97 63
94 83 37 45 16
33 29 10 20 64
63 14 75 80 47
61 30 65 82 59
53 44 56 38 41
91 66 64 66 16
89 16 37 99 33
30 64 77 77 89
81 19 48 33 50
75 86 22 17 58
93 37 13 60 57
40 76 52 49 76
50 17 58 93 100
26 90 85 32 83
19 96 82 47 98
87 36 99 12 11
87 63 84 38 19
62 59 76 31 74
11 78 82 75 94
40 79 87 30 37
82 42 58 32 10
56 36 40 95 57
92 82 13 50 16
44 52 87 100 73
15 46 47 13 88
46 31 21 50 38
72 31 36 10 72
47 53 28 18 72
77 19 80 91 81
14 68 71 87 83
63 65 97 65 38
1.11131
1.24545
0.771563
0.80175
0.899768
1.12136
1.4003
0.984404
0.92049
1.03565
1.3924
0.74136
1.25522
1.41693
0.385267
0.775044
1.33189
1.05789
0.824298
1.23965
1.16112
1.12783
0.805757
1.27216
0.340871
0.829837
0.754295
0.458603
0.52673
0.542356
1.40815
0.433925
0.35492
1.20701
0.422446
0.762516
0.941828
1.1392
1.44647
1.19264
0.360773
0.36638
1.31948
0.841481
1.10518
1.20379
1.44373
1.27613
1.4847
0.528286
45 238
258 375
240 433
54 443
403 178
335 306
306 136
385 451
299 335
329 99
495 0
35 300
148 81
185 404
357 36
357 83
301 157
127 372
256 96
483 236
27 47
251 368
165 313
390 462
314 413
187 485
321 115
471 157
89 231
280 387
322 380
282 155
28 16
448 168
109 104
443 169
465 3
175 254
444 270
109 168
178 189
458 457
262 30
327 409
52 53
279 183
126 68
130 109
184 48
33 71
3405
4
