50
9
0 0 0 0 0 0 0 0 0
50 97 34 86 16 84 68 84 68
52 17 23 48 47 96 79 48 18
100 10 94 22 15 76 28 26 85
66 61 67 29 70 27 23 77 92
89 80 97 80 57 14 56 22 62
67 50 62 21 47 92 84 69 72
87 32 60 91 72 65 65 24 61
56 84 57 67 43 62 37 93 78
14 83 90 13 55 89 45 17 53
54 27 19 20 65 39 19 52 30
88 73 94 48 61 62 65 81 33
19 66 51 12 89 16 53 71 94
58 59 18 19 73 96 50 84 69
35 25 93 59 49 93 63 70 81
33 90 89 55 90 70 40 26 53
74 32 53 59 66 94 71 74 20
70 86 85 43 72 24 77 84 86
75 61 36 94 96 79 44 37 35
23 30 51 61 86 73 50 25 17
95 15 46 69 27 84 22 21 36
45 29 64 70 72 35 86 28 79
73 62 67 49 80 29 44 12 16
46 75 52 14 15 63 70 58 91
71 17 65 79 55 84 30 72 52
19 40 46 47 35 25 44 70 51
34 80 33 98 43 16 59 12 47
92 94 80 48 92 74 80 64 96
16 11 63 88 46 13 26 73 79
82 87 100 56 82 69 57 96 94
85 91 40 32 20 79 29 56 92
75 59 84 27 50 81 58 93 36
47 90 42 80 100 42 52 83 97
15 85 53 98 42 28 75 75 74
35 75 54 71 86 41 14 76 37
97 20 27 71 71 99 26 92 50
60 19 66 65 64 64 36 69 100
54 68 79 16 56 25 26 42 100
53 58 64 70 67 18 90 76 74
47 90 20 38 93 79 14 52 79
66 23 18 21 61 20 16 30 61
26 75 53 94 82 97 39 25 19
69 89 24 76 91 89 14 85 79
77 46 21 26 75 16 29 71 55
98 61 11 32 32 38 64 98 52
16 12 66 58 81 46 92 62 67
70 47 39 23 84 87 100 55 95
53 82 54 79 52 42 69 63 41
13 63 19 62 54 22 21 85 57
91 86 43 77 15 71 97 17 26
0.475548
1.82768
0.410045
1.80134
1.877
0.79343
0.783186
0.76445
1.62547
0.886179
1.7554
1.97936
0.844622
1.91657
1.91566
1.28119
0.693366
1.42875
0.473111
0.934446
0.417734
1.11231
1.85835
1.62199
1.82442
0.612881
1.95448
1.03327
0.704127
1.32938
1.73904
0.587012
1.73098
1.98525
1.67192
1.02825
0.740934
1.37033
0.671094
0.449407
1.98864
1.65415
1.09015
1.57751
0.999821
1.83623
1.19137
1.05666
0.89226
0.826799
487 0
30 131
104 240
13 311
106 402
278 219
413 126
181 79
149 0
398 39
209 224
310 41
359 224
241 86
8 484
15 34
25 23
340 488
134 92
455 301
499 330
218 368
6 496
85 200
165 346
100 224
371 334
477 313
137 498
154 86
272 470
299 102
398 393
304 47
202 419
222 253
240 127
387 97
500 394
162 463
252 448
200 169
339 209
271 395
98 126
363 381
35 6
333 322
369 253
289 495
6997.5
2
