50
7
0 0 0 0 0 0 0
26 17 100 73 51 70 63
64 35 40 66 77 76 37
46 23 90 99 69 93 25
30 11 86 95 14 39 77
11 68 55 65 50 54 67
97 38 29 35 61 52 46
16 44 99 53 37 69 30
90 94 10 23 54 71 16
12 96 45 64 99 58 74
24 44 31 47 33 70 17
72 60 37 87 28 62 35
15 71 92 18 84 61 49
98 39 34 25 51 72 53
25 90 64 90 97 89 50
82 99 87 69 41 25 54
75 79 86 80 18 33 58
21 14 99 73 66 17 40
92 77 73 99 18 22 71
51 68 60 13 89 76 29
21 22 42 69 13 10 43
40 11 89 50 81 53 32
62 97 15 33 31 89 87
26 53 45 13 85 74 26
42 26 74 86 41 78 64
15 53 90 79 87 19 65
83 47 76 100 18 69 35
59 96 49 13 44 37 68
26 65 79 60 26 57 70
79 12 54 86 72 17 69
20 79 61 58 26 56 33
82 84 70 39 43 34 79
86 50 34 93 92 29 76
20 13 34 82 55 43 34
39 63 67 22 30 41 96
71 50 51 84 14 50 25
90 33 60 67 92 45 29
58 38 53 30 46 32 33
74 63 75 41 64 58 84
23 63 27 87 10 88 27
50 30 19 91 29 71 83
45 61 21 65 48 14 79
71 62 59 13 98 77 25
16 34 34 25 31 22 11
42 10 31 53 66 33 98
59 66 57 30 56 35 87
67 79 80 20 66 11 46
48 65 31 64 67 26 53
50 66 99 38 31 93 48
21 59 56 11 47 90 29
0.366704
0.748739
0.797485
0.380856
0.244935
0.436748
0.914713
0.959974
0.926808
0.819215
0.828996
0.945567
0.390895
0.81116
0.625973
0.375602
0.328034
0.474028
0.369557
0.224696
0.239692
0.454534
0.524117
0.464058
0.540611
0.24375
0.631003
0.867504
0.86757
0.45319
0.461643
0.772886
0.901929
0.632536
0.969353
0.411863
0.816094
0.909369
0.678776
0.939627
0.552571
0.523857
0.263477
0.752078
0.219406
0.320271
0.33782
0.660145
0.458324
0.855101
236 119
404 162
335 71
174 318
127 239
436 105
319 408
403 199
412 123
349 428
35 318
380 435
461 149
179 265
61 412
176 290
492 370
459 129
281 115
471 494
106 482
243 281
90 164
334 443
408 361
44 103
273 92
490 327
7 121
471 498
473 140
162 224
410 402
447 444
263 233
252 123
155 362
41 269
390 342
180 473
208 79
489 9
0 140
108 60
43 375
60 476
109 398
15 3
447 52
78 142
6537.5
2
