50
7
0 0 0 0 0 0 0
57 28 32 64 77 67 39
86 43 67 67 39 18 26
75 98 75 72 70 88 68
50 19 20 22 28 47 62
24 17 67 36 60 68 46
64 51 84 55 10 72 86
32 83 84 92 39 45 52
29 99 84 85 100 92 51
83 31 66 14 85 35 83
79 91 98 94 42 59 17
77 86 68 66 28 87 11
60 94 73 38 19 63 53
32 37 84 33 30 61 48
40 55 94 21 21 37 71
47 67 17 30 86 33 88
43 16 87 43 88 18 72
100 19 55 46 10 42 77
73 22 30 11 55 55 80
64 12 36 61 52 26 26
60 76 79 18 13 71 56
95 92 47 34 94 29 68
84 15 29 31 72 43 84
65 80 38 78 83 82 17
50 30 57 79 28 10 26
59 91 24 60 28 26 79
77 16 13 46 17 10 64
49 75 11 53 52 39 23
65 25 58 23 56 86 91
31 19 75 53 49 34 74
25 54 17 61 72 61 26
80 15 89 73 51 27 81
92 40 95 91 18 14 56
95 15 50 93 64 57 79
36 28 30 93 50 83 97
82 29 70 40 73 79 77
10 26 10 20 16 29 11
54 19 51 74 16 92 10
76 72 98 22 30 74 92
82 88 29 61 48 57 79
49 85 78 60 67 42 58
90 87 56 35 18 24 18
36 94 70 54 13 33 53
62 82 21 29 17 71 16
86 84 47 68 86 93 30
49 96 35 13 94 47 95
50 15 47 51 52 34 72
84 87 24 16 63 53 96
91 27 98 40 44 87 48
88 96 71 51 65 20 68
1.39185
0.655919
0.702818
1.27843
0.797755
0.962828
1.36188
0.451325
0.978944
0.525789
1.22559
1.31177
1.08067
0.868083
0.534785
0.627799
0.984502
0.506523
1.28068
1.14596
1.3666
0.887829
0.626451
0.458621
1.19265
0.533476
0.639091
0.723289
1.2087
1.42434
0.54031
0.595612
1.1751
1.09312
1.42476
1.04686
1.19579
1.33909
1.02195
0.997426
1.07427
0.879949
1.38018
0.326657
1.10403
0.760521
0.701102
0.621196
0.394362
1.17821
212 326
11 374
481 2
223 57
405 245
150 307
77 304
105 342
120 155
219 433
265 73
330 416
334 106
236 304
181 339
359 220
324 170
184 293
148 56
140 414
395 219
413 229
292 254
334 15
482 233
395 255
382 412
422 186
171 350
235 442
115 334
396 240
232 451
100 446
198 448
346 392
467 3
245 94
50 31
236 108
230 452
452 22
276 139
285 477
184 18
29 342
172 311
237 307
209 134
341 155
2658
5
