50
5
0 0 0 0 0
36 15 62 50 23
78 64 61 21 69
15 56 17 29 15
86 63 30 85 86
33 70 83 58 14
52 55 88 63 86
15 24 50 83 80
43 35 18 86 42
30 14 65 82 37
21 10 94 80 27
18 19 57 38 68
60 48 85 61 86
36 58 91 13 94
83 80 76 41 39
89 100 74 47 91
59 77 30 22 80
59 30 25 10 96
93 90 28 43 33
41 56 84 82 40
76 43 20 33 34
42 55 80 30 89
82 18 17 28 49
19 73 75 70 53
35 41 52 92 87
70 68 95 72 59
48 12 20 54 17
58 49 77 88 62
43 60 77 46 45
34 15 75 66 71
12 100 29 95 46
47 50 55 20 57
82 56 52 25 81
100 64 18 93 51
44 21 26 47 45
81 45 42 15 46
23 55 13 91 28
17 60 78 55 83
39 86 12 18 56
32 50 51 22 15
48 64 28 88 10
24 100 17 13 99
97 32 35 24 49
17 81 70 95 61
61 75 29 17 38
14 39 58 68 50
19 13 34 87 100
26 81 84 97 96
60 42 52 11 49
47 22 93 78 65
0.662374
0.83684
1.31587
0.479561
1.63785
1.0838
1.20438
1.79688
1.33233
1.77646
0.571188
0.767596
1.02757
0.782892
1.58006
1.90697
1.9878
0.485985
1.54574
0.700563
0.876749
1.01303
1.51423
0.860712
0.629477
1.30187
0.591527
1.04561
1.5633
1.78832
0.581294
1.03148
1.38281
1.54553
1.41522
1.52923
0.847898
0.84492
0.675262
1.99073
0.861598
1.50887
1.59012
0.626119
0.772052
0.464584
1.66495
0.451235
1.34443
1.20058
490 409
423 153
132 292
27 37
321 14
393 409
13 282
117 22
169 367
459 31
456 144
170 161
470 56
448 484
35 28
59 161
323 378
391 489
364 78
269 262
431 465
229 16
12 464
477 256
480 387
155 199
360 303
14 69
121 318
321 461
298 62
365 472
109 147
369 366
97 20
52 93
484 395
189 15
352 223
0 455
128 476
151 9
459 376
5 434
327 493
65 4
56 350
267 364
224 498
99 183
3221.25
4
