50
11
0 0 0 0 0 0 0 0 0 0 0
74 92 60 69 36 98 71 53 93 26 34
63 73 57 64 29 96 53 89 14 90 76
100 37 80 36 17 29 99 98 87 33 20
55 29 22 80 52 26 100 64 29 77 34
10 10 63 55 43 18 12 53 87 44 42
21 40 45 69 68 87 95 70 98 14 56
47 90 91 77 26 48 68 14 96 75 51
58 54 79 68 80 60 63 87 29 58 16
19 40 72 43 39 40 26 62 97 28 78
55 12 34 30 57 13 95 26 12 55 10
30 99 61 58 80 32 85 59 21 16 29
34 19 57 82 22 85 44 39 73 76 61
68 33 42 57 61 92 74 94 95 48 12
88 69 67 46 75 10 50 22 52 99 30
83 10 21 82 42 27 87 52 23 78 47
18 81 97 79 33 20 12 76 17 58 76
49 96 34 98 98 20 66 39 90 23 60
60 71 65 66 61 75 16 46 59 65 33
39 50 93 28 70 16 20 62 19 36 60
51 58 48 54 66 81 22 51 25 50 46
32 39 23 98 74 54 23 10 39 30 92
82 38 83 29 10 88 71 23 28 26 67
27 69 84 56 47 87 65 49 10 60 72
21 69 11 16 17 67 56 44 28 43 52
11 11 32 92 33 46 54 74 64 11 70
20 36 71 80 20 75 72 74 24 91 28
84 36 63 24 70 45 42 39 26 77 95
87 18 54 99 93 27 79 47 16 47 74
84 43 51 23 70 25 68 24 59 46 62
40 60 72 14 11 18 85 29 53 98 38
14 97 93 47 68 42 29 43 90 82 19
95 48 59 29 66 29 51 45 79 70 20
77 42 49 49 36 28 76 65 23 35 26
19 85 29 38 27 21 55 10 57 83 57
55 43 52 38 22 25 58 29 27 95 32
95 76 63 96 66 72 41 87 87 22 84
17 45 79 31 70 21 56 16 29 95 84
81 24 87 31 100 27 76 46 35 10 73
74 82 52 41 100 47 18 67 40 62 85
95 28 85 72 32 15 39 56 90 70 46
79 23 57 98 72 33 12 29 56 24 70
95 24 69 71 81 46 34 99 43 61 22
70 63 52 85 32 53 38 51 80 43 91
99 14 97 27 61 66 60 63 46 93 87
37 38 77 59 98 33 10 40 68 74 45
90 94 99 97 39 90 80 46 82 84 41
85 53 29 23 74 85 21 54 12 43 14
64 54 23 89 56 54 93 61 93 78 77
61 40 68 37 12 95 95 24 63 27 33
0.509178
0.735919
0.260666
0.363977
0.213413
0.336047
0.668302
0.756688
0.630375
0.69116
0.729739
0.310877
0.230455
0.970095
0.964719
0.602871
0.595121
0.726262
0.491551
0.29874
0.2525
0.491208
0.274279
0.808521
0.998063
0.545137
0.344425
0.234554
0.92856
0.87828
0.2351
0.330433
0.516365
0.678179
0.883497
0.352134
0.839939
0.384475
0.855978
0.466466
0.223842
0.233103
0.916735
0.268108
0.75401
0.56007
0.467139
0.595273
0.777951
0.716243
25 30
203 187
257 418
129 298
391 22
446 6
113 54
397 162
379 442
95 319
401 372
270 439
259 459
155 64
422 4
178 380
39 322
56 408
20 422
268 385
466 429
221 165
484 50
256 441
260 411
392 370
442 29
42 102
190 8
381 369
468 139
337 43
83 465
218 399
386 430
64 12
486 456
453 403
24 69
459 79
231 405
54 122
173 275
51 29
342 130
471 40
227 297
484 211
418 182
434 156
2643
5
