50
11
0 0 0 0 0 0 0 0 0 0 0
94 17 61 11 17 41 55 29 98 66 69
37 21 37 37 89 10 65 32 58 80 67
69 95 68 53 18 80 74 57 27 52 34
46 67 38 20 47 91 94 77 53 28 69
71 46 65 13 81 86 76 32 31 66 94
11 96 36 36 83 40 76 84 26 29 79
48 29 33 77 12 65 78 28 81 90 13
62 77 51 84 92 87 33 58 99 95 88
51 67 39 34 68 98 78 71 41 22 16
66 94 50 18 46 63 28 51 69 98 28
49 59 43 71 55 63 72 22 77 20 58
26 50 48 94 99 80 92 82 49 86 14
19 80 70 55 63 22 86 77 41 86 85
14 30 26 42 14 13 76 71 90 91 51
67 10 75 98 82 75 26 60 80 30 46
12 53 98 77 92 72 29 32 94 71 21
87 84 70 46 78 21 44 71 46 21 61
27 26 40 44 53 59 42 49 20 25 47
21 73 82 22 83 89 88 23 11 89 27
78 72 45 98 50 34 62 79 12 88 47
11 14 88 22 60 46 100 65 27 39 69
26 94 92 12 22 61 56 83 45 64 36
51 35 72 27 43 42 69 45 72 70 60
90 26 47 80 93 33 31 54 33 95 41
40 23 56 85 95 79 71 44 38 15 58
83 41 24 48 36 61 61 73 96 83 29
80 63 96 72 67 75 36 62 51 28 87
68 97 34 41 59 96 63 95 42 100 86
64 53 21 29 22 52 52 65 73 39 50
55 49 71 39 15 27 19 89 29 62 30
67 91 18 57 12 46 30 57 71 70 51
36 80 21 41 13 18 48 71 18 90 51
100 13 52 25 78 78 13 15 33 12 47
69 73 48 50 87 26 37 54 69 99 19
35 24 87 24 38 16 67 51 46 74 42
48 69 99 82 93 43 65 34 19 69 51
65 28 67 16 81 78 32 17 75 34 71
35 99 16 56 15 97 90 57 11 40 48
75 23 18 15 11 43 44 58 17 84 100
37 56 39 21 74 65 81 76 91 95 87
66 84 33 39 61 89 84 26 37 29 25
18 26 26 31 80 60 77 98 43 76 100
17 100 52 49 98 60 35 64 97 12 43
86 51 44 21 37 35 30 14 60 86 49
95 33 23 47 100 77 93 57 66 89 70
12 10 32 24 16 37 59 68 100 60 17
99 87 72 38 47 29 14 36 35 41 96
93 93 15 71 75 35 39 100 97 80 80
88 90 49 56 89 20 79 13 45 50 28
0.725716
0.487071
0.640248
0.326627
0.437086
0.950831
0.356203
0.623866
0.271848
0.330108
0.951249
0.681859
0.659344
0.611543
0.811567
0.49462
0.285659
0.224015
0.877974
0.523395
0.786031
0.881111
0.546659
0.933026
0.859627
0.738917
0.304329
0.562272
0.326101
0.320845
0.703558
0.701994
0.778383
0.30986
0.909449
0.393123
0.620109
0.94492
0.55877
0.825142
0.231786
0.329091
0.869757
0.792551
0.568138
0.26446
0.518446
0.793878
0.714131
0.253416
232 454
494 464
335 471
107 99
466 325
156 144
469 380
116 101
402 280
160 121
253 327
112 323
329 157
296 243
244 286
211 253
261 28
381 161
74 214
44 40
486 174
197 277
241 63
128 101
233 182
282 407
418 458
114 435
138 172
173 149
409 358
126 97
49 306
101 247
351 112
202 362
226 265
464 88
481 279
224 43
118 47
324 30
215 457
401 260
449 106
185 464
257 36
474 114
184 211
34 295
2689
5
