50
9
0 0 0 0 0 0 0 0 0
47 40 100 90 39 48 39 62 36
29 44 49 44 69 87 25 35 20
42 59 63 40 19 10 64 20 40
14 43 99 60 67 86 67 24 62
100 22 57 62 82 90 30 51 96
62 62 50 47 58 18 83 96 74
73 93 74 10 56 37 22 95 20
75 17 34 91 73 15 50 48 27
70 89 29 15 40 15 69 73 42
19 14 90 79 45 57 62 30 91
93 82 93 93 75 86 14 45 46
29 34 93 91 76 48 97 68 65
46 39 36 43 47 57 93 40 91
38 96 82 99 83 45 37 38 79
34 20 18 21 10 81 46 30 27
55 42 31 16 78 19 66 14 38
39 56 38 85 45 33 25 33 63
33 67 86 41 73 98 47 46 16
22 84 78 62 42 49 25 40 29
46 100 56 69 27 92 96 68 56
45 78 60 26 41 19 28 86 23
94 99 30 10 95 78 47 79 98
68 76 89 80 37 71 30 99 23
54 85 13 33 87 38 78 44 31
10 94 85 51 56 77 45 71 77
16 37 40 45 63 40 69 26 46
53 76 38 19 85 10 92 83 13
24 94 75 38 66 97 46 96 50
67 73 12 91 25 79 75 85 47
51 12 30 30 58 81 26 20 33
68 76 53 39 59 45 15 51 27
14 26 71 44 27 95 78 74 57
25 87 33 94 59 80 79 64 86
13 79 44 45 43 38 14 100 60
75 24 70 24 71 12 86 70 91
13 25 78 64 40 68 62 30 61
71 99 88 66 50 72 62 82 12
55 52 69 70 54 33 39 24 21
65 75 31 70 56 65 71 87 77
40 26 72 74 32 85 60 89 85
48 16 19 22 88 18 58 19 23
63 95 37 72 12 14 91 59 59
27 59 57 12 42 95 70 80 21
18 54 65 99 30 95 78 40 94
90 95 25 23 27 71 37 19 75
44 24 15 20 59 45 46 68 89
63 76 20 54 87 83 47 15 73
24 20 16 27 37 73 24 88 97
18 87 44 10 91 63 84 50 47
0.131522
0.279822
0.246717
0.185312
0.359886
0.205495
0.326637
0.19344
0.310133
0.456638
0.282021
0.265745
0.32126
0.157782
0.267546
0.409229
0.350659
0.277017
0.383471
0.276853
0.302875
0.148395
0.389436
0.116261
0.126972
0.24134
0.382547
0.410419
0.255442
0.3809
0.396086
0.325037
0.417386
0.305092
0.4962
0.379896
0.469062
0.169453
0.373259
0.307028
0.499169
0.117934
0.458259
0.425082
0.19726
0.201395
0.292945
0.442055
0.39901
0.332951
408 170
236 382
113 258
411 484
257 461
195 209
253 295
167 385
439 133
155 240
444 341
81 376
263 47
294 499
100 182
183 403
438 210
79 414
396 55
431 188
151 351
204 70
429 116
264 321
148 9
59 109
430 195
500 137
430 420
234 295
294 261
211 159
282 115
14 353
487 334
10 342
70 486
462 96
366 70
90 332
141 414
61 21
289 467
232 366
225 472
346 22
319 110
6 191
331 315
196 211
13275
1
