50
5
0 0 0 0 0
81 99 92 61 49
86 93 68 34 68
58 98 13 85 76
68 77 87 96 49
77 97 37 13 76
97 100 76 93 50
98 63 37 72 75
63 13 73 95 81
77 10 41 83 39
70 41 47 33 69
43 10 81 78 80
56 66 60 62 12
12 99 72 20 85
12 85 28 12 95
63 20 54 52 53
63 82 96 98 73
99 30 43 38 53
24 35 24 15 80
61 66 39 35 15
59 64 46 76 54
80 86 58 80 98
12 52 95 71 44
15 51 39 82 99
44 74 52 67 68
43 18 46 67 63
22 26 33 22 39
56 26 50 49 98
98 33 44 99 23
63 44 31 15 27
15 24 43 14 65
67 69 95 14 35
17 30 93 73 67
28 41 93 93 17
26 41 85 40 39
49 23 30 14 11
20 64 54 26 63
86 63 44 80 22
71 95 30 52 19
85 64 12 43 67
47 23 11 51 52
11 69 90 58 12
59 74 99 23 24
33 45 53 82 12
36 25 74 75 32
24 75 75 38 46
25 39 15 44 26
71 55 89 30 35
91 72 70 74 10
87 44 30 33 37
0.850881
0.242783
0.831106
0.254595
0.465902
0.2968
0.954585
0.95722
0.359757
0.513661
0.759239
0.857353
0.927739
0.931163
0.399613
0.679325
0.4929
0.872448
0.261619
0.346862
0.882064
0.686096
0.263585
0.253154
0.693363
0.544252
0.289288
0.588413
0.435914
0.322587
0.366675
0.556061
0.422817
0.747602
0.364787
0.877329
0.713162
0.9763
0.756187
0.962648
0.764117
0.953589
0.274672
0.566803
0.814744
0.845649
0.923199
0.751621
0.640814
0.83115
401 148
500 493
43 113
264 448
465 440
236 147
154 319
231 302
51 125
50 473
119 371
488 152
184 74
431 436
321 382
419 28
382 108
404 106
152 156
1 409
449 264
211 204
431 447
298 147
114 70
487 192
328 170
205 415
426 189
222 32
170 39
261 359
367 468
454 130
209 152
52 414
445 255
90 289
154 180
452 124
13 355
178 268
435 350
3 20
421 302
73 469
463 461
113 245
344 88
410 463
13230
1
