50
11
0 0 0 0 0 0 0 0 0 0 0
24 99 38 91 89 47 97 94 68 83 83
45 20 29 80 33 31 94 47 53 16 59
43 95 87 80 38 18 29 86 50 86 25
61 27 29 19 25 25 36 88 24 39 95
89 15 18 25 47 76 10 64 86 70 13
54 31 18 52 39 56 94 62 65 40 81
71 86 78 41 91 37 74 91 40 72 89
98 16 89 97 72 88 57 83 88 84 93
21 86 73 45 74 35 78 94 22 99 28
97 96 11 64 40 42 86 51 24 74 95
16 93 11 79 86 15 16 75 61 56 41
89 27 36 47 27 67 92 99 29 85 24
66 43 45 25 65 59 82 30 46 89 48
20 40 30 10 91 96 86 44 39 99 14
10 63 33 62 81 10 55 73 78 13 83
96 86 65 13 28 89 99 37 51 27 38
45 38 24 39 16 55 80 63 14 39 87
27 74 42 32 15 85 81 50 30 42 75
87 65 20 29 50 82 47 51 59 54 28
37 67 87 19 33 12 38 33 60 66 45
46 56 93 30 62 62 71 83 64 66 84
72 64 82 54 79 53 39 26 77 76 45
50 56 81 81 41 50 82 82 78 13 93
83 25 100 98 24 78 22 49 39 73 74
87 77 84 93 37 23 97 71 77 42 58
54 42 15 21 72 78 71 23 63 59 77
14 35 46 23 61 57 32 54 19 29 53
12 17 25 91 65 88 64 38 12 97 15
78 72 92 64 96 48 33 31 31 54 63
76 76 63 95 80 27 72 78 56 68 89
83 88 10 40 98 23 12 45 23 12 99
78 40 61 35 72 76 21 32 65 35 70
97 10 51 74 84 25 95 10 33 55 44
93 14 38 45 49 80 90 65 63 100 51
89 73 93 40 61 68 36 63 73 39 23
58 69 82 31 91 21 10 68 61 92 88
28 23 61 29 77 28 85 86 66 45 11
31 58 90 10 58 86 100 76 27 28 69
15 43 73 43 84 23 62 72 99 35 69
39 92 10 45 66 74 77 78 28 81 63
19 51 42 14 73 80 38 78 45 78 55
52 81 74 71 39 24 100 11 74 42 12
19 86 84 93 59 91 35 81 15 89 75
72 45 55 66 56 77 42 18 43 10 43
47 14 25 28 82 27 29 46 93 13 28
32 68 61 63 82 81 19 17 51 18 68
32 81 61 22 71 54 80 83 30 24 55
49 92 33 64 88 46 98 54 15 89 69
48 27 33 15 65 52 60 82 83 84 15
0.711335
0.762622
0.478637
0.875745
0.765411
0.506743
0.738245
1.06148
0.577737
0.728467
1.43053
1.31277
0.469515
0.4907
0.780288
1.14171
1.35018
1.135
1.27369
0.998341
0.942708
0.89034
0.686307
0.427219
1.32916
1.1769
0.664774
0.717078
1.40646
1.09174
0.974636
0.512253
0.728736
0.326046
1.10626
1.34344
1.36725
1.25099
1.3341
0.694589
0.9192
0.554609
0.586211
0.855179
0.852802
0.999354
1.06412
0.791887
0.604603
1.1709
179 9
110 408
162 402
167 402
59 120
416 95
442 338
406 107
225 322
448 240
36 248
355 161
465 273
68 146
29 437
220 201
275 124
274 436
236 74
37 493
270 287
260 447
66 16
24 373
43 231
102 99
437 150
92 175
460 315
83 498
467 395
248 41
432 188
23 12
256 207
421 425
100 493
316 343
318 218
432 80
46 267
204 201
102 391
92 210
310 297
471 110
468 463
38 481
0 339
494 292
4548.33
3
