50
5
0 0 0 0 0
72 51 12 49 19
10 82 27 44 52
61 75 86 69 45
29 34 97 25 71
62 15 95 100 85
98 66 20 54 71
86 96 32 53 86
65 90 85 40 13
92 64 99 42 55
95 100 10 94 80
14 98 65 49 81
82 24 94 20 20
52 14 45 48 53
33 43 24 80 16
37 62 45 74 89
14 28 87 99 35
22 96 17 91 74
18 12 17 10 37
71 30 33 43 14
99 100 59 58 35
100 67 91 71 98
52 65 54 25 80
16 64 67 97 40
26 31 53 80 48
40 65 81 50 24
42 75 26 31 62
40 64 50 84 51
21 58 88 14 92
12 84 19 68 87
26 64 20 98 74
13 47 40 75 40
56 68 42 68 30
45 95 53 44 51
28 100 91 66 39
95 50 87 59 45
33 52 49 19 77
32 37 13 44 41
39 61 18 85 100
14 26 68 87 54
58 52 31 20 62
13 75 81 85 59
32 36 63 64 10
70 82 65 40 11
35 55 21 67 19
75 63 60 51 43
42 87 58 22 24
12 94 66 74 61
61 62 55 30 27
64 27 57 86 70
1.48077
0.487102
1.46432
1.16095
0.948988
0.37861
0.68165
1.40781
0.539483
1.39589
0.650374
0.419234
1.32877
0.699178
0.756872
1.44859
1.12626
0.367058
0.955883
0.686106
0.810845
0.763499
0.744165
0.854296
1.09436
1.01492
0.361287
1.127
0.997953
1.41269
0.374669
1.34447
1.4848
1.42517
1.39443
0.401776
1.39072
0.471011
1.1688
1.49527
1.08617
0.82959
0.952925
0.744042
0.300584
0.746127
0.673754
0.339265
1.36331
1.33929
122 280
207 103
202 167
419 341
258 201
405 106
7 319
272 225
226 254
333 170
131 207
24 60
0 467
47 322
408 139
479 489
387 274
236 453
74 414
136 66
353 352
158 46
236 326
396 119
428 204
345 169
92 337
277 186
40 190
335 431
85 432
205 311
469 454
408 14
331 85
223 177
328 345
147 241
66 388
369 262
170 415
387 369
342 25
169 290
146 238
64 12
379 490
286 121
63 196
401 348
13300
1
