50
7
0 0 0 0 0 0 0
61 47 17 34 57 12 70
100 15 69 44 57 56 99
94 57 97 34 69 70 11
88 59 10 13 33 55 18
58 94 47 59 100 63 47
93 27 18 50 78 37 75
75 65 46 38 64 92 55
88 49 71 63 77 96 71
31 91 18 19 89 48 58
97 55 40 28 10 52 52
88 34 56 71 68 67 74
68 32 24 99 80 37 15
56 40 38 32 76 14 48
85 60 82 15 81 51 100
25 26 98 93 29 51 68
75 96 44 70 41 11 36
31 100 52 69 20 33 47
18 82 69 54 68 89 45
16 44 22 79 59 84 67
76 27 67 21 59 70 61
40 67 95 16 47 80 58
22 33 30 75 18 56 81
54 34 12 70 75 41 59
84 36 44 76 62 13 72
47 80 36 72 88 88 78
73 29 14 10 84 29 34
55 28 68 98 60 54 64
21 54 16 95 72 16 47
74 65 76 88 46 35 85
96 60 70 82 31 86 65
30 94 87 48 87 52 32
86 33 93 73 44 95 75
83 22 30 41 78 47 57
11 39 82 48 95 70 19
45 98 57 50 78 79 58
39 96 26 90 92 58 31
38 40 33 74 98 55 24
94 96 79 23 65 62 69
49 65 95 82 83 44 51
53 27 61 78 94 17 90
30 44 65 72 19 67 99
98 82 81 85 68 86 16
81 58 42 15 90 23 77
66 84 51 19 53 88 63
27 59 79 22 17 43 20
97 57 53 31 89 99 35
56 57 16 76 28 90 78
18 77 90 96 90 96 98
15 55 38 92 63 37 52
0.479212
0.429405
1.26242
1.44805
1.33206
1.14158
1.49873
0.439693
0.362887
1.44299
0.704281
0.394665
0.83815
1.29122
0.489254
1.35767
0.858257
1.08945
1.13059
0.473663
1.08771
1.03139
0.431251
1.24554
0.6435
0.814715
0.449652
0.866556
0.30689
0.334683
0.6778
1.24691
0.373129
1.37107
0.873211
0.578844
0.699579
0.80515
1.30499
0.855264
1.05437
1.04294
0.428973
1.10873
1.14658
1.17957
0.400772
1.18294
0.468587
1.35807
195 390
306 242
370 284
45 78
164 449
168 307
246 323
41 184
356 92
102 109
104 34
468 41
393 19
5 76
209 334
211 314
92 314
131 104
102 423
163 336
302 354
185 174
493 217
384 226
285 54
369 229
99 101
176 258
118 121
333 312
92 398
361 228
296 187
487 204
472 458
427 281
83 169
495 496
326 378
253 491
102 283
210 464
477 11
299 392
209 64
144 140
295 233
487 435
72 63
8 239
2826
5
