50
11
0 0 0 0 0 0 0 0 0 0 0
88 35 88 92 27 30 97 63 83 55 49
85 94 23 41 28 57 26 69 16 19 71
73 62 87 88 66 86 97 13 32 62 32
10 77 80 47 100 76 99 71 38 77 13
100 32 29 96 93 64 23 25 82 55 21
59 95 46 53 19 91 51 94 44 24 65
83 32 29 12 12 39 47 10 64 72 47
35 17 61 76 83 69 16 25 87 82 85
17 61 23 68 45 18 73 92 100 68 90
67 96 48 58 26 23 18 42 100 25 60
29 48 24 21 62 32 19 100 19 15 44
69 14 40 96 49 94 51 52 89 14 52
98 82 71 42 12 46 30 12 42 19 31
65 55 53 71 92 56 61 81 15 38 83
38 30 63 43 69 39 55 10 67 22 38
53 90 55 19 95 61 15 57 24 98 21
88 22 86 49 75 100 78 36 87 77 80
33 12 39 56 57 81 35 60 79 53 12
54 71 75 41 79 97 98 78 65 61 39
74 47 20 11 91 45 21 93 62 46 34
37 57 70 85 46 93 31 35 79 22 97
42 81 86 90 30 91 93 35 86 55 96
42 10 39 93 76 10 16 47 15 84 15
58 92 37 60 41 46 11 20 27 61 58
45 41 50 94 60 85 53 11 39 90 33
95 21 72 51 52 34 93 31 19 70 23
72 88 66 97 21 88 72 82 51 57 32
71 32 30 57 82 89 24 91 41 19 78
43 14 50 81 28 84 52 43 35 44 37
97 88 83 99 24 55 78 17 46 55 29
79 35 98 31 14 77 36 28 13 76 26
54 85 48 48 81 68 84 80 35 85 80
10 65 64 49 77 28 30 41 57 70 15
27 25 49 31 30 33 55 34 66 91 36
26 68 80 15 80 12 78 29 32 49 38
48 34 74 76 51 78 81 32 50 89 19
33 28 83 49 96 93 81 100 43 59 68
53 17 39 63 94 80 76 78 52 65 69
97 42 41 14 37 17 53 87 41 77 88
18 38 68 62 23 12 87 78 72 63 66
93 80 80 79 28 31 26 25 82 51 63
81 22 35 33 43 27 58 53 12 49 48
35 67 36 91 89 18 50 87 10 21 59
84 96 17 12 77 22 65 51 62 10 18
44 57 28 40 42 86 99 50 57 42 83
85 52 58 86 14 99 60 45 53 91 73
96 69 22 59 11 74 26 67 96 95 61
81 56 11 66 58 34 95 36 71 82 13
54 63 89 55 17 34 28 71 15 29 50
0.946194
0.558153
0.666539
0.691213
0.98819
0.703715
0.208965
0.792062
0.722721
0.439272
0.946117
0.890722
0.209668
0.728372
0.510927
0.619735
0.64388
0.21583
0.345404
0.8459
0.283507
0.34666
0.433659
0.572046
0.547012
0.409673
0.390584
0.590493
0.466421
0.451742
0.645837
0.401365
0.463291
0.765097
0.672327
0.374366
0.794299
0.331537
0.982326
0.51925
0.361623
0.463881
0.576565
0.227458
0.645987
0.954445
0.529627
0.531982
0.380672
0.714878
369 198
175 319
30 158
203 486
295 116
230 238
123 10
137 274
61 39
398 105
98 193
86 84
60 30
145 315
130 163
414 326
92 64
281 452
398 403
392 465
76 112
362 387
63 117
282 241
245 380
109 168
152 233
492 103
145 474
352 207
184 119
455 32
448 25
415 221
483 160
321 294
215 285
210 208
496 456
165 342
393 458
15 41
349 5
22 141
457 440
183 319
211 98
412 124
123 453
242 222
3340
4
