50
3
0 0 0
68 31 58
13 48 32
29 47 27
63 75 89
90 89 37
32 74 70
61 29 30
77 62 51
83 44 12
35 93 19
29 44 23
73 26 16
90 60 23
60 62 91
73 84 75
45 94 100
39 85 16
30 78 29
72 79 96
57 71 74
74 22 91
21 34 26
89 89 56
59 36 57
25 58 83
92 36 25
70 70 12
94 45 60
91 65 22
64 62 88
98 42 92
50 35 25
96 39 67
26 69 60
35 35 39
27 39 63
74 48 45
78 94 39
27 71 80
65 71 60
28 78 94
21 22 81
68 70 28
74 39 50
11 75 16
48 71 61
63 18 49
12 54 37
67 71 40
0.503842
0.839865
0.324118
0.759894
0.669427
0.239031
0.688664
0.411634
0.640818
0.986105
0.919162
0.26575
0.395628
0.998742
0.417632
0.801018
0.547843
0.884627
0.797519
0.435196
0.366715
0.249756
0.659887
0.826564
0.411203
0.576356
0.64985
0.939734
0.935796
0.530871
0.358479
0.510913
0.657123
0.544344
0.806557
0.328059
0.833249
0.887338
0.357195
0.422772
0.27444
0.775552
0.40737
0.342837
0.678562
0.651884
0.48823
0.919081
0.409845
0.968003
151 343
247 98
6 337
263 232
290 74
208 275
106 198
331 95
363 9
315 253
190 495
451 437
73 102
21 126
476 8
178 186
384 208
53 232
411 188
116 312
39 213
102 52
394 349
49 351
146 457
356 132
268 298
93 80
92 236
275 254
500 125
160 30
337 29
312 197
208 54
41 181
475 9
240 127
116 359
342 99
467 278
133 242
447 329
152 431
227 466
111 272
357 467
164 23
75 134
427 318
3380
4
