50
5
0 0 0 0 0
36 50 82 21 71
86 58 76 80 74
41 53 23 42 56
33 59 50 80 56
15 33 54 42 67
33 53 66 24 18
24 82 25 89 98
93 41 10 50 55
77 95 84 70 30
23 47 66 47 50
100 12 93 69 69
94 65 99 48 68
10 89 20 13 72
79 15 81 54 28
78 15 43 23 76
73 57 24 45 77
15 88 52 42 85
40 65 71 40 12
54 45 24 81 34
36 96 25 38 37
23 13 94 57 60
37 19 27 82 24
48 71 100 29 92
95 38 41 23 79
43 93 58 77 77
62 76 25 51 97
92 25 45 63 75
11 36 45 19 95
73 83 91 44 28
25 75 67 37 79
80 39 60 62 23
81 100 79 68 53
97 45 34 85 29
77 93 98 85 33
23 92 65 85 71
83 65 100 97 42
59 73 65 37 35
85 53 11 21 24
34 55 86 39 86
15 79 30 38 88
33 63 45 95 65
100 55 56 54 57
69 49 75 37 63
55 39 99 42 79
89 16 61 41 30
88 15 33 12 16
37 15 35 77 17
61 20 61 26 88
20 34 13 24 69
2.0448
2.10527
1.83983
1.90605
2.27179
2.02822
1.5009
2.04116
0.713021
1.65446
1.40974
0.923596
0.827122
2.12279
0.954074
2.42293
1.13286
1.6082
1.1005
0.807608
1.54024
2.26549
1.75667
0.504725
2.4104
2.29495
0.947953
2.00124
1.94124
1.32282
1.45195
2.12215
2.2023
1.36712
2.40215
1.11545
2.42533
0.839142
1.92151
0.878461
1.37392
0.820926
1.30034
2.38041
1.63385
2.21824
1.99054
1.22035
2.32912
1.82
219 24
8 468
178 210
142 209
209 307
499 57
124 253
149 326
402 211
353 39
353 326
47 197
295 44
267 260
445 304
155 117
358 392
327 240
487 216
37 385
411 64
127 265
15 22
435 219
247 485
301 455
36 123
382 196
371 494
422 280
186 255
266 211
13 100
247 235
60 3
45 275
95 104
263 343
400 184
375 500
304 66
156 460
123 139
149 368
51 389
192 137
451 430
326 150
466 80
314 422
4486.67
3
