50
3
0 0 0
44 33 30
95 81 84
33 61 93
16 48 30
95 41 41
81 96 35
24 47 35
82 41 81
75 74 40
24 48 86
62 81 43
45 12 39
47 14 11
60 59 45
49 39 53
31 85 46
85 33 79
69 42 25
94 43 99
52 52 47
98 38 50
92 98 92
39 78 99
37 73 98
93 29 25
29 85 11
72 15 50
89 14 26
51 30 68
40 21 50
75 41 86
94 47 63
46 100 25
94 92 46
46 80 48
73 21 79
91 19 66
62 31 28
58 44 69
92 43 21
97 57 26
79 48 65
13 51 61
48 89 34
76 60 34
31 11 29
67 12 37
28 40 29
76 64 99
0.642595
0.524431
0.725556
1.40098
0.77481
1.17217
1.44764
0.565081
0.90279
1.15999
0.37888
0.485095
0.559796
0.878805
0.636908
1.02639
0.952044
0.656016
1.25232
1.06864
1.11146
1.38596
1.3167
1.06023
1.03576
0.484032
0.402413
0.807538
0.605239
0.900933
1.00764
0.986785
0.855241
1.06416
0.581693
0.675622
0.856631
0.911408
0.783076
0.347013
0.448141
0.6693
1.31179
0.361552
1.10675
1.13244
0.364974
1.49497
0.776923
1.161
295 164
394 446
450 79
413 107
475 294
411 417
259 414
472 362
12 73
91 346
225 481
261 132
456 286
272 415
450 312
117 104
437 11
296 189
339 357
287 121
40 358
278 406
261 488
378 429
422 226
88 309
192 141
467 144
221 111
200 483
241 330
254 348
303 348
190 143
283 2
213 357
66 290
29 210
215 188
232 228
427 300
268 436
407 247
124 348
406 422
26 88
248 477
97 186
401 199
3 386
3360
4
