50
7
0 0 0 0 0 0 0
41 77 77 27 68 56 29
99 48 19 85 41 36 79
100 55 70 39 51 41 33
10 50 47 37 40 76 48
11 22 55 52 70 19 81
92 100 32 21 23 67 12
61 29 52 59 23 31 62
56 84 95 26 74 54 60
38 92 84 41 49 21 50
37 84 90 87 68 29 33
87 82 14 65 47 90 30
85 29 36 81 13 84 71
44 14 41 27 34 82 90
52 97 29 74 82 53 92
56 26 58 45 65 100 28
63 25 68 36 91 35 46
96 99 93 99 49 70 51
40 74 19 58 67 92 28
13 34 12 54 73 18 44
69 81 85 51 43 60 96
31 18 80 24 33 12 23
81 63 98 43 10 87 59
53 48 13 51 86 97 51
44 53 23 82 15 25 28
64 47 10 11 92 32 43
100 87 92 46 28 31 16
46 59 15 73 84 60 92
75 39 81 71 53 15 99
86 46 37 28 33 48 65
58 62 12 82 70 19 30
16 29 29 72 39 73 48
28 22 10 60 42 14 45
52 68 91 24 41 37 88
52 80 63 66 72 95 92
47 32 15 26 78 28 46
69 59 11 29 34 69 46
33 88 30 41 91 95 16
90 46 11 60 18 73 36
92 10 44 24 79 47 55
40 54 54 37 98 15 29
87 47 32 31 41 44 89
81 83 66 70 54 61 38
26 82 11 96 36 21 71
36 83 63 13 97 13 26
81 47 39 36 45 78 75
11 98 55 30 45 91 16
65 73 81 21 21 12 14
28 35 69 68 33 50 78
99 72 82 91 29 10 66
0.908663
1.75927
1.57339
0.872992
1.39412
1.66109
0.721926
1.89223
1.74952
1.39464
1.41376
1.43669
1.68847
0.540352
1.82646
0.806572
1.85868
1.45775
1.03689
1.24115
1.47372
0.438414
0.82439
1.06456
1.61702
1.18885
1.42747
0.898731
1.78572
0.876774
1.14694
1.08688
1.55595
1.16318
1.60727
1.48494
1.47288
0.879772
1.60099
1.62818
0.75894
1.28073
1.08293
1.2702
0.49129
0.8024
0.866552
1.11926
1.72413
1.11324
104 128
6 201
496 268
364 101
66 475
87 258
83 283
384 49
458 359
439 319
428 113
216 362
353 131
464 245
362 386
463 262
476 22
12 95
277 40
87 490
18 396
439 89
140 109
1 479
335 345
300 176
18 428
62 155
82 229
366 202
372 440
103 205
59 380
438 264
334 51
94 498
241 490
160 496
294 261
130 391
287 439
64 326
274 248
107 211
220 326
42 39
343 292
340 443
396 197
82 396
4306.67
3
