50
9
0 0 0 0 0 0 0 0 0
87 98 47 21 59 83 39 53 64
44 70 96 58 83 75 100 75 27
65 26 61 34 47 89 49 58 55
40 47 45 58 55 57 14 85 13
65 85 56 19 66 41 33 28 78
14 88 50 63 91 81 63 21 84
89 34 55 99 90 83 45 69 48
75 63 56 38 27 22 24 46 24
94 38 42 48 97 60 50 74 37
14 25 92 41 49 17 21 31 56
56 88 13 15 15 43 68 89 44
40 52 80 58 82 23 36 74 25
16 32 49 29 62 88 32 89 29
87 18 16 72 44 26 38 34 18
96 54 14 23 77 23 89 18 37
39 59 49 72 34 34 95 60 65
100 53 16 95 32 85 96 42 95
73 59 16 90 84 54 56 49 28
23 85 12 60 17 46 68 18 29
32 47 37 60 43 14 30 91 39
95 95 60 10 89 50 90 78 99
12 17 93 70 54 35 12 98 32
16 53 44 61 37 26 63 23 77
72 22 15 45 35 86 54 80 16
74 76 34 88 37 48 18 64 57
41 16 77 37 41 68 19 16 73
94 90 60 70 80 14 71 99 37
31 15 98 60 61 58 46 33 18
30 70 66 80 11 72 17 55 35
43 88 53 33 41 94 46 54 69
53 53 87 36 17 49 64 97 39
78 94 61 24 84 36 31 82 89
74 21 17 54 49 26 47 82 25
89 58 55 81 83 20 76 41 91
92 81 83 36 34 16 80 35 100
28 40 52 64 66 34 74 40 21
87 69 34 66 77 60 16 44 53
41 83 47 86 54 64 86 84 38
66 80 68 18 60 18 58 73 100
16 72 91 83 75 92 21 86 77
34 93 29 50 37 80 25 80 72
39 41 23 100 89 46 98 21 53
92 36 63 45 22 27 53 60 37
34 91 56 13 87 28 46 12 12
16 15 67 42 69 62 13 75 69
84 26 34 78 37 80 97 68 39
42 58 69 69 14 83 26 78 90
84 17 18 55 69 93 16 48 80
75 86 58 34 50 65 70 60 60
0.425526
0.19332
0.425918
0.163794
0.245386
0.419605
0.199803
0.325997
0.379968
0.415577
0.244805
0.219291
0.401541
0.282447
0.257908
0.469332
0.138673
0.14795
0.487086
0.406394
0.435732
0.154937
0.109408
0.112807
0.17861
0.386567
0.170933
0.452701
0.152876
0.392539
0.468716
0.394804
0.300963
0.359115
0.161826
0.17934
0.1297
0.263574
0.239214
0.157591
0.320311
0.449659
0.104451
0.249071
0.378814
0.430798
0.140133
0.31905
0.326403
0.215742
122 410
471 271
317 80
176 280
288 222
67 428
318 457
82 127
3 71
0 292
109 259
459 103
383 468
81 162
34 31
400 236
314 439
150 196
347 268
493 13
42 321
456 189
265 214
423 449
195 332
124 57
338 221
274 78
189 288
415 14
312 19
202 335
66 401
480 167
63 225
259 330
480 211
478 9
362 60
169 74
46 31
424 55
145 452
176 380
430 108
273 478
441 354
334 382
380 50
34 464
3318.75
4
