50
7
0 0 0 0 0 0 0
97 14 53 30 29 90 64
40 47 54 77 12 51 75
69 58 61 62 100 10 14
18 31 10 75 27 11 84
23 99 73 84 21 46 17
100 80 31 99 17 100 59
69 75 49 67 12 33 49
62 29 85 68 27 53 34
82 57 89 64 42 84 65
69 57 19 48 12 98 60
67 28 17 90 11 72 24
48 55 82 35 72 31 92
11 82 73 36 68 15 24
37 80 25 68 12 24 53
60 68 94 59 38 26 27
12 33 80 69 26 91 18
98 70 15 54 49 75 95
73 77 58 72 29 81 53
15 83 37 38 100 30 38
68 98 52 88 12 16 62
88 54 73 17 64 23 62
28 87 66 28 16 52 30
21 54 20 81 82 83 15
46 90 44 48 20 99 73
84 76 85 30 84 97 60
62 65 96 69 54 43 92
57 41 72 72 83 53 28
68 37 62 49 37 86 74
48 73 16 37 62 15 24
27 97 73 58 96 14 79
93 13 28 16 82 34 48
22 13 37 65 28 21 39
23 94 49 65 66 16 79
51 47 49 87 70 11 73
26 12 14 53 55 67 14
63 47 90 29 49 87 61
58 95 80 79 53 33 37
32 14 65 61 93 34 71
73 74 37 43 66 20 80
11 13 94 40 36 77 87
53 63 86 44 90 34 52
22 68 53 60 68 64 95
96 69 38 71 72 89 79
23 71 36 78 76 11 33
35 15 67 51 45 24 95
13 59 71 32 15 66 35
15 32 89 33 60 67 67
91 12 24 16 87 37 77
68 20 85 20 84 91 71
1.44731
0.655448
1.39567
1.80945
1.15346
1.58075
1.38969
0.786913
1.24172
1.50306
0.933907
1.46674
1.37446
1.78656
1.01362
1.69992
1.95582
0.923854
1.61401
1.28954
0.879876
1.32474
0.639982
0.783959
1.30762
1.47982
1.46179
1.36566
0.635277
1.0865
0.974156
1.14542
1.65105
1.09124
1.5501
0.613002
0.952437
1.60847
1.71576
1.3916
1.3613
1.24194
1.45173
1.30997
1.51445
1.81725
1.84403
1.27098
1.37832
0.969855
215 16
476 143
72 225
489 5
306 27
175 455
373 465
286 282
197 96
104 388
332 22
445 56
166 26
281 141
101 201
213 142
345 90
477 354
25 456
355 365
406 275
499 349
428 369
438 360
297 301
32 183
462 411
236 75
418 140
128 60
128 193
416 55
141 359
160 130
358 259
498 351
372 18
389 211
233 200
148 363
364 489
19 143
382 324
317 120
110 375
117 164
211 147
489 141
136 345
254 67
6585
2
