50
5
0 0 0 0 0
37 95 89 12 21
41 23 28 90 62
42 45 92 81 29
93 69 46 89 31
48 93 71 46 33
22 74 22 18 29
66 97 26 83 88
79 58 47 88 71
76 14 100 82 66
73 90 40 61 100
81 81 35 40 21
34 67 24 75 68
94 38 83 16 31
100 42 50 29 10
71 61 100 14 24
91 99 77 70 83
95 37 99 96 31
28 91 42 79 68
28 71 10 38 39
97 86 76 12 91
11 67 14 61 67
39 36 76 69 63
98 35 36 17 41
53 71 48 37 73
89 55 39 24 29
14 50 83 29 23
80 80 94 88 60
52 36 12 72 62
50 44 49 37 17
25 32 82 92 17
65 85 79 77 43
11 19 95 82 93
74 42 61 69 98
83 81 42 85 79
59 32 16 82 58
94 65 68 96 22
30 54 35 94 68
33 32 50 17 84
69 17 69 74 88
77 18 11 79 59
53 30 95 73 95
85 67 20 43 34
17 54 20 93 23
22 13 42 32 76
78 45 98 74 49
94 65 35 66 11
17 61 32 14 50
29 60 58 97 79
53 34 30 64 64
0.919578
0.312796
0.720011
0.636942
0.54689
0.795044
0.692462
0.774003
0.962967
0.272544
0.70717
0.853262
0.363059
0.98169
0.691457
0.708323
0.756773
0.86685
0.917258
0.269835
0.898201
0.664818
0.718508
0.974697
0.726959
0.944452
0.267993
0.907935
0.449684
0.824618
0.367492
0.975615
0.858769
0.323875
0.477123
0.667478
0.902554
0.994338
0.788574
0.292539
0.986421
0.798763
0.580484
0.852329
0.734123
0.948589
0.831919
0.959774
0.993265
0.23799
343 186
111 335
182 264
323 37
439 423
16 427
118 149
81 87
315 492
41 494
122 101
100 272
49 53
377 249
281 243
323 342
11 6
4 3
432 156
178 297
112 260
87 440
268 370
495 315
202 320
470 209
20 28
463 203
321 7
188 459
382 1
138 20
58 461
169 168
77 291
293 394
423 330
18 472
274 305
427 349
10 33
209 473
426 96
267 73
140 388
212 265
119 137
340 278
361 352
411 1
2756
5
