50
9
0 0 0 0 0 0 0 0 0
64 20 50 50 30 49 30 84 63
40 83 45 64 85 98 37 78 20
80 46 26 65 55 45 100 92 54
99 90 66 13 96 96 63 97 13
26 71 51 20 73 32 65 54 12
32 54 28 99 83 10 98 81 66
44 81 24 100 49 84 24 27 45
72 33 30 11 16 49 59 46 99
11 76 17 42 18 38 45 43 78
19 53 49 98 92 28 73 55 23
49 53 62 52 14 86 85 15 65
11 21 78 56 62 15 27 31 98
85 53 88 26 14 75 77 50 24
74 73 70 73 17 56 49 22 13
51 73 59 47 36 36 78 99 66
13 84 53 83 96 96 55 95 24
37 27 20 19 39 52 51 80 38
12 75 33 22 10 96 16 33 26
85 91 48 59 89 52 80 10 39
95 55 70 84 32 59 41 30 37
94 35 89 15 26 34 50 23 85
56 89 13 44 18 91 93 81 84
86 49 80 84 95 90 42 89 60
80 61 62 18 44 75 39 17 64
70 42 73 18 12 47 72 54 35
40 57 55 22 37 10 43 35 82
31 100 81 97 34 47 56 81 83
69 66 13 11 45 69 21 63 68
52 46 82 77 28 61 20 54 39
86 93 47 65 40 70 36 50 27
79 17 49 71 25 41 61 23 71
10 83 68 73 71 63 16 10 36
84 55 71 45 37 48 12 80 91
82 54 73 30 74 22 93 76 86
66 54 75 83 21 100 64 35 21
90 14 98 22 38 86 76 23 91
24 47 98 99 63 90 23 14 19
38 90 44 86 16 26 98 95 86
53 86 71 34 29 21 99 33 56
33 11 73 79 89 94 49 13 69
30 51 61 41 74 52 66 50 91
26 91 100 61 99 93 62 97 84
90 95 19 25 55 14 46 78 44
87 86 26 17 14 25 93 46 61
98 16 86 54 29 100 36 64 57
62 40 48 17 19 20 26 46 92
61 63 80 19 34 73 86 13 53
32 93 92 25 89 77 63 40 93
66 83 18 41 84 11 11 46 63
2.12796
1.57409
0.709861
0.752613
1.61071
1.11361
2.21213
1.04257
2.44005
2.42717
1.30411
1.81296
1.34241
1.88814
0.585785
2.37908
1.72295
2.15897
0.99102
1.62588
1.22945
0.662065
1.69502
2.3903
0.903819
1.06395
1.47475
0.846234
0.975702
2.09917
2.0483
1.1198
2.49383
1.57376
1.06562
2.42226
1.49297
2.37435
0.902734
1.49314
0.815265
0.915137
1.69058
1.16896
2.01952
1.01177
1.76939
0.606603
1.64525
1.77239
294 243
196 144
24 17
259 86
100 410
151 281
360 140
103 235
490 304
66 300
484 45
38 479
370 370
33 103
319 473
287 459
436 213
176 108
143 390
263 138
293 9
409 381
342 149
312 49
284 36
278 113
187 304
240 165
354 45
176 297
447 354
247 417
25 65
392 273
456 393
141 76
303 150
70 51
122 10
419 280
280 479
188 73
56 407
73 50
438 212
256 11
30 321
34 79
20 490
453 290
4483.33
3
