50
9
0 0 0 0 0 0 0 0 0
46 73 88 10 13 68 52 93 42
10 47 60 30 35 14 86 13 53
31 45 94 61 92 24 40 36 48
66 96 88 19 92 53 96 25 46
17 71 57 83 19 21 67 50 58
99 61 86 88 40 86 10 63 76
87 88 30 58 36 38 96 85 55
97 87 32 94 79 54 96 40 13
21 67 16 61 88 91 44 67 52
56 40 65 87 76 94 40 23 28
17 54 70 32 47 28 45 54 64
90 89 42 17 85 11 69 65 96
61 13 56 52 50 26 71 65 10
89 94 13 99 28 61 98 26 68
40 93 45 19 76 93 74 87 21
26 33 19 26 56 24 45 88 36
98 94 11 81 88 85 86 40 78
34 76 77 45 40 37 94 88 57
73 84 75 52 95 74 37 38 92
10 82 67 60 22 52 75 56 68
89 38 93 53 79 66 30 68 59
13 12 54 70 44 14 27 53 12
12 81 45 39 25 91 70 100 93
25 29 50 80 31 82 88 73 12
95 74 87 15 53 11 50 27 45
44 22 40 62 76 71 66 77 70
69 26 19 68 39 99 29 75 66
68 73 89 51 31 50 57 11 71
32 84 80 52 59 12 34 25 67
31 63 35 80 39 14 100 18 19
38 77 29 42 39 55 12 10 13
37 42 53 67 20 88 47 90 20
22 70 11 49 63 38 13 97 11
74 43 99 66 57 52 63 17 60
28 15 18 68 11 97 47 13 96
85 22 39 21 46 97 86 61 73
75 27 39 63 36 37 96 97 57
25 13 50 49 64 31 92 48 51
77 70 47 43 43 76 52 22 75
75 63 27 71 12 61 30 50 82
37 18 49 70 65 74 42 95 41
85 27 54 71 44 18 12 33 45
45 52 94 12 55 43 88 38 31
22 50 19 23 75 76 93 28 32
79 31 73 72 16 42 78 42 28
10 84 50 27 90 96 92 21 88
62 51 31 99 38 98 38 88 20
66 16 35 69 98 96 66 100 33
31 10 16 18 29 45 51 10 19
0.226923
0.91896
0.948454
0.492959
0.503939
0.634946
0.698081
0.279893
0.443209
0.818942
0.860965
0.346678
0.390159
0.218044
0.436546
0.597309
0.844525
0.7945
0.762101
0.22366
0.426055
0.336478
0.802385
0.651031
0.925107
0.63856
0.727009
0.55721
0.612381
0.734901
0.968637
0.924425
0.712271
0.520579
0.852247
0.33534
0.770416
0.282964
0.824032
0.738882
0.348849
0.708485
0.993688
0.94079
0.294797
0.747394
0.789327
0.512336
0.6266
0.908152
68 63
446 241
304 35
81 77
283 97
468 96
73 281
142 90
179 93
15 32
440 270
457 367
347 57
114 123
287 48
159 103
58 1
487 57
367 64
191 390
303 49
344 239
38 337
332 8
391 334
491 75
39 65
239 158
466 471
455 12
181 163
161 104
456 355
146 288
488 341
11 59
142 255
399 185
161 326
308 411
56 409
212 136
160 323
18 200
287 106
307 351
489 358
422 155
321 474
488 207
3285
4
