50
3
0 0 0
20 36 75
79 39 51
26 100 86
20 95 84
58 52 27
42 59 27
85 89 70
48 54 52
57 73 65
27 96 61
71 47 75
85 62 31
96 29 87
16 49 63
59 75 42
91 94 83
37 55 89
43 35 24
38 55 77
56 12 40
30 82 87
49 96 39
51 35 79
98 67 48
87 69 54
68 18 85
36 38 10
68 62 87
22 37 77
24 18 66
64 90 89
74 79 16
65 13 48
97 35 35
35 46 79
44 50 11
10 49 49
53 64 69
99 52 24
86 17 68
17 85 99
73 79 23
100 73 99
78 22 78
66 31 17
44 42 38
65 12 75
26 50 29
93 14 77
0.380293
0.157574
0.27465
0.364222
0.192949
0.239301
0.417303
0.215169
0.3557
0.123216
0.364328
0.353581
0.405769
0.273447
0.181193
0.234161
0.275101
0.411728
0.318014
0.494722
0.405369
0.197685
0.295117
0.270854
0.151686
0.492202
0.47339
0.308595
0.485136
0.145719
0.377284
0.225548
0.107499
0.235575
0.408358
0.268405
0.114646
0.319367
0.160207
0.379718
0.223867
0.35224
0.319338
0.122374
0.207477
0.41089
0.188123
0.330609
0.224448
0.301454
271 489
487 23
36 319
337 180
110 205
0 342
270 425
479 421
441 253
460 318
174 448
386 110
156 64
483 441
247 85
258 117
3 256
299 259
379 143
82 293
131 396
221 447
165 461
206 132
313 2
353 272
338 59
458 233
79 325
190 177
269 173
443 158
188 267
54 253
129 438
164 248
215 204
294 30
120 398
129 19
17 485
427 167
276 325
148 392
363 319
121 362
499 258
394 191
249 29
92 137
2757
5
