50
11
0 0 0 0 0 0 0 0 0 0 0
36 46 22 53 29 32 41 26 70 60 39
98 30 59 44 37 47 58 75 78 69 84
18 94 23 42 52 69 27 83 17 13 73
15 75 35 88 13 41 94 90 16 21 16
99 63 52 45 85 83 35 23 46 50 51
25 23 76 80 79 51 81 31 38 94 39
25 55 96 76 86 57 43 68 34 12 75
45 38 48 32 62 97 83 71 95 80 61
93 63 52 98 44 20 34 84 67 52 11
13 28 18 50 61 13 42 16 91 98 55
48 38 34 42 54 61 84 54 65 67 38
98 29 74 28 69 75 75 70 52 19 11
86 64 57 16 56 49 76 13 38 95 62
55 90 38 62 99 22 14 24 86 66 32
72 92 75 25 60 80 15 79 43 89 16
40 49 56 90 97 29 12 49 48 47 78
27 78 24 16 19 74 26 47 40 93 14
43 30 54 28 38 12 31 93 23 94 60
63 66 53 68 85 34 44 28 100 30 62
73 65 99 74 59 70 77 27 29 30 90
31 86 90 65 72 27 63 32 45 45 99
72 10 55 31 25 77 89 16 81 95 55
20 46 12 65 85 69 99 33 60 14 63
49 83 79 60 48 56 91 52 18 95 73
15 77 25 66 27 63 48 38 42 68 78
59 80 87 24 36 75 40 18 42 100 92
95 71 59 98 66 79 19 44 51 24 44
10 33 88 20 13 57 19 61 36 71 20
100 56 20 83 23 48 40 81 39 98 44
41 71 38 27 88 56 53 18 67 17 33
86 87 63 73 16 93 67 44 13 66 34
97 56 74 65 87 45 13 48 97 72 88
19 73 46 37 52 38 60 44 97 64 43
10 65 70 53 44 39 62 99 88 17 52
88 53 18 46 39 50 72 70 86 93 22
86 99 14 93 36 39 10 72 53 63 36
54 67 14 41 20 41 64 90 93 89 64
48 56 93 32 39 72 26 80 19 59 94
97 96 73 55 24 74 31 46 49 61 68
17 26 19 53 80 60 80 28 72 18 76
63 36 93 70 94 37 76 70 15 52 48
77 24 66 86 91 50 93 24 43 21 60
21 91 98 42 18 80 25 67 58 67 25
65 24 47 55 90 46 74 16 66 59 60
21 37 81 54 37 39 85 11 67 36 52
13 100 85 61 61 54 35 30 26 84 10
53 71 28 28 35 88 67 69 50 79 71
79 61 52 13 40 56 92 54 48 83 65
95 85 66 21 62 24 79 61 67 13 39
1.07978
2.44991
1.14067
2.14871
2.26925
1.18831
1.36287
1.37914
2.29901
2.49543
1.86834
1.26593
1.6233
2.15727
1.99391
1.20827
0.832736
2.44728
2.40015
2.02213
0.561116
1.4455
1.2169
2.11461
2.25836
0.868339
2.3122
2.48285
2.15283
1.26983
2.48419
1.48616
1.54454
0.985278
2.24101
2.34539
1.38699
1.65975
2.04511
2.08347
1.21177
0.876874
0.790291
1.64307
0.909119
1.84645
0.981955
2.0238
1.28577
2.47493
468 215
447 160
499 372
191 109
234 376
33 372
420 398
459 443
254 314
244 273
232 231
366 441
11 210
237 94
48 265
76 191
345 242
250 441
129 499
233 312
291 95
130 120
243 364
230 207
162 145
307 308
382 466
438 356
54 123
283 340
462 439
338 280
363 160
78 407
6 368
5 364
308 307
21 378
212 30
496 417
182 419
297 386
348 312
208 471
257 358
384 190
167 64
438 483
358 104
164 172
6682.5
2
