50
3
0 0 0
60 38 74
11 56 45
26 57 38
17 82 51
60 52 26
96 90 52
43 85 17
88 40 84
52 41 80
22 49 67
22 46 31
44 12 16
86 47 44
100 92 43
57 24 32
54 94 75
45 57 73
12 17 62
25 100 44
83 76 38
18 47 70
81 24 13
26 31 41
99 74 40
82 93 57
56 39 94
62 94 16
98 18 47
63 12 92
97 93 72
65 48 63
76 22 80
37 80 64
14 16 23
77 12 52
48 54 23
13 23 100
76 60 66
89 30 29
69 19 14
67 30 48
37 62 64
28 60 18
77 71 14
100 66 97
93 47 55
58 19 79
44 78 94
75 39 29
1.99089
1.39631
1.20225
0.826464
0.685364
1.00345
1.75833
1.69144
0.835912
1.80193
1.95939
0.593637
1.17041
1.74904
1.86814
1.86956
1.08264
1.0558
0.612091
1.47969
0.696695
1.0349
1.20374
0.971802
1.40497
1.59455
0.54385
0.608221
1.70058
1.43474
1.50416
0.474788
0.512449
0.63103
1.08515
1.47677
0.694374
1.48108
1.77581
1.90498
0.720982
0.713427
1.71908
1.06615
0.848938
0.747493
1.95829
0.928595
0.830854
0.559409
159 47
269 36
2 7
405 250
437 365
32 410
162 443
181 221
376 497
383 306
189 419
272 146
480 227
455 130
157 112
366 5
499 439
113 190
41 242
104 204
468 457
310 66
453 62
304 475
145 456
319 408
301 120
395 156
8 425
96 284
156 246
47 406
226 358
174 227
392 356
9 67
86 480
310 407
455 303
414 450
95 36
90 176
419 350
339 492
464 263
333 280
280 132
238 398
277 114
154 462
6575
2
