50
9
0 0 0 0 0 0 0 0 0
81 84 15 22 42 28 97 76 12
87 44 64 99 68 19 17 78 69
59 63 25 84 71 50 27 32 13
21 62 99 98 80 26 13 83 60
66 10 100 41 83 88 67 18 20
16 53 64 36 16 21 34 73 23
87 95 75 30 28 45 100 34 31
81 33 20 71 16 51 49 48 87
11 57 67 18 18 20 76 15 97
25 71 43 58 34 68 42 99 37
57 63 10 68 62 65 88 71 19
34 13 11 44 12 54 10 17 57
26 72 78 77 43 10 41 57 94
93 68 47 14 69 54 17 20 88
44 80 23 15 100 96 36 55 55
28 53 66 73 33 73 34 41 31
95 47 59 36 38 70 81 14 32
98 12 94 92 81 84 26 71 19
79 65 40 49 27 22 17 95 90
79 61 37 95 93 31 42 45 89
25 62 85 29 89 50 56 70 70
96 79 42 14 44 87 66 25 85
40 62 50 44 78 25 65 11 52
35 75 95 90 94 59 94 93 99
37 100 94 42 88 62 30 21 88
82 52 69 79 25 100 78 62 17
33 14 53 44 50 22 22 100 89
48 34 17 76 61 20 57 77 26
12 43 82 92 19 49 33 21 57
12 96 80 30 18 96 81 93 65
16 82 88 34 33 93 50 37 51
66 47 43 60 57 64 87 48 88
18 36 44 66 94 43 50 86 92
36 52 19 47 57 23 65 33 65
71 20 26 68 75 83 88 49 15
45 32 43 11 94 35 81 19 35
24 16 18 89 85 21 68 29 47
29 59 21 64 36 86 54 27 63
40 47 35 83 92 23 85 40 33
72 11 11 67 86 83 36 25 97
88 18 59 100 21 17 59 15 44
11 31 39 39 21 16 54 96 79
56 71 69 88 63 97 31 94 40
42 45 65 34 29 65 82 67 75
94 47 68 25 86 54 71 27 62
94 78 88 40 94 100 69 47 39
57 59 55 18 92 22 85 99 99
95 60 77 84 52 18 14 61 99
30 40 14 26 32 64 90 25 31
1.44788
0.914091
1.47523
1.47538
0.519658
0.497978
0.711885
0.727787
0.44404
1.07168
1.41281
1.09563
1.3747
1.00843
1.11338
0.632035
1.22003
0.880522
0.833164
1.10069
0.760766
0.869148
0.909555
1.26615
0.533286
0.812952
1.07111
1.28348
1.05707
0.752167
0.583095
0.891458
0.920858
0.786218
1.43381
0.46768
0.605796
1.15745
1.27756
0.756252
0.716836
0.728171
0.537882
0.949533
1.33024
0.415117
0.487155
0.347782
1.38475
0.377614
398 411
83 471
462 71
67 135
356 490
68 413
459 220
40 487
269 454
377 488
65 144
395 16
404 11
21 442
117 363
143 83
458 278
115 320
150 141
225 42
79 27
260 121
301 76
136 309
328 319
368 288
383 443
209 281
408 70
456 194
177 289
103 391
205 86
342 93
204 339
23 102
368 420
486 325
327 28
276 106
443 387
332 128
495 45
475 15
358 8
369 184
289 349
488 177
452 423
73 285
3311.25
4
