50
9
0 0 0 0 0 0 0 0 0
13 40 39 84 20 77 75 89 80
46 46 95 59 56 86 97 90 31
92 33 90 84 91 87 44 19 22
93 58 32 51 15 85 49 99 14
93 34 76 20 91 23 83 83 56
87 98 65 86 61 65 54 42 54
56 74 65 100 23 52 81 57 87
14 74 10 86 13 82 15 28 13
17 66 33 91 63 96 48 67 31
96 65 87 62 48 77 25 72 49
35 40 73 53 32 25 81 69 32
20 36 55 76 70 35 77 70 17
19 66 88 78 71 12 92 14 56
63 97 77 22 72 25 41 12 16
47 66 62 61 92 93 29 87 68
22 81 42 99 59 67 98 84 50
39 25 11 28 83 50 25 38 54
82 77 65 85 43 87 53 36 52
31 67 99 47 76 22 72 100 78
73 85 40 35 70 61 45 15 49
60 55 94 65 68 74 64 23 30
41 36 88 30 81 24 96 62 51
50 93 77 81 26 63 29 90 11
93 91 14 54 52 24 22 52 94
48 66 86 19 10 93 63 54 47
26 49 70 20 17 32 100 29 57
14 14 46 13 48 74 13 10 31
77 20 62 61 98 68 95 64 38
65 36 27 31 87 55 67 84 25
88 45 24 77 94 28 35 64 15
94 50 74 92 25 80 10 21 64
42 64 37 94 85 50 41 83 61
39 74 12 21 83 71 89 49 66
80 59 90 32 88 72 73 34 50
62 91 93 35 21 57 32 23 65
42 38 18 44 87 71 89 54 31
57 10 79 33 45 78 48 66 89
38 60 21 66 62 47 41 40 84
26 68 72 27 38 79 64 27 85
100 74 42 44 76 93 79 78 35
74 33 54 21 76 60 15 96 78
28 23 16 16 23 61 95 62 32
13 28 24 18 51 97 10 95 31
66 26 47 46 82 74 31 74 75
27 71 65 62 78 13 62 72 87
99 71 68 40 16 58 64 36 61
15 26 99 71 23 83 81 78 26
25 89 89 89 30 86 51 25 25
39 74 13 21 35 25 12 15 83
0.703288
0.541808
0.480482
0.515398
0.418273
0.965023
0.677183
0.860816
0.375503
0.286483
0.637521
0.935962
0.329552
0.918787
0.945272
0.233772
0.223604
0.302178
0.900823
0.847665
0.982304
0.850607
0.866995
0.516338
0.641889
0.222842
0.470041
0.243645
0.446948
0.884341
0.753166
0.728295
0.477277
0.304687
0.681882
0.986871
0.892981
0.840123
0.575009
0.275228
0.356021
0.312183
0.649143
0.580571
0.212516
0.447488
0.660318
0.29379
0.604975
0.737986
4 256
370 418
314 280
500 466
205 184
294 7
68 104
269 201
59 66
140 125
234 67
250 290
236 316
103 349
41 283
134 398
39 220
468 41
422 330
289 154
184 259
20 333
132 333
236 327
123 364
218 177
356 400
430 296
413 152
301 464
335 285
362 124
257 396
33 56
234 41
121 364
452 473
405 386
447 360
313 421
89 193
315 106
361 457
376 301
26 426
405 475
36 92
44 187
89 344
467 330
13575
1
