50
11
0 0 0 0 0 0 0 0 0 0 0
30 100 13 28 66 46 62 39 83 26 44
37 32 87 86 37 59 15 79 11 87 13
21 18 41 57 57 37 26 99 49 62 64
54 55 100 78 69 92 57 78 54 19 56
13 45 50 82 56 13 32 22 12 58 57
25 53 44 60 29 25 30 12 84 35 73
64 75 33 74 100 88 30 58 89 94 92
80 50 48 96 85 80 39 94 82 70 80
72 89 93 36 34 45 50 29 40 93 12
93 31 25 45 83 20 90 25 49 27 49
65 31 82 92 88 38 87 11 69 27 27
35 68 80 30 25 94 28 60 67 97 96
65 100 80 44 77 19 48 52 74 94 15
99 13 94 59 68 62 21 100 50 59 30
19 88 91 25 55 91 14 91 77 19 92
65 18 26 76 99 76 82 78 30 15 24
41 40 82 18 67 52 22 82 88 22 45
17 62 44 43 85 73 100 93 62 68 97
20 91 57 31 64 43 67 39 83 53 75
13 20 64 18 69 55 11 47 46 77 61
80 38 66 69 27 39 100 95 76 60 99
11 53 58 20 70 70 100 14 77 22 90
76 14 83 82 15 28 65 42 24 65 86
43 14 78 70 74 77 59 14 48 46 88
67 69 18 42 74 78 45 58 49 98 82
14 97 91 32 67 10 42 86 36 49 51
59 55 69 79 52 14 28 78 29 32 94
99 37 23 95 11 34 59 44 51 93 57
78 45 70 91 80 45 21 39 53 87 94
94 42 11 83 57 10 66 92 64 93 49
56 13 76 49 26 56 52 12 39 72 79
44 92 72 88 96 67 90 30 15 69 25
43 94 90 96 16 98 44 82 70 67 63
64 85 50 81 31 90 79 19 35 13 15
43 51 32 78 99 96 29 11 23 89 64
16 97 25 63 90 56 31 18 53 42 52
20 33 22 37 68 29 53 83 59 45 73
86 72 30 94 83 19 36 67 54 14 75
32 40 99 49 11 74 56 37 16 45 50
69 96 74 11 21 26 43 10 94 96 73
90 75 20 60 10 59 33 96 50 36 96
77 52 64 43 75 60 37 38 74 95 18
20 100 24 12 72 84 71 78 87 68 34
48 16 62 32 67 89 47 98 93 83 26
61 86 93 42 84 84 64 72 72 52 64
41 93 33 29 25 18 62 97 64 85 26
46 97 64 68 83 99 90 90 60 94 50
53 50 96 63 18 43 11 84 88 100 49
72 84 35 16 48 83 73 76 12 55 73
0.854723
0.851218
0.497439
0.778876
0.753578
0.362888
0.207277
0.594511
0.59423
0.873494
0.689161
0.826154
0.218785
0.952553
0.201522
0.610794
0.976686
0.942538
0.310984
0.274296
0.719369
0.561434
0.471226
0.748458
0.751912
0.421575
0.691701
0.53078
0.755431
0.4495
0.25047
0.352966
0.659211
0.372274
0.639607
0.466527
0.99114
0.62705
0.808527
0.931075
0.345202
0.694893
0.245042
0.671317
0.404892
0.446869
0.748479
0.494836
0.235375
0.464225
106 426
170 484
190 57
65 427
71 296
114 115
307 68
275 124
76 43
456 257
157 294
172 372
137 135
212 37
290 424
158 399
486 71
333 250
12 326
67 84
353 289
20 434
405 154
448 451
31 64
500 133
434 351
425 179
453 424
260 451
321 494
292 23
434 236
2 177
164 432
1 243
230 482
287 2
12 278
143 272
464 133
245 21
68 289
40 332
173 401
314 163
392 477
422 8
461 406
389 68
3476.25
4
