50
9
0 0 0 0 0 0 0 0 0
27 58 37 57 82 25 47 55 22
77 78 19 65 54 53 62 60 81
69 30 100 38 44 62 84 81 36
81 36 36 64 10 36 16 32 28
76 23 33 11 21 89 14 13 78
66 93 26 55 48 59 20 21 93
87 86 67 83 14 92 33 92 21
50 94 32 73 40 28 95 46 97
100 76 68 66 80 67 33 30 52
28 33 50 74 37 83 14 88 83
12 94 67 46 93 98 68 79 19
67 27 50 41 26 81 33 70 11
59 43 96 25 80 15 37 63 40
85 50 26 19 25 22 54 28 49
12 17 41 94 20 67 100 12 55
37 15 81 84 14 28 74 28 79
72 37 30 43 90 23 22 49 97
93 29 79 42 56 24 43 66 27
62 45 54 34 92 43 21 31 21
46 66 26 97 70 52 76 40 20
47 22 83 85 36 84 45 17 53
66 50 25 37 69 85 31 49 39
58 74 19 79 44 61 95 33 59
22 16 86 41 23 93 35 31 54
22 93 27 15 23 64 52 100 78
62 50 90 38 79 66 51 35 88
98 13 51 60 95 79 64 21 91
23 28 88 34 29 87 30 79 38
51 42 75 96 12 16 17 96 50
11 59 22 85 20 93 93 94 53
27 48 93 31 20 44 79 32 100
40 17 92 61 66 17 100 47 96
88 41 41 56 58 79 39 47 81
89 30 61 68 34 85 23 34 25
14 61 27 62 34 42 85 80 54
63 79 97 78 90 74 19 18 96
50 47 75 65 45 66 47 57 18
87 89 21 34 67 86 47 90 67
81 88 34 71 55 16 19 71 85
15 39 41 98 99 92 45 15 97
40 96 86 62 100 51 44 95 40
63 83 59 87 95 31 97 51 90
35 58 41 35 17 75 16 17 82
98 74 70 95 30 45 34 48 32
24 58 22 47 60 92 67 82 46
58 49 89 44 35 65 50 90 63
80 42 96 43 60 68 72 21 95
41 54 80 70 24 53 81 12 58
80 77 81 63 68 83 85 79 44
1.8927
1.04405
1.822
0.613259
0.578021
0.494342
1.45715
0.727623
1.99067
0.621585
1.45795
1.64614
1.53742
1.54713
0.810125
1.66023
0.502802
1.71592
0.561759
1.43503
1.12561
0.980554
1.35124
1.86441
0.410638
1.45804
1.24092
1.52007
1.51401
1.87991
1.21889
0.484078
0.523743
0.677894
1.17752
1.09108
0.869815
1.17449
1.02377
1.55264
1.76768
1.40155
1.6376
1.7129
0.495952
0.959574
1.06354
0.408522
0.944136
1.28428
248 439
136 261
117 306
136 260
108 42
84 274
93 317
327 214
423 24
188 369
120 101
50 66
199 279
479 104
321 362
364 201
481 291
474 490
26 434
469 124
259 251
196 296
162 411
407 219
76 139
11 142
102 56
340 142
3 285
274 137
240 220
344 497
31 54
440 263
216 197
377 213
94 39
355 16
45 297
321 397
250 170
270 59
123 255
205 450
206 381
334 177
398 138
29 74
33 358
51 141
2702
5
