50
5
0 0 0 0 0
13 83 59 27 94
63 34 35 44 56
51 31 80 16 50
92 97 98 19 90
43 90 54 65 88
26 90 84 46 62
52 43 56 91 96
16 86 91 52 29
29 98 31 100 55
50 24 97 38 90
72 52 96 21 48
71 48 58 47 18
95 51 81 38 29
74 36 75 31 52
27 32 62 84 12
84 76 74 68 17
96 40 63 42 71
66 52 53 77 93
38 88 39 19 90
57 65 55 61 56
57 63 63 86 48
100 78 53 63 99
33 12 40 62 12
36 47 100 23 78
85 77 22 27 64
85 43 17 69 86
65 78 22 62 24
83 52 62 100 51
80 42 90 45 79
95 35 23 74 33
95 17 53 21 70
92 97 79 71 99
93 75 97 28 99
60 74 41 72 20
59 43 98 25 56
30 96 96 66 75
23 96 38 68 37
98 53 53 46 48
40 20 73 81 67
79 88 30 56 70
27 93 53 48 41
20 68 66 49 26
72 30 10 65 77
41 13 78 38 84
40 22 52 40 74
59 95 66 42 95
48 18 63 98 42
47 61 37 16 30
75 63 66 96 43
0.486968
0.795605
0.527091
0.51731
0.974364
0.682948
0.270495
0.907653
0.60219
0.921658
0.92405
0.341661
0.89596
0.293643
0.731299
0.899691
0.825868
0.418483
0.212808
0.893345
0.928258
0.872882
0.814446
0.579108
0.351336
0.981488
0.74308
0.623792
0.978624
0.406831
0.812824
0.54051
0.725774
0.413791
0.485163
0.476317
0.633766
0.260791
0.956234
0.514067
0.504694
0.437887
0.880486
0.68947
0.690445
0.811625
0.861569
0.5552
0.48359
0.216498
242 359
266 376
460 169
109 108
404 339
16 356
298 11
105 188
411 206
446 239
42 33
448 433
406 114
483 316
391 71
325 47
228 328
66 12
249 170
377 68
164 96
252 455
256 438
19 318
355 110
354 2
337 414
181 365
188 464
10 95
385 172
266 6
112 75
129 154
424 61
60 3
99 134
16 192
227 250
399 113
162 109
223 55
487 491
93 172
114 107
410 232
250 303
137 338
223 136
375 121
14325
1
