50
7
0 0 0 0 0 0 0
27 33 83 26 96 58 15
71 13 27 18 95 83 100
35 33 53 90 25 52 93
56 98 92 65 85 60 44
16 40 76 54 31 39 83
13 12 28 66 73 64 63
23 50 47 48 68 37 16
85 79 70 61 67 55 94
41 34 90 32 76 97 19
85 61 100 13 99 69 28
91 51 34 48 86 21 91
21 97 82 23 81 24 62
30 64 95 44 17 13 57
16 57 85 21 89 15 20
31 41 63 21 13 73 60
44 42 70 74 92 68 72
65 75 13 89 74 93 51
44 100 21 26 44 18 20
41 63 86 61 79 79 10
92 41 22 64 95 96 44
76 80 34 87 77 24 41
53 63 99 18 12 97 25
13 87 61 100 56 79 63
83 70 17 83 61 59 14
70 68 76 59 95 39 11
90 71 49 43 42 12 58
80 18 69 95 63 27 44
52 44 32 90 40 40 87
67 57 54 36 78 63 48
74 88 93 42 84 36 63
62 73 69 32 34 79 77
23 12 79 35 45 23 69
83 24 27 90 81 13 94
90 93 42 88 28 45 97
66 50 73 79 27 55 58
49 73 39 30 98 87 85
78 93 46 19 33 92 95
59 86 47 14 60 78 62
67 84 28 24 84 13 70
98 88 75 72 23 21 16
94 67 38 21 71 12 89
90 63 90 55 50 65 42
68 55 89 26 64 17 88
86 53 86 50 96 44 25
30 30 87 54 45 57 76
98 13 72 94 26 63 84
80 65 59 78 23 27 21
32 98 76 25 23 44 77
29 58 36 95 47 69 22
0.55092
0.939927
0.744531
0.82438
0.419084
0.971765
0.897585
0.76185
0.888419
0.329845
0.402887
0.917184
0.7012
0.681177
0.728456
0.51533
0.522727
0.654708
0.417438
0.760282
0.905769
0.655362
0.965593
0.872389
0.824593
0.351747
0.916115
0.517279
0.488061
0.660349
0.624391
0.475677
0.282118
0.92842
0.774013
0.916209
0.834227
0.415404
0.428208
0.218117
0.636464
0.261658
0.835623
0.313879
0.258889
0.935681
0.700495
0.468256
0.553865
0.529782
138 405
361 414
246 60
180 177
391 172
499 58
146 438
338 126
470 478
196 485
417 146
290 343
478 198
56 236
11 474
457 216
31 234
118 361
298 379
203 336
326 164
414 319
220 138
444 495
359 270
19 446
368 100
75 335
73 254
130 358
7 245
359 460
433 429
433 496
297 252
60 88
485 238
209 281
413 22
468 199
497 457
237 280
119 219
285 374
366 432
73 475
19 346
44 183
185 363
498 136
6970
2
