60
11
0 0 0 0 0 0 0 0 0 0 0
10 39 33 83 12 58 37 10 13 22 33
43 43 32 44 43 12 32 43 59 39 91
85 58 87 86 52 29 75 24 78 77 19
34 20 99 82 32 45 67 18 58 76 28
75 51 49 15 56 76 34 36 82 27 60
79 49 21 17 95 94 80 47 43 64 49
81 37 88 78 91 28 52 29 71 40 83
48 91 74 99 25 78 19 39 89 75 20
35 10 90 54 67 10 92 89 91 37 27
66 33 73 55 82 60 13 21 24 17 35
45 50 44 38 52 18 71 80 14 28 23
14 18 31 57 29 51 95 66 91 47 93
64 53 95 66 73 56 77 66 36 56 63
26 56 19 68 30 26 84 61 14 72 83
78 80 34 73 69 78 67 67 85 16 95
73 78 83 43 99 70 53 84 64 43 73
90 11 66 16 61 79 59 22 50 30 96
80 43 38 54 48 60 34 90 48 32 99
33 64 75 18 31 53 65 29 28 64 34
65 95 21 84 47 94 92 86 23 20 28
64 16 58 46 55 43 39 52 11 63 70
20 19 36 83 41 40 64 70 98 60 87
34 61 31 59 83 88 33 49 97 77 33
93 27 53 43 22 24 45 63 98 83 39
10 27 45 96 61 23 68 89 86 24 92
76 70 39 98 61 79 90 51 68 59 20
69 47 46 87 35 24 71 47 55 64 49
46 30 47 99 98 93 10 90 42 95 84
84 91 40 94 55 72 18 87 51 92 62
77 87 26 87 11 89 79 14 59 79 18
19 17 17 100 94 82 75 99 89 19 44
30 76 69 79 51 43 10 75 42 29 15
64 44 38 43 61 71 82 21 63 86 75
38 100 48 17 39 39 73 46 35 32 13
79 25 98 80 82 45 28 53 93 50 24
95 93 30 83 23 99 35 40 32 84 91
92 57 84 34 73 65 66 97 14 32 35
28 29 13 57 73 82 96 83 72 74 99
74 81 69 11 68 45 12 50 23 76 87
16 35 41 71 55 94 36 59 14 69 40
90 32 96 42 59 75 39 23 10 31 80
39 99 80 67 93 75 63 80 20 53 61
21 68 80 15 23 72 57 41 61 76 20
61 13 38 41 85 48 79 96 23 19 12
68 100 63 59 31 72 63 21 33 15 79
92 41 73 81 85 60 76 88 42 12 70
10 70 81 81 10 90 74 40 22 19 25
60 46 28 59 55 63 81 12 11 20 57
80 42 13 60 28 19 60 36 22 85 93
30 91 21 13 52 81 50 56 25 25 18
30 40 64 29 15 60 64 77 62 71 77
28 47 67 84 54 29 12 43 25 30 56
98 68 51 72 77 79 93 44 52 43 83
39 87 60 77 90 53 55 42 34 66 38
70 50 16 79 23 57 37 32 11 90 28
30 54 40 10 100 48 36 47 82 46 33
81 92 40 86 56 66 16 61 12 36 52
57 11 79 95 92 55 68 35 50 62 24
45 36 16 50 99 16 34 48 90 86 83
0.256587
0.901088
0.635157
0.870045
0.326269
0.848214
0.3593
0.361781
0.372191
0.287543
0.471575
0.543484
0.560419
0.858339
0.39474
0.871849
0.524951
0.831857
0.50764
0.310506
0.608833
0.491006
0.384212
0.930419
0.880083
0.920433
0.527389
0.480774
0.302844
0.772095
0.731507
0.659406
0.963812
0.231731
0.885898
0.624398
0.210564
0.502312
0.835294
0.808633
0.286044
0.848201
0.241623
0.502889
0.878938
0.38637
0.297023
0.721946
0.844379
0.560552
0.578838
0.631141
0.8917
0.457566
0.758485
0.544688
0.348314
0.350298
0.551009
0.721485
350 236
202 312
192 22
194 434
232 366
499 92
385 343
365 280
121 286
356 368
168 137
250 453
231 260
373 46
155 80
151 295
38 413
38 441
3 104
161 181
430 190
481 33
296 63
381 497
5 169
160 245
88 436
329 288
225 317
273 335
224 76
322 208
246 154
147 276
57 133
110 80
242 296
307 187
427 230
406 304
205 325
80 424
311 8
146 38
391 189
59 109
282 66
263 350
27 406
273 93
20 214
206 95
346 496
201 468
254 150
437 184
451 463
11 458
378 413
304 230
3217
5
