60
5
0 0 0 0 0
44 73 27 31 34
73 26 21 18 14
38 94 85 38 16
61 34 51 65 44
57 94 73 57 71
51 16 79 61 49
29 41 97 65 12
60 73 13 30 97
83 51 10 43 98
25 52 73 10 72
74 100 87 26 17
86 99 21 80 67
75 77 97 94 38
21 61 98 10 90
79 58 60 31 61
34 35 20 15 79
86 75 40 45 26
64 88 15 63 53
95 100 61 24 49
26 12 71 91 51
68 10 77 53 37
54 92 76 21 44
67 39 60 81 72
18 14 13 81 27
81 92 41 16 51
99 87 28 65 82
12 57 19 75 36
29 59 56 64 12
27 76 13 70 93
40 67 47 54 39
50 85 95 10 84
32 53 20 45 92
66 65 83 64 17
94 68 10 69 65
90 11 25 89 63
16 94 86 37 25
32 24 49 58 28
84 64 25 61 66
20 27 35 25 14
44 30 24 14 47
51 83 52 43 83
48 46 70 75 92
58 67 99 61 37
92 18 92 79 61
28 18 38 36 27
26 82 58 49 82
50 88 86 47 14
29 46 53 47 45
83 94 82 62 25
32 88 51 98 71
38 60 56 38 84
88 13 58 82 76
49 55 100 83 21
33 18 12 55 77
22 91 77 59 43
93 97 36 48 24
84 54 29 41 56
51 43 17 97 92
50 43 76 20 46
0.170682
0.198981
0.185916
0.174549
0.405145
0.461907
0.121773
0.431587
0.2967
0.15862
0.402348
0.334042
0.145392
0.451174
0.185568
0.266965
0.173527
0.104942
0.498826
0.441778
0.42423
0.198661
0.155169
0.234011
0.292121
0.328782
0.323392
0.145698
0.183964
0.317689
0.209524
0.28982
0.39741
0.337602
0.278183
0.358388
0.180619
0.375849
0.220129
0.465205
0.457829
0.396499
0.382713
0.285966
0.143295
0.348195
0.179925
0.437162
0.486433
0.121635
0.233587
0.223737
0.338363
0.423956
0.34724
0.362431
0.126302
0.333944
0.484158
0.206819
175 339
166 372
491 49
463 388
89 283
289 37
0 398
193 440
291 277
100 112
406 156
346 6
367 158
393 296
240 329
261 402
155 185
207 294
487 384
487 188
63 415
448 494
267 464
291 366
464 137
474 82
378 192
226 227
398 128
149 350
78 471
243 240
15 166
78 409
180 175
372 374
148 187
334 335
376 368
37 389
353 310
396 123
308 108
487 343
230 366
130 242
362 275
215 491
229 313
66 260
201 71
153 29
273 258
411 372
378 446
352 56
481 12
272 150
381 134
413 403
3189
5
