60
7
0 0 0 0 0 0 0
65 83 77 73 41 89 76
91 71 47 46 37 24 20
22 86 29 77 60 88 23
30 18 58 32 15 32 40
95 18 88 54 18 40 97
87 77 59 36 77 83 14
71 54 80 59 12 54 23
13 75 100 31 17 100 32
30 44 83 58 16 20 36
14 13 91 95 14 61 88
15 71 10 44 96 75 12
56 85 99 72 40 51 50
12 21 88 38 44 47 84
63 33 31 89 28 44 95
43 92 77 71 54 43 86
71 43 90 78 69 72 55
65 29 82 63 75 39 91
93 39 14 22 27 97 52
63 43 95 54 96 35 85
53 50 41 43 97 11 61
47 37 42 29 43 61 76
84 27 58 26 85 14 80
43 29 75 65 90 23 44
70 29 49 55 38 65 59
31 13 84 28 63 70 43
61 27 41 91 30 30 47
40 62 54 10 53 91 98
81 45 29 67 94 22 89
91 51 12 24 38 57 67
100 58 77 76 72 47 63
37 47 61 51 23 82 79
51 85 94 100 39 84 48
77 91 22 74 39 42 74
55 96 73 64 82 21 22
43 55 56 44 87 88 10
93 96 22 28 47 33 85
87 100 24 11 16 54 36
24 26 77 76 61 54 24
50 66 40 11 44 17 95
89 75 70 16 94 58 78
45 17 18 30 69 22 79
16 44 86 16 65 39 97
93 26 63 48 13 43 49
43 98 49 16 27 61 18
91 21 13 26 71 70 32
18 74 97 59 87 53 72
60 76 91 71 55 45 59
51 27 92 29 59 98 77
57 31 24 69 78 36 78
31 71 80 87 38 11 48
19 71 25 74 100 98 41
54 88 94 22 10 15 62
68 82 54 33 66 61 50
52 34 51 44 99 53 93
68 49 34 96 100 94 41
59 10 75 24 73 48 97
14 48 89 41 47 27 43
92 73 45 56 31 71 34
25 59 36 89 98 48 56
1.29419
1.55492
1.2366
1.38618
1.86063
1.29776
0.494329
1.45755
1.47845
1.95633
1.75575
1.36646
1.40359
0.858233
1.96707
1.66403
1.88807
1.31356
0.854767
1.03838
1.35731
0.698512
0.745239
1.83525
0.619122
0.859982
1.17335
0.989761
0.633008
1.1205
1.45552
1.05622
1.19237
1.04747
1.63769
1.10322
1.25561
0.492907
1.11271
1.92687
1.27303
0.483888
1.45191
1.64971
1.18948
0.732602
0.852194
1.20794
0.971198
0.508245
1.53151
1.76223
0.884515
1.54444
1.89868
1.64157
0.719479
1.80545
1.79793
0.553232
338 349
3 357
154 181
63 358
18 86
471 399
205 146
192 26
211 290
171 182
158 465
270 105
73 406
174 129
382 323
124 192
357 412
108 442
345 243
269 465
492 199
105 46
210 412
162 395
307 375
14 382
124 261
343 256
198 406
241 240
252 142
255 96
270 74
423 321
299 21
340 174
298 88
182 269
223 121
329 487
284 372
226 209
373 220
410 436
288 486
105 293
242 229
426 108
420 281
49 307
377 244
34 66
26 180
114 359
404 142
226 9
277 159
459 92
156 18
144 176
4067.5
4
