60
5
0 0 0 0 0
52 83 37 54 27
34 81 81 10 100
50 48 16 60 69
97 65 57 82 42
48 50 26 55 42
77 67 69 77 96
77 17 11 64 63
10 26 42 18 64
72 55 96 82 32
67 71 100 35 12
29 53 48 75 18
59 90 25 49 79
66 34 12 15 37
55 49 61 10 48
18 36 39 69 11
22 28 80 80 34
75 90 24 61 20
26 99 49 96 33
40 73 82 38 23
39 77 100 71 37
33 15 34 40 53
92 25 63 32 26
88 98 97 95 70
66 54 84 14 25
67 45 91 19 83
97 52 95 44 27
83 40 36 22 78
88 49 13 44 62
89 56 62 25 21
74 20 42 10 20
50 70 40 94 53
68 34 18 61 20
22 76 80 95 27
13 87 35 99 31
31 58 33 47 36
94 72 94 81 20
33 78 16 91 22
83 74 83 27 94
12 68 66 25 46
38 43 37 51 73
13 34 35 90 59
22 18 68 62 68
36 54 85 92 26
45 38 28 50 89
73 15 70 22 53
23 84 49 78 59
35 48 26 32 28
42 75 31 24 82
77 90 55 64 32
69 92 53 28 96
91 47 76 76 26
53 43 64 55 20
25 13 92 31 74
84 53 40 15 28
24 12 61 76 15
59 13 26 76 96
98 36 32 18 36
72 88 77 53 52
66 42 14 53 84
0.400617
0.338024
0.465095
0.329947
0.374017
0.278773
0.187616
0.49867
0.315644
0.444844
0.228355
0.44952
0.433851
0.165978
0.289825
0.327662
0.32192
0.277015
0.227892
0.436595
0.159135
0.217027
0.292085
0.412494
0.331517
0.352366
0.452773
0.388878
0.390672
0.152861
0.20219
0.13185
0.395621
0.206691
0.15782
0.287741
0.44055
0.457493
0.128888
0.149358
0.46552
0.320374
0.276839
0.360544
0.22524
0.31298
0.222751
0.322979
0.45373
0.448223
0.128055
0.276533
0.147543
0.131152
0.484109
0.370361
0.17436
0.493871
0.117675
0.261818
44 363
314 436
202 353
355 186
144 433
83 476
326 414
149 134
132 345
25 175
479 85
62 484
454 61
26 48
4 388
467 233
467 280
348 321
327 402
456 221
333 307
361 485
369 187
482 352
147 478
233 462
369 467
402 362
370 208
391 59
276 274
110 168
14 469
285 87
376 145
353 216
303 88
276 257
275 13
115 113
75 284
342 127
454 232
58 39
345 252
151 132
451 98
18 65
74 309
109 437
151 318
447 18
388 326
500 397
440 434
167 31
337 296
249 402
274 293
220 313
3876.25
4
