60
9
0 0 0 0 0 0 0 0 0
47 42 92 45 18 27 35 82 91
21 24 61 13 29 99 87 69 79
55 20 41 61 44 27 42 70 78
44 23 28 24 47 24 86 79 51
51 65 84 22 70 17 18 72 70
51 67 46 46 93 89 54 26 81
37 69 89 41 24 36 12 15 17
67 59 77 61 36 38 69 28 71
62 20 28 24 41 93 44 70 65
50 61 33 29 60 74 36 76 45
54 23 52 19 60 70 47 11 69
35 86 51 67 26 71 72 43 61
18 58 40 40 48 29 28 10 31
75 82 56 45 28 64 51 96 34
72 72 83 21 59 46 94 30 41
21 56 89 82 16 56 99 40 43
60 46 83 55 23 92 29 58 45
55 13 96 88 61 46 94 12 22
99 63 66 92 75 15 24 64 49
94 36 20 39 22 21 69 17 66
48 42 18 51 51 13 65 28 66
18 65 15 22 52 45 89 53 43
45 100 78 37 52 58 90 30 81
69 13 10 28 57 99 54 29 97
82 30 75 43 67 64 57 42 10
68 86 54 85 100 77 87 40 52
25 38 35 57 36 49 75 57 68
54 45 19 15 28 55 42 20 67
61 49 98 67 18 61 26 42 87
19 60 44 38 64 68 60 58 71
37 33 83 17 69 83 73 35 86
24 57 75 51 34 69 76 83 23
72 68 71 40 96 66 38 68 22
87 47 80 10 88 32 83 100 32
98 23 25 57 34 55 82 37 67
29 68 73 44 19 46 88 21 90
43 40 87 49 67 60 15 47 46
62 99 88 65 28 78 70 22 53
58 83 25 81 43 70 59 50 70
76 85 91 72 67 66 64 56 60
22 85 32 88 87 31 86 59 78
77 10 74 88 64 77 83 90 81
23 49 61 53 51 90 77 70 59
20 32 86 72 86 29 98 39 23
75 74 81 76 37 48 18 61 66
100 64 83 39 92 25 90 76 36
13 82 34 64 70 57 29 75 29
26 82 37 87 95 86 65 84 26
54 71 22 52 79 95 84 42 10
100 51 47 71 71 97 14 61 59
21 74 95 86 75 48 40 72 56
20 76 21 84 84 59 17 39 33
68 32 32 92 54 64 34 91 41
33 55 81 74 68 98 85 10 85
26 13 56 83 24 34 67 51 65
55 44 94 34 35 17 72 39 45
28 95 42 21 73 95 80 78 43
36 83 32 98 35 81 91 77 16
40 21 89 31 32 69 100 78 86
1.44117
1.01502
0.71237
0.760769
0.674146
1.194
1.24129
1.14255
1.10565
0.958138
0.647353
0.681634
0.773204
1.1758
0.796625
1.08576
0.402258
0.976901
0.616484
0.820378
0.988624
1.11867
0.653951
0.835093
1.28035
1.46892
0.782998
1.29365
0.766198
1.27651
0.633994
1.29072
0.572478
0.725846
0.680414
0.630475
0.361205
1.0601
0.677917
1.48615
0.737763
0.375118
0.82726
0.58224
1.10569
0.320143
1.15853
0.979757
1.3605
0.702312
0.677563
0.488262
0.388688
0.921823
1.06962
0.536124
0.77009
0.984196
1.03776
0.603824
151 248
237 178
279 383
377 219
115 416
109 171
206 145
12 215
402 310
65 92
214 96
123 283
382 46
172 459
103 380
191 259
279 334
92 264
171 291
407 29
417 365
392 142
290 134
72 370
373 456
414 384
4 133
302 94
413 483
198 39
305 32
2 466
449 84
265 360
296 200
100 1
465 145
227 411
334 103
362 339
125 327
447 463
468 155
492 44
290 334
111 360
139 6
364 101
438 257
38 435
142 192
99 116
230 194
401 373
441 46
335 475
72 447
196 337
339 174
212 220
5428.33
3
