60
11
0 0 0 0 0 0 0 0 0 0 0
92 27 26 80 12 76 63 95 97 99 21
68 42 23 70 39 41 86 16 99 29 14
30 74 98 65 10 88 100 52 80 21 71
72 94 80 24 93 75 75 72 79 89 60
55 13 10 10 31 97 77 14 19 24 92
91 86 66 85 91 87 89 21 20 26 83
42 35 40 62 71 39 80 39 64 25 25
75 68 90 11 93 94 78 93 42 64 93
27 96 91 11 39 26 52 97 76 47 66
39 98 62 57 75 67 15 40 40 22 50
87 42 84 93 100 16 82 92 82 55 37
92 33 94 93 79 28 77 84 31 62 70
86 83 76 37 54 95 82 68 82 57 84
82 16 22 80 14 40 75 77 95 67 39
68 70 97 32 88 68 68 13 29 21 52
44 69 38 14 44 37 58 62 46 15 98
13 84 29 73 91 93 36 84 36 62 70
49 54 28 44 33 87 72 55 45 86 89
45 55 80 41 84 86 13 70 48 86 36
100 20 63 97 42 78 85 71 72 47 88
80 56 44 12 73 56 36 29 86 78 84
64 26 100 49 33 32 49 26 17 29 45
100 85 74 27 46 51 35 81 43 73 39
16 24 70 11 32 67 63 35 47 83 93
71 90 19 88 80 36 89 28 65 22 82
83 31 15 28 89 80 75 58 91 32 55
84 70 43 53 45 85 72 59 18 12 31
37 38 75 15 10 85 60 53 52 66 92
62 76 11 85 70 66 75 93 48 20 61
75 35 56 85 76 39 30 15 75 21 27
90 43 95 32 96 11 15 84 49 70 28
76 13 68 29 74 40 14 22 40 46 82
88 23 41 57 30 49 89 97 13 64 55
30 57 98 16 76 46 28 75 49 40 71
48 76 47 75 19 14 41 68 33 72 81
79 87 38 37 90 100 46 17 13 86 84
35 52 48 63 96 19 14 36 85 59 19
55 32 87 25 78 95 40 96 41 90 74
19 14 57 90 69 63 59 21 88 34 13
19 45 85 93 57 92 41 72 48 86 61
17 94 64 91 71 58 84 44 73 17 28
75 12 75 34 54 21 20 71 74 14 81
23 32 53 36 74 67 78 85 85 71 60
98 17 55 29 74 97 51 66 40 88 57
59 17 82 59 36 20 43 91 23 61 38
97 55 39 80 96 100 32 30 83 51 21
78 21 32 43 58 22 57 95 91 52 10
59 29 25 23 88 72 29 33 83 31 45
36 23 52 94 25 66 50 30 15 65 91
13 90 11 88 99 91 61 15 93 96 40
18 95 26 96 61 53 96 89 37 73 95
17 31 91 65 13 36 71 46 27 31 91
96 74 81 24 70 54 76 19 74 87 28
47 78 68 60 89 13 31 54 88 32 53
73 59 89 55 98 15 31 18 84 94 39
26 69 43 42 25 93 20 88 96 86 75
10 50 94 93 79 55 87 63 53 45 11
17 88 38 10 43 43 28 59 38 46 60
88 88 73 92 79 86 33 40 89 53 86
0.584508
0.417083
0.489609
0.707273
0.993532
1.08758
0.559096
0.898922
0.821361
0.82734
0.931312
1.03939
0.471131
0.525083
1.05802
1.0009
0.844807
0.504729
1.21106
1.23385
1.48917
1.25654
0.711108
0.361779
0.572411
0.98945
0.825856
0.586282
0.583275
0.485664
0.385916
0.525593
0.697084
0.76671
0.522324
0.527574
1.23522
0.672885
1.03698
1.46186
0.763633
0.783794
1.24662
1.22527
0.693794
0.824809
1.09881
0.775424
1.1003
0.557493
1.15142
1.02468
0.514093
1.29277
0.863009
1.09956
0.996656
0.594442
1.27997
0.762728
179 193
214 305
198 234
292 193
347 90
366 179
93 191
499 291
109 38
58 291
128 145
442 213
242 235
37 428
446 98
85 329
153 162
120 141
348 311
352 99
13 474
190 143
23 82
38 342
363 272
143 21
434 117
8 215
329 381
63 204
231 495
472 148
495 246
237 363
108 265
86 72
353 337
98 243
44 410
381 417
385 396
316 178
2 56
25 306
89 276
495 368
470 281
195 52
203 75
469 420
370 188
35 91
372 400
356 292
495 475
309 131
8 38
157 142
270 70
233 231
3364
5
