60
5
0 0 0 0 0
52 16 78 81 22
99 38 68 76 99
22 46 85 47 54
80 92 98 41 35
73 70 60 93 41
11 56 24 15 22
32 86 50 26 11
11 68 41 18 29
87 38 46 94 69
24 68 90 25 96
62 19 19 50 83
80 80 34 12 17
68 32 20 93 20
26 59 48 59 39
22 96 64 33 47
44 14 59 69 46
47 26 19 62 85
94 92 81 71 24
35 27 22 68 16
66 21 12 42 52
63 37 66 63 66
79 72 44 33 91
22 52 12 35 70
79 66 99 58 56
22 69 51 84 64
95 30 75 75 68
77 95 52 51 22
11 41 16 92 51
37 94 31 34 99
27 44 32 16 53
57 99 20 80 88
15 53 46 65 64
94 43 10 13 26
72 12 55 65 16
14 11 24 27 77
47 59 62 19 21
67 24 65 40 79
91 61 20 74 19
12 26 95 51 80
77 83 89 72 69
20 42 57 16 85
51 31 61 21 12
78 37 93 99 44
52 51 76 41 82
27 26 14 48 98
52 54 78 46 91
33 40 44 16 95
79 84 81 41 62
55 69 15 26 73
74 67 68 28 18
90 87 55 58 33
76 73 64 12 21
98 18 79 62 91
94 71 44 27 61
92 75 86 40 67
45 59 28 81 53
84 78 88 71 33
71 82 49 52 58
49 71 16 22 89
0.557418
1.26952
0.948354
1.4665
0.538052
0.865581
1.43536
1.48929
0.804504
1.46004
1.05683
0.86157
0.49979
0.667287
0.548242
1.42561
1.20191
1.04668
0.509208
0.324995
0.872756
0.384643
0.372299
0.800322
0.708604
0.690501
0.497747
0.580893
0.716859
1.43895
1.36673
0.469502
0.707906
1.3113
0.617402
1.29591
0.472866
1.36668
0.571729
0.921454
1.00873
0.568573
0.99713
1.43282
0.634111
0.487738
1.39122
0.861306
1.45241
0.602396
0.892516
0.558743
0.937692
0.564279
0.843376
1.29729
0.436609
0.811274
0.524256
1.02436
260 41
37 16
363 282
318 478
264 154
9 38
87 113
267 357
432 314
236 336
11 468
75 446
398 350
165 219
439 279
148 454
74 268
441 315
494 365
193 33
122 109
157 463
235 363
348 482
499 452
484 358
53 207
256 263
238 251
140 318
227 193
343 339
126 347
46 80
278 261
144 372
159 6
62 166
176 141
396 142
70 226
219 33
373 348
22 37
72 63
126 355
178 383
194 280
254 423
475 177
198 376
205 130
45 160
212 369
124 50
253 113
243 187
155 115
90 398
327 235
3950
4
