60
3
0 0 0
41 81 50
21 63 57
35 95 33
19 79 57
95 37 87
93 57 49
67 92 22
40 94 25
53 27 38
56 48 19
49 92 61
55 37 87
87 15 69
60 12 83
80 65 96
50 96 72
26 70 14
25 19 70
92 36 16
24 24 21
60 93 91
78 70 72
51 79 88
10 34 42
11 46 17
28 87 72
13 14 34
81 25 74
63 98 65
61 88 42
17 52 36
31 45 40
20 25 84
46 71 36
79 68 10
28 66 43
16 42 20
76 74 16
27 51 97
92 10 81
73 31 94
45 38 48
15 72 42
63 51 31
37 73 21
79 64 83
80 68 91
55 73 23
66 79 68
14 68 100
35 94 21
72 57 60
56 56 65
72 58 50
42 75 24
88 100 15
86 41 36
85 85 96
66 75 51
0.347336
0.30816
0.117641
0.449252
0.28431
0.338646
0.444566
0.179489
0.444114
0.342969
0.184787
0.100387
0.442652
0.340921
0.460342
0.384957
0.489191
0.471272
0.449872
0.198221
0.429412
0.37899
0.489346
0.289737
0.38531
0.270337
0.178706
0.357595
0.350951
0.224289
0.134499
0.395754
0.16117
0.221278
0.354754
0.484775
0.442292
0.43991
0.111852
0.142998
0.28717
0.276893
0.371241
0.473926
0.431035
0.259095
0.400021
0.279949
0.133735
0.386175
0.2617
0.271321
0.136555
0.380557
0.194188
0.125229
0.384084
0.300745
0.103259
0.184914
390 174
93 93
455 373
187 111
379 323
437 195
231 168
11 271
277 188
101 138
358 280
88 114
257 191
230 297
87 305
329 210
229 47
454 166
69 9
113 136
433 366
323 265
394 488
476 171
335 382
182 321
385 234
265 159
30 157
307 102
474 36
390 216
281 38
18 130
406 401
452 56
275 340
242 409
368 311
25 276
477 238
397 250
312 164
271 88
398 101
136 200
471 111
238 38
446 159
170 484
296 162
123 217
272 205
369 147
98 364
487 19
353 108
414 405
447 460
433 320
8102.5
2
