60
7
0 0 0 0 0 0 0
84 99 33 53 42 26 86
92 66 44 46 27 57 87
23 53 75 35 87 35 11
22 34 72 81 57 50 94
75 38 46 35 46 15 33
49 95 56 39 41 97 71
91 15 41 51 21 68 91
100 10 77 14 63 71 88
100 80 21 56 66 74 10
57 75 10 18 46 98 68
29 37 34 93 43 78 31
72 14 23 81 58 48 48
48 66 47 25 39 11 89
18 22 39 81 85 37 94
89 75 11 34 71 98 26
50 96 93 23 72 54 80
90 60 52 27 92 60 56
51 33 13 61 77 42 45
75 30 41 37 99 28 13
84 71 77 24 94 23 34
80 33 98 14 96 29 33
52 51 84 97 79 77 20
11 72 59 65 60 52 24
81 57 29 50 41 12 90
66 31 93 89 69 26 76
84 53 14 18 41 41 52
76 84 17 44 65 39 96
86 20 18 69 92 85 86
61 77 80 58 63 78 76
49 25 97 93 60 35 69
53 19 27 100 91 41 14
16 92 11 40 26 68 63
36 73 98 64 79 16 97
35 57 12 38 30 15 18
41 68 10 34 55 88 38
97 10 34 57 84 75 40
28 24 42 79 43 53 55
66 16 89 18 40 83 37
44 79 96 81 20 44 44
90 45 93 59 94 58 65
94 38 61 87 31 53 65
41 71 20 36 44 47 25
46 57 53 66 65 46 50
48 22 86 37 28 22 36
25 59 57 22 81 53 52
40 92 75 81 42 37 70
12 88 38 24 44 53 57
49 52 36 69 41 48 57
69 98 13 84 37 20 59
97 24 81 74 64 75 95
20 46 72 33 59 48 92
48 99 37 92 15 21 52
86 48 37 29 57 87 47
38 38 92 87 20 48 20
80 86 49 97 83 15 80
88 29 27 89 44 89 58
41 47 71 85 50 92 34
54 18 18 28 35 66 17
63 46 83 32 55 57 83
1.13116
0.944869
0.755904
1.7845
1.64658
0.732847
1.75318
0.823157
0.690507
0.638564
1.72927
1.58684
0.794501
1.53344
0.670286
0.944418
1.90099
1.13045
1.43359
0.970445
0.705166
0.872178
0.789833
1.32263
1.55663
1.24523
1.40018
0.431581
0.647086
1.46286
1.9975
1.32896
1.85284
1.92548
1.63495
0.84042
1.93485
0.592418
0.442546
0.993407
0.713788
1.88622
1.252
0.466639
0.959881
0.58302
1.2284
0.834911
0.575731
1.55068
1.97099
1.49787
1.45977
0.844606
0.756184
0.617174
0.787851
0.782643
1.80656
0.512169
117 249
144 364
196 412
180 61
144 202
105 210
84 428
158 406
129 385
292 92
177 448
11 463
171 272
109 298
465 297
61 78
312 182
113 333
267 338
277 28
60 41
184 81
54 175
11 163
25 490
1 64
494 24
489 4
256 256
497 417
282 52
83 45
159 498
96 255
440 145
124 426
428 479
261 191
302 353
328 331
5 372
328 99
421 318
406 68
319 499
455 138
142 410
73 94
131 409
453 441
137 257
187 191
85 161
355 161
492 138
450 341
94 5
111 159
313 394
480 231
3222
5
