60
11
0 0 0 0 0 0 0 0 0 0 0
74 19 83 14 29 83 37 51 87 81 12
79 50 40 56 78 85 25 21 24 32 69
33 22 25 90 75 62 79 17 42 70 17
96 37 12 82 10 57 88 82 43 19 70
36 44 80 80 14 59 79 10 95 40 49
31 64 84 30 65 86 75 45 60 13 61
53 58 57 57 96 60 13 85 74 30 94
41 28 28 83 70 13 85 94 66 49 84
75 45 89 13 87 86 70 82 55 64 54
100 38 68 27 35 56 53 56 30 13 11
89 55 45 85 89 65 79 49 39 55 71
41 53 45 26 22 66 40 96 44 31 12
37 83 72 88 13 47 48 64 28 30 91
31 57 28 94 28 86 30 21 86 80 51
87 47 27 99 89 12 81 53 91 60 51
91 66 42 79 19 99 69 37 24 44 81
64 74 41 66 98 68 39 54 78 84 45
48 59 68 79 56 27 16 12 99 53 22
73 79 36 17 21 11 69 78 22 71 82
14 11 10 70 40 39 65 26 25 45 62
90 50 45 33 26 44 70 85 21 28 16
31 80 62 96 58 20 59 19 25 43 48
45 36 84 21 69 29 36 72 46 37 55
89 27 59 30 15 64 29 85 12 32 47
27 43 58 43 90 20 47 11 37 97 58
67 60 46 70 67 58 94 32 80 53 84
30 36 11 10 23 12 84 41 38 20 49
47 71 55 26 33 47 24 92 25 55 72
44 92 78 20 75 28 79 23 61 71 62
76 39 73 94 84 69 67 12 68 87 74
62 13 91 27 69 51 73 91 94 79 68
92 58 52 45 64 27 64 78 48 74 46
26 66 66 78 26 44 47 79 83 67 93
99 42 17 59 87 47 49 19 13 93 78
66 11 65 55 57 94 25 36 75 74 83
74 17 76 38 10 72 23 26 51 93 65
100 30 20 99 82 65 42 10 29 64 54
23 19 99 24 56 21 15 60 47 51 91
10 55 64 52 45 70 64 22 56 54 36
40 61 96 30 16 35 96 40 77 45 94
100 56 31 55 93 38 69 25 62 79 41
15 67 54 75 44 24 78 40 100 79 14
85 71 26 42 15 74 63 46 35 54 100
85 56 16 89 67 77 50 98 74 24 28
17 41 15 92 62 24 83 11 22 86 70
15 22 43 85 89 38 24 76 88 100 84
20 70 82 21 94 22 92 69 45 16 44
39 41 13 77 58 25 20 54 27 71 37
56 64 51 88 84 96 92 77 24 90 94
83 84 33 74 26 45 56 29 92 13 100
95 64 30 51 30 31 85 44 44 72 20
65 36 15 10 26 48 47 43 29 11 16
54 39 69 16 25 80 55 35 13 70 43
92 29 82 41 88 35 66 50 10 39 67
79 73 50 25 51 38 44 71 71 21 36
35 55 27 45 12 68 20 73 57 26 41
67 60 84 70 95 48 37 99 10 30 73
62 70 40 90 81 82 20 19 62 96 15
38 40 15 65 61 34 58 38 59 76 58
0.938119
1.24672
0.451081
1.27392
0.463698
0.500688
0.458369
1.47681
1.13417
1.0105
1.02563
0.515022
0.939344
1.00986
1.30122
0.519442
0.367609
1.42794
1.251
0.897901
1.46439
0.690288
0.963425
1.26832
0.720188
0.445403
1.26321
1.18943
0.484891
0.531358
1.06865
0.863973
0.559827
0.393561
0.636197
1.43504
0.920819
0.706461
0.593003
0.921455
0.818473
1.08805
1.45287
0.448648
0.540436
1.11104
0.398881
0.944243
1.35796
1.24117
1.40369
0.582303
1.39668
0.638434
0.685871
1.22833
0.781818
0.759791
0.4782
1.46353
276 146
205 415
258 20
186 175
353 191
247 43
447 227
388 89
499 284
152 373
65 54
437 30
252 374
77 66
298 227
379 360
455 439
213 383
78 452
147 158
59 428
299 153
421 135
452 397
80 68
175 482
275 62
477 262
448 121
11 455
466 183
169 124
287 118
137 332
412 225
67 441
29 108
239 204
370 305
443 288
122 39
404 440
276 8
408 236
427 14
14 465
422 300
408 324
18 362
255 298
490 141
144 122
15 242
75 488
239 58
245 211
12 174
305 500
71 30
466 130
7880
2
