60
9
0 0 0 0 0 0 0 0 0
80 49 94 67 30 94 70 52 65
94 29 73 25 84 53 96 71 67
21 10 77 58 80 67 16 92 47
41 48 89 95 36 76 70 74 55
34 29 85 10 85 77 18 48 33
58 32 48 73 22 35 84 93 12
28 15 54 33 80 58 47 99 12
32 72 27 87 77 100 79 81 59
86 95 51 12 60 47 46 57 61
60 65 45 79 86 59 47 16 100
44 42 52 30 33 100 45 32 50
46 20 69 32 15 87 56 94 69
23 66 77 55 65 27 69 76 88
11 37 13 47 39 87 61 42 82
63 39 93 56 51 59 28 92 23
50 86 18 52 74 68 35 31 32
70 24 92 24 92 94 26 61 94
90 45 93 72 37 63 18 37 67
29 12 40 32 23 74 52 85 75
12 64 90 34 17 74 24 17 32
37 96 86 14 93 31 54 20 65
23 26 73 82 40 77 84 94 29
68 60 76 30 98 67 69 56 50
95 19 15 47 44 77 41 81 18
32 39 64 25 75 27 22 80 71
49 24 46 71 96 80 39 66 55
18 18 83 55 82 40 57 55 77
93 79 20 31 95 61 76 17 59
21 88 15 84 77 37 63 64 64
13 76 73 52 90 25 24 27 84
24 13 69 32 54 22 27 87 75
72 25 81 74 66 69 35 37 33
58 40 93 57 41 49 27 92 31
21 58 34 27 42 76 92 60 78
71 61 39 14 16 69 98 22 41
99 56 75 14 98 39 41 15 37
64 93 35 49 12 29 26 15 70
53 17 100 51 37 49 84 93 61
38 22 43 13 64 83 21 30 56
45 44 49 30 24 92 64 46 88
61 50 65 12 15 23 57 93 95
22 23 61 56 24 98 39 56 18
40 12 16 24 72 88 12 82 96
45 39 11 94 84 49 57 50 79
16 68 98 25 73 20 39 76 58
17 76 15 46 85 40 56 42 93
27 52 45 53 27 95 27 76 32
86 14 61 23 95 25 50 100 94
48 90 95 22 93 56 82 23 78
98 29 38 36 85 25 83 28 60
79 94 58 34 56 54 21 88 30
56 45 49 20 71 99 88 91 55
10 13 17 76 41 79 79 97 30
52 78 81 31 27 66 25 70 67
35 16 98 10 46 23 16 92 89
30 34 37 32 93 52 20 46 71
77 37 14 59 20 84 47 99 74
26 26 61 78 64 96 41 47 81
89 72 18 35 93 82 39 69 14
0.997755
0.299569
0.490224
0.706189
0.277331
0.99081
0.405778
0.91652
0.918808
0.211763
0.702116
0.721036
0.389137
0.826143
0.403765
0.678372
0.633904
0.857983
0.927747
0.878931
0.82572
0.631361
0.668127
0.954984
0.790886
0.806779
0.968232
0.442382
0.29727
0.472248
0.5129
0.525032
0.873616
0.350541
0.884325
0.453264
0.831754
0.851492
0.97178
0.667195
0.261128
0.290176
0.804997
0.744989
0.572473
0.403771
0.709492
0.514937
0.76348
0.498133
0.32237
0.513855
0.35605
0.245235
0.773658
0.738379
0.386989
0.927857
0.794483
0.501109
185 27
305 88
105 221
122 239
232 63
205 414
207 457
252 305
190 446
496 430
397 213
428 133
467 425
294 385
407 39
31 390
475 83
103 214
359 127
480 94
220 169
22 426
81 149
261 38
203 192
203 350
13 291
485 102
27 160
96 495
303 162
205 324
394 235
326 457
459 401
389 96
33 181
16 79
147 246
53 311
59 409
112 163
280 421
140 304
457 274
362 102
412 292
176 273
75 9
301 346
176 170
293 297
497 339
117 190
372 159
119 493
228 185
303 468
302 410
383 355
15955
1
