60
5
0 0 0 0 0
16 60 87 27 19
68 44 89 37 55
23 25 87 82 53
12 97 87 42 94
83 85 50 27 38
23 50 31 79 33
95 40 24 54 16
93 74 24 46 35
12 96 57 79 53
95 70 62 95 61
26 17 21 78 11
30 50 100 32 17
18 51 71 34 78
91 92 29 28 70
54 65 30 55 87
23 37 82 48 31
21 72 29 49 72
81 71 12 14 24
43 11 44 24 46
88 56 44 68 98
81 15 30 93 51
25 94 25 28 25
12 85 12 37 91
77 44 95 80 70
63 85 70 78 45
43 64 74 15 80
68 86 22 35 28
88 48 53 21 42
99 30 10 24 67
14 56 42 50 87
37 14 21 15 17
59 19 56 96 36
44 69 100 48 96
93 84 70 76 28
68 23 83 63 29
85 54 89 21 49
15 81 44 68 47
31 92 30 47 39
38 68 79 40 94
16 23 21 40 23
54 53 99 34 55
100 52 89 58 82
71 40 13 47 89
34 93 43 94 19
84 13 25 62 88
31 52 77 92 57
66 24 62 59 92
87 25 73 97 86
77 76 80 51 71
55 40 92 88 47
53 100 89 56 58
26 37 31 30 80
31 54 28 70 30
61 42 52 78 60
71 91 13 53 38
27 37 64 54 79
80 67 87 96 66
21 90 62 95 96
27 95 82 86 58
0.810457
0.775427
0.212426
0.631709
0.319482
0.771541
0.768024
0.573685
0.935475
0.715559
0.268897
0.781623
0.820308
0.494599
0.701837
0.749855
0.618091
0.826811
0.462746
0.312297
0.277393
0.345768
0.337714
0.899398
0.532037
0.601798
0.983476
0.637126
0.343764
0.213797
0.254168
0.77039
0.896349
0.889362
0.685845
0.604811
0.957805
0.450368
0.657671
0.948186
0.610434
0.500524
0.9747
0.934663
0.762971
0.775769
0.691392
0.598521
0.344078
0.805502
0.367211
0.277603
0.902686
0.309389
0.946355
0.522237
0.292324
0.32453
0.449266
0.285019
130 53
136 191
386 484
18 121
457 159
213 7
130 346
286 391
300 164
137 281
113 122
243 460
236 347
54 475
261 64
478 344
320 194
382 173
211 301
191 499
172 467
349 486
408 455
357 392
379 468
86 48
246 340
253 223
97 118
296 208
155 229
120 370
385 14
298 3
294 48
485 498
399 59
310 87
247 226
206 250
236 434
485 279
13 215
113 31
139 106
382 412
287 352
288 241
388 481
349 21
499 333
197 17
179 173
489 439
435 131
2 210
66 31
437 329
473 229
13 157
16290
1
