60
5
0 0 0 0 0
43 33 87 93 83
65 73 40 48 10
95 35 10 96 27
43 89 60 69 92
68 64 10 64 92
16 15 87 97 80
79 98 50 55 92
31 21 94 43 100
13 93 24 84 64
14 43 19 27 74
41 80 89 37 12
26 96 77 69 48
37 61 82 64 30
76 58 31 99 66
39 17 52 44 27
73 22 73 48 99
72 30 38 97 17
93 50 54 25 73
43 67 100 100 60
70 71 48 45 11
64 16 75 86 51
67 18 51 20 50
97 25 32 11 81
97 91 64 33 51
14 48 69 56 37
58 82 96 15 36
61 98 15 21 40
84 97 85 78 52
54 41 96 100 84
94 22 11 75 89
42 11 19 32 11
35 39 66 51 36
15 35 47 55 79
60 58 98 34 82
41 99 16 80 79
39 46 46 99 98
48 97 20 83 49
53 88 10 33 27
66 90 87 97 66
43 92 35 13 36
53 96 72 52 50
43 59 28 84 49
15 68 10 91 36
45 21 69 44 94
100 10 77 93 78
17 24 69 13 73
95 96 26 85 90
74 84 70 14 43
97 89 97 94 82
88 58 14 61 32
17 73 46 79 66
48 36 79 13 84
57 52 41 70 44
76 62 69 49 73
100 20 59 16 72
86 69 80 39 93
85 37 20 93 20
51 60 10 52 21
92 16 50 61 46
0.895858
0.531812
0.866537
1.22501
0.607826
0.437969
0.698133
0.663293
0.90403
0.695191
1.44289
0.791782
0.383759
0.337843
1.2392
0.536789
0.874426
1.09783
0.651422
1.22099
1.06888
1.41374
0.999227
0.783063
1.40818
0.645927
0.561926
1.05796
0.576342
0.772497
0.736516
0.637601
1.37724
1.03794
1.19793
1.16528
0.72819
0.544138
1.00913
0.439057
1.33037
0.631853
1.38953
0.836512
1.18058
0.917281
1.41014
1.25902
0.339595
0.969565
0.705843
0.373447
0.873656
0.518272
0.352646
0.386376
0.728644
0.620994
0.520168
0.549015
13 10
304 145
17 425
408 146
421 59
183 210
389 249
312 491
251 278
369 430
423 334
401 214
230 175
156 109
421 355
262 485
90 280
222 252
268 353
3 499
31 425
267 418
336 262
159 359
384 171
479 333
453 422
374 312
240 49
369 417
290 6
492 290
107 240
395 186
257 479
418 477
424 28
37 222
407 36
305 5
357 210
10 445
469 482
422 370
250 442
152 80
84 110
468 485
493 249
437 375
147 314
255 479
451 336
498 369
352 150
44 208
167 322
491 10
368 368
161 330
4202.5
4
