60
7
0 0 0 0 0 0 0
64 18 96 45 98 82 57
23 100 13 58 36 35 53
86 61 14 28 12 56 35
82 42 72 100 24 73 100
45 70 27 39 17 65 54
24 18 85 66 34 23 72
21 73 26 29 36 54 99
60 15 55 65 91 35 76
86 28 72 50 86 34 30
85 98 91 39 65 34 32
62 29 66 81 84 32 16
97 83 85 66 76 46 93
31 30 31 28 40 13 22
80 98 59 54 84 26 28
86 39 55 84 73 23 33
14 10 64 61 20 94 41
41 86 50 78 61 37 72
57 87 39 44 63 75 77
99 94 60 52 88 30 99
10 28 18 78 64 94 60
52 70 25 96 73 29 94
97 57 24 31 72 96 55
65 72 47 84 65 23 75
34 90 81 57 73 50 16
65 55 81 16 55 50 64
83 81 48 20 25 73 15
58 74 83 56 39 13 91
71 56 97 60 18 92 89
26 42 38 55 20 10 28
34 25 83 91 42 97 85
76 73 22 96 58 54 55
55 95 22 34 73 98 62
82 22 40 20 93 93 67
91 90 90 69 10 96 93
87 62 82 39 79 85 89
31 96 59 65 61 86 44
43 46 97 19 85 59 28
92 68 78 29 12 77 46
21 94 99 64 98 44 68
12 81 69 43 30 59 83
50 45 76 96 79 31 11
75 37 30 56 26 21 90
44 16 28 50 60 87 63
45 45 48 57 41 55 90
42 84 88 56 85 27 74
85 27 54 41 41 68 47
71 84 50 68 72 56 36
23 79 86 100 56 64 40
89 17 62 92 22 50 73
61 50 32 35 53 66 99
37 81 58 90 71 45 100
43 46 100 11 77 12 97
28 13 17 30 78 78 25
19 31 53 99 97 49 83
39 56 77 27 39 76 71
89 45 35 72 46 18 40
16 74 84 20 28 81 100
39 71 68 55 16 19 73
84 70 10 55 28 76 44
0.742584
0.662181
0.218754
0.908647
0.632109
0.625729
0.726541
0.994278
0.965553
0.871655
0.930474
0.334333
0.765335
0.716981
0.686772
0.353502
0.415959
0.521567
0.745685
0.820075
0.736153
0.231287
0.809832
0.871579
0.390072
0.459995
0.704017
0.737434
0.380863
0.322613
0.339167
0.335168
0.363255
0.577
0.595536
0.318093
0.936044
0.598213
0.71647
0.242685
0.37552
0.267877
0.987445
0.352271
0.642991
0.712832
0.53813
0.9526
0.773484
0.872555
0.468612
0.880941
0.356226
0.739374
0.297713
0.255338
0.565621
0.721048
0.617452
0.712508
153 125
4 115
274 225
150 428
480 152
117 60
33 5
312 318
209 395
145 252
135 397
47 39
199 494
333 336
489 361
452 261
460 178
166 219
309 36
201 486
491 372
426 422
342 418
460 344
206 259
386 111
467 139
261 405
390 170
401 2
49 13
74 125
158 148
180 151
102 349
10 363
116 76
348 72
160 16
75 201
217 435
312 353
65 369
11 131
203 302
305 41
429 279
344 399
291 429
71 49
72 120
249 243
28 214
84 291
177 110
106 373
42 83
370 388
41 434
500 300
8412.5
2
