60
7
0 0 0 0 0 0 0
21 53 84 63 63 30 25
42 32 51 97 67 95 89
54 33 43 45 96 52 35
40 89 33 98 33 42 47
91 24 21 95 62 90 16
97 32 32 22 80 90 37
24 84 90 31 74 89 55
81 10 16 82 54 38 58
14 69 77 77 35 97 57
91 57 10 96 93 29 57
17 33 64 24 45 78 30
49 14 67 15 25 26 81
34 86 51 66 55 70 39
46 48 24 27 29 51 15
67 58 19 34 48 93 100
54 16 32 22 86 59 48
57 98 59 43 32 48 30
61 79 54 60 14 14 28
75 41 87 53 58 53 37
67 12 75 36 42 99 56
32 88 93 80 21 19 44
75 61 62 24 63 74 50
28 20 99 60 16 81 41
87 64 76 35 40 84 48
99 44 87 90 95 94 79
58 18 57 78 76 66 93
64 71 33 33 82 65 67
93 62 47 71 76 27 25
73 75 97 52 34 11 29
95 48 94 49 18 100 65
87 87 99 99 55 16 93
21 42 15 83 62 10 73
35 81 44 74 25 29 49
31 52 15 90 78 48 24
68 78 56 63 32 34 53
29 47 29 96 62 20 68
25 98 89 12 84 88 62
70 47 63 90 29 98 57
60 36 64 29 84 36 10
96 81 64 43 32 99 46
50 21 93 56 60 63 44
49 22 48 72 81 62 43
95 72 70 99 40 55 13
51 40 84 21 48 93 42
19 43 48 74 41 71 98
67 34 27 83 14 82 30
77 99 68 59 79 36 28
33 93 91 47 59 88 10
18 71 46 83 97 73 19
99 42 26 97 82 55 31
93 41 83 35 63 38 14
30 72 57 33 96 73 69
99 97 52 94 18 22 66
27 84 98 25 15 32 88
77 80 34 19 87 22 52
53 77 31 32 62 91 67
26 70 45 17 28 33 53
22 98 87 96 53 81 65
10 72 25 59 95 83 39
0.759753
1.19298
1.86061
2.15306
0.560947
1.10905
2.18663
2.38369
1.95692
2.37469
1.55333
1.61242
0.541154
2.35244
1.92971
2.46565
0.680842
1.81454
0.899018
1.67442
0.931837
2.25388
1.47482
1.33159
2.20753
2.28836
1.70354
0.613018
0.801996
1.55802
2.46687
1.83419
2.43551
0.548288
1.08799
2.16504
2.0422
1.733
1.39083
1.03932
1.8376
1.65814
1.03473
1.01334
0.845607
2.20246
0.522083
0.838324
1.24715
1.97622
1.13289
1.85326
1.46172
0.827322
0.627812
1.08248
1.45319
0.764664
1.81523
1.57002
363 81
316 443
197 269
225 173
248 382
109 332
266 76
181 415
85 48
191 302
326 357
397 178
441 114
213 384
165 457
226 280
172 187
245 111
337 140
196 490
173 47
200 132
433 118
336 108
462 262
356 289
239 316
341 244
145 26
84 259
472 467
294 475
135 49
124 370
154 358
35 40
279 364
241 16
440 441
430 134
419 60
65 411
371 433
465 87
404 338
93 48
17 174
447 250
392 443
57 193
142 120
79 490
468 11
268 214
177 163
41 257
289 197
60 124
444 79
294 222
3311
5
