60
3
0 0 0
11 18 10
97 74 92
49 98 31
70 74 60
72 78 84
43 61 74
20 31 23
53 49 40
11 40 69
59 91 100
49 30 60
18 52 66
15 77 85
91 74 28
25 17 14
19 43 13
90 62 96
55 38 98
13 18 90
31 35 52
89 56 53
19 73 80
52 80 53
33 95 37
30 87 29
62 64 64
59 77 63
89 76 32
38 35 10
12 86 54
78 47 45
39 37 77
54 87 47
28 52 74
65 81 33
71 88 33
73 36 24
97 28 42
44 13 88
77 41 39
46 57 82
97 90 34
12 94 61
38 17 13
57 99 49
74 28 28
77 54 64
57 41 57
58 16 59
26 74 83
81 84 25
49 60 38
67 71 84
54 36 10
59 46 93
74 77 81
69 86 81
100 69 71
44 100 35
1.30166
1.50879
1.70476
2.06592
1.27738
1.24386
1.3683
1.1293
1.66586
0.50301
1.07204
0.827932
2.43847
2.07149
1.62309
2.03985
1.60986
2.45785
2.03864
2.12187
0.934922
1.03747
2.31359
1.19572
1.92988
2.29115
1.93276
1.56114
2.04938
1.6347
1.79945
2.42243
1.77153
2.13674
1.72965
0.839146
1.61402
1.91615
1.91989
1.17464
2.05022
1.35567
0.670873
1.13044
2.19992
2.08836
1.50658
0.560272
2.32503
2.04832
2.16089
1.10596
1.9211
0.843809
0.927241
1.53086
1.30357
1.02426
0.568718
1.12755
167 225
191 67
214 162
355 20
386 251
417 148
248 143
201 472
179 261
75 177
449 394
291 283
124 431
215 484
101 220
41 89
471 272
356 171
468 49
242 368
175 38
411 190
453 71
251 103
415 463
38 74
241 61
461 58
406 114
485 62
53 346
333 472
454 184
101 136
72 88
434 289
379 417
218 276
20 497
295 408
214 293
248 498
261 478
139 5
460 139
53 413
199 418
450 231
282 50
469 405
421 43
136 252
373 92
182 465
152 330
211 59
268 217
219 247
367 63
103 277
8205
2
