60
11
0 0 0 0 0 0 0 0 0 0 0
13 64 37 55 87 60 42 19 46 15 70
27 56 36 34 87 84 77 89 69 97 54
53 29 25 99 65 61 49 15 80 48 85
80 33 81 84 88 33 32 94 100 69 71
38 80 52 19 18 11 83 12 54 73 97
97 70 92 57 77 94 69 28 24 83 18
15 30 93 100 46 14 50 69 80 20 91
90 99 78 54 84 57 93 44 78 12 72
12 77 69 18 23 72 46 10 30 17 53
74 36 79 23 53 34 87 26 53 10 84
67 73 67 89 62 82 51 91 52 79 84
38 29 59 23 42 98 68 81 100 22 94
90 87 78 93 74 72 66 37 75 79 77
53 99 90 45 28 42 42 52 80 52 42
64 57 30 69 39 44 83 16 64 40 66
46 66 43 37 75 72 74 89 80 75 35
32 66 84 25 29 36 87 27 77 46 82
59 95 83 48 62 24 100 80 63 77 69
40 27 79 88 94 29 67 95 52 51 49
26 52 15 77 10 50 77 14 10 37 85
81 40 59 67 61 23 52 48 86 30 12
85 67 20 42 30 33 15 18 70 75 17
32 95 38 26 78 75 83 25 47 76 70
39 93 94 28 89 41 87 93 67 44 33
20 93 61 76 81 47 48 72 48 89 39
97 11 20 76 53 26 66 28 20 44 30
56 24 93 40 90 60 90 59 61 78 68
80 52 39 83 49 97 27 90 83 85 66
43 93 93 27 40 36 33 87 86 71 51
61 85 96 22 99 13 67 32 89 57 88
27 33 13 51 13 97 26 96 11 75 22
94 50 43 84 81 44 67 27 22 42 12
65 52 13 44 72 80 14 94 83 29 19
63 67 32 60 38 71 63 64 14 60 30
16 96 19 33 79 32 13 85 89 68 57
76 14 58 82 16 63 92 29 52 69 94
87 84 37 40 41 91 90 81 99 95 29
23 59 75 78 94 39 98 54 23 44 10
99 63 89 47 90 98 93 93 64 90 60
68 28 59 54 45 73 80 27 33 72 42
51 99 41 24 32 63 64 50 50 17 42
54 51 38 13 58 18 45 100 69 79 59
100 59 75 72 68 66 56 38 39 36 34
43 60 86 52 75 66 80 32 86 90 72
63 65 16 97 53 71 87 20 86 58 38
41 63 46 91 31 85 67 93 100 17 46
98 83 31 65 59 71 10 59 31 33 59
93 59 99 83 100 28 99 52 58 82 33
42 70 29 58 64 48 15 48 44 55 73
72 55 75 52 58 13 67 41 17 100 62
87 53 49 57 69 56 45 72 100 73 67
79 19 84 24 15 56 46 67 71 17 29
19 68 78 35 17 65 21 71 15 94 34
50 55 36 100 29 21 42 69 42 82 64
64 80 95 85 16 74 75 92 16 80 56
77 64 51 18 70 89 50 75 85 48 50
40 23 82 93 48 98 99 61 58 79 98
57 94 80 34 76 21 94 85 93 42 16
52 96 42 17 35 30 41 46 21 33 91
1.30474
0.866219
1.64777
1.81742
1.34595
1.3903
1.91298
1.54607
1.67385
1.77201
0.895301
1.52767
1.66117
1.36543
2.41278
1.73699
0.649171
0.872109
2.37428
1.13618
2.05928
2.29717
1.34645
2.17964
1.8754
1.18472
0.788245
1.50519
2.14692
1.57153
1.93849
1.43335
0.859613
2.04579
0.966456
1.25498
1.41984
2.29869
0.555879
1.2244
1.42142
1.21952
0.752237
1.66572
0.570313
1.90653
1.01391
1.85938
0.715774
1.29423
1.38171
1.14663
2.30439
0.587935
2.38608
2.26537
1.4126
2.06662
2.23489
2.24801
16 83
128 429
310 21
377 2
458 196
301 316
233 192
289 94
296 47
223 265
138 5
286 338
397 79
251 226
71 48
458 52
66 295
54 256
478 360
43 332
236 275
57 60
142 474
176 108
113 387
58 403
44 27
362 340
464 195
342 357
466 169
217 449
256 77
294 121
14 32
379 251
53 399
102 397
163 398
86 465
415 333
480 396
154 334
423 377
380 269
79 424
408 149
29 381
36 45
244 158
281 254
209 430
306 40
433 382
429 101
119 115
160 68
354 432
264 245
85 427
17060
1
