60
9
0 0 0 0 0 0 0 0 0
44 30 29 35 78 94 88 42 38
33 85 50 34 96 75 94 75 60
75 83 96 47 13 45 28 96 49
15 66 37 75 32 49 66 91 19
92 83 93 87 64 50 25 61 72
77 32 23 26 12 71 18 29 64
76 22 12 68 48 92 18 79 72
98 59 78 86 22 36 60 46 64
97 93 71 92 67 34 62 34 94
28 94 13 36 45 79 53 32 48
42 87 95 46 77 88 62 10 18
69 78 49 20 75 32 29 13 75
44 27 32 18 13 12 86 62 64
48 80 77 41 90 80 30 64 41
25 99 64 53 52 96 80 59 27
86 39 83 58 86 53 75 22 60
78 50 89 91 14 77 35 34 98
21 22 92 53 29 89 43 24 91
52 65 45 44 16 81 94 55 23
13 49 68 97 44 53 77 11 55
12 10 76 15 77 31 100 32 40
75 48 30 46 89 61 52 71 40
18 79 37 60 30 62 90 12 21
55 61 59 62 94 65 63 20 39
77 13 78 87 99 70 79 15 45
100 72 29 17 22 69 85 39 20
15 57 63 27 70 31 42 47 80
44 32 29 17 68 23 11 56 93
12 64 31 58 10 42 88 73 53
98 48 92 58 81 18 64 78 49
80 72 95 37 37 67 49 59 44
36 14 22 78 10 75 15 12 26
91 37 62 52 28 57 85 86 61
36 50 23 49 67 85 54 15 31
24 76 25 48 43 19 32 81 40
59 96 93 82 53 30 15 68 21
75 11 76 84 32 58 46 81 47
53 87 80 95 38 29 13 89 34
22 10 42 92 14 10 65 96 39
88 86 44 95 11 69 70 68 47
28 22 94 63 29 100 30 54 78
56 40 65 95 97 72 72 99 28
25 50 100 82 68 20 52 59 52
50 54 97 31 93 42 58 58 80
47 47 74 53 91 56 46 37 37
50 47 53 75 94 61 94 68 73
85 32 80 54 78 81 62 78 65
66 17 91 61 97 99 55 94 98
35 75 99 87 31 62 50 94 30
13 90 25 64 93 54 46 26 20
24 60 41 14 70 69 70 16 16
28 81 79 84 73 41 18 13 50
78 64 85 82 52 71 10 48 74
73 55 84 56 74 46 84 86 37
63 16 32 67 68 51 57 46 81
64 24 47 28 64 88 64 20 15
90 90 86 47 95 62 48 100 83
40 52 59 58 26 54 87 40 63
85 90 87 40 19 71 75 87 56
1.00494
1.35508
0.639544
0.553787
1.12659
1.01404
0.868981
0.427513
0.365893
0.589136
0.379417
0.751904
0.460587
1.06459
0.727083
0.47569
1.0904
0.617188
0.646108
1.3034
0.996786
1.21782
1.43733
0.656044
0.610536
0.52643
0.476683
1.4148
0.890607
0.410952
1.1235
0.839388
1.37822
0.567613
0.485335
0.338273
0.515303
1.07512
0.508548
0.751588
1.07483
1.49137
0.871981
1.36718
0.335327
0.690993
0.939111
0.714195
0.766792
0.908091
1.37104
0.460423
0.961733
1.39947
1.40294
1.24232
0.561506
0.896525
0.341385
0.738919
389 117
301 405
410 427
154 141
64 80
23 215
497 1
177 120
49 98
198 45
240 74
45 328
37 15
349 479
55 133
107 434
474 327
291 94
101 297
359 339
289 467
133 447
455 4
443 27
187 186
476 182
273 282
133 75
94 446
226 92
318 430
303 336
234 205
96 142
83 474
183 437
112 357
23 182
270 58
333 481
100 386
55 93
119 440
96 110
428 479
225 259
5 194
270 322
105 178
267 225
429 489
277 133
489 160
128 91
348 339
145 413
316 103
408 433
186 40
16 268
8265
2
