60
11
0 0 0 0 0 0 0 0 0 0 0
93 65 49 41 54 39 80 18 23 77 50
80 20 63 35 55 90 91 47 79 48 51
43 37 18 92 46 100 18 85 82 64 12
34 51 33 31 52 56 47 13 58 43 85
13 95 98 57 76 82 29 23 73 49 60
47 94 23 46 45 12 36 78 12 82 47
28 17 27 86 45 94 89 24 29 13 51
77 96 39 21 85 60 93 49 82 50 16
43 30 83 87 71 40 52 22 12 11 100
45 100 77 10 25 58 29 49 44 89 34
73 74 87 38 85 16 54 90 77 13 30
18 27 79 14 68 17 67 67 55 96 63
31 68 37 42 85 93 11 46 87 49 74
37 100 21 17 15 86 97 41 45 76 22
17 24 56 80 65 74 51 94 25 52 70
11 70 28 32 53 28 100 80 61 54 79
26 47 88 50 63 71 89 47 42 16 48
12 37 67 22 17 48 70 44 81 16 68
21 60 29 72 29 82 12 86 23 25 33
85 58 34 70 52 34 57 14 88 96 79
77 74 73 46 27 52 26 41 95 46 49
47 18 93 79 61 42 75 50 93 11 64
64 33 79 30 71 72 98 66 78 49 20
57 88 55 99 22 81 53 62 29 86 38
73 15 70 13 74 87 81 32 38 71 35
25 51 35 57 19 33 92 41 12 20 66
65 55 86 32 54 22 70 82 58 70 86
93 85 95 17 84 58 41 27 13 68 87
95 39 74 30 73 76 41 82 21 53 20
65 48 50 24 71 81 59 56 21 62 26
78 44 40 31 73 25 57 31 51 48 53
91 58 49 53 87 40 30 34 22 71 97
59 69 99 28 100 97 32 35 62 14 87
42 51 97 59 14 81 86 62 27 81 91
35 41 43 35 13 39 27 41 83 29 78
62 75 83 19 90 25 51 53 91 77 60
28 50 72 31 91 72 45 80 45 98 11
17 42 42 34 46 73 13 29 55 24 12
92 72 56 12 28 44 93 14 52 40 93
62 42 16 53 55 89 78 83 34 14 16
48 42 99 68 65 100 52 69 25 98 12
62 78 10 13 27 51 99 76 48 16 65
53 37 75 42 98 96 66 13 62 31 98
99 26 30 74 33 94 99 17 56 79 71
41 10 85 98 53 58 37 33 25 56 84
86 93 95 94 19 74 29 25 34 34 81
22 81 30 91 38 70 44 98 56 88 56
78 35 58 77 37 33 74 54 52 77 93
39 22 73 52 12 85 60 95 41 97 37
65 45 32 28 53 98 40 79 12 57 25
38 98 81 97 44 63 32 76 85 37 14
14 22 39 21 14 17 81 86 43 30 58
17 91 71 43 15 19 65 97 90 13 57
56 80 35 93 21 63 83 81 42 57 29
85 44 66 89 50 92 52 19 87 93 92
83 79 20 56 98 96 93 18 51 11 78
20 86 64 24 63 96 92 39 43 74 29
28 31 72 39 73 65 82 99 28 91 75
20 53 15 66 100 63 76 80 43 37 31
0.347014
0.802249
0.770141
0.393037
0.468877
0.271428
0.450364
0.385072
0.200229
0.693354
0.236499
0.9112
0.242075
0.465526
0.689783
0.425094
0.510021
0.439808
0.634037
0.462432
0.498406
0.717108
0.740983
0.450967
0.289468
0.771386
0.913159
0.292284
0.894093
0.972857
0.955396
0.385522
0.617021
0.895181
0.231053
0.546843
0.216826
0.408459
0.433224
0.288226
0.326079
0.776741
0.914961
0.88425
0.319496
0.366839
0.585978
0.816552
0.5492
0.891382
0.497214
0.405457
0.889093
0.270958
0.989878
0.275785
0.728279
0.24572
0.532434
0.961093
489 201
182 359
407 114
348 357
284 243
192 146
91 243
24 75
317 271
130 472
140 476
191 335
23 184
422 199
13 239
292 255
40 290
9 78
433 68
113 221
155 358
316 103
314 370
178 97
395 225
74 490
180 306
41 431
275 313
213 232
319 155
357 14
198 41
288 95
149 21
237 399
395 307
435 330
135 395
17 322
500 94
177 353
327 392
336 489
328 446
81 177
267 145
240 400
104 300
95 331
179 483
500 185
80 270
481 268
269 116
39 357
327 333
26 165
375 33
479 81
5381.67
3
