60
3
0 0 0
38 77 55
58 52 64
94 50 32
86 61 39
99 17 19
28 22 53
16 32 24
28 10 11
36 54 82
49 47 10
81 22 83
14 89 96
41 23 44
85 45 22
38 34 76
74 83 62
21 57 95
67 26 98
43 21 25
100 28 16
61 72 31
95 64 65
54 29 30
82 27 43
77 82 34
55 88 61
17 81 14
12 82 84
68 54 56
71 83 63
98 94 70
47 55 93
38 37 33
45 90 50
83 79 59
64 26 59
54 19 31
57 87 57
97 39 25
72 94 27
91 29 85
84 28 89
75 96 80
70 37 52
82 79 70
19 63 22
14 57 93
75 25 14
55 41 92
20 95 39
90 32 99
80 29 45
15 55 70
44 70 87
63 90 23
21 43 54
34 83 23
54 33 35
69 65 39
0.78723
1.28804
0.953076
0.762892
0.83042
1.11301
1.3636
0.564954
0.680369
1.31985
0.897304
0.97535
1.22908
0.968057
1.06434
1.10106
0.698638
0.552433
1.43802
0.800859
0.325144
1.48131
1.11672
0.315291
0.435985
0.704626
0.530007
1.32653
0.479617
1.09538
0.967825
0.980362
1.36029
0.325424
0.566368
1.16792
1.3758
0.699844
1.44504
1.28709
0.606553
0.735206
0.423256
1.08507
1.12635
0.653786
1.18775
1.07188
0.513888
1.43482
1.09233
0.588305
0.603114
1.26422
0.415803
0.94756
0.395852
0.506216
1.13042
1.01127
64 95
342 309
334 236
28 178
333 264
242 307
243 472
477 250
163 319
70 151
286 259
416 200
10 386
15 488
125 281
19 114
368 257
321 16
228 120
23 166
154 62
70 109
129 201
110 40
366 451
60 335
24 494
2 119
204 132
189 36
62 137
369 56
414 219
159 101
239 347
107 485
11 349
348 425
292 202
450 481
320 277
387 438
349 220
54 9
266 411
276 413
116 310
481 352
3 156
21 163
370 455
336 363
90 321
63 165
345 255
160 412
394 147
495 22
139 30
150 333
3227
5
