60
9
0 0 0 0 0 0 0 0 0
77 66 68 36 41 67 56 98 40
49 92 61 28 62 74 10 61 24
27 60 31 96 73 57 62 75 77
22 50 96 92 79 22 93 99 77
61 48 52 63 70 82 53 25 43
46 81 35 80 76 81 79 32 73
39 71 35 99 19 98 90 43 57
96 25 46 73 65 86 93 37 87
76 13 24 59 15 89 16 60 76
51 84 86 22 57 73 74 30 62
66 61 29 17 30 99 78 24 56
98 46 87 80 56 63 32 86 97
55 38 80 90 31 96 96 34 38
23 61 52 38 21 81 63 36 94
95 56 85 39 37 80 91 66 21
99 31 26 64 25 22 77 22 100
83 36 98 51 13 69 27 75 70
85 81 48 70 27 24 93 92 51
40 71 100 58 90 90 25 64 74
22 61 32 64 78 60 29 53 46
90 60 93 69 69 45 99 44 88
32 53 14 42 59 55 74 53 56
26 43 63 79 60 97 17 14 38
93 49 21 61 18 45 28 62 29
16 29 57 78 26 58 84 10 99
57 57 78 11 47 96 37 14 100
59 61 96 86 20 22 41 17 45
71 43 99 65 52 75 73 69 95
76 29 67 34 63 81 91 70 92
34 36 18 48 99 23 45 65 19
100 38 19 87 71 82 63 53 61
47 27 56 93 77 42 41 52 10
58 49 53 53 82 22 85 57 55
66 88 38 77 40 26 95 17 21
75 18 24 98 55 19 78 47 52
76 89 48 23 85 19 49 71 93
96 14 60 24 82 91 28 94 54
74 61 44 49 72 76 44 10 70
39 60 89 70 46 72 41 84 15
75 52 72 15 43 80 52 50 54
20 56 25 96 37 15 66 84 95
90 47 56 49 19 21 23 36 39
43 59 49 23 72 98 62 98 75
56 62 38 81 38 71 15 36 76
19 57 62 33 64 77 12 26 97
80 20 86 31 69 84 98 54 100
78 89 70 80 40 29 12 42 23
87 17 72 84 53 30 83 53 83
97 50 57 42 13 29 98 55 40
35 50 31 59 100 59 50 28 37
94 81 24 98 94 10 19 93 49
90 46 54 100 73 30 10 21 41
77 91 94 52 66 23 77 93 61
22 99 12 67 89 37 80 65 48
97 85 93 54 84 12 35 53 11
57 66 28 44 98 61 27 91 40
17 39 25 17 79 85 74 72 44
89 95 34 90 67 65 58 57 38
36 31 13 71 57 64 14 81 67
0.505823
1.06298
2.17225
2.39089
2.02457
2.37118
2.4433
1.01556
0.607899
0.647726
0.631752
1.35419
1.91805
0.598618
2.47869
1.35956
1.62258
2.48347
1.17517
0.705217
0.674856
1.52761
0.622374
2.02739
1.03046
1.74699
2.48247
0.928824
2.03204
2.13527
1.79507
2.14146
2.46585
1.93567
1.50479
1.62193
2.22098
1.09874
1.293
2.09615
2.38843
1.46769
1.04489
1.65207
1.79084
1.23503
1.76354
0.550529
1.12411
1.8105
2.03831
1.295
2.00574
1.90496
0.808989
1.22154
2.15634
0.593784
1.09616
1.7033
245 75
270 25
373 490
81 486
441 303
451 394
295 121
165 125
93 460
454 322
26 72
237 263
409 28
445 215
215 160
191 366
279 160
309 268
330 135
284 396
474 341
145 266
116 277
201 386
205 199
285 280
462 300
170 305
351 296
439 184
331 423
487 374
475 414
66 466
25 426
491 291
111 289
225 109
484 358
435 117
33 252
431 473
372 364
164 60
24 404
141 212
433 2
111 420
272 350
157 139
195 132
154 157
470 271
54 400
424 159
11 99
196 188
383 350
249 189
104 128
8445
2
