60
11
0 0 0 0 0 0 0 0 0 0 0
30 25 74 19 15 39 77 29 19 79 24
65 42 32 83 36 17 43 13 33 92 44
21 32 17 55 52 33 92 45 61 21 49
38 87 77 76 48 56 99 52 46 39 32
62 55 30 45 28 74 78 35 59 60 74
96 58 69 41 31 39 23 81 11 78 65
14 76 97 26 74 70 91 84 96 64 15
49 44 100 64 87 18 63 55 53 79 78
12 98 74 86 94 85 25 39 87 14 50
45 20 15 11 18 64 32 79 76 55 31
94 82 64 51 31 14 61 92 76 54 14
41 86 94 58 46 46 50 18 95 45 94
30 97 78 61 16 45 83 10 11 45 29
56 11 31 40 100 96 24 44 33 21 27
84 18 78 92 85 100 26 67 55 22 22
30 97 34 75 33 68 55 51 25 82 68
85 57 91 99 79 74 10 37 88 20 88
39 98 40 27 98 12 14 55 57 34 65
65 91 85 81 32 35 43 47 19 77 14
48 50 25 84 52 90 48 25 36 73 56
63 88 83 42 29 12 34 94 41 90 56
46 15 86 88 99 61 100 27 91 35 52
78 42 48 90 64 80 52 27 74 60 95
52 56 52 94 17 87 85 90 85 73 32
84 50 100 17 15 85 28 24 41 40 14
23 79 77 65 55 91 91 86 56 25 11
75 88 57 20 56 91 56 15 23 92 24
30 28 91 61 70 44 26 35 36 61 50
24 13 50 34 72 80 59 76 26 40 95
18 51 87 80 69 92 46 32 26 86 53
67 90 23 80 50 35 24 67 32 60 60
31 36 13 22 31 18 78 84 55 42 66
83 30 88 97 12 66 10 49 73 91 100
88 72 53 20 30 21 96 38 69 55 47
87 53 94 93 53 16 96 28 38 26 45
49 73 53 13 92 19 51 10 71 35 50
19 13 41 30 72 52 58 39 26 46 99
65 21 41 58 28 81 84 92 82 31 89
64 75 26 18 67 67 18 100 27 100 34
27 45 82 94 33 96 35 32 30 43 48
93 75 75 45 80 98 36 95 57 58 52
10 61 49 29 78 86 82 22 22 65 43
27 59 86 44 73 49 14 81 60 34 94
24 44 10 29 66 24 12 16 95 19 25
76 23 67 84 89 89 22 84 83 19 61
67 44 12 11 80 90 34 33 18 45 78
17 67 56 73 12 57 34 81 53 39 97
44 59 23 36 94 97 79 85 81 35 18
16 40 45 53 55 69 62 92 36 95 94
69 36 61 33 36 29 79 63 35 92 59
21 29 10 46 89 84 70 74 19 63 55
31 17 49 37 30 96 70 67 56 48 20
75 96 34 100 28 14 82 73 40 95 69
22 97 65 49 80 79 44 43 70 10 38
92 32 30 29 50 90 24 89 34 85 97
56 32 81 11 80 42 87 85 34 92 94
21 96 39 46 77 81 83 100 37 78 96
89 45 51 43 60 61 37 65 93 26 25
75 36 81 23 11 52 88 15 96 60 44
0.404194
0.28381
0.125544
0.318574
0.391916
0.210131
0.223061
0.445548
0.137398
0.163909
0.116391
0.32687
0.437613
0.452463
0.194368
0.101626
0.461686
0.230159
0.202347
0.366057
0.459224
0.385333
0.45527
0.499145
0.1357
0.399031
0.212934
0.166836
0.457009
0.318441
0.100657
0.301524
0.162766
0.151689
0.461305
0.405715
0.328561
0.203746
0.469136
0.497289
0.207111
0.487596
0.457584
0.192035
0.202252
0.337667
0.375549
0.44095
0.44797
0.146553
0.361143
0.379645
0.250428
0.302417
0.259343
0.167963
0.383102
0.305315
0.429216
0.110137
398 334
222 76
197 406
374 270
346 430
434 37
458 21
267 171
289 214
141 228
110 164
397 146
298 376
280 455
446 163
318 181
257 112
348 179
56 230
243 329
474 160
73 50
314 499
445 307
267 423
442 220
347 140
427 198
480 149
238 323
192 143
117 91
242 70
423 459
275 258
55 486
465 133
410 358
65 50
437 380
411 116
399 146
441 230
88 482
331 148
282 25
431 494
179 137
292 216
174 379
3 364
378 341
321 54
136 472
460 488
247 85
57 197
56 347
334 114
497 425
8067.5
2
