60
3
0 0 0
89 48 97
79 62 45
55 86 50
20 54 79
34 32 16
35 52 41
78 80 56
12 34 40
27 74 100
88 78 65
93 45 66
38 71 72
91 89 56
53 73 16
95 78 16
50 43 29
95 64 62
61 27 31
81 62 32
82 18 64
49 27 43
87 34 90
43 19 57
34 57 95
99 79 86
31 27 29
90 38 14
39 88 98
96 97 25
66 29 26
48 99 86
71 97 94
55 65 81
67 96 64
13 28 99
44 93 30
100 35 26
27 95 72
47 72 58
19 37 41
39 83 70
69 41 80
97 47 72
89 35 14
82 90 93
65 21 13
67 66 63
60 13 13
54 36 32
61 25 21
35 74 55
81 64 71
24 11 23
58 20 23
72 91 43
87 75 96
13 42 32
29 62 66
85 32 53
0.424625
0.529146
0.233874
0.298232
0.353895
0.690307
0.998905
0.434548
0.463086
0.220162
0.647102
0.715435
0.658461
0.695875
0.943807
0.690308
0.860921
0.420496
0.937245
0.86222
0.330306
0.398953
0.331958
0.424993
0.948847
0.953343
0.280662
0.965279
0.364478
0.326511
0.909509
0.565135
0.432108
0.784825
0.56524
0.526398
0.402334
0.93457
0.744275
0.939011
0.895838
0.615319
0.361474
0.497852
0.529203
0.945419
0.811883
0.875615
0.791304
0.323121
0.622866
0.278218
0.81629
0.974678
0.300391
0.660667
0.588385
0.310167
0.941793
0.405294
188 334
222 86
437 494
196 308
104 488
314 250
223 449
151 139
264 247
278 198
29 147
334 313
53 107
61 228
13 474
491 289
146 431
141 297
305 294
340 234
483 406
55 6
166 93
367 154
299 452
26 338
264 254
251 12
398 430
255 224
465 144
97 85
41 25
292 74
195 292
99 278
174 402
486 40
499 493
345 424
396 430
252 356
355 313
205 225
252 437
483 220
191 268
206 350
491 252
325 435
230 68
198 256
17 287
128 62
132 144
60 493
133 338
362 55
208 116
115 213
5576.67
3
