60
9
0 0 0 0 0 0 0 0 0
57 34 55 25 43 56 81 84 14
78 89 70 79 13 43 13 75 14
95 13 16 36 18 19 99 11 87
48 50 59 37 21 87 31 13 11
48 27 26 89 28 73 77 50 64
99 18 33 32 53 38 100 24 53
58 38 60 13 39 61 34 99 70
78 93 23 78 77 28 34 77 58
93 36 44 17 52 24 89 36 76
55 87 63 11 23 31 19 80 75
46 21 26 14 43 29 77 92 28
53 85 32 80 86 80 75 45 38
19 19 35 68 64 85 50 30 47
56 26 32 79 26 31 45 78 86
59 37 46 23 70 98 29 59 16
75 86 15 72 53 44 86 51 84
99 63 29 73 88 60 91 100 66
55 63 71 41 20 62 48 29 57
50 34 63 70 77 66 28 99 58
54 33 60 17 70 68 88 15 81
37 60 17 98 12 59 64 97 68
24 82 56 39 90 14 56 61 30
100 38 63 46 25 89 45 63 58
84 15 29 15 65 38 67 45 99
50 70 62 91 98 59 91 71 53
14 82 15 54 35 67 38 37 22
51 90 57 29 66 27 92 55 71
53 25 66 96 63 74 33 25 39
79 46 100 35 80 39 23 81 61
42 35 68 42 13 99 46 93 80
99 91 43 70 84 19 82 98 78
79 80 59 79 20 87 67 52 21
93 60 74 98 87 93 10 96 30
77 82 79 72 73 21 76 58 50
87 87 17 13 81 60 45 23 78
61 48 78 29 52 26 64 50 78
18 65 71 49 34 31 90 72 46
68 90 67 57 56 75 89 18 92
52 30 60 78 87 35 77 98 31
14 62 94 11 45 14 52 58 32
90 99 49 77 61 49 14 26 40
18 10 89 33 42 83 50 33 95
12 38 100 94 39 28 93 70 39
63 90 98 33 20 11 90 14 20
51 75 42 86 71 76 24 94 37
35 66 51 31 96 42 58 75 80
55 30 74 15 20 39 10 68 68
46 77 17 94 65 94 99 98 91
65 33 89 62 94 87 83 35 15
69 55 82 98 33 94 91 15 46
83 77 81 19 69 55 93 33 40
59 46 14 88 48 41 57 79 39
95 72 47 22 34 30 52 11 63
86 64 36 24 41 54 40 52 80
76 14 35 10 36 72 56 62 67
30 78 88 82 50 68 100 93 73
10 45 77 22 48 33 40 18 98
24 36 91 97 35 69 55 80 72
43 91 61 83 86 84 95 43 98
1.38451
1.06435
0.747993
0.46444
1.96348
1.90962
1.71677
0.556679
1.06552
1.20026
1.72582
1.53602
1.92474
0.476921
1.26212
1.55771
1.83751
1.74225
0.735563
1.74439
0.419839
1.94757
1.68134
1.7659
0.880475
1.64798
0.882856
0.529907
1.91301
1.47196
0.958558
1.34479
0.456277
0.808767
1.70639
1.89656
0.517708
1.96546
1.3757
1.77561
0.408536
1.16439
0.772988
1.74062
1.49386
0.67428
0.639184
0.976502
1.43619
0.776285
1.35721
0.890976
1.57882
1.64172
0.82355
1.40466
1.88723
0.533744
1.28105
0.438599
174 488
417 259
193 271
125 371
183 277
182 496
358 160
308 30
348 145
71 313
127 472
95 254
363 222
260 329
193 185
103 175
180 115
362 299
1 317
423 126
107 160
352 175
426 330
471 332
77 474
440 496
498 75
228 233
67 418
79 133
185 86
198 404
129 334
370 198
283 464
162 437
478 221
409 401
135 479
294 77
478 304
159 192
435 289
215 118
439 333
470 42
361 156
337 335
35 344
373 463
343 27
263 493
350 245
232 429
45 58
431 143
327 238
303 201
75 19
90 228
4142.5
4
