60
9
0 0 0 0 0 0 0 0 0
73 52 43 43 13 50 95 19 79
96 20 45 100 94 24 53 18 33
77 96 65 49 28 81 90 14 23
70 23 23 97 37 60 74 31 66
52 56 84 44 52 99 79 87 81
76 64 11 88 65 11 76 79 10
38 72 96 92 85 85 37 27 65
79 66 68 28 30 11 96 73 14
46 55 64 18 55 19 63 54 84
87 43 73 77 21 81 21 39 99
28 21 21 65 65 93 24 11 39
44 81 20 58 43 71 98 31 64
39 10 25 79 90 71 48 17 10
14 82 27 84 99 55 68 54 85
44 25 48 26 72 31 81 81 69
12 42 63 23 43 79 60 69 41
56 24 96 82 72 99 11 19 15
24 90 56 78 40 17 24 94 40
86 90 77 10 71 67 70 19 72
38 21 43 24 33 64 30 16 74
22 18 80 35 90 25 80 33 11
51 47 63 36 89 17 42 33 76
29 60 21 35 49 27 58 66 90
76 19 59 40 36 90 31 43 72
56 87 47 91 58 68 34 53 56
57 77 32 31 98 63 56 50 85
75 67 21 19 14 80 43 15 13
68 58 38 35 53 42 98 33 10
67 47 75 40 81 17 26 59 35
42 19 37 74 29 48 98 55 22
42 96 42 94 23 51 83 54 96
99 70 11 52 88 74 20 64 73
19 82 50 30 12 10 31 64 71
90 11 37 61 86 31 62 80 36
52 33 50 65 67 63 76 34 50
27 46 93 97 42 100 39 59 36
91 83 65 15 51 31 37 60 63
42 46 25 47 28 24 67 59 39
37 14 64 48 31 40 73 20 34
62 48 96 31 52 31 68 67 34
25 93 64 42 19 97 79 24 98
45 52 86 25 86 17 33 55 57
98 70 96 31 50 97 37 70 95
84 76 16 64 87 59 11 51 93
41 23 10 16 21 54 91 27 23
32 22 64 26 91 19 78 16 61
38 50 16 37 44 15 26 50 45
99 80 17 55 70 100 77 17 50
85 41 90 97 51 37 91 99 26
60 22 53 74 51 100 18 67 89
83 47 44 18 67 59 46 37 16
50 73 40 82 72 18 49 85 91
74 35 25 74 78 67 26 46 56
67 52 75 23 36 30 13 23 31
68 14 34 26 29 32 41 16 33
87 20 87 79 46 78 35 22 87
99 58 89 56 29 85 30 80 56
86 35 43 29 18 52 65 28 45
59 13 15 63 81 90 51 79 75
0.594592
0.820831
0.82594
1.28968
0.911358
0.991699
0.470697
0.88577
0.58355
1.41904
0.801935
1.42728
1.32971
1.33022
0.410329
1.26211
1.21537
0.702263
0.784164
1.47162
0.503329
1.00171
0.692367
0.832643
1.49868
0.708627
0.661164
1.24718
0.893741
1.02024
1.3175
0.760882
1.00944
1.07029
1.26258
1.27729
0.482897
0.434894
0.571323
0.674652
0.354755
1.19761
0.688214
1.32991
0.682054
0.640255
1.46445
0.598259
0.891881
1.21233
0.507986
0.789988
0.723623
0.350775
1.01382
0.838111
0.43884
0.617085
0.835074
1.05667
353 451
221 227
72 32
51 475
302 263
442 257
489 27
276 258
348 449
493 250
67 295
279 358
18 217
261 269
407 449
206 211
437 442
139 458
39 168
41 307
400 52
150 392
436 430
277 243
241 3
194 321
438 410
398 201
78 481
87 164
358 64
48 98
401 148
442 420
31 142
2 498
120 221
38 366
98 12
222 244
419 344
199 169
95 229
52 202
16 188
359 330
208 424
353 151
37 344
26 293
308 296
476 325
227 458
281 65
23 0
43 199
184 315
7 162
98 249
275 288
5193.33
3
