60
5
0 0 0 0 0
61 76 14 94 74
15 71 78 95 31
75 38 82 40 16
38 61 21 49 80
92 20 81 46 75
60 97 92 85 100
33 47 19 78 85
59 56 35 52 86
17 20 79 96 49
57 54 93 11 51
81 32 11 70 53
96 90 80 46 22
21 20 97 10 95
18 43 82 79 93
40 35 14 19 18
76 92 31 18 80
15 77 88 26 31
42 32 27 32 32
21 56 94 74 94
26 97 13 46 29
95 98 72 69 83
71 28 84 42 62
84 92 18 33 17
86 100 52 72 68
61 71 95 19 16
61 61 60 35 27
76 93 98 24 17
63 86 27 71 22
29 31 95 73 37
96 19 91 36 40
65 76 29 29 60
89 69 34 90 62
89 47 57 62 79
49 98 33 26 92
21 23 47 97 100
80 42 48 35 32
74 64 41 93 87
23 80 69 26 66
65 73 93 86 63
74 80 71 18 44
16 38 14 12 34
75 76 26 43 98
81 82 12 48 51
44 61 73 37 40
10 45 100 87 47
10 44 54 81 68
84 75 73 88 73
65 90 77 48 64
16 21 15 79 16
92 50 100 99 95
58 80 93 74 55
84 13 90 65 83
31 72 19 45 27
77 98 96 83 83
14 37 67 21 19
54 65 69 89 55
94 18 34 12 97
87 66 55 50 89
71 38 64 78 13
0.735184
1.05803
2.46086
0.709239
1.20072
2.43558
2.30667
2.04821
1.9565
1.70868
1.53803
1.7821
1.11205
2.41237
1.73932
1.43944
0.534427
1.80321
2.01619
1.28239
1.31551
0.56304
1.25272
1.95703
1.98785
0.875377
1.59942
1.73971
1.05026
1.72383
2.12953
1.10497
1.10245
1.72192
2.19748
1.73137
2.44017
1.26375
1.95719
1.62956
1.49327
1.1926
1.88858
2.18243
1.35449
1.48782
1.25008
1.47814
1.95906
2.45151
1.33809
2.46076
1.47395
1.03501
1.37695
2.0571
0.809653
1.28626
2.38717
0.549494
477 305
135 44
480 135
465 482
173 269
32 177
445 374
2 15
454 131
1 414
100 302
150 373
226 309
216 235
121 496
314 167
388 420
327 413
23 7
368 180
7 189
401 77
362 184
120 397
396 119
51 99
244 489
236 157
152 489
290 69
198 258
62 275
288 82
170 300
341 27
194 473
403 358
358 286
94 490
289 142
294 204
177 159
248 20
59 56
281 72
58 275
478 333
154 407
467 102
176 320
244 81
499 232
273 352
472 14
258 134
368 44
1 478
234 379
355 494
5 203
5653.33
3
