60
9
0 0 0 0 0 0 0 0 0
56 92 48 34 63 82 10 78 12
10 36 38 94 99 16 86 100 40
100 86 70 80 46 49 48 44 47
100 13 56 23 21 53 17 14 79
100 12 94 40 22 93 55 51 51
97 86 55 68 28 97 85 33 30
61 66 49 49 29 16 25 71 70
26 93 55 85 80 94 43 48 80
41 83 48 99 48 100 67 33 90
13 61 57 23 87 50 95 14 64
20 90 12 90 50 46 77 15 40
47 25 55 92 53 87 66 55 85
62 24 12 32 93 15 58 49 35
25 34 94 93 99 50 23 86 38
39 100 43 70 89 81 57 65 69
45 79 17 42 56 91 59 27 99
51 28 16 97 15 51 68 16 94
92 78 36 89 25 79 29 34 41
66 20 94 68 77 37 74 28 77
25 21 11 96 38 22 93 57 71
42 12 47 69 24 23 79 11 60
46 52 74 29 29 92 37 66 49
17 91 64 65 65 19 79 23 18
35 79 56 47 28 63 74 24 30
46 61 34 86 45 77 64 59 56
83 73 30 69 30 44 82 71 33
31 28 45 63 100 13 75 65 90
83 19 20 64 46 63 75 15 29
35 99 99 60 95 94 60 33 59
94 28 33 95 75 33 54 78 32
43 100 40 14 72 24 89 43 36
72 65 83 73 95 44 73 91 66
70 58 12 33 70 100 67 38 55
49 56 32 29 24 23 86 93 95
59 54 85 82 13 41 64 47 40
68 75 56 34 19 73 85 21 72
74 90 76 29 31 63 55 62 88
22 32 55 64 83 36 18 62 24
75 100 10 73 94 99 24 57 100
91 92 57 35 84 49 55 95 58
79 43 48 11 24 29 66 82 91
66 72 40 24 91 64 71 52 82
16 63 56 88 28 42 11 34 82
11 62 22 63 13 70 77 60 64
84 73 60 54 41 86 70 84 15
77 62 40 41 65 75 100 40 10
86 12 52 82 11 56 52 82 29
58 79 25 19 18 58 83 29 99
51 71 84 36 54 54 26 81 54
28 75 19 53 75 92 72 93 49
16 75 74 28 40 94 82 21 87
82 15 75 74 46 55 56 10 44
79 80 13 40 85 55 99 48 69
42 31 61 38 63 23 89 59 26
48 81 20 24 95 14 36 22 97
54 16 39 12 39 10 63 11 17
96 29 56 84 73 98 25 69 79
51 74 54 99 79 67 90 67 69
71 24 58 97 54 88 27 21 41
0.688018
0.510028
0.874019
0.366817
0.817306
0.41013
0.485167
0.554
0.672806
0.482852
0.381912
0.31907
0.311851
0.330899
0.615257
0.308956
0.293481
0.376081
0.838958
0.225988
0.237184
0.391012
0.586868
0.374778
0.293961
0.832124
0.89004
0.800155
0.799456
0.422473
0.422448
0.867456
0.371073
0.266442
0.269262
0.811216
0.941626
0.287668
0.859432
0.58651
0.386325
0.505859
0.299833
0.850288
0.755644
0.20256
0.27605
0.551495
0.256976
0.885375
0.413049
0.809235
0.386428
0.85154
0.277226
0.945393
0.782392
0.338142
0.445102
0.972113
226 39
280 354
47 47
438 431
418 14
426 413
66 408
382 98
203 70
136 337
58 347
393 290
31 287
422 388
240 479
268 353
287 494
500 49
456 253
8 235
275 481
109 148
132 336
360 257
209 176
368 257
229 69
479 353
345 176
410 117
311 53
222 279
489 385
306 183
244 302
490 254
89 402
393 369
49 238
204 5
393 453
182 95
245 11
182 384
158 457
160 156
6 68
5 259
409 263
105 171
306 228
234 263
446 52
273 416
39 59
334 141
133 466
80 58
11 478
478 267
8237.5
2
