60
11
0 0 0 0 0 0 0 0 0 0 0
16 47 40 28 33 95 70 55 79 34 72
62 31 72 69 97 44 25 75 23 35 70
22 31 70 83 21 56 13 32 79 45 10
77 71 14 31 73 76 99 87 89 46 84
27 33 95 75 37 35 10 21 85 81 78
63 68 49 34 97 35 69 11 70 23 27
72 49 82 72 23 23 25 56 91 78 24
80 62 44 27 61 22 38 54 78 33 17
99 61 35 49 93 94 40 89 93 64 30
81 42 100 78 67 85 32 14 35 16 29
32 76 80 65 11 78 32 96 69 49 30
52 86 96 29 32 85 95 25 27 85 26
25 83 66 14 49 70 58 28 30 43 63
16 69 93 18 75 77 62 87 64 94 45
63 43 52 52 18 15 59 82 92 79 25
63 80 93 94 66 14 19 37 73 79 74
71 33 90 40 49 84 91 70 63 65 68
70 30 53 91 90 45 87 72 66 69 65
37 75 85 53 83 43 48 57 87 60 62
56 82 60 26 99 54 66 27 54 57 45
44 96 73 98 67 87 98 26 88 64 87
84 22 18 30 46 80 82 36 46 85 14
40 90 33 51 87 85 34 87 23 89 96
77 43 89 33 15 37 72 99 81 53 86
56 98 65 16 61 21 85 90 74 64 33
23 97 27 63 41 21 34 74 95 91 62
38 46 25 31 81 62 46 65 56 81 49
18 80 44 96 55 17 40 12 18 50 31
79 52 83 22 51 15 87 96 57 95 65
89 77 62 40 100 24 59 79 52 24 25
13 58 59 75 80 44 77 88 61 99 94
11 57 15 75 93 71 24 90 90 91 24
93 50 76 88 98 14 38 91 79 90 70
70 16 82 12 90 65 74 50 74 82 80
99 22 100 14 46 41 73 30 10 27 17
95 31 29 11 96 39 61 84 47 43 83
16 16 71 65 84 32 51 21 70 24 97
34 50 99 76 82 49 99 11 49 67 95
29 82 41 21 34 73 71 16 13 81 93
21 48 75 36 76 75 85 72 54 77 26
54 95 99 18 11 16 61 78 20 39 95
79 98 59 56 67 35 67 49 57 80 19
87 67 78 82 65 44 15 59 15 27 70
65 61 99 61 41 48 52 99 60 59 36
16 79 37 31 10 18 75 78 62 45 82
56 72 64 53 23 39 16 69 85 83 63
62 46 90 45 51 44 22 40 93 17 10
39 88 13 70 52 58 24 37 13 18 56
77 61 10 37 29 22 46 78 67 53 78
44 77 31 41 13 41 96 59 22 96 88
57 89 62 72 62 37 38 35 70 80 30
49 20 37 63 23 39 13 77 46 58 61
78 97 71 83 64 18 29 72 83 92 95
77 76 72 22 56 55 71 55 33 51 89
19 77 91 62 30 26 27 58 65 60 49
75 43 78 17 95 41 15 57 29 99 40
87 33 16 42 45 46 39 44 40 90 34
29 73 43 25 10 73 20 53 21 66 84
37 68 69 53 84 68 63 33 80 86 13
1.27997
0.702905
0.978452
1.25691
0.914182
1.48533
1.22148
1.08572
0.866761
0.813413
0.844725
1.48813
0.482129
1.04376
1.07306
0.631952
1.48097
0.414988
1.37145
1.01722
0.641188
0.689159
1.34295
1.44904
1.08112
0.514921
0.879762
0.661007
1.37895
0.78015
1.04246
0.503664
0.460124
0.388984
0.884645
0.613726
1.06675
0.881592
0.477924
0.369681
1.32608
0.619664
0.570782
0.768592
1.37284
0.936109
1.21143
0.589151
0.905122
0.802157
0.59606
1.04778
1.17813
0.671936
0.846537
0.639258
0.81594
1.00939
0.796147
0.44406
498 86
7 223
224 498
119 354
376 153
23 454
90 174
414 363
74 115
347 169
327 352
270 411
282 150
359 448
128 8
423 172
406 34
374 422
336 496
217 180
215 18
210 234
305 134
476 119
227 242
356 281
426 237
432 337
459 82
189 125
251 467
488 427
137 496
185 456
389 443
45 145
295 384
390 392
147 283
39 136
337 108
46 133
363 284
262 166
352 415
307 115
391 136
430 178
371 72
449 463
3 455
410 148
30 183
232 50
310 124
45 433
2 243
447 9
401 426
458 402
16620
1
