60
3
0 0 0
70 49 21
48 52 55
61 44 91
74 68 99
68 79 16
29 75 84
86 13 63
27 93 60
81 100 19
18 64 98
56 43 48
99 19 44
20 61 24
35 55 12
97 21 91
21 55 33
79 65 13
12 23 13
38 14 90
54 14 29
14 72 33
70 26 85
55 29 44
32 26 42
44 65 14
88 31 24
87 25 20
64 80 78
87 89 56
90 53 63
29 93 80
46 85 76
78 82 17
25 42 20
85 29 68
76 96 18
32 73 84
25 95 44
24 34 42
52 41 32
76 48 76
94 59 55
97 100 84
26 40 97
20 77 79
34 81 55
34 44 75
76 58 36
42 16 83
72 50 53
82 80 64
94 63 19
83 64 81
70 78 48
57 41 76
51 24 27
89 71 25
54 56 15
21 84 70
0.396183
0.223068
0.496278
0.480755
0.181708
0.433464
0.255135
0.289017
0.39126
0.435245
0.126195
0.212126
0.111182
0.296797
0.383934
0.218666
0.114992
0.398753
0.261214
0.20653
0.224457
0.200436
0.474446
0.191717
0.374638
0.269489
0.366484
0.382022
0.454076
0.102131
0.290582
0.207405
0.12751
0.339854
0.220019
0.361563
0.201223
0.222303
0.49035
0.282608
0.231865
0.220366
0.499798
0.358706
0.206406
0.151506
0.267749
0.454293
0.145536
0.335014
0.429746
0.340842
0.394713
0.363679
0.393762
0.20833
0.120917
0.313738
0.191381
0.264724
148 264
232 79
380 302
311 228
339 341
476 70
226 282
297 112
476 130
58 117
319 163
362 64
46 296
125 383
428 93
66 171
156 23
208 201
30 444
96 231
75 456
415 415
452 290
457 255
464 466
126 354
17 291
376 210
379 228
288 135
415 137
362 155
202 454
165 188
101 351
380 110
152 190
144 380
174 257
230 96
158 102
342 445
59 28
196 136
429 452
368 107
461 438
7 233
79 440
21 430
75 219
499 147
104 168
54 244
388 252
485 111
332 27
103 266
330 269
397 98
8095
2
