60
7
0 0 0 0 0 0 0
23 73 54 48 61 68 81
21 20 20 10 30 90 73
70 72 45 80 10 64 58
11 40 100 42 14 20 59
69 27 10 58 39 77 100
73 40 18 51 13 23 50
65 65 81 57 11 20 85
67 80 36 28 87 10 77
66 71 49 25 22 94 97
87 82 68 50 23 85 26
83 15 88 92 85 26 25
62 11 45 19 79 29 42
27 62 99 79 62 93 85
87 100 66 85 49 41 40
10 65 14 64 85 92 92
28 74 80 48 99 42 94
18 62 50 63 43 45 99
46 83 55 57 10 67 71
40 49 78 56 94 24 38
38 15 100 27 69 13 19
57 98 43 44 77 73 82
76 52 86 32 19 82 23
91 85 70 11 59 38 50
97 79 10 42 56 17 16
92 34 38 78 52 91 50
32 27 27 73 30 89 59
24 70 79 22 13 38 12
55 24 90 62 67 100 68
90 19 82 98 94 36 27
67 96 30 15 10 70 88
54 18 60 73 24 73 63
85 56 58 43 64 73 51
36 42 11 64 57 38 21
74 70 32 44 100 66 25
76 45 36 66 95 97 49
75 34 16 81 29 54 33
34 10 23 38 85 46 55
39 85 65 74 15 69 54
29 88 91 23 50 29 34
77 21 18 21 93 44 82
42 42 91 76 70 93 30
51 52 74 80 24 20 60
94 17 76 64 60 23 18
94 20 56 39 96 86 85
31 83 44 25 32 30 16
24 34 68 69 84 38 60
77 35 68 33 31 58 12
12 48 97 81 92 62 17
64 39 61 68 23 35 18
16 43 78 86 16 64 52
99 22 23 45 34 25 47
55 86 88 92 84 91 92
42 72 28 65 15 19 67
43 99 33 89 20 40 71
37 90 23 13 99 44 87
100 26 65 32 95 35 34
78 22 92 51 29 99 51
43 35 21 20 15 25 85
50 80 49 27 73 89 72
1.65429
1.08479
1.79855
1.71075
0.710431
1.44607
1.37807
0.819426
0.466371
1.96063
0.873476
1.86302
1.49886
1.54883
0.933037
0.523021
1.08234
1.383
1.33422
1.37808
0.961715
1.84052
0.935488
0.558433
1.16552
1.21431
0.574085
1.43064
1.34616
1.96493
1.03754
1.37863
0.794208
1.17256
0.486637
0.558791
0.757309
1.84595
1.04268
0.736363
0.716425
1.09648
0.841889
1.72547
1.0706
1.31988
1.33382
1.76428
1.708
0.713797
1.67391
1.2978
0.938913
1.66381
1.18241
0.434464
0.699697
1.63731
0.529916
1.39951
77 271
90 342
283 311
173 445
380 228
387 223
356 403
95 260
353 404
177 249
500 442
419 71
41 189
125 165
348 481
146 58
173 227
481 219
17 317
383 211
343 285
79 206
487 326
187 37
84 47
426 288
353 198
219 458
414 222
275 127
46 325
209 350
359 260
470 100
36 187
454 7
90 250
471 57
438 53
19 52
435 126
1 281
162 429
9 338
230 200
168 304
486 19
244 143
460 82
297 235
412 100
436 172
440 271
52 55
68 148
229 453
353 191
41 101
8 314
53 396
5303.33
3
