60
9
0 0 0 0 0 0 0 0 0
30 31 95 54 97 33 68 24 56
18 78 46 30 82 29 60 81 52
45 89 22 87 20 53 95 93 34
50 70 40 97 23 87 21 78 26
27 73 38 29 86 44 17 68 40
93 10 10 98 20 51 46 44 64
65 60 83 63 36 47 67 35 57
82 28 48 31 20 94 32 37 19
21 30 22 20 80 44 76 34 49
66 51 82 54 35 34 64 79 66
40 31 27 99 10 16 62 62 80
20 46 74 57 72 11 35 12 92
25 48 48 32 18 33 95 37 83
75 34 16 63 92 24 66 44 15
73 44 87 87 16 98 18 89 76
89 54 26 88 61 73 39 74 12
66 25 39 74 42 50 40 15 10
72 96 100 85 23 82 100 79 99
28 34 75 56 30 77 52 34 42
95 59 37 99 42 93 65 50 74
77 92 39 92 40 33 33 75 67
88 17 20 41 62 71 94 75 64
68 39 35 44 73 84 62 91 36
36 71 68 76 10 28 24 28 39
21 78 62 83 35 81 34 14 67
15 47 86 46 22 50 80 76 28
97 18 73 92 98 62 52 28 32
69 71 72 84 66 51 57 63 86
87 25 29 67 90 13 38 62 85
57 63 19 83 81 40 79 55 84
67 67 38 49 24 46 55 84 40
33 26 44 86 23 55 41 51 51
31 62 71 65 10 93 45 78 40
51 94 72 56 79 20 19 37 92
50 40 82 92 84 77 80 17 66
49 67 61 94 72 78 40 41 29
84 55 71 65 13 60 72 100 51
39 84 11 30 11 43 88 58 73
60 27 86 51 89 37 70 64 34
35 91 42 19 50 59 21 13 72
12 44 28 55 58 10 75 86 99
40 37 83 44 67 10 77 96 38
75 61 96 52 48 70 77 65 81
94 68 29 30 33 35 66 74 99
12 81 31 56 50 41 98 39 90
33 43 32 23 68 40 81 92 12
81 68 30 24 60 81 40 70 92
63 48 45 81 82 81 39 54 55
59 49 47 11 73 53 62 73 18
41 39 78 95 22 74 32 80 78
33 12 41 65 90 22 10 64 95
96 20 41 80 15 41 34 62 28
55 61 22 54 70 12 100 22 40
37 84 26 86 72 70 83 63 70
86 49 10 21 38 73 36 40 60
17 51 80 22 80 44 50 29 62
40 39 18 85 67 11 50 58 68
39 98 85 60 31 73 97 62 97
30 68 41 97 80 24 33 77 95
1.08689
1.76302
1.29445
2.24698
2.27759
1.54801
1.49101
2.1245
0.917347
1.2295
0.797239
1.4006
1.32786
2.39215
0.978752
1.02526
1.38358
1.72525
2.12512
0.516112
0.714632
0.546501
2.15595
2.00635
1.5028
1.92982
2.22122
0.698248
1.59504
1.27556
2.09083
2.26928
2.4429
1.85494
2.32323
2.15277
2.36907
1.24526
2.04929
1.11748
1.12666
1.73547
1.58835
0.565512
0.725352
2.05091
1.7719
1.26441
1.98999
1.60541
1.00528
1.15258
1.29712
0.858824
1.18881
2.2295
0.562833
1.16075
1.08076
2.21214
120 230
199 289
412 20
124 482
320 248
386 58
408 136
52 494
361 51
302 461
152 467
441 140
14 403
413 128
40 454
142 56
152 100
416 75
269 437
429 438
53 350
436 70
431 229
142 269
220 150
458 72
56 48
450 428
440 299
334 299
164 349
73 325
312 180
115 31
27 126
187 283
101 82
370 301
451 184
344 20
251 389
354 306
16 317
69 470
458 340
275 300
452 429
94 376
203 482
97 86
255 211
146 200
105 395
332 163
208 135
308 167
168 389
320 461
497 93
127 229
3238
5
