60
7
0 0 0 0 0 0 0
71 81 16 87 80 94 31
88 60 64 36 40 52 78
23 90 25 34 77 45 60
57 26 20 45 63 25 93
49 73 37 52 94 30 51
89 42 50 87 18 62 39
31 61 10 34 50 32 100
67 12 55 26 44 41 78
80 47 44 79 92 56 25
72 18 22 57 86 96 78
95 79 74 26 80 66 27
96 44 57 89 50 77 12
12 54 41 34 73 52 37
89 14 38 89 76 73 10
70 38 30 50 25 97 87
31 77 18 15 74 77 60
68 56 95 71 22 53 77
70 95 73 84 75 13 72
63 79 56 65 44 60 65
70 74 92 64 97 89 19
61 11 62 13 13 30 31
79 76 66 48 81 75 31
52 93 19 15 92 81 67
93 13 78 93 12 77 14
26 66 59 12 44 40 77
48 82 14 37 46 56 27
31 10 73 91 86 91 45
49 41 98 92 57 39 47
15 98 47 17 41 97 39
59 28 82 42 80 60 70
25 92 47 37 82 14 57
75 55 61 62 52 34 58
45 56 65 72 49 58 14
20 95 13 21 69 54 46
37 35 92 18 71 69 44
72 82 23 100 15 24 71
13 79 77 69 78 33 80
50 71 68 79 87 74 73
75 69 68 60 84 55 70
29 72 28 57 55 81 54
23 46 100 43 32 100 68
15 35 69 89 61 66 78
76 32 73 87 27 48 64
71 92 47 89 31 15 56
55 11 51 33 36 93 15
34 27 53 94 93 38 70
35 12 47 79 73 69 88
14 24 56 67 54 56 80
35 88 14 51 86 14 17
57 56 85 10 91 23 21
100 76 23 62 24 25 12
65 62 56 49 84 52 77
78 19 38 13 93 51 37
77 45 51 43 32 44 97
37 79 30 18 77 67 37
50 37 98 20 55 12 92
38 22 65 55 55 22 20
77 67 59 72 79 75 15
92 84 17 42 75 20 48
1.86712
0.554336
1.93033
1.42691
0.589233
1.1312
1.09371
1.4915
0.560631
1.72963
1.49003
1.56059
0.818447
1.76664
0.736409
0.605522
0.690608
1.88461
1.73663
0.717365
0.792739
1.51727
1.87286
0.427462
1.53249
0.429072
1.46256
1.08031
1.66261
0.413091
1.57587
1.45285
0.586457
1.64903
1.13884
1.03682
1.36423
1.51142
0.96277
1.35705
0.636199
1.3423
1.35619
0.820868
0.637597
0.426908
0.889682
0.908577
1.65773
0.979817
0.739723
0.625754
0.411417
1.09736
0.85737
1.9316
0.497012
1.97078
1.95268
1.02608
257 114
161 319
129 30
72 422
390 173
387 480
19 455
90 393
119 402
153 98
112 144
486 184
403 250
140 49
357 329
457 318
90 359
433 463
453 402
333 295
244 173
492 208
254 420
200 180
175 433
176 79
161 329
494 498
422 267
463 106
410 1
137 337
499 378
445 83
374 269
294 70
292 207
277 136
395 494
314 159
242 232
341 309
297 146
190 216
466 267
0 290
258 482
273 149
354 162
15 455
417 177
84 197
174 59
268 343
424 402
81 253
228 131
433 132
395 176
488 47
16240
1
