60
3
0 0 0
86 46 64
38 43 79
96 94 71
30 18 30
51 68 81
97 92 16
70 61 76
96 54 16
38 49 19
89 43 43
72 22 99
100 26 44
92 28 34
72 48 62
11 93 92
70 92 29
56 39 60
93 29 75
13 11 69
91 52 62
65 60 41
26 22 38
54 17 87
21 16 25
49 47 16
30 80 67
45 94 63
18 61 35
81 81 59
94 49 79
10 79 54
90 13 46
42 57 89
49 13 66
66 73 24
96 86 40
82 89 69
26 40 20
58 61 89
29 57 29
14 55 55
90 13 78
30 85 39
57 61 47
88 77 87
34 56 89
42 30 60
32 99 97
13 11 62
19 73 49
24 37 15
71 29 23
75 94 28
61 59 75
50 100 63
30 25 48
93 73 76
55 39 68
57 42 39
1.87829
1.13616
2.34111
1.60847
2.49786
1.77547
1.08125
0.889098
0.886812
1.2443
1.6715
1.45323
0.62807
1.14657
1.91308
0.633524
0.603605
0.574445
2.38392
1.291
0.719564
1.00469
1.33367
1.61322
2.40875
2.13355
2.2671
1.98686
0.607276
1.18738
2.33729
0.902653
0.910389
0.734702
1.05409
2.16141
0.641378
2.20709
1.49126
1.99472
2.45414
1.0983
1.69088
0.520691
1.01984
0.797706
1.3821
1.52193
0.813889
0.986277
2.44341
0.609383
1.83058
1.55971
2.21361
1.40973
1.86599
2.10121
1.42196
1.29803
67 318
470 0
202 213
416 409
424 267
276 452
105 177
201 69
224 370
410 36
367 136
64 213
165 159
296 137
387 245
388 148
77 222
228 399
186 403
258 30
67 110
228 67
484 63
361 59
439 155
241 58
483 323
39 72
420 54
302 158
280 390
20 323
293 397
159 288
260 27
72 468
111 356
94 359
178 105
174 400
99 347
156 375
118 5
233 345
90 94
278 497
365 280
204 100
47 424
450 482
116 280
368 267
414 382
353 232
122 57
476 247
298 442
200 487
419 74
310 239
8117.5
2
