60
9
0 0 0 0 0 0 0 0 0
16 33 95 55 33 50 54 80 100
99 56 87 43 71 92 82 28 69
50 53 15 43 83 20 71 84 33
55 86 30 81 21 18 50 10 18
36 86 66 49 100 63 29 63 50
64 39 37 58 92 86 70 56 32
47 40 81 37 38 13 26 63 21
10 16 48 24 86 20 12 64 89
67 98 23 44 37 100 26 22 58
26 75 34 37 99 92 33 42 61
62 95 94 67 99 68 35 41 32
44 13 39 28 30 54 88 68 66
19 76 42 18 21 18 71 11 82
19 64 48 79 85 38 30 69 33
42 87 54 97 23 99 50 13 21
45 73 44 39 84 56 40 57 58
77 31 58 61 50 26 57 10 78
43 80 21 89 100 37 40 41 28
94 76 93 93 28 56 61 76 38
84 52 94 38 28 20 71 90 93
41 24 68 79 34 43 69 88 48
58 20 11 22 38 15 32 96 20
14 77 58 14 46 39 36 69 76
24 62 80 48 84 16 30 22 93
48 14 21 21 30 43 30 16 96
54 63 17 70 52 34 64 50 20
93 51 16 98 76 72 29 19 35
79 29 57 63 43 78 18 13 46
85 38 19 23 23 53 39 18 37
59 60 100 18 45 36 43 50 54
11 36 70 91 29 41 40 36 90
69 89 58 83 17 69 10 83 20
30 49 61 20 26 81 62 59 20
22 20 50 47 39 80 96 67 60
58 37 54 51 17 53 53 50 87
80 36 56 78 85 62 85 70 76
46 92 96 65 74 39 27 68 71
56 19 48 96 83 92 97 81 40
22 35 50 77 28 88 66 66 20
91 53 96 37 75 86 69 11 22
85 13 15 58 54 18 24 28 30
62 10 62 76 37 12 74 72 61
63 57 92 57 23 32 87 99 85
34 36 96 83 88 98 54 57 98
100 53 33 31 68 86 37 64 83
26 62 12 13 41 30 41 24 38
57 23 93 42 86 90 98 87 80
43 90 74 64 85 58 64 58 45
50 69 54 14 39 96 93 90 32
32 79 36 79 100 93 32 32 41
38 91 94 69 72 57 70 49 43
35 97 94 73 73 78 12 73 52
96 56 98 36 69 96 94 90 97
86 32 32 26 34 86 80 84 90
59 95 69 96 16 49 96 72 93
45 67 32 73 74 82 70 62 52
37 65 16 95 97 26 80 61 85
33 52 54 17 84 38 13 10 67
31 18 88 58 62 88 33 83 57
0.394034
0.394886
0.242335
0.306046
0.184522
0.431268
0.344316
0.285945
0.369234
0.344365
0.192475
0.3961
0.481957
0.143137
0.209488
0.431036
0.375617
0.470917
0.317101
0.387308
0.47385
0.403719
0.128088
0.252928
0.403969
0.433093
0.282497
0.282678
0.460342
0.429866
0.370896
0.200093
0.342336
0.27616
0.320695
0.294677
0.305015
0.213374
0.368043
0.126863
0.308619
0.315036
0.418506
0.112835
0.450555
0.157024
0.213103
0.374482
0.423632
0.491457
0.325822
0.400745
0.236331
0.448087
0.125558
0.270828
0.100769
0.110292
0.314682
0.328014
265 245
51 487
437 306
120 426
150 233
379 70
491 56
168 214
155 14
333 354
402 111
233 36
205 65
318 443
31 2
486 126
386 186
110 188
398 146
323 410
232 465
485 74
316 378
316 238
418 418
159 0
441 76
447 474
372 359
370 330
397 104
386 203
420 374
390 124
464 66
476 485
317 275
90 498
89 132
168 496
68 178
73 209
290 449
372 286
11 30
275 338
263 155
85 127
469 217
413 7
481 133
5 291
149 433
265 383
390 332
25 91
279 399
368 439
366 320
32 265
16230
1
