60
3
0 0 0
47 41 10
10 72 74
68 43 73
87 30 48
22 59 68
46 63 23
75 97 55
53 72 66
100 85 91
40 31 21
75 84 69
94 16 82
75 63 27
59 84 48
13 83 99
66 92 97
71 97 39
26 66 81
65 44 85
16 46 96
35 27 45
67 18 55
39 62 46
44 51 68
26 98 34
32 21 40
44 84 60
85 62 42
24 70 41
33 58 99
69 51 40
77 61 87
59 64 93
59 97 64
80 90 66
13 82 38
86 41 81
20 14 58
70 96 38
32 63 72
50 77 61
72 18 54
36 73 43
47 84 56
19 80 48
71 70 92
50 15 80
21 82 49
96 91 20
93 12 43
57 37 63
99 27 69
13 37 54
55 62 54
38 71 69
34 73 83
68 43 66
71 84 48
46 74 45
0.363326
0.491184
0.254084
0.30983
0.217715
0.197176
0.409494
0.332724
0.398638
0.478693
0.255842
0.496451
0.42139
0.21945
0.115691
0.128594
0.139109
0.307187
0.342537
0.443022
0.116304
0.44129
0.489139
0.230409
0.278048
0.109088
0.27841
0.339396
0.380002
0.188907
0.168731
0.481723
0.198916
0.15574
0.498871
0.176588
0.326775
0.136266
0.222733
0.231881
0.214057
0.319173
0.372298
0.457525
0.115795
0.226768
0.162515
0.376366
0.462696
0.120378
0.369425
0.241008
0.482603
0.222741
0.432548
0.134431
0.19413
0.306054
0.143766
0.239453
189 113
144 35
160 307
66 144
431 62
477 242
227 176
464 242
84 5
446 194
82 13
111 150
172 405
242 473
289 136
98 286
58 382
104 256
428 127
194 76
180 77
453 258
397 65
274 75
455 276
465 310
20 425
101 481
374 144
196 189
153 160
448 57
85 427
110 106
300 124
104 459
116 241
184 413
229 272
3 93
47 181
295 177
289 50
31 176
335 495
73 5
22 243
479 227
35 450
317 395
284 336
91 243
441 272
391 123
227 267
52 345
439 300
143 213
428 488
438 450
8535
2
