60
9
0 0 0 0 0 0 0 0 0
37 53 71 99 37 23 34 33 90
31 40 35 14 49 39 42 88 41
80 27 43 67 85 73 42 59 67
14 79 89 62 41 27 98 44 61
69 100 55 21 48 89 69 77 92
66 50 74 68 91 26 47 43 54
71 32 25 83 65 86 57 10 35
61 84 71 49 54 78 100 84 100
45 49 49 69 91 87 13 57 14
48 50 82 25 37 64 72 88 71
17 15 37 10 75 100 30 91 82
93 24 28 35 30 53 80 31 57
62 73 54 28 41 44 78 16 87
96 72 79 37 13 88 59 94 29
54 32 77 41 47 69 78 60 88
71 25 93 56 100 57 11 97 19
12 62 87 32 99 81 59 84 72
83 35 60 34 85 56 58 49 80
56 19 74 17 36 48 48 45 42
52 54 85 72 50 92 57 95 89
97 85 80 78 60 62 32 72 85
82 68 85 69 38 52 45 47 73
29 98 22 37 42 11 84 84 64
56 57 90 86 61 81 70 99 35
70 40 53 73 26 50 88 95 69
23 35 80 48 85 95 49 62 99
17 60 77 88 33 35 37 93 80
13 20 72 89 25 60 36 95 69
16 33 39 96 56 35 43 33 11
84 23 80 73 43 100 21 74 84
77 21 87 49 34 18 61 48 63
64 77 50 89 28 84 60 25 31
32 77 17 43 80 67 95 66 35
32 13 36 88 67 100 11 34 54
31 40 39 28 95 18 90 58 40
45 16 10 21 66 48 61 32 13
28 81 76 91 65 11 85 21 34
64 12 58 66 66 18 41 52 88
100 81 27 90 48 69 31 34 77
32 80 44 10 77 64 68 61 57
68 61 91 19 100 75 14 57 45
58 19 82 16 51 46 92 19 54
30 98 73 21 19 68 43 20 33
39 52 69 12 19 86 72 40 19
44 91 37 31 49 100 40 17 90
66 60 58 78 17 25 59 51 74
78 72 77 99 84 60 64 95 99
65 25 70 10 87 82 74 32 73
74 85 55 64 13 57 74 18 84
67 46 75 97 85 92 59 36 55
46 63 30 22 34 24 11 91 92
26 66 44 12 35 48 81 45 54
100 11 26 73 96 76 96 61 10
79 62 85 69 97 67 70 93 46
54 31 46 56 74 16 25 65 95
36 78 30 64 90 76 32 61 53
76 62 55 44 12 52 62 61 35
48 59 40 61 90 47 97 78 98
70 66 85 83 41 42 10 20 42
0.345167
0.478217
0.805544
0.594779
0.618461
0.83278
0.899748
0.923159
0.571463
0.879578
0.849844
0.438228
0.630255
0.310427
0.705951
0.88778
0.800277
0.748667
0.755264
0.748479
0.711032
0.443621
0.25878
0.56328
0.957416
0.235403
0.944413
0.794007
0.782044
0.444338
0.242486
0.521117
0.379327
0.558745
0.546577
0.43167
0.480899
0.364964
0.925277
0.927254
0.601448
0.905999
0.595098
0.760733
0.452223
0.957758
0.808083
0.858733
0.34444
0.213264
0.947273
0.478689
0.47685
0.460724
0.564279
0.42854
0.205792
0.680486
0.869926
0.710588
292 353
470 461
125 418
7 373
448 449
14 415
180 224
422 336
205 93
126 440
294 346
93 10
212 81
64 62
85 14
423 208
39 78
59 7
485 15
2 162
242 19
404 465
476 486
378 189
160 169
307 211
417 110
157 405
128 440
219 203
90 417
127 281
282 289
457 146
435 425
209 122
52 237
112 4
335 475
334 391
115 33
331 241
285 310
116 116
439 274
330 14
412 286
232 37
500 323
500 453
403 2
407 279
215 326
239 428
210 402
231 41
39 166
126 322
290 27
481 394
16755
1
