60
3
0 0 0
31 22 84
42 97 70
77 18 27
26 49 47
72 58 85
47 19 45
64 15 15
48 97 72
17 61 52
59 41 45
58 42 98
21 13 53
54 33 10
50 87 42
53 70 17
74 19 37
44 67 41
36 66 77
70 88 22
80 24 99
74 75 96
46 89 78
14 97 19
69 88 37
22 71 93
35 55 16
63 53 29
14 76 36
90 34 22
89 100 19
59 40 73
42 37 63
14 17 84
18 19 73
23 19 53
34 90 37
16 29 79
66 72 49
99 34 73
20 88 37
88 46 58
26 58 44
96 14 50
16 19 35
11 28 53
20 90 92
13 96 28
16 61 12
86 90 36
62 68 82
61 36 85
93 57 87
36 42 22
12 61 39
74 36 67
68 11 47
72 72 95
17 76 40
31 20 85
0.260735
0.219493
0.360666
0.154028
0.399627
0.113063
0.109075
0.225022
0.103747
0.158779
0.348326
0.320196
0.189503
0.427068
0.154828
0.400114
0.315858
0.121595
0.155618
0.172711
0.338277
0.313025
0.163317
0.251985
0.340055
0.372636
0.120893
0.167049
0.362576
0.28097
0.366408
0.488927
0.327606
0.133774
0.44317
0.331113
0.276735
0.306522
0.32498
0.430954
0.474767
0.337983
0.196801
0.414007
0.46914
0.495177
0.432021
0.128813
0.45932
0.476728
0.471857
0.16614
0.349084
0.303801
0.170702
0.481336
0.458472
0.317112
0.404852
0.250603
438 382
33 246
125 64
11 409
89 223
275 249
185 426
124 272
68 432
386 140
26 291
369 459
319 10
429 298
429 296
311 320
406 237
33 414
429 236
152 297
53 51
336 254
123 221
109 347
156 330
475 348
309 198
113 282
241 77
287 377
488 118
172 450
496 73
129 77
224 78
466 278
432 157
247 436
241 237
440 153
134 219
119 299
407 43
363 496
408 346
258 366
325 137
35 285
220 45
195 13
41 180
310 140
449 69
39 60
429 327
153 325
137 355
476 65
450 96
181 66
3807.5
4
