60
7
0 0 0 0 0 0 0
19 45 91 32 24 25 81
18 42 42 19 84 56 23
98 48 97 64 67 74 28
77 82 85 25 17 63 41
26 83 53 15 51 27 84
52 20 14 74 100 85 93
73 25 88 27 82 37 30
50 91 92 10 73 56 26
59 75 100 85 97 98 95
35 44 28 47 68 40 48
91 13 55 75 95 89 16
80 56 27 96 20 14 71
68 15 100 100 54 72 59
47 93 20 52 87 38 53
23 56 50 56 36 23 77
23 72 39 36 57 25 74
87 66 60 15 40 29 97
73 18 77 20 32 69 39
57 65 70 24 37 64 34
27 74 77 85 71 27 83
20 16 76 33 82 100 90
97 73 11 14 34 16 67
21 98 90 39 55 74 58
85 78 30 10 100 28 87
78 10 61 39 91 38 72
60 73 97 89 69 25 26
10 29 53 73 33 12 41
64 93 71 86 21 53 55
80 87 27 92 48 53 64
94 13 63 70 72 85 72
78 75 96 57 11 85 42
59 78 88 22 33 23 46
44 98 36 62 62 82 69
36 19 77 92 34 34 67
18 99 65 41 92 55 50
55 39 84 22 69 97 83
52 96 56 56 78 76 93
75 19 54 75 37 31 64
71 43 17 26 100 88 53
38 21 83 18 11 58 72
50 51 91 75 38 96 66
20 39 51 91 69 81 51
75 26 41 59 73 31 56
14 96 52 24 46 24 32
86 24 18 66 83 10 78
36 31 37 35 36 81 38
34 48 18 54 62 92 31
96 90 60 53 42 36 55
46 33 82 86 18 53 42
98 84 77 45 40 66 13
66 31 99 58 97 32 84
48 67 52 97 82 73 83
33 47 39 73 83 53 89
34 34 28 89 34 60 88
58 10 66 33 62 27 31
45 65 13 52 83 16 97
68 24 28 87 76 61 42
47 34 48 42 25 16 33
34 21 29 49 85 37 96
1.51151
0.722632
0.77122
1.36857
0.982707
0.574405
1.16127
0.834392
1.74663
1.27717
1.66126
1.58474
1.85417
1.3031
1.5591
1.51189
1.87795
1.4579
1.11112
0.870744
1.6212
1.38257
1.81101
1.17525
0.883007
1.35571
0.573045
1.87144
1.06424
0.797523
0.461806
1.39026
1.41818
1.33894
0.762673
0.616007
1.11992
1.52274
0.601596
0.970978
0.962616
1.09739
1.4138
0.506742
0.613671
1.54453
1.99349
1.30756
1.77629
1.16197
0.650166
1.97426
0.404862
0.684318
0.630526
1.14846
1.88862
0.747833
1.992
1.8136
359 71
137 39
187 484
423 405
144 134
236 122
307 478
200 44
477 268
206 324
408 403
221 337
491 497
366 170
197 148
343 211
407 107
492 165
38 459
228 460
407 154
206 486
249 351
485 251
4 325
463 395
442 195
139 324
344 397
19 286
475 93
319 288
323 26
338 132
14 58
114 209
330 290
24 386
277 386
432 110
325 461
147 278
455 490
218 216
256 423
140 356
374 231
80 467
460 491
80 386
13 454
138 154
490 140
191 451
221 16
215 394
10 388
433 459
449 158
454 226
3275
5
