60
3
0 0 0
20 67 44
60 44 59
64 37 55
86 75 27
89 61 19
92 79 50
78 56 30
24 42 78
83 27 41
11 61 87
11 46 21
36 68 61
76 89 70
36 100 90
14 50 32
88 62 100
52 100 40
39 24 79
44 87 89
84 47 63
83 87 44
77 69 63
71 73 66
17 99 83
95 91 95
57 49 16
13 27 73
65 29 17
55 35 94
87 34 91
25 24 97
58 89 79
94 27 47
25 74 57
50 85 64
37 35 72
54 81 57
19 55 27
88 43 100
33 16 40
52 25 88
97 53 23
22 87 91
44 24 19
16 88 63
72 31 11
12 78 31
63 85 97
34 13 53
92 97 73
47 12 99
52 91 93
64 53 47
31 98 44
41 33 75
69 100 61
11 77 42
81 75 30
86 14 16
0.529069
0.838246
1.06113
0.34682
0.803545
1.3137
0.860623
1.06374
1.04739
0.924656
0.529942
1.45737
0.591885
0.996019
1.22125
1.10963
0.859957
0.372638
0.618239
1.44957
0.751
0.323961
0.475534
1.35077
1.37895
0.976921
1.38164
0.876332
0.851207
1.27723
0.521076
0.344114
0.751711
0.544354
0.539468
0.327141
0.41739
0.961358
1.2481
0.972724
1.24374
0.901052
1.44297
1.43029
0.56337
1.01858
0.54935
1.06748
0.740015
0.440083
1.25068
0.687702
0.983688
0.836309
0.621925
0.394263
1.49631
1.14346
1.0223
0.436425
499 11
445 333
422 107
456 278
275 436
141 227
468 420
41 307
103 89
487 130
256 463
33 461
328 199
15 460
282 213
410 374
143 103
446 79
93 421
112 425
160 468
135 476
324 276
17 115
8 471
393 363
99 484
240 200
231 427
174 281
308 31
450 352
302 221
203 305
469 80
202 224
89 294
498 165
245 152
306 154
415 155
438 153
277 404
163 44
458 99
364 351
66 296
331 216
315 184
71 407
73 379
376 410
82 170
444 306
152 130
235 420
346 361
415 246
354 217
445 194
4218.75
4
