60
7
0 0 0 0 0 0 0
47 17 94 44 63 22 38
71 79 40 64 18 20 69
85 47 69 48 91 18 23
14 56 78 25 99 28 74
16 53 37 29 10 29 78
75 18 35 90 46 37 25
50 88 16 50 98 97 35
81 40 92 75 42 40 59
58 65 77 37 38 68 62
37 58 43 56 29 59 87
72 98 26 55 13 59 79
24 30 53 50 44 29 61
12 45 44 60 22 96 97
52 41 50 78 76 55 51
47 98 17 34 39 77 44
74 31 94 14 49 15 71
96 50 92 80 76 62 86
44 48 52 11 28 31 14
17 82 24 32 32 54 75
83 58 82 55 50 98 15
90 35 98 65 81 33 87
73 51 36 66 91 62 53
49 99 82 52 94 30 66
79 46 87 46 92 38 53
80 90 63 81 69 63 20
93 93 23 78 43 29 85
83 21 94 87 21 34 27
46 60 34 50 91 74 38
32 97 26 89 14 68 18
61 34 62 32 63 70 90
89 87 53 43 53 98 10
42 65 79 94 80 20 23
29 98 46 41 85 28 99
74 83 26 23 84 36 96
56 36 18 97 15 83 95
75 14 91 99 35 24 88
94 23 41 23 29 19 79
100 51 88 20 34 65 14
13 15 99 60 10 36 59
39 30 49 53 32 38 40
88 71 42 19 22 36 96
56 44 94 27 98 25 69
75 16 92 30 17 81 38
40 80 46 86 98 23 11
62 57 99 37 11 10 59
55 91 93 16 27 74 74
44 72 65 10 98 49 68
30 32 80 71 98 54 86
16 45 23 16 94 51 67
13 17 55 49 48 48 55
90 85 35 82 96 21 25
48 21 75 42 100 28 60
21 90 59 49 55 84 66
68 64 98 17 67 36 14
56 50 23 53 11 64 72
93 88 58 74 33 98 25
78 29 10 48 70 58 23
88 31 93 42 78 72 82
73 10 86 32 42 29 84
2.20598
2.39222
0.534984
1.17698
0.98365
1.52782
2.2072
0.517008
2.24672
0.74548
1.23782
1.53249
2.02061
0.829734
1.54088
1.1482
2.12403
0.647003
1.17137
1.60236
1.40541
1.15987
2.23912
2.4867
2.17873
0.825417
2.09176
1.32129
2.40886
1.41496
1.74607
1.91668
0.81149
2.44871
1.91175
1.98457
2.00785
1.30502
2.30024
1.13258
1.7054
1.3576
1.9636
2.0636
2.496
2.01486
2.02349
2.15325
1.21175
2.321
1.21354
1.12979
1.01372
1.71493
1.55351
1.21619
0.961977
2.23445
1.19943
2.31079
49 8
463 290
86 61
450 193
474 239
381 135
495 139
319 335
3 48
142 98
97 149
210 275
227 398
493 90
176 195
480 190
111 301
405 205
298 165
41 358
25 131
160 96
452 110
351 373
35 482
471 328
472 153
377 250
224 175
266 349
394 85
127 439
0 279
22 238
101 411
447 371
472 293
246 377
154 467
224 150
201 86
165 362
465 95
53 48
321 182
131 227
227 345
53 165
343 151
120 386
188 62
232 110
7 398
176 294
311 75
31 373
406 339
469 258
385 455
47 148
8097.5
2
