60
9
0 0 0 0 0 0 0 0 0
87 85 13 35 14 37 97 86 55
14 22 71 12 56 55 71 10 25
75 51 14 40 14 93 21 24 100
74 51 71 36 98 26 60 71 80
57 90 53 84 75 18 88 67 58
88 96 40 72 37 30 84 26 23
19 83 54 99 14 28 92 49 79
85 37 86 76 37 40 40 61 52
14 24 45 90 74 95 53 72 52
21 22 78 45 33 52 68 22 36
89 13 99 50 26 90 25 53 30
45 89 38 83 63 81 76 52 37
36 48 53 99 69 70 67 98 45
65 99 77 39 72 32 72 95 57
33 78 18 84 39 61 43 42 97
54 42 58 31 100 16 87 52 84
54 64 81 12 54 45 68 33 33
78 86 44 69 16 96 43 32 56
82 34 14 50 27 58 29 82 98
10 83 53 88 34 56 27 29 52
25 60 33 30 66 31 91 48 66
83 18 61 50 48 90 45 26 92
68 83 82 33 25 42 20 50 88
51 17 23 79 91 51 57 31 59
33 44 15 43 93 20 85 26 28
93 31 17 50 22 22 92 38 20
59 49 62 35 73 69 26 87 18
32 32 31 51 17 29 55 25 100
41 23 14 92 22 52 83 83 32
29 59 51 87 23 68 100 56 21
47 28 36 34 72 55 46 28 18
67 72 19 17 11 46 58 49 87
24 44 99 23 33 41 18 54 15
14 17 55 76 100 30 75 17 90
96 30 49 82 33 21 46 91 56
45 74 70 49 63 27 34 21 30
83 59 85 64 35 73 80 45 58
34 71 42 43 47 42 41 92 95
64 19 98 28 14 61 58 27 83
65 88 80 12 89 16 87 70 90
40 28 91 13 25 13 80 68 83
61 34 96 93 76 93 56 16 92
78 37 73 73 15 17 54 98 29
88 13 60 60 94 38 93 51 62
68 77 83 100 19 69 83 74 91
61 71 20 96 12 85 53 23 29
49 70 67 85 79 39 43 25 70
21 78 52 74 58 32 59 22 52
81 41 24 13 25 41 10 90 27
16 44 48 43 79 74 18 12 26
49 80 57 58 58 91 62 56 28
40 26 100 61 79 51 55 62 79
72 88 60 41 54 92 47 53 85
35 78 85 24 68 14 61 95 53
76 99 33 23 22 76 80 47 38
79 68 85 71 60 83 65 45 78
33 54 85 30 10 30 45 32 88
41 51 91 49 33 12 53 51 61
35 16 43 83 95 98 59 78 68
0.971973
0.736502
1.29252
1.03614
1.12536
1.18614
1.29931
1.20843
0.709942
0.933206
1.1634
0.59259
0.761976
1.1815
1.37071
1.10395
0.34301
1.38079
0.853321
0.860649
0.558816
0.739184
1.34667
1.13955
0.890967
0.502583
0.754343
0.762089
1.02211
0.545506
1.20503
1.45466
1.39858
0.803461
1.24076
0.971004
0.390728
0.379887
0.444453
1.33132
0.347887
0.392348
1.40888
1.27891
0.600308
1.26504
0.598498
0.321157
0.360255
0.785822
0.939888
0.533248
0.981235
1.20466
0.91876
0.514237
0.441363
1.15192
0.32663
1.42203
328 366
415 420
155 330
408 138
282 349
305 267
34 239
185 351
495 225
319 297
79 170
61 216
413 494
451 379
375 109
284 317
58 460
134 195
136 345
209 190
331 243
24 118
456 325
371 81
407 414
18 470
162 7
4 323
99 469
481 109
93 423
421 331
254 130
230 245
27 150
182 95
270 65
302 148
493 248
134 11
241 491
155 327
464 479
81 271
91 300
193 27
214 383
448 273
289 204
203 210
112 364
308 61
476 475
143 165
157 178
350 106
292 188
437 252
52 468
466 171
15975
1
