60
3
0 0 0
32 77 48
13 28 80
50 80 48
38 30 44
93 27 65
59 72 98
99 53 38
27 65 64
100 47 16
58 35 28
45 14 25
72 13 37
61 86 21
24 82 100
68 91 78
37 84 69
30 82 35
54 85 32
94 23 18
70 93 50
38 81 57
86 51 19
39 70 44
34 24 96
19 28 31
14 80 77
86 64 27
95 27 20
61 59 54
17 90 100
65 60 66
64 77 81
22 67 19
94 44 96
94 82 94
66 76 71
88 24 76
36 43 21
12 87 65
32 88 79
32 60 89
96 81 41
57 17 91
52 60 93
78 38 66
64 28 20
50 77 66
22 57 16
19 95 79
90 12 90
57 40 68
17 88 38
61 64 91
31 11 17
17 39 47
67 12 35
97 82 54
13 99 53
19 35 33
0.658798
0.519281
0.687951
0.479271
0.503028
0.632599
0.442543
0.785619
0.367491
0.219706
0.548575
0.738968
0.356518
0.491926
0.835691
0.52675
0.984167
0.320788
0.762023
0.564903
0.3997
0.858557
0.258507
0.967803
0.693261
0.429657
0.682179
0.986105
0.394085
0.358749
0.774354
0.336501
0.922557
0.270833
0.337962
0.609418
0.361043
0.266614
0.821125
0.349976
0.292122
0.621921
0.659148
0.25036
0.801602
0.919439
0.325645
0.916602
0.96874
0.952292
0.545366
0.232409
0.356482
0.945674
0.46316
0.360617
0.287437
0.511105
0.584007
0.713199
358 459
265 448
427 5
270 237
195 438
32 178
20 268
49 311
138 126
393 228
193 455
212 239
128 207
252 261
34 21
265 385
370 97
392 119
275 36
317 293
304 313
140 204
89 306
220 33
324 124
141 168
357 252
495 184
447 345
136 427
77 171
148 236
59 4
251 216
42 240
146 114
87 283
363 0
184 196
271 75
101 495
376 70
107 41
29 390
458 174
239 164
105 205
451 131
319 348
118 447
478 120
375 164
268 267
3 89
70 171
259 319
266 309
438 436
136 415
66 119
8152.5
2
