60
11
0 0 0 0 0 0 0 0 0 0 0
69 95 14 92 39 56 43 96 52 56 67
75 24 39 98 28 86 42 87 85 24 63
67 94 91 34 89 90 98 21 96 56 16
80 68 63 78 86 53 16 28 54 90 37
48 86 65 26 71 22 58 32 94 16 30
50 44 98 52 14 34 92 38 11 67 97
15 54 94 88 77 17 18 60 22 84 51
24 72 69 50 40 30 67 27 98 66 79
51 82 50 57 56 99 57 13 19 58 45
31 34 26 19 45 47 59 82 31 99 45
46 73 99 42 91 93 75 35 14 36 53
88 31 77 61 41 70 39 79 54 15 44
98 37 73 32 35 28 14 50 70 80 60
80 43 79 28 77 35 63 73 27 45 69
48 52 52 21 73 76 29 10 36 64 85
48 90 22 36 53 40 82 27 15 79 88
25 41 41 84 70 38 38 12 16 58 40
58 45 17 36 53 66 43 76 53 62 64
17 76 14 60 19 47 86 82 74 86 50
25 56 17 100 99 62 32 13 50 77 88
63 75 52 46 20 99 48 76 79 31 57
48 49 23 91 45 59 13 84 70 74 34
42 60 90 31 90 50 80 13 28 45 21
65 68 10 81 65 85 56 63 81 73 38
11 64 78 42 26 45 96 35 72 83 55
61 71 62 75 29 78 54 61 65 20 97
59 21 54 50 69 71 100 79 26 47 16
12 55 19 12 16 18 51 36 32 87 99
100 68 53 25 63 15 46 90 73 13 25
86 22 81 37 86 45 90 44 20 58 96
42 17 58 18 79 70 86 100 87 78 49
37 40 76 31 96 18 46 69 23 59 35
86 61 47 69 20 39 25 78 78 79 45
22 78 74 60 73 45 66 18 24 66 54
19 16 72 28 72 23 65 79 50 30 67
12 44 36 87 55 78 37 98 74 32 97
89 90 97 64 38 59 38 74 32 75 25
79 50 70 63 62 29 16 15 69 15 76
77 68 45 26 76 97 25 19 90 26 69
78 57 37 93 93 36 38 45 64 17 30
43 100 79 97 44 42 18 50 19 71 72
11 62 71 89 81 14 31 77 21 70 78
38 88 11 86 42 61 31 47 63 72 87
17 23 57 74 36 83 45 23 100 86 31
30 17 19 11 58 40 86 96 54 86 94
73 20 61 35 27 20 68 85 45 98 25
81 96 87 24 90 31 63 67 54 15 92
12 96 27 99 11 23 53 98 85 68 23
23 63 68 67 68 97 68 14 86 21 10
39 20 70 45 60 75 72 68 74 19 37
50 66 66 77 42 55 59 75 12 11 15
68 11 29 60 21 38 95 16 92 67 54
47 34 50 14 99 77 100 95 51 100 71
63 49 16 70 17 77 75 10 64 55 24
45 77 83 66 47 19 16 59 56 39 84
67 11 61 36 52 99 64 85 72 71 96
98 19 96 72 78 47 82 30 53 80 75
56 37 65 43 22 15 83 81 27 54 47
40 45 97 34 57 79 93 30 47 94 34
0.180184
0.252591
0.392176
0.224176
0.350853
0.341936
0.191438
0.467179
0.484044
0.475782
0.329979
0.295378
0.164503
0.44531
0.294266
0.131254
0.493723
0.379407
0.285223
0.278079
0.435662
0.230544
0.300022
0.421857
0.107037
0.371285
0.361853
0.131709
0.416993
0.332575
0.18737
0.372852
0.388867
0.44235
0.252078
0.148959
0.228141
0.488864
0.102453
0.291485
0.452615
0.206163
0.282123
0.162439
0.37517
0.225373
0.348911
0.326468
0.130813
0.404577
0.162978
0.317722
0.310135
0.389151
0.467112
0.419866
0.29009
0.37556
0.12909
0.347769
396 267
45 49
443 202
500 149
145 55
22 452
495 345
45 414
220 447
8 266
205 341
32 303
131 84
479 13
432 388
337 358
369 153
98 400
427 246
423 157
47 168
396 289
261 407
67 310
167 283
367 172
54 180
191 274
87 114
300 274
385 482
143 105
395 103
420 146
357 379
379 105
476 164
197 43
246 414
174 234
85 418
0 94
286 449
95 374
84 27
111 498
176 339
404 152
26 209
98 81
381 137
46 201
239 305
35 228
251 108
362 97
39 415
57 420
324 488
494 82
3242
5
