60
11
0 0 0 0 0 0 0 0 0 0 0
13 87 24 66 98 46 41 58 32 67 22
85 17 74 30 33 19 36 13 62 20 57
38 81 70 39 13 49 66 100 63 35 98
79 37 88 36 73 65 29 75 26 74 37
79 88 36 88 29 50 84 85 41 42 52
69 89 100 73 92 20 31 67 38 69 59
49 62 38 95 99 45 81 37 64 82 75
99 40 67 83 20 36 60 10 58 65 10
90 81 46 83 84 12 65 81 56 37 20
82 44 80 25 47 100 43 86 67 21 59
85 65 57 63 58 71 60 72 34 75 28
56 62 38 21 88 66 90 87 27 50 29
74 57 58 59 67 95 87 66 69 32 40
34 13 84 13 51 64 51 82 36 91 46
75 71 21 70 28 66 99 34 14 77 23
13 23 55 81 41 38 65 66 75 42 86
17 26 99 21 46 53 75 28 55 49 82
66 77 67 16 20 50 15 68 77 87 74
84 86 24 81 84 77 17 30 85 61 39
80 49 100 85 45 78 26 76 13 65 59
24 70 99 72 86 97 34 40 45 10 25
65 77 34 78 35 23 96 63 64 20 64
82 48 83 78 65 49 81 97 45 72 46
30 50 47 85 53 76 25 47 27 69 63
95 69 50 90 60 60 80 31 77 23 49
56 28 92 14 21 10 83 59 15 88 43
69 31 64 94 68 10 25 69 61 26 75
62 30 67 39 19 55 34 25 18 46 47
85 68 59 89 30 42 100 92 62 99 32
99 28 44 66 40 44 70 21 36 57 53
13 100 67 87 48 98 99 14 64 25 16
20 45 27 43 67 74 73 21 91 86 65
35 62 21 42 48 79 58 98 59 15 92
37 16 34 80 25 18 45 17 38 84 56
41 16 27 68 46 20 57 59 12 79 97
49 50 18 55 81 27 50 42 68 45 64
22 50 61 61 96 94 32 33 68 25 68
52 33 41 14 79 13 71 34 16 92 52
32 15 47 71 26 85 33 15 95 89 21
20 80 53 99 46 58 11 43 19 79 68
40 68 29 66 48 13 50 63 36 25 44
41 89 52 30 48 74 10 55 44 46 79
65 87 98 91 10 96 73 35 85 10 25
16 85 95 29 78 85 69 65 57 35 28
44 64 23 67 14 93 85 27 68 56 54
63 67 18 71 18 47 66 16 26 72 95
56 11 19 25 40 84 77 10 85 77 94
76 56 57 56 35 59 94 99 86 76 95
17 84 88 52 71 58 64 76 81 89 44
29 35 17 47 52 36 55 38 23 69 48
96 27 35 76 68 40 73 38 58 49 94
34 24 24 91 52 16 43 60 54 99 70
41 27 82 84 69 67 59 46 30 15 64
39 26 98 47 52 49 73 45 28 36 24
31 65 77 89 63 84 51 56 44 20 29
99 11 36 59 84 24 19 47 56 93 13
76 98 51 47 68 94 74 51 32 88 43
20 95 30 89 82 86 56 33 60 17 39
14 24 45 31 54 70 98 49 86 33 26
0.460846
0.376065
0.220269
0.197759
0.495453
0.425228
0.494234
0.190686
0.252934
0.465783
0.124449
0.484071
0.11178
0.362916
0.333079
0.47629
0.147739
0.10419
0.424041
0.325544
0.201393
0.284008
0.1197
0.381864
0.427825
0.141867
0.167275
0.244753
0.269926
0.246853
0.147141
0.105442
0.352673
0.335023
0.248396
0.217349
0.142336
0.419419
0.270672
0.298732
0.343009
0.465015
0.340389
0.2743
0.443522
0.251304
0.151903
0.337385
0.233037
0.129309
0.476837
0.439888
0.190927
0.191744
0.126821
0.466144
0.399158
0.123074
0.317603
0.226514
296 292
331 494
336 282
188 40
58 393
203 419
436 188
280 378
279 458
104 472
391 472
129 10
128 303
17 171
66 360
167 331
449 3
384 168
84 297
198 267
361 484
315 379
342 248
191 10
410 64
365 223
453 238
481 222
17 230
106 5
466 94
171 282
165 267
11 473
370 93
214 324
281 268
270 371
482 470
42 334
298 63
173 242
500 444
111 410
283 453
315 468
50 205
346 487
71 144
332 469
126 11
285 140
41 300
81 372
334 389
237 298
26 135
112 267
369 227
172 259
5381.67
3
