60
11
0 0 0 0 0 0 0 0 0 0 0
100 33 47 28 98 69 89 73 12 100 96
74 22 90 55 55 36 36 71 48 12 72
43 54 40 25 23 12 32 81 31 88 85
17 85 100 74 49 14 56 13 65 72 61
18 29 84 22 13 21 40 82 83 11 63
10 55 58 63 50 15 79 35 59 98 42
13 45 47 15 29 41 89 40 69 56 75
74 36 68 61 15 35 58 55 83 95 12
57 21 22 45 21 74 60 19 75 40 90
78 20 73 48 54 32 17 79 64 54 67
80 50 79 65 89 54 48 74 25 78 78
52 52 46 90 74 31 51 81 54 96 73
64 75 71 21 14 24 41 28 49 26 21
65 89 21 51 21 25 49 79 51 47 42
72 79 72 47 37 41 29 33 46 99 35
38 63 59 100 67 17 58 20 86 98 16
13 83 64 86 60 94 22 64 97 36 93
74 99 77 44 61 100 30 28 32 33 25
81 70 63 14 27 54 73 21 75 90 51
92 94 58 55 82 78 39 49 41 21 74
89 25 38 39 90 33 63 84 40 100 27
55 87 84 26 45 25 62 25 42 62 52
55 84 96 14 23 39 31 79 70 49 59
15 85 23 14 97 13 41 54 90 43 21
10 92 40 73 68 72 39 67 52 54 93
68 45 28 99 96 75 36 34 47 97 86
72 64 76 85 16 96 81 94 67 67 29
34 24 94 81 22 91 69 89 56 36 20
73 28 13 82 13 97 52 47 41 97 80
61 84 35 66 60 25 50 37 40 28 32
68 29 32 49 15 69 35 89 31 57 23
65 94 69 54 61 47 81 58 69 82 96
14 75 23 96 48 98 98 75 17 32 33
82 38 30 89 53 26 58 85 74 46 100
71 93 69 97 75 64 97 45 67 20 63
26 34 81 90 61 13 37 12 63 74 31
82 41 53 75 91 11 100 14 33 93 17
40 81 30 87 11 44 45 84 10 65 62
43 31 48 74 57 40 66 64 97 36 51
21 39 79 56 68 83 59 89 16 28 17
76 97 40 11 96 68 83 50 48 57 93
60 18 36 99 23 66 48 59 99 42 47
41 60 51 97 98 26 35 37 29 69 91
84 47 75 39 84 68 39 11 54 53 51
30 98 63 80 42 48 12 54 14 93 44
18 38 99 75 72 84 46 81 63 44 60
25 50 40 58 37 25 49 26 23 97 53
97 12 68 50 56 48 26 42 16 61 59
95 62 30 64 40 35 95 72 77 18 58
47 100 81 14 10 96 30 39 81 58 59
10 63 11 77 85 10 12 82 22 70 94
97 24 15 17 86 67 31 87 36 67 61
49 30 36 71 63 40 79 52 29 29 35
69 68 12 74 87 17 19 37 75 42 10
34 16 94 75 43 70 35 48 89 70 75
46 81 12 96 69 70 74 42 97 69 10
19 47 91 52 28 70 33 20 11 54 95
97 87 16 91 83 34 96 54 77 61 34
71 50 87 81 79 87 39 30 11 42 33
0.226077
0.782886
0.38507
0.549421
0.600452
0.69361
0.647375
0.400548
0.38812
0.586307
0.69306
0.963404
0.479606
0.412803
0.611611
0.389243
0.228015
0.496286
0.274469
0.297059
0.940923
0.6033
0.574925
0.367066
0.92278
0.706501
0.96458
0.618402
0.815766
0.534295
0.933463
0.575065
0.753068
0.630627
0.607662
0.280353
0.984044
0.936179
0.47502
0.799148
0.521445
0.829375
0.976454
0.37161
0.519731
0.968691
0.291427
0.689419
0.998013
0.365485
0.630076
0.927685
0.792767
0.448088
0.890105
0.378657
0.511239
0.28055
0.651569
0.344604
418 243
259 57
225 401
301 109
406 266
324 416
379 367
118 488
109 294
333 392
443 148
252 196
367 176
434 445
116 247
457 108
108 456
90 327
234 76
242 122
205 258
243 282
214 10
191 70
98 135
404 153
340 482
337 470
22 31
208 265
207 68
375 281
360 492
358 118
31 152
171 36
142 361
355 357
307 385
449 219
161 3
401 259
347 111
371 363
100 272
332 96
85 352
132 364
398 105
313 164
386 231
6 154
148 223
31 454
143 316
80 13
264 432
377 483
93 89
248 387
16210
1
