60
11
0 0 0 0 0 0 0 0 0 0 0
84 92 28 42 61 69 19 97 25 62 55
44 97 32 12 67 18 55 21 93 84 75
92 63 12 53 80 99 73 60 72 85 60
27 67 49 93 68 74 94 70 32 24 46
10 50 52 95 71 94 67 81 81 91 55
23 10 23 92 51 15 43 44 89 84 16
79 74 71 64 64 87 71 37 55 70 49
93 49 45 15 60 19 91 52 29 35 75
18 12 31 14 25 55 95 36 70 67 55
40 50 14 34 46 35 30 41 63 78 20
92 27 42 57 75 37 44 78 37 53 47
64 80 69 11 86 36 67 40 70 14 62
31 69 57 38 59 82 57 19 89 59 38
45 92 35 57 93 78 63 11 52 26 21
73 26 40 15 91 62 14 25 27 30 56
52 20 16 57 69 35 13 90 40 63 13
86 42 23 44 25 33 91 84 18 24 13
24 58 28 73 22 80 83 25 98 43 55
79 46 45 10 61 56 42 53 86 15 56
54 25 89 83 92 67 99 19 99 18 25
98 86 69 84 23 24 51 24 71 90 94
37 17 47 64 23 70 92 84 17 45 93
35 18 37 91 91 96 63 23 13 10 80
82 98 31 35 51 30 81 34 98 66 12
68 39 64 26 66 42 60 35 92 44 57
48 24 92 46 28 63 54 84 57 32 38
36 26 38 22 10 26 51 27 70 12 40
25 27 96 55 49 95 27 94 93 80 98
12 87 26 79 77 12 27 85 73 96 79
77 12 38 74 57 32 41 27 78 62 99
24 61 40 84 40 83 40 71 49 89 50
64 88 24 26 51 53 45 12 60 78 15
15 71 51 99 45 74 12 14 50 40 41
21 52 52 72 96 44 71 12 59 22 90
38 27 61 83 92 39 36 15 39 24 33
20 65 67 27 46 35 59 29 83 61 24
48 18 81 40 53 58 86 88 75 60 34
54 18 87 11 78 33 49 45 62 63 80
90 58 74 91 37 10 96 18 56 59 77
17 100 76 47 76 79 41 52 97 39 51
68 92 54 76 81 98 70 76 68 97 64
95 56 22 81 19 90 36 95 57 99 29
81 71 99 26 17 89 16 16 51 33 77
35 42 27 58 82 48 70 59 68 81 60
92 92 78 22 29 58 33 44 44 18 75
29 86 56 50 82 58 94 54 49 84 80
33 48 57 24 41 68 29 26 31 68 83
20 50 71 53 60 41 19 87 46 83 23
59 44 22 77 97 79 52 24 63 89 93
84 43 54 83 13 35 74 34 54 96 18
73 85 64 90 93 90 30 34 87 100 64
69 23 40 26 43 58 51 83 63 69 24
56 97 98 42 17 68 62 60 91 69 15
39 85 46 97 14 93 18 84 62 59 32
21 26 61 46 33 79 87 100 41 45 71
83 78 41 84 64 96 40 43 51 14 53
62 20 16 32 10 32 92 25 28 42 55
47 79 75 54 51 51 62 29 87 41 61
64 16 14 40 15 66 27 42 57 24 12
0.492828
0.353109
0.371083
0.189128
0.264019
0.294893
0.406427
0.24826
0.441447
0.466786
0.431275
0.211944
0.11289
0.320439
0.403393
0.289405
0.170629
0.465286
0.164711
0.108148
0.396866
0.312951
0.413632
0.223388
0.484589
0.17352
0.4266
0.257639
0.202059
0.44443
0.239987
0.362216
0.155862
0.154139
0.176959
0.37547
0.245932
0.117949
0.109746
0.483046
0.105892
0.154426
0.234551
0.214559
0.32891
0.216011
0.177677
0.272404
0.38291
0.154299
0.365182
0.484364
0.491069
0.247634
0.330727
0.337886
0.192929
0.11138
0.22867
0.429801
296 288
306 125
13 368
318 223
30 237
210 132
209 372
479 452
15 4
359 147
415 156
51 156
200 73
298 335
127 201
242 299
352 304
412 458
345 262
221 457
22 482
0 259
438 17
395 347
431 50
1 442
147 351
366 486
121 155
227 416
108 124
332 24
194 100
35 96
136 330
202 399
416 444
315 373
134 442
290 141
276 386
370 81
360 407
215 59
413 373
317 330
100 365
461 74
470 6
118 480
135 126
466 194
494 134
303 122
276 118
378 403
451 379
484 133
234 151
376 429
3997.5
4
