60
9
0 0 0 0 0 0 0 0 0
16 40 95 76 69 56 35 39 55
83 81 59 89 35 39 91 20 70
97 83 98 98 36 13 91 22 15
13 61 28 58 76 94 18 36 83
67 18 72 33 28 78 32 11 91
92 13 39 59 89 34 11 21 90
33 65 13 35 88 51 69 75 19
49 60 50 35 86 21 14 56 12
71 31 43 51 96 20 42 87 33
48 58 33 44 26 23 24 24 18
60 70 88 68 11 22 50 23 63
24 48 88 28 19 88 66 75 85
47 30 32 92 38 100 87 59 93
68 19 96 25 45 83 13 68 24
38 85 88 15 64 12 39 42 72
14 23 70 30 14 44 67 89 14
50 70 80 97 38 38 13 80 95
17 99 20 45 70 94 37 66 100
65 72 48 98 88 10 83 30 19
76 100 17 79 81 75 54 77 72
96 14 34 29 26 48 47 51 66
14 32 69 36 70 38 98 40 80
47 18 63 39 43 13 90 82 22
24 12 38 84 55 36 66 20 93
57 66 58 18 98 62 75 52 83
64 15 69 82 52 50 44 58 97
98 67 38 59 70 31 23 84 47
26 52 96 81 37 15 89 65 19
91 73 68 22 86 22 51 45 95
67 55 47 80 82 55 75 54 58
19 83 28 55 98 14 66 65 61
89 39 43 98 75 46 72 56 54
82 57 78 88 65 21 72 29 85
68 12 18 62 50 55 36 95 11
15 46 66 44 25 40 27 65 93
87 12 70 92 11 17 37 67 21
36 30 69 61 56 81 50 14 98
43 47 54 57 18 31 23 43 73
15 73 16 59 19 32 27 49 76
43 33 29 83 38 21 87 25 95
75 92 22 69 38 95 48 48 30
92 18 88 72 93 63 44 86 22
65 11 52 39 98 75 11 72 77
100 32 31 100 14 60 32 55 12
97 77 56 24 26 92 44 68 55
22 35 81 32 63 10 94 21 35
59 39 63 33 22 68 30 78 34
99 27 92 21 45 42 49 55 25
71 79 95 71 97 40 27 77 94
21 79 98 62 69 13 99 23 96
69 19 94 36 61 36 68 84 68
21 43 49 15 78 63 85 84 57
66 79 60 49 99 11 55 82 79
46 29 15 99 13 17 24 64 20
33 35 37 59 78 72 14 98 43
30 64 70 93 53 93 10 38 12
92 97 72 18 38 93 47 59 12
43 31 54 39 63 29 99 47 42
89 25 48 67 62 96 19 99 25
0.823076
1.11348
0.743764
2.29471
0.531746
1.78724
0.604179
1.40959
1.52775
1.57296
1.31364
2.45239
1.58288
1.80464
1.58786
2.46719
1.0947
1.4768
1.87984
1.05519
1.69606
0.685476
2.28065
0.814362
0.594185
1.46104
0.884384
0.793617
1.24846
1.84358
0.988486
2.22911
0.60281
1.69744
2.04114
2.17594
1.95484
2.15586
1.15262
1.88012
0.957225
1.73802
2.19529
1.36837
1.60281
1.35792
1.38631
1.68057
1.42624
0.940309
2.48278
1.93509
2.47024
1.54394
0.850319
1.95779
1.74105
0.920477
2.34449
1.75761
498 483
230 425
391 77
488 224
188 268
337 52
266 232
493 436
154 407
14 480
361 274
118 185
380 122
375 0
170 253
321 289
65 50
418 294
197 206
317 395
91 37
211 213
223 355
328 481
465 448
359 139
471 88
147 419
461 148
160 66
466 214
269 143
314 99
373 181
161 168
31 290
284 370
338 427
174 258
480 117
441 461
160 353
168 266
114 477
313 461
76 415
369 350
25 151
258 398
161 58
331 127
108 212
207 213
332 263
243 206
291 205
244 43
83 204
319 462
92 200
3176
5
