60
3
0 0 0
24 52 46
16 44 55
11 67 32
20 86 31
71 83 78
42 97 94
88 44 73
14 25 14
43 56 100
52 48 75
52 80 42
49 21 44
30 16 67
26 83 36
40 55 65
61 39 98
33 31 53
93 38 34
89 77 73
30 11 42
62 98 61
77 47 35
42 61 14
11 90 73
79 67 72
24 36 97
75 70 98
78 71 78
53 53 69
71 83 88
13 47 15
41 24 99
97 91 26
38 92 63
67 45 81
44 29 89
63 48 49
20 81 57
72 27 57
88 17 37
14 18 49
96 19 61
52 35 83
11 16 37
88 28 84
22 85 13
74 53 62
21 63 71
22 58 24
35 85 56
76 86 42
21 43 95
53 65 27
69 79 65
34 22 19
95 46 11
78 77 81
73 42 99
80 58 12
0.668405
0.810796
0.636258
0.892611
0.295042
0.726303
0.477926
0.27909
0.752901
0.867894
0.484198
0.941506
0.506285
0.716556
0.379037
0.711011
0.988087
0.449603
0.578046
0.831265
0.79054
0.355643
0.331842
0.953968
0.457735
0.609762
0.460387
0.898479
0.779454
0.991846
0.2089
0.203443
0.699202
0.561422
0.333504
0.208297
0.432281
0.596106
0.230494
0.725675
0.998594
0.63757
0.81684
0.728186
0.344146
0.268794
0.709199
0.633551
0.320218
0.426546
0.439717
0.328979
0.398445
0.705747
0.896402
0.801669
0.813221
0.844159
0.501187
0.458936
177 230
371 350
351 15
458 399
484 481
78 25
68 427
344 13
449 217
409 144
379 467
405 156
446 44
153 476
323 488
424 180
400 181
361 107
262 315
341 464
44 489
275 292
9 291
52 291
326 489
280 284
97 193
261 192
334 184
466 452
469 0
444 121
476 13
195 313
271 371
155 274
352 172
288 10
148 311
141 63
36 83
414 220
379 98
487 490
380 84
247 208
404 332
36 24
419 156
156 118
98 18
390 138
488 106
483 444
451 462
35 462
122 451
259 302
417 170
463 79
16035
1
