60
7
0 0 0 0 0 0 0
99 96 55 82 36 89 22
58 34 10 76 94 38 25
19 94 97 82 19 49 48
17 44 100 28 22 68 85
94 61 45 44 42 42 95
19 39 82 17 72 91 74
66 79 62 26 94 11 43
25 90 61 38 21 34 86
68 66 36 11 41 43 34
77 55 39 82 76 91 33
86 86 66 28 14 87 65
27 26 32 15 52 90 41
51 87 79 85 28 59 65
98 40 74 29 24 98 71
21 55 18 12 68 67 65
28 55 35 61 12 93 45
43 43 80 14 94 86 88
32 69 56 45 76 28 39
65 36 48 44 55 81 91
46 54 15 28 50 36 62
17 61 76 64 54 65 86
95 58 96 11 68 69 56
67 91 41 55 47 87 51
91 37 86 10 99 70 11
36 78 48 54 82 92 43
26 91 76 22 89 76 35
57 99 34 31 40 48 50
67 53 37 23 44 13 25
46 32 27 74 85 75 18
15 19 55 21 25 23 31
67 65 50 81 69 26 100
69 36 86 85 35 94 77
80 60 17 57 74 35 29
16 72 15 43 68 56 76
27 69 32 44 14 73 45
72 63 38 65 21 96 34
12 73 75 91 77 45 48
40 49 10 83 16 49 72
86 46 89 30 47 14 28
72 67 59 50 82 70 85
54 20 31 98 67 15 24
42 32 88 14 71 31 100
35 54 66 27 79 51 41
58 60 100 21 45 73 29
95 33 69 88 82 19 33
73 60 40 93 40 98 56
17 95 44 41 23 50 42
28 67 24 89 97 36 66
50 87 90 40 15 20 16
53 71 57 62 17 37 71
32 32 54 15 24 21 54
34 30 82 17 77 43 12
95 94 21 23 81 24 88
23 86 81 50 33 39 76
20 94 14 60 17 37 72
88 59 96 23 41 96 75
32 31 61 85 96 30 69
21 79 78 75 36 58 84
90 36 60 85 34 25 47
0.370869
0.493871
0.144329
0.17763
0.148195
0.239106
0.359985
0.12904
0.166201
0.241394
0.158385
0.478862
0.376446
0.406345
0.142726
0.38797
0.166902
0.408342
0.343818
0.2471
0.314273
0.465138
0.27508
0.341327
0.120987
0.430054
0.466738
0.321741
0.179543
0.490483
0.154854
0.2493
0.341378
0.439478
0.402145
0.301494
0.311582
0.152347
0.452156
0.211812
0.250913
0.335363
0.326691
0.126783
0.351979
0.392307
0.380717
0.486798
0.265745
0.401175
0.133263
0.38774
0.185306
0.391536
0.47351
0.231128
0.45466
0.4725
0.433766
0.36675
167 89
146 269
482 1
488 98
285 38
333 307
291 275
257 95
417 446
123 0
36 172
49 398
94 305
91 407
127 149
300 66
303 237
190 142
190 278
216 165
294 131
223 383
198 282
322 448
320 321
259 258
312 345
215 221
145 42
367 229
315 159
183 454
403 148
82 268
268 475
205 274
64 248
32 154
400 147
178 339
497 185
275 81
473 6
499 469
161 384
329 192
163 104
157 400
49 476
49 170
88 339
117 148
250 391
7 244
201 333
194 38
145 394
14 197
233 313
394 77
7970
2
