60
5
0 0 0 0 0
27 83 25 16 70
64 42 83 100 54
59 41 92 30 65
89 28 30 99 33
17 58 64 56 24
82 44 56 85 80
64 62 20 47 70
34 44 86 68 21
61 71 90 18 99
68 71 97 11 83
23 60 47 78 62
78 16 25 45 15
97 13 20 24 17
72 44 83 84 20
21 39 42 59 59
27 46 59 85 20
50 25 59 35 72
41 100 69 59 84
66 74 60 21 100
35 54 41 91 59
47 21 73 67 30
64 90 79 83 68
26 15 42 24 32
72 31 61 89 22
50 43 36 70 37
78 67 12 34 33
97 16 50 65 54
15 53 37 57 43
64 46 39 56 69
73 87 91 13 91
11 30 60 44 73
85 13 90 37 35
64 18 92 49 40
19 53 91 37 50
42 39 77 62 69
96 12 87 67 38
32 79 35 53 79
86 94 25 45 16
38 78 63 60 43
64 95 97 97 32
72 85 66 51 92
66 60 32 12 95
66 48 77 11 45
69 42 62 98 10
97 95 32 46 48
31 20 44 13 16
51 12 35 85 22
14 69 35 73 58
24 20 97 14 17
20 12 27 35 51
69 66 29 52 47
44 53 23 94 89
11 13 22 16 13
35 86 34 96 66
53 67 43 95 96
39 50 39 84 58
28 83 77 13 30
99 27 72 39 52
73 85 29 44 59
0.751876
0.353424
0.286182
0.617506
0.8048
0.571499
0.302192
0.720838
0.289268
0.823093
0.913235
0.914204
0.839032
0.801086
0.950767
0.767179
0.333275
0.944605
0.822957
0.690763
0.937699
0.650032
0.710016
0.46132
0.489351
0.291771
0.791713
0.311579
0.935289
0.479092
0.639996
0.888027
0.424127
0.32952
0.98075
0.860011
0.468647
0.818649
0.209304
0.652805
0.699637
0.597817
0.733708
0.676538
0.368077
0.486293
0.850703
0.566578
0.395759
0.502725
0.2156
0.438676
0.491897
0.437394
0.775587
0.212561
0.917624
0.495439
0.846097
0.260623
454 174
283 175
425 5
470 311
6 406
470 480
5 450
214 343
363 285
375 202
243 177
56 273
323 122
406 459
252 402
339 14
6 485
465 195
51 212
332 12
128 425
219 426
165 297
131 145
358 327
404 373
443 109
309 111
7 135
399 313
206 17
71 136
355 402
218 333
486 153
95 340
107 197
485 57
62 395
447 59
413 74
145 318
216 263
176 141
60 436
319 131
436 253
134 122
86 30
151 62
106 267
355 500
247 115
420 136
28 496
390 370
22 213
114 260
306 465
237 454
3124
5
