60
9
0 0 0 0 0 0 0 0 0
27 71 20 83 60 84 44 73 12
47 64 63 26 62 33 21 80 99
24 31 48 31 99 77 27 26 38
15 42 32 26 70 97 81 38 29
41 88 40 86 38 18 100 94 22
80 28 91 50 26 79 56 27 97
76 15 52 51 83 77 62 57 66
58 42 94 36 90 82 61 78 47
41 11 86 12 52 49 80 10 31
97 33 73 76 82 73 59 53 12
50 20 42 49 20 34 59 62 66
26 11 54 40 99 92 77 86 40
30 49 82 91 12 86 72 26 95
50 87 56 47 95 17 32 63 87
65 29 91 94 10 63 41 48 91
48 69 46 40 90 81 93 20 42
84 20 32 87 70 24 70 87 38
79 98 91 72 33 27 24 20 61
22 76 16 32 81 41 18 51 12
75 80 89 73 64 54 99 66 44
18 74 28 18 69 77 59 39 17
45 95 41 96 99 98 59 71 95
56 53 92 17 46 92 56 58 59
15 10 33 94 94 83 47 90 32
36 58 98 53 41 20 14 39 14
19 56 22 41 88 43 56 27 50
84 28 31 70 55 26 51 57 59
38 47 37 59 41 86 64 79 59
75 79 28 33 98 67 19 64 67
62 22 63 53 61 65 37 54 86
86 17 89 26 55 80 82 72 44
19 80 86 71 67 83 33 63 94
28 54 76 80 74 36 35 37 31
42 32 85 56 49 91 16 54 45
81 61 41 15 18 23 21 82 74
75 95 82 15 69 15 66 83 44
73 74 64 75 31 86 23 96 47
18 26 20 49 48 14 69 36 86
74 90 61 78 59 93 76 10 73
19 85 71 81 90 46 37 34 54
45 45 21 46 47 36 91 22 75
76 22 20 75 60 53 18 42 98
72 75 19 96 72 47 15 77 92
16 64 79 39 67 70 49 68 30
17 75 99 47 24 52 61 68 66
100 91 68 63 29 59 74 24 45
31 75 10 43 33 71 64 93 75
77 36 61 30 29 51 83 81 55
75 74 88 12 69 49 22 59 90
52 11 55 93 13 12 32 73 13
36 74 97 93 58 40 38 78 79
64 42 63 58 15 63 85 75 14
33 27 71 24 86 36 81 36 53
92 86 13 80 24 52 65 12 80
24 52 90 70 64 95 38 55 69
66 40 97 68 46 79 47 42 45
45 85 91 81 88 18 85 16 88
58 54 15 47 53 84 39 18 64
52 43 37 67 10 40 16 47 39
0.474254
0.381862
0.330833
0.166124
0.412713
0.385572
0.31105
0.263349
0.273394
0.334943
0.27345
0.239484
0.42661
0.121355
0.470052
0.167613
0.345358
0.446459
0.117205
0.142891
0.360688
0.312788
0.127942
0.157416
0.447958
0.480341
0.34038
0.176838
0.353919
0.262617
0.393304
0.477739
0.350414
0.420961
0.289896
0.431401
0.282542
0.313532
0.146611
0.496958
0.106607
0.479007
0.442161
0.149692
0.458424
0.479344
0.18148
0.390917
0.340128
0.346639
0.319766
0.138867
0.220005
0.484098
0.110366
0.265238
0.141945
0.241408
0.491834
0.177875
94 485
177 480
414 55
110 23
3 38
392 24
78 357
151 304
2 150
83 310
18 483
489 251
460 212
256 96
57 215
378 421
36 358
167 21
248 70
108 273
252 103
303 478
249 347
240 146
193 21
118 338
468 156
391 22
469 311
176 81
92 322
163 371
300 163
303 55
408 140
392 498
120 207
136 73
123 437
275 173
356 129
149 476
431 279
275 363
65 344
309 363
33 356
292 285
42 287
240 303
390 473
378 246
293 219
255 400
347 395
417 381
140 360
21 187
332 442
490 339
16315
1
