60
9
0 0 0 0 0 0 0 0 0
21 96 41 70 79 52 41 69 75
36 33 15 73 64 11 78 92 56
47 95 68 80 16 52 40 63 81
83 53 87 80 50 49 87 48 65
27 85 81 38 82 99 36 25 63
59 31 56 53 35 86 61 25 82
21 43 82 71 19 10 21 54 68
46 92 68 87 13 58 78 46 60
62 80 53 61 83 77 31 74 25
55 74 79 11 23 27 74 59 34
73 71 27 76 12 99 35 56 67
31 65 73 21 62 97 94 73 64
92 92 81 58 30 21 27 35 96
85 92 46 74 30 29 97 63 30
10 21 47 28 12 41 100 57 58
47 100 79 56 51 49 44 85 96
23 95 65 21 77 93 85 25 48
10 30 91 66 16 12 50 90 26
26 24 96 32 13 70 78 19 17
77 41 20 21 12 60 91 83 76
50 82 61 95 64 69 19 70 44
46 36 88 64 74 67 60 14 29
53 70 92 92 79 76 27 29 46
52 77 86 31 27 10 76 58 19
31 54 34 72 24 81 18 43 24
51 87 50 81 14 65 39 39 81
29 100 14 20 85 69 54 45 22
32 86 29 72 18 41 85 32 56
60 42 89 73 90 52 78 14 20
51 50 54 64 54 97 84 54 35
92 69 69 44 86 59 16 58 86
75 11 95 99 63 16 56 12 76
10 29 62 15 83 96 58 23 67
84 81 66 93 86 22 38 99 23
62 29 75 79 26 64 60 66 72
55 51 65 68 42 45 59 72 16
15 61 47 39 25 61 16 99 37
61 37 31 84 69 48 82 29 11
78 96 42 39 81 84 58 54 35
65 55 28 19 34 42 25 17 17
72 16 27 66 34 68 46 53 76
79 92 42 11 44 95 64 86 87
36 51 91 70 28 29 62 30 92
100 54 26 31 64 53 80 65 93
81 36 66 100 39 18 32 31 79
59 70 83 29 41 91 64 38 36
20 46 76 52 40 81 80 59 34
56 90 46 39 74 83 52 13 30
80 34 83 94 29 21 30 82 25
99 68 24 92 49 37 26 80 92
13 67 20 19 17 24 12 24 56
70 77 22 93 27 69 82 38 29
68 70 25 57 41 62 35 64 71
56 41 99 43 100 64 57 29 13
83 57 85 59 37 76 63 31 63
32 80 57 74 12 45 35 11 48
48 74 100 35 74 39 61 16 19
100 45 80 94 67 85 91 93 91
37 30 32 11 17 62 71 70 22
0.173416
0.36833
0.486628
0.380051
0.46979
0.411078
0.412888
0.236507
0.236274
0.23046
0.453004
0.441315
0.315936
0.324223
0.426487
0.138448
0.327169
0.496274
0.480932
0.356981
0.498576
0.179298
0.398215
0.31418
0.266266
0.266906
0.380139
0.363239
0.32885
0.474762
0.464653
0.449801
0.396979
0.346555
0.470004
0.387856
0.212075
0.423895
0.448388
0.347484
0.17374
0.189505
0.210203
0.396854
0.407458
0.142832
0.209929
0.202269
0.205379
0.376653
0.116717
0.278734
0.132264
0.287609
0.416486
0.181703
0.127272
0.202065
0.1809
0.280418
161 3
175 152
428 328
400 249
138 410
75 304
343 167
38 494
5 97
105 114
335 160
176 26
446 243
140 79
393 20
345 435
55 406
347 0
72 444
412 226
74 159
441 364
350 158
7 264
256 9
149 477
488 434
51 367
403 319
57 120
218 219
109 99
190 230
375 116
96 404
70 32
136 114
77 35
412 138
461 286
138 102
7 430
465 82
214 6
295 92
412 383
262 332
347 404
144 179
314 257
206 409
109 345
480 98
60 432
392 260
53 117
302 176
311 239
165 55
392 350
3236
5
