60
5
0 0 0 0 0
31 35 73 100 56
69 88 41 30 16
49 85 16 40 74
22 49 18 21 41
87 65 42 94 91
24 50 13 14 54
93 64 50 73 82
68 85 52 37 21
81 49 45 57 66
24 71 51 74 12
33 32 74 69 64
21 99 51 12 40
92 35 44 43 67
58 76 55 18 46
62 46 26 75 60
34 75 73 34 33
79 63 26 77 80
25 33 10 76 89
72 70 100 61 56
81 43 15 33 53
14 41 45 98 96
74 39 44 98 72
40 11 19 28 47
55 51 39 13 65
70 19 88 49 20
27 71 63 13 78
84 62 34 41 68
14 85 90 38 60
30 76 46 93 48
77 17 75 35 47
47 78 47 11 47
59 71 59 41 38
74 40 51 87 94
73 85 50 51 67
46 12 84 56 16
66 35 64 35 46
54 72 89 81 48
61 62 90 63 53
59 47 78 78 70
69 16 50 31 23
76 59 91 67 52
27 63 68 19 18
58 12 68 20 27
57 50 79 30 86
32 23 78 40 43
81 75 92 20 63
21 61 35 82 54
93 37 94 66 27
61 18 85 97 52
55 29 33 77 35
67 26 84 64 27
14 89 28 100 91
17 92 23 93 87
66 56 38 21 40
95 60 68 19 84
49 13 36 59 67
86 77 36 83 32
78 78 34 59 91
39 78 37 43 90
1.30086
0.48661
1.17616
1.2546
0.88396
1.25487
1.48263
0.660645
0.879291
1.38734
0.623004
0.681195
0.654237
1.47259
1.33653
1.48607
1.33067
0.650481
0.309355
1.14071
1.40726
0.943408
0.538853
1.26203
0.877244
0.389006
1.27408
0.991318
0.934207
1.29149
0.50173
1.48992
1.4069
0.308302
1.10196
1.25492
0.95605
1.20121
0.619672
0.338635
1.15784
0.710344
1.37784
1.23104
0.425998
1.21122
0.981637
0.385618
0.377249
0.873876
0.917218
1.42227
1.48672
0.31885
0.48381
1.04892
0.826893
0.919406
1.18008
0.488024
402 496
359 154
63 155
60 223
98 81
298 117
112 423
31 298
360 254
361 106
258 330
382 420
130 336
469 49
319 89
49 156
86 201
31 365
274 442
234 271
112 105
174 284
140 15
490 135
365 281
215 470
27 175
133 373
235 40
68 75
421 277
129 45
360 5
267 104
280 317
284 393
99 215
32 91
200 132
289 321
258 108
346 311
381 376
438 499
81 404
67 251
1 281
471 320
260 88
280 209
182 489
480 276
467 371
97 300
201 376
421 30
130 385
47 339
429 403
232 41
16060
1
