60
5
0 0 0 0 0
58 29 12 22 43
66 43 11 15 19
23 70 67 71 57
28 28 17 33 48
36 77 17 13 20
35 80 63 16 83
64 40 25 58 14
50 11 45 84 19
87 19 45 30 50
88 62 58 59 83
26 51 53 95 49
89 63 92 15 100
81 23 76 60 72
88 84 52 83 87
28 54 18 78 57
41 25 27 30 69
46 22 67 13 27
34 84 86 40 86
73 69 18 49 87
86 13 61 77 48
75 35 10 58 54
74 37 32 12 31
87 64 11 45 68
85 37 17 61 57
59 19 48 96 11
29 65 95 96 52
70 29 42 41 77
49 91 54 95 72
29 54 24 84 23
88 36 38 71 10
16 95 90 70 98
43 78 98 86 20
11 92 37 95 40
30 34 41 75 84
42 92 54 88 73
62 58 72 59 30
95 39 44 97 24
31 33 96 48 80
51 50 28 35 25
12 22 73 83 54
49 68 93 96 43
35 56 70 28 20
40 65 17 37 12
50 86 100 57 83
34 38 22 35 30
61 73 87 92 49
31 47 37 84 75
46 16 81 73 27
65 66 94 90 70
69 25 72 62 87
41 47 41 17 93
97 28 81 81 99
58 89 56 50 65
14 100 76 73 45
25 61 29 47 58
84 26 38 23 68
83 20 96 91 52
68 89 67 88 62
70 74 22 96 98
1.4635
0.725481
0.835689
0.630294
0.876655
1.83547
1.93299
1.63655
1.66452
1.86831
1.46255
1.48222
1.75351
1.08529
0.572303
2.02434
2.47219
1.58004
2.36331
0.641978
0.867245
1.23466
1.45546
0.826239
0.500282
0.645311
0.790409
2.21552
2.0588
2.37137
1.9228
1.06197
1.66639
0.804555
0.843775
0.981728
1.32771
0.646593
1.96828
2.33576
0.765833
1.28587
1.00979
1.28252
2.48637
1.1205
2.03968
1.45395
2.01499
0.928476
0.759958
1.79169
1.3661
0.832335
1.73787
2.3924
2.22882
0.816415
1.06073
1.82284
86 219
9 104
265 422
294 367
27 313
160 285
134 44
315 28
234 177
190 467
281 450
192 84
450 25
413 51
120 479
288 84
335 253
63 316
57 44
452 133
240 199
261 281
138 499
283 213
407 107
88 180
427 245
204 117
403 129
195 445
197 211
208 4
326 200
11 153
20 278
440 32
41 162
156 446
255 200
296 444
390 216
111 10
431 406
494 324
61 203
161 148
39 32
500 60
384 340
289 414
73 173
61 297
184 408
117 293
271 246
430 221
200 330
282 184
426 474
163 488
4037.5
4
