60
3
0 0 0
49 57 33
62 56 37
91 86 70
70 78 62
16 25 94
86 70 14
11 87 83
31 78 87
54 19 79
76 17 49
48 14 35
10 86 10
47 95 57
96 69 64
35 79 93
46 56 96
29 40 96
54 81 87
10 69 96
52 57 16
76 60 61
19 73 68
18 59 94
69 50 81
17 19 21
35 87 51
73 49 68
86 39 12
41 15 23
56 87 61
63 24 33
35 98 54
64 82 17
12 38 68
93 55 62
35 82 13
57 41 30
58 73 16
94 46 59
56 60 39
79 11 24
42 15 62
84 41 92
32 61 32
79 99 69
11 60 94
82 75 52
22 95 42
83 10 30
20 53 75
10 13 66
58 78 81
55 17 96
69 74 16
72 74 44
84 18 57
65 97 82
62 67 19
38 50 49
1.73321
1.22303
1.71825
1.13535
0.757354
1.6441
0.563871
0.869861
1.05149
1.43963
1.78336
0.980415
1.78091
1.77958
1.66404
1.10117
1.9859
0.654335
0.459145
1.06623
0.447156
0.942249
1.07901
1.64458
1.11348
1.8993
1.54205
0.805767
1.536
1.02275
0.439765
0.52629
0.800805
1.45007
0.801372
0.51182
1.93126
1.94798
1.754
1.92055
1.803
1.53852
1.29326
1.28334
1.15791
1.63031
0.880739
1.22338
0.685009
1.07874
0.920001
0.834585
1.28839
1.56275
0.800696
1.89499
1.94772
1.64937
1.76726
1.62485
489 278
316 54
252 360
474 132
499 177
107 175
17 242
195 485
46 183
290 193
428 454
6 62
471 338
420 75
331 73
415 94
96 17
331 227
482 420
197 426
353 136
339 49
185 452
407 25
181 18
146 71
470 373
410 418
456 490
226 303
132 499
448 373
52 399
269 142
499 316
223 216
294 424
432 387
11 17
469 155
320 17
293 11
87 38
354 314
13 148
98 494
461 60
84 491
56 55
480 394
368 42
209 410
485 69
159 295
65 494
404 259
40 263
346 386
130 309
295 191
8092.5
2
