60
3
0 0 0
38 77 52
57 71 77
70 43 96
69 93 65
92 63 88
61 68 12
18 91 16
58 52 54
29 34 84
94 78 96
50 88 24
61 69 71
68 15 29
75 73 38
64 69 38
12 49 100
81 81 27
50 72 40
46 11 58
95 82 58
68 44 23
47 54 27
25 24 29
57 79 18
55 73 47
10 26 11
64 46 93
32 58 84
67 27 93
86 95 84
38 24 93
20 10 50
37 89 56
54 23 85
86 71 48
20 35 25
78 11 38
50 16 30
40 82 23
54 23 78
86 85 66
76 37 50
57 29 37
70 85 96
94 93 95
64 70 87
14 17 25
39 87 86
22 94 40
91 92 81
18 73 89
50 76 87
81 35 82
64 63 24
89 77 31
16 12 78
94 94 41
85 90 80
35 98 76
0.189114
0.301034
0.356189
0.393884
0.234211
0.313442
0.466807
0.207119
0.227523
0.309582
0.484628
0.495379
0.481282
0.221555
0.119082
0.46078
0.198297
0.134806
0.424929
0.41315
0.277781
0.429924
0.114739
0.412281
0.414539
0.467279
0.351016
0.46815
0.246472
0.175715
0.312506
0.332105
0.203862
0.438774
0.275165
0.161535
0.445955
0.232531
0.298509
0.461722
0.440909
0.345863
0.284824
0.402969
0.477811
0.269826
0.408171
0.400173
0.117145
0.338431
0.222571
0.277732
0.196815
0.113007
0.100387
0.348233
0.239836
0.413719
0.195806
0.12498
279 391
365 396
444 421
194 263
5 241
334 479
293 102
42 357
110 418
263 322
462 314
500 423
41 475
129 125
199 43
490 336
319 258
349 275
472 295
63 343
350 386
353 70
465 409
256 430
90 419
243 291
369 281
405 331
227 459
238 344
246 329
458 351
217 124
12 137
252 77
458 371
172 263
447 337
208 55
326 52
363 167
230 79
16 31
258 266
73 272
1 405
255 223
372 163
335 76
68 355
441 286
282 431
439 365
126 496
214 7
159 373
232 473
31 178
310 198
232 182
5680
3
