60
7
0 0 0 0 0 0 0
34 54 94 15 46 82 15
64 70 13 97 75 47 74
70 85 37 58 59 100 53
48 18 12 70 53 60 33
62 79 62 29 73 60 95
96 40 81 94 70 87 69
36 62 93 29 91 49 42
66 46 34 33 39 86 68
45 69 28 71 34 97 30
49 94 56 67 39 32 15
40 93 31 54 16 21 86
10 17 31 29 65 100 87
71 92 88 32 60 39 48
80 75 13 29 17 60 67
68 17 88 76 22 88 75
85 39 93 33 40 22 88
93 47 98 62 73 82 28
77 60 61 31 60 42 33
90 54 63 52 72 82 15
96 100 40 27 12 70 12
56 98 89 67 72 36 12
43 38 61 95 13 14 19
35 59 37 74 88 39 90
97 13 10 49 12 55 23
27 47 65 91 36 39 48
96 100 91 86 96 47 74
63 62 15 23 75 45 81
15 15 34 35 58 35 65
22 27 28 100 63 84 100
82 30 15 58 88 87 64
86 99 30 76 44 99 92
28 100 75 63 87 72 67
65 39 18 80 100 100 84
10 28 73 45 62 29 30
17 22 75 72 88 76 24
76 95 40 19 78 10 26
71 56 85 33 74 75 37
52 43 15 35 30 20 15
60 15 75 87 71 89 88
52 10 80 37 98 57 78
86 78 35 44 21 29 96
77 32 15 89 28 11 54
10 62 58 64 21 43 39
46 66 81 34 29 27 31
83 22 59 85 23 74 10
12 16 80 18 54 92 15
18 47 96 82 24 54 78
95 74 31 60 61 55 60
90 11 32 85 95 63 98
100 64 20 45 53 53 51
45 25 10 92 43 91 87
10 69 54 56 39 32 61
41 19 15 82 99 12 21
36 70 41 59 31 24 88
38 94 80 75 85 66 29
58 30 67 29 89 67 25
52 69 13 48 47 22 61
71 81 60 19 34 30 47
64 45 84 91 43 53 95
0.177167
0.232114
0.221161
0.248459
0.423525
0.340594
0.470512
0.111317
0.36021
0.458597
0.146676
0.319897
0.249235
0.451644
0.105736
0.375539
0.429553
0.271829
0.474523
0.148555
0.445067
0.206094
0.186528
0.383914
0.222978
0.464936
0.18909
0.137474
0.2304
0.297666
0.274667
0.189278
0.141355
0.306901
0.290495
0.245162
0.382412
0.188711
0.44322
0.376223
0.203157
0.323376
0.220675
0.42172
0.192423
0.413382
0.4777
0.312256
0.289542
0.462922
0.385801
0.325725
0.135573
0.464416
0.266967
0.18373
0.384455
0.421368
0.161949
0.169654
458 437
144 232
114 293
440 216
216 472
189 142
83 383
453 146
42 219
455 342
233 228
153 305
188 92
33 426
128 34
32 221
310 252
256 183
80 315
362 423
66 288
157 33
178 24
281 389
362 239
10 7
440 390
334 273
55 442
477 460
108 28
499 123
55 401
176 90
108 220
265 140
309 191
425 309
313 399
310 468
226 267
6 14
387 339
257 153
369 57
218 379
45 120
455 208
42 102
197 341
362 474
258 220
213 201
205 441
382 254
149 108
224 135
324 487
232 209
462 378
8125
2
