60
7
0 0 0 0 0 0 0
32 27 86 37 25 71 51
67 47 71 58 15 70 27
79 84 58 85 62 72 14
68 37 92 40 21 12 88
43 86 51 71 34 52 43
97 80 73 72 98 49 82
29 24 76 53 12 95 95
26 25 42 32 45 86 53
29 76 12 19 58 24 39
56 69 10 34 79 72 76
28 71 95 13 24 40 10
30 69 77 93 63 80 59
36 81 94 17 68 15 56
79 56 81 73 52 69 63
20 71 42 21 21 30 87
43 79 78 69 30 17 95
63 58 48 31 14 26 90
34 82 92 42 71 46 58
71 40 86 15 35 46 100
52 55 61 82 55 12 57
98 83 51 26 57 51 80
86 97 12 66 45 100 11
96 76 54 21 18 79 39
98 51 39 86 94 59 70
79 36 57 70 45 15 52
83 28 20 14 55 45 66
47 70 80 12 46 74 33
38 92 58 47 54 18 13
29 51 62 97 34 50 80
10 89 100 83 58 39 88
52 34 80 86 93 24 17
69 59 36 45 100 82 45
19 16 48 94 75 98 54
77 78 54 18 30 69 37
35 95 71 13 15 70 20
84 32 35 41 68 47 24
84 94 93 75 21 55 98
96 76 60 51 34 94 36
72 60 92 21 66 75 64
75 57 95 54 67 33 94
45 18 98 42 61 17 41
36 81 97 32 61 18 71
22 91 95 100 64 49 47
12 36 73 77 61 93 39
81 58 21 55 79 85 77
34 11 56 41 79 22 19
42 22 86 80 29 23 92
14 78 30 95 38 16 45
87 25 13 15 99 72 34
72 73 56 21 82 25 93
81 77 18 84 84 52 77
88 12 74 97 41 93 93
55 72 59 46 34 90 63
66 47 31 24 81 15 69
71 41 96 75 42 49 34
66 75 98 22 63 90 87
96 99 32 69 91 41 99
34 15 92 77 72 48 61
62 16 70 34 43 70 48
0.403049
0.4638
0.462187
0.108032
0.21732
0.415513
0.106848
0.30016
0.227299
0.265437
0.39187
0.364413
0.111542
0.43727
0.391341
0.403364
0.213203
0.147355
0.498763
0.24453
0.106014
0.28098
0.227886
0.236456
0.164631
0.312961
0.391245
0.448073
0.279291
0.121383
0.411502
0.262702
0.203682
0.23475
0.324276
0.161749
0.49938
0.306531
0.459861
0.337663
0.136
0.494027
0.145998
0.326259
0.132412
0.245963
0.316972
0.469268
0.394661
0.196936
0.249912
0.183221
0.123523
0.184746
0.496207
0.126464
0.449972
0.49598
0.294367
0.12306
213 391
168 243
471 316
311 259
70 267
414 414
224 497
90 101
74 37
7 266
318 294
263 63
185 137
181 377
226 104
308 34
240 183
238 270
139 241
232 49
420 228
349 201
475 24
194 104
156 342
334 485
352 117
74 293
264 78
376 74
328 326
333 56
4 481
345 316
499 65
284 108
190 308
482 158
104 42
74 40
7 357
498 434
443 317
370 10
347 480
25 388
455 321
477 259
88 216
188 475
401 279
238 338
485 246
436 52
109 339
498 65
312 269
386 22
199 35
131 494
4166.25
4
