60
11
0 0 0 0 0 0 0 0 0 0 0
82 33 39 45 94 59 87 91 36 92 49
57 27 53 76 64 98 61 36 45 91 66
96 69 44 34 61 21 62 23 88 54 84
81 21 15 22 28 12 18 34 90 93 50
97 84 84 78 21 17 10 69 39 45 83
43 67 16 69 35 54 34 22 49 97 42
77 99 75 92 76 27 19 71 34 32 12
69 96 88 72 47 96 51 73 30 76 45
77 30 52 23 12 24 48 35 31 61 77
84 16 51 13 14 87 26 57 21 62 96
45 39 32 57 38 39 23 100 51 67 95
17 13 24 54 34 71 60 34 75 43 31
97 58 77 27 55 73 63 11 32 55 33
74 68 30 34 97 96 55 75 19 42 63
76 16 79 70 31 16 10 58 91 82 47
85 71 44 34 10 16 12 53 71 23 99
96 60 90 77 59 88 54 31 21 66 53
17 97 23 34 20 54 12 16 86 96 93
18 24 74 20 33 78 72 57 39 60 57
95 98 41 100 16 58 49 32 32 44 84
37 68 65 49 66 74 21 48 27 45 57
43 65 56 94 28 89 24 98 43 80 30
54 79 43 87 20 95 25 98 57 62 100
99 91 28 84 94 22 44 36 11 46 52
45 62 73 53 89 25 65 100 64 19 18
66 50 45 10 27 86 89 29 90 82 36
61 52 47 14 79 53 71 30 78 61 79
63 58 56 21 76 15 87 14 85 19 17
56 26 24 99 41 97 39 31 29 93 20
93 63 54 95 93 62 97 75 78 34 98
74 79 93 81 59 38 11 56 19 90 68
48 46 29 79 51 51 54 94 35 84 58
86 98 53 99 76 33 89 43 26 68 20
100 82 25 100 17 67 16 26 96 37 37
17 42 46 26 80 74 21 26 15 87 57
71 95 57 55 26 21 100 59 22 56 100
66 51 62 99 32 57 73 19 91 51 55
71 92 78 94 47 61 65 57 81 73 81
27 69 43 88 54 38 13 44 27 28 60
25 57 64 96 97 21 12 36 70 62 81
37 49 39 44 55 38 34 69 42 31 69
65 72 30 47 24 75 85 67 23 33 43
94 78 25 16 80 29 18 51 97 66 19
92 34 33 21 71 37 87 55 88 63 87
62 33 19 80 10 18 24 80 49 27 53
52 28 82 13 99 87 81 91 99 25 65
68 94 44 72 54 89 11 16 68 64 24
54 53 75 29 27 60 32 99 43 41 65
88 51 96 24 83 65 88 92 59 61 82
97 20 23 97 71 22 24 90 84 44 76
15 40 51 22 53 13 79 91 22 97 43
93 83 34 18 13 11 22 99 39 70 73
67 24 53 35 98 19 19 65 56 32 45
76 79 37 46 96 48 42 74 55 67 67
41 40 60 27 63 51 48 52 46 93 56
85 73 10 64 36 92 72 53 58 92 12
31 19 70 33 57 50 32 24 70 28 59
43 72 46 78 12 94 21 83 20 40 17
49 15 61 54 89 96 75 21 45 13 22
0.37035
0.613442
0.686475
0.217272
0.605023
0.761728
0.909173
0.312116
0.77085
0.670819
0.803092
0.212114
0.68346
0.431287
0.540144
0.457699
0.600096
0.753892
0.563665
0.611294
0.432718
0.822553
0.418077
0.678029
0.569269
0.756735
0.338639
0.888772
0.822015
0.672034
0.991989
0.766298
0.412893
0.641142
0.50651
0.78504
0.476599
0.837161
0.317474
0.252323
0.381706
0.427058
0.561271
0.99067
0.800058
0.909757
0.68039
0.308485
0.542869
0.247829
0.962966
0.260448
0.64586
0.72609
0.864443
0.853458
0.577573
0.770436
0.251302
0.716309
482 96
4 414
73 167
44 185
414 303
453 343
190 421
451 58
419 444
372 159
24 254
398 473
438 406
308 457
261 48
496 58
54 325
299 338
380 217
341 273
291 208
385 27
209 311
500 366
462 348
116 237
247 343
478 52
408 340
457 215
110 170
223 314
299 497
456 222
205 462
425 147
213 291
100 400
127 203
468 247
295 185
71 209
299 344
177 136
97 20
190 231
386 427
335 165
263 49
255 297
113 112
195 4
211 161
488 183
45 366
382 341
353 14
460 498
152 150
165 117
16150
1
