60
11
0 0 0 0 0 0 0 0 0 0 0
44 93 91 44 30 71 73 79 74 60 32
38 71 46 68 25 24 71 100 88 50 42
78 25 57 14 38 76 30 21 43 53 68
98 72 19 60 22 28 56 54 81 34 92
33 84 46 11 61 67 15 22 29 15 25
75 12 68 21 26 55 23 74 71 28 84
88 77 89 68 33 48 21 73 40 46 41
51 39 92 17 57 54 20 44 91 91 100
29 31 87 21 69 24 66 19 19 72 25
12 28 46 60 35 67 84 43 73 74 24
90 84 46 66 10 76 95 26 14 21 29
73 27 86 44 46 95 45 28 87 44 82
19 95 19 54 72 42 89 32 65 16 64
15 16 45 21 18 42 67 11 82 10 16
23 60 20 11 99 71 17 57 70 37 47
47 79 52 22 30 29 81 41 99 33 71
68 93 59 94 95 79 75 45 36 31 27
33 99 55 76 69 17 18 59 97 43 90
18 12 11 100 30 34 71 38 72 82 41
96 18 10 18 61 11 98 28 59 55 62
96 65 49 46 59 32 61 22 75 67 25
68 75 36 23 88 12 65 12 77 70 91
85 82 91 30 32 45 90 61 91 46 83
54 72 33 58 14 36 37 69 46 30 31
58 50 98 27 10 31 33 17 47 84 17
62 42 98 90 35 47 61 24 46 61 90
82 82 24 81 38 99 68 63 82 64 89
74 29 74 26 20 71 15 56 30 32 45
93 26 21 70 68 53 11 69 43 68 59
65 19 24 72 79 34 37 40 49 38 51
49 34 98 78 78 38 18 76 27 95 94
79 76 50 29 20 77 97 55 59 60 99
22 33 26 91 37 65 18 42 29 68 90
74 29 11 15 37 96 56 36 16 20 31
79 13 24 37 21 23 41 43 82 37 11
93 33 79 67 30 83 63 60 44 69 83
21 63 98 89 46 83 52 29 27 28 31
90 68 12 11 74 10 46 31 97 31 93
30 98 64 20 82 74 15 98 27 15 41
49 56 43 91 59 20 46 42 77 24 93
45 77 86 38 10 19 29 52 12 24 36
54 94 64 41 93 84 47 91 72 79 77
96 13 29 60 67 34 93 67 45 45 50
46 94 93 74 37 75 10 95 58 14 69
31 28 89 86 38 39 79 35 93 41 79
42 21 84 78 52 13 23 67 57 74 87
62 46 24 20 38 23 40 50 64 39 32
51 95 31 43 38 64 33 50 68 42 79
70 32 41 97 21 15 20 15 70 18 22
47 40 45 46 44 51 94 10 56 58 25
50 53 96 47 10 59 58 78 88 56 71
97 44 54 90 10 34 11 30 60 62 81
34 46 91 71 94 60 13 15 38 26 86
78 88 22 40 80 17 78 75 11 100 87
40 97 26 15 15 58 30 53 62 67 49
74 40 14 15 82 45 37 55 23 61 11
70 24 17 11 81 67 30 40 31 61 63
60 25 66 67 50 36 23 88 30 12 76
48 40 64 93 90 30 51 49 68 15 61
1.1709
0.832757
1.42102
1.39952
1.76108
1.11236
0.961905
1.57047
1.22221
1.19341
1.05813
1.32901
1.44429
0.610659
1.29856
0.881132
0.420231
0.454033
0.819365
0.730596
1.45634
0.849555
1.94644
0.466032
1.35547
1.93831
1.27403
1.41423
0.455876
1.72165
1.17165
1.07183
0.442852
1.74234
1.79602
1.51777
1.08082
0.682461
0.715163
1.6228
1.8251
0.842452
1.2509
0.633306
0.811882
0.899148
0.584031
1.99718
0.692201
0.425427
1.66836
1.43216
0.449978
0.427041
1.30474
1.67505
1.9206
1.88968
1.90442
0.978915
179 115
345 420
154 161
260 357
323 121
205 267
396 476
247 26
460 154
419 343
395 433
328 148
109 348
35 44
195 371
259 421
311 299
478 184
150 44
52 271
185 43
112 288
280 299
62 309
85 458
286 58
52 241
153 17
188 456
218 118
493 78
433 176
102 138
364 476
406 211
302 35
468 252
52 407
210 332
241 319
41 401
385 461
471 44
227 217
129 451
278 155
357 440
318 481
346 353
212 378
61 50
12 257
372 21
18 307
83 72
468 302
142 388
51 382
225 487
375 355
5103.33
3
