60
11
0 0 0 0 0 0 0 0 0 0 0
47 21 47 53 92 20 28 31 33 99 68
97 60 36 20 79 24 49 49 89 62 89
56 55 55 75 28 71 14 27 44 92 92
15 36 97 62 92 35 34 70 23 24 36
12 96 84 67 32 82 32 43 91 94 96
11 37 65 44 37 41 33 22 48 59 67
12 25 91 95 89 87 90 84 35 73 12
42 60 73 74 34 21 48 73 22 13 60
98 55 11 59 96 97 11 65 69 19 45
83 54 59 53 50 42 46 76 26 77 56
85 92 93 37 98 20 55 58 53 86 40
95 77 28 45 17 54 56 22 89 95 86
84 93 49 32 33 10 12 45 55 49 36
76 66 66 24 60 33 79 62 62 58 79
27 59 30 58 62 68 25 17 24 28 35
40 21 93 23 59 43 57 65 79 70 43
87 22 54 53 96 14 58 63 51 25 17
97 67 21 67 28 47 74 13 34 34 45
80 74 57 92 12 50 94 11 57 90 69
62 40 18 88 28 36 22 21 54 50 57
81 89 85 99 49 80 72 42 13 72 82
80 30 23 57 51 36 71 93 59 38 91
54 35 65 17 61 19 27 57 98 82 62
34 91 69 97 80 10 15 94 86 12 98
55 55 37 54 73 73 20 62 18 29 66
64 80 80 95 62 70 28 90 79 32 48
29 79 51 10 87 34 56 28 27 46 34
76 68 25 24 82 52 35 18 19 22 71
93 99 64 20 54 55 98 52 84 72 20
10 97 56 48 51 70 93 55 29 70 88
86 42 68 30 41 38 93 95 91 72 51
70 52 67 37 99 50 11 57 37 71 52
36 61 64 46 82 65 51 76 93 67 45
38 63 59 34 35 75 42 27 86 94 20
48 30 96 62 38 82 98 21 71 12 100
89 21 52 24 14 12 18 83 76 22 32
11 10 50 100 10 95 22 64 40 86 58
93 88 16 63 17 25 67 48 18 32 80
17 28 82 20 92 47 81 91 92 37 59
95 37 82 24 70 60 38 29 51 53 52
32 44 83 48 90 51 80 74 32 94 20
74 42 81 28 48 86 17 84 85 42 27
96 16 59 15 75 28 24 89 43 19 28
84 60 82 11 76 32 32 63 31 81 99
29 71 93 54 39 56 75 32 21 59 64
57 60 62 26 27 40 27 63 70 64 79
40 100 42 99 89 20 98 80 27 84 48
44 36 62 60 23 75 99 31 19 54 68
86 27 45 93 22 87 37 92 12 57 24
13 29 42 65 83 49 93 75 24 51 50
51 71 41 26 85 98 25 83 96 93 22
66 42 17 40 96 29 38 88 83 25 75
80 61 80 31 25 92 94 47 35 50 50
52 53 36 10 90 78 33 95 42 45 32
85 59 84 83 98 75 51 12 90 48 76
66 60 21 32 64 71 99 69 32 59 55
57 32 90 37 47 38 71 97 63 17 12
14 34 75 54 92 41 16 16 43 30 80
88 84 72 41 35 52 87 22 94 41 53
0.405119
0.716864
0.222143
0.55001
0.765761
0.37671
0.728355
0.760035
0.710219
0.606203
0.258043
0.616184
0.358005
0.275099
0.786651
0.560191
0.64511
0.922749
0.87592
0.67127
0.480848
0.440972
0.809122
0.736657
0.504942
0.84114
0.21789
0.963438
0.656767
0.860759
0.263395
0.774726
0.499628
0.391084
0.941808
0.642896
0.811401
0.876439
0.737611
0.560908
0.75266
0.894843
0.607828
0.779386
0.634177
0.492134
0.908303
0.894725
0.496717
0.944944
0.970011
0.424896
0.591846
0.529336
0.76034
0.234442
0.237186
0.465497
0.808561
0.87175
185 25
40 320
358 220
394 268
298 132
338 114
247 358
326 271
286 133
177 326
100 441
78 116
357 234
488 33
445 169
214 493
444 405
27 84
482 193
167 319
303 274
187 453
82 284
151 316
443 88
264 177
351 368
161 435
236 157
148 297
387 9
391 45
453 398
11 350
240 235
261 485
346 325
60 225
226 324
376 123
2 153
158 134
361 283
499 28
252 309
466 324
403 10
264 45
500 142
112 371
447 195
164 339
151 97
213 315
149 67
5 276
101 178
52 369
372 249
444 105
3245
5
