60
7
0 0 0 0 0 0 0
27 87 78 28 51 52 60
71 48 63 27 39 66 28
65 14 72 19 92 27 18
55 58 37 86 65 62 14
55 87 46 52 14 88 75
14 19 70 11 43 67 57
30 45 95 41 42 79 66
35 83 56 91 92 20 90
94 43 95 30 71 16 96
65 82 67 98 96 65 75
30 62 65 55 85 48 42
45 76 100 48 98 50 99
77 55 47 67 34 20 75
63 92 59 63 56 78 93
57 22 24 78 98 25 99
73 83 64 84 71 88 71
37 25 11 74 81 78 13
52 39 22 66 42 19 36
27 86 36 68 92 36 31
12 73 50 15 75 74 19
74 57 78 50 99 58 56
22 58 86 67 64 14 14
98 95 51 18 93 81 50
71 84 66 49 76 95 29
97 98 15 28 64 83 93
35 77 35 52 79 76 86
13 94 76 26 70 78 49
61 71 89 68 18 83 25
70 25 36 63 94 40 34
60 61 20 35 39 78 63
30 20 77 57 49 21 84
15 31 52 22 48 78 25
60 46 92 91 32 38 79
75 37 34 90 25 69 74
46 17 67 54 94 98 51
76 25 46 22 76 70 93
90 30 15 100 66 16 53
42 68 33 34 79 95 15
95 31 25 39 95 74 85
98 77 66 20 87 48 33
33 75 26 15 15 52 54
34 79 95 52 98 59 99
88 85 91 83 28 59 81
19 99 46 37 33 84 38
60 85 65 17 49 38 41
46 15 33 53 71 41 47
29 32 30 42 65 89 16
74 99 56 100 84 98 32
95 19 13 37 20 53 32
99 41 16 63 74 61 23
24 25 10 84 85 42 18
57 18 84 39 73 12 24
47 59 35 33 89 29 80
13 44 10 67 84 64 91
31 55 79 98 15 53 45
99 45 90 86 50 26 83
38 30 71 25 45 66 73
28 60 68 15 70 68 93
77 43 56 88 87 10 46
0.959321
0.661099
0.382768
0.515034
0.410549
0.96102
0.302796
0.770775
0.201644
0.414432
0.743531
0.359438
0.515855
0.85145
0.938255
0.438963
0.757507
0.280844
0.897558
0.804089
0.36586
0.550865
0.343678
0.837593
0.40186
0.504069
0.428595
0.68863
0.27992
0.615226
0.553728
0.397723
0.36985
0.424306
0.486913
0.373526
0.535502
0.831025
0.595253
0.334219
0.83967
0.443947
0.54245
0.456715
0.368913
0.851879
0.337579
0.752574
0.222668
0.409465
0.443733
0.748643
0.670557
0.872096
0.303717
0.52943
0.261843
0.56681
0.931878
0.245525
214 194
37 402
36 130
366 159
31 333
44 470
53 325
232 62
249 489
136 443
437 321
486 346
254 13
66 275
478 443
146 313
265 434
230 345
425 60
346 382
314 198
97 250
148 140
240 340
23 118
200 319
340 296
151 383
126 240
176 256
471 262
370 72
13 36
230 447
493 218
355 384
18 34
290 382
190 19
183 6
393 418
133 482
74 191
177 476
157 0
278 399
132 454
403 452
275 85
113 69
451 9
392 301
418 430
429 244
383 257
437 48
310 244
269 243
268 87
383 383
16600
1
