60
9
0 0 0 0 0 0 0 0 0
91 85 49 90 74 90 81 88 72
72 22 66 47 84 25 85 38 50
52 91 25 68 38 74 10 59 73
100 86 43 77 22 38 47 88 58
22 76 88 36 26 17 41 50 84
32 41 71 91 39 52 85 26 70
70 96 50 87 100 16 10 37 71
17 38 15 17 58 61 56 33 47
76 63 38 80 96 37 19 39 73
67 40 35 60 80 80 49 44 52
85 64 44 14 11 21 32 67 53
68 49 24 97 74 85 23 94 77
35 56 67 19 49 49 74 88 51
73 25 16 22 95 88 78 81 43
59 39 74 56 57 20 36 41 42
36 41 54 84 32 81 16 20 69
48 58 63 46 57 35 37 52 98
54 88 70 61 12 20 77 96 37
58 96 71 44 69 65 66 88 100
39 27 55 85 33 69 92 15 38
73 71 43 35 70 73 55 76 86
83 27 22 17 86 53 99 31 72
62 50 100 55 33 75 13 13 89
44 70 82 88 22 53 22 85 91
11 10 81 82 30 17 79 69 81
83 26 22 17 10 85 23 40 28
31 99 84 19 98 49 84 88 29
78 63 83 78 40 19 58 44 30
53 51 43 98 54 56 35 79 18
57 83 14 58 12 70 66 35 16
62 17 60 95 91 32 50 25 94
25 53 53 75 83 58 94 34 47
100 68 72 57 67 54 32 40 46
60 12 81 56 18 67 49 60 83
10 14 71 70 11 86 11 77 41
31 84 29 70 63 51 43 17 21
19 19 97 81 60 23 92 38 87
49 50 26 29 52 12 25 17 63
58 84 17 19 18 62 71 33 69
27 23 42 57 43 75 44 56 75
90 87 91 47 76 67 21 38 79
85 82 17 47 86 72 64 58 89
41 34 12 89 90 88 49 39 22
46 48 67 76 40 69 36 36 71
17 12 44 69 78 74 32 35 68
82 60 47 62 18 78 28 12 16
60 94 31 22 56 58 91 15 87
58 28 16 56 99 98 36 87 69
80 47 65 74 14 62 45 90 87
97 28 97 64 88 93 52 69 93
34 43 73 85 30 76 17 32 98
32 19 62 21 21 44 76 70 57
12 53 88 100 71 21 34 69 49
17 62 63 91 94 93 31 63 45
14 70 100 52 48 74 99 69 18
47 64 46 98 60 90 49 66 33
52 84 51 20 68 86 29 46 78
42 16 39 97 96 20 19 87 41
68 81 95 60 57 34 13 83 30
0.400713
0.203533
0.417532
0.43358
0.428585
0.490528
0.254947
0.434504
0.208279
0.257544
0.354339
0.300076
0.33231
0.208662
0.200027
0.179095
0.107659
0.196978
0.448121
0.359939
0.358314
0.197833
0.259041
0.300844
0.274616
0.386769
0.375827
0.355317
0.293304
0.390019
0.345717
0.270167
0.276401
0.243564
0.146042
0.299869
0.202948
0.209746
0.113238
0.35979
0.276206
0.181157
0.372478
0.163959
0.106498
0.350125
0.100186
0.33305
0.176415
0.411816
0.466944
0.253642
0.441636
0.131436
0.240354
0.23165
0.320113
0.279426
0.172612
0.271977
140 107
290 317
163 339
414 319
49 381
497 136
334 274
19 367
337 474
275 453
469 79
24 50
440 94
333 124
82 498
197 155
155 352
274 495
217 76
325 468
481 462
438 55
383 210
219 120
498 65
313 335
287 488
445 411
89 299
108 403
256 20
317 419
204 45
27 484
434 275
245 334
326 313
279 384
338 19
388 69
496 480
452 98
367 66
366 447
418 292
425 51
464 139
470 422
328 241
165 300
256 360
276 429
444 315
84 412
433 408
341 497
358 122
233 338
361 50
427 209
5438.33
3
