60
9
0 0 0 0 0 0 0 0 0
42 75 15 21 75 21 95 54 31
68 40 72 21 20 62 47 58 49
14 42 70 16 85 47 66 65 12
83 27 14 78 43 81 28 28 12
54 30 10 71 61 38 36 58 43
53 78 70 34 35 65 73 50 66
84 99 53 72 43 69 88 22 63
38 22 38 39 25 56 72 39 11
97 41 72 53 22 79 95 30 92
15 63 62 47 82 75 35 99 42
72 73 100 43 54 54 95 79 96
24 92 18 56 64 12 52 57 19
58 15 52 59 39 47 100 49 62
11 41 100 64 95 36 95 51 66
55 34 57 58 30 98 92 58 68
32 86 19 47 27 42 62 84 100
19 96 31 19 76 82 87 10 82
54 99 40 100 97 33 24 91 49
92 44 18 94 34 76 96 79 16
19 40 29 54 48 50 54 11 71
18 36 79 20 12 67 59 44 10
24 68 48 83 11 41 97 84 73
64 49 17 62 86 43 59 24 22
65 81 54 15 48 72 79 59 58
13 82 70 54 35 94 16 37 45
71 89 74 87 36 61 87 89 74
88 81 56 75 36 27 40 86 26
82 45 37 17 95 68 64 26 87
80 28 14 11 70 44 43 31 69
13 18 60 44 64 62 95 41 87
39 28 93 14 90 22 80 15 78
80 30 46 61 59 87 53 82 33
19 18 58 15 35 98 71 77 73
82 45 63 72 93 70 35 59 37
71 43 93 50 54 81 46 86 66
41 93 40 96 18 55 54 17 48
63 83 87 94 46 68 60 82 94
30 43 60 37 54 96 100 86 83
35 96 91 53 87 52 14 20 29
38 100 60 46 57 24 97 87 74
76 44 82 45 37 92 68 61 16
16 60 27 79 91 46 85 92 14
38 75 85 42 93 52 16 10 34
83 13 70 99 64 60 76 79 45
76 32 85 25 19 27 22 18 65
51 39 25 16 23 41 99 88 19
87 47 16 54 58 66 94 20 84
10 46 61 48 19 69 34 22 88
17 98 51 53 67 26 82 37 54
23 96 19 89 52 54 37 24 20
78 70 12 75 48 67 89 69 51
49 29 56 15 60 18 47 46 66
36 23 72 62 99 95 46 17 81
17 71 59 96 80 30 70 36 23
29 75 49 44 60 35 42 12 69
39 53 84 47 53 78 66 73 57
35 93 87 99 50 17 81 23 92
97 76 75 76 65 76 95 27 71
66 21 22 96 38 99 43 90 73
0.742066
0.71772
0.65735
0.506092
0.235578
0.781811
0.541109
0.460794
0.426884
0.688303
0.777218
0.640825
0.35346
0.523841
0.968197
0.911301
0.221414
0.439861
0.275156
0.639018
0.448631
0.39369
0.200789
0.849315
0.722882
0.411135
0.546867
0.618312
0.903693
0.660595
0.48334
0.665326
0.892316
0.616743
0.784602
0.497985
0.306466
0.773196
0.669781
0.45698
0.872379
0.544855
0.653771
0.477403
0.421365
0.760084
0.413888
0.493149
0.715816
0.423381
0.948776
0.87072
0.832058
0.982683
0.208737
0.547462
0.692485
0.261425
0.55932
0.7176
316 126
257 294
204 141
192 489
190 257
242 15
400 140
470 253
0 250
474 371
205 172
205 361
67 150
335 423
333 473
350 133
77 245
251 454
194 488
362 497
355 417
476 458
157 347
195 202
478 422
303 405
254 78
29 467
159 173
312 265
261 121
373 11
62 165
459 110
174 497
361 362
256 380
126 242
192 460
450 15
471 425
434 29
314 138
141 185
431 90
172 431
317 53
100 299
184 80
42 141
165 375
11 465
416 116
436 90
104 263
499 254
311 271
500 271
408 203
317 391
16335
1
