60
7
0 0 0 0 0 0 0
97 31 67 45 42 98 71
14 65 71 36 10 63 25
63 13 13 11 77 73 27
50 50 92 46 71 26 21
14 43 12 54 40 76 43
66 42 61 73 78 55 94
61 42 70 30 21 45 20
55 93 95 29 94 27 32
17 28 33 93 68 44 68
35 80 21 61 28 68 21
36 79 66 55 62 13 18
23 25 93 33 32 96 85
49 39 42 20 99 96 19
36 49 32 77 74 83 14
65 63 39 55 99 40 18
76 96 87 72 25 33 76
40 39 10 19 80 70 36
56 80 14 84 84 35 40
31 100 26 31 19 23 12
100 92 63 10 15 55 98
51 100 99 23 77 24 79
29 10 49 77 31 82 75
41 75 64 34 89 99 88
15 47 28 80 58 95 98
22 56 25 34 79 25 38
47 46 79 59 38 31 97
95 42 84 22 20 11 96
16 23 70 65 96 89 77
54 11 83 53 93 27 87
41 46 95 96 96 55 42
26 14 48 90 58 31 57
47 38 44 17 87 53 65
78 84 50 69 24 24 21
86 13 62 59 67 47 35
61 51 98 75 83 98 51
99 92 96 12 29 49 39
100 45 76 73 29 70 34
49 53 65 80 67 51 83
31 86 62 57 65 56 67
63 28 11 37 32 56 93
71 27 67 74 28 96 62
76 86 45 45 48 74 75
87 40 88 96 53 30 84
99 63 61 74 57 44 10
66 100 80 64 32 59 54
63 44 16 29 20 100 79
28 100 85 97 58 26 28
13 48 78 63 99 90 98
32 90 58 86 79 40 64
86 20 49 53 62 86 16
90 22 47 85 79 40 57
28 18 75 11 60 10 84
79 56 86 83 88 13 32
89 98 77 79 38 47 85
97 48 80 38 40 93 69
16 78 79 81 100 25 53
13 28 75 15 81 30 82
32 76 22 68 90 36 69
99 28 89 40 38 86 28
2.1831
1.44961
1.03536
1.25642
2.46208
0.768444
1.98013
1.41798
0.791677
0.653326
0.598759
1.3245
0.682961
1.845
1.09076
1.79125
1.65766
2.14853
0.814834
1.80475
2.48564
1.66639
1.92147
0.921192
1.48348
0.962282
2.10088
0.787088
2.37491
2.30553
2.07631
2.15706
1.33969
1.56898
1.56651
0.616409
2.22481
1.99652
1.14372
0.548248
2.24089
1.42522
1.88651
0.653894
2.09447
0.537512
2.38332
2.04185
1.28664
1.96585
1.80884
1.12827
1.74024
0.572144
1.33337
0.615683
0.879334
2.19655
0.9503
1.34792
425 461
252 13
500 369
465 278
137 112
279 381
309 385
282 409
244 127
415 142
43 363
24 483
360 342
449 133
428 194
2 271
111 214
341 462
65 363
162 289
39 278
304 30
101 260
32 36
315 251
220 319
293 295
143 154
214 309
72 217
298 152
147 183
399 41
296 372
151 329
481 225
430 285
97 148
109 437
456 489
84 311
126 53
405 200
295 324
437 452
179 254
260 115
473 56
48 380
284 451
208 161
266 216
169 70
214 399
262 468
445 298
359 220
466 451
102 171
99 494
16535
1
