60
9
0 0 0 0 0 0 0 0 0
46 57 64 51 23 58 86 58 81
44 56 91 10 32 48 10 53 74
30 39 90 10 76 17 39 26 31
55 93 88 30 74 30 86 59 73
100 45 31 100 36 59 37 60 62
40 69 35 45 90 95 84 28 63
68 34 63 27 33 74 58 66 49
39 51 96 60 26 82 68 22 36
75 58 16 86 92 77 57 70 71
46 62 18 68 69 71 80 49 64
23 47 50 77 13 52 42 28 18
20 61 62 85 99 55 60 58 71
81 50 72 100 43 99 23 11 25
81 90 46 93 53 50 34 67 57
84 21 63 61 43 12 12 65 49
21 94 25 16 71 37 54 69 12
98 15 76 20 83 95 44 39 72
60 59 100 66 78 90 44 13 79
79 80 42 60 23 79 87 15 57
87 90 26 65 22 28 17 89 20
91 94 97 42 63 60 75 60 38
47 33 11 67 72 95 84 41 39
76 41 48 34 70 82 77 47 97
58 50 55 38 59 67 46 67 84
31 56 27 96 43 79 11 96 87
71 57 48 60 73 63 94 88 56
55 98 15 83 82 63 60 58 21
14 98 34 91 65 88 88 30 82
20 77 48 17 99 88 53 30 80
84 48 63 63 31 34 86 21 14
24 55 98 70 27 69 20 62 96
82 81 33 85 35 24 15 22 54
37 56 99 19 21 90 56 50 44
32 72 36 28 97 83 99 63 66
99 49 66 32 23 76 93 64 72
90 12 63 80 49 57 11 63 72
74 86 29 80 63 92 70 67 38
98 90 40 60 35 49 13 31 27
100 97 86 84 91 36 89 68 76
35 94 93 44 95 32 46 75 25
44 78 61 31 88 33 95 70 58
99 38 63 10 53 13 11 14 95
48 67 31 49 44 31 71 23 98
43 80 92 91 42 35 91 63 39
15 75 28 59 83 11 85 89 88
52 40 21 93 65 42 31 52 98
99 55 66 75 59 40 82 47 14
71 60 65 29 77 68 73 77 24
37 82 95 28 87 88 55 18 93
93 17 34 73 65 20 86 19 20
61 21 17 58 59 62 51 91 96
65 27 15 90 30 35 100 84 72
23 17 27 77 42 62 14 37 89
21 77 61 67 85 77 78 75 23
46 68 77 24 16 95 71 60 24
59 37 99 29 53 14 12 73 94
49 19 30 63 77 78 83 11 85
73 77 43 76 35 92 42 40 14
78 27 61 36 39 24 99 73 80
0.405846
0.465679
0.454554
0.402689
0.231995
0.135778
0.301438
0.231088
0.36904
0.47499
0.228978
0.459744
0.413769
0.32069
0.392773
0.458847
0.494843
0.284326
0.359266
0.181385
0.314288
0.106139
0.413246
0.413128
0.451235
0.219084
0.328086
0.197574
0.308039
0.153428
0.141896
0.131691
0.335718
0.222705
0.45402
0.397366
0.454677
0.171845
0.296407
0.472798
0.379068
0.178338
0.36355
0.223456
0.135628
0.100629
0.481618
0.416677
0.119368
0.111651
0.14823
0.351677
0.47021
0.495551
0.345232
0.488923
0.289427
0.192259
0.229725
0.321443
51 453
282 60
355 203
445 135
3 395
62 407
310 68
50 116
420 202
413 293
97 397
68 93
464 384
291 317
271 193
131 2
290 173
83 268
244 354
431 422
371 335
26 357
134 388
348 413
329 398
471 255
189 190
298 114
466 40
100 70
320 46
496 308
114 428
184 139
9 322
373 75
11 3
408 454
18 167
262 248
392 499
59 416
51 375
15 73
79 137
117 103
122 498
127 329
351 162
372 373
344 209
170 128
209 146
242 83
116 86
455 211
441 162
322 258
183 80
463 135
3366
5
