60
9
0 0 0 0 0 0 0 0 0
59 23 18 63 31 27 97 76 46
36 63 82 25 62 34 81 72 38
28 18 50 11 30 39 26 41 19
37 20 69 24 86 54 30 21 82
69 21 88 63 49 61 97 14 87
32 11 31 99 47 50 49 76 75
75 92 90 87 14 23 71 19 65
38 67 43 80 67 93 53 27 32
93 88 90 59 11 79 17 50 63
59 44 55 91 80 21 89 89 25
100 79 71 51 50 53 17 37 69
84 60 17 58 11 85 54 27 60
13 98 93 35 69 97 40 72 89
47 87 92 19 58 72 68 59 59
15 75 15 66 80 33 24 38 36
21 89 21 91 27 64 69 25 34
11 69 12 16 42 45 68 52 10
100 99 61 57 61 66 40 84 80
19 31 32 91 86 44 98 14 20
52 29 53 86 58 38 100 76 94
96 32 36 27 78 21 57 21 90
86 60 78 56 74 31 24 40 54
29 13 11 16 36 67 14 84 80
57 40 10 51 99 45 45 28 92
34 80 81 36 38 39 78 50 16
15 28 74 70 82 74 38 19 32
71 41 80 30 69 55 57 10 65
38 94 73 65 93 24 77 52 37
58 68 82 55 69 89 48 61 34
61 31 100 61 52 31 54 70 33
72 91 97 67 98 42 52 43 12
84 93 77 61 23 99 86 96 57
58 89 58 74 36 64 22 23 38
28 70 95 83 100 48 46 94 65
90 83 45 92 48 76 22 45 78
15 38 83 34 41 94 57 68 90
90 77 82 90 22 47 77 21 67
55 85 70 16 31 39 51 18 59
44 82 20 15 29 24 76 76 49
21 63 41 73 85 35 27 22 51
97 49 52 83 65 63 74 57 69
85 24 44 80 48 27 88 96 63
14 46 78 40 57 59 30 80 94
32 46 20 20 81 71 28 74 87
32 53 29 66 21 96 66 59 96
63 23 80 87 92 70 23 21 95
56 36 46 72 12 26 67 74 15
28 60 97 56 78 90 67 97 98
63 32 74 71 79 18 97 57 68
60 42 86 81 78 93 85 56 53
92 99 95 88 54 87 21 86 17
44 65 30 77 91 98 49 35 14
48 61 46 42 53 62 79 28 12
63 38 54 49 65 87 61 60 10
86 77 28 98 44 59 64 82 85
51 33 28 65 18 87 16 26 97
42 45 45 56 92 41 95 55 56
60 62 86 20 91 69 72 72 29
44 18 33 18 75 37 81 45 46
0.364124
0.250659
0.209466
0.446859
0.403402
0.119433
0.126295
0.190035
0.325109
0.271224
0.214226
0.193071
0.195133
0.245909
0.352781
0.371871
0.366403
0.214686
0.141825
0.378956
0.312459
0.383006
0.288802
0.218424
0.446869
0.235007
0.361988
0.312263
0.341936
0.335084
0.167352
0.41437
0.36838
0.467493
0.41498
0.133563
0.361839
0.465619
0.218878
0.142711
0.405676
0.144172
0.228756
0.418599
0.128972
0.233429
0.414552
0.335397
0.2816
0.497629
0.120942
0.221381
0.189055
0.18579
0.141199
0.39418
0.413292
0.323439
0.492869
0.310659
24 192
328 435
349 189
283 498
379 97
377 477
344 254
466 357
298 98
122 473
256 302
163 382
207 383
483 115
153 288
85 310
169 433
409 330
12 93
260 164
346 82
436 240
499 2
47 423
135 58
474 206
114 311
338 287
453 222
486 478
244 297
38 194
81 446
465 61
285 292
208 63
263 478
125 78
278 424
204 44
23 171
121 499
302 108
136 240
286 72
286 58
338 343
164 416
411 307
256 151
109 233
229 88
267 470
222 464
274 472
238 356
440 190
401 112
489 458
170 420
5520
3
