60
7
0 0 0 0 0 0 0
58 62 42 84 35 49 18
76 24 25 32 34 72 63
87 17 78 18 11 68 60
34 91 78 73 49 63 38
89 83 32 77 62 14 42
74 43 14 73 34 77 25
73 75 65 32 53 100 26
16 44 94 49 30 97 71
13 31 52 55 75 53 72
95 50 20 57 46 79 64
48 63 82 29 36 33 44
29 88 64 52 60 54 26
54 41 91 46 26 93 46
23 89 62 72 58 86 100
25 13 85 23 32 68 17
21 41 31 23 43 86 62
29 33 81 69 88 90 93
89 65 67 59 73 87 29
81 63 44 25 44 28 40
11 34 35 71 52 86 68
12 75 49 59 44 95 72
35 24 25 19 96 92 50
79 11 54 78 21 100 57
60 32 45 87 35 46 31
15 32 38 87 18 18 60
32 10 77 87 87 95 53
60 66 79 22 97 26 37
44 19 36 62 20 50 90
62 82 49 81 84 43 87
43 42 41 23 30 56 15
71 44 67 51 71 57 52
21 65 30 43 53 87 21
83 62 96 57 70 14 33
50 78 29 28 95 12 79
86 50 80 69 38 98 44
94 64 95 54 10 68 51
77 58 26 62 77 42 38
30 28 61 84 41 81 81
33 33 58 33 30 57 64
50 86 17 85 92 40 34
96 11 62 42 45 58 12
80 50 84 12 99 54 28
10 69 15 59 63 66 36
14 19 58 84 36 18 53
73 75 76 63 59 53 35
79 50 62 39 85 75 77
92 62 93 20 93 27 78
57 77 14 44 72 71 32
88 44 90 92 47 66 75
10 65 71 58 89 55 39
81 91 69 16 93 27 46
18 13 54 62 16 31 91
98 57 92 28 14 29 73
53 95 73 84 56 80 73
91 26 29 61 23 88 17
21 36 33 44 99 25 19
35 29 93 47 57 52 54
63 53 24 71 12 25 89
86 80 10 26 23 97 78
0.473203
0.288394
0.305713
0.314114
0.159204
0.19748
0.14966
0.425494
0.411606
0.283158
0.247271
0.308597
0.423773
0.340564
0.224464
0.252249
0.22066
0.456598
0.309702
0.152466
0.142556
0.414714
0.356301
0.410204
0.322891
0.156471
0.298799
0.115411
0.332159
0.393532
0.447865
0.46281
0.19462
0.43786
0.258196
0.418839
0.456294
0.489688
0.431137
0.393966
0.479231
0.117974
0.284213
0.390888
0.134923
0.452651
0.212992
0.470811
0.220455
0.325226
0.407126
0.462657
0.115599
0.344793
0.446941
0.122374
0.452771
0.226139
0.254685
0.188532
411 245
181 107
0 63
475 274
457 232
212 44
251 175
478 144
20 2
310 319
16 476
54 247
197 137
289 294
363 94
271 62
425 31
380 40
498 54
397 439
221 237
153 359
3 97
15 21
120 499
6 213
460 120
33 200
146 130
49 499
191 480
72 320
81 282
304 216
207 410
39 145
102 472
335 336
371 202
249 99
343 339
70 307
89 426
93 452
447 182
87 208
425 206
434 235
457 234
171 118
476 30
385 28
201 193
317 336
496 290
216 141
459 119
310 55
469 191
68 105
3200
5
