60
5
0 0 0 0 0
89 70 85 91 77
95 24 92 16 93
88 26 22 49 11
93 46 46 25 32
93 38 62 11 84
65 52 49 17 16
35 71 20 15 21
72 23 62 71 52
34 29 96 55 15
57 58 20 19 29
24 18 11 92 59
60 36 43 18 55
20 98 23 69 95
20 71 11 58 23
75 55 60 93 24
60 18 81 35 31
89 54 14 33 21
25 100 30 83 84
80 41 45 73 19
45 86 59 22 69
74 22 82 37 23
54 11 88 68 38
32 17 62 38 23
10 94 24 81 15
93 76 83 23 33
60 58 10 31 36
58 87 69 100 98
61 18 93 80 78
90 60 33 74 42
55 59 91 76 22
46 48 78 94 98
60 86 31 16 62
73 12 67 77 30
28 49 21 77 34
12 59 16 54 63
57 59 55 43 78
33 16 93 50 29
73 19 28 23 33
88 66 24 25 60
46 72 37 44 88
58 77 31 55 75
56 55 77 20 58
92 83 38 35 23
25 74 25 70 13
39 14 13 74 29
12 42 27 76 28
82 59 36 83 18
45 81 82 95 80
50 55 65 14 30
49 16 21 61 72
20 20 47 98 13
100 34 42 73 47
69 77 11 29 34
88 87 96 35 100
19 77 59 43 81
89 68 54 11 67
43 95 85 88 92
97 26 77 11 100
92 68 100 95 97
0.460525
0.309032
0.31856
0.431895
0.339621
0.397789
0.317431
0.343929
0.450084
0.393315
0.245864
0.142001
0.204235
0.172295
0.174371
0.426899
0.207358
0.248515
0.322355
0.481305
0.395491
0.137331
0.34621
0.391208
0.114474
0.42963
0.32737
0.288908
0.161733
0.377355
0.398375
0.314936
0.183365
0.371195
0.482122
0.135807
0.179315
0.147948
0.456097
0.125702
0.2258
0.161939
0.109792
0.122807
0.446138
0.280543
0.188356
0.255901
0.327444
0.108524
0.463363
0.173073
0.309714
0.377845
0.321239
0.164846
0.359673
0.401397
0.22299
0.105663
488 313
427 50
268 262
28 443
63 408
44 365
312 284
447 257
306 335
244 394
122 173
149 117
451 466
91 43
369 486
400 424
167 335
303 461
343 12
52 175
3 429
15 137
318 246
465 274
185 132
401 168
63 379
310 325
61 342
153 319
232 479
59 198
456 406
419 128
368 7
123 26
23 141
409 452
110 445
466 361
84 378
489 191
32 223
468 184
386 370
119 483
168 22
492 143
345 138
174 6
479 459
416 287
115 328
221 61
125 273
489 270
366 138
340 67
214 272
243 143
15630
1
