60
9
0 0 0 0 0 0 0 0 0
25 83 34 22 73 73 91 76 48
61 85 89 62 62 37 90 93 70
88 76 21 88 71 34 65 98 23
98 11 79 42 80 12 93 81 47
60 38 60 40 49 51 36 44 78
98 92 48 87 19 22 54 83 36
19 68 25 63 41 68 14 16 44
90 84 84 10 46 91 27 37 94
44 26 19 97 72 78 44 76 51
28 29 47 75 67 77 44 92 18
94 23 64 34 30 77 69 53 82
58 34 19 70 57 86 17 62 34
34 35 82 69 81 68 34 81 35
86 85 92 16 52 10 83 33 14
60 87 48 22 90 25 64 33 63
38 37 80 49 64 66 72 49 64
94 81 57 94 80 52 66 50 61
68 70 92 34 73 23 12 39 40
38 83 99 66 29 61 42 14 94
10 57 79 31 11 30 22 48 66
76 10 88 34 62 94 93 48 80
68 65 53 56 32 31 41 94 32
69 41 10 78 61 28 43 30 72
63 34 17 51 13 24 10 60 84
22 97 23 22 21 59 97 51 38
67 94 54 66 42 88 27 83 34
58 32 76 84 41 29 12 46 95
31 22 27 72 75 21 56 54 97
100 99 99 54 22 21 28 99 53
91 44 42 69 58 27 26 40 44
20 40 100 89 33 80 70 89 18
28 37 76 89 39 21 80 92 96
16 70 28 49 83 39 72 98 95
55 75 99 82 31 29 62 38 46
72 33 15 20 47 33 58 97 63
75 35 38 65 15 25 17 98 100
89 11 73 25 49 11 36 84 85
11 42 36 33 38 41 51 21 79
73 38 66 60 28 24 60 47 55
51 31 34 23 91 16 98 81 18
79 81 43 15 72 19 29 59 79
52 12 53 18 88 46 11 100 66
66 27 49 95 72 24 41 64 82
63 86 69 50 72 13 78 69 91
96 20 97 88 83 73 85 53 23
35 56 34 53 43 48 99 100 39
78 25 36 68 52 95 79 100 13
39 67 16 16 63 52 72 36 65
81 39 38 95 67 11 24 88 23
13 10 37 87 77 70 76 48 82
96 62 77 42 85 75 14 45 82
48 43 36 28 76 34 25 68 46
22 96 78 20 97 55 78 31 40
45 11 59 97 68 57 33 62 41
14 43 73 54 47 60 89 30 53
85 48 38 58 32 12 12 73 57
26 90 15 66 37 79 40 10 36
26 85 31 11 35 65 31 82 93
59 42 63 34 60 24 16 30 19
1.32578
1.0561
1.43977
1.67934
1.44964
1.06673
0.833013
1.16328
0.657781
0.864714
0.91377
0.722802
0.498991
0.532264
1.81033
1.11701
1.75029
1.91149
0.42795
1.03788
1.18608
0.40314
0.496794
1.48636
0.594566
0.904134
1.89119
1.41862
1.29085
0.689743
1.37609
1.81624
0.859406
1.24126
1.85344
0.998669
1.83766
0.6256
1.97211
1.32244
1.11294
1.6684
1.44434
0.941074
1.53398
1.3774
1.92383
1.01795
0.496729
0.479842
0.68891
0.756235
0.83677
0.431338
0.715604
1.13653
0.593075
0.818819
1.97069
1.95859
376 49
465 359
178 377
76 260
381 479
21 217
4 430
133 45
105 410
44 384
166 384
269 404
329 60
395 411
445 136
271 272
201 289
209 226
74 403
453 71
122 261
142 331
157 247
371 353
119 367
244 444
429 47
115 242
218 401
483 8
475 329
12 66
17 150
7 46
165 291
322 496
170 345
153 217
41 400
76 127
89 325
295 66
496 308
493 289
134 369
461 316
295 380
475 29
318 191
49 255
450 111
499 310
10 136
94 46
470 490
42 448
90 500
445 341
197 73
113 122
8002.5
2
