60
3
0 0 0
48 18 33
33 64 74
29 42 35
97 55 51
62 40 42
65 23 93
85 46 76
89 31 67
26 99 88
51 45 95
89 43 48
48 58 81
46 77 11
55 55 24
89 89 44
49 86 51
34 13 26
30 49 97
47 14 20
21 59 44
15 88 49
37 23 11
93 13 99
63 30 60
80 41 23
38 51 59
100 31 47
90 95 21
87 57 78
71 39 68
88 96 69
68 52 28
67 79 10
69 83 68
34 11 82
47 80 64
49 23 77
19 53 24
94 39 53
39 72 17
10 78 95
44 71 10
72 37 57
62 45 83
92 28 37
12 37 41
76 55 20
12 48 85
13 81 96
49 99 80
50 57 40
59 51 71
10 24 100
24 67 27
29 53 84
26 60 80
13 18 30
63 83 47
27 25 97
1.18152
1.26519
0.523803
1.01301
0.532236
0.692508
0.411304
0.918934
1.3366
1.07339
1.13923
1.16985
1.31551
0.499977
0.415545
1.48082
0.622135
0.38259
0.439544
0.816016
0.403294
0.390765
0.894146
0.920026
0.373068
1.14924
0.792953
0.378494
0.952213
1.49919
1.27289
0.959174
1.30542
0.953454
0.641404
0.519421
1.0949
0.873437
0.394264
1.25197
0.480283
0.986088
1.48996
1.07308
0.800847
1.08942
0.889289
0.853148
1.11859
0.504739
0.928125
1.18871
0.547245
0.526974
1.02943
1.34043
1.4102
0.368205
1.45266
1.29363
352 391
71 289
69 83
495 19
21 91
487 290
43 351
440 204
63 214
455 366
90 75
202 210
87 101
188 300
336 91
11 59
441 390
249 179
14 162
405 410
27 218
381 451
417 361
242 425
349 454
381 184
393 101
213 220
156 233
240 7
397 277
191 182
141 299
33 298
144 264
55 294
179 407
408 382
403 265
485 378
150 491
75 379
54 55
248 60
211 48
244 369
103 400
307 193
254 430
228 69
401 274
99 106
156 346
264 287
280 254
265 20
229 244
38 396
393 21
380 229
7875
2
