60
9
0 0 0 0 0 0 0 0 0
89 99 83 24 95 89 43 15 82
93 65 76 16 42 73 72 73 17
78 60 33 86 85 63 83 55 98
45 57 25 38 51 60 48 56 14
63 99 36 99 44 70 27 62 10
69 50 81 64 86 80 92 83 78
77 33 14 47 54 72 10 89 100
44 28 55 38 23 99 77 90 19
12 79 19 14 51 53 18 30 90
60 30 81 51 51 81 20 97 59
23 79 62 17 69 51 69 24 11
65 28 99 63 18 24 10 63 33
30 25 99 29 32 27 74 23 10
50 32 12 85 71 14 70 91 47
31 17 85 32 16 66 72 73 14
35 49 48 48 14 30 74 23 37
40 72 15 18 70 59 36 68 80
66 89 61 23 52 57 11 60 13
64 25 21 16 84 94 45 91 22
55 80 29 85 38 96 45 84 29
14 48 100 60 79 19 19 62 97
45 69 94 85 93 43 50 26 24
40 90 86 42 46 59 11 90 79
26 40 66 78 26 11 76 38 27
39 85 29 18 46 38 48 55 22
70 76 10 41 60 85 81 63 99
57 73 60 96 61 58 65 94 10
94 63 45 88 50 64 72 67 50
41 86 38 87 38 68 55 56 72
80 63 68 86 56 84 15 28 52
52 16 16 36 37 21 95 72 78
64 83 38 68 10 11 77 19 35
27 37 39 15 63 98 72 79 99
46 62 100 61 43 72 85 10 32
25 72 73 25 42 19 57 38 45
37 11 68 56 90 28 99 31 37
56 84 39 62 90 64 81 44 64
62 86 98 44 80 63 18 35 53
59 66 52 36 68 66 83 21 32
25 36 35 69 50 48 79 89 23
83 31 79 97 15 32 11 87 51
77 33 59 18 10 35 66 74 78
51 81 50 60 39 29 11 92 96
59 52 77 84 65 70 17 42 51
47 45 95 49 16 53 97 100 17
65 34 75 60 69 59 14 36 14
93 62 40 61 16 17 13 65 35
56 19 85 38 66 47 52 55 96
72 30 61 81 43 65 48 35 96
32 100 79 95 20 78 17 11 41
31 18 93 79 39 82 67 11 99
92 86 61 79 21 81 80 82 89
45 41 33 50 50 30 56 11 33
27 41 89 39 17 54 42 86 78
100 28 78 37 97 11 99 71 60
89 21 80 76 11 83 81 31 84
84 13 91 48 54 45 71 52 42
63 12 74 96 57 86 64 46 40
17 84 49 45 60 63 38 61 12
0.881473
1.05504
1.25505
2.23059
2.15131
0.623955
0.957748
0.96073
1.84166
1.54471
1.48886
2.46942
1.46762
0.900848
0.94446
0.833597
2.41865
1.28048
1.22337
1.63681
1.41888
1.67359
1.7835
1.67569
2.01276
1.18289
0.679435
0.955207
1.59344
1.89733
2.19994
2.27939
2.48912
0.926392
1.73404
1.43174
0.703751
0.946392
1.74242
1.40129
1.93552
2.22486
1.77182
0.661413
0.687317
1.14287
1.05042
1.63565
2.2408
1.19688
0.699376
1.14688
0.767861
0.673589
1.94381
1.99507
0.76148
1.1876
1.87325
2.1578
268 366
30 104
242 229
68 305
95 225
313 266
209 154
207 291
190 260
188 159
333 52
53 279
380 162
300 64
83 77
149 201
340 240
422 421
488 414
452 419
111 305
406 402
218 372
480 343
274 118
297 220
166 199
345 303
364 318
224 154
23 297
57 174
398 194
453 95
265 135
83 29
28 83
323 472
423 10
455 130
417 129
169 477
399 27
217 161
406 102
105 210
102 177
15 431
177 348
300 493
85 169
224 295
129 202
386 425
325 51
70 158
338 478
312 110
127 259
106 248
3212
5
