60
3
0 0 0
84 25 52
81 86 18
94 95 13
12 72 79
75 15 97
26 63 25
38 90 58
60 25 47
98 50 100
77 100 99
39 95 93
59 53 93
36 14 97
44 56 21
95 62 54
74 29 37
73 36 35
84 10 37
90 89 84
25 30 24
14 79 21
78 39 26
100 68 52
99 41 92
45 50 22
42 75 100
83 21 98
20 58 37
72 28 52
75 15 78
63 47 72
26 83 21
63 85 82
89 64 21
20 100 10
51 21 87
62 85 85
77 60 77
45 16 59
87 77 94
45 20 95
74 87 57
79 41 52
25 99 48
43 37 66
96 28 74
19 96 72
52 91 41
24 21 97
75 98 61
72 21 87
59 14 19
10 74 95
66 69 37
59 21 11
70 86 77
25 89 55
61 16 42
33 91 45
2.20046
2.17228
2.11964
1.69636
1.404
1.86941
0.887029
2.25748
0.783025
1.23069
1.80419
0.883301
1.08175
1.09373
1.34505
0.521559
0.90077
1.15513
0.7077
2.15571
1.92379
1.88828
0.878573
0.536462
0.817635
0.861321
0.513467
1.23798
2.43495
1.06867
1.63708
1.71265
1.9774
0.681223
2.46919
2.42148
1.87745
1.11254
1.41205
1.18751
0.677769
1.09275
2.18941
1.0724
1.29918
2.05189
2.20147
1.14058
2.22194
1.37388
0.664693
1.48633
2.21936
0.895485
1.82928
1.44467
2.00263
0.920538
1.61256
2.22573
339 226
417 272
82 26
55 219
494 298
328 42
266 251
324 280
443 159
245 500
231 92
343 98
185 404
346 499
231 461
497 298
85 136
70 6
252 91
89 114
404 220
264 417
147 220
429 447
248 237
187 49
198 359
155 411
378 437
474 358
39 438
201 319
89 156
449 64
385 265
97 432
119 259
335 0
10 19
186 151
349 483
486 198
448 253
494 23
201 191
103 89
102 235
423 345
390 305
292 433
470 285
330 164
141 282
267 121
453 51
155 357
69 265
6 421
77 474
110 447
5693.33
3
