60
11
0 0 0 0 0 0 0 0 0 0 0
49 72 45 39 29 17 98 17 19 76 98
15 52 94 96 56 73 80 44 97 25 35
89 31 17 66 37 74 95 78 88 70 79
19 46 95 57 26 85 25 10 74 77 55
52 22 43 99 76 74 78 73 90 87 28
15 90 62 54 83 65 25 21 76 47 92
52 51 33 19 32 25 73 49 76 64 17
12 56 13 59 60 25 58 83 63 56 16
15 12 83 26 96 94 41 33 31 44 29
20 15 96 79 24 74 52 31 97 23 25
90 87 69 99 34 92 32 92 54 27 90
55 66 70 31 66 67 34 36 79 66 30
69 52 78 97 52 38 56 61 12 97 53
49 98 12 65 64 99 90 55 100 65 82
40 15 98 73 68 32 62 29 25 13 28
17 92 47 56 73 76 77 98 71 46 47
46 58 48 16 63 77 85 48 73 57 11
10 26 85 85 83 62 60 62 53 76 25
98 33 61 34 11 67 96 54 70 65 32
38 81 49 29 88 69 12 30 11 32 23
85 61 42 62 51 84 64 18 24 60 59
45 72 98 56 78 93 13 17 89 43 20
33 77 42 10 79 87 86 51 43 80 86
11 94 98 35 32 95 94 26 22 36 36
57 53 47 45 10 100 100 98 70 37 57
70 29 84 96 80 95 81 18 23 10 59
85 39 47 56 87 92 95 12 85 34 10
92 10 89 48 45 44 59 25 30 12 15
74 73 90 14 11 39 82 30 88 24 10
85 12 35 25 96 19 12 78 83 95 73
18 41 34 99 14 95 93 40 82 48 68
82 28 66 82 83 68 67 68 27 69 100
42 87 73 15 98 56 74 87 63 100 75
66 48 80 44 100 13 22 51 95 11 57
63 10 58 96 74 76 69 25 23 19 100
81 87 77 44 64 83 97 40 87 94 46
93 14 82 80 91 23 16 55 30 29 72
59 31 76 21 28 71 40 27 64 17 81
12 28 28 21 54 95 89 44 46 28 26
77 46 15 26 48 34 100 17 75 77 26
20 18 64 80 46 37 58 43 32 73 32
28 58 27 77 30 72 56 73 36 83 70
94 25 85 57 66 73 20 95 10 31 89
39 81 55 84 20 53 88 94 39 94 31
82 53 45 33 54 60 85 26 20 20 46
13 13 33 97 32 31 63 58 91 44 87
44 79 29 26 58 89 46 81 29 76 83
53 97 17 93 94 33 18 13 33 46 94
42 97 75 53 17 23 65 82 19 10 95
11 28 97 33 80 48 94 48 75 87 25
52 60 16 74 92 67 64 97 12 74 55
89 65 43 59 25 52 11 21 26 82 62
15 33 89 68 94 78 76 68 39 67 25
33 15 67 92 83 19 75 97 68 33 45
27 87 11 51 91 51 64 82 84 91 45
10 68 52 22 91 51 62 14 79 37 89
40 66 21 17 21 33 43 58 71 10 41
79 38 39 40 53 28 27 48 34 17 74
32 75 42 55 75 37 83 75 64 100 30
0.440802
0.24135
0.383554
0.237643
0.276005
0.357617
0.10222
0.111167
0.339393
0.214424
0.28292
0.187975
0.487995
0.2888
0.106557
0.20875
0.482433
0.185017
0.184791
0.262731
0.432556
0.440431
0.331079
0.498345
0.305191
0.486978
0.343841
0.306094
0.305785
0.149132
0.43096
0.240513
0.434273
0.27172
0.126514
0.233204
0.104982
0.427167
0.478066
0.224921
0.138635
0.250028
0.341756
0.484187
0.266379
0.288275
0.120957
0.160888
0.474901
0.114647
0.453746
0.117287
0.287236
0.452407
0.296174
0.101927
0.473705
0.116634
0.430111
0.238729
116 142
76 110
18 376
173 325
212 362
358 337
112 313
62 301
245 171
322 115
232 18
375 132
183 197
470 494
316 448
288 21
391 388
447 51
186 263
485 282
49 428
275 211
338 267
435 177
490 282
107 224
134 294
452 75
284 116
251 119
38 245
240 181
455 485
213 53
120 329
78 80
332 173
212 137
361 11
188 290
396 55
147 95
8 73
269 383
196 34
216 275
393 243
107 352
330 379
229 196
389 154
394 26
60 375
429 199
314 458
170 401
399 132
224 371
338 310
224 497
16255
1
