60
11
0 0 0 0 0 0 0 0 0 0 0
30 15 44 37 17 19 61 66 100 75 52
25 23 49 73 58 69 26 31 21 18 92
78 89 67 19 77 60 87 93 66 36 63
94 84 71 77 16 22 91 42 49 70 35
53 60 64 75 67 89 14 99 94 83 25
100 88 33 80 31 80 28 16 12 19 63
55 44 19 18 87 78 61 80 44 81 96
75 69 27 39 18 40 24 30 58 21 34
99 13 59 37 55 30 94 80 29 67 83
46 16 65 23 78 79 16 32 90 46 75
17 77 94 70 80 21 21 67 100 48 33
90 97 48 29 53 28 35 79 50 54 47
22 35 54 39 96 34 70 30 45 79 87
40 94 53 40 68 60 19 90 71 27 48
74 77 13 81 82 77 88 89 93 20 50
48 45 93 26 32 11 11 17 16 13 33
16 100 32 41 52 20 93 47 62 98 41
33 79 53 88 40 76 83 93 92 45 96
68 88 92 43 29 72 88 42 96 14 63
14 86 84 60 81 84 13 88 61 65 25
13 95 12 28 94 98 95 61 70 77 89
62 95 65 58 88 80 77 27 59 21 57
92 90 46 14 25 53 58 30 42 93 48
68 32 93 77 32 57 19 54 83 44 93
45 25 14 32 64 61 12 49 55 60 47
26 61 73 76 81 57 76 85 73 17 92
68 54 18 34 55 23 15 19 51 87 61
69 26 87 16 69 68 69 41 37 15 19
82 93 43 12 90 13 70 33 16 69 33
50 59 38 78 31 76 41 60 33 20 88
84 29 86 33 28 99 22 54 79 41 98
76 21 20 31 40 25 88 63 26 83 96
15 46 48 82 46 79 24 15 13 44 24
78 73 76 70 73 46 33 48 51 22 23
50 64 81 50 90 23 64 44 61 58 61
89 92 34 25 97 41 49 68 36 45 82
50 96 78 27 100 89 45 54 47 82 58
41 15 84 90 76 99 18 55 17 97 51
47 74 58 30 24 70 36 83 85 80 30
56 12 73 94 16 67 21 73 50 46 79
10 27 52 94 27 79 14 15 84 41 70
28 58 31 41 38 81 49 22 96 54 21
72 66 27 17 53 93 39 63 91 85 80
46 57 72 96 23 62 10 57 50 97 14
23 52 15 52 71 67 54 45 25 85 30
59 72 30 89 43 48 90 35 91 27 77
88 75 93 77 100 35 58 66 52 85 98
78 78 11 49 23 56 83 18 67 94 86
43 31 42 12 22 38 93 27 97 49 45
63 71 15 80 32 71 31 41 90 82 93
68 74 28 13 14 88 63 97 40 52 87
95 49 75 21 12 45 77 61 56 47 26
27 55 23 55 30 40 47 80 37 49 20
93 74 77 62 18 96 13 82 43 12 69
37 87 23 42 92 48 81 24 37 78 26
76 21 60 80 34 10 77 46 75 24 66
71 41 100 57 31 73 80 68 29 81 55
52 47 31 20 57 98 82 34 57 53 28
46 61 98 16 29 92 27 51 63 30 41
0.846284
0.506588
0.526148
0.377448
1.26943
1.42058
0.467598
0.983395
0.846544
1.34957
0.891067
1.17098
0.352435
0.942732
0.414437
1.40817
0.552492
1.41727
0.472636
0.340994
1.0738
1.12594
0.374797
1.32922
0.512317
0.746014
0.472494
0.385856
0.540015
1.22077
0.929485
0.472278
1.20197
0.826729
0.735136
0.502867
0.386083
0.515041
1.25985
1.32136
0.434724
0.905746
1.45957
1.30561
0.770312
0.964436
0.443116
1.02602
0.614437
1.39319
0.371222
0.325422
0.50349
1.32193
1.39134
1.25091
0.808218
0.319992
1.46039
0.633384
162 93
485 283
98 364
137 204
282 252
125 118
66 453
335 201
381 372
294 437
479 300
465 27
28 466
52 324
462 213
267 472
32 395
73 301
196 64
323 190
102 245
73 80
475 60
370 24
322 393
485 184
211 73
52 137
270 474
186 412
34 215
475 386
461 32
35 265
22 487
282 98
310 260
224 339
174 29
227 129
440 173
148 227
382 267
150 209
8 498
327 48
380 413
105 76
498 455
184 434
429 463
291 479
109 477
431 60
454 145
247 51
260 172
462 30
15 275
236 78
8110
2
