60
9
0 0 0 0 0 0 0 0 0
28 72 81 91 61 85 26 56 72
35 82 33 32 98 86 54 63 79
89 55 72 39 82 96 29 48 63
79 28 59 37 49 86 83 33 48
70 71 48 20 87 58 61 23 15
95 78 90 70 72 81 35 26 40
80 13 47 84 14 82 16 61 54
43 90 91 100 69 17 97 63 51
13 99 96 29 74 78 32 55 88
61 61 38 40 89 57 86 45 59
50 82 50 70 58 93 55 25 91
49 19 35 37 24 92 80 51 98
61 97 65 82 68 68 21 47 12
83 49 29 25 21 19 86 79 76
32 27 73 70 12 43 84 64 87
75 94 16 32 68 55 83 62 86
35 81 34 31 23 27 42 82 21
20 61 72 93 85 94 36 30 79
63 35 31 91 78 38 56 73 42
52 47 58 98 44 87 63 50 98
63 56 88 73 47 69 24 72 33
19 38 87 14 29 75 16 33 85
18 36 93 15 51 63 61 96 29
83 37 65 55 97 77 91 63 84
60 32 99 29 82 100 57 81 94
10 39 44 11 56 96 19 17 24
83 51 86 48 86 83 74 71 94
45 54 51 34 24 10 88 46 78
75 88 100 87 24 82 94 49 72
95 65 31 99 55 55 78 11 100
70 36 13 90 69 18 52 71 40
30 34 84 11 23 69 86 81 35
70 18 27 45 28 65 70 15 59
54 10 67 37 77 38 98 99 79
53 65 34 44 28 84 37 53 15
22 53 57 82 60 60 12 48 60
100 17 35 95 86 99 61 59 99
90 12 22 11 87 37 23 19 45
77 33 12 29 99 67 10 86 61
59 26 38 53 16 12 35 98 83
13 86 68 81 89 51 34 22 38
96 22 84 69 96 94 23 56 95
53 85 89 45 58 83 70 70 36
94 70 64 36 30 97 84 91 10
49 13 13 50 57 58 41 28 22
38 100 68 11 84 29 36 27 19
51 43 53 27 12 61 58 56 84
82 59 11 38 31 20 23 96 46
16 69 90 20 49 41 49 88 28
24 58 14 75 42 44 14 31 58
54 83 64 76 20 35 56 49 79
61 45 17 74 52 37 76 72 47
50 35 51 66 92 59 66 26 98
13 80 84 89 84 27 72 32 11
89 57 44 86 27 90 81 22 34
64 63 50 18 19 40 11 12 56
91 65 51 57 27 24 21 31 33
57 65 77 32 73 95 49 39 72
63 94 76 35 37 17 98 40 49
0.555833
1.25211
1.19203
0.401451
1.34756
1.05326
0.829993
0.60662
0.474003
0.576376
1.19328
0.466478
0.333635
0.910447
1.44524
0.760001
0.943022
1.02076
0.45697
1.0083
0.959374
0.407958
1.12359
1.31083
0.466595
1.28965
0.94504
0.478617
0.702186
1.10226
0.951762
0.941504
0.456881
0.549354
1.01898
0.409157
0.437394
1.19211
1.4641
0.704792
0.657514
0.89865
0.866897
0.380594
0.696545
0.39555
0.46663
0.604806
1.46447
0.88953
0.537088
1.34367
0.796039
0.594058
0.495284
0.388441
1.15965
1.22353
1.48371
0.568188
19 425
366 215
137 191
10 307
300 255
170 410
267 148
129 66
158 335
36 366
176 312
457 478
160 146
223 477
41 469
247 195
392 276
157 317
20 491
68 197
203 461
127 90
208 249
278 2
55 93
196 344
119 30
164 367
262 344
172 48
119 9
382 266
273 57
261 221
358 296
355 451
241 367
449 487
314 46
402 331
459 271
177 395
180 324
246 132
140 76
253 67
154 202
67 458
81 41
265 151
239 332
147 181
258 11
325 191
432 13
306 321
58 307
293 104
41 40
3 48
8222.5
2
