60
3
0 0 0
36 42 83
34 84 27
37 24 41
47 38 58
53 49 13
33 72 86
42 32 65
88 80 32
31 88 67
21 42 20
89 38 71
94 58 26
78 49 67
58 51 62
67 50 18
83 42 85
38 68 78
81 98 12
51 22 24
11 24 49
28 55 84
16 27 48
37 52 62
38 26 57
50 80 55
99 94 75
68 26 23
36 64 69
33 22 65
42 78 36
42 88 53
79 30 83
98 93 24
29 46 14
38 80 62
78 61 28
71 54 69
73 27 21
11 84 89
30 27 33
29 84 44
18 31 29
63 26 35
99 75 66
97 21 65
36 68 88
89 12 17
46 38 19
80 41 45
62 31 85
41 70 96
61 44 83
77 75 94
40 43 88
32 46 70
17 88 25
65 79 84
91 62 82
22 72 83
0.367062
0.137698
0.485405
0.23142
0.23948
0.480598
0.316154
0.33542
0.172843
0.425762
0.492624
0.168657
0.476769
0.42128
0.250331
0.416425
0.182721
0.162693
0.380457
0.155221
0.462819
0.457811
0.164871
0.481839
0.128595
0.324573
0.444213
0.19669
0.154488
0.179785
0.476256
0.119993
0.115884
0.474237
0.282251
0.239652
0.229439
0.309076
0.282784
0.341241
0.298152
0.286419
0.273036
0.213609
0.310084
0.194155
0.237733
0.393295
0.365534
0.374382
0.381905
0.387956
0.128801
0.397953
0.348684
0.131097
0.101843
0.274827
0.151741
0.137892
356 491
342 417
153 33
398 49
366 94
118 137
470 184
48 165
443 70
220 363
154 68
216 423
249 206
302 269
20 48
476 426
240 368
165 160
22 75
8 274
160 126
167 176
106 457
71 82
61 253
213 376
466 359
441 114
465 13
352 231
387 11
323 130
480 124
239 398
99 375
472 236
413 381
341 151
54 296
368 443
179 482
405 442
128 260
282 317
28 169
7 105
452 94
39 236
29 451
426 167
277 417
461 55
177 264
68 220
43 333
143 111
13 152
75 147
331 165
462 231
7945
2
