60
5
0 0 0 0 0
25 61 54 82 73
33 96 52 32 30
59 38 55 20 66
81 84 19 62 95
92 70 94 25 87
24 84 14 100 62
54 32 96 25 10
57 79 23 27 63
68 50 72 59 50
77 49 31 28 40
28 37 18 14 39
37 97 17 67 42
79 95 94 96 84
79 49 21 66 13
40 75 57 71 67
83 20 35 94 37
70 77 99 54 87
20 72 53 42 86
32 97 63 62 29
73 64 92 35 90
26 27 56 55 24
12 78 67 20 85
37 75 21 33 82
94 44 52 87 79
59 12 34 39 88
94 82 28 83 64
30 20 49 32 99
87 51 64 80 34
52 67 86 42 30
66 52 29 63 69
76 64 59 10 91
98 14 38 83 71
22 34 31 49 28
53 92 62 49 72
65 69 50 48 69
22 48 30 53 13
96 64 90 45 95
57 67 18 22 67
94 17 66 67 92
60 45 82 83 38
71 89 88 54 79
80 37 29 22 22
39 31 15 41 47
89 84 77 12 100
60 22 60 12 93
48 87 81 11 94
41 25 98 83 78
73 21 71 90 24
62 32 59 60 85
20 80 11 60 32
19 37 28 17 72
89 19 12 18 75
70 38 91 87 94
40 62 19 83 51
14 10 32 91 14
60 99 78 23 88
32 51 12 63 14
20 10 75 69 69
54 65 30 89 42
1.07979
0.717329
1.073
1.12139
0.857587
0.418766
0.827997
1.15557
1.49151
0.306181
1.28398
0.40824
0.464508
1.03195
1.42697
1.00149
0.750394
0.781126
0.555728
0.730296
0.548895
0.890515
0.610966
1.42876
1.38683
0.705437
0.481766
1.3726
1.2766
1.0772
1.14672
0.79609
0.84547
1.34074
1.08144
1.48338
1.44932
1.16753
0.450825
0.976967
0.987274
0.760438
0.886434
0.590152
0.344124
0.724732
1.25154
0.751638
0.556699
1.28035
1.04753
1.28747
1.28735
1.26206
0.337404
0.701061
1.44538
1.01584
0.872968
0.653362
86 224
228 136
189 13
157 8
405 249
191 358
44 275
390 421
190 125
494 72
32 193
235 38
421 172
135 366
29 431
387 122
326 357
177 398
339 257
227 84
362 408
369 134
14 3
147 313
144 386
10 123
423 392
296 77
301 480
249 166
346 166
409 178
361 419
208 146
64 149
61 177
376 300
98 184
316 220
473 400
319 384
176 238
231 415
12 105
406 481
476 56
478 11
91 351
101 496
262 418
351 259
326 126
472 495
202 233
168 157
167 80
248 125
240 217
452 295
336 142
8137.5
2
