60
7
0 0 0 0 0 0 0
15 89 51 83 78 94 51
20 54 47 84 85 43 96
86 70 75 52 100 22 55
93 74 99 32 57 97 65
93 46 14 39 38 59 50
56 13 27 26 99 42 27
18 92 31 39 40 98 94
97 49 38 34 76 79 27
71 66 64 74 55 26 52
48 16 10 83 83 74 38
27 41 58 23 35 44 73
71 57 75 21 30 99 57
16 79 27 86 45 51 56
56 88 11 83 65 57 91
42 89 10 44 88 93 96
82 91 43 17 92 31 19
86 43 70 28 96 48 80
35 100 42 100 100 74 59
56 86 35 60 47 68 28
87 96 80 94 45 64 12
70 50 47 94 85 95 70
72 92 15 71 21 80 49
68 63 28 71 51 91 30
63 19 48 87 40 56 53
77 39 95 71 97 60 27
40 96 83 87 12 62 15
88 48 95 58 41 30 39
88 42 57 50 24 57 45
100 19 81 36 79 93 20
40 97 46 71 28 69 42
18 84 81 46 58 27 31
83 91 15 54 78 18 80
26 77 34 42 93 11 80
39 63 77 29 99 95 77
85 47 67 36 22 100 97
70 39 70 83 99 76 53
20 55 58 28 21 80 60
53 76 54 27 65 92 67
90 39 24 75 42 61 93
96 98 24 85 58 54 26
86 44 63 24 93 81 72
67 58 63 88 23 16 65
56 56 63 27 14 21 25
64 72 41 78 66 17 47
55 67 87 53 71 85 60
23 32 90 75 75 20 59
53 63 41 96 15 59 36
81 62 10 58 64 67 56
35 85 80 90 53 88 80
38 40 34 35 55 13 51
57 41 34 21 46 81 96
11 32 81 92 28 45 39
69 100 63 87 10 54 50
45 20 76 22 30 62 76
97 71 17 75 73 95 58
100 20 13 56 95 21 73
91 62 38 15 31 99 20
22 66 15 98 63 47 90
32 15 78 100 70 26 44
0.726619
1.35641
0.333279
1.45159
1.12124
0.36216
1.40245
0.906717
0.531457
1.1645
0.331054
0.301444
0.784353
0.822717
0.356876
0.461643
0.468463
0.800156
0.815162
1.21919
0.495119
0.944011
1.34665
1.06134
0.877816
0.319184
0.984779
0.969816
1.06988
0.537084
0.312638
0.568882
0.380403
1.0961
1.38606
1.0105
0.520112
1.29687
0.950614
0.45726
0.374026
0.541605
0.617238
0.967465
1.36515
1.29124
0.777537
0.787981
0.66176
0.494985
0.740366
0.999271
1.34317
1.44056
1.14132
0.646249
1.08541
0.695199
0.741332
0.618123
160 463
118 26
219 308
194 186
477 157
117 419
453 374
375 31
172 55
196 78
297 202
174 227
73 174
262 34
470 284
376 58
205 107
179 208
150 469
174 436
325 218
235 451
128 258
34 329
343 38
490 388
295 151
374 144
353 171
405 231
457 370
295 154
23 423
128 303
69 367
130 382
445 473
468 496
368 267
52 305
51 428
468 213
126 394
399 380
119 144
192 192
383 359
368 82
53 154
29 272
308 170
210 393
190 252
373 125
487 363
354 223
469 459
160 394
436 472
304 120
5683.33
3
