60
11
0 0 0 0 0 0 0 0 0 0 0
15 16 23 37 71 48 100 14 85 60 21
93 18 36 13 10 63 39 45 43 59 27
52 89 43 31 20 90 14 91 48 73 64
97 75 85 38 14 18 76 46 65 74 65
59 40 85 52 34 98 82 25 70 85 53
84 50 38 49 71 22 89 87 25 48 55
78 100 100 58 53 64 31 68 22 50 35
11 81 40 65 54 83 80 35 31 61 84
82 91 58 24 15 28 20 45 96 44 41
83 28 51 36 93 15 85 14 47 30 87
43 95 74 40 90 56 60 16 67 37 12
23 94 15 74 10 55 16 59 77 25 10
58 61 10 42 90 19 84 93 96 57 26
42 42 24 20 53 75 97 74 91 57 19
44 84 75 43 86 10 95 85 69 68 60
68 29 43 25 11 76 30 73 18 10 64
20 99 30 73 48 11 39 84 24 37 16
45 49 100 65 43 73 24 36 49 37 13
62 99 13 19 54 18 81 97 24 40 70
58 43 12 38 55 36 13 93 15 61 47
89 35 97 27 63 40 20 95 21 11 47
94 82 58 95 91 36 78 92 75 66 55
80 65 76 91 67 64 72 16 23 62 58
53 16 61 62 20 75 48 89 87 87 66
20 16 48 31 91 29 73 74 76 21 90
53 18 47 20 86 21 30 37 11 46 30
44 92 17 59 36 21 16 26 60 91 83
18 37 62 63 38 93 69 29 41 13 29
27 28 91 12 32 63 23 50 18 33 91
64 94 36 39 51 13 52 47 59 82 56
67 65 62 99 96 63 25 58 59 68 72
42 97 44 35 27 88 20 47 20 32 21
12 62 95 41 35 65 47 75 65 19 70
76 58 48 63 100 77 33 76 83 86 61
99 54 63 43 94 26 100 14 53 87 78
70 86 92 61 96 52 83 40 72 58 26
62 35 80 36 64 20 58 60 96 81 73
43 30 56 16 69 60 78 75 77 41 34
93 100 53 73 86 24 30 96 66 45 79
98 21 57 79 75 80 54 95 34 79 98
77 56 46 16 91 29 28 41 47 99 67
14 72 13 13 82 97 56 59 96 83 42
70 46 86 77 62 45 95 27 21 39 62
65 59 84 95 62 44 77 18 99 21 45
11 56 10 96 50 60 50 20 49 48 72
11 50 37 62 97 25 81 15 34 31 77
81 84 23 68 30 70 87 26 16 80 52
72 10 93 50 14 68 29 65 41 91 42
18 85 14 65 32 72 77 45 32 80 100
22 68 25 95 62 24 27 94 57 41 55
15 54 87 25 19 34 15 59 70 47 14
93 46 77 30 89 24 92 86 43 54 48
80 24 12 58 80 39 22 65 18 46 29
85 99 57 47 22 95 24 79 20 30 67
75 99 35 61 54 67 75 44 26 62 16
96 53 33 37 70 61 97 91 36 99 33
14 62 48 94 83 61 57 53 55 40 89
88 95 18 90 95 57 54 21 82 79 73
35 76 14 38 56 61 34 63 66 73 97
0.187205
0.196013
0.354154
0.478525
0.213202
0.477062
0.387958
0.107299
0.497058
0.24887
0.13848
0.280152
0.187165
0.212944
0.459041
0.227816
0.406325
0.213454
0.412807
0.209991
0.209676
0.234699
0.475161
0.115615
0.264544
0.383013
0.268387
0.400273
0.147988
0.230081
0.345281
0.237838
0.319687
0.420845
0.499644
0.118205
0.1901
0.15543
0.290092
0.164864
0.210231
0.260106
0.104545
0.329616
0.102731
0.349256
0.186471
0.429403
0.356215
0.438247
0.223877
0.33538
0.191985
0.332713
0.467865
0.246739
0.493373
0.274296
0.190977
0.281867
380 367
101 185
482 386
414 240
388 387
266 163
492 249
378 192
87 286
492 130
210 23
311 345
179 211
285 335
194 24
193 261
397 200
58 438
310 477
52 54
290 354
458 243
425 424
146 231
332 444
119 14
61 52
215 236
218 148
117 72
163 162
410 198
443 341
205 331
433 249
114 65
205 451
357 336
132 437
399 209
271 167
105 52
110 186
452 252
464 90
473 343
12 279
460 479
99 53
285 320
468 12
455 478
136 303
229 215
161 203
39 338
334 331
118 458
23 231
187 33
3222
5
