60
5
0 0 0 0 0
64 83 88 51 13
17 23 73 100 89
45 51 71 19 35
23 44 30 25 27
62 70 12 59 52
29 35 25 83 57
72 78 91 98 51
35 24 69 20 94
29 60 66 68 82
23 41 53 49 81
65 18 73 61 55
77 85 59 63 22
61 30 14 80 99
59 74 95 25 55
31 42 19 62 84
73 46 71 96 41
74 38 33 99 16
33 99 15 91 39
81 15 90 49 80
57 64 85 37 74
72 70 41 10 33
64 21 76 89 35
56 22 50 51 61
90 73 48 95 31
78 11 39 35 15
11 43 58 45 11
100 78 41 86 52
35 73 69 41 25
64 59 32 77 27
92 37 56 88 17
61 78 13 45 22
65 25 41 36 35
80 13 87 31 18
37 19 31 46 47
18 16 54 89 50
40 64 14 40 90
51 52 19 95 67
14 13 53 86 98
87 39 73 26 22
17 22 45 16 93
95 93 48 53 78
24 40 75 87 99
89 79 25 61 71
66 17 37 80 43
20 34 68 17 96
86 36 94 82 97
31 77 99 88 45
84 33 42 64 76
65 72 39 44 79
17 19 48 90 64
41 44 32 86 46
17 36 29 48 11
80 64 20 48 19
16 25 33 38 48
100 62 54 62 68
72 97 70 65 68
74 61 85 85 11
74 37 41 25 18
32 91 87 52 89
0.744424
1.55276
0.911625
1.30368
1.35733
0.425465
0.727392
1.00763
1.39281
0.554627
0.803391
1.01986
1.19408
0.694649
0.667796
1.90881
1.69465
0.758807
1.2734
1.59636
0.67987
0.919247
1.57248
1.76104
1.97457
0.820513
0.991942
1.99528
1.94572
0.988317
0.658592
1.14711
0.405714
1.26095
1.95722
0.568222
1.94023
1.99
1.93137
1.534
1.22685
0.466692
0.914157
1.0549
1.97486
0.906849
0.462024
1.50229
1.86076
1.20756
1.32822
1.63385
0.972198
0.916211
0.777215
1.1524
1.74387
1.80765
1.77948
0.727039
144 364
386 352
374 183
452 245
30 422
490 347
160 220
65 151
169 409
382 269
178 214
149 483
186 414
459 363
147 483
450 233
59 42
90 470
11 464
71 27
409 266
157 191
411 1
174 374
116 33
316 285
269 9
94 365
173 234
298 463
226 76
249 337
268 312
460 99
156 473
446 361
465 95
426 34
348 385
221 116
446 246
409 111
243 45
222 357
368 12
13 231
427 372
56 78
225 324
499 225
189 399
292 314
426 71
339 39
334 423
26 289
12 118
407 227
230 468
219 32
15845
1
