60
7
0 0 0 0 0 0 0
32 62 37 22 38 25 43
45 10 75 16 62 100 40
59 18 88 26 24 30 24
43 85 83 47 63 27 33
94 12 39 82 60 92 28
25 52 89 30 90 26 74
100 74 60 20 95 56 81
38 22 35 63 42 19 64
44 72 40 66 67 49 84
30 14 68 47 55 14 16
80 90 42 51 62 97 73
84 24 14 87 74 67 88
67 43 45 98 17 94 29
61 76 46 56 86 65 80
74 93 47 53 94 46 35
58 21 41 59 16 36 37
84 16 61 78 21 15 70
40 31 15 63 59 98 13
72 35 63 28 64 45 63
35 64 87 64 38 100 77
73 23 55 11 12 52 98
71 27 24 68 93 98 83
12 75 96 53 100 54 98
78 55 49 77 27 32 33
47 28 21 68 97 63 36
83 60 90 90 74 13 19
67 49 99 14 21 67 50
84 100 93 62 11 15 94
49 54 52 28 31 30 33
23 19 43 23 30 92 73
60 29 24 17 69 15 20
73 20 13 61 48 23 44
56 80 34 44 43 29 31
49 98 60 21 90 29 70
40 32 35 84 40 86 30
82 76 86 98 49 43 23
22 31 37 30 44 97 38
18 54 75 20 94 89 72
23 81 72 79 64 56 53
11 78 63 53 73 82 99
30 58 38 81 13 22 45
10 25 16 16 85 82 16
99 89 99 22 40 82 74
27 57 88 63 47 48 61
84 20 56 39 26 78 98
71 37 58 93 80 46 93
38 54 77 81 78 90 77
12 61 31 69 26 15 29
25 87 96 47 37 53 84
25 76 78 78 16 78 65
25 12 20 38 13 58 59
94 98 65 45 65 13 23
78 63 82 36 94 67 47
32 27 87 73 77 96 44
15 69 72 16 34 52 66
78 26 33 27 59 48 10
80 89 68 90 15 43 45
77 59 68 29 18 83 58
48 56 60 40 88 79 37
1.36784
0.542209
1.29935
0.526059
1.39383
1.45176
0.519116
0.787772
0.836017
0.608155
1.45849
0.467268
0.748487
1.2484
0.470835
1.07386
0.352791
0.440971
1.05261
0.700498
1.21302
0.587698
1.24849
0.546449
0.484637
0.431243
0.949669
1.18593
1.31784
0.705206
1.02323
1.34146
1.2007
0.708262
0.827784
1.3275
1.20034
1.29184
1.17859
0.896608
0.500798
0.308015
0.785122
0.921548
0.913344
0.518633
0.39797
0.688729
1.49083
0.323139
0.567909
0.808876
1.02702
1.32412
1.21084
0.992731
0.976217
0.929132
0.41903
1.0803
76 417
19 271
146 296
275 269
477 427
26 485
182 8
57 274
359 266
278 249
410 5
59 72
261 296
121 414
436 130
89 233
206 479
57 488
337 191
209 500
480 117
99 455
202 452
123 85
151 204
290 280
51 396
351 318
456 59
2 386
147 262
165 201
440 35
82 408
264 393
498 400
35 82
11 269
277 231
73 253
483 477
195 182
98 74
45 305
28 43
367 461
134 236
48 425
325 126
213 113
71 302
281 273
280 12
234 466
34 19
222 244
349 194
391 147
285 360
186 359
3970
4
