60
7
0 0 0 0 0 0 0
57 33 64 60 70 35 56
97 33 10 50 94 91 11
76 10 24 45 51 19 26
16 46 93 34 72 41 11
56 87 33 79 31 46 85
69 85 86 38 55 51 49
17 91 56 89 15 11 17
72 20 84 61 44 16 71
99 74 53 64 73 48 66
48 77 45 72 17 40 70
66 63 90 68 72 92 65
30 31 21 81 90 18 75
80 36 13 21 36 24 35
57 38 70 23 96 75 39
65 74 31 98 13 68 20
27 78 52 52 82 42 55
37 57 63 98 32 89 64
20 59 75 50 35 27 35
27 45 27 22 69 19 18
85 42 16 19 96 54 16
57 51 38 89 96 11 15
14 96 12 48 42 84 16
98 79 31 55 86 86 80
82 65 58 49 55 21 72
38 96 29 50 12 30 85
64 99 71 15 76 27 40
48 45 68 56 84 57 14
77 49 46 61 74 92 44
88 86 19 83 54 79 57
20 68 59 18 50 18 68
81 47 10 72 99 27 58
37 95 59 12 82 58 30
42 75 68 46 35 95 51
88 63 39 58 42 28 35
86 86 14 53 74 81 10
57 44 15 21 50 56 94
45 12 86 99 84 62 43
89 74 100 96 86 35 52
22 18 55 92 87 21 71
54 81 45 27 20 92 77
30 10 83 75 84 45 100
23 43 93 41 84 85 34
21 25 28 78 10 77 30
73 87 62 13 80 40 56
100 53 52 21 79 54 48
89 92 76 19 30 72 73
53 44 51 58 58 12 62
90 62 22 92 87 63 75
81 15 30 22 30 91 66
23 60 50 85 53 75 17
99 80 68 90 35 70 61
85 93 21 17 77 29 39
50 48 25 35 15 75 45
68 33 14 59 37 26 75
77 32 48 76 87 81 55
100 54 69 15 71 51 90
93 71 22 72 38 82 33
91 62 64 56 55 32 95
85 38 48 87 95 61 31
0.426265
0.707258
0.492793
0.533711
0.200371
0.243033
0.762715
0.323594
0.700942
0.391172
0.932158
0.984218
0.535777
0.416106
0.280365
0.348823
0.731957
0.84377
0.334815
0.652283
0.207925
0.858903
0.417403
0.255296
0.599416
0.640992
0.297856
0.800697
0.476601
0.309794
0.7432
0.704285
0.382766
0.690126
0.355037
0.976041
0.815959
0.751636
0.390691
0.686395
0.723822
0.281578
0.819896
0.714818
0.609614
0.691111
0.463652
0.369408
0.233032
0.863076
0.895355
0.881944
0.5296
0.622645
0.88961
0.254617
0.887748
0.698232
0.694232
0.675425
416 229
37 2
360 464
445 262
158 498
418 134
134 489
56 477
334 454
360 125
43 151
166 460
174 8
250 321
67 312
491 457
384 407
129 40
387 329
191 112
207 170
306 435
63 244
302 77
474 194
487 194
11 144
69 79
338 131
354 46
283 236
279 113
312 51
411 82
82 305
155 255
283 198
259 70
149 299
412 236
355 201
64 415
449 126
422 126
17 58
272 46
194 458
188 97
139 129
390 494
71 366
382 306
33 131
39 197
464 199
145 378
317 157
458 70
447 189
205 416
3246
5
