60
11
0 0 0 0 0 0 0 0 0 0 0
37 47 47 85 17 75 96 25 99 32 91
29 36 97 67 52 95 65 38 90 63 21
38 76 85 53 40 54 51 87 84 36 64
72 26 83 67 34 98 73 19 91 33 42
15 62 70 67 27 91 79 44 88 65 81
73 94 21 64 56 84 22 19 77 32 25
36 36 97 85 96 74 59 10 97 72 47
19 83 52 32 43 32 97 83 71 66 28
52 63 84 52 11 29 92 64 45 38 10
40 37 32 82 15 82 82 27 58 28 21
88 82 35 28 82 16 96 96 11 78 10
46 80 89 39 88 15 76 17 84 15 29
87 89 81 78 20 31 43 53 41 53 29
70 26 58 73 44 72 97 20 20 67 10
95 60 19 24 62 61 24 19 41 66 84
11 40 18 22 40 42 16 63 36 13 62
36 90 78 55 42 99 67 24 82 21 83
46 98 100 11 53 99 22 50 63 35 33
84 25 38 49 49 29 94 47 31 50 99
82 65 83 22 90 13 17 92 32 33 29
24 13 64 62 13 75 39 15 17 23 69
61 26 57 45 71 44 81 50 55 70 68
26 78 79 72 97 15 24 37 37 92 10
28 49 61 14 89 14 71 20 99 36 81
45 87 60 89 69 39 72 45 63 56 89
57 54 37 60 92 91 17 61 29 93 88
56 33 69 32 81 100 42 41 47 60 24
87 57 19 81 35 36 12 94 95 91 91
16 73 24 73 21 35 76 72 37 78 18
51 61 13 22 41 71 93 72 67 95 61
79 76 88 65 37 15 92 12 76 92 16
40 81 70 28 71 37 72 48 38 68 97
47 85 15 50 47 23 40 73 76 17 47
49 37 55 18 49 38 25 13 34 71 73
51 21 19 69 51 30 67 74 14 62 23
27 52 88 89 43 73 24 44 36 93 70
89 72 55 73 16 41 65 53 39 48 53
85 87 39 82 69 33 47 54 73 15 100
30 64 58 17 98 51 91 56 77 73 56
68 94 17 82 27 51 35 77 40 91 35
51 94 14 26 13 29 74 41 18 64 39
53 17 80 95 17 17 18 53 32 78 99
17 23 99 37 15 22 24 22 78 55 54
25 65 27 85 85 36 66 28 35 32 85
94 95 81 55 92 35 19 48 96 81 65
56 46 59 83 15 64 90 93 89 68 51
65 13 100 29 48 37 99 34 25 82 66
34 55 24 80 89 92 30 75 46 16 51
23 70 72 58 17 37 12 31 53 33 79
34 72 48 58 14 25 64 97 16 13 31
30 19 12 49 23 87 15 46 39 10 64
98 97 50 35 13 33 66 16 36 72 93
57 38 21 48 67 68 19 54 28 48 25
40 22 54 96 53 26 32 21 89 57 20
74 53 49 12 16 34 39 84 22 66 42
29 48 90 67 39 46 92 60 59 50 73
42 13 32 92 55 74 67 31 38 100 59
84 17 96 93 18 23 88 57 11 40 88
18 32 37 93 93 15 88 74 22 69 87
0.140568
0.271989
0.256216
0.214298
0.154443
0.354079
0.331232
0.400322
0.267245
0.272354
0.176844
0.295131
0.449117
0.179462
0.194342
0.10603
0.15066
0.116796
0.113037
0.376006
0.322055
0.410189
0.108253
0.244282
0.181039
0.222224
0.280916
0.363807
0.317876
0.141188
0.259106
0.160436
0.445851
0.192719
0.18216
0.21033
0.495496
0.383521
0.499451
0.430883
0.383304
0.111426
0.402568
0.179733
0.34134
0.132942
0.221448
0.372449
0.333713
0.167643
0.314045
0.297634
0.176794
0.112714
0.362472
0.444663
0.382177
0.343455
0.404978
0.407843
13 173
416 276
123 460
453 255
382 475
134 481
218 237
18 311
268 1
117 43
358 334
488 448
57 207
91 129
28 110
444 129
416 246
456 147
342 302
154 304
464 153
267 286
453 68
444 94
361 130
249 161
177 79
410 286
91 372
25 149
163 439
168 288
4 64
335 204
498 330
267 139
174 262
159 478
228 272
500 398
130 134
336 400
205 193
407 444
67 84
400 331
132 167
157 194
369 203
129 160
58 262
109 281
162 23
10 88
268 430
133 71
280 190
408 158
341 448
136 211
3143
5
