60
9
0 0 0 0 0 0 0 0 0
78 33 48 92 92 18 83 91 98
61 41 12 52 38 66 28 35 13
26 22 89 64 45 33 97 23 69
63 11 37 51 73 81 82 61 99
100 39 26 50 92 16 84 23 60
88 34 95 82 19 71 12 65 71
82 27 32 10 63 52 89 64 10
75 58 95 16 17 41 82 68 11
42 71 44 10 94 39 64 95 79
71 50 66 78 45 77 49 47 33
12 70 17 56 42 84 36 82 100
69 89 100 10 96 13 46 16 71
40 22 45 72 44 70 32 82 79
27 57 49 43 18 11 39 12 37
58 38 46 29 46 26 81 31 90
22 24 74 44 20 63 28 83 21
25 57 59 65 25 12 82 27 45
29 88 97 95 13 74 50 29 96
97 86 92 45 27 45 30 42 57
50 93 30 20 94 44 88 39 47
88 12 73 79 70 16 24 86 62
26 62 95 62 95 80 23 23 75
23 55 99 58 70 23 28 72 76
97 45 83 62 25 10 13 46 11
46 19 90 29 98 77 28 94 40
59 75 23 43 23 10 42 99 22
37 84 66 24 57 86 18 16 38
39 27 37 84 30 91 66 10 100
52 47 16 97 79 97 54 15 81
26 48 69 39 65 81 21 17 29
95 32 66 59 63 44 70 61 87
65 52 38 19 52 17 15 42 82
28 96 35 74 43 27 38 99 11
43 81 57 96 22 88 70 15 87
47 22 94 10 72 28 74 35 27
63 55 64 78 33 40 18 73 44
40 53 99 51 26 67 26 11 81
14 51 47 79 97 37 32 31 54
64 13 87 61 31 99 76 68 46
64 57 48 76 54 64 44 12 45
82 19 95 20 38 13 48 66 32
32 22 41 89 86 48 42 63 96
41 29 76 82 56 85 44 27 34
17 98 70 70 93 25 74 41 33
15 56 86 81 42 69 63 86 27
100 31 86 79 20 53 34 42 60
44 97 23 21 100 28 54 83 45
37 11 33 71 97 94 50 100 76
72 98 100 55 22 26 73 24 26
74 68 99 36 22 76 83 99 62
85 25 21 27 56 94 41 23 19
28 45 54 87 46 93 81 62 87
45 24 49 27 84 98 87 34 67
69 65 94 46 88 32 90 85 17
99 72 80 89 11 90 84 45 75
59 39 59 92 38 46 15 16 76
95 47 80 69 48 42 81 38 99
52 70 100 28 54 28 47 68 34
91 76 53 60 41 84 86 75 85
0.312965
1.21478
1.40795
1.2779
0.619842
1.40437
1.14037
1.20342
0.671163
0.636986
0.324023
0.504902
0.858826
1.46898
0.834489
0.720355
0.759509
1.2512
1.02585
1.03502
1.0944
1.08925
1.38717
0.702178
1.15236
0.813086
0.810772
1.25517
1.18245
0.460604
0.356827
0.375408
0.958847
1.17161
0.777275
0.351089
1.33652
0.653881
0.996395
1.04021
1.22033
0.992633
1.06953
1.01824
0.97265
0.447153
0.314941
0.825622
0.734416
1.23096
1.26027
1.20711
1.44355
1.27598
0.915086
0.97758
1.36019
1.00556
0.699993
0.523095
363 80
425 189
86 354
236 369
388 236
34 272
398 429
222 238
71 478
122 478
167 253
492 158
439 270
49 84
56 495
119 193
256 297
119 9
484 300
129 189
424 471
363 258
279 330
191 168
214 242
112 59
467 293
325 43
74 164
189 400
125 353
9 25
115 469
455 78
1 42
62 230
52 456
380 406
52 111
279 264
123 407
474 266
134 148
225 315
332 274
333 485
104 80
252 156
500 38
243 91
376 107
127 39
64 300
169 466
314 50
13 126
481 135
397 210
494 101
42 241
8072.5
2
