60
9
0 0 0 0 0 0 0 0 0
18 78 24 89 79 14 12 29 11
37 56 100 56 56 22 53 70 25
74 75 26 74 73 22 10 47 99
24 99 66 16 89 83 20 35 100
60 48 52 84 75 90 20 95 57
55 49 84 25 15 17 69 83 77
49 66 91 71 37 19 66 10 44
92 52 16 88 53 38 95 11 70
35 65 53 94 27 66 58 16 95
80 83 39 29 41 78 59 35 58
87 19 33 67 93 22 21 24 33
23 16 13 81 11 94 74 22 36
49 45 37 99 14 64 35 60 98
84 75 22 20 88 59 53 68 29
57 76 89 23 44 28 39 83 10
12 64 63 10 29 48 20 91 63
17 48 98 11 21 32 58 28 81
83 14 76 55 21 47 49 83 89
82 45 28 47 67 53 46 89 74
85 48 87 61 38 95 98 20 56
88 93 81 100 29 58 28 91 78
91 91 70 35 53 91 50 18 78
15 91 46 72 62 77 27 82 24
13 74 19 93 83 45 71 33 99
95 64 65 47 84 98 53 27 81
52 40 53 13 73 77 19 54 51
28 10 58 20 50 95 95 22 20
72 13 15 36 88 59 10 87 44
58 56 84 58 29 55 60 35 61
14 54 23 26 36 17 59 63 50
58 93 99 77 47 35 65 52 90
57 42 43 15 100 71 73 67 11
10 97 35 80 80 70 79 33 69
92 77 46 32 18 23 74 42 71
90 21 30 76 66 82 28 73 84
57 27 50 23 85 18 74 93 68
38 74 72 91 47 37 34 55 59
49 77 58 49 35 98 27 59 30
100 11 35 10 80 85 40 70 18
68 58 23 92 36 95 66 96 36
60 78 40 49 13 11 99 95 18
59 43 46 43 26 26 16 33 90
51 53 20 89 79 49 52 72 31
29 70 46 91 58 49 90 25 97
44 94 55 80 13 22 90 70 26
53 26 37 35 99 26 16 33 36
77 24 68 75 65 85 56 98 39
37 98 45 94 12 45 18 42 83
40 42 46 68 54 19 47 44 74
61 31 31 57 97 45 75 95 91
35 93 56 40 95 25 13 49 54
58 49 42 19 68 38 30 19 58
68 75 52 31 39 18 21 83 69
83 12 92 94 86 76 32 64 45
81 17 57 67 73 30 19 17 42
85 60 84 84 98 77 33 75 36
21 52 54 76 92 92 54 30 89
89 37 27 61 15 96 71 54 59
60 92 57 44 22 87 27 33 40
0.967014
0.736544
0.66148
0.777044
0.794659
0.756948
0.373949
0.65583
0.870619
0.29058
0.76973
0.809342
0.809598
0.926237
0.531073
0.958201
0.578646
0.852973
0.955159
0.204746
0.716846
0.488648
0.372475
0.872864
0.450062
0.58069
0.721332
0.35532
0.427252
0.390302
0.335692
0.527121
0.772832
0.675062
0.869137
0.470918
0.393024
0.915211
0.944691
0.320131
0.71591
0.264937
0.911649
0.327065
0.894876
0.78306
0.314512
0.426491
0.921008
0.473332
0.694912
0.972127
0.575118
0.741286
0.744309
0.496651
0.736683
0.406587
0.763943
0.593681
391 332
127 475
265 404
2 171
280 31
57 313
479 403
124 480
146 160
176 235
124 175
126 52
401 287
335 217
225 437
492 132
386 233
366 12
303 224
114 132
412 274
292 251
213 99
476 6
440 260
464 345
454 472
116 405
389 339
88 296
369 357
335 293
232 449
100 499
59 463
325 47
378 112
221 212
243 40
105 451
85 125
399 68
286 1
372 315
167 56
45 266
22 438
18 482
187 212
356 175
452 122
62 3
359 468
200 366
309 426
281 344
374 488
1 74
284 102
321 11
5360
3
