60
5
0 0 0 0 0
73 46 39 56 96
96 42 50 63 98
66 75 92 92 46
24 46 40 84 16
21 42 83 18 70
100 55 50 12 36
10 97 11 95 65
12 48 18 80 83
98 52 80 36 88
48 90 43 15 51
32 31 66 85 31
93 49 31 87 32
77 39 34 28 100
10 23 58 34 20
30 49 73 74 86
67 97 90 30 22
64 67 88 29 71
65 72 66 74 37
81 100 96 40 55
69 56 30 96 92
48 52 59 71 54
22 46 26 61 74
18 79 32 38 23
42 85 22 14 15
91 38 88 45 52
39 60 70 15 22
77 67 74 66 37
79 90 34 10 33
41 84 68 74 35
99 28 56 51 67
44 24 44 25 19
45 90 30 57 91
63 25 61 72 82
15 92 42 33 62
97 28 37 69 90
94 69 73 68 35
89 61 77 52 89
64 80 99 61 76
97 48 37 14 15
87 100 99 32 57
42 29 85 47 45
41 70 76 18 56
85 39 34 64 65
57 24 55 90 66
30 15 14 49 77
28 52 46 25 70
19 54 74 40 76
78 89 79 39 22
87 94 84 26 93
94 69 94 91 24
86 29 84 57 31
20 92 43 19 90
26 34 57 78 17
10 42 74 93 89
37 37 100 75 25
84 78 29 19 52
45 43 39 20 95
38 13 95 75 49
30 98 22 97 43
0.671474
0.82105
0.586913
1.22139
0.938392
0.594094
0.823181
0.961844
1.29482
0.799678
1.34815
0.345879
0.380772
0.584145
1.09905
1.19565
0.653394
1.30129
0.661294
1.42161
0.850464
0.876236
0.358335
1.09042
1.17822
0.923312
1.2364
1.34566
0.407202
0.301379
0.913908
1.27712
0.458862
0.49866
0.329198
0.797185
1.22235
0.907137
0.697802
1.27177
0.531256
0.639039
1.37197
0.37831
1.17322
1.03556
0.965188
1.15585
0.595885
1.26128
1.33316
0.635279
1.01928
1.45369
0.984897
0.882809
0.44485
0.815166
1.11198
1.19106
294 227
264 397
141 283
259 476
84 199
432 265
257 439
490 286
343 279
413 310
123 5
0 297
216 365
413 388
47 387
160 6
50 453
70 415
80 81
348 348
472 317
224 257
143 445
51 436
104 116
58 42
457 392
367 341
377 326
290 184
184 249
45 172
438 127
394 429
5 317
191 405
56 135
277 441
63 200
411 327
328 275
393 47
236 427
216 49
155 36
351 130
494 259
349 30
456 346
343 269
313 459
72 283
479 91
336 300
185 392
457 213
396 204
153 304
321 152
22 486
4145
4
