60
9
0 0 0 0 0 0 0 0 0
57 13 82 100 29 89 15 62 81
71 35 81 49 43 73 86 88 89
24 12 58 69 55 94 46 65 65
97 61 37 62 35 100 28 58 68
30 34 79 43 97 13 26 48 92
26 19 21 74 21 91 17 37 32
78 26 45 77 42 35 51 52 78
84 54 82 84 45 42 63 46 15
41 27 28 11 70 11 50 87 36
36 64 62 26 90 88 85 99 18
10 20 50 67 95 98 23 66 27
80 82 36 56 70 13 33 27 97
62 99 81 83 84 80 70 10 76
98 52 70 41 88 45 89 87 73
58 99 85 22 47 75 58 37 89
18 90 88 31 18 27 76 70 57
49 85 32 62 48 76 25 78 49
64 99 58 21 14 52 76 97 59
23 74 60 63 12 62 60 56 29
96 48 48 49 60 15 19 52 26
93 38 26 43 27 83 56 65 16
60 15 93 82 36 84 24 76 20
52 17 20 40 72 63 57 11 57
93 99 28 58 92 50 76 31 16
94 91 44 76 19 41 96 100 61
59 73 91 33 31 77 50 37 24
82 36 76 85 83 50 44 96 24
44 31 34 20 91 79 46 80 84
30 67 29 37 96 84 35 94 84
54 72 19 84 94 99 16 98 45
100 53 31 12 43 45 71 99 85
73 91 18 24 58 41 58 49 16
27 82 24 19 63 55 62 26 96
63 22 81 97 27 65 21 52 19
75 98 36 78 80 58 32 65 38
55 65 13 71 50 18 28 64 88
69 62 82 79 10 68 33 71 28
63 31 81 10 44 99 24 22 10
100 27 81 89 56 15 71 71 78
67 93 27 11 49 18 45 71 34
99 17 47 11 96 51 40 58 40
58 59 60 88 20 54 47 13 21
61 54 96 23 48 44 20 100 19
50 31 83 11 67 77 95 32 53
25 11 11 95 29 94 65 63 74
67 85 31 84 84 100 20 84 30
22 15 54 66 13 95 37 29 54
28 20 42 64 10 48 55 27 41
42 13 18 85 75 15 87 63 19
92 84 90 95 79 50 100 44 77
45 90 92 29 59 38 26 24 55
100 39 91 95 51 59 48 15 44
41 80 60 26 29 12 70 27 43
37 14 66 23 50 16 15 68 65
75 56 87 75 87 54 85 49 99
36 12 82 85 57 79 66 75 56
50 73 39 38 18 77 23 48 43
74 29 79 96 44 32 20 20 39
14 48 96 67 64 61 16 73 30
1.33094
2.43349
1.66476
2.02694
1.08862
1.40683
1.12177
2.14561
1.59743
0.867103
0.535832
1.84463
1.40628
2.35969
2.23242
1.35578
1.16005
1.0533
1.95177
1.21886
1.84498
1.1148
0.824514
1.40222
0.562691
1.52385
1.78796
2.49865
1.21848
0.74815
1.13454
2.31691
1.56789
2.36793
0.807802
0.677049
0.517381
1.41466
1.54478
0.900158
0.97346
1.51547
1.02292
1.85135
1.32108
1.07494
1.84527
1.53255
0.545449
1.71151
2.43741
1.66287
1.74973
1.19816
1.66698
1.71248
0.661798
0.529268
1.34244
2.13551
433 398
114 188
468 323
156 4
474 63
190 125
481 326
2 233
14 164
246 459
289 251
391 104
64 86
307 200
465 457
465 378
222 280
410 252
199 46
133 319
274 75
320 249
154 285
150 365
244 81
346 151
134 18
58 398
347 447
441 351
284 167
150 258
36 384
128 17
188 318
232 424
150 58
470 313
321 16
492 221
300 148
484 105
208 245
19 59
158 124
187 34
479 290
94 390
320 330
386 352
436 129
214 439
334 353
1 72
171 201
71 181
291 358
396 223
227 345
29 271
16140
1
