60
9
0 0 0 0 0 0 0 0 0
78 77 54 33 52 91 45 62 17
79 17 37 64 15 79 29 42 56
28 13 74 63 98 16 89 37 41
60 78 30 58 76 58 44 72 33
26 92 11 48 29 86 95 90 28
46 46 24 28 16 46 90 60 30
19 83 90 88 100 95 77 68 44
72 77 20 38 61 46 50 74 61
80 18 24 68 82 71 56 55 30
76 34 68 75 57 74 27 49 20
64 98 42 49 35 71 72 17 63
47 32 36 64 68 21 16 62 77
97 10 64 12 30 54 89 21 94
17 23 42 93 30 47 83 14 33
79 22 55 60 86 38 10 38 27
58 12 100 25 92 88 34 10 34
24 47 54 34 68 47 29 46 47
89 19 51 25 80 100 44 35 22
34 28 96 65 75 33 29 99 79
61 54 92 37 10 57 54 62 91
42 62 44 25 67 52 55 59 74
53 87 19 11 54 64 95 61 23
33 90 19 40 40 27 87 71 77
21 27 55 36 56 27 47 61 91
77 28 76 76 57 73 76 64 35
70 92 19 73 98 79 27 64 57
51 25 31 99 89 89 50 55 62
64 45 15 33 86 39 41 66 14
64 70 75 100 98 47 68 93 27
25 38 34 23 75 17 33 90 25
50 52 82 69 72 17 31 36 59
33 18 22 63 37 57 61 80 81
27 50 75 61 37 14 16 78 31
80 43 71 14 40 83 38 56 49
76 88 68 94 57 96 18 56 46
53 57 61 46 78 84 86 79 36
38 10 37 71 40 37 59 60 24
14 20 71 74 89 57 66 37 37
23 16 98 32 11 91 55 67 63
16 23 23 14 81 36 55 72 34
31 38 75 84 21 85 70 32 32
83 85 92 13 99 22 95 78 61
12 72 73 99 87 97 26 82 73
63 100 50 63 51 32 50 46 25
33 15 90 49 26 68 80 87 73
35 100 38 77 65 23 62 28 69
41 98 94 75 45 34 41 21 95
83 63 36 58 77 57 89 20 10
44 92 26 12 61 95 27 51 20
99 16 74 43 15 38 69 91 79
50 83 60 94 26 84 39 81 26
11 39 34 27 10 51 83 98 11
28 28 52 27 74 16 49 17 21
98 50 40 66 18 70 18 56 50
84 80 68 77 71 15 75 63 18
20 38 91 72 81 97 95 90 87
55 78 47 37 11 33 17 98 34
23 90 56 31 47 83 53 44 26
23 66 94 94 41 55 80 79 13
1.12566
1.3786
1.85206
1.3274
1.8978
0.571032
0.688359
0.682283
1.67824
0.526246
2.27751
1.34522
1.154
1.37962
0.52233
1.31768
2.2485
2.04097
2.27753
0.762617
1.52523
1.01083
0.877015
1.16583
0.977732
1.18419
1.03401
0.919272
0.592568
1.75953
1.83826
1.31653
2.32669
1.75204
1.53677
2.15957
0.814743
1.96381
2.42121
1.8733
1.04875
1.40543
1.28519
1.17583
1.3667
0.791644
1.32439
1.24166
0.953626
2.36809
1.44138
2.49603
1.9452
1.29285
1.26784
0.629519
0.73101
2.0854
1.18526
1.97825
40 150
354 168
72 84
342 58
35 453
161 369
471 176
457 53
139 397
495 155
233 194
3 111
418 174
47 376
230 267
281 289
361 70
354 398
218 482
278 309
323 373
306 217
310 265
319 396
296 32
340 65
263 135
149 292
405 259
204 371
489 446
42 185
325 91
409 57
444 280
391 454
296 90
98 309
457 224
422 352
375 197
396 53
80 476
292 249
2 460
252 436
180 190
22 95
313 36
119 450
466 67
271 443
23 378
365 319
450 196
434 97
96 87
244 259
250 359
321 113
15870
1
