60
3
0 0 0
18 23 19
24 80 100
84 37 99
42 71 21
96 31 91
15 86 15
93 96 33
100 27 56
87 100 63
31 90 37
89 58 21
28 53 79
43 75 79
94 42 76
30 95 15
86 17 89
98 46 15
37 89 71
39 75 39
99 26 16
74 62 73
84 77 13
34 56 89
31 71 66
18 61 12
24 13 12
12 58 44
74 68 75
85 18 66
18 34 58
38 59 10
12 96 38
23 12 84
97 96 90
30 88 21
49 85 66
70 80 24
46 49 47
49 24 67
42 95 35
85 57 14
95 63 61
94 38 65
39 17 98
15 29 46
86 10 12
44 55 79
40 31 74
21 76 66
50 38 61
81 99 28
10 20 88
89 100 77
31 57 37
72 89 70
18 11 67
24 70 83
62 48 85
82 27 63
1.81702
0.916725
0.525045
2.06485
1.78718
0.673997
1.16181
2.43091
0.739066
2.24591
2.20651
0.662073
1.58194
1.75469
1.53571
2.45128
1.59711
0.877194
2.24388
0.784284
1.96177
1.37673
2.05779
0.904887
1.91738
0.730155
1.79083
2.14762
0.815566
0.508302
2.03359
0.725677
1.9265
1.78755
1.96899
2.3742
1.77964
2.09935
1.56991
2.43624
1.50108
2.23439
2.28049
1.76803
0.689468
2.38445
1.35112
0.625822
2.44029
1.83625
1.98
1.08511
1.81638
1.91122
1.40686
0.689041
2.43048
1.00805
0.932064
1.8398
463 408
360 83
193 28
402 157
142 459
484 474
71 332
417 287
195 360
335 348
338 187
267 140
422 254
433 262
283 27
307 153
331 405
419 269
177 363
480 129
439 237
334 398
496 140
464 295
43 316
197 263
182 363
355 393
130 62
396 301
334 278
362 293
481 485
476 49
65 477
283 37
184 61
362 94
248 379
183 202
256 229
169 44
59 58
245 146
352 103
106 228
312 257
336 211
117 156
184 356
445 350
472 261
177 208
425 169
494 335
420 492
271 312
176 266
360 460
40 170
16220
1
