60
5
0 0 0 0 0
90 88 32 59 16
64 65 74 48 47
50 63 77 87 69
45 95 77 18 85
44 55 84 13 57
79 83 77 87 86
13 65 78 33 57
90 60 22 49 30
78 82 54 93 80
21 38 78 33 44
56 81 35 92 74
33 73 61 83 42
22 23 32 39 86
36 11 10 46 15
96 69 50 46 93
73 87 50 84 89
82 81 27 73 66
80 25 67 92 41
10 45 77 50 58
25 32 25 41 40
12 71 51 36 76
72 14 50 41 83
93 12 61 95 78
12 68 82 61 10
52 68 69 52 42
14 48 28 85 20
93 16 27 82 84
31 87 64 33 87
64 13 17 81 92
40 23 78 11 44
10 25 57 37 92
40 35 98 48 22
81 77 69 41 95
60 17 35 14 75
41 90 34 50 25
20 73 51 72 62
71 41 29 91 67
13 84 90 55 35
85 88 83 72 18
93 55 85 60 23
53 90 50 50 16
100 21 71 90 56
89 66 66 24 49
18 14 91 90 70
40 17 35 42 56
13 37 19 23 70
72 11 82 71 75
83 77 60 55 63
96 98 81 19 45
81 38 58 44 23
36 83 27 44 35
94 16 22 80 85
41 22 60 18 83
56 15 90 24 45
86 24 59 62 23
99 10 71 76 96
96 98 71 99 87
34 46 23 87 60
65 36 78 44 16
0.695656
2.15107
2.48376
0.857891
2.21676
1.81155
1.38907
0.784224
1.04059
0.818004
1.74584
2.28305
0.876796
1.4774
1.47421
2.45665
2.14686
1.16203
1.36691
1.26965
2.1555
0.604149
1.31461
1.69558
0.750792
1.25449
1.95299
1.22103
2.47436
0.961102
0.987065
1.70928
1.62628
2.13763
2.46783
1.33524
0.577593
1.54852
2.01678
0.774079
0.977727
0.924478
1.09694
1.00458
1.24456
0.794076
1.82559
1.54946
1.95741
2.24844
2.46265
1.42677
0.79551
2.30411
1.06502
1.25062
1.76542
0.557656
1.91528
1.93262
456 462
458 467
383 335
85 188
488 271
46 49
112 376
123 270
247 201
280 452
467 433
277 137
326 116
199 58
449 481
174 222
234 458
464 35
48 240
303 489
264 164
337 298
155 143
72 330
308 465
406 215
151 70
478 475
345 288
270 270
323 192
232 140
149 477
441 432
426 489
305 1
431 278
314 474
191 453
227 417
224 407
28 389
449 444
300 296
484 166
187 460
389 187
292 65
6 40
200 168
171 24
455 63
493 414
80 470
35 393
187 92
309 298
87 202
290 370
160 254
8210
2
