60
11
0 0 0 0 0 0 0 0 0 0 0
82 91 35 99 67 92 33 19 61 95 62
98 14 86 71 10 100 36 19 21 65 82
30 54 68 78 31 74 65 83 80 57 23
73 97 66 76 71 31 43 56 81 78 67
85 24 48 63 71 78 83 22 44 22 96
27 55 67 54 16 36 67 32 14 47 90
52 39 30 42 27 95 92 54 78 96 85
14 46 96 76 83 32 74 98 23 67 16
94 94 87 41 92 52 21 69 18 33 57
48 72 34 22 45 20 24 48 39 25 97
35 67 44 99 62 87 29 61 80 12 57
97 62 61 82 20 81 43 14 59 39 87
27 74 37 20 63 54 92 84 13 93 31
93 13 32 71 38 89 36 75 69 60 98
45 25 71 20 21 14 78 13 75 83 84
59 22 75 29 72 57 69 75 86 26 10
67 16 61 38 93 77 47 22 36 63 26
45 81 76 86 40 95 64 20 55 71 72
55 79 17 100 17 61 61 35 65 99 19
87 30 94 76 10 65 96 46 33 67 97
31 61 52 15 78 37 51 36 48 11 58
82 25 17 59 27 47 79 95 66 48 75
36 34 88 68 63 83 16 77 99 80 96
66 98 39 27 23 47 35 48 23 78 94
75 59 31 76 57 30 26 91 70 61 49
49 62 77 80 78 48 43 61 60 35 14
70 99 53 22 10 31 95 56 68 100 40
71 92 94 70 70 63 82 21 75 39 11
48 90 73 75 32 61 36 90 33 48 86
43 35 83 11 68 15 72 61 28 18 64
81 19 38 30 55 38 43 25 100 36 26
40 11 86 79 13 97 38 49 98 17 73
25 13 19 63 34 75 62 93 97 37 49
81 31 70 78 89 84 93 32 18 70 33
59 16 29 22 96 80 80 82 48 84 26
81 15 99 59 66 55 87 28 44 77 24
63 92 80 93 30 17 14 49 47 16 24
33 30 73 15 79 79 39 44 27 95 27
83 22 16 44 64 91 76 62 62 23 100
40 47 12 87 63 51 83 80 11 50 11
75 31 84 64 71 51 78 10 11 20 98
36 78 86 76 67 25 32 85 96 38 17
89 22 94 77 62 41 79 73 79 31 13
28 42 73 24 27 10 88 83 59 18 10
55 38 65 79 13 34 56 20 96 47 72
44 58 35 55 14 76 69 73 42 78 29
10 43 22 87 77 32 54 56 25 26 15
31 60 33 18 14 19 47 56 35 29 63
23 93 15 19 81 25 49 33 55 47 21
65 97 63 61 91 23 56 92 61 12 72
49 59 11 52 70 73 88 25 13 29 66
49 36 87 42 82 59 75 64 76 49 83
51 24 69 20 30 31 13 37 17 95 87
10 64 15 42 40 10 28 38 83 76 76
31 57 99 73 81 10 37 18 11 54 98
74 18 66 74 52 80 62 83 34 53 19
86 60 63 89 98 28 63 100 48 14 75
82 42 17 58 40 95 95 89 90 16 89
49 97 26 75 85 51 88 63 93 86 86
0.861266
2.37731
1.66972
1.86861
0.694269
1.105
0.786539
0.994055
1.09647
1.26276
0.947765
1.74802
2.47061
0.849429
1.38127
2.22031
1.77153
2.49552
1.53433
1.09236
2.16503
0.501166
2.13555
0.511695
1.37057
1.16437
2.20762
1.1451
1.50939
1.56164
0.75705
1.92591
0.630836
1.68627
1.29796
2.20423
2.30933
2.45921
2.36242
2.16011
1.36277
2.35973
1.55502
1.21533
1.22321
1.83655
0.929832
1.59214
1.47598
1.53893
2.29549
2.48003
1.72148
0.942908
1.97699
0.569133
2.28328
1.2589
1.17037
0.605576
317 378
296 123
130 104
6 215
479 187
17 6
220 428
334 432
479 432
161 293
228 474
248 376
33 53
265 283
8 363
413 283
233 180
46 487
396 435
327 95
442 499
305 344
305 313
386 486
248 447
262 295
399 301
380 122
101 126
137 264
176 418
9 413
225 422
109 215
334 403
221 283
255 146
171 451
322 382
105 387
447 326
59 147
18 69
260 250
493 480
230 231
371 312
119 22
101 351
381 443
152 456
316 311
134 229
76 490
484 424
483 27
54 35
189 213
152 32
480 67
3238
5
