60
5
0 0 0 0 0
78 84 28 93 17
16 89 24 76 20
94 94 43 18 67
82 12 49 17 57
78 73 39 100 45
48 86 67 10 39
85 22 75 72 56
46 61 42 88 59
30 71 49 59 60
56 17 30 61 20
30 69 71 81 97
90 53 67 78 17
11 38 15 39 79
56 59 66 59 53
19 15 14 56 72
81 74 63 75 100
10 29 50 33 64
69 63 77 99 40
40 41 79 67 28
66 70 43 91 68
50 15 63 64 78
83 64 43 50 25
51 67 88 57 10
95 20 10 100 91
25 31 73 46 62
33 81 12 80 81
41 23 27 77 90
14 85 11 33 77
29 81 14 72 48
38 81 88 75 13
73 27 35 67 31
75 73 29 15 88
92 45 89 32 54
97 73 30 93 32
15 59 26 64 61
27 24 94 35 76
46 63 98 46 72
82 68 78 13 52
99 64 67 67 11
17 77 80 34 11
44 78 84 67 16
85 33 57 69 90
77 13 86 93 21
98 20 10 50 99
18 61 67 88 75
80 27 68 49 14
63 87 30 89 49
38 70 42 29 50
93 90 21 52 51
82 97 20 13 23
20 13 35 68 34
15 24 12 44 53
40 95 43 64 95
53 50 59 74 28
35 18 100 50 38
70 92 83 46 55
96 23 33 42 93
50 28 64 13 61
13 84 20 100 31
0.418871
0.831339
0.93763
1.74945
1.82246
1.61608
1.74155
1.65229
1.59671
1.44398
0.55194
0.681524
1.47376
1.02086
1.82267
1.56195
1.05704
1.55995
1.70237
1.2036
1.74796
1.53005
0.680924
1.55074
0.95629
1.15825
1.14057
1.57742
1.03831
1.04329
1.1284
1.19696
0.91011
1.38325
1.06088
1.04894
0.539264
1.64878
1.36816
1.05461
1.71399
1.07721
1.87841
0.703627
1.82882
1.91023
1.69037
0.740069
1.76306
0.44963
1.43064
0.690581
1.74677
1.10217
0.421798
0.634535
1.1197
0.576415
1.3481
1.9137
294 173
494 252
314 254
45 151
135 419
217 319
442 358
347 192
395 448
425 166
124 84
410 446
319 137
322 205
63 212
214 164
76 277
272 195
216 95
214 424
105 474
402 179
349 404
410 192
385 341
499 160
291 158
396 167
364 306
494 449
44 1
17 38
487 348
233 36
67 348
339 212
322 425
215 269
213 2
380 379
310 421
107 103
85 337
385 10
422 376
474 14
72 486
411 79
374 95
165 426
91 115
232 279
303 46
271 50
256 401
52 303
335 140
368 340
330 442
136 158
3210
5
