60
9
0 0 0 0 0 0 0 0 0
25 25 48 28 95 50 63 95 64
29 66 52 28 17 24 25 22 85
96 97 93 41 32 24 56 83 83
98 100 75 49 99 40 91 79 16
61 69 87 26 75 26 81 83 18
93 24 37 36 98 58 40 26 18
27 45 49 16 84 86 96 98 85
22 43 69 83 71 13 15 84 79
96 93 87 36 36 50 20 24 79
85 53 88 75 29 22 59 20 80
98 43 61 51 34 52 29 46 85
58 99 19 37 22 77 83 79 12
97 70 30 53 72 12 10 19 89
100 85 100 22 94 23 47 77 20
79 73 35 97 70 82 94 81 61
57 55 26 19 16 63 21 100 58
27 73 53 61 14 58 69 15 35
56 21 51 67 42 73 97 32 97
96 80 32 88 24 38 11 86 25
48 25 25 91 90 30 86 48 28
93 92 43 88 69 11 58 69 24
69 43 76 33 54 78 36 14 92
30 62 47 29 43 13 31 76 43
97 26 40 35 48 26 84 59 81
29 73 63 46 60 48 63 33 64
26 40 13 77 33 70 50 19 70
33 15 31 40 22 27 29 18 42
80 11 31 25 55 71 89 19 18
85 32 72 23 32 85 15 75 61
99 56 96 71 62 83 98 76 93
49 94 31 17 13 67 24 64 12
68 33 48 97 45 85 84 81 12
97 38 83 90 94 14 83 23 59
68 67 85 15 61 62 70 77 70
53 79 60 60 75 97 27 46 47
71 25 52 50 61 53 26 91 63
88 50 75 44 30 59 50 53 53
36 45 70 75 44 64 91 43 53
66 86 75 97 62 16 18 58 81
52 84 26 78 53 44 82 32 92
26 52 63 78 39 96 25 34 49
77 66 40 72 55 44 32 33 72
70 65 30 76 53 26 77 27 62
80 65 78 56 61 62 75 26 28
52 69 29 34 86 55 12 39 30
46 60 93 63 63 80 99 93 44
63 55 39 81 68 89 60 43 48
59 83 49 72 71 39 72 74 41
48 32 64 20 47 49 30 50 56
80 48 27 60 94 87 18 26 55
99 28 53 77 33 48 18 56 25
100 67 83 21 31 41 55 16 57
18 65 40 59 25 90 34 31 76
86 36 80 12 26 56 72 93 50
74 56 61 94 49 58 79 12 69
30 69 39 52 23 41 22 42 40
56 19 23 47 29 82 90 78 54
11 19 35 20 80 100 82 59 40
16 71 88 95 81 84 63 53 86
0.664853
0.500708
1.37672
0.345394
0.403478
1.12018
1.13917
0.772191
0.417783
1.42289
0.862971
0.470933
0.631095
1.20527
1.2119
1.16662
1.0328
0.805359
1.38872
0.823097
0.751807
1.4003
0.440202
0.959026
1.49448
0.581078
1.37314
1.23373
0.626006
1.40145
1.28968
0.768197
0.325719
0.479904
0.78262
1.05447
1.4591
0.733691
0.671298
1.29688
0.471932
0.499196
1.28291
0.31859
1.46921
1.18632
0.766113
1.03026
0.372263
1.03167
0.696369
1.45611
1.01975
1.41157
0.550943
1.36672
0.773812
1.24249
1.36483
1.38839
112 239
29 97
399 139
204 224
303 255
52 32
126 258
418 169
121 233
493 13
88 114
238 422
132 357
440 460
232 418
206 368
330 32
22 365
49 114
143 307
210 383
413 104
241 412
100 27
332 458
5 473
175 421
201 123
205 234
242 481
174 132
13 246
97 172
235 361
35 234
389 153
258 446
5 78
260 183
238 409
212 125
340 8
211 450
373 468
254 198
399 342
86 192
130 477
150 320
294 16
381 226
394 133
406 62
480 112
8 224
485 462
13 48
312 441
176 235
39 371
3263
5
