60
9
0 0 0 0 0 0 0 0 0
90 67 50 75 25 37 85 86 58
40 15 62 72 33 72 93 13 60
48 87 25 34 66 19 60 24 50
32 58 15 29 89 18 64 38 45
23 85 52 14 69 98 12 75 81
64 64 13 87 69 33 74 50 38
81 75 30 52 29 88 73 39 21
67 27 12 92 69 78 11 61 27
67 27 76 93 40 28 88 32 34
76 93 71 62 72 72 61 45 23
51 44 88 23 29 41 46 74 88
87 24 72 66 49 92 27 73 40
28 63 60 80 84 17 12 50 49
67 68 54 72 68 16 36 29 12
90 38 28 13 38 63 11 90 88
94 31 62 47 28 73 91 19 10
89 23 18 28 18 30 23 92 44
94 96 38 64 65 73 64 47 65
98 73 27 71 69 19 80 50 55
90 61 26 67 29 56 99 64 11
43 67 72 84 46 49 35 95 44
22 31 16 42 46 67 51 33 81
46 82 11 62 19 31 44 55 98
49 54 74 15 51 17 51 26 83
46 34 49 36 70 22 95 57 58
40 65 44 45 28 16 26 17 64
82 90 10 36 26 53 63 73 85
72 78 23 32 21 59 30 53 10
40 57 25 94 54 80 73 37 63
33 41 50 32 29 52 50 61 43
93 90 49 84 34 34 13 39 44
90 71 91 52 77 75 90 96 50
17 70 89 10 39 36 77 44 85
69 15 47 61 95 35 80 97 44
15 81 39 85 75 80 72 55 34
27 26 94 16 11 33 21 30 10
98 43 88 54 46 95 21 30 10
59 15 39 45 93 56 56 86 97
63 54 81 52 48 53 13 97 54
21 21 38 24 22 54 63 72 24
35 79 96 52 16 48 29 91 96
73 72 74 44 33 82 71 82 34
47 71 50 96 35 80 29 18 67
33 87 86 66 27 54 47 55 87
86 64 22 23 13 77 53 36 70
17 50 72 20 22 68 31 94 22
33 83 44 52 25 66 55 29 95
43 45 88 83 23 77 74 93 28
16 58 72 57 35 35 12 48 63
66 65 43 50 80 94 35 74 22
83 45 74 27 38 50 73 51 40
93 69 82 83 60 31 63 38 41
74 73 70 13 63 32 29 56 81
98 83 57 76 19 67 85 36 24
25 88 65 97 21 22 86 100 91
27 45 91 33 34 26 91 27 11
47 22 34 100 48 96 15 24 32
70 47 45 25 68 19 41 79 49
65 86 22 76 93 10 54 19 52
0.633932
0.486966
0.748403
0.551697
0.986243
0.650935
0.749289
0.926663
0.577167
0.828311
0.814821
0.899267
0.857373
0.345396
0.313527
0.849856
0.662148
0.846876
0.254946
0.970201
0.843639
0.789045
0.506839
0.939283
0.659896
0.420117
0.734072
0.536706
0.609393
0.590281
0.700594
0.234354
0.777361
0.890725
0.449019
0.352947
0.643012
0.997852
0.861887
0.721088
0.344663
0.261458
0.342541
0.733835
0.264196
0.994202
0.495206
0.214311
0.305967
0.364437
0.404146
0.321599
0.35736
0.917927
0.582081
0.830978
0.724433
0.376079
0.428624
0.263267
378 4
182 225
383 184
251 107
314 25
25 28
424 45
254 432
268 239
115 247
320 344
258 53
279 189
456 148
141 339
200 93
109 365
142 369
375 315
431 91
262 96
96 463
391 496
149 412
160 445
47 262
55 244
234 431
92 124
76 56
373 27
251 264
78 29
307 97
1 243
390 268
261 347
303 344
303 277
329 185
447 232
249 411
281 121
450 496
290 180
86 83
169 346
362 430
472 398
134 61
319 134
210 76
204 495
255 262
67 3
308 431
225 44
140 409
38 66
65 132
15695
1
