60
9
0 0 0 0 0 0 0 0 0
27 77 99 11 29 93 77 61 79
14 90 100 36 18 52 85 83 13
68 36 11 56 67 96 75 10 85
100 100 83 37 84 97 75 86 36
79 47 38 92 100 14 47 28 29
19 64 19 14 91 58 54 15 78
35 100 92 10 63 75 76 49 22
38 91 15 98 45 44 100 92 29
44 26 24 100 27 36 46 60 33
22 60 17 94 36 25 48 85 66
88 13 35 40 16 39 77 21 64
34 96 17 70 30 18 29 98 100
69 15 67 98 99 96 64 83 69
39 72 91 23 17 27 51 88 16
31 43 51 52 70 34 29 99 20
79 42 24 39 94 56 78 99 63
78 29 14 83 88 73 14 62 15
23 91 59 13 18 40 92 83 33
60 75 37 61 34 92 100 69 82
71 46 80 72 74 61 85 53 16
50 95 72 75 92 66 32 100 23
90 65 59 29 79 34 80 14 51
16 47 71 81 85 88 99 56 70
53 15 70 43 59 35 36 100 45
58 39 18 31 65 84 71 15 21
14 93 23 62 77 72 66 37 52
88 82 37 83 56 98 47 17 19
57 29 58 21 35 62 16 11 33
93 34 64 43 55 53 11 31 81
73 51 79 51 19 90 88 89 43
70 33 98 41 43 100 39 45 72
32 11 11 20 69 46 92 66 53
12 66 42 80 25 100 77 27 55
43 95 98 14 11 14 19 67 53
74 77 97 81 76 84 19 70 22
18 50 51 64 30 40 23 10 87
10 16 74 34 27 49 78 36 88
26 88 55 35 70 17 12 77 19
44 36 50 56 47 23 46 92 46
76 87 24 10 42 62 21 92 17
93 80 30 64 42 59 58 91 48
11 18 54 99 55 47 39 72 59
51 30 91 94 59 80 52 96 78
14 55 70 33 32 71 20 52 15
67 41 29 60 30 100 100 65 25
76 69 15 32 15 84 73 18 69
14 66 55 46 23 17 23 34 28
66 86 52 80 71 60 59 77 24
85 44 93 78 92 17 73 14 25
93 80 21 17 58 55 91 32 81
96 90 55 39 60 38 27 97 41
66 98 97 67 97 79 19 45 91
27 69 72 85 11 40 27 18 66
46 43 29 14 70 28 72 92 13
50 59 42 42 37 33 68 92 22
81 34 32 97 13 71 60 47 82
78 23 66 21 21 66 40 72 92
98 76 64 10 28 67 53 37 23
55 95 68 89 45 88 13 34 91
1.33275
1.2924
0.604995
1.43778
1.01755
1.37934
1.74307
1.58817
1.57701
0.942092
1.9066
1.03409
1.83889
0.496222
1.70395
0.496799
1.56176
0.628723
1.70438
1.09141
0.940127
0.635634
1.1744
1.83369
1.02535
1.15409
0.423068
0.901217
0.694937
1.70401
0.623754
0.677553
1.61173
1.20157
0.824821
1.05882
0.445603
1.25476
0.669222
1.98773
1.87416
1.9671
1.63278
1.66764
1.67357
1.3746
0.856581
1.68764
1.54815
1.8316
1.00182
1.77464
1.30849
1.10399
1.20379
1.06608
1.96279
0.731214
1.03584
1.07038
498 189
61 221
436 231
251 28
94 190
284 414
469 294
124 272
462 39
353 275
401 225
350 481
342 315
372 360
302 285
106 190
442 83
285 455
253 233
427 500
464 391
396 453
258 1
55 262
121 79
135 311
324 160
267 126
200 340
337 432
422 396
252 56
368 494
32 379
495 218
472 77
409 154
174 405
306 132
50 390
280 473
265 128
65 474
182 439
453 319
437 294
338 101
21 488
376 249
59 464
360 391
432 103
315 471
180 227
410 480
499 423
146 209
242 67
125 312
191 286
16095
1
