60
11
0 0 0 0 0 0 0 0 0 0 0
31 35 92 58 45 61 10 91 41 44 22
85 95 55 82 87 38 49 76 49 73 96
16 26 51 84 20 85 83 79 23 14 66
93 30 75 10 26 93 41 41 57 85 38
29 23 52 66 17 48 96 46 30 83 10
29 58 72 34 14 67 84 18 21 19 72
19 65 61 35 95 42 33 59 73 14 37
14 28 11 78 12 87 100 70 46 52 66
58 16 66 41 15 16 90 51 20 75 53
56 23 38 30 93 24 59 51 26 54 81
38 44 81 35 16 52 43 43 29 98 52
81 86 45 55 53 96 85 75 38 11 90
73 74 53 38 95 53 97 76 43 34 60
33 81 11 12 71 23 71 63 68 43 55
24 67 76 90 37 88 100 27 95 92 11
54 43 60 38 33 31 89 54 25 17 64
35 10 40 50 43 11 68 13 77 22 12
97 64 99 79 47 81 29 19 88 68 60
74 38 19 30 61 81 94 51 51 32 19
67 21 65 91 75 78 33 93 50 15 50
36 24 40 74 63 22 78 43 33 99 33
27 100 98 48 67 64 37 30 14 48 49
48 81 56 50 20 55 63 64 24 80 84
25 12 30 72 58 70 92 18 77 86 94
22 19 92 63 57 44 75 88 46 37 81
68 49 76 12 36 16 100 81 68 10 65
52 75 47 16 46 13 92 61 52 42 66
53 55 54 88 30 54 11 75 48 22 71
65 29 20 76 54 100 48 61 27 96 36
100 87 34 42 78 60 19 56 75 82 19
59 82 64 51 49 74 97 31 77 70 50
75 74 99 72 23 42 50 27 93 99 62
17 21 91 92 44 50 73 70 59 95 43
83 39 56 24 91 97 86 82 27 22 75
78 81 68 22 59 52 48 38 97 100 78
93 90 80 60 17 36 88 67 46 95 26
35 16 96 33 38 12 86 86 37 20 52
36 17 67 83 30 17 64 58 17 13 16
74 72 13 35 92 97 38 25 15 82 83
78 64 14 74 61 65 78 10 17 46 41
44 81 81 17 67 50 10 58 84 100 35
57 87 79 86 90 66 37 16 90 13 37
18 37 52 87 64 75 78 89 55 65 82
50 36 12 10 40 50 94 50 59 95 68
54 11 97 91 47 70 46 99 87 14 93
27 96 26 10 96 62 31 85 47 56 74
24 79 26 88 88 84 19 39 93 99 29
16 42 47 14 65 27 71 15 26 12 39
49 14 32 13 16 23 83 76 11 18 78
22 55 22 30 36 50 47 92 97 96 75
47 23 81 57 98 19 81 63 64 90 77
91 49 17 57 29 88 18 21 38 92 96
50 81 99 71 60 93 57 96 97 55 18
73 52 46 59 74 93 26 16 16 22 63
72 68 63 58 96 53 94 53 55 74 16
84 17 23 68 25 65 64 59 22 92 38
55 25 35 17 26 86 47 12 15 67 73
62 57 57 57 27 52 41 56 48 34 70
72 13 22 84 19 23 94 19 40 42 67
1.36149
1.8379
0.496223
0.595786
1.60545
0.852722
1.32955
1.63623
0.714917
1.94938
1.77626
1.38488
1.4639
1.19181
0.873059
0.677801
0.43743
1.54501
1.73942
1.28247
1.36186
1.39296
1.08144
1.72932
0.982995
1.18698
0.446471
1.57536
1.29377
1.1604
1.46184
1.54341
1.61262
0.527018
1.10958
0.95685
0.543304
1.19659
1.52359
1.50301
1.3842
1.76742
1.31097
1.24101
0.704603
0.999559
1.85415
1.89634
1.65329
1.88791
0.512032
0.771644
1.17559
0.515922
0.929984
1.14206
1.05958
1.45212
0.815317
1.13303
480 74
256 463
448 33
218 494
421 399
260 35
310 380
310 206
143 205
58 18
27 73
379 323
489 34
286 406
478 308
7 328
144 195
258 223
461 29
318 37
185 167
96 36
314 492
436 199
311 476
395 385
9 485
140 469
211 102
364 278
479 176
384 198
202 453
286 137
129 315
291 57
164 438
407 165
314 491
412 94
371 412
238 2
256 11
256 383
197 449
437 247
322 326
179 459
11 440
376 226
325 228
245 451
8 186
361 334
45 363
192 477
98 215
133 353
146 21
55 44
7987.5
2
