60
11
0 0 0 0 0 0 0 0 0 0 0
56 96 38 100 14 67 76 79 93 81 64
94 40 52 28 23 98 30 73 27 93 35
41 47 68 47 19 69 62 50 93 40 28
92 33 81 58 24 99 82 39 36 49 22
19 63 36 15 35 78 96 35 14 77 100
35 34 99 72 70 96 39 21 84 61 15
68 74 91 75 90 32 23 12 78 38 15
77 42 50 99 12 100 45 89 27 86 78
84 79 41 40 83 47 69 38 26 40 73
14 80 100 99 63 79 33 23 26 16 49
73 74 19 68 21 40 82 15 50 18 12
48 29 69 26 70 79 49 55 43 98 70
92 76 80 79 12 88 74 83 100 61 41
67 25 54 37 82 88 53 32 30 20 46
10 87 48 79 77 33 21 85 59 35 76
30 98 61 64 74 43 94 67 88 78 77
88 54 13 63 32 14 69 61 11 61 27
72 51 48 15 14 64 81 58 85 63 53
26 88 100 80 40 78 44 43 37 48 70
24 80 56 26 60 80 34 83 80 79 99
15 73 86 56 93 34 18 37 22 40 32
54 67 13 17 46 67 52 56 51 56 66
43 95 86 29 13 18 27 10 58 45 50
75 86 61 91 56 85 44 78 55 11 92
78 48 41 91 97 37 84 24 80 82 77
14 32 74 90 97 70 47 24 95 92 96
56 23 74 79 56 93 95 60 19 26 17
58 82 76 39 89 51 52 47 88 58 36
69 56 13 63 24 39 22 51 37 34 93
92 95 81 87 87 13 33 12 76 50 23
66 51 100 71 80 85 42 56 73 74 57
63 57 23 93 48 61 83 25 81 80 74
28 17 93 40 60 69 89 100 86 84 30
48 50 26 63 65 77 42 58 47 36 92
95 50 82 63 20 42 24 88 72 34 41
63 29 24 11 88 28 62 74 17 80 35
59 29 33 70 54 92 72 38 95 49 37
43 80 13 66 22 20 49 63 30 31 19
13 25 37 81 60 79 65 23 89 90 65
94 74 72 84 82 17 87 71 80 89 77
50 60 34 60 87 69 80 38 96 96 48
84 53 91 13 82 50 32 75 96 96 13
33 31 27 39 87 98 66 72 55 40 21
72 12 83 34 100 58 44 22 32 77 25
31 44 50 68 74 34 64 64 30 12 70
91 75 72 76 67 17 98 19 19 24 21
40 48 95 99 17 96 64 79 20 64 51
52 66 39 68 52 29 57 14 66 43 72
36 17 44 71 96 33 18 58 91 46 85
77 69 65 66 57 61 89 89 66 57 93
48 26 79 17 19 55 78 28 31 57 61
100 11 31 82 63 65 65 98 26 59 53
17 68 97 62 93 24 79 29 81 74 94
38 81 77 17 13 51 87 14 47 82 63
24 68 54 31 36 94 88 16 23 23 96
15 89 83 21 56 23 45 68 63 15 95
23 28 95 52 29 91 60 100 78 85 21
27 60 12 61 87 34 53 22 39 15 76
35 91 92 41 82 25 60 90 99 86 58
0.163163
0.207709
0.434276
0.100782
0.448107
0.210907
0.451065
0.284113
0.491109
0.219566
0.324046
0.235362
0.36939
0.223296
0.350462
0.308527
0.304844
0.158545
0.457439
0.243786
0.173108
0.495581
0.314583
0.430664
0.197118
0.443629
0.308772
0.403001
0.474848
0.309305
0.199126
0.244276
0.457396
0.357179
0.402248
0.315485
0.480657
0.226563
0.290406
0.311983
0.245635
0.496938
0.217731
0.342225
0.45725
0.415627
0.3203
0.374843
0.364551
0.477471
0.227979
0.227765
0.371053
0.37126
0.253683
0.215175
0.215865
0.482237
0.114167
0.179379
88 489
378 68
307 116
276 103
357 114
45 198
39 179
355 175
385 442
96 411
274 236
88 452
485 474
383 241
407 31
462 124
260 28
236 451
269 447
478 198
51 206
249 299
369 117
190 144
372 35
114 418
271 270
446 359
280 269
268 87
124 131
492 239
189 463
270 354
278 163
157 358
71 75
140 144
490 32
224 299
424 28
238 229
467 155
23 281
347 101
105 134
167 490
237 309
367 398
393 429
241 472
253 313
133 132
253 330
312 406
444 462
33 92
224 470
354 37
494 176
5570
3
