60
5
0 0 0 0 0
12 43 100 59 11
71 59 84 55 100
21 10 14 30 58
59 73 35 12 91
26 36 32 95 54
30 38 81 43 15
37 78 36 25 47
15 10 89 69 95
25 48 12 83 95
30 92 99 92 73
66 71 50 27 90
77 30 57 64 63
95 93 17 95 92
18 37 37 83 90
79 18 98 92 27
96 35 49 67 42
49 66 79 92 76
16 12 64 77 99
20 77 92 92 50
34 90 63 29 72
13 23 94 10 54
93 66 85 15 82
81 46 97 71 74
84 86 37 15 26
72 69 71 19 59
91 17 44 75 32
27 23 94 68 27
54 23 13 50 91
80 93 75 58 96
67 10 21 96 30
98 59 81 36 84
88 93 29 36 75
38 65 13 94 47
64 93 73 82 74
42 97 58 76 26
85 44 80 57 69
53 69 61 20 99
42 48 36 69 69
30 72 18 82 46
64 31 94 68 18
39 33 33 59 82
33 76 98 55 22
95 78 95 20 32
61 15 39 75 13
77 31 65 27 56
63 33 95 33 54
32 67 85 60 90
32 66 68 54 74
21 72 60 91 84
15 22 27 54 46
69 85 46 89 88
27 20 100 20 69
78 96 65 21 20
70 82 17 19 74
30 73 61 39 36
12 57 81 91 76
29 16 45 21 90
91 74 50 84 68
85 75 62 30 67
0.422114
1.91386
0.721675
1.85942
0.549773
1.92904
1.27058
1.40732
1.75885
1.89583
0.849132
0.533424
0.629183
0.692887
1.85532
0.848095
1.5681
0.887093
0.40096
0.567409
0.623247
1.5252
1.04024
0.70875
0.461816
1.86934
0.884032
0.521642
1.18828
1.65594
1.62356
0.603504
0.484994
1.7627
0.493961
0.726781
1.08971
0.592443
1.53533
1.63347
0.542751
1.61054
1.14567
1.07439
0.420023
1.76273
0.89924
1.68493
1.15553
1.32332
1.48409
1.84579
1.53573
1.57621
1.66487
1.17573
1.11651
0.463144
0.503643
0.916993
326 367
195 171
410 160
59 347
189 40
303 20
322 414
479 450
223 434
21 155
84 168
334 284
165 436
214 427
31 105
332 338
114 439
168 469
360 143
200 366
98 240
162 223
484 320
407 274
174 119
21 296
230 238
409 121
235 382
98 134
302 68
179 384
344 342
340 0
68 341
274 393
50 119
204 143
319 381
147 313
83 244
459 62
320 91
183 274
478 193
182 227
464 242
141 125
31 189
68 40
213 361
73 90
126 81
188 213
392 262
94 179
69 275
488 213
331 493
346 367
5615
3
