60
9
0 0 0 0 0 0 0 0 0
49 57 19 30 62 35 66 55 40
13 17 95 65 41 48 88 30 47
87 88 30 55 22 90 83 64 85
26 62 87 55 50 36 48 37 78
59 35 47 58 42 89 81 19 85
63 69 80 63 63 27 47 47 78
24 42 34 99 73 13 92 87 80
25 93 94 36 33 72 39 60 96
75 93 35 90 93 60 35 55 11
45 35 40 73 75 59 98 64 63
81 23 49 36 78 65 99 99 30
14 44 22 78 92 30 17 36 49
52 64 41 96 41 49 76 98 54
66 32 18 78 64 58 65 69 58
37 77 19 75 40 25 93 45 62
40 71 73 93 46 79 16 22 97
84 25 27 64 73 18 51 84 24
82 49 58 66 67 51 89 34 100
80 93 33 86 32 51 58 28 30
94 75 58 98 33 62 95 12 27
46 59 19 13 43 83 51 84 45
46 43 71 75 51 46 75 51 42
70 11 100 50 27 70 95 66 78
64 71 82 27 93 24 90 43 49
70 82 93 80 45 71 59 42 56
12 87 87 58 54 74 95 31 31
66 47 50 61 75 26 53 86 71
51 44 71 76 16 82 76 75 93
58 79 91 24 88 30 26 74 57
18 64 46 89 89 24 66 61 44
39 87 48 11 66 13 14 41 34
10 31 17 29 58 52 56 28 20
59 72 23 37 29 66 87 24 73
56 71 37 92 86 84 97 11 85
96 65 79 39 30 63 51 90 45
92 32 96 77 12 60 23 82 37
61 23 52 33 93 59 13 38 66
64 49 50 93 87 38 27 79 38
27 94 22 34 76 33 48 25 18
76 25 87 55 47 93 63 66 52
58 31 40 100 52 79 23 42 49
79 75 29 25 27 13 82 53 63
20 89 69 54 64 88 35 68 12
55 26 44 93 91 68 57 30 32
74 11 80 71 43 17 47 69 29
74 12 76 38 41 38 93 64 83
91 58 31 54 91 79 74 99 32
78 54 97 26 76 37 18 96 53
47 96 19 60 83 15 21 31 67
29 11 56 32 33 99 83 90 58
71 59 42 84 51 82 23 73 14
43 68 35 93 37 100 84 69 10
43 53 62 90 12 53 75 14 74
49 61 92 12 84 47 27 26 92
65 53 26 68 49 22 54 82 35
77 45 30 35 34 19 64 27 22
92 72 32 86 44 60 14 33 72
87 21 38 49 97 83 22 40 66
98 72 14 66 69 32 19 45 29
0.268644
0.246035
0.181617
0.331379
0.273935
0.401878
0.139443
0.227624
0.404525
0.448505
0.412597
0.44883
0.247237
0.171491
0.431635
0.474962
0.12646
0.47383
0.107413
0.325635
0.213892
0.444956
0.17793
0.306891
0.149703
0.311962
0.106455
0.361777
0.366168
0.26157
0.456117
0.286202
0.192324
0.265369
0.270806
0.233391
0.399765
0.391898
0.130715
0.334141
0.242849
0.177656
0.41534
0.365689
0.118348
0.208923
0.249233
0.212884
0.205884
0.119589
0.299261
0.161573
0.389882
0.21203
0.329185
0.466735
0.173666
0.292077
0.293893
0.450574
372 408
229 260
264 185
36 93
418 263
126 456
25 65
32 141
494 107
67 450
411 84
148 444
23 464
249 103
112 383
235 498
83 59
288 322
211 49
217 249
3 117
236 245
236 41
344 133
406 157
3 376
1 425
483 334
203 157
426 299
415 353
170 337
313 146
479 228
375 270
426 430
221 87
479 16
60 232
445 205
294 405
226 298
483 322
26 78
3 166
141 18
384 159
25 435
110 407
358 235
302 468
35 398
173 16
129 45
167 237
231 111
55 356
24 180
69 424
106 407
5473.33
3
