60
9
0 0 0 0 0 0 0 0 0
36 16 86 33 19 50 55 25 33
99 67 36 82 92 82 64 35 62
23 40 83 88 12 30 67 67 16
97 48 14 63 36 85 97 32 26
72 49 21 37 44 10 25 44 36
57 69 40 29 81 85 77 19 14
18 36 72 57 30 44 65 47 26
66 32 29 30 51 19 52 12 27
20 49 43 83 91 70 42 27 32
24 42 35 63 17 98 72 43 23
76 97 39 42 83 47 78 62 36
60 93 42 65 22 30 47 99 43
49 55 67 58 42 81 77 23 18
85 40 80 40 42 62 31 50 41
52 97 17 44 22 43 75 66 92
98 51 78 85 91 73 95 88 63
26 31 61 71 28 100 42 88 12
28 33 31 33 37 94 27 21 80
79 41 85 77 96 82 46 47 10
20 35 45 21 36 30 78 11 55
41 43 47 17 40 86 38 45 34
44 22 14 61 18 60 63 50 57
13 91 84 27 55 40 81 46 52
66 30 20 46 91 51 99 62 62
33 27 57 23 26 54 28 30 62
82 39 28 52 29 63 52 27 66
95 73 17 26 51 26 34 99 63
50 78 22 35 82 52 33 92 38
14 92 92 18 59 55 28 25 24
60 94 56 53 88 84 29 79 48
89 27 69 22 38 41 94 34 71
98 65 35 87 44 74 20 96 44
34 29 98 81 57 74 55 15 60
48 75 78 43 29 80 76 64 50
89 86 24 88 23 70 95 59 61
52 74 73 74 21 44 77 12 79
17 95 61 23 45 67 85 23 85
20 41 74 90 30 85 22 21 20
50 63 56 28 45 64 12 17 65
75 78 38 60 24 81 41 90 47
18 23 67 35 54 82 80 37 57
97 36 63 17 91 22 93 68 83
37 74 34 96 35 51 15 77 94
70 40 64 14 93 53 77 69 58
58 92 84 76 39 14 29 89 63
99 32 54 12 24 90 23 18 80
74 11 40 72 25 28 37 30 59
50 70 94 59 25 90 36 22 22
88 19 81 58 32 21 100 62 52
39 37 85 49 32 91 44 11 91
62 64 37 76 91 37 85 78 33
36 41 59 84 94 12 64 31 21
54 72 54 19 52 77 58 44 54
69 90 49 66 59 69 73 46 25
43 53 66 15 43 42 20 29 30
60 33 85 65 87 76 31 18 14
52 59 67 95 12 18 95 52 18
10 40 69 46 16 94 75 65 21
72 26 36 18 53 50 89 62 75
0.942408
0.639147
0.671298
2.37697
0.949659
1.61937
1.47793
2.23113
2.41797
2.01286
1.68205
2.17224
1.1823
2.44996
0.922074
1.30641
1.29584
1.93342
0.560356
1.60085
0.886966
2.46459
2.2801
1.53009
0.799839
0.687761
2.0035
1.01605
2.09981
0.851399
1.54294
1.02287
1.63755
1.04253
0.520357
0.564189
1.22427
0.855091
0.789363
1.93052
1.50857
2.38802
2.26991
1.96477
2.22222
1.57558
0.500484
1.41001
2.46456
1.13835
2.16756
0.851518
0.954808
2.15359
0.872859
1.70908
0.863525
1.97952
1.40279
1.46934
260 492
106 13
158 436
275 123
383 486
423 244
495 471
251 11
215 246
400 358
55 290
403 167
279 149
473 337
194 494
320 392
215 115
222 202
373 395
13 36
385 461
72 368
462 122
287 410
306 314
291 365
336 251
97 19
232 79
120 500
187 231
230 485
147 242
465 95
259 262
481 285
469 418
243 92
87 333
250 192
311 295
298 124
456 226
128 402
72 405
49 57
147 270
469 17
329 358
463 254
223 467
134 302
123 140
446 430
479 428
378 490
235 292
493 307
63 158
143 19
15525
1
