60
3
0 0 0
13 65 59
81 98 92
44 99 52
76 10 56
30 79 31
58 23 72
84 86 28
66 50 91
50 94 100
53 58 46
73 31 43
60 65 71
94 87 42
28 86 47
36 53 94
50 96 74
69 58 47
82 59 88
75 35 11
20 59 32
82 91 90
79 98 58
93 83 96
64 87 14
14 20 22
44 71 58
66 83 55
30 30 76
23 72 78
48 26 58
89 39 99
34 24 72
45 56 57
71 67 88
72 21 64
87 69 39
14 72 37
47 47 73
55 63 71
87 68 41
95 48 44
45 12 22
86 31 26
26 88 19
99 69 37
63 70 11
83 90 79
89 16 42
10 65 11
27 97 22
47 17 17
53 58 13
17 59 48
22 67 15
80 31 44
20 41 93
42 32 88
64 47 26
96 24 43
0.945174
0.417274
0.814763
0.437562
0.599135
0.613967
0.550193
0.381978
0.721866
0.273436
0.298631
0.760312
0.944615
0.733289
0.732967
0.877168
0.318078
0.384925
0.428262
0.327843
0.379798
0.32225
0.655847
0.845471
0.792559
0.715948
0.64326
0.621397
0.353611
0.967754
0.738551
0.448244
0.888106
0.952367
0.75968
0.25942
0.945709
0.454679
0.824892
0.461212
0.72531
0.978536
0.43679
0.96159
0.302281
0.261967
0.839559
0.735713
0.341257
0.721449
0.476472
0.465404
0.770998
0.365885
0.387169
0.879618
0.224732
0.928887
0.832717
0.920654
121 212
245 313
120 247
19 180
465 109
58 441
55 26
148 376
190 250
146 66
234 108
64 117
379 425
213 122
469 21
358 32
226 195
274 149
412 49
157 309
90 83
401 160
83 92
91 221
401 439
69 67
193 151
492 140
185 236
472 10
170 207
182 163
329 283
237 222
351 285
136 177
118 93
244 167
305 54
306 249
224 267
268 326
324 28
41 32
101 343
463 232
277 437
59 420
146 236
297 469
382 393
467 35
240 285
266 106
421 349
433 24
422 161
301 178
39 484
65 39
16520
1
