60
5
0 0 0 0 0
48 19 42 96 64
17 58 82 83 87
97 50 88 52 81
100 36 46 18 98
43 28 58 71 35
80 20 30 63 36
11 59 85 33 58
92 76 17 83 72
49 84 44 91 54
44 56 79 96 23
48 68 55 41 42
70 57 15 61 92
86 97 59 46 42
27 69 33 73 29
66 89 23 68 65
18 10 46 50 100
86 62 89 18 66
89 58 40 17 86
81 61 25 39 42
51 74 48 29 49
30 21 29 31 21
98 56 31 46 71
99 99 29 38 97
100 47 59 95 52
32 89 25 56 97
50 88 29 73 22
100 48 79 91 73
74 61 64 96 51
42 23 37 15 56
89 100 65 82 22
15 19 72 85 95
57 83 42 21 30
74 30 88 65 56
29 52 49 65 95
40 15 85 98 83
72 62 31 79 57
30 56 27 20 37
85 36 62 21 87
80 35 100 60 58
80 23 75 83 64
52 39 31 32 31
52 54 14 25 59
35 49 53 67 34
81 93 32 10 93
47 70 67 37 12
93 24 90 61 27
16 39 33 73 26
59 71 11 59 25
14 36 45 83 60
86 51 40 68 91
17 81 63 100 36
15 24 37 35 48
53 90 42 43 91
16 87 24 45 61
86 22 12 91 82
33 71 64 35 27
91 88 79 24 38
41 27 65 10 33
70 57 52 50 54
0.915304
0.644828
1.48941
1.35652
1.46546
0.640558
0.685874
0.861468
1.29745
0.482596
1.16868
1.26064
0.365915
0.89986
0.848473
0.882041
0.375086
0.665604
0.375883
0.827001
1.20214
1.14309
1.16003
0.839118
1.12558
0.335927
1.31901
1.00395
0.65032
0.36729
1.45425
1.22878
0.665729
1.48717
1.46811
1.14785
0.419437
0.663181
0.477518
1.32573
0.6181
0.788157
0.829549
0.92637
1.01441
0.737295
0.738039
1.36942
0.504976
1.00076
0.707874
0.638725
1.33308
1.06188
0.375495
0.978736
1.08608
0.621753
0.820581
0.454395
72 183
194 444
31 279
258 229
136 117
208 479
344 170
130 175
94 172
192 458
342 239
80 386
237 241
51 499
410 183
239 63
44 265
360 254
345 206
66 412
350 62
233 233
245 233
55 214
86 92
303 275
121 491
11 213
355 427
310 53
224 313
445 496
186 50
165 282
61 217
421 479
206 464
494 64
6 127
385 27
63 408
213 30
497 20
489 435
38 467
398 297
109 396
238 312
409 198
244 398
311 76
311 202
241 162
475 90
18 106
390 415
205 0
467 297
180 159
30 232
3257
5
