60
9
0 0 0 0 0 0 0 0 0
22 72 54 75 95 31 20 65 72
48 73 91 99 98 60 87 25 45
63 55 49 17 18 91 85 91 71
30 17 16 78 67 52 14 19 96
96 63 65 43 18 31 98 14 98
66 95 64 56 25 99 66 30 100
86 18 43 74 74 96 55 41 30
29 87 29 76 12 57 98 45 20
57 97 67 62 64 85 25 80 35
57 65 83 15 31 21 79 20 45
10 99 70 88 68 25 86 99 61
71 23 74 44 98 84 79 42 53
85 73 41 94 41 89 88 36 12
86 88 92 14 99 16 38 91 38
47 90 40 72 45 85 59 33 16
80 51 58 27 35 28 97 53 48
23 21 73 47 79 46 14 32 58
59 53 71 84 57 39 17 67 97
38 50 76 80 41 59 97 42 40
51 28 75 31 61 78 74 100 57
15 68 82 18 67 95 11 15 97
40 97 75 83 34 66 36 37 47
73 94 82 80 16 87 10 26 63
66 47 13 23 33 31 11 16 34
19 97 96 85 56 55 47 35 68
89 26 10 21 20 38 97 88 59
76 62 46 80 67 75 49 28 10
35 80 64 48 36 14 48 98 81
100 53 23 31 25 54 41 82 20
57 53 28 71 25 34 13 24 73
33 39 98 59 94 15 96 78 76
37 15 46 53 69 95 33 96 58
91 28 29 34 69 88 99 69 64
78 68 100 64 99 46 21 39 75
53 82 94 89 12 12 95 72 69
78 95 62 96 20 27 72 97 39
100 16 34 84 81 92 74 47 37
61 93 49 40 77 21 24 74 34
99 62 93 100 86 58 42 96 57
23 25 69 79 86 84 96 68 98
33 97 19 74 26 74 95 12 82
44 37 58 51 96 88 62 10 96
89 90 25 49 90 55 68 72 60
67 38 59 45 28 10 99 26 100
54 78 36 90 95 85 24 49 86
55 74 94 17 38 51 29 29 58
19 62 39 53 68 13 97 37 47
93 35 38 21 77 73 69 69 42
32 11 86 70 86 81 12 47 88
37 30 68 43 26 26 53 31 48
95 70 52 62 23 99 99 59 78
47 66 76 51 31 93 87 45 81
83 65 19 49 60 70 51 72 74
82 16 36 39 14 62 44 52 95
82 88 84 35 93 88 84 52 83
42 75 71 97 69 15 91 91 60
83 80 31 67 11 99 12 62 59
40 68 96 100 54 21 96 18 92
82 100 55 73 56 14 34 56 51
1.36519
0.908146
2.315
2.32113
2.49436
1.19728
2.24869
0.791707
0.650907
0.773331
1.34037
0.662498
1.07569
0.91648
0.845511
2.37483
1.28781
1.21635
1.39541
2.17885
2.22847
2.00777
0.644821
2.08944
1.33156
1.841
1.14568
2.33126
0.747495
1.04285
0.842279
1.56093
1.37914
0.866502
1.33983
2.31959
0.991197
1.09973
1.74418
1.16074
2.3794
1.09624
1.02454
1.54481
1.06605
1.86024
2.14845
0.690958
1.38505
2.23928
1.57084
2.45401
0.523512
2.34983
0.708003
1.75861
0.72787
0.649625
1.88297
1.14347
388 438
457 59
404 372
366 318
399 366
259 262
348 349
189 43
22 231
290 152
265 382
279 322
319 341
144 70
127 184
253 165
391 65
177 123
254 303
14 445
55 344
19 8
72 419
308 264
159 115
278 249
180 285
50 124
56 291
369 469
195 195
129 168
86 42
416 56
232 306
184 77
403 265
452 473
13 98
308 281
421 256
271 171
432 196
416 345
37 455
87 422
36 365
31 421
59 11
47 378
387 436
239 43
31 39
246 238
100 35
461 38
421 13
279 359
315 284
223 412
5720
3
