60
11
0 0 0 0 0 0 0 0 0 0 0
13 26 84 74 21 49 18 61 21 86 32
29 93 91 45 20 52 89 52 13 43 55
39 48 76 77 39 96 45 20 80 74 99
42 81 31 59 46 32 13 59 56 64 41
93 95 12 96 15 15 97 37 61 97 36
17 48 35 51 90 89 61 57 20 23 70
51 49 31 23 77 84 20 35 48 84 92
21 34 41 31 100 61 62 24 21 30 51
60 58 79 56 89 83 69 60 52 96 84
26 21 90 67 98 36 96 51 61 51 69
16 28 100 29 12 100 35 81 65 25 39
61 39 79 39 90 98 100 65 52 38 94
27 77 100 85 44 15 82 22 74 22 27
10 20 90 13 59 66 24 51 48 48 65
95 68 22 66 68 43 72 60 91 100 56
50 98 70 60 13 38 87 83 98 46 89
39 92 12 45 60 64 57 12 37 12 54
21 96 87 48 38 48 67 92 71 32 25
79 47 59 44 87 12 93 92 43 52 80
31 99 90 67 51 100 73 85 85 16 46
54 16 100 43 12 71 85 21 77 99 67
66 92 34 58 86 20 75 56 12 46 57
21 24 42 40 11 92 48 87 65 75 55
10 11 90 48 49 99 75 46 34 88 32
92 36 30 71 100 26 46 34 13 43 50
44 61 10 24 22 17 29 32 100 46 16
35 48 60 13 95 53 56 86 100 90 36
73 18 23 80 68 71 67 74 11 38 23
70 90 48 33 65 48 97 35 59 77 82
11 87 56 48 46 47 13 86 67 83 15
79 76 95 73 12 41 83 38 31 100 27
80 73 41 41 82 42 19 29 93 98 72
56 27 38 65 36 83 86 94 37 71 93
17 77 44 12 23 76 43 16 96 44 85
42 68 67 100 88 42 60 19 49 44 86
38 49 18 59 53 26 88 43 84 53 12
57 72 25 14 100 13 99 39 52 74 13
12 26 20 54 94 74 74 62 99 29 55
59 53 36 18 16 40 97 18 72 100 20
11 85 84 89 69 94 62 98 66 55 11
61 91 27 61 39 51 70 77 21 23 36
60 93 32 57 67 38 40 53 73 94 14
100 50 85 41 22 88 79 68 11 92 24
88 38 30 30 75 53 16 32 70 89 16
92 82 23 28 30 79 22 94 62 53 75
25 17 75 92 54 84 16 88 96 44 98
27 86 41 98 60 86 84 49 77 100 79
77 67 71 31 17 39 45 97 27 17 48
28 68 47 82 72 24 86 57 30 77 97
99 43 77 61 61 69 70 37 78 32 85
15 38 32 61 97 36 99 21 96 74 89
61 55 57 70 22 66 69 76 19 39 28
32 20 94 51 80 99 99 23 83 27 70
67 96 10 50 16 26 27 52 70 37 26
83 14 88 55 37 23 73 39 21 78 46
42 35 70 76 81 20 96 38 23 76 63
45 28 51 87 24 57 86 31 27 77 100
28 57 57 12 76 44 49 10 31 30 27
73 22 14 21 74 29 59 84 99 25 45
0.238838
0.496911
0.386661
0.360057
0.316017
0.139458
0.44534
0.301001
0.336947
0.474579
0.456754
0.445026
0.34192
0.233291
0.291565
0.36319
0.114402
0.313006
0.339088
0.381709
0.314134
0.136243
0.250845
0.305913
0.341418
0.305991
0.115411
0.110355
0.457046
0.123519
0.360322
0.498168
0.324897
0.16442
0.301393
0.231754
0.372055
0.451676
0.284501
0.415016
0.351565
0.400237
0.384361
0.167518
0.118213
0.484849
0.213385
0.20847
0.133933
0.103281
0.266264
0.241414
0.376237
0.316311
0.336261
0.30832
0.432612
0.403998
0.269091
0.256482
374 311
245 25
499 128
72 447
282 242
466 392
9 144
75 182
123 96
310 64
450 211
490 176
350 488
347 485
471 404
306 390
261 122
331 218
127 324
414 268
56 101
380 391
496 164
51 55
48 195
291 439
247 395
366 406
251 27
395 342
222 193
98 221
27 299
359 316
479 249
303 149
125 78
167 491
370 426
103 242
264 472
245 454
376 371
71 437
126 18
13 250
76 134
281 242
268 8
281 389
87 491
451 480
129 91
412 448
340 73
128 65
421 268
11 499
203 107
25 90
3261
5
