60
11
0 0 0 0 0 0 0 0 0 0 0
56 62 73 95 27 33 74 95 68 82 85
19 90 75 84 81 18 57 39 63 20 55
13 61 11 90 73 18 65 10 48 49 84
92 35 95 17 58 18 65 98 22 87 19
14 100 44 88 95 86 30 78 40 79 73
96 29 84 60 91 42 24 30 86 66 14
36 57 18 86 77 94 92 29 28 22 34
46 18 59 58 68 86 74 23 100 71 75
96 27 24 72 14 56 23 52 100 83 34
10 56 15 81 74 34 33 70 24 82 77
72 30 24 74 54 17 56 77 81 93 68
59 96 95 18 77 33 53 85 31 17 88
28 60 61 36 93 60 55 99 32 38 73
92 29 14 84 74 96 60 30 42 62 67
63 44 78 91 83 10 70 38 50 98 80
81 98 29 15 61 95 89 43 16 50 48
65 35 71 32 87 15 26 78 13 28 94
23 25 33 73 70 55 94 68 59 93 45
30 55 48 44 24 48 23 30 71 30 78
26 42 16 45 65 27 13 34 77 71 43
11 89 51 36 74 83 76 29 57 31 47
95 78 37 87 89 86 37 30 79 28 20
73 62 92 81 13 10 24 44 96 43 54
68 11 96 94 42 62 63 40 28 86 17
22 19 99 76 14 82 44 19 99 70 24
18 24 61 28 29 17 54 13 84 96 79
96 58 21 48 50 45 62 48 22 18 32
86 99 54 31 86 99 61 74 49 69 76
73 58 73 34 25 27 57 43 62 86 32
21 53 44 44 93 96 66 83 80 21 17
86 33 66 84 20 62 84 31 15 37 56
81 46 53 47 53 36 91 24 78 34 34
15 75 83 15 32 20 94 86 61 71 99
23 88 89 35 94 89 20 46 46 83 28
45 27 100 21 93 16 83 60 30 83 80
41 48 88 49 81 13 58 87 65 68 15
58 71 11 74 47 91 15 93 26 39 83
24 24 36 76 41 59 51 51 85 35 10
71 72 48 60 44 79 32 70 87 35 71
31 67 26 41 54 22 76 74 56 69 90
59 85 59 92 23 48 13 25 27 66 79
12 43 18 72 20 15 27 45 50 31 82
36 99 84 81 93 53 16 71 67 83 27
52 66 55 83 75 55 53 48 49 67 22
78 88 80 60 74 77 12 81 60 33 34
48 86 11 100 22 71 42 69 63 57 69
18 50 12 92 15 38 88 70 57 47 19
49 80 50 32 72 84 68 98 57 50 30
93 33 93 20 46 34 74 34 79 53 33
66 79 72 63 20 79 63 100 49 29 11
81 10 85 63 27 39 38 46 40 68 73
89 85 79 18 15 37 79 83 83 72 38
74 60 24 78 56 16 56 50 69 55 41
21 97 57 33 20 56 80 85 27 66 21
21 38 62 78 58 12 68 67 76 85 39
90 37 67 10 89 22 62 46 49 95 44
87 71 84 42 32 84 19 23 23 40 48
100 55 75 88 63 31 77 79 83 96 63
84 23 46 90 65 70 53 70 17 37 65
1.34172
0.487846
0.828218
0.41712
0.685629
1.43142
1.09055
0.806214
0.742514
0.831796
1.27396
0.369627
1.17884
0.626006
0.802593
1.07978
1.16536
0.883709
0.987075
1.02552
0.9665
0.559765
1.39374
1.17351
1.25477
1.20044
1.04331
0.526182
0.847188
1.27005
1.40824
0.555908
1.36979
1.02298
0.976781
1.24892
0.761199
0.714915
0.688785
1.403
1.4
1.0497
0.756113
0.71119
0.455203
1.10117
1.24894
0.467066
1.01881
0.830316
0.79667
1.36424
1.27505
1.05012
0.759986
1.01493
1.39956
0.415641
1.09846
1.24805
334 450
257 375
156 477
273 202
356 221
228 389
190 199
284 396
491 239
75 491
453 417
143 159
473 18
58 220
164 121
488 440
471 171
210 125
424 41
9 426
328 17
58 398
414 357
434 43
312 290
478 220
384 356
149 464
441 39
499 413
326 355
116 316
16 396
204 261
244 273
356 37
434 397
370 315
23 5
372 204
53 430
395 499
187 23
351 332
349 354
261 171
2 134
183 327
391 158
168 234
86 401
104 336
235 437
32 474
250 383
476 5
95 492
360 399
376 247
225 89
4083.75
4
