60
3
0 0 0
59 21 34
26 79 10
75 46 69
20 87 64
80 12 63
89 54 40
56 28 21
93 68 48
96 27 42
30 28 88
81 34 12
60 18 36
16 80 21
42 12 33
28 13 80
63 40 73
57 91 26
41 20 69
83 29 81
60 26 68
56 90 84
78 62 25
66 33 45
49 58 48
43 10 32
10 77 12
62 88 11
70 62 80
90 54 78
17 92 93
79 100 63
97 49 27
72 83 57
58 14 39
91 23 26
98 14 96
27 20 90
54 54 88
72 47 80
51 90 15
47 60 62
67 59 37
15 58 85
20 84 45
49 69 69
15 97 41
90 36 87
34 68 41
59 72 73
50 30 24
48 82 45
43 89 25
94 92 35
70 36 30
47 39 10
16 94 92
71 86 100
59 96 31
49 14 87
0.323478
0.11253
0.200808
0.149618
0.119576
0.330427
0.138299
0.235436
0.434997
0.352279
0.437829
0.189671
0.228106
0.344691
0.32988
0.470759
0.167963
0.463584
0.241006
0.350855
0.101865
0.360243
0.415542
0.386885
0.291053
0.276228
0.401638
0.345852
0.233996
0.253738
0.233137
0.148876
0.185117
0.286007
0.284031
0.480711
0.360527
0.448876
0.143753
0.295439
0.263913
0.344963
0.317193
0.316756
0.270722
0.315706
0.463768
0.390962
0.164331
0.194395
0.455143
0.23579
0.314556
0.449768
0.221883
0.487644
0.404304
0.382397
0.196037
0.155551
291 89
322 405
252 82
340 340
395 227
151 293
86 273
479 185
42 117
445 471
390 190
129 412
72 409
205 285
434 245
49 109
250 225
135 215
499 169
23 500
97 170
117 10
371 115
356 448
325 55
307 0
213 39
418 357
331 428
161 364
330 93
155 191
263 204
272 181
344 37
452 173
311 477
73 392
25 341
123 203
312 175
52 469
181 457
465 151
417 234
403 316
19 105
138 337
320 228
179 142
386 64
161 60
1 119
189 423
222 177
353 490
374 432
20 7
491 265
231 421
3206
5
