60
7
0 0 0 0 0 0 0
70 52 31 41 28 28 50
35 60 85 32 88 96 31
98 62 30 76 16 54 20
52 63 12 63 92 10 58
87 95 14 43 95 89 56
56 74 62 76 74 45 74
29 12 74 89 63 85 99
20 78 87 76 79 76 69
55 75 25 57 21 88 27
22 68 96 85 96 22 73
85 87 31 19 19 75 59
58 15 19 74 72 47 58
22 87 94 68 27 51 87
62 61 20 14 43 34 34
52 50 69 52 16 21 22
15 50 94 53 45 39 92
81 60 13 41 36 14 23
82 80 31 73 88 41 72
17 74 36 98 75 100 55
37 70 31 94 83 36 68
88 80 12 78 93 29 19
61 38 63 30 79 73 26
92 16 95 65 74 64 36
69 100 93 30 13 77 100
88 77 65 30 29 97 25
64 79 47 85 49 67 94
50 91 100 75 75 83 69
75 58 16 87 13 47 96
84 11 27 39 99 23 19
73 85 99 28 95 69 73
87 77 93 86 93 15 38
41 39 47 23 98 39 18
64 40 18 46 35 21 35
29 27 42 96 35 73 60
81 63 60 50 82 57 26
26 41 60 70 54 37 93
30 64 67 99 43 47 44
44 23 98 14 12 38 83
17 88 22 100 89 39 68
14 90 91 36 57 73 84
70 74 80 12 77 21 53
70 23 65 91 90 76 74
46 39 41 75 53 27 77
55 55 45 58 29 24 55
90 14 97 86 55 53 43
21 72 48 49 81 83 22
18 97 48 85 68 42 73
85 33 89 41 85 95 89
11 41 24 83 95 69 56
94 71 83 70 94 91 68
30 41 36 54 72 89 53
59 13 29 66 36 57 65
11 34 63 12 62 18 83
34 26 88 48 77 49 13
27 21 19 85 67 63 70
10 98 34 83 79 83 11
90 69 64 99 100 30 95
95 38 100 40 95 15 75
24 21 81 29 56 89 90
0.67311
0.794449
0.678456
1.44638
1.22794
0.786836
0.729116
0.658754
0.444288
0.767582
0.389746
1.41953
0.957932
0.311549
1.24055
1.21543
0.941549
1.22912
0.476218
1.42159
0.366261
0.951763
1.23021
0.344442
0.63379
1.30642
0.598972
1.4346
0.988837
0.468345
1.3494
1.24747
0.914238
0.518805
1.17277
1.45712
1.44594
0.467561
0.704522
1.29563
1.37463
0.659204
0.872788
0.872674
0.792436
1.24727
1.23308
1.16252
0.310646
0.937199
1.35435
1.13708
1.03843
0.972332
0.849862
0.376088
1.35648
0.412468
0.450367
0.323734
52 494
91 297
449 207
347 307
37 78
367 180
413 272
225 285
387 405
428 171
382 277
352 76
310 183
453 443
72 419
82 391
245 75
13 444
476 186
0 172
456 423
162 251
330 219
87 497
313 268
297 334
418 416
369 466
386 152
399 187
288 128
268 29
114 414
346 14
142 122
293 84
496 93
292 131
175 305
124 444
167 294
138 306
263 116
449 441
311 259
359 428
104 132
301 407
485 404
428 345
67 335
214 150
150 454
258 232
235 67
414 209
73 50
111 151
321 448
139 40
3383
5
