60
5
0 0 0 0 0
48 32 33 63 27
51 31 51 10 61
38 86 50 68 83
49 93 14 88 88
74 96 59 15 34
98 45 75 41 44
42 31 39 63 63
69 50 14 55 38
36 16 11 83 39
67 52 86 85 63
33 16 98 58 56
79 75 64 83 50
78 75 84 97 34
59 29 72 17 23
68 20 40 42 40
12 99 96 61 100
19 46 45 97 29
51 41 100 24 89
96 51 42 57 35
89 73 67 37 89
98 74 61 32 95
91 87 19 52 71
47 42 76 12 73
44 33 82 10 16
60 78 14 61 18
97 91 26 22 99
32 14 21 41 28
48 87 11 56 41
100 25 60 22 86
88 97 50 63 57
59 25 18 54 89
88 86 87 62 64
99 75 28 74 100
98 79 84 15 94
69 81 67 13 97
79 70 100 68 34
33 18 60 68 77
84 11 95 51 93
82 91 76 49 99
83 26 16 46 66
34 79 32 30 59
83 72 78 21 74
85 62 99 96 54
22 99 21 90 49
89 50 92 27 95
40 42 38 65 74
100 33 31 34 49
69 20 56 74 75
42 30 77 94 62
28 37 58 94 97
61 32 74 75 51
88 46 80 11 41
89 69 10 54 63
29 92 70 32 51
76 43 95 92 42
32 21 41 72 90
32 63 20 21 85
15 99 48 100 19
84 87 42 69 89
0.722855
0.224809
0.397303
0.871825
0.766571
0.476652
0.422459
0.378995
0.88203
0.73308
0.388983
0.41646
0.650458
0.964963
0.914656
0.955529
0.370714
0.615138
0.820599
0.298023
0.381601
0.349028
0.223413
0.440925
0.476673
0.460633
0.9071
0.383264
0.909384
0.215188
0.827976
0.226096
0.930608
0.641259
0.391059
0.816249
0.683693
0.892938
0.221625
0.561297
0.313695
0.887162
0.994508
0.780986
0.24791
0.26315
0.638257
0.537194
0.97729
0.536869
0.81331
0.291998
0.400235
0.731472
0.910743
0.256468
0.214135
0.632161
0.566674
0.736911
430 399
377 282
277 93
429 223
92 65
321 3
56 307
25 484
415 197
195 134
277 436
279 375
474 465
189 2
114 292
192 101
466 378
170 441
208 382
5 361
249 438
66 305
448 61
179 33
322 450
9 452
261 328
35 483
31 294
460 412
41 193
176 384
443 319
293 381
185 227
489 410
227 94
121 348
169 409
212 147
23 62
426 415
481 43
152 370
204 306
233 291
66 37
61 336
180 206
369 126
179 74
310 207
386 108
499 450
145 96
318 216
425 392
186 463
498 290
363 471
8587.5
2
