60
9
0 0 0 0 0 0 0 0 0
79 72 87 78 60 73 13 46 99
25 95 40 92 90 90 18 16 17
87 35 15 12 90 27 56 94 27
15 61 29 37 55 81 96 28 37
93 98 34 31 15 37 54 11 12
84 21 11 58 34 56 13 42 97
32 77 36 24 41 21 68 10 91
52 51 80 48 19 81 44 77 18
76 97 61 88 84 11 18 93 38
24 67 44 68 17 21 37 90 80
78 72 73 78 57 46 41 21 54
21 13 37 90 34 80 16 38 13
78 80 62 37 94 12 33 74 53
76 98 82 15 13 64 88 73 57
31 82 91 62 80 24 10 47 77
54 55 54 67 47 77 72 90 14
38 77 79 21 30 25 68 86 10
43 12 34 45 71 97 89 14 100
29 64 38 74 28 74 26 43 12
54 58 18 23 79 41 54 58 67
81 28 39 52 20 10 49 15 97
42 42 72 55 94 85 60 36 53
43 49 37 98 95 71 25 40 44
53 39 82 48 33 17 80 51 92
45 10 35 100 13 12 93 20 12
65 56 75 22 74 58 95 49 71
75 59 17 95 87 71 59 33 69
78 13 81 50 30 61 81 55 30
63 24 11 56 66 45 89 35 41
51 51 97 52 48 64 24 68 65
94 33 70 14 75 89 43 77 21
94 21 22 29 48 20 98 19 48
51 64 44 89 73 60 87 97 88
82 88 89 75 50 73 96 66 53
83 11 69 73 12 78 17 82 87
88 95 41 98 45 38 75 70 43
21 43 50 78 58 79 22 21 59
48 60 96 48 63 57 66 19 44
12 62 24 78 36 89 84 42 57
21 72 37 97 57 23 97 48 68
53 14 55 98 75 86 64 56 46
74 17 44 96 81 63 67 90 46
14 34 56 54 52 42 82 60 65
78 82 45 79 80 31 99 78 35
82 84 96 14 94 64 81 24 65
24 38 27 79 15 68 68 65 37
40 78 96 37 91 21 92 92 97
58 43 97 12 25 57 91 26 37
26 33 45 43 62 56 63 89 12
82 68 55 80 26 54 67 86 98
88 50 27 61 66 62 75 70 37
90 93 10 55 96 96 83 87 76
10 55 71 71 19 55 34 81 13
54 63 46 34 35 57 61 46 48
78 59 88 10 11 37 39 24 11
10 17 10 69 44 58 45 20 47
46 18 94 50 60 95 96 65 65
69 72 60 55 67 93 75 79 90
50 100 15 11 20 98 24 75 53
1.01982
0.484762
1.67253
0.701736
0.812676
0.5291
1.83831
1.49409
0.88357
0.456754
1.91735
1.23556
0.835205
1.34967
1.06798
1.18526
1.85356
0.753877
1.85965
0.804979
1.14907
1.56906
1.44377
1.71016
0.505907
1.80798
0.751486
0.450645
0.826432
0.846331
1.43978
0.805614
0.968078
1.97955
0.832231
1.81415
1.63106
1.07143
1.58465
1.53667
1.34457
1.82606
0.743588
0.718761
0.502957
1.49726
1.81825
1.75008
1.95428
1.07772
1.898
1.19642
0.864467
1.22626
1.91295
0.775118
1.94815
1.023
1.5616
0.621309
207 80
11 217
253 66
375 182
473 433
209 6
151 174
390 363
372 456
299 21
18 229
9 464
133 420
352 179
319 477
182 406
271 173
240 45
153 287
271 299
496 315
98 80
447 399
192 448
103 347
248 77
459 468
436 268
451 489
401 435
18 75
120 245
124 403
63 124
348 298
366 19
168 166
159 455
272 103
272 437
457 145
172 300
372 374
369 422
133 291
16 229
491 103
215 302
247 110
157 242
85 307
183 148
49 147
287 276
395 422
138 180
146 333
234 221
346 168
230 16
16290
1
