60
7
0 0 0 0 0 0 0
73 86 72 69 16 23 64
39 24 26 72 35 43 60
20 29 31 97 88 20 73
51 79 58 48 19 80 78
49 77 16 21 24 42 12
61 32 20 60 91 78 28
55 80 65 40 96 46 80
70 63 52 13 90 52 73
86 81 42 25 78 35 77
19 66 83 16 40 11 53
64 51 27 17 60 71 24
76 26 79 49 93 83 30
41 74 20 96 57 59 72
57 51 73 62 10 32 75
17 47 57 90 13 96 70
48 98 11 26 41 96 43
50 39 26 55 98 78 61
85 17 74 63 49 10 44
58 35 88 53 18 39 18
50 96 75 72 62 100 93
31 32 67 50 27 13 33
14 67 50 21 59 67 51
93 63 33 37 34 65 25
87 80 47 22 77 91 77
57 89 54 11 85 16 40
65 52 20 61 60 98 58
28 100 18 76 76 15 29
37 51 71 30 88 30 23
29 21 33 73 37 18 84
94 97 66 66 14 56 81
26 50 21 85 57 84 15
17 73 40 83 100 43 38
71 97 74 24 31 35 100
29 32 74 96 21 51 54
53 83 10 45 55 76 19
72 90 33 19 99 71 37
13 91 69 42 44 44 35
57 43 66 37 42 47 27
85 13 22 25 57 10 93
38 81 43 52 37 35 56
37 92 52 59 95 51 20
48 35 78 80 34 23 49
58 23 84 70 64 58 21
74 12 68 24 24 97 24
25 99 31 41 21 84 86
62 69 60 18 30 45 62
16 45 97 77 42 56 43
88 45 35 34 62 23 28
87 72 60 11 10 74 14
53 77 96 94 40 56 40
24 42 23 69 99 62 53
38 14 90 14 20 18 13
28 87 96 99 52 56 91
28 58 91 70 71 91 44
82 56 100 21 71 37 48
100 75 31 95 19 73 69
53 42 41 97 92 62 22
52 93 48 90 65 93 57
48 51 84 13 15 64 77
1.52829
1.51322
0.792859
0.426546
1.95154
1.36984
1.52278
0.747092
0.540161
1.33265
1.05614
0.570855
1.12066
1.57349
0.955808
0.406552
1.49061
0.900036
1.72451
0.760383
1.23793
1.98172
1.41881
0.643371
1.86327
0.768907
1.54974
1.88942
1.40756
0.545945
1.12471
1.09714
1.78187
0.752461
0.791308
0.563784
0.620287
1.9574
0.877115
0.573437
1.67605
0.853656
0.528985
0.478862
1.34506
0.431448
0.543436
1.61786
0.487773
1.53031
1.38838
1.1024
1.70402
1.85353
1.34909
0.521459
0.427138
1.72274
1.2884
0.409592
90 137
349 56
205 205
183 68
141 406
0 413
46 16
492 366
72 301
125 178
109 55
37 64
430 52
148 424
266 309
208 65
478 140
255 52
471 129
238 55
351 296
393 424
341 50
154 313
63 409
67 471
327 272
279 223
382 435
197 483
87 274
176 159
342 250
436 303
404 422
293 36
468 282
131 430
120 207
114 409
254 312
157 115
265 1
65 23
462 118
477 401
403 314
372 38
115 418
121 471
264 269
55 379
327 366
304 57
474 83
67 488
417 189
290 129
397 229
232 113
3157
5
