60
3
0 0 0
80 61 78
85 74 100
34 36 49
94 25 36
36 85 42
94 74 80
88 39 48
35 71 85
49 97 63
35 53 68
97 93 22
30 80 41
43 60 43
12 27 22
39 72 86
78 28 81
15 14 45
41 73 74
29 32 52
46 67 18
54 84 49
41 75 41
90 77 32
27 51 13
100 78 58
28 15 11
14 80 13
10 69 48
97 22 66
24 46 96
23 74 89
45 51 14
92 62 41
23 80 45
75 65 52
50 20 26
25 92 64
78 33 53
76 52 98
62 85 67
89 15 86
82 95 70
53 41 51
72 90 33
98 54 64
23 19 56
91 90 70
13 80 79
66 54 15
81 88 40
41 33 53
57 45 25
90 89 89
27 66 69
30 15 14
87 81 13
87 54 88
18 73 71
79 13 57
0.462614
0.321506
0.415478
0.375396
0.49963
0.444658
0.290003
0.463727
0.319746
0.321386
0.416107
0.498294
0.139744
0.423759
0.323801
0.13993
0.480542
0.153948
0.451908
0.408895
0.306338
0.127548
0.220667
0.124025
0.337015
0.195807
0.180994
0.211153
0.150342
0.487031
0.37475
0.18696
0.174266
0.394493
0.12719
0.192562
0.335684
0.4894
0.426821
0.142881
0.427798
0.224659
0.228955
0.323681
0.46228
0.270922
0.220448
0.122852
0.132538
0.226387
0.331563
0.322495
0.468146
0.151839
0.459792
0.48789
0.170091
0.406115
0.40231
0.317977
413 313
70 252
155 434
464 38
170 269
341 450
215 34
344 384
135 291
192 454
421 27
247 30
246 166
396 377
206 98
216 3
381 34
255 334
83 396
70 317
359 98
295 222
262 431
164 71
237 125
239 110
288 94
44 387
73 229
423 164
476 228
487 404
226 244
152 269
224 12
245 393
68 100
388 54
19 338
177 346
141 465
60 455
386 18
279 35
189 443
238 234
375 92
206 176
207 155
393 259
315 148
190 430
189 111
157 339
478 178
131 52
401 50
306 57
98 324
129 201
4123.75
4
