60
7
0 0 0 0 0 0 0
79 94 85 31 39 51 19
40 15 96 35 11 98 23
36 25 65 12 40 90 76
51 88 46 20 57 17 51
35 59 94 64 46 90 19
44 96 52 74 88 55 20
47 23 63 79 20 20 77
49 99 46 65 90 65 50
89 29 65 84 59 58 11
49 99 89 34 63 20 39
90 36 61 52 63 58 85
91 30 66 41 98 74 51
31 14 73 72 85 82 96
92 22 21 15 74 66 47
44 99 55 23 48 68 74
17 52 88 97 97 32 65
73 61 43 63 78 94 48
91 75 49 82 68 10 46
40 89 32 33 56 62 78
58 23 16 26 83 14 72
13 94 95 76 95 98 86
94 97 31 61 20 88 24
10 52 18 83 55 65 33
73 34 56 28 82 83 14
33 76 81 56 30 17 86
90 10 72 21 13 57 89
57 23 45 79 13 60 23
28 26 99 41 30 38 51
30 98 67 47 28 99 53
90 31 80 35 93 13 40
28 66 27 91 97 87 62
50 50 18 12 11 86 13
12 28 11 54 55 27 86
27 26 29 60 95 85 88
74 88 18 25 65 48 48
71 84 88 30 21 88 12
64 31 47 93 56 17 12
33 31 71 29 97 29 54
78 95 17 50 15 18 28
87 81 16 53 31 15 50
99 88 75 78 72 49 19
80 48 10 61 47 29 48
54 71 16 57 63 92 14
42 66 76 60 19 54 19
99 22 51 50 55 53 78
72 16 84 31 54 13 65
13 32 69 34 91 12 26
92 16 86 19 82 93 97
39 30 45 19 67 19 100
98 57 33 28 22 43 78
81 65 31 80 45 28 78
29 33 56 16 94 17 23
23 11 46 69 97 50 94
26 21 17 63 83 17 76
38 63 59 80 67 64 77
95 35 86 99 45 94 84
51 11 23 13 48 86 36
38 47 27 98 65 57 43
73 13 44 72 94 54 27
0.301248
0.415845
0.47904
0.570548
0.40954
0.840065
0.84922
0.38603
0.935917
0.731826
0.923968
0.728973
0.392409
0.440259
0.304045
0.829956
0.605667
0.883294
0.520752
0.275831
0.370822
0.475079
0.994156
0.830863
0.368173
0.760863
0.604081
0.73576
0.734714
0.853497
0.20374
0.567439
0.400708
0.432916
0.294404
0.759936
0.571962
0.82966
0.812571
0.512788
0.550588
0.315359
0.312548
0.26019
0.334764
0.341949
0.957949
0.994986
0.807366
0.868226
0.934759
0.686015
0.717414
0.891718
0.528517
0.862819
0.214317
0.836195
0.312417
0.579567
169 231
186 380
464 110
108 362
41 464
140 500
410 475
461 441
494 225
308 496
107 140
483 253
440 220
357 225
463 281
410 287
2 470
423 144
456 225
313 462
413 157
397 243
224 228
140 433
288 137
164 348
210 337
153 456
116 175
178 339
321 197
77 94
260 192
298 78
491 155
284 264
198 181
188 472
149 212
495 296
242 261
449 117
4 76
233 302
385 278
468 22
439 144
172 158
161 80
85 239
335 392
37 222
257 378
93 440
208 415
114 166
230 45
76 349
351 469
238 385
3967.5
4
