60
5
0 0 0 0 0
33 54 90 71 66
82 59 71 23 24
21 74 75 78 95
25 89 65 23 26
52 93 56 32 82
68 84 64 30 81
85 79 67 75 20
92 78 15 58 44
69 57 92 39 40
27 24 54 86 49
19 47 21 87 96
73 82 93 53 93
68 16 25 43 30
67 34 63 13 63
71 85 25 46 73
46 80 54 19 57
10 83 100 57 96
41 65 75 64 82
74 17 98 34 71
45 30 54 76 34
45 46 76 41 79
52 49 27 78 56
58 10 48 37 85
53 82 13 20 91
14 26 87 81 27
32 13 19 30 39
52 41 91 56 94
80 21 30 22 31
47 61 34 26 90
28 11 27 75 44
95 13 100 68 96
56 10 89 19 33
94 75 75 66 50
37 91 97 61 97
28 34 70 91 100
67 74 45 96 91
54 24 52 22 54
85 56 91 44 24
62 38 90 78 18
16 92 72 60 16
88 51 40 59 41
21 18 23 61 17
78 17 54 71 53
50 27 16 79 91
30 59 71 73 39
29 70 56 88 47
38 46 24 39 35
67 25 75 40 46
56 53 66 57 72
74 30 77 70 72
43 11 18 56 89
81 67 38 90 16
79 91 15 94 82
26 73 43 18 34
21 67 20 13 49
57 43 17 96 13
21 18 59 15 100
16 35 29 25 70
14 80 33 87 86
1.35414
2.04978
0.858691
2.25422
1.27536
2.36494
1.3242
2.47303
1.51325
1.85316
1.64917
2.30691
1.85229
1.17061
1.66586
1.01923
0.82401
1.51591
1.93299
1.99712
2.03406
1.9745
1.79529
1.00946
0.707355
1.51844
1.8836
1.62002
1.69195
0.602222
2.16941
1.89564
2.11264
2.09029
1.28277
1.48371
1.70296
0.99661
0.502094
1.24431
2.27232
0.865081
2.10913
1.01576
2.01241
2.32556
2.4291
2.3499
1.29411
2.12965
1.73563
0.577264
1.68965
0.511924
1.43655
2.105
0.624579
1.13936
0.672283
0.907817
257 499
243 255
441 249
422 62
197 110
478 162
363 431
465 325
366 467
287 483
5 383
126 342
369 174
216 122
189 332
35 436
37 229
69 102
153 448
224 299
114 409
160 470
233 469
199 341
348 273
35 420
280 218
328 143
235 2
419 179
292 182
245 22
2 123
143 193
219 202
136 138
338 472
276 281
148 216
231 485
472 199
131 438
117 330
0 259
412 6
55 138
343 483
288 172
492 119
213 182
71 117
38 363
150 455
120 215
453 403
71 415
154 442
474 408
166 96
231 487
3987.5
4
