60
9
0 0 0 0 0 0 0 0 0
74 91 75 79 67 30 82 77 83
14 99 47 91 42 93 44 15 80
42 75 43 58 90 100 22 98 48
78 25 76 69 10 82 23 14 47
74 32 73 53 90 29 84 63 34
59 82 36 36 23 43 65 100 86
33 79 25 27 67 84 96 44 19
52 56 77 17 31 30 89 28 26
40 94 51 71 13 80 55 77 24
82 68 68 41 47 82 42 65 15
66 71 32 77 11 47 68 65 89
82 34 64 33 72 67 19 79 37
98 70 100 30 100 51 99 41 53
48 59 30 74 68 11 71 64 44
26 60 83 100 27 16 26 96 14
10 47 55 13 59 98 77 82 47
58 42 75 95 97 79 67 45 15
50 12 49 54 50 81 31 12 39
46 100 30 30 31 56 64 10 41
33 92 27 89 25 57 39 74 96
64 52 35 61 69 61 17 12 30
29 20 24 84 88 86 89 32 18
54 44 100 99 69 42 67 37 89
47 41 68 51 52 87 54 23 45
12 29 44 47 100 65 22 56 69
51 57 44 20 63 51 12 59 13
28 60 62 53 63 95 31 21 85
30 87 81 91 10 48 100 16 97
45 48 27 22 23 22 33 56 68
27 12 36 48 77 65 83 29 25
42 68 76 59 72 10 26 89 15
63 28 68 46 52 90 10 84 46
60 46 82 58 56 27 12 38 77
38 47 75 46 58 63 59 74 46
71 74 17 99 84 93 42 75 12
32 86 47 96 74 13 23 40 28
82 59 92 32 24 42 83 33 65
12 11 42 66 57 73 64 45 69
83 15 26 23 46 32 66 49 82
70 19 23 57 44 50 28 27 97
78 70 31 28 97 15 70 39 84
66 20 78 32 91 87 33 45 67
81 29 35 27 87 20 31 95 70
18 87 14 71 27 29 41 95 35
67 11 30 81 33 21 51 99 77
52 36 54 85 84 62 50 73 66
26 96 22 91 86 98 57 78 78
38 35 26 47 56 21 38 56 16
54 96 97 11 92 30 16 37 77
55 38 77 20 81 73 61 51 84
17 66 62 100 53 79 77 89 50
84 50 46 44 23 55 38 49 99
90 92 85 60 18 98 17 53 67
62 20 43 33 56 55 31 52 58
53 73 92 12 53 14 100 10 58
34 99 23 48 92 95 71 92 94
62 59 22 66 17 24 86 32 23
89 94 71 19 73 84 89 72 36
35 79 88 73 100 16 29 78 16
1.26794
0.916373
1.29796
1.22557
1.00839
0.771495
0.46338
0.374146
1.10967
1.1378
1.34452
0.487336
0.565985
0.736291
1.42369
1.33043
1.13857
1.45191
0.335194
1.40869
0.807841
1.05197
1.29865
0.939697
0.880321
1.19563
0.693141
0.42465
1.35319
1.27779
0.746311
1.49833
1.04419
1.04742
0.835436
0.596329
0.53332
0.423901
0.355533
0.430382
0.420835
0.390165
0.85724
1.14372
1.04795
1.35962
1.27774
1.3487
0.350109
0.813467
1.39946
0.776533
1.26798
0.517021
0.770501
0.469648
0.809849
0.370474
0.735493
1.32485
34 489
449 145
274 323
350 447
85 155
304 5
365 171
20 151
323 428
168 430
240 313
244 132
320 465
176 485
70 107
318 300
406 87
290 188
462 368
409 227
46 298
121 27
111 249
222 44
217 330
6 59
469 352
485 286
141 370
210 98
347 384
310 363
67 392
263 450
21 409
95 152
453 120
102 195
52 455
122 314
55 178
229 417
435 88
20 414
45 319
289 433
55 31
242 254
122 233
471 462
158 306
215 155
367 191
56 266
269 195
104 347
151 379
37 255
180 125
270 177
5376.67
3
