60
11
0 0 0 0 0 0 0 0 0 0 0
27 77 21 12 31 49 11 73 74 11 81
61 94 79 41 60 97 35 37 67 85 93
40 34 18 58 32 45 73 43 69 61 13
94 34 88 76 45 66 31 35 47 84 54
83 27 80 76 29 11 83 62 64 78 22
68 52 71 61 99 75 44 93 93 79 64
94 20 66 63 84 86 81 58 18 70 81
96 17 96 66 38 76 89 41 68 41 31
43 10 93 48 61 91 30 52 75 21 82
62 55 41 11 65 21 24 20 95 43 43
32 19 54 83 20 69 23 78 100 58 80
44 11 42 35 49 58 81 64 19 69 87
48 70 36 89 80 50 24 31 69 86 52
35 86 27 18 84 73 50 53 100 78 64
36 69 45 36 12 72 82 81 65 79 92
21 77 84 39 85 58 68 95 64 16 23
97 93 43 20 79 36 36 30 12 43 97
36 30 58 16 12 64 99 28 56 12 61
29 16 50 95 45 76 51 17 87 97 42
68 60 41 95 20 100 100 11 23 87 47
77 32 52 31 83 59 99 11 33 75 72
40 10 49 90 35 87 64 55 29 65 75
83 15 31 94 85 73 18 13 64 93 70
40 25 93 64 40 22 73 48 72 89 91
57 49 32 21 35 27 92 28 59 15 57
60 64 17 91 98 16 94 62 98 69 88
49 88 30 86 55 94 27 85 82 25 23
35 36 42 37 13 28 100 52 52 47 52
69 56 56 60 43 21 97 52 44 23 89
27 41 99 94 67 43 22 86 83 37 84
99 48 60 39 80 58 58 81 54 20 49
11 29 17 62 18 38 25 34 18 78 91
33 99 48 28 99 19 96 75 79 52 43
65 53 41 45 78 94 43 70 51 21 15
74 30 61 59 90 11 93 66 28 86 84
83 42 47 74 32 73 36 85 16 69 46
86 97 89 26 70 48 83 68 73 26 71
44 57 22 14 91 26 40 47 25 31 23
48 74 45 82 13 45 77 88 42 66 63
47 94 48 76 35 17 34 61 49 48 88
40 93 78 97 92 53 16 30 99 36 94
74 94 63 75 53 74 58 70 35 98 53
27 95 79 91 46 50 20 22 21 58 47
57 93 70 19 65 19 20 94 65 67 31
42 13 69 21 36 50 83 47 90 76 77
64 40 54 60 80 17 17 59 99 63 30
75 35 61 95 67 95 38 36 87 65 17
57 46 34 19 70 85 30 36 32 64 99
76 70 82 66 51 73 98 38 49 75 87
30 34 85 67 72 75 73 52 81 61 67
30 52 76 19 88 80 75 76 99 52 81
65 60 25 66 43 57 91 89 58 57 72
94 72 95 65 97 18 69 46 32 40 72
80 85 83 40 49 100 67 53 49 58 77
84 10 56 53 72 14 24 10 57 34 24
15 31 64 45 80 72 43 21 77 64 13
12 33 91 42 60 40 63 59 77 85 53
76 89 70 28 74 11 99 60 92 53 65
22 99 81 21 24 56 84 91 68 92 100
1.50191
1.59809
1.12327
1.54569
1.05683
1.77245
1.92119
1.41833
1.26448
1.90441
0.481392
0.620658
1.41843
1.04681
1.16545
0.447417
0.781549
1.9208
0.568021
0.920152
0.730884
1.37699
1.16798
1.43109
1.70695
1.1613
0.904512
1.36617
1.68972
1.45945
1.83887
0.456058
1.75073
0.936572
0.686493
1.16207
0.910749
1.0743
1.82647
1.8745
1.22233
1.05131
1.118
0.492641
1.73788
1.37424
1.61944
1.24591
0.801113
0.949108
1.18406
0.468493
0.402549
0.608904
0.888137
1.44844
1.31878
1.4302
1.16547
0.932757
294 288
488 231
305 324
298 192
82 445
152 173
226 267
231 482
203 401
247 141
424 342
473 295
131 212
190 474
465 124
332 234
125 470
195 388
383 398
312 303
226 155
471 15
5 69
360 474
43 270
159 270
16 350
75 277
320 59
251 315
341 3
235 66
25 219
349 439
310 31
353 157
22 207
182 215
173 264
343 469
202 403
369 285
333 464
226 341
255 276
262 68
105 305
191 205
266 96
177 472
211 59
19 485
303 104
213 253
65 341
316 293
319 212
280 342
193 13
316 486
4193.75
4
