60
5
0 0 0 0 0
11 76 27 89 36
39 72 100 27 59
43 66 99 23 23
19 51 29 82 64
92 26 12 13 93
14 84 53 87 61
42 38 83 15 30
23 23 56 49 30
69 37 57 26 96
18 42 61 29 71
29 25 95 49 96
60 44 30 35 26
61 54 80 62 59
34 52 39 38 82
30 90 16 55 98
39 22 73 47 20
63 98 30 16 81
55 36 17 24 28
88 43 64 15 23
19 53 74 11 42
17 78 34 53 84
78 18 49 23 69
60 26 82 79 59
33 19 51 37 29
59 74 89 74 33
83 71 94 40 90
91 86 35 68 27
37 53 33 68 61
63 50 49 42 61
56 22 91 25 87
71 96 42 45 20
12 26 11 85 32
85 25 58 88 99
83 67 87 38 60
55 87 38 40 67
74 17 61 61 48
74 37 65 33 24
73 22 60 46 21
61 94 55 62 69
100 61 66 75 92
64 81 47 87 27
84 15 99 37 53
40 10 12 66 78
63 95 92 71 24
32 37 13 21 78
30 34 15 99 38
60 60 43 54 50
40 73 43 31 94
52 34 77 72 57
64 41 62 53 39
33 68 57 42 60
43 77 27 54 87
57 74 90 69 84
66 13 67 25 15
46 71 24 52 92
49 66 30 89 19
95 64 86 87 72
20 97 94 70 56
67 15 49 43 78
0.447499
0.235693
0.100101
0.438683
0.234641
0.476684
0.214315
0.401594
0.316383
0.143555
0.371406
0.388705
0.215249
0.221622
0.477846
0.342658
0.259503
0.495592
0.356786
0.345517
0.290486
0.175551
0.242095
0.139718
0.117993
0.470967
0.298548
0.202037
0.107021
0.477041
0.175337
0.275479
0.348474
0.320847
0.188173
0.499083
0.426465
0.295774
0.344731
0.26275
0.378482
0.279184
0.220925
0.307588
0.148986
0.251952
0.318637
0.111088
0.372171
0.348361
0.33407
0.408789
0.332369
0.418248
0.141916
0.292706
0.103582
0.373154
0.380837
0.317593
203 457
405 384
32 171
48 371
76 318
326 96
311 67
200 175
330 225
321 450
422 447
46 337
257 8
215 62
408 36
18 63
411 498
436 302
301 444
74 271
64 225
212 174
365 161
164 111
137 156
85 364
175 500
497 303
257 273
417 351
422 253
102 450
100 64
416 301
45 300
49 429
450 275
215 147
472 151
492 203
40 128
280 77
32 171
127 40
269 212
198 116
110 290
333 410
70 154
88 293
22 423
140 128
37 288
158 490
216 296
138 244
79 371
56 310
342 216
182 459
15820
1
