60
5
0 0 0 0 0
60 77 85 16 31
65 17 23 77 38
92 14 91 77 82
34 12 58 63 93
89 55 71 61 63
85 89 25 27 81
96 100 97 72 49
34 88 42 22 37
14 88 75 78 30
24 78 56 70 88
20 42 19 36 28
63 14 38 98 96
68 18 35 68 50
45 21 58 81 11
93 20 80 14 11
74 89 90 99 74
89 50 36 67 16
97 79 52 26 90
31 32 94 30 96
29 11 99 77 32
29 99 94 100 65
99 63 12 11 100
67 38 45 99 29
39 54 30 69 54
70 73 100 91 55
61 55 50 19 25
84 35 44 18 74
19 93 15 42 68
12 28 83 63 86
14 86 95 30 97
49 54 25 21 97
18 15 44 87 68
18 92 76 99 66
78 19 85 92 97
68 37 80 67 17
100 62 60 61 100
11 38 13 25 18
24 100 73 15 53
47 72 89 26 56
28 25 64 49 43
17 43 12 67 41
28 81 24 83 39
41 49 46 14 49
84 69 22 99 81
85 38 84 33 15
16 45 71 72 43
89 74 86 90 59
17 42 55 77 73
92 26 42 48 61
58 71 14 70 92
93 16 60 20 60
47 78 14 43 42
46 82 28 39 46
92 60 58 91 24
51 48 45 17 34
50 54 33 39 29
24 70 65 98 35
67 19 28 98 66
18 67 52 15 80
1.91279
1.28776
0.808935
0.424978
1.11823
1.42007
0.781221
1.93648
1.58446
1.96496
1.68839
1.84678
1.16424
0.566255
1.8004
1.92624
0.984893
1.57845
0.840334
0.401386
0.488843
0.497664
1.20145
0.808599
1.99834
1.48354
0.490653
0.404845
0.739858
0.911919
0.485867
0.753834
1.01142
1.04643
1.16283
1.67316
0.871069
1.46912
1.17774
1.63429
0.462729
1.82083
1.08289
0.857996
1.1126
0.489891
1.83375
1.83333
1.20641
1.14738
0.665357
1.54213
1.83461
0.65555
1.53944
0.55769
0.499089
0.51647
1.17444
1.17932
286 116
260 197
187 256
473 220
307 219
66 196
101 116
323 115
42 39
105 462
292 90
13 7
210 235
432 380
59 393
399 99
195 62
440 488
263 295
467 46
208 338
478 265
117 375
293 313
223 499
114 284
278 37
494 192
218 407
195 321
290 422
105 40
223 407
395 46
341 446
215 269
37 228
477 348
354 389
150 114
267 458
101 467
104 273
18 16
444 72
328 293
422 494
135 400
30 301
1 142
188 313
321 108
50 476
54 141
404 133
65 387
257 421
301 126
479 12
470 199
5415
3
