60
11
0 0 0 0 0 0 0 0 0 0 0
67 33 30 25 22 36 48 48 39 70 80
16 84 71 35 93 18 76 58 32 54 42
16 16 71 29 24 92 41 17 30 34 37
38 65 65 40 39 46 69 28 25 40 83
61 13 47 48 80 95 90 18 29 89 40
34 21 49 43 79 61 93 20 74 99 33
78 66 42 69 65 61 41 26 61 92 75
54 46 58 55 95 30 17 98 22 63 40
10 96 22 77 10 40 81 78 54 21 99
79 72 32 68 61 35 90 13 42 32 40
35 87 68 60 99 10 56 34 66 63 63
50 22 96 51 24 65 40 100 81 11 71
28 36 96 31 85 41 91 80 73 59 61
44 89 15 38 36 84 12 72 16 62 47
31 16 16 18 19 64 39 61 12 98 95
11 29 42 71 74 54 68 94 66 14 96
32 81 42 55 55 17 98 94 74 99 76
17 48 72 10 87 99 36 78 27 82 48
12 86 37 99 21 29 22 88 99 67 35
26 34 93 13 55 95 16 48 43 76 31
10 83 11 79 70 15 73 65 68 86 93
46 25 59 21 19 14 77 12 53 67 65
77 37 28 54 25 98 39 68 86 89 80
84 11 41 58 29 13 45 20 94 24 73
38 99 93 14 87 98 52 45 90 84 61
46 85 63 87 12 50 88 34 64 23 42
95 90 65 95 98 75 43 29 11 17 66
45 22 48 100 18 81 87 41 13 75 56
98 61 68 82 47 28 37 25 93 85 10
31 78 87 34 50 92 49 25 18 20 51
28 72 86 71 22 17 42 54 65 85 14
27 85 72 35 66 11 30 22 81 61 68
47 49 10 49 13 28 53 11 65 27 43
93 87 37 98 35 67 36 98 53 91 38
36 91 52 45 61 48 28 42 37 51 74
98 35 99 36 79 96 79 88 65 10 83
95 75 39 56 32 46 100 14 85 58 45
76 13 70 30 78 74 24 59 66 31 80
33 24 34 90 98 74 71 84 48 89 77
26 96 33 50 48 72 17 41 31 48 76
18 21 94 53 55 88 97 18 40 10 15
53 94 91 36 94 54 97 68 89 58 47
47 74 64 66 89 41 12 80 38 11 89
60 34 30 31 58 80 45 74 54 38 98
22 66 65 78 95 92 17 91 76 78 97
37 20 85 62 61 52 64 88 17 41 46
60 82 68 73 82 35 48 78 65 27 71
12 96 38 63 85 63 63 91 28 15 55
62 63 11 61 11 92 18 31 67 71 79
30 97 53 28 58 92 47 34 46 76 70
32 50 18 22 51 50 42 94 31 84 43
39 58 17 64 17 93 92 91 73 71 58
63 73 27 69 55 82 91 37 100 52 95
29 59 70 79 32 29 46 79 68 100 25
98 74 62 19 41 50 33 61 68 11 86
85 80 81 23 67 15 18 61 29 71 80
61 23 25 48 46 29 81 46 70 61 95
90 94 28 56 72 42 15 54 54 92 83
38 79 11 74 81 41 85 15 98 83 17
0.491536
0.697325
0.413291
1.39168
0.656176
0.455445
0.781941
1.05486
0.628904
0.775621
1.36721
0.652783
0.950447
0.474846
0.794011
0.726699
1.43574
1.38679
0.78882
1.1509
1.44558
1.37131
1.38218
1.23055
1.00468
0.675955
0.965327
1.07066
0.953874
0.338555
0.624934
1.44908
0.49135
1.44666
1.24755
1.49951
0.561099
1.07887
0.579954
1.33349
0.938797
0.42471
1.28366
0.534843
1.00438
0.898051
1.05894
1.3833
1.13058
1.45054
0.329498
0.435793
0.402912
1.06254
1.16281
1.30743
1.47392
1.42598
1.26639
0.487645
455 221
44 254
28 54
20 285
234 86
95 200
253 384
165 230
285 487
140 265
91 66
438 479
416 170
166 115
118 266
3 259
104 208
123 473
228 132
286 416
432 106
66 442
244 394
17 266
68 470
296 422
422 464
373 477
51 488
20 320
159 132
57 497
193 370
440 293
201 458
39 139
106 251
55 134
224 249
456 30
385 480
200 81
102 213
177 416
230 170
186 212
429 484
20 440
300 320
159 432
374 335
85 476
167 254
214 283
55 233
292 14
381 281
173 201
295 61
461 188
4066.25
4
