60
9
0 0 0 0 0 0 0 0 0
76 78 66 19 57 81 86 21 81
83 16 13 65 32 65 11 47 13
10 10 69 43 46 34 15 47 52
91 99 35 10 20 62 36 17 40
100 50 67 41 76 71 23 85 75
95 74 13 10 43 36 26 36 84
18 49 64 17 58 89 12 32 84
24 35 25 35 83 82 17 13 15
72 85 49 16 48 68 31 80 21
95 93 10 63 15 23 52 51 11
99 17 56 65 38 72 16 68 69
99 58 45 51 22 64 65 60 74
28 81 59 96 59 91 74 71 21
46 63 31 65 59 58 100 37 33
70 27 30 44 94 20 95 61 33
21 19 29 56 69 80 87 38 67
63 45 10 13 54 10 62 62 53
15 55 69 31 39 15 59 34 28
70 76 43 59 74 71 72 81 35
34 51 18 57 66 68 23 43 18
96 20 31 52 22 39 98 82 76
33 82 40 74 83 49 44 94 90
33 53 78 39 66 89 54 76 40
70 22 99 44 39 90 66 85 72
93 96 69 67 27 87 86 19 96
81 70 36 53 55 56 51 47 63
14 37 65 26 23 90 78 41 39
69 80 21 17 45 98 63 77 69
37 45 96 79 15 71 39 34 30
90 62 47 53 93 16 59 35 100
77 24 28 48 34 48 85 92 22
41 34 92 26 11 23 63 84 13
51 82 44 69 56 86 33 65 30
77 31 60 34 83 53 19 71 66
82 96 56 30 64 41 91 39 15
79 81 40 54 66 64 85 72 68
88 41 54 77 44 94 84 61 80
92 66 53 48 21 54 54 74 62
95 24 67 13 57 21 24 54 54
12 25 62 29 97 45 16 56 80
71 31 42 94 90 69 61 55 28
27 28 42 56 87 95 86 51 10
24 14 86 78 64 13 47 49 28
64 64 94 53 82 57 100 57 25
45 52 40 100 20 41 22 60 58
66 21 87 36 31 80 84 11 38
47 85 30 48 41 11 18 90 52
63 24 29 84 58 46 89 35 54
94 100 58 88 69 60 60 86 68
40 99 70 50 72 96 84 70 73
23 83 65 46 76 70 12 10 59
98 36 79 36 84 65 43 48 10
92 33 24 22 50 39 53 26 93
52 26 64 87 93 73 11 45 62
88 82 64 15 37 37 71 62 53
100 65 49 59 26 89 62 44 72
85 20 18 31 69 49 96 89 99
19 12 56 22 29 43 64 44 49
79 18 83 43 54 53 54 26 15
0.386453
1.2093
0.528017
0.564072
0.639531
0.678837
0.490271
0.889484
1.08477
0.744783
1.07799
0.832532
0.4848
0.995645
0.802178
1.19959
1.31594
1.40308
0.583331
0.69246
1.11903
0.527325
0.563035
1.46498
0.573612
0.82385
0.863793
1.2212
1.36627
0.472437
0.51086
0.950176
0.624012
0.647858
0.316126
1.10071
1.10371
1.18997
1.12827
0.719867
0.842514
1.41931
0.551181
1.38007
1.11139
0.623966
0.698085
0.401651
0.593153
0.67414
1.3968
0.656184
0.317452
0.368829
0.729941
0.871517
0.573127
0.816333
1.43711
0.419471
26 205
414 134
455 451
273 149
287 470
168 145
170 142
360 158
69 119
341 168
304 30
392 90
90 200
303 473
436 280
99 409
359 110
242 288
91 260
380 255
475 425
475 313
386 315
484 255
476 93
122 112
140 341
200 296
331 89
295 214
477 241
382 187
408 128
86 205
95 96
277 292
379 402
348 41
414 168
175 336
378 100
145 168
309 452
367 278
66 79
239 178
439 24
61 311
415 177
49 294
352 437
299 410
394 68
168 96
468 67
85 64
401 396
158 142
123 388
248 314
5320
3
