60
11
0 0 0 0 0 0 0 0 0 0 0
21 60 73 13 75 44 57 82 79 82 92
65 19 24 18 19 74 41 37 50 38 59
72 27 18 86 88 40 70 45 23 14 70
45 92 58 60 45 42 13 24 19 36 82
99 19 74 73 47 100 36 98 93 95 72
46 60 36 64 56 72 26 81 71 86 18
11 95 76 26 31 46 74 14 93 40 99
10 30 12 22 66 68 77 68 47 90 17
66 20 17 93 58 14 98 91 52 70 12
49 24 85 100 55 27 27 78 97 59 20
27 71 86 61 79 16 45 63 65 89 12
53 100 98 31 67 49 51 83 61 20 12
38 57 58 77 70 75 93 72 42 93 90
98 80 79 13 76 23 39 36 58 25 92
16 89 79 90 91 90 67 44 97 39 56
65 98 54 20 68 33 77 91 37 76 44
47 98 36 65 32 49 22 89 51 45 70
64 96 40 76 99 88 48 95 95 53 24
57 21 56 11 64 74 90 72 17 24 53
93 48 89 70 15 43 33 48 63 98 90
74 83 54 14 89 88 91 29 56 83 81
59 31 42 75 93 44 37 70 20 66 20
15 59 56 34 77 74 89 70 16 98 72
38 32 65 27 30 41 44 35 94 17 58
96 88 19 20 59 73 76 43 34 89 50
89 34 85 24 43 89 76 58 54 55 88
79 25 31 12 70 72 71 28 18 47 54
43 92 50 40 27 67 71 12 60 94 53
69 29 14 61 10 96 44 53 49 82 48
13 27 62 76 26 24 64 34 25 33 15
56 93 55 23 58 42 29 23 18 50 40
16 59 82 60 24 27 34 65 79 17 62
35 64 40 16 60 32 65 74 47 13 99
71 71 21 39 25 94 47 23 96 34 43
14 31 37 43 18 52 83 66 96 87 28
73 76 57 80 11 53 15 72 74 24 33
33 42 94 85 68 18 66 11 58 60 38
55 26 19 50 85 30 36 52 70 30 86
40 28 32 69 85 86 90 81 47 11 46
41 52 84 74 86 82 15 79 76 32 25
100 27 13 76 86 15 74 75 99 18 47
29 53 29 94 72 89 83 45 77 96 41
100 52 35 10 22 23 98 66 59 59 49
74 72 55 81 52 21 68 68 87 62 94
29 55 77 34 30 50 94 62 97 14 36
70 93 21 63 36 76 88 32 26 73 73
54 97 59 98 69 53 29 92 17 16 64
92 97 95 63 91 17 74 89 71 19 79
67 48 58 83 12 30 18 74 81 48 48
14 52 14 51 55 86 96 30 28 74 15
46 87 27 44 54 10 86 88 95 71 12
99 43 80 100 78 95 61 74 96 28 99
93 79 46 66 63 84 57 26 43 64 56
13 39 14 11 41 37 66 52 92 56 79
16 38 40 46 90 63 55 93 44 20 39
70 37 11 14 31 27 51 37 30 35 94
69 71 81 53 88 45 82 62 92 66 53
30 38 42 46 17 66 92 54 52 79 94
60 74 13 18 58 32 57 29 43 72 44
0.211947
0.290813
0.621391
0.906572
0.777649
0.985406
0.695761
0.426099
0.987138
0.916321
0.556897
0.47359
0.362878
0.608836
0.908453
0.678854
0.917158
0.455308
0.534975
0.201091
0.20131
0.320635
0.871495
0.779113
0.74822
0.306686
0.860775
0.376766
0.364592
0.680519
0.948883
0.282323
0.280723
0.463296
0.669544
0.316052
0.305873
0.741971
0.769211
0.96753
0.691392
0.458733
0.93581
0.302903
0.55397
0.44593
0.755752
0.672329
0.751271
0.231799
0.251327
0.85233
0.498217
0.519136
0.368879
0.303092
0.273419
0.221048
0.365671
0.609916
495 482
165 455
229 293
44 200
59 67
311 159
289 427
33 426
357 191
208 497
329 49
447 190
425 221
74 492
379 114
464 54
440 97
385 330
254 28
244 135
135 428
174 72
420 315
256 394
99 200
181 350
182 358
242 391
486 243
321 89
60 89
64 213
445 313
232 420
357 429
157 260
292 21
255 439
341 359
48 310
459 498
451 25
102 52
18 330
487 281
303 423
431 269
115 374
101 140
465 329
259 207
382 412
16 43
437 111
444 144
67 193
117 204
92 15
73 106
246 173
8170
2
