60
5
0 0 0 0 0
43 65 77 93 87
74 82 81 94 32
78 67 11 61 85
99 27 39 48 70
82 78 37 70 47
88 92 85 21 14
98 96 100 33 38
38 79 12 91 64
60 91 52 18 95
76 20 96 41 15
56 50 36 74 33
25 16 14 85 89
33 50 35 20 26
23 25 74 62 36
15 16 59 75 32
80 36 14 58 10
73 37 91 98 98
27 87 58 24 72
26 29 84 58 38
82 12 37 78 88
46 38 36 58 91
78 61 84 35 56
69 60 37 68 70
76 62 26 93 45
62 29 22 22 42
22 49 57 17 100
80 30 61 58 39
43 44 54 75 86
59 75 22 42 68
12 58 53 43 14
61 72 96 78 36
79 43 21 90 29
97 99 82 15 54
48 49 30 65 80
36 77 11 48 38
33 74 30 20 28
77 94 20 15 88
21 71 75 15 71
61 66 50 53 37
21 40 50 97 92
19 17 18 24 45
32 56 83 32 14
46 59 19 80 41
71 61 41 60 96
57 91 87 77 29
95 48 68 52 74
87 86 92 86 16
44 85 68 87 39
96 97 57 99 20
58 33 29 100 74
85 65 33 44 83
78 61 88 30 38
51 38 10 97 73
82 32 30 96 12
82 28 100 32 76
33 56 76 82 60
62 53 61 24 58
42 41 75 11 51
56 60 44 12 75
1.59087
0.973042
1.82821
1.88821
0.482024
1.57729
1.22636
1.65008
1.81589
0.625703
1.75498
0.470462
0.589422
1.20536
0.717948
1.033
0.480794
1.99741
0.967475
0.573842
1.70907
1.50302
1.9024
0.585131
1.40858
0.69805
1.13223
1.5649
1.2363
0.49176
0.801618
0.915281
1.7883
1.88832
1.68869
1.75444
1.50788
1.43032
0.69435
1.66487
1.67232
0.747413
1.92258
0.639445
1.10557
1.17378
1.41441
1.4271
0.654341
1.5581
0.984453
1.19588
0.723925
1.13363
0.449393
1.50219
1.05654
1.65332
0.576595
1.9491
246 70
405 392
107 111
165 307
444 373
70 341
266 498
189 214
29 188
129 183
350 19
207 200
153 376
293 226
246 193
364 439
281 470
100 439
147 341
130 259
377 36
27 59
31 361
458 343
456 13
154 86
93 237
268 175
32 235
32 439
420 71
491 253
165 124
102 133
409 151
91 221
424 90
489 398
117 227
468 268
445 408
462 39
436 329
66 306
386 60
205 334
368 11
382 408
146 265
47 441
195 500
329 123
162 463
456 375
69 292
144 232
127 249
402 228
496 281
476 383
16375
1
