60
9
0 0 0 0 0 0 0 0 0
23 10 30 18 58 13 58 55 33
39 74 70 11 23 45 41 98 80
99 35 80 46 52 51 65 83 93
64 37 24 88 21 96 63 51 86
88 14 33 88 83 34 66 100 10
54 97 85 84 78 79 75 71 30
34 97 72 63 58 47 21 98 96
57 28 12 11 76 52 56 21 62
18 35 50 82 67 50 37 92 54
21 44 97 13 96 77 69 45 53
15 88 60 60 43 32 66 39 94
67 20 93 54 14 31 33 64 14
87 60 93 91 11 54 18 23 97
41 46 13 28 61 82 14 88 30
39 12 36 64 47 37 65 72 39
27 87 79 39 40 94 47 50 61
77 52 60 58 64 80 34 51 68
94 12 32 37 36 41 98 32 54
73 75 10 80 53 82 49 49 98
74 55 21 30 55 95 84 25 48
28 88 91 98 90 85 94 72 30
91 22 27 13 14 39 11 67 50
72 81 16 75 78 83 38 29 71
45 37 41 19 29 98 79 91 86
32 57 21 69 14 56 77 60 93
46 13 97 58 55 18 26 65 76
62 26 18 15 20 13 35 15 68
48 44 85 39 38 57 48 72 45
46 42 37 75 64 79 28 44 10
43 46 97 31 11 17 38 10 59
37 23 62 33 12 12 94 24 12
87 48 16 97 31 17 14 91 100
78 60 50 91 84 49 53 28 98
22 74 19 99 28 27 66 76 62
12 17 64 64 79 64 77 12 10
97 91 63 31 76 21 46 97 85
50 12 80 68 32 98 90 20 52
69 40 94 60 40 75 50 30 72
40 59 87 24 39 43 49 75 49
37 34 68 75 55 89 33 95 76
67 96 69 19 28 20 18 82 83
48 24 59 70 84 38 35 97 89
44 15 79 32 61 31 18 15 71
39 80 13 34 12 36 86 34 16
37 68 61 10 74 68 73 97 100
29 18 83 95 51 54 41 32 23
33 42 84 67 32 13 12 99 43
67 59 100 51 21 86 27 68 37
85 29 82 82 31 87 42 83 13
30 91 67 92 62 27 21 51 98
53 37 18 29 42 54 20 75 27
30 82 32 45 61 14 29 37 58
46 75 87 62 27 22 67 75 81
86 48 51 80 63 28 24 75 89
62 33 86 33 33 45 83 51 64
48 11 73 15 63 97 34 21 63
67 28 67 36 88 24 60 22 10
65 70 93 42 96 14 49 19 56
38 94 20 56 66 80 58 24 32
1.74588
1.14669
0.570063
0.941339
1.38372
1.5828
0.745376
0.981892
2.36259
1.46437
1.04943
2.4817
2.01695
1.50741
2.13933
1.83657
0.810815
1.92323
1.05998
1.44003
1.45113
0.823941
0.516621
0.979684
1.21064
0.883497
2.15702
1.80187
1.01962
1.56464
1.39362
0.784687
1.8926
1.32228
1.54511
2.18415
0.617248
2.4805
1.19117
1.95276
2.05161
1.95216
2.1823
1.97995
1.1375
2.18743
0.713072
1.64382
2.03763
0.607156
1.95656
1.0931
2.4006
1.88313
0.699944
0.929485
1.81876
0.580972
1.51693
1.30618
447 63
102 355
128 421
486 378
50 260
114 211
180 9
54 287
105 423
114 470
303 466
210 240
267 107
98 67
4 98
402 242
102 65
210 154
184 173
279 191
187 489
335 168
23 269
158 101
493 251
84 413
274 137
193 147
274 111
386 3
477 337
321 38
93 17
61 310
319 300
131 387
217 457
453 188
492 254
184 93
118 330
26 486
432 364
185 255
33 8
342 61
466 388
2 248
9 184
305 296
490 384
6 335
180 433
427 299
451 259
106 265
36 239
33 165
359 447
196 23
15665
1
