60
9
0 0 0 0 0 0 0 0 0
18 31 32 34 91 47 39 38 27
57 97 43 54 56 89 72 41 61
94 73 23 74 60 35 14 34 24
69 25 90 74 36 54 35 23 36
41 84 25 64 96 90 94 67 44
76 78 56 31 88 35 67 11 20
46 16 45 59 50 59 65 39 11
11 99 35 80 16 74 71 72 34
75 87 10 49 32 78 62 34 16
49 68 28 37 12 27 45 36 79
91 14 32 60 44 30 62 41 92
46 33 88 30 78 17 48 32 34
95 94 39 17 63 52 55 77 10
11 98 32 13 26 34 73 40 60
51 13 69 14 36 47 35 47 37
33 82 89 13 18 86 44 96 57
54 75 29 70 24 68 18 68 58
64 43 43 40 83 68 41 68 66
60 65 59 73 82 31 79 64 59
31 81 37 25 41 40 37 60 73
36 16 87 80 93 50 30 23 54
61 41 45 91 81 78 60 34 73
90 29 37 97 47 57 60 15 63
11 53 12 65 85 85 92 75 78
13 85 92 26 51 81 92 37 33
98 63 77 95 89 93 23 60 44
79 61 93 56 28 32 34 78 27
26 76 60 98 19 77 58 60 45
78 99 100 56 75 33 94 93 40
42 86 64 39 53 83 25 56 36
77 34 47 31 51 37 71 99 43
47 65 34 36 74 15 39 41 91
47 99 60 36 91 97 75 70 14
30 87 21 86 54 10 49 43 11
77 99 95 24 80 42 77 71 12
25 32 81 69 31 100 61 40 41
92 95 55 34 95 68 76 62 93
92 70 30 100 96 90 34 27 80
31 34 93 35 80 13 30 17 100
44 16 79 50 59 50 39 25 51
10 18 91 15 72 76 90 99 80
86 21 41 79 25 21 99 82 100
97 89 58 94 89 87 66 68 68
49 43 35 88 12 65 39 69 49
11 84 69 13 52 37 37 56 21
47 77 41 69 97 87 67 28 42
65 11 92 15 21 97 48 11 22
48 79 96 100 73 88 81 80 20
23 78 68 100 25 37 54 50 24
14 15 96 21 29 26 37 49 72
74 52 37 31 34 95 67 87 26
69 34 49 81 51 69 82 50 22
59 37 37 54 63 90 33 53 95
22 75 81 39 37 60 80 55 38
91 71 74 36 57 38 80 74 27
99 84 44 19 62 97 22 72 52
25 52 81 18 30 85 43 13 16
100 84 29 90 94 62 74 65 34
92 18 53 84 59 11 20 36 35
0.560342
1.26655
2.03178
0.896464
1.47114
1.53091
2.32522
0.846604
0.918053
1.34373
0.604788
2.32089
1.51072
2.08828
0.705781
2.02902
2.38582
1.07855
0.719879
1.07347
1.57733
1.13208
1.812
0.726798
1.00199
2.29387
0.623687
2.2356
0.598063
2.29054
1.95643
0.887482
1.2322
2.38001
1.34318
2.34247
1.81957
1.33562
0.655374
2.44068
1.58089
1.90597
1.29612
1.96442
1.16114
1.00505
1.49178
2.46384
1.38232
0.883682
2.00371
0.909301
1.21966
1.01455
0.757209
1.83495
0.967567
1.25153
2.13535
1.01034
355 334
415 132
361 404
453 328
75 289
308 435
113 317
491 143
453 292
270 18
395 161
117 92
400 377
128 291
116 190
210 420
175 356
203 293
154 11
388 424
47 336
268 441
36 10
87 211
402 140
157 192
76 52
157 473
419 229
430 349
184 4
304 477
94 400
137 274
312 221
241 481
19 286
41 347
404 28
464 398
287 59
63 470
262 11
30 349
145 396
460 149
486 147
7 54
426 99
493 480
153 424
3 272
118 364
454 470
209 450
201 163
436 141
122 468
26 141
189 345
5418.33
3
