60
9
0 0 0 0 0 0 0 0 0
44 100 55 88 20 56 39 61 55
45 65 68 16 43 39 22 27 44
39 65 23 77 100 54 97 45 84
13 75 93 26 69 46 27 92 63
68 16 37 19 52 72 26 51 61
72 10 62 98 27 61 21 15 11
16 79 68 50 49 22 69 94 79
72 52 94 14 31 94 10 79 60
19 49 30 69 10 38 31 97 32
43 57 51 69 85 12 52 72 72
15 66 94 80 62 88 44 20 71
68 20 41 13 21 64 90 82 39
89 24 92 14 21 10 73 21 79
43 12 36 81 36 72 49 63 99
32 96 41 37 87 74 41 41 38
88 10 66 49 21 88 10 22 63
59 60 62 83 33 13 85 17 99
45 93 100 78 50 100 98 67 14
45 41 90 13 36 61 80 13 59
100 88 68 61 66 74 92 65 35
68 52 94 88 17 77 91 98 76
75 22 50 48 100 17 30 72 49
100 93 35 25 18 72 59 84 43
17 43 38 71 46 47 30 47 90
26 26 66 53 69 68 71 18 45
66 99 40 42 21 34 79 90 25
21 42 53 79 79 75 14 49 71
69 92 14 15 91 17 97 70 37
12 79 70 73 33 20 12 86 29
32 56 59 78 64 94 64 79 31
33 20 12 52 70 79 94 10 78
18 57 54 31 46 77 66 77 21
53 33 56 10 27 87 75 17 49
17 82 97 88 63 24 49 69 51
56 29 79 39 68 88 79 23 90
62 41 20 74 92 79 19 74 75
85 93 69 90 27 39 10 69 42
70 35 13 70 69 94 41 42 33
68 15 44 66 82 55 41 15 34
62 37 77 83 85 90 75 49 89
18 23 65 98 24 62 27 11 87
30 21 95 25 73 37 41 64 39
23 50 69 91 77 49 16 31 32
88 26 64 16 33 35 25 12 39
15 48 98 33 74 17 43 75 64
67 43 59 25 100 94 13 48 32
100 75 30 53 63 36 19 31 72
38 44 14 49 35 42 41 86 69
52 62 58 20 88 99 87 43 43
32 81 18 40 89 51 49 73 67
75 57 99 49 100 34 64 61 45
40 10 95 43 41 76 37 99 86
33 80 32 87 23 68 24 83 71
83 45 26 37 84 64 62 74 30
14 97 12 16 72 63 70 85 79
11 95 38 95 43 82 55 66 90
49 54 85 85 83 53 21 18 54
68 32 84 19 60 67 86 62 98
18 75 100 71 48 55 13 60 86
0.223791
0.956489
0.420392
0.995135
0.969147
0.27808
0.515386
0.205596
0.889752
0.77153
0.635408
0.436068
0.258995
0.201985
0.259635
0.320122
0.677229
0.58929
0.377133
0.754375
0.263681
0.994697
0.998647
0.290543
0.943235
0.823951
0.57678
0.22787
0.293874
0.201498
0.624243
0.888638
0.915108
0.603803
0.772435
0.705078
0.362294
0.242159
0.266365
0.543944
0.531884
0.449138
0.572137
0.764849
0.270693
0.655648
0.668799
0.867499
0.925651
0.464796
0.239244
0.646817
0.34151
0.569357
0.93028
0.346542
0.906908
0.632771
0.355071
0.871002
288 429
465 450
339 260
140 5
328 465
478 255
181 465
415 479
123 124
110 490
496 96
401 230
171 210
483 489
148 475
296 287
383 92
40 484
331 267
105 433
17 400
480 231
232 443
106 373
455 370
35 373
428 106
1 199
213 246
39 319
450 252
394 278
251 11
352 375
490 59
59 361
40 195
101 138
149 433
65 318
403 304
281 169
18 130
494 1
47 70
4 312
349 29
146 135
308 343
263 313
200 18
58 47
4 79
411 35
37 440
489 50
120 188
284 59
28 31
90 389
4026.25
4
