60
7
0 0 0 0 0 0 0
39 69 60 38 71 11 93
45 14 94 45 27 68 52
97 19 71 53 58 80 59
74 25 13 60 81 96 38
22 28 24 63 95 85 61
26 50 71 65 64 46 45
16 50 10 44 49 23 90
16 10 61 98 78 74 40
30 70 11 19 42 31 39
65 26 16 12 14 76 59
86 98 85 32 91 71 16
47 33 75 58 29 85 31
94 28 43 45 86 30 62
73 76 10 75 24 83 43
25 47 47 33 96 24 87
82 23 79 10 55 65 57
47 84 13 28 65 94 16
96 47 81 83 85 31 45
22 59 14 21 39 50 74
18 94 81 38 86 54 100
29 18 70 45 54 73 83
30 88 28 29 99 14 69
15 25 20 77 86 43 43
83 28 49 27 80 66 61
39 10 10 69 32 31 68
61 55 99 44 15 48 98
32 22 94 62 98 53 24
90 83 87 50 64 91 83
12 71 52 68 65 55 89
94 64 63 68 48 45 28
88 50 92 32 40 76 41
19 44 25 58 35 25 22
37 84 56 58 79 75 14
30 10 40 100 46 12 91
52 33 27 16 35 56 24
63 68 24 37 17 85 47
76 31 47 78 77 79 21
58 39 54 62 19 82 76
60 20 80 34 61 57 12
38 98 35 60 41 43 22
42 54 52 49 71 58 70
83 33 15 85 43 27 25
40 94 98 71 36 97 60
36 26 97 98 89 97 21
27 50 22 72 44 23 45
35 26 25 33 71 97 51
77 69 15 85 71 58 48
18 100 36 34 45 20 91
14 80 19 43 14 84 38
19 60 35 50 88 29 21
71 39 54 43 31 85 67
93 72 12 97 27 82 95
53 59 55 29 38 27 83
92 75 13 60 86 14 22
69 93 26 74 20 66 46
61 36 52 76 53 25 43
51 39 64 11 31 49 59
26 36 52 95 72 33 35
56 13 61 46 35 98 94
1.3036
0.37368
0.967054
0.460937
1.32645
1.15367
0.87363
0.683499
0.968704
1.49051
1.39526
0.638837
0.676215
0.772473
1.06465
1.37545
1.35324
0.557185
1.27756
0.985888
0.803507
1.00449
1.05095
0.830695
0.830452
0.46893
0.726937
0.809827
0.853542
0.604812
0.395352
0.565221
0.398089
1.42839
1.33073
0.52151
0.522049
0.654418
0.54435
0.454629
0.7009
0.867548
0.883651
1.28025
1.46899
1.42585
0.307223
0.555723
1.39425
0.625309
0.551802
0.758186
0.679383
1.15459
1.36121
0.459966
1.08235
0.448313
0.846036
0.425184
48 155
136 265
71 365
447 326
488 132
483 301
241 55
331 472
338 393
365 499
36 168
216 379
54 292
146 164
235 268
248 13
150 143
98 364
305 130
320 278
288 267
61 470
43 57
138 173
435 238
95 103
281 475
299 448
35 399
448 25
144 140
263 369
74 467
244 456
378 291
108 256
443 440
75 416
224 209
339 110
224 57
39 453
381 474
99 32
347 410
111 244
40 343
71 318
230 192
264 263
439 303
369 323
415 44
28 263
238 262
236 394
243 497
390 456
289 222
225 120
15480
1
