60
11
0 0 0 0 0 0 0 0 0 0 0
19 43 36 13 75 75 85 57 50 39 68
69 22 94 56 51 98 86 58 40 48 49
21 18 52 43 56 88 96 20 32 98 38
10 95 45 30 53 68 11 58 79 91 72
85 14 47 26 78 13 47 71 92 98 78
94 78 13 22 35 24 12 40 44 34 29
66 87 26 37 93 71 100 41 30 47 41
55 84 61 18 18 48 34 14 13 96 95
11 11 25 30 49 76 19 26 17 80 69
26 40 48 23 38 79 47 72 89 90 29
90 95 92 67 55 95 39 29 34 20 69
34 27 40 46 54 88 31 71 36 97 54
38 28 31 93 88 12 83 30 46 21 98
51 45 76 35 68 66 20 30 31 25 67
85 47 73 22 66 10 28 96 74 85 12
70 79 100 54 16 24 14 12 52 73 88
20 34 42 17 60 91 77 30 19 99 84
61 50 76 95 72 66 33 68 68 55 18
15 92 56 33 62 88 25 52 56 55 19
12 14 59 23 81 45 96 20 93 27 90
97 43 58 35 57 97 35 58 43 27 92
84 36 89 95 26 91 18 92 13 57 84
60 79 100 51 33 86 26 39 78 10 37
30 54 30 57 71 24 52 56 72 34 20
28 92 64 94 86 100 42 79 86 36 64
96 98 95 57 67 23 18 18 15 63 48
51 50 24 12 30 36 84 71 86 63 88
16 34 58 64 91 72 80 98 51 56 39
79 79 21 80 64 86 58 39 82 74 52
22 97 85 48 90 12 90 80 54 25 64
11 42 63 86 50 30 65 66 72 44 83
49 58 10 72 15 61 68 100 37 35 49
79 28 66 76 56 91 71 84 35 72 81
42 22 82 15 69 77 22 79 16 100 50
56 17 51 40 69 91 90 75 25 69 11
87 39 14 41 35 53 11 21 33 18 10
49 42 45 22 26 25 36 69 60 40 100
86 10 86 38 43 28 33 100 14 94 58
83 93 79 95 83 56 14 38 89 18 16
66 56 50 67 46 86 54 97 18 79 99
59 94 21 18 16 28 21 55 27 26 46
90 17 73 13 45 51 44 51 11 99 94
76 73 36 81 30 14 54 78 91 28 66
67 40 56 40 88 51 33 49 56 29 28
23 80 72 99 85 19 17 53 95 59 17
73 25 70 56 40 37 12 65 95 92 27
17 20 68 21 62 35 63 63 77 81 35
94 51 28 97 10 48 49 29 90 66 30
79 98 81 63 98 96 54 24 65 22 15
71 35 22 59 89 27 35 19 74 74 67
54 55 91 75 70 18 76 92 80 21 69
58 37 74 39 61 23 52 39 90 63 15
94 87 39 66 64 100 94 13 49 75 47
31 22 40 56 29 34 23 54 41 11 62
17 65 14 66 22 42 44 53 36 16 65
68 69 30 76 81 43 44 88 75 47 18
74 82 90 34 45 40 93 38 51 51 22
30 49 23 16 21 29 52 82 20 14 100
71 93 11 60 43 78 67 76 57 84 53
1.56841
1.33811
1.93812
0.415217
1.68369
1.83506
1.57406
1.46601
0.495322
1.88094
1.18355
1.07703
1.17236
1.40563
0.435856
0.831257
1.76548
0.971014
1.74281
1.88844
1.65025
1.28483
1.23181
1.59091
0.895947
0.972826
1.47298
0.847294
0.997794
0.652396
1.66281
1.74168
0.902343
1.25667
1.79733
1.94423
0.870873
1.91342
1.14724
0.777818
0.419045
0.91696
0.956639
0.510396
0.541399
1.36912
1.11792
0.494676
1.36749
0.511436
0.505746
0.789208
1.2853
1.00354
1.9415
0.436429
1.34457
1.13135
1.75001
1.76141
287 320
141 95
23 221
230 160
45 232
17 140
157 226
294 481
98 324
471 317
383 459
63 218
369 413
461 247
411 459
254 233
131 500
135 189
65 203
39 6
218 194
289 268
347 135
490 216
392 394
340 42
6 132
491 490
124 448
438 38
475 202
157 424
353 418
487 488
260 181
295 73
445 473
64 302
10 386
435 476
98 29
455 120
202 307
347 334
82 359
192 274
409 276
376 99
227 446
463 357
338 151
420 283
385 79
391 434
114 58
203 365
346 446
123 388
13 97
329 249
7920
2
