60
7
0 0 0 0 0 0 0
15 39 95 50 79 37 68
72 99 69 92 20 49 70
65 30 33 95 36 43 70
11 99 42 85 15 97 91
64 10 15 11 71 80 19
19 46 64 44 46 72 18
42 50 40 24 27 89 56
11 41 71 14 93 38 93
29 61 38 100 89 50 33
19 99 44 78 48 100 55
18 44 30 80 79 34 14
55 15 70 12 35 41 71
79 15 74 18 44 27 51
57 47 99 60 63 43 99
52 22 43 24 46 62 89
40 40 33 11 88 31 45
12 58 94 24 77 86 94
87 28 40 56 64 100 78
46 84 72 42 11 88 36
99 48 35 33 80 62 12
39 81 52 89 48 23 86
52 62 53 17 88 60 55
12 10 45 45 78 23 22
23 100 34 21 97 89 37
93 42 32 27 35 43 62
83 59 35 96 31 17 93
62 100 89 57 53 96 63
74 24 23 13 51 55 11
40 65 46 77 56 56 57
64 96 56 41 17 78 61
27 24 86 34 41 85 68
42 86 88 11 20 74 65
57 72 12 80 63 61 28
91 36 11 46 99 63 27
95 86 89 99 24 72 68
55 70 47 64 92 43 47
17 48 79 27 32 79 57
20 70 99 83 16 98 40
57 56 89 57 27 46 56
40 82 15 95 25 61 38
68 41 95 96 15 71 91
76 63 33 11 41 100 74
42 38 10 45 28 58 42
97 10 52 44 18 54 88
13 49 97 94 64 73 86
58 40 63 28 80 19 48
28 100 63 55 78 41 16
28 20 78 74 71 46 44
14 94 19 23 84 61 95
98 17 86 88 41 83 19
61 77 46 69 63 58 23
56 82 40 14 91 87 96
32 40 72 98 14 71 25
60 54 24 99 37 17 34
71 47 40 35 70 43 68
44 62 88 20 29 88 90
62 97 14 47 97 55 47
64 89 84 98 40 11 49
33 76 21 80 13 78 83
1.47602
0.516778
1.21349
0.4221
1.48815
0.409588
1.0307
0.492551
0.608821
1.20578
0.567002
0.471649
0.433702
1.47681
0.526731
0.67212
1.07931
0.823465
0.382161
1.11659
0.349628
0.772136
0.601549
1.48675
0.862351
1.25958
1.26977
0.978193
0.471996
1.30643
1.40089
0.981791
1.21111
1.43133
0.78981
0.886281
0.90031
1.09051
0.663734
0.750866
0.958543
0.391168
0.734715
1.27602
1.29308
0.454091
1.16845
1.22081
1.08206
0.921672
1.48023
0.502148
0.925063
0.685105
0.786626
1.04825
0.53639
1.04092
1.31324
0.61411
289 488
22 139
342 464
32 463
299 256
375 135
63 352
371 62
133 239
483 21
124 147
280 162
83 498
313 294
36 249
472 114
469 260
345 398
332 184
431 491
187 216
333 16
427 292
199 32
225 51
433 67
6 92
67 144
327 52
474 445
123 162
149 301
259 316
108 415
306 429
462 151
257 493
18 36
338 362
251 189
120 109
308 430
464 94
168 30
390 404
197 155
427 481
253 93
102 111
448 363
170 405
287 114
266 488
340 200
397 291
431 262
443 464
78 273
110 166
80 260
4035
4
