60
5
0 0 0 0 0
44 75 71 13 26
69 62 19 23 43
17 53 82 79 55
46 54 53 97 66
75 48 75 16 11
17 39 35 89 82
60 24 40 72 100
41 86 33 25 11
96 38 94 76 18
52 46 19 51 13
26 41 29 72 92
59 97 68 27 10
26 95 87 57 61
26 16 50 75 62
54 95 49 55 89
60 30 33 22 48
49 79 45 93 58
70 14 49 70 54
66 71 25 26 80
53 59 30 73 86
85 15 64 36 62
92 47 57 72 99
45 36 75 98 17
72 48 34 25 41
49 67 62 13 15
19 54 45 92 90
93 95 27 33 82
92 87 94 85 42
17 37 92 40 73
13 50 55 92 78
38 31 65 95 17
84 78 78 11 34
34 89 95 23 35
50 40 33 50 43
79 14 78 44 59
78 93 62 76 64
94 89 83 11 37
16 70 28 73 90
78 44 72 22 10
74 55 66 48 39
59 45 34 93 96
41 38 89 58 52
98 39 27 11 53
66 45 53 42 16
88 24 95 50 28
28 44 99 22 35
36 72 76 15 48
23 68 85 91 90
56 96 69 66 93
30 37 14 87 14
82 82 93 16 53
80 37 24 63 44
14 61 33 44 10
28 43 30 46 20
48 44 90 99 73
55 64 81 97 96
23 63 21 25 54
86 76 12 27 33
86 70 78 29 92
0.322899
0.11866
0.334633
0.457027
0.270279
0.370649
0.334872
0.445053
0.364985
0.451283
0.177246
0.350363
0.313354
0.231186
0.437791
0.47956
0.250667
0.470444
0.135735
0.111563
0.28495
0.458025
0.227962
0.392162
0.249704
0.492866
0.238585
0.212837
0.126951
0.200861
0.257856
0.130427
0.143314
0.183532
0.116831
0.141877
0.380755
0.225117
0.316311
0.30029
0.389318
0.117053
0.221892
0.407486
0.221567
0.134892
0.480081
0.168228
0.455823
0.186516
0.365081
0.32332
0.354399
0.410134
0.398227
0.119067
0.349692
0.20592
0.498889
0.345107
274 483
448 48
250 222
138 420
23 60
368 92
107 64
144 260
448 438
399 430
181 244
100 171
111 12
424 194
232 191
298 22
367 142
393 180
62 483
297 232
240 19
218 253
94 78
422 344
180 354
11 52
106 117
497 260
345 167
437 427
40 133
385 311
472 410
491 82
200 139
4 397
231 100
5 149
353 74
364 392
202 307
208 368
367 221
475 43
248 16
92 78
151 108
105 22
379 153
253 56
247 234
453 412
388 196
224 355
200 119
64 218
145 129
97 144
331 409
26 347
5373.33
3
