60
5
0 0 0 0 0
95 62 32 50 35
67 65 83 63 65
11 71 50 23 77
58 61 37 28 32
71 70 89 44 76
93 45 31 35 78
54 23 21 90 17
38 17 61 70 95
50 53 20 12 29
57 99 25 21 17
71 40 19 94 62
27 90 12 46 24
70 14 59 96 87
90 42 99 37 33
60 74 68 85 84
59 21 67 48 48
68 68 87 27 56
45 56 27 90 71
66 59 20 61 38
29 98 25 76 55
65 93 55 65 57
62 40 90 42 71
38 74 31 24 35
50 77 37 85 28
37 88 55 71 65
72 64 95 90 62
44 84 35 59 30
93 80 82 34 85
84 31 60 74 80
68 58 44 50 99
80 14 54 27 39
65 67 91 62 44
63 86 49 30 94
66 74 85 69 35
37 58 81 17 34
86 53 88 67 97
63 48 30 42 12
38 67 72 39 89
42 97 95 74 48
40 50 57 40 56
35 47 55 13 57
12 63 39 38 74
12 68 40 40 32
46 10 49 27 35
38 37 57 41 36
12 94 90 69 41
37 29 17 98 72
83 67 46 52 39
86 89 48 51 69
18 81 14 26 21
85 41 14 22 48
67 69 37 75 85
82 33 64 72 80
90 24 19 88 71
45 16 67 68 90
95 91 33 82 15
49 69 42 79 37
94 13 80 87 66
64 35 34 21 73
1.91899
0.993286
0.795206
0.790393
0.845348
1.1483
0.579377
0.787634
0.792878
1.27698
1.47591
0.987728
0.554607
0.846912
1.31941
0.958919
1.82911
1.28042
1.71687
1.70825
0.814851
0.697272
0.820035
1.17395
0.452796
1.09317
1.23092
1.41228
1.50634
0.600654
0.426672
1.0674
0.625927
0.523275
1.8857
0.621396
1.90664
0.469757
1.68975
0.584549
0.776599
1.73466
0.548408
1.32941
1.8052
1.22558
0.507963
1.42965
1.98379
1.92515
0.746682
0.781276
1.17024
1.43412
1.08216
1.1824
1.24173
1.08113
1.55567
0.891335
284 111
262 3
481 300
354 74
46 450
189 316
114 199
259 86
364 248
217 249
284 478
8 148
82 358
355 96
430 129
470 193
48 102
135 243
257 26
337 479
98 371
267 15
261 499
97 135
95 140
396 217
229 382
234 494
300 486
415 300
3 207
326 171
258 372
166 397
366 201
179 16
243 275
234 447
184 152
278 93
322 496
473 411
290 238
168 27
444 53
23 402
199 271
6 436
215 99
163 139
381 373
311 33
6 318
180 177
203 466
147 196
97 335
493 468
6 49
33 316
4093.75
4
