60
5
0 0 0 0 0
99 27 99 94 91
56 24 63 89 71
33 88 68 89 32
41 81 55 54 21
65 89 74 14 58
35 94 90 55 23
20 53 80 31 38
16 98 47 34 58
93 96 43 14 98
49 26 67 28 17
31 44 67 83 31
67 100 49 28 100
65 56 80 49 40
64 50 86 83 79
81 46 22 44 94
57 64 75 83 71
92 15 61 48 26
77 98 25 98 10
56 74 99 33 45
59 55 50 59 75
43 31 79 50 48
93 30 34 42 66
12 11 28 51 86
84 77 47 55 94
60 77 63 71 30
43 21 15 71 69
64 95 89 44 23
23 26 81 96 30
92 78 29 70 36
22 23 25 54 97
83 88 58 31 52
45 22 50 84 72
99 73 51 24 37
82 97 14 63 16
99 83 84 58 24
76 68 67 40 27
75 55 80 27 74
59 22 47 83 50
85 35 98 40 10
50 91 59 76 20
59 56 54 65 44
70 45 64 67 85
75 65 71 60 77
14 62 61 77 42
81 87 92 87 89
62 70 10 48 34
16 62 76 55 13
35 38 54 36 48
96 21 79 26 51
49 27 54 54 67
65 30 44 89 13
56 41 74 52 71
45 56 55 66 28
96 74 88 92 17
39 12 72 16 29
81 24 71 91 38
72 63 88 22 50
46 14 85 70 37
75 28 42 29 92
0.505866
1.08566
0.965698
0.577421
1.81499
0.418814
1.50711
1.23229
0.95041
1.71759
0.6777
1.14264
1.18579
1.09517
0.890496
0.427176
1.44666
1.79732
1.04357
0.765542
0.896676
1.34378
1.71943
0.891735
1.82433
0.545583
1.26369
1.99227
1.33772
1.77254
0.937464
1.85459
0.593637
1.10549
1.96217
0.485107
1.65309
1.09158
0.60122
0.6958
1.07295
1.07224
1.5034
0.478683
1.19122
1.95094
0.508906
1.45861
1.82586
0.404235
1.50719
1.3919
0.938604
1.20486
1.64263
1.22681
1.2611
1.86999
0.938919
0.759725
180 390
95 420
143 270
474 415
195 371
442 158
22 197
177 154
397 463
376 196
249 90
195 16
363 219
88 335
353 449
327 86
117 84
462 321
153 360
93 445
109 19
431 4
420 146
238 268
123 19
378 158
156 336
360 32
331 341
113 88
273 466
471 55
239 282
58 37
93 129
110 394
360 218
455 68
127 207
430 94
127 341
6 253
210 268
476 433
336 43
414 366
105 426
25 143
403 142
265 394
104 210
283 41
305 65
283 322
216 351
84 343
235 447
388 306
336 342
71 167
16770
1
