60
7
0 0 0 0 0 0 0
96 65 76 56 43 100 80
24 82 96 88 78 62 62
39 32 28 74 26 80 71
88 20 82 81 78 38 77
44 92 51 50 19 83 100
90 29 81 20 16 91 63
18 98 13 27 46 92 71
61 64 90 14 92 27 27
57 72 84 71 95 16 59
44 78 63 30 43 70 14
93 13 94 10 38 44 22
57 74 87 43 21 27 66
23 38 80 45 14 62 92
91 91 66 62 51 22 29
69 64 27 91 42 62 43
94 91 94 68 55 82 17
10 50 18 98 56 30 38
21 62 46 55 30 10 45
38 25 27 32 29 71 75
25 31 23 37 33 11 20
55 72 87 22 93 24 18
31 33 43 41 60 67 98
22 38 29 17 100 76 64
74 53 43 13 70 50 38
50 66 59 60 41 15 64
96 75 71 17 18 98 86
75 82 59 94 57 16 85
60 63 30 11 17 35 26
85 98 39 44 80 41 23
73 14 92 29 86 100 47
16 76 66 48 83 87 29
79 84 28 89 17 36 29
25 10 94 82 68 38 10
25 59 58 71 25 32 47
36 67 15 92 75 54 33
93 96 61 33 27 46 88
25 25 36 45 95 78 78
70 31 99 49 12 16 82
55 88 35 94 83 94 65
80 87 91 94 94 94 95
62 65 19 30 96 94 62
47 12 63 97 91 88 70
36 60 27 68 55 28 44
71 92 41 14 70 73 43
13 44 89 95 55 36 75
60 92 58 73 15 60 33
69 16 54 30 100 87 74
74 64 22 27 48 37 62
22 18 41 10 74 32 70
63 96 50 10 41 44 44
64 95 20 13 90 63 62
69 14 74 27 99 52 73
41 65 45 67 64 40 93
66 28 32 50 81 11 54
84 79 30 55 83 37 93
41 47 87 67 79 58 32
29 35 91 92 81 49 44
57 27 71 46 37 63 17
80 50 63 95 83 79 68
1.55664
1.16857
1.25356
1.77055
0.728809
1.72265
1.36375
1.55456
1.93907
0.621944
1.01189
1.27686
0.884687
1.76199
0.742926
0.938184
1.18491
0.625943
1.29808
0.617545
0.637651
0.625801
0.506345
1.12268
1.30082
1.89943
1.24002
0.661026
1.95789
1.28498
0.842619
0.813928
1.93926
1.04964
1.11559
1.70641
1.50716
0.497094
0.738902
1.90005
1.3864
1.12082
1.14545
1.94619
1.58839
1.12685
0.974746
0.458342
1.59384
0.432092
1.59062
1.28564
1.44703
1.57864
1.59245
1.00739
1.83278
1.49145
1.08863
1.40395
325 188
320 205
188 456
371 488
188 478
176 350
217 392
109 251
44 169
19 40
327 198
418 178
182 252
29 464
108 317
2 242
115 381
14 397
216 12
204 43
446 253
43 391
280 181
122 172
442 187
347 378
272 76
53 371
108 239
179 482
488 171
496 22
19 439
335 362
60 402
78 307
211 214
448 275
116 95
453 124
42 205
80 185
189 6
112 55
45 307
484 84
83 89
168 251
324 373
166 304
302 458
232 54
195 116
352 252
59 71
47 50
63 422
455 300
292 275
158 233
4105
4
