60
11
0 0 0 0 0 0 0 0 0 0 0
17 86 68 59 36 51 24 67 66 50 64
53 34 57 54 63 29 48 23 56 74 71
12 100 31 18 85 35 35 26 23 71 57
17 28 61 100 11 60 52 55 30 59 15
85 83 63 42 69 66 35 64 36 56 56
16 41 15 19 98 54 56 89 47 65 76
53 20 56 89 79 80 20 52 68 92 28
56 47 41 73 28 33 33 44 90 89 14
95 37 25 77 92 55 59 64 32 56 74
15 64 88 81 17 19 36 69 16 74 59
14 91 11 57 97 11 11 38 90 66 16
46 48 73 43 23 42 81 12 16 62 34
81 71 82 89 98 10 68 87 39 50 25
89 46 36 20 31 74 65 69 56 31 97
100 74 75 44 50 15 27 29 74 16 40
96 28 17 91 31 77 99 56 56 41 63
27 84 40 89 45 53 80 59 54 71 27
34 50 39 83 15 31 55 76 37 59 51
57 31 40 92 57 26 98 64 76 55 78
25 37 15 69 75 36 85 61 92 32 16
58 30 31 78 11 10 21 50 77 57 22
94 30 44 94 34 11 12 59 87 72 34
89 61 76 64 14 74 79 46 50 42 74
53 12 39 22 14 24 91 65 97 63 28
88 54 29 94 60 46 23 69 71 80 95
47 21 51 71 53 80 52 52 60 18 89
71 23 29 22 19 73 51 79 85 72 37
28 69 17 34 35 59 27 26 26 89 54
76 51 65 51 53 40 72 77 33 63 24
41 24 59 43 18 39 61 61 32 83 97
43 43 33 55 30 98 50 19 18 53 31
10 26 95 71 32 64 78 92 45 39 64
14 24 16 55 15 15 64 92 56 92 89
43 37 13 69 91 93 62 27 27 60 85
100 52 61 96 15 30 84 28 36 36 11
47 61 88 21 58 55 88 87 17 97 23
59 89 55 100 74 37 59 55 71 60 86
29 24 58 65 21 92 94 16 66 37 81
68 82 30 43 62 21 81 67 63 39 13
93 20 56 66 89 85 37 16 19 13 25
28 12 12 92 36 35 48 75 50 92 62
78 98 95 16 20 29 50 52 72 96 92
58 11 29 64 10 47 66 87 11 14 44
56 82 36 48 57 53 59 29 67 86 45
48 72 54 38 94 59 77 90 62 23 16
94 34 79 58 99 10 12 47 92 50 28
42 62 73 37 57 46 16 36 60 42 76
62 39 55 86 62 42 59 71 40 80 68
49 42 17 91 64 70 82 60 83 41 78
41 92 53 63 83 20 11 21 76 61 43
82 67 36 89 16 14 11 88 81 14 40
58 82 71 93 29 42 77 38 15 24 58
67 45 30 67 62 35 23 33 33 47 25
85 82 54 93 19 74 29 53 57 85 64
90 82 85 58 57 95 79 88 75 53 100
51 84 16 95 69 57 11 71 78 37 20
29 84 74 40 32 93 53 63 94 69 11
30 58 40 67 100 22 10 26 46 94 62
32 19 46 48 92 40 82 39 36 21 46
0.847981
0.235321
0.819606
0.610472
0.771837
0.803261
0.714343
0.50349
0.299452
0.602911
0.688046
0.85488
0.461962
0.402902
0.299983
0.356305
0.826476
0.877056
0.746999
0.200495
0.584783
0.234776
0.249786
0.732909
0.319536
0.527212
0.6851
0.647667
0.713512
0.385524
0.529501
0.372857
0.438494
0.816658
0.730076
0.269953
0.726615
0.570786
0.36304
0.908161
0.34648
0.334203
0.7995
0.449626
0.55412
0.726428
0.495273
0.806695
0.989561
0.561983
0.478756
0.92607
0.557996
0.959228
0.42331
0.311223
0.737734
0.520318
0.945841
0.791118
81 379
188 10
58 230
304 287
87 287
258 471
193 323
152 125
197 192
93 417
206 336
111 275
143 186
199 19
85 100
220 49
392 318
38 144
45 460
450 15
265 224
57 253
253 281
396 407
373 321
102 488
452 101
320 260
228 438
164 20
428 284
122 379
144 485
319 472
38 464
231 155
457 389
395 454
367 85
11 169
142 16
89 35
465 319
97 61
140 411
60 334
212 432
464 200
102 58
30 205
7 491
262 318
372 34
298 494
301 6
117 169
100 327
356 345
287 355
73 330
3927.5
4
