60
11
0 0 0 0 0 0 0 0 0 0 0
32 60 16 91 36 86 52 88 76 60 52
67 83 19 16 81 90 50 33 66 84 37
89 21 99 88 36 76 63 18 27 66 67
11 41 21 45 70 15 82 14 10 18 95
52 72 76 50 20 25 12 90 78 63 39
23 31 99 76 53 18 92 67 47 30 98
74 10 21 21 41 80 49 43 85 99 56
25 73 30 74 10 70 26 20 63 65 87
18 82 25 94 70 18 54 51 56 41 79
37 65 100 48 71 74 17 19 31 87 61
28 36 88 15 79 98 23 70 88 26 89
85 98 84 89 49 80 72 40 10 54 46
73 68 76 22 58 75 39 34 97 32 40
92 16 17 10 91 74 97 69 95 78 20
54 74 99 63 50 48 23 72 94 37 17
11 29 50 65 30 44 61 50 63 84 12
72 80 70 34 55 15 81 50 33 19 51
85 99 15 85 44 79 40 61 72 61 29
70 97 44 32 77 53 72 57 69 60 28
80 44 15 93 71 51 58 67 97 22 76
22 35 47 48 59 58 90 38 34 59 19
74 61 68 93 19 71 67 82 48 41 20
32 36 20 70 35 61 99 33 50 94 89
88 11 76 59 18 49 92 84 33 27 49
49 78 71 15 20 37 69 69 59 25 91
93 21 54 26 100 18 44 82 42 18 91
53 46 55 12 15 32 24 56 15 77 32
89 27 53 54 26 54 61 13 51 27 37
64 32 64 54 20 39 13 52 89 46 44
58 58 28 56 63 69 24 74 80 65 21
36 41 92 96 29 53 64 40 66 53 27
36 72 50 93 69 15 91 31 22 35 98
12 24 67 88 55 29 39 100 80 80 10
87 100 22 25 60 29 74 42 60 76 90
67 79 47 91 21 60 40 76 53 67 52
16 48 89 24 23 17 49 85 47 16 51
95 70 98 11 53 56 44 44 23 60 44
32 64 62 93 49 42 56 63 69 45 91
38 18 43 40 34 43 87 63 65 10 10
36 86 36 41 69 95 14 59 94 48 41
92 14 15 85 35 78 74 46 75 86 42
31 65 52 99 63 91 34 83 48 97 42
59 16 63 90 32 100 56 94 94 47 86
35 75 38 17 82 29 15 88 38 65 77
22 23 30 31 89 72 78 37 35 57 95
82 56 26 60 90 83 84 60 12 66 54
31 24 12 26 63 56 96 35 29 52 95
68 54 88 22 65 45 54 27 19 81 63
56 34 10 27 17 52 34 64 98 52 70
97 16 91 75 31 100 37 70 22 51 34
58 43 15 22 26 61 46 52 63 83 66
92 19 19 15 44 20 69 33 66 40 62
20 10 93 78 100 67 22 18 99 34 12
38 59 85 77 70 54 62 98 45 27 75
17 75 83 24 42 74 21 86 23 45 98
61 21 46 60 54 51 62 14 23 92 93
35 44 78 11 15 18 76 84 77 76 29
27 13 21 49 98 47 28 72 87 39 47
25 27 74 87 41 42 79 22 100 58 53
0.330625
0.256087
0.298204
0.47579
0.200886
0.356633
0.284658
0.364154
0.230959
0.498453
0.462139
0.480135
0.337023
0.359116
0.314652
0.199065
0.146789
0.375787
0.17721
0.247404
0.112574
0.43552
0.38999
0.115132
0.485696
0.228502
0.160639
0.224686
0.425103
0.238112
0.290989
0.304913
0.304974
0.438675
0.301668
0.233458
0.364413
0.294383
0.251404
0.323756
0.134552
0.310988
0.436917
0.116242
0.235655
0.231123
0.109626
0.430384
0.117658
0.157473
0.244551
0.465746
0.304765
0.377334
0.40488
0.406874
0.319025
0.435514
0.193617
0.301589
486 266
116 415
245 55
167 226
244 367
83 139
224 132
419 347
185 414
458 462
183 489
465 373
229 392
87 249
110 176
279 360
181 148
345 306
230 179
412 428
401 201
87 354
43 437
132 431
264 110
48 326
437 32
16 499
485 206
222 26
419 391
184 489
105 0
224 438
284 308
123 151
134 492
68 73
135 388
134 375
124 107
169 77
210 471
31 219
464 1
431 299
428 114
183 409
498 476
194 287
24 324
222 445
74 277
281 290
330 462
250 430
158 131
443 194
460 413
431 50
3171
5
