60
5
0 0 0 0 0
14 34 36 30 46
71 48 36 97 13
40 51 32 89 43
99 98 89 35 94
14 50 10 24 29
99 55 46 25 34
99 86 79 72 38
80 88 24 22 73
76 13 45 22 37
18 24 64 12 24
100 90 95 63 29
87 12 20 10 81
50 23 60 87 58
83 46 11 85 58
62 51 19 15 65
33 88 67 77 93
24 30 97 89 81
41 61 90 95 67
22 51 85 85 25
17 64 96 91 30
92 66 67 52 61
41 11 34 64 69
71 85 10 61 54
57 23 67 15 40
79 32 43 26 97
76 72 85 79 40
18 49 73 57 12
60 16 44 51 73
10 57 42 11 67
26 51 18 60 10
81 51 27 38 12
50 84 97 26 40
73 40 69 79 38
24 60 68 60 53
11 87 91 64 10
41 52 79 62 37
54 61 89 78 14
75 27 10 17 14
46 99 17 85 97
44 43 44 86 91
81 82 20 93 56
53 97 62 82 79
38 46 29 33 73
34 18 25 89 54
96 43 36 38 62
84 70 22 62 43
86 28 21 22 37
66 50 100 59 41
18 72 67 20 32
79 29 11 17 15
18 35 52 61 29
67 37 38 17 18
39 69 16 42 55
87 45 67 79 28
30 81 33 44 75
77 19 99 65 78
42 52 91 70 86
64 63 41 35 34
67 32 14 58 32
1.23056
1.82668
1.92331
1.16291
1.72687
1.48097
1.67043
1.98265
1.05767
1.9624
1.09836
1.84634
0.764989
0.635069
1.10737
1.1801
1.94853
0.603942
0.647925
0.905428
1.20018
1.37375
1.93495
1.9614
1.1747
0.441496
1.85968
1.74659
1.97513
1.94428
1.97658
1.6904
1.56922
1.43335
1.78441
1.69132
0.845685
1.81229
1.58179
0.604628
0.988081
1.06591
0.528368
1.82581
1.01801
1.77183
0.625866
1.53637
1.25716
0.513216
1.7847
1.6762
0.79688
0.431728
1.13707
1.79654
1.21526
1.51205
1.7566
1.8072
10 60
481 330
94 240
152 260
102 240
122 55
499 468
170 304
388 393
485 163
412 37
429 276
497 225
90 192
42 62
321 308
102 442
145 225
94 46
475 489
112 317
335 45
224 53
78 407
471 485
216 422
242 253
243 264
381 425
129 269
93 290
146 80
217 174
174 319
119 267
215 416
111 435
374 148
30 331
161 444
214 271
117 179
46 172
60 385
223 279
140 430
352 100
487 177
253 299
177 430
94 361
305 281
283 330
472 132
263 160
11 412
289 349
158 130
35 75
191 96
7727.5
2
