60
9
0 0 0 0 0 0 0 0 0
67 10 96 72 34 36 24 35 84
26 53 21 93 51 99 86 54 20
36 89 33 73 10 92 34 40 32
28 91 99 69 21 83 64 27 20
32 75 59 45 51 70 98 90 91
49 39 92 35 20 63 25 27 42
15 52 58 24 99 63 44 30 89
91 46 76 53 78 24 81 30 35
14 91 55 26 53 95 61 22 32
32 31 57 10 13 63 69 60 91
30 39 52 37 46 91 73 92 80
91 34 58 24 28 21 44 54 34
15 54 43 91 64 99 98 82 77
37 39 30 34 49 74 89 59 73
99 10 89 78 46 38 48 24 41
76 28 23 47 15 26 58 38 94
76 53 28 32 42 94 77 31 35
39 76 74 59 15 17 61 97 58
80 41 27 58 20 99 13 72 54
16 25 22 56 20 90 100 20 21
77 83 78 67 51 95 82 76 46
71 99 69 40 91 62 26 95 34
15 16 10 30 56 30 42 19 38
16 58 72 67 36 96 86 33 59
72 100 28 45 62 55 92 33 89
17 94 87 81 16 88 98 56 99
66 87 71 77 70 40 59 64 28
49 72 24 61 28 44 56 76 34
71 38 76 71 38 25 79 11 48
49 14 93 97 11 47 38 35 91
72 79 19 81 77 72 51 50 71
62 81 28 94 61 74 55 71 33
36 19 79 99 91 79 84 85 48
72 52 23 16 74 72 95 92 18
36 72 64 22 99 64 42 24 31
46 23 28 67 45 61 26 57 77
42 29 62 100 15 83 38 39 52
89 69 66 93 54 32 48 87 53
73 78 90 29 98 46 45 40 59
26 93 24 27 53 49 52 17 61
66 99 95 12 17 59 41 95 28
84 34 92 62 99 86 50 84 49
94 11 61 75 93 42 64 66 11
65 26 31 26 23 84 88 79 23
62 38 14 55 60 53 51 90 11
13 79 36 23 74 73 43 60 80
37 26 23 43 26 59 76 67 20
42 39 38 20 30 14 95 92 56
93 35 90 30 32 94 69 44 86
41 68 37 61 41 12 15 61 54
84 30 84 57 66 12 20 38 45
59 84 52 23 51 20 10 58 100
35 97 39 64 42 31 93 21 35
20 70 55 31 12 14 19 36 96
23 65 54 96 53 60 61 65 65
94 43 24 84 70 72 82 46 18
86 68 44 84 63 85 31 13 44
78 75 10 53 68 47 87 14 49
40 52 52 92 79 55 72 11 43
0.905834
0.956429
1.50185
1.37399
1.29709
1.93235
0.625128
0.775814
1.74827
1.48161
1.82219
2.02594
1.706
1.10276
2.02312
0.600922
0.814025
2.07231
1.02088
1.5344
1.69378
1.58907
2.46011
1.20873
1.82556
1.44229
1.74014
0.71861
1.77473
2.35515
1.10422
1.52538
1.14481
0.666714
2.21381
2.22092
0.529843
0.732132
1.81495
0.779138
1.96297
1.46756
1.8116
2.19771
1.11613
2.47648
0.607767
0.980295
2.15055
0.973914
0.827211
0.972578
1.99901
1.26528
1.92868
2.08919
2.14376
0.600582
2.41563
2.37485
216 23
153 419
99 461
411 40
288 112
496 394
315 32
319 166
114 370
106 241
139 97
318 53
152 345
206 360
241 23
408 335
308 187
167 252
73 324
229 241
475 364
385 161
182 87
41 224
207 487
403 369
339 29
218 297
374 49
423 346
322 233
132 60
484 360
73 192
192 352
249 455
170 278
326 249
480 421
157 71
269 290
498 282
457 39
287 243
370 164
407 189
440 296
365 120
26 240
444 250
138 353
262 190
168 250
271 188
369 145
16 91
384 24
405 427
276 34
114 374
8020
2
