60
5
0 0 0 0 0
11 32 64 80 10
24 35 58 99 85
79 55 69 73 36
55 99 18 61 20
54 98 38 100 81
98 29 26 93 63
63 67 39 56 68
48 66 49 88 75
10 79 55 23 72
15 44 22 50 75
13 33 47 53 69
66 45 96 21 34
27 70 22 16 94
19 32 62 76 77
99 33 91 35 85
96 51 100 18 64
69 54 52 88 58
79 100 25 57 13
79 45 22 24 20
52 87 82 83 65
24 85 44 61 56
86 37 35 39 41
68 90 65 20 63
15 25 30 40 91
95 40 87 18 35
19 37 95 74 18
63 60 28 34 68
28 79 41 63 75
71 45 81 76 49
82 74 46 65 59
47 95 92 73 13
89 19 99 45 36
31 74 81 99 62
89 16 91 84 52
58 98 32 68 33
95 86 94 72 38
87 58 99 28 84
52 55 29 74 78
60 70 85 15 48
39 10 39 97 11
11 74 74 31 14
30 75 59 49 10
38 19 38 73 45
70 49 33 64 10
29 73 42 20 60
78 99 27 36 92
37 100 34 50 38
40 60 96 100 26
10 24 81 62 25
58 54 67 69 74
28 100 43 70 66
41 82 35 69 30
11 69 43 87 21
94 44 63 89 30
58 72 19 95 41
62 62 64 12 87
88 12 65 41 41
51 24 78 46 26
39 10 69 28 26
2.43346
1.45319
0.779387
2.35203
2.09542
1.46881
1.58106
0.712063
2.4326
0.937751
2.08025
2.22231
0.953516
1.40551
1.284
1.8206
1.47911
0.877332
1.62498
1.57365
1.85682
0.998049
2.02511
0.703106
1.64444
0.739324
1.06079
1.56227
0.869828
1.21536
1.47272
0.82611
2.13335
2.22669
1.67322
2.46151
0.747532
2.19459
2.3841
0.935426
1.88471
1.73629
2.33188
1.40375
2.18945
1.70971
2.04396
1.17518
0.640719
1.67234
1.69551
0.697748
0.916884
1.53785
0.800024
0.936561
1.88025
1.05756
1.45735
1.54508
93 444
99 264
435 384
184 270
440 87
430 98
20 202
343 23
190 115
218 116
333 207
199 269
345 360
438 327
112 399
46 336
245 243
292 347
80 301
102 20
215 138
77 67
330 112
205 478
160 227
88 126
59 333
493 364
214 230
471 49
59 328
140 140
240 94
109 136
395 198
90 463
289 353
108 128
493 25
206 448
40 0
181 48
396 128
386 53
142 281
471 91
471 115
26 137
464 400
270 251
428 92
37 414
39 296
482 335
144 448
480 10
198 37
458 453
426 220
336 270
5420
3
