60
11
0 0 0 0 0 0 0 0 0 0 0
76 50 33 31 53 17 45 11 19 49 80
70 12 68 88 86 77 33 18 53 12 73
61 65 12 73 78 93 66 29 10 76 49
10 35 34 42 58 97 91 31 41 43 91
83 70 62 74 21 94 28 21 87 38 35
94 50 83 89 82 99 58 18 48 29 16
22 94 30 56 76 47 33 60 15 41 59
27 86 55 39 34 90 19 82 30 65 72
96 12 39 46 61 10 39 75 89 95 42
50 60 46 52 20 60 17 59 56 61 28
99 21 59 54 95 27 84 85 65 56 71
19 24 24 83 31 23 28 98 37 39 15
79 83 91 51 83 83 28 45 37 54 65
47 74 81 80 94 20 52 60 33 10 40
79 89 59 76 57 97 64 53 95 26 13
35 92 70 28 74 89 19 82 30 42 66
54 63 20 62 58 22 73 66 53 64 48
77 69 25 60 89 44 34 70 67 71 81
40 18 51 56 41 74 42 64 59 34 99
100 95 91 49 24 11 80 47 61 34 70
48 14 41 18 99 20 58 51 24 85 38
18 23 90 49 50 28 57 91 40 56 30
22 32 87 74 40 74 74 20 100 81 49
69 100 55 82 19 96 49 18 26 73 79
22 60 15 76 79 26 36 79 56 44 44
30 98 83 89 31 23 61 27 30 33 74
43 57 12 47 83 84 33 95 80 22 57
85 87 34 83 81 56 20 61 29 86 44
23 13 96 92 77 97 82 19 46 16 56
38 34 46 94 47 74 20 32 71 56 32
87 58 14 31 95 55 83 67 50 80 54
33 83 96 13 24 50 38 96 80 53 62
95 50 83 44 89 49 83 62 96 98 21
73 25 93 33 63 69 87 80 33 54 50
71 69 78 36 30 82 23 60 91 18 34
55 56 37 89 96 75 53 99 99 11 10
93 72 100 95 88 84 69 14 34 67 35
55 74 16 55 66 20 53 76 92 89 50
21 66 95 61 46 50 72 72 87 69 59
77 88 74 56 32 69 73 55 57 47 71
73 46 55 15 49 98 51 83 90 81 18
26 69 10 43 97 77 37 82 28 15 50
64 74 87 94 11 98 79 41 69 82 26
76 14 75 96 25 86 57 81 11 40 39
37 72 51 44 99 87 34 32 39 23 15
22 11 16 23 78 61 89 33 55 25 89
44 22 57 46 23 32 68 69 57 61 25
85 43 38 78 40 32 24 22 26 30 97
92 87 16 27 55 20 17 52 14 94 19
72 12 71 54 27 49 92 41 70 92 10
61 95 24 84 86 47 22 14 95 30 17
70 86 37 38 85 65 70 49 80 28 21
16 20 48 66 40 48 52 52 53 39 78
24 99 16 13 41 81 51 71 69 10 96
24 19 84 60 57 72 100 74 98 91 47
14 34 44 19 27 54 12 15 19 57 86
10 43 71 90 50 63 17 49 29 82 82
68 23 89 20 81 84 66 47 36 17 19
27 46 18 74 77 76 56 18 84 94 65
0.351368
0.488166
1.01483
0.922377
0.638625
0.665107
1.41006
0.879053
0.577439
0.736782
1.30573
1.43082
0.557718
0.683485
0.346784
0.535613
0.6423
0.401225
1.13656
1.17306
1.27233
0.848641
0.686462
1.36271
1.10417
0.663304
1.46616
0.400079
0.937796
0.904403
0.521691
0.535603
0.773729
1.05822
1.26722
0.944041
0.776202
1.06216
0.718655
0.37589
0.521887
1.32159
1.0305
1.12773
1.40624
1.27764
0.723951
1.25752
1.23696
0.722999
1.41288
0.804451
1.30152
0.670372
1.38175
0.592015
0.571117
0.891971
1.04869
0.793744
336 90
187 253
75 80
374 146
497 436
99 20
69 404
456 169
32 450
28 343
15 93
495 488
272 138
44 467
311 6
372 181
445 410
157 11
119 457
240 389
184 72
111 144
421 484
432 335
393 23
269 121
233 284
108 34
186 26
417 360
406 131
48 204
252 245
333 425
26 272
133 395
281 4
413 361
446 163
418 148
220 371
430 18
483 302
47 55
270 175
394 429
123 386
372 352
165 188
42 315
483 234
204 324
82 373
341 151
124 462
131 125
333 339
96 110
7 456
408 200
4040
4
