60
3
0 0 0
79 36 53
13 58 57
77 65 87
66 66 83
85 58 38
36 29 12
100 42 76
59 40 65
20 74 61
68 43 97
47 77 81
76 19 36
55 48 93
71 36 32
81 57 15
70 57 96
29 21 59
93 60 79
26 28 28
38 58 75
46 96 59
27 84 18
46 70 43
54 26 14
32 64 66
90 59 99
54 37 31
73 30 64
97 68 35
93 40 34
51 50 88
37 25 98
42 40 55
22 65 85
20 85 47
19 95 77
66 49 85
23 74 70
10 42 28
60 46 78
47 58 76
54 75 58
18 89 19
69 40 88
34 24 34
38 75 22
97 93 94
31 46 23
57 16 87
21 86 25
76 99 20
10 59 20
87 57 31
43 95 90
24 10 89
17 63 61
47 20 57
56 63 88
61 44 87
0.655288
0.88255
1.96326
1.36144
1.04528
1.20269
1.19387
0.616744
1.42802
1.69232
1.55842
0.472831
1.71867
0.626803
1.05509
0.96809
1.43495
1.49805
1.24035
1.79729
1.06388
1.30599
0.517847
1.14677
0.524691
1.37441
0.688955
0.89724
1.67127
0.571013
1.16612
1.69249
1.27245
0.441864
1.14266
1.56861
1.63581
0.880879
1.29902
1.31614
1.3964
1.61541
0.774329
1.82703
1.85888
0.604143
1.1734
0.53298
0.417983
1.46202
1.73638
0.952157
1.65456
0.471482
1.32883
0.89172
0.885667
1.70883
1.61477
1.15267
185 100
214 375
49 248
76 79
213 463
489 128
215 199
230 306
84 414
139 361
486 208
132 170
300 170
78 280
433 448
90 229
185 15
45 474
161 205
135 341
234 57
266 329
217 158
472 67
83 476
194 25
375 310
438 392
476 325
89 477
137 435
438 390
468 440
351 105
164 188
280 255
174 398
151 33
219 153
382 207
22 238
65 40
247 212
45 208
28 35
468 437
350 198
137 355
177 62
92 305
283 123
182 473
211 67
218 404
340 350
193 35
88 74
451 489
474 202
121 493
5406.67
3
