60
5
0 0 0 0 0
96 39 71 75 95
82 67 57 83 69
65 67 42 48 38
51 83 65 49 98
15 15 22 11 14
47 72 50 15 70
23 21 60 18 10
32 69 29 100 58
78 76 96 95 81
13 80 89 91 87
66 19 57 63 44
46 44 65 11 29
34 66 76 65 88
54 63 53 52 32
52 68 89 55 83
33 68 67 51 80
26 24 33 22 30
96 43 44 94 28
14 14 41 14 30
14 60 96 78 50
51 66 54 96 69
32 64 29 23 85
73 74 83 35 47
30 21 14 18 46
69 43 52 77 78
10 80 52 27 53
24 56 20 38 27
93 73 48 53 17
82 48 57 68 96
49 74 61 70 46
87 92 82 45 63
17 67 37 82 76
96 51 100 14 44
78 18 39 98 71
50 71 29 74 53
37 98 59 12 95
74 75 20 34 75
73 99 14 87 87
57 58 21 79 63
30 73 93 56 55
30 44 15 40 15
75 18 93 69 52
20 31 13 34 55
38 54 14 44 71
100 55 93 12 47
19 54 84 87 59
34 35 12 92 94
44 54 36 34 45
64 35 73 93 80
99 94 61 57 20
60 56 53 25 81
71 63 33 96 88
22 27 83 98 89
84 37 35 61 25
29 15 41 88 15
72 68 100 62 55
47 23 37 55 35
17 49 84 28 41
65 95 39 47 88
0.479398
0.238924
0.619785
0.509767
0.288132
0.764614
0.555475
0.860631
0.98724
0.854657
0.292915
0.397509
0.518392
0.585095
0.72841
0.733849
0.850035
0.712875
0.883141
0.236514
0.294676
0.949819
0.563489
0.85819
0.481653
0.705175
0.706577
0.384629
0.678988
0.380459
0.838197
0.634439
0.671164
0.324244
0.817369
0.474888
0.302314
0.438582
0.20333
0.969985
0.325438
0.477124
0.869471
0.836597
0.629285
0.677715
0.692326
0.634038
0.823666
0.828224
0.343857
0.556276
0.744846
0.430464
0.496891
0.335744
0.866501
0.921315
0.431532
0.546666
205 162
495 190
74 115
471 146
56 5
282 307
149 15
25 132
53 394
411 383
461 74
72 375
276 8
408 415
91 149
297 495
175 39
307 419
141 351
215 419
181 492
291 142
388 302
404 322
184 54
491 347
487 212
60 109
383 329
371 131
260 18
147 471
262 245
202 392
82 172
149 290
42 380
30 365
16 325
400 375
287 445
27 166
284 399
200 101
427 325
137 411
263 45
173 91
206 361
228 80
322 59
56 461
257 460
54 376
255 57
318 465
42 19
373 2
227 418
155 139
16180
1
