60
5
0 0 0 0 0
46 20 57 72 14
78 15 90 17 18
82 12 76 59 63
12 59 98 22 17
49 23 72 71 51
62 29 80 79 14
63 35 13 63 73
17 63 19 31 89
56 55 94 85 22
20 45 99 57 51
73 77 87 25 46
42 13 88 67 14
61 48 36 70 53
97 38 29 10 93
31 85 67 28 34
89 24 22 67 29
27 21 90 58 12
84 100 10 61 93
69 92 42 24 10
54 50 77 73 25
69 88 53 36 44
45 77 86 98 79
34 10 25 78 22
90 25 64 27 84
74 89 100 84 72
45 14 54 31 73
81 99 93 19 28
73 47 99 22 51
18 54 64 77 38
64 76 98 17 34
27 14 70 72 53
45 91 21 99 46
91 63 68 80 83
63 15 32 60 30
46 60 61 14 74
48 48 13 35 93
52 87 85 14 19
81 95 32 75 75
79 27 57 21 34
85 95 35 51 69
53 59 28 96 78
25 96 21 13 88
74 39 24 15 56
58 54 46 41 23
15 49 25 71 26
13 11 65 62 82
83 85 67 82 17
40 33 71 98 16
13 18 49 78 48
26 71 38 41 84
86 16 86 15 23
73 34 18 86 63
85 18 55 15 38
60 77 48 59 21
52 85 63 43 29
15 92 26 43 61
94 82 95 38 13
11 73 61 100 99
92 36 58 98 86
0.856761
0.898765
0.555877
0.721504
0.95886
0.574969
0.841655
0.646871
0.365362
0.702973
0.258415
0.65133
0.85286
0.408972
0.737674
0.444559
0.879941
0.586658
0.89349
0.371614
0.8752
0.432524
0.396602
0.471435
0.249
0.634133
0.728146
0.691679
0.328624
0.437163
0.691445
0.425842
0.589227
0.740835
0.699862
0.33988
0.378666
0.942579
0.245938
0.681732
0.956383
0.446049
0.747566
0.849229
0.93302
0.872561
0.887456
0.654635
0.475125
0.633866
0.401499
0.65059
0.931749
0.3215
0.674392
0.592382
0.469948
0.60867
0.658046
0.696656
223 224
356 305
34 73
175 433
319 272
90 282
31 72
314 123
414 419
381 120
365 150
160 35
378 488
248 164
76 258
426 250
126 475
471 31
271 52
151 40
317 195
264 364
429 80
107 139
74 71
278 94
281 73
363 146
486 17
438 7
200 416
302 146
403 479
353 211
163 116
1 412
375 99
41 194
246 168
110 429
318 393
429 73
309 290
80 249
416 205
162 208
490 454
271 377
425 351
264 41
2 289
200 31
322 408
165 49
369 161
496 437
119 288
204 499
246 466
133 141
7905
2
