60
5
0 0 0 0 0
37 94 100 17 19
36 46 33 87 86
59 33 13 58 97
64 26 20 69 40
38 20 26 83 98
68 13 15 61 89
29 69 28 43 23
32 69 49 51 55
65 10 37 59 68
60 59 35 35 48
91 44 11 74 30
77 60 18 10 14
77 24 94 82 84
22 97 97 65 23
15 78 14 41 57
22 13 41 99 39
51 95 57 24 100
30 29 97 93 10
23 82 28 87 80
17 71 89 50 51
43 81 86 93 18
60 42 89 80 98
54 50 66 16 19
41 40 55 95 98
93 39 49 20 10
77 25 69 100 86
68 20 17 56 53
93 62 12 68 35
80 93 52 32 93
92 57 22 91 18
24 94 32 95 26
31 96 40 86 94
51 41 77 40 91
73 15 21 28 78
87 47 49 62 25
44 30 25 35 76
57 67 81 62 75
67 96 74 28 45
37 21 69 33 81
84 74 43 53 59
21 35 12 19 76
12 59 61 13 13
100 25 49 92 83
72 30 22 58 14
45 75 26 22 94
81 55 81 13 39
22 89 41 25 34
37 86 74 15 97
23 18 44 79 23
24 26 20 51 56
58 100 88 13 33
92 82 17 57 33
30 13 70 94 65
83 79 23 62 40
17 42 48 58 85
30 40 72 14 91
43 84 38 76 16
69 68 25 20 57
28 19 21 88 18
1.4733
1.12978
0.807486
1.12823
0.785228
1.30513
0.815802
1.03531
1.0547
0.580638
0.709368
1.00884
0.859841
0.692744
1.16667
1.34556
0.347798
1.09841
1.36004
1.28944
0.568697
1.30175
1.16659
0.498665
0.843943
1.35701
1.37671
0.662851
1.06243
0.355601
1.17799
0.47608
0.440208
1.39771
0.958675
1.05304
0.356052
0.525185
1.1253
0.932893
1.19046
1.38618
0.331445
1.04938
1.02705
1.47153
0.365794
1.10078
0.373467
0.352442
0.849429
1.21639
0.808214
0.702965
0.837346
1.22957
1.18388
1.26533
0.677783
1.46955
76 24
264 392
111 356
482 348
403 218
287 35
370 212
331 406
366 408
174 471
55 153
420 41
379 244
68 404
140 104
499 138
461 314
330 167
269 134
258 157
99 52
113 132
39 132
193 464
165 358
181 443
312 426
313 444
66 433
84 99
287 233
326 94
3 157
433 390
51 78
387 28
86 269
237 466
235 90
412 165
94 430
13 84
92 55
296 365
450 352
59 469
36 364
277 483
489 26
353 181
394 380
26 431
424 84
244 322
114 0
229 109
63 239
437 102
420 106
6 105
5150
3
