60
5
0 0 0 0 0
26 16 53 84 60
99 66 62 62 31
34 99 72 28 74
56 66 93 25 29
10 94 74 44 16
21 96 54 33 10
43 93 56 23 41
85 52 78 44 45
33 60 45 54 17
20 45 62 50 34
68 51 57 11 83
85 10 58 81 78
39 20 95 57 65
27 48 14 23 23
29 75 34 21 23
84 14 60 75 76
52 57 14 30 83
57 67 34 63 47
54 55 53 88 87
94 25 62 26 80
18 27 38 57 57
12 68 95 90 10
80 49 67 23 29
82 49 99 97 46
26 96 53 50 67
90 34 34 51 52
11 36 46 73 88
55 53 85 28 21
14 13 23 19 29
83 23 80 77 66
65 56 57 44 93
55 25 48 25 45
66 49 54 54 70
67 87 54 98 26
46 93 77 10 64
34 68 44 42 67
81 72 32 76 64
24 31 53 48 54
60 71 59 37 57
34 97 46 66 63
57 47 96 81 68
52 53 71 83 67
59 16 99 73 55
21 73 98 98 52
52 41 74 17 36
49 89 59 52 21
33 76 70 21 66
65 87 19 81 94
36 41 38 68 71
78 15 91 81 11
62 59 15 96 76
21 70 66 29 54
26 66 74 25 92
35 20 42 50 65
60 91 98 37 25
60 49 16 91 50
10 15 87 60 35
73 92 70 34 85
12 25 68 97 80
0.331576
0.178692
0.165929
0.485563
0.253529
0.47506
0.257818
0.370063
0.327627
0.460866
0.360973
0.437855
0.43254
0.169636
0.194713
0.198202
0.112491
0.324123
0.3571
0.156312
0.269927
0.105171
0.233953
0.218781
0.488107
0.232534
0.409886
0.461641
0.462772
0.437388
0.210273
0.360758
0.336907
0.352667
0.420285
0.482895
0.313866
0.241629
0.118705
0.46575
0.328702
0.253468
0.418924
0.357327
0.140288
0.244621
0.449213
0.169035
0.496887
0.197854
0.113266
0.316272
0.302806
0.154332
0.49125
0.456744
0.140748
0.305477
0.377363
0.474276
422 413
244 394
164 91
465 96
195 59
431 216
430 132
411 455
179 430
300 252
195 220
358 271
154 391
443 472
348 298
316 494
161 246
432 125
477 470
8 333
2 488
62 472
223 284
495 47
349 171
76 29
185 74
368 482
498 162
490 369
354 284
286 373
285 147
362 191
99 242
384 299
214 254
247 77
254 46
240 378
332 52
490 267
138 311
92 305
466 355
194 361
174 319
371 278
243 281
498 326
226 467
219 156
218 243
415 235
346 110
347 304
448 109
245 307
387 240
347 371
3992.5
4
