60
9
0 0 0 0 0 0 0 0 0
64 85 51 30 13 13 12 76 47
67 86 16 67 43 30 74 99 20
25 33 25 67 19 51 79 96 81
63 92 99 61 80 69 12 50 56
50 52 57 66 10 28 21 83 100
92 65 36 37 90 44 95 73 29
52 67 100 75 11 57 46 76 16
50 24 100 55 59 34 80 89 21
59 80 15 75 69 90 63 87 14
73 25 21 67 74 35 87 86 34
11 56 53 73 41 37 24 34 88
88 22 21 45 13 32 98 26 100
63 61 48 89 20 65 50 69 70
92 24 98 88 22 12 79 16 48
92 61 15 43 28 64 54 23 23
99 17 97 42 35 97 42 41 13
53 77 67 76 94 89 24 27 92
78 66 33 73 58 56 67 15 19
16 57 67 28 52 95 80 42 47
93 68 98 82 62 74 34 73 96
58 89 37 66 71 61 82 64 62
95 62 99 12 72 10 87 54 12
98 59 72 89 56 96 25 87 64
10 57 82 78 25 73 50 72 81
56 51 24 24 15 27 60 64 98
75 28 24 29 95 93 89 71 50
30 37 82 49 15 98 29 84 41
87 78 100 92 96 91 97 31 19
36 33 15 87 44 77 10 21 71
82 70 74 98 22 84 42 61 77
42 45 79 92 31 73 12 97 71
76 61 96 27 75 10 87 82 94
48 23 56 84 25 51 77 13 98
78 38 82 50 46 34 39 94 54
18 13 81 67 88 55 26 55 54
88 94 89 17 28 36 52 19 92
97 42 74 29 75 75 96 38 69
60 21 24 68 64 44 11 27 99
46 77 25 68 32 48 52 32 39
31 47 89 58 10 42 83 51 41
33 42 81 69 13 47 71 43 10
79 60 69 22 60 52 100 82 15
63 29 85 18 96 93 42 12 37
50 24 84 24 35 10 46 88 41
12 62 47 57 37 79 18 71 31
52 27 56 61 88 34 41 46 72
56 45 78 39 16 60 100 59 92
62 79 26 75 51 98 59 81 66
82 58 18 50 74 22 47 89 53
59 37 53 95 29 10 31 41 37
16 67 30 93 72 65 27 28 88
34 91 43 15 81 91 58 67 59
41 38 58 21 72 19 56 68 67
57 35 54 31 19 47 81 31 87
13 81 94 59 55 48 89 90 85
50 81 94 40 98 69 53 41 55
80 33 84 66 16 71 97 93 83
51 19 61 79 44 99 33 13 37
79 77 44 65 78 58 69 99 65
1.20202
1.20048
0.584284
0.645297
0.511672
1.17085
1.33787
1.29666
1.43997
1.49745
1.48409
1.46787
1.13424
1.30548
1.35988
0.823135
1.48248
0.483695
0.752231
1.42755
1.25557
1.17301
1.14803
0.923643
0.608201
0.730757
1.28162
0.865224
0.367424
0.454539
0.83187
0.504034
0.773495
1.47177
1.07746
0.413937
0.587084
1.43008
0.980403
0.478319
1.00721
0.682292
0.695746
0.466898
1.07647
1.35573
0.654328
0.370138
0.453973
1.49281
0.30514
0.795891
1.05975
0.632616
1.49006
0.996193
1.47425
0.970406
1.07169
1.04175
415 261
444 64
391 224
198 457
469 227
68 470
413 20
376 166
454 338
302 88
10 153
241 386
175 293
337 416
306 205
391 399
34 396
413 7
464 172
173 54
474 195
5 264
428 42
459 321
338 124
320 295
410 421
22 164
477 101
339 352
174 108
75 109
328 393
184 87
417 149
163 20
146 422
59 350
111 273
375 317
412 314
91 11
237 441
182 146
185 309
0 171
113 221
311 493
470 417
386 454
28 496
430 159
163 258
443 10
293 106
227 281
94 40
169 412
196 103
28 4
8322.5
2
