60
3
0 0 0
35 47 60
61 21 10
53 18 78
65 89 18
67 65 100
11 47 79
27 38 30
28 11 24
84 82 74
23 32 51
23 23 37
77 88 58
84 99 87
91 87 98
70 70 60
11 89 60
79 61 86
61 16 75
69 16 81
37 48 81
30 55 89
87 81 23
82 47 44
24 53 78
35 32 31
49 57 25
57 81 31
90 38 43
39 70 76
59 57 31
99 66 49
89 81 40
29 75 67
22 59 54
21 32 27
39 47 46
70 13 100
45 10 80
52 20 40
59 85 73
33 68 78
87 42 31
39 72 74
91 74 60
41 81 47
29 40 60
49 41 16
42 57 37
13 92 10
15 39 23
85 23 52
30 92 16
21 67 47
49 55 63
13 36 86
40 72 34
61 31 51
81 91 46
48 27 56
0.415467
0.404369
0.33664
0.374847
0.32998
0.117492
0.296237
0.266448
0.323254
0.122046
0.315468
0.121233
0.414185
0.471501
0.112206
0.147383
0.229805
0.306204
0.456189
0.154478
0.346262
0.186803
0.139917
0.346979
0.233896
0.24995
0.477143
0.149921
0.287592
0.249437
0.273058
0.158069
0.471293
0.27133
0.252231
0.341446
0.139001
0.288462
0.104934
0.480285
0.49913
0.164662
0.299541
0.486021
0.397191
0.144419
0.2811
0.172931
0.339157
0.409938
0.172531
0.180913
0.225655
0.103401
0.35923
0.3623
0.374229
0.13264
0.417483
0.45083
183 289
139 114
222 128
258 46
257 264
71 80
364 229
464 396
80 157
48 372
393 266
224 67
142 431
206 436
382 61
4 339
170 277
465 76
121 433
293 155
100 361
197 196
110 138
342 483
34 370
354 304
222 53
366 417
458 360
423 39
492 381
69 378
334 18
351 321
442 32
220 25
142 266
131 433
481 167
428 80
435 182
57 264
461 415
81 232
137 498
190 231
61 384
157 386
272 63
40 167
112 131
26 232
360 394
396 227
447 120
208 387
441 202
445 395
305 390
256 147
3911.25
4
