60
5
0 0 0 0 0
70 58 84 51 60
44 77 83 44 68
80 69 95 78 64
15 22 88 16 74
67 43 11 77 29
16 58 62 65 71
48 24 22 35 52
98 84 73 90 47
16 68 63 36 89
35 40 70 13 54
98 53 99 30 91
48 86 50 60 71
95 95 66 92 82
96 29 41 62 86
98 99 55 67 83
70 21 23 63 42
39 68 84 35 34
67 27 83 37 65
21 100 61 47 95
34 11 89 70 48
67 92 94 26 52
51 77 29 66 12
76 15 70 83 60
68 51 66 74 71
100 29 26 98 85
90 86 43 18 21
35 83 10 52 62
71 18 93 90 67
16 81 78 59 92
45 66 67 99 68
27 53 97 72 84
61 95 57 38 52
15 92 28 19 84
37 30 12 82 50
27 100 60 47 12
48 91 60 43 14
47 90 11 10 79
51 87 92 47 46
100 69 33 98 59
18 39 10 11 21
65 97 28 12 78
49 76 41 37 70
86 11 81 77 16
41 95 31 83 54
76 28 77 52 32
45 25 90 96 45
26 88 69 53 65
31 15 66 18 21
68 59 60 47 69
44 94 63 88 52
22 99 15 45 75
67 37 94 82 79
87 98 12 20 80
81 13 65 91 14
21 33 74 48 95
57 93 18 80 51
16 68 11 24 23
95 10 67 27 63
57 59 100 86 42
1.63136
0.780354
2.48383
2.33463
2.03458
0.898399
1.50938
0.971873
2.13507
2.17387
0.9485
0.54996
1.14446
2.1722
1.56934
1.32576
0.546064
2.26458
1.11823
1.03046
1.24431
2.02256
1.62757
1.93995
1.2386
0.567376
1.43529
2.46585
0.832638
1.23544
1.48226
0.97081
2.03754
1.3598
0.822765
1.99387
1.43418
1.75551
2.00065
0.788951
1.5733
0.640413
1.42779
2.47929
0.683318
0.8531
0.960578
1.01587
1.02375
1.69641
2.49412
1.89149
2.19658
1.18274
2.49487
1.77953
1.03917
2.02404
1.24295
0.537849
179 499
298 277
203 155
452 476
437 462
356 334
460 267
418 424
361 87
329 472
401 100
326 275
191 179
338 183
133 121
282 121
297 452
286 152
122 6
416 292
204 229
230 498
344 355
37 406
90 17
341 121
164 286
242 358
348 292
317 465
239 206
235 442
10 239
340 281
274 499
95 113
144 486
146 81
499 276
150 139
66 337
107 277
429 327
182 273
41 137
162 313
122 56
16 350
392 352
244 394
371 237
201 440
372 165
326 432
273 112
202 35
317 467
280 407
10 117
138 466
5631.67
3
