60
11
0 0 0 0 0 0 0 0 0 0 0
43 53 50 54 22 99 12 78 98 33 74
62 85 87 58 72 66 99 56 98 20 74
97 63 62 74 46 53 50 34 20 14 29
53 40 57 96 65 83 52 95 88 46 96
36 55 75 44 14 99 42 22 50 78 99
62 93 70 87 14 29 28 75 69 58 15
83 60 59 10 69 29 36 17 77 66 86
15 36 57 23 99 90 73 51 41 41 73
27 22 43 34 62 48 94 49 91 87 84
69 69 46 42 20 85 80 87 77 95 96
13 43 78 75 76 58 84 75 80 90 15
61 82 14 14 59 25 76 47 73 41 48
33 10 75 16 67 64 53 53 94 10 44
90 43 41 22 51 20 98 74 66 93 98
73 59 74 12 35 98 15 80 53 42 60
19 93 76 36 100 81 50 26 94 84 15
95 100 57 99 83 74 72 14 22 54 47
15 25 47 76 10 77 56 14 90 69 34
11 69 96 94 69 64 86 72 46 62 87
57 28 96 49 76 41 66 55 69 44 82
64 38 63 11 36 85 72 99 77 43 48
76 67 100 86 48 17 98 86 45 98 79
50 35 23 85 69 13 29 12 10 49 16
69 48 12 83 79 27 14 15 55 13 85
90 23 25 66 10 36 33 74 11 97 70
62 72 78 10 70 43 50 58 76 52 89
38 40 85 45 86 12 47 79 98 27 78
77 59 49 64 20 38 84 23 14 46 93
27 87 85 37 33 68 45 41 15 39 51
56 35 76 56 92 37 81 14 99 50 24
27 97 45 79 82 99 86 35 54 31 34
55 92 83 66 31 17 68 92 71 61 56
82 73 71 85 22 65 55 73 61 45 44
32 28 88 94 68 28 61 47 51 88 29
28 72 95 65 48 97 94 49 34 72 47
24 18 100 78 14 45 19 17 99 10 61
93 48 11 84 14 16 70 21 12 68 90
33 29 29 37 75 84 33 10 73 10 99
76 84 10 66 71 40 86 71 75 61 68
68 86 10 33 75 68 92 86 95 79 53
21 41 28 45 76 66 91 15 29 75 57
44 39 18 17 37 18 41 25 89 59 62
19 21 96 78 55 39 19 52 17 40 75
65 78 93 36 46 25 48 84 22 79 84
80 53 78 42 65 62 84 10 11 93 86
65 99 12 12 14 50 58 41 49 62 54
55 55 60 93 37 95 79 24 70 91 24
72 54 45 43 47 87 34 73 87 44 71
36 84 13 67 60 72 52 87 40 32 26
50 41 16 36 88 78 13 86 39 76 72
88 30 71 13 78 19 13 11 37 83 52
79 79 72 11 73 84 15 14 10 31 63
22 51 64 35 64 22 14 92 47 78 24
91 12 54 20 23 96 82 50 82 14 88
74 42 87 100 49 27 47 29 19 72 15
78 42 35 56 29 28 42 20 10 29 51
69 93 59 73 78 70 33 16 94 12 73
88 51 69 71 84 74 54 29 18 15 54
38 62 75 83 38 100 51 86 95 73 84
0.976349
1.96148
1.95552
0.905898
0.472151
1.47163
1.95175
1.45858
0.664283
0.61884
0.897734
0.651011
1.60419
1.29786
1.94392
1.32857
0.591086
0.582704
1.52574
1.1658
0.438998
0.876981
0.603366
1.86768
0.912743
1.45595
0.915157
1.72513
1.97634
1.63275
1.78321
0.837868
1.29553
1.74937
0.831681
0.625149
0.657736
0.510318
1.2862
1.31763
0.65822
1.99021
1.4841
1.94935
1.68134
1.71749
1.36672
1.41368
0.469767
0.563564
1.20101
0.654425
1.43274
0.934367
1.98659
1.14242
1.81209
1.33133
1.76241
0.735751
116 136
444 97
334 305
160 398
124 361
332 43
109 39
134 474
291 498
4 480
462 360
280 241
320 426
274 199
437 107
336 319
354 175
431 194
344 433
201 15
413 29
34 411
482 352
80 9
266 334
17 373
380 31
249 250
478 344
416 150
16 311
399 409
77 229
241 473
129 54
468 319
156 92
245 193
485 256
483 414
9 212
372 312
30 219
497 429
129 253
172 423
300 56
81 290
133 103
407 381
131 496
145 277
396 320
334 327
140 370
288 29
49 388
359 432
81 76
415 91
16420
1
