60
3
0 0 0
19 81 10
15 63 45
90 23 28
97 18 31
18 90 65
67 54 77
45 20 90
16 79 79
30 55 92
82 66 42
29 81 76
82 41 60
38 43 43
43 29 90
21 77 58
15 95 62
60 37 19
28 92 73
22 88 87
62 32 29
99 39 73
47 44 14
66 99 39
31 26 70
90 91 80
58 89 53
88 89 19
30 76 97
50 27 46
43 76 73
53 35 46
71 47 60
85 21 20
100 60 47
31 94 60
42 51 45
72 27 62
82 82 32
40 44 23
82 95 35
50 27 32
18 91 17
59 84 33
61 25 19
77 96 47
32 81 79
25 99 42
71 33 33
22 57 44
25 57 41
16 91 60
65 49 72
60 27 30
71 96 44
75 59 98
80 42 91
58 26 93
57 53 66
57 29 34
0.401054
0.647443
1.23291
1.6772
1.70815
1.68398
1.35133
1.02512
0.805775
0.876018
0.497774
0.885869
1.51694
0.706526
0.959934
0.766337
1.18898
1.82331
1.05274
0.586981
1.91666
0.773107
1.03869
0.764322
0.501519
0.80606
1.64199
1.22929
1.03845
1.19583
1.69856
0.543744
0.527847
1.85598
0.781265
0.428611
0.716092
0.95362
0.905924
1.54251
1.93133
0.404849
1.43919
1.05634
1.41311
1.8919
0.918787
1.83335
1.2242
0.467996
1.90167
1.93421
0.788028
0.521336
0.973154
0.784363
1.98005
1.71797
1.61966
0.82346
367 272
339 30
48 320
340 284
151 232
15 272
154 491
75 27
226 26
144 195
390 146
149 39
98 257
188 249
201 59
498 42
140 433
482 211
119 251
417 495
38 244
352 130
475 392
2 392
267 226
151 79
332 466
427 199
307 57
105 126
232 318
382 451
180 144
128 181
340 421
84 381
212 243
459 110
87 122
36 320
475 372
276 461
409 10
470 380
312 222
402 192
118 339
13 317
476 105
138 276
423 388
185 423
83 221
229 7
426 260
326 371
275 222
407 401
250 84
45 143
3247
5
