60
3
0 0 0
41 20 76
84 63 76
20 61 61
11 94 22
97 81 72
28 12 56
18 20 92
72 90 37
77 33 98
69 61 60
66 37 96
12 46 56
63 52 29
32 68 72
17 99 69
26 54 38
72 87 77
16 31 72
41 75 63
74 29 19
12 63 65
45 81 74
30 33 16
91 38 46
49 99 27
83 92 83
37 18 18
56 39 58
13 98 70
64 62 43
43 50 66
55 57 47
52 43 68
28 38 48
55 11 56
85 28 72
41 49 48
97 79 94
28 72 43
83 89 44
26 72 28
41 91 39
97 80 50
32 85 74
87 63 44
63 30 18
38 63 74
88 99 67
30 77 90
92 52 78
84 58 73
83 46 26
92 61 57
51 99 99
24 67 100
24 24 37
71 75 91
13 91 24
72 73 33
1.98521
0.872421
0.621764
0.654385
1.14737
1.14285
1.21809
1.04688
1.99982
1.10652
1.47181
1.13415
1.93354
0.474113
0.907162
0.905139
0.685497
0.798929
0.476618
1.04067
1.53113
0.485046
1.46674
0.618725
0.821366
1.76678
0.816877
1.89885
1.59914
1.50106
1.94247
1.5599
1.19083
1.82724
1.07266
0.688583
1.30737
1.62571
1.98934
1.38653
1.76469
1.31851
1.64776
1.51548
0.471109
0.610192
0.537666
0.832381
1.6829
0.56007
1.48697
1.41522
0.457245
0.538207
1.92446
1.95934
0.664476
0.622744
1.30379
1.82809
289 452
94 461
398 56
111 163
164 113
73 380
403 449
332 340
286 337
79 73
133 465
90 317
477 429
270 292
241 131
357 181
373 339
346 110
166 259
120 323
173 151
9 288
341 302
4 255
214 66
268 280
23 2
44 71
320 468
206 333
319 381
320 202
401 495
289 57
144 138
348 234
351 145
480 477
420 38
45 206
63 208
83 414
200 44
200 460
228 146
476 191
151 261
126 132
121 3
157 388
315 122
469 239
329 53
434 265
133 341
434 476
325 459
274 190
233 19
127 357
8397.5
2
