60
3
0 0 0
66 25 96
19 72 86
73 89 50
12 52 26
91 59 35
87 23 34
47 83 57
88 17 25
95 27 97
98 12 55
95 93 64
60 78 98
18 91 71
57 75 28
73 96 100
38 94 66
66 85 49
52 70 56
89 82 83
37 54 20
78 66 84
15 73 69
51 20 54
89 48 30
10 13 18
92 62 27
18 72 54
23 100 45
50 57 70
14 49 10
51 99 81
23 79 93
30 98 32
35 48 61
13 10 43
60 31 77
43 60 22
92 32 63
56 98 51
78 54 12
33 10 67
34 91 84
53 45 49
80 38 61
79 65 53
18 79 11
66 80 29
83 22 53
93 77 51
15 42 15
13 71 53
71 11 31
98 47 52
58 80 26
35 19 71
11 28 97
31 18 38
10 39 71
18 50 74
0.326699
0.420399
0.316646
0.484434
0.209184
0.273433
0.365528
0.142126
0.480988
0.427095
0.304199
0.376889
0.449529
0.476242
0.411112
0.154247
0.204313
0.447791
0.313221
0.160876
0.290156
0.465901
0.224307
0.392174
0.265805
0.244318
0.148464
0.349897
0.223072
0.274885
0.134612
0.303708
0.215442
0.105286
0.282715
0.456682
0.388005
0.270189
0.438825
0.344652
0.306988
0.273392
0.439125
0.253014
0.100842
0.473401
0.429786
0.483868
0.405218
0.377964
0.177949
0.494738
0.497726
0.293083
0.359474
0.224943
0.134251
0.191722
0.179268
0.310726
272 324
418 168
382 217
145 130
269 405
63 422
43 485
457 377
432 225
384 343
391 44
262 137
412 433
362 157
175 270
149 184
268 387
277 0
426 272
167 328
462 405
30 467
32 17
15 427
361 180
388 193
395 488
104 479
485 259
405 48
65 86
87 377
351 448
228 397
334 295
165 329
264 112
301 461
211 153
124 389
347 452
179 13
456 304
496 133
170 437
260 363
175 406
335 16
356 469
302 297
84 290
162 343
336 176
107 65
303 230
445 314
176 231
342 463
219 219
256 99
4006.25
4
