60
11
0 0 0 0 0 0 0 0 0 0 0
98 75 93 16 17 74 73 80 86 37 67
16 84 15 27 14 54 12 84 64 62 63
76 85 89 57 55 35 73 55 56 57 29
17 55 69 59 23 52 51 19 72 73 24
66 88 69 54 25 46 78 25 20 78 54
56 17 56 46 60 29 66 39 77 52 28
13 68 40 91 67 58 49 74 84 46 28
32 13 32 28 69 84 41 14 37 67 91
53 17 15 83 72 17 42 80 28 90 61
33 55 54 17 18 88 91 78 95 38 60
53 16 24 25 91 81 38 87 85 74 41
66 37 53 55 60 80 13 85 60 94 25
63 78 38 82 18 16 24 84 30 72 42
11 21 56 97 61 44 10 98 62 14 71
72 12 81 18 49 77 23 10 21 48 17
82 13 29 81 88 85 62 92 79 39 87
49 12 51 62 65 59 10 43 47 87 93
66 16 33 36 49 23 83 63 76 15 87
35 65 51 33 84 14 63 95 72 57 42
10 73 41 30 59 30 42 70 94 66 99
47 42 62 91 54 91 99 59 83 33 65
54 100 33 97 22 11 92 15 41 84 47
73 16 40 65 87 42 72 24 62 11 69
65 66 45 88 53 54 91 83 69 91 78
74 81 42 56 27 99 21 49 63 93 60
55 16 29 88 19 56 72 46 18 37 83
13 40 95 46 29 63 76 52 73 23 19
100 90 33 79 43 95 90 44 82 99 90
21 27 43 26 83 59 52 40 87 68 65
90 90 55 12 54 16 74 63 21 51 82
41 60 44 30 49 80 22 83 23 28 87
93 69 83 88 21 48 30 32 98 70 17
100 85 22 40 20 20 35 62 47 79 57
96 36 51 50 41 48 63 97 63 92 80
58 16 51 48 93 37 76 49 47 36 57
69 14 45 36 28 44 36 75 13 36 63
68 22 40 84 96 92 58 23 63 100 33
12 77 77 83 49 100 80 77 89 37 72
22 83 90 42 45 31 85 33 20 87 82
93 41 69 30 44 11 32 19 31 25 44
39 21 62 95 92 62 65 96 59 47 60
77 86 38 68 75 75 81 13 21 39 95
71 64 93 88 93 28 18 69 84 86 21
68 14 73 27 17 76 37 41 64 16 99
52 82 68 55 79 48 92 49 40 60 84
26 25 21 86 35 86 92 41 80 44 21
21 97 54 15 80 51 65 73 66 46 100
71 27 87 33 55 91 98 100 50 44 88
47 85 37 56 83 33 91 79 56 12 58
12 38 77 58 45 16 32 30 86 16 80
52 83 19 51 70 44 82 99 36 42 81
41 85 62 70 89 96 36 94 45 52 99
13 24 71 26 46 93 67 62 56 21 38
23 39 53 95 38 18 73 67 83 42 72
47 31 90 45 48 72 57 72 51 16 94
52 36 21 74 22 74 43 93 58 46 63
55 36 99 79 12 77 11 34 65 28 45
21 49 56 88 85 67 99 46 76 28 36
95 66 25 100 55 88 80 90 34 58 86
0.912819
0.407296
0.418016
0.960316
0.663485
0.621528
1.48361
1.44815
1.19554
0.336241
0.502625
0.988782
1.28356
1.36992
0.645334
0.583339
1.44398
0.98535
0.500556
0.949192
1.17897
1.02949
1.40095
1.04986
0.607093
0.424931
0.798721
1.16752
0.369272
1.25275
1.34996
0.799011
1.02408
0.587743
1.20502
0.568091
1.16592
0.342998
1.00732
1.38423
1.31899
1.15502
0.338315
0.711912
1.00789
1.264
1.25229
1.24027
0.63105
1.40931
0.333321
1.35729
0.64337
1.25683
0.409954
0.613614
0.670563
0.703522
1.34708
1.13433
334 325
380 354
80 137
301 144
479 351
90 463
221 139
103 284
199 258
453 220
315 188
269 472
415 141
286 22
379 454
359 247
299 65
500 356
439 127
262 407
97 463
194 394
221 258
450 239
26 34
340 208
448 290
455 306
423 289
4 35
440 195
207 361
387 51
419 17
26 239
345 83
57 54
200 131
233 231
317 97
345 84
424 173
310 492
123 488
321 376
386 339
478 134
398 169
261 469
379 278
461 46
34 331
107 457
62 304
383 142
250 250
384 325
123 31
216 491
91 212
16465
1
