60
11
0 0 0 0 0 0 0 0 0 0 0
17 78 17 77 35 71 63 75 81 16 34
49 17 67 60 24 52 82 94 44 74 99
86 31 18 11 77 60 70 80 82 57 34
59 53 13 42 81 54 93 91 59 99 77
96 23 26 95 96 20 30 31 37 99 57
81 19 16 14 57 71 48 36 71 66 95
48 75 12 77 95 91 36 37 25 89 100
29 49 45 30 81 75 11 45 40 24 93
68 19 44 65 97 26 94 23 35 84 94
55 72 70 70 51 79 16 28 38 11 54
79 88 70 74 36 96 78 20 16 78 25
13 100 68 79 23 50 89 23 16 37 80
28 48 76 62 78 13 64 48 48 42 47
12 100 96 78 96 69 74 18 47 34 52
26 81 50 48 33 81 100 62 47 17 24
11 22 19 85 75 95 95 44 35 88 24
16 44 55 58 51 35 57 53 97 54 19
15 94 80 60 100 18 11 65 64 91 76
24 93 28 43 26 58 86 71 53 61 69
73 85 82 91 17 93 57 42 61 78 97
23 53 90 33 29 99 99 79 50 42 30
13 31 72 56 17 42 25 45 30 17 42
64 19 18 62 73 76 25 24 46 49 74
14 43 47 55 90 98 68 75 83 78 16
39 23 98 90 24 38 84 17 84 29 38
27 83 39 11 75 23 78 94 31 54 38
63 79 65 28 78 98 10 69 30 28 94
59 33 16 74 44 11 21 28 88 70 62
41 73 61 93 84 92 55 51 18 88 71
95 20 93 12 15 39 19 61 52 41 96
78 22 20 99 10 47 23 40 38 61 35
100 92 63 36 64 22 47 52 57 96 87
73 83 55 57 87 47 59 17 79 34 66
79 100 67 79 63 15 14 32 30 32 28
54 77 63 12 45 69 39 42 64 34 98
62 96 85 81 84 100 23 50 59 60 21
16 69 66 57 60 84 36 83 79 45 13
68 32 64 87 100 98 56 52 81 58 37
26 12 23 17 77 10 74 22 15 72 37
39 99 58 55 28 94 78 76 26 71 45
10 35 28 28 64 72 53 75 87 23 78
94 60 70 41 98 72 29 11 69 43 66
33 81 21 55 87 54 86 18 40 82 12
45 37 79 97 51 16 48 74 36 75 69
39 42 57 51 21 12 84 80 36 26 50
67 82 94 83 30 24 39 83 51 42 90
75 55 79 91 59 46 58 54 51 71 41
75 55 79 94 97 56 40 92 83 11 66
98 92 93 79 63 74 24 47 87 34 14
75 30 55 41 62 65 89 96 48 69 63
62 51 35 93 99 54 75 70 47 94 88
11 76 79 11 93 67 72 96 13 78 27
80 79 75 68 59 11 73 20 27 50 38
62 87 97 15 62 69 89 56 99 96 68
11 51 37 71 79 27 31 36 20 56 84
74 45 42 31 48 32 87 88 73 64 38
94 11 21 75 47 80 21 23 44 69 68
88 82 30 51 82 10 63 73 71 85 64
64 31 55 25 51 38 62 38 10 26 35
1.0112
0.728033
1.01386
1.82029
0.998949
1.07684
1.05847
1.58425
1.67612
2.27156
2.47636
0.745207
1.04137
1.06858
2.32667
0.764055
1.38839
0.688583
1.89709
1.46863
1.68278
1.93691
1.90872
1.44952
0.841719
1.78863
0.516631
2.32759
1.25726
1.68946
1.94174
0.698412
2.01233
2.07335
2.13322
0.932912
1.17025
1.9846
1.7874
2.1273
1.35268
2.03288
1.67734
1.29359
1.81618
1.83844
1.95258
0.595773
1.43385
2.44666
1.68808
0.762046
0.512861
0.735384
0.698471
0.916863
1.48319
2.09421
2.40605
2.3341
358 492
434 199
203 485
262 305
19 371
432 298
224 451
434 456
397 2
159 99
122 214
34 58
298 96
480 75
55 69
437 269
62 395
119 51
102 57
79 137
42 272
135 392
75 259
332 148
22 21
95 455
452 104
441 469
184 8
226 131
416 186
64 367
67 421
461 144
66 8
63 249
419 10
354 103
375 106
314 55
260 460
381 405
455 394
140 15
477 44
209 101
381 157
169 208
500 215
179 255
199 180
54 76
71 186
38 301
345 350
488 372
414 82
193 273
417 233
447 70
5485
3
