60
7
0 0 0 0 0 0 0
71 12 96 40 37 27 54
30 80 56 18 55 24 35
47 84 64 68 33 58 95
99 64 49 20 97 64 25
33 26 94 34 28 54 21
74 65 80 29 70 33 46
11 71 77 12 47 19 27
87 51 93 98 26 25 94
57 96 59 36 68 81 99
45 27 45 19 49 45 77
98 10 16 74 32 26 100
63 64 37 96 26 70 96
10 41 27 37 47 68 15
44 17 70 38 49 66 97
24 37 41 28 62 36 76
75 35 34 54 24 38 69
74 86 100 96 59 77 35
11 20 48 21 64 94 78
41 46 34 90 94 39 60
11 74 20 37 48 88 37
38 78 28 91 23 36 20
78 22 15 94 56 78 94
36 67 83 77 92 80 41
14 76 92 44 63 76 90
82 44 25 86 58 60 99
59 41 50 31 31 43 71
66 39 12 13 70 17 93
66 25 77 56 16 69 85
90 84 16 55 66 82 97
44 86 93 52 42 55 12
66 84 43 14 78 97 49
98 37 66 44 93 98 94
87 79 82 62 88 21 74
41 52 40 46 52 26 79
59 64 39 97 63 38 90
80 87 97 16 86 27 18
31 74 54 93 53 100 75
64 99 14 97 22 45 71
24 38 43 30 84 93 53
89 78 36 46 58 45 68
24 92 13 30 94 75 30
42 76 99 57 13 88 21
10 94 77 83 28 87 40
29 31 20 35 25 10 47
68 41 81 85 24 87 57
17 36 99 49 93 37 18
38 16 35 59 40 55 74
72 80 13 30 97 29 16
44 20 54 55 12 65 55
64 69 75 47 57 26 81
25 46 57 94 98 67 69
21 19 21 30 22 54 79
44 84 90 59 14 87 61
28 48 83 68 14 93 71
37 96 69 13 41 33 80
85 84 10 76 57 94 76
11 34 61 11 24 20 94
73 29 62 22 89 80 89
15 10 66 10 89 52 99
2.24163
2.31475
0.638176
2.25561
1.03959
1.38107
1.17466
2.35482
0.852248
1.08815
1.63441
1.88816
0.869679
1.31163
2.11196
2.20898
1.73985
1.27487
1.90169
0.904566
1.95518
2.30246
1.82017
0.770914
2.25882
1.68798
0.580929
1.35399
1.70251
1.99546
2.25418
1.67098
0.72338
1.11498
0.89729
1.33651
1.01313
1.21397
2.4334
1.57626
0.820816
1.67363
1.52226
1.77922
1.81704
1.70252
1.0065
2.0969
2.38488
1.61547
1.1497
0.63212
2.48092
1.0391
2.43614
1.77599
0.628843
1.71637
1.28593
1.88127
497 327
194 170
362 433
403 305
249 178
143 330
340 475
309 308
60 196
209 263
441 451
47 146
111 320
449 103
54 440
470 41
321 40
383 464
66 287
28 388
467 9
154 9
82 164
67 277
324 474
487 19
277 229
113 444
26 279
156 342
40 72
305 287
293 445
229 75
3 192
239 417
239 475
147 179
146 379
370 264
495 444
278 219
378 365
297 118
65 116
16 345
257 217
282 407
386 264
167 412
441 192
193 2
46 234
499 435
118 475
141 220
178 220
229 362
131 142
419 494
16230
1
