60
5
0 0 0 0 0
56 51 48 49 77
39 52 94 89 59
27 32 76 94 84
79 69 81 84 76
76 80 63 99 68
99 81 14 19 56
93 88 34 19 73
67 51 22 89 71
52 79 79 77 88
70 20 26 26 35
84 62 23 91 42
32 70 74 53 37
34 47 13 35 72
33 40 13 62 42
39 68 86 75 59
17 25 10 54 93
15 49 79 49 77
69 74 81 62 93
25 15 26 36 16
56 29 91 52 38
92 19 67 50 20
49 55 21 16 92
100 30 56 26 98
66 37 57 66 54
31 80 44 28 21
71 100 31 57 70
39 12 84 96 66
65 36 52 99 36
93 55 18 85 48
55 45 69 12 36
49 87 75 65 67
57 95 35 72 58
29 88 66 29 27
18 24 46 77 16
13 85 60 14 86
88 12 93 91 79
57 44 77 36 11
96 51 26 77 24
74 100 48 59 80
10 29 41 26 89
57 83 46 65 17
39 43 88 53 71
87 72 75 41 57
34 74 10 42 10
18 26 90 58 78
30 74 62 74 39
15 86 69 95 94
42 93 53 67 79
64 72 81 27 26
21 41 93 34 89
82 80 32 88 30
33 72 42 28 12
14 21 71 79 11
61 36 82 94 43
22 72 88 81 33
10 53 62 11 73
14 66 59 86 56
44 19 23 42 20
33 45 74 49 75
0.140283
0.179008
0.339109
0.130273
0.497883
0.320149
0.250622
0.463955
0.448767
0.213819
0.280901
0.164999
0.402984
0.288276
0.211585
0.166157
0.121798
0.288791
0.271599
0.438042
0.193445
0.166834
0.111241
0.377317
0.149478
0.380819
0.354052
0.12026
0.467856
0.356359
0.39747
0.297786
0.413047
0.218896
0.40042
0.219283
0.211089
0.494986
0.131911
0.114236
0.354999
0.222239
0.226617
0.451144
0.283631
0.23366
0.192052
0.347727
0.158794
0.435612
0.335687
0.25873
0.272597
0.367109
0.238209
0.123415
0.134461
0.306871
0.466333
0.376003
115 240
230 211
270 171
125 159
72 373
500 42
346 454
326 396
104 77
377 365
379 492
473 482
356 457
150 470
387 147
330 438
145 404
16 301
365 169
321 429
175 227
371 466
156 13
271 398
34 8
30 218
442 49
206 313
364 442
9 336
450 471
120 212
117 63
470 332
224 422
259 80
93 407
406 144
328 239
119 182
286 192
192 468
33 284
175 282
483 254
270 298
420 256
184 373
463 200
30 22
130 303
178 351
317 163
296 30
184 91
296 25
274 301
468 449
391 206
181 328
5393.33
3
