60
11
0 0 0 0 0 0 0 0 0 0 0
10 74 44 79 74 75 28 59 86 22 11
60 31 93 97 36 66 88 70 29 40 18
40 27 80 77 79 66 61 82 11 19 23
23 65 49 30 17 48 85 70 33 69 42
69 38 75 42 77 92 40 68 66 81 34
45 45 50 58 29 43 87 96 54 69 85
70 25 22 83 70 30 68 74 14 98 96
36 12 20 54 42 76 97 54 37 73 98
11 61 70 34 45 45 45 16 67 66 44
23 67 44 33 11 47 91 84 78 81 48
98 43 61 22 34 72 35 22 12 61 56
32 91 61 86 38 53 81 98 18 42 32
89 85 48 40 73 91 38 21 45 95 75
46 62 84 13 96 99 46 53 81 44 66
51 98 57 47 23 55 27 54 16 88 44
20 92 25 49 38 28 21 86 63 91 10
15 12 13 58 35 25 36 28 99 83 26
84 34 27 56 18 67 78 70 76 14 83
16 89 27 35 47 39 83 27 89 14 65
94 100 19 31 85 76 82 18 89 94 66
17 82 25 36 64 100 91 32 86 74 17
93 81 93 62 20 22 94 87 13 53 91
23 76 49 26 14 64 96 61 67 48 81
79 54 57 75 86 66 68 32 65 34 84
14 19 26 30 71 94 13 10 49 11 51
50 20 15 51 69 35 37 48 32 47 10
31 94 26 60 79 74 19 52 95 89 19
69 56 85 85 65 88 20 99 63 84 86
45 50 72 80 64 74 88 70 73 57 35
58 28 84 36 15 51 10 62 21 60 59
30 55 72 21 25 91 88 21 92 80 28
54 17 69 99 76 25 15 63 65 96 43
94 91 57 25 22 90 56 92 94 75 90
87 95 32 95 57 29 82 50 10 44 42
95 22 11 81 27 20 65 46 38 10 57
63 68 51 82 27 68 98 84 81 14 56
91 35 88 65 85 21 62 97 87 30 28
38 23 92 66 61 31 16 93 90 40 88
42 96 92 11 43 84 97 42 83 46 97
69 38 76 89 41 47 75 55 14 85 77
69 10 39 37 77 93 75 81 86 54 14
71 20 72 86 63 32 19 40 36 22 45
54 88 85 96 53 22 73 66 85 71 58
80 96 63 59 71 47 21 16 34 15 84
72 62 92 56 88 63 49 89 75 63 87
75 51 65 57 36 34 76 27 45 90 44
24 81 38 53 95 54 83 84 83 99 78
75 76 31 29 94 75 74 68 66 36 46
91 87 50 95 46 58 23 86 76 63 94
98 79 54 28 31 38 73 47 39 11 79
12 52 77 67 61 35 76 95 26 85 90
35 85 13 76 38 52 20 85 49 87 48
29 80 96 83 96 74 95 72 39 26 55
81 82 73 58 98 84 90 52 55 16 66
72 96 63 96 76 32 31 88 29 23 45
48 56 79 35 99 62 91 11 67 11 79
30 24 81 26 17 35 28 29 30 41 59
81 37 32 46 43 34 73 41 58 63 15
69 48 54 33 32 63 11 95 59 72 51
0.696693
1.18782
1.22098
1.49239
1.63688
0.752766
1.42707
1.89463
1.38555
2.37082
0.508732
1.47445
2.25775
2.30808
2.34909
2.25128
1.17973
1.46245
2.31582
0.613301
1.19206
0.857752
0.878763
2.18708
1.16129
2.27438
1.07495
2.25377
0.823567
0.990139
0.849268
2.3243
2.41321
2.25407
1.38545
1.06697
0.521198
1.97516
2.15715
2.39558
2.05099
1.57261
0.829813
1.52805
2.06954
0.792099
2.12153
1.01906
1.38005
1.20741
0.915003
2.43126
2.07102
1.87757
0.599061
1.85524
1.92331
2.45262
2.4437
1.35074
321 76
164 246
425 8
279 192
157 102
121 220
15 79
2 92
493 430
234 97
98 370
398 288
442 171
15 186
384 409
43 224
199 401
83 71
269 423
62 458
350 389
497 395
228 123
70 154
69 308
370 334
104 57
274 483
230 406
451 358
485 43
471 388
17 299
363 303
232 19
314 19
150 190
363 430
115 455
255 11
32 227
442 44
253 411
173 21
144 84
100 263
27 293
78 107
217 447
298 486
232 213
445 402
253 35
53 396
426 269
391 372
90 72
388 239
366 363
306 171
5568.33
3
