60
5
0 0 0 0 0
87 81 33 34 19
97 48 58 15 83
74 32 62 23 15
14 82 86 93 11
25 20 68 52 67
84 21 71 96 84
18 13 81 23 58
15 26 21 55 79
75 20 70 17 57
34 67 45 82 56
35 13 73 22 45
85 74 61 99 39
54 40 84 83 74
98 16 88 60 58
41 79 88 29 84
32 49 11 16 88
46 12 41 51 89
81 99 41 36 49
81 91 66 50 74
39 75 49 58 61
30 51 87 35 18
24 83 14 87 26
11 83 73 84 66
43 100 81 33 99
35 27 62 70 86
56 84 27 93 10
90 40 96 18 39
28 63 28 64 40
56 98 88 41 53
43 53 29 19 12
38 91 49 60 93
80 84 18 52 38
58 91 89 69 66
40 96 31 65 36
21 97 12 42 26
94 12 82 58 37
51 95 77 23 68
10 52 72 79 80
50 81 64 61 71
69 79 74 69 25
57 19 22 50 65
47 93 82 97 91
25 29 38 93 85
88 30 48 87 77
66 56 91 98 47
89 58 25 36 90
85 71 32 21 15
86 84 16 26 93
14 35 26 85 16
34 69 83 64 55
19 94 47 67 98
36 50 34 63 25
60 54 32 24 40
98 75 86 69 51
62 22 60 21 25
70 30 54 58 91
38 53 53 17 40
80 55 38 15 89
52 18 71 99 62
1.35339
1.93439
0.477661
1.98038
1.64027
0.541496
1.80916
1.72071
1.23132
1.64762
0.634817
0.504846
1.76406
0.670845
1.84682
0.671193
1.56926
1.77478
1.62463
1.14267
1.1709
1.0946
1.37781
1.20832
1.39219
0.898848
1.99399
1.10326
0.735045
0.491109
1.9876
1.95585
1.84023
0.565308
0.866205
1.96626
1.60616
1.67756
1.206
1.94256
1.08144
0.449961
0.634316
1.17968
1.92938
1.57362
1.58925
0.801132
0.799986
1.00296
1.24718
1.02851
0.852935
1.4813
1.04116
0.890088
1.48881
0.715593
1.29423
1.29786
363 178
397 363
299 443
248 458
376 257
449 84
410 464
9 135
421 247
370 136
2 299
340 403
237 223
99 9
58 201
259 371
364 33
398 100
159 277
379 442
26 126
168 36
124 197
56 191
32 486
278 495
92 365
257 344
452 63
184 182
243 447
53 437
254 391
0 450
161 397
179 410
500 212
284 301
6 107
183 376
11 318
392 287
112 108
262 377
54 63
91 190
468 190
70 71
172 11
110 155
37 113
469 115
115 301
437 22
77 172
61 181
38 195
98 45
205 117
447 261
16385
1
