60
3
0 0 0
12 28 47
74 37 84
91 24 58
14 85 100
79 23 93
77 56 98
37 78 11
82 42 56
85 48 18
97 76 45
86 27 18
78 45 66
79 23 35
25 33 41
86 88 36
68 29 68
41 25 94
77 13 26
38 60 23
99 84 55
43 32 21
47 69 72
43 27 32
18 32 30
31 75 92
100 38 31
50 82 53
35 52 79
38 43 27
82 44 55
93 70 82
87 92 29
69 43 79
58 83 27
31 93 55
20 72 75
19 93 78
80 13 54
96 17 22
95 62 97
43 62 50
97 10 70
48 90 61
78 37 47
23 74 16
61 80 92
48 52 38
39 10 43
93 65 14
43 24 64
76 27 35
31 95 95
67 56 17
40 50 50
66 90 71
77 13 19
36 15 18
99 28 54
21 32 85
2.06259
0.968314
1.65871
2.45443
1.7677
2.15338
0.63538
2.21622
1.73357
0.52745
1.49882
1.46293
1.96384
2.09564
2.07393
1.89715
2.44224
1.67324
2.25644
2.29421
1.94821
1.45077
1.88741
0.692612
1.83069
1.95443
1.21921
2.11597
1.77367
0.938843
0.556048
0.814248
0.87452
1.9244
1.89725
2.17938
1.388
1.58763
2.2004
1.74599
1.49
2.18123
1.59612
1.5139
2.2689
1.93071
1.38906
1.10128
0.808651
0.753624
1.18516
1.05541
2.12629
0.67526
0.555987
1.70525
1.74837
0.957205
1.51716
1.68366
413 487
132 475
32 242
208 328
2 100
458 492
85 66
232 459
452 97
230 192
32 124
332 143
121 84
105 373
58 446
233 75
273 257
477 192
416 36
399 383
388 14
284 14
8 151
239 192
357 92
335 249
368 192
233 432
102 197
259 367
488 338
132 226
297 72
58 283
303 396
344 303
285 199
335 11
500 234
271 261
433 64
24 395
118 489
196 347
433 439
443 237
384 238
408 82
185 418
458 223
6 278
21 496
203 137
318 247
170 10
82 465
391 20
289 162
344 92
114 236
4005
4
