60
7
0 0 0 0 0 0 0
57 34 97 53 19 20 92
54 72 84 66 44 44 47
64 60 60 90 79 70 38
59 67 47 99 53 74 29
45 87 25 46 94 95 15
27 26 33 76 13 66 68
15 89 21 27 33 37 33
82 76 11 98 58 15 56
38 94 41 23 34 34 32
44 51 42 52 45 68 84
52 70 63 95 70 75 89
82 95 95 42 40 85 33
75 91 97 50 70 91 95
62 82 15 77 81 92 41
100 57 17 94 23 12 95
49 91 87 46 71 83 19
34 22 12 87 47 68 34
90 34 74 83 64 25 72
56 60 36 49 22 98 97
52 14 17 88 70 54 48
41 43 13 21 66 90 90
25 91 39 11 82 84 95
24 86 85 47 80 37 19
16 64 13 87 68 19 35
81 80 82 84 69 40 11
60 15 52 55 71 28 26
71 80 52 67 46 95 55
94 51 93 80 61 100 69
99 10 83 78 94 39 21
54 46 51 21 83 24 82
87 22 43 36 84 54 54
28 87 80 48 28 19 51
11 34 75 48 16 50 86
99 56 36 51 99 73 22
29 64 70 93 32 97 85
67 52 91 23 78 31 13
65 19 66 30 72 75 35
65 32 32 91 27 70 60
92 52 14 39 70 14 89
59 26 63 42 51 89 96
87 65 22 78 99 96 92
29 100 75 75 36 22 56
16 63 93 39 75 32 19
64 84 34 41 77 86 56
47 10 22 46 14 47 88
73 51 71 50 75 91 62
59 38 36 43 42 16 39
77 53 36 53 58 100 92
61 22 62 64 73 37 97
80 82 73 95 28 33 18
81 14 56 46 66 74 61
81 48 83 95 99 95 24
92 17 86 68 60 70 42
39 46 47 99 59 78 57
10 20 32 28 11 83 14
65 48 97 72 30 90 42
94 81 92 43 99 68 52
81 22 79 66 47 42 75
99 79 61 78 50 20 51
2.27293
2.13092
0.538214
1.30834
1.65756
1.34771
2.0252
2.17179
1.99546
0.959506
1.74447
1.32933
0.644789
1.94381
0.67587
1.37034
1.32107
2.02561
0.65556
2.20204
0.947734
1.62921
1.90229
0.616785
1.85252
2.12858
1.49122
1.37475
0.940986
2.07285
1.67278
1.68785
1.56895
1.67012
1.24351
1.27217
2.10941
1.93497
0.547532
0.760649
1.39894
1.54058
2.48013
1.23618
1.31187
1.13069
1.64898
1.58899
1.58567
0.652086
1.72019
1.52311
1.65597
2.34804
1.99104
1.16782
2.36068
1.28302
1.28748
1.31566
429 57
209 376
458 65
10 464
170 52
477 399
471 249
49 349
95 243
308 140
58 68
486 393
174 321
324 383
407 299
422 219
22 91
368 196
477 294
57 373
148 326
298 467
56 399
448 141
147 313
424 230
111 206
70 168
54 125
189 468
369 39
443 144
95 63
283 79
338 34
204 337
181 181
466 425
173 205
74 365
416 312
258 484
97 186
120 382
183 143
314 24
306 346
330 396
45 448
397 17
294 374
100 372
472 76
316 405
197 154
360 9
359 372
73 1
288 107
151 387
16975
1
