60
9
0 0 0 0 0 0 0 0 0
72 68 23 51 100 97 21 77 99
35 18 97 31 35 61 98 17 28
99 48 98 80 88 93 82 80 37
97 56 68 15 25 26 47 34 78
23 91 83 98 26 37 10 53 89
91 36 63 10 45 66 83 60 85
52 43 58 63 10 76 82 59 76
57 60 18 87 61 11 68 70 35
21 25 34 70 80 55 55 19 79
72 46 60 50 76 17 99 82 39
32 99 17 87 70 77 40 86 90
40 89 60 17 36 69 74 59 96
61 28 82 49 10 52 34 57 42
61 74 91 76 93 94 19 62 75
50 70 72 98 23 60 45 92 61
63 82 42 82 26 67 73 21 15
33 26 65 89 92 49 33 37 65
25 66 44 92 95 50 38 73 20
27 86 50 60 66 97 64 32 65
36 85 83 97 57 80 52 49 65
27 72 82 22 78 56 76 67 84
56 75 67 51 78 88 53 49 64
35 77 60 42 38 54 10 63 45
96 12 69 59 28 18 68 32 33
42 53 55 80 31 60 70 20 12
57 70 84 51 65 48 69 90 59
64 39 78 79 94 96 44 42 62
70 19 47 11 96 45 59 53 92
18 94 12 47 92 25 31 75 90
63 59 88 15 85 32 31 35 23
100 46 81 41 26 59 72 10 72
64 89 26 11 77 90 49 24 92
32 74 71 93 10 69 21 40 42
65 39 56 45 11 17 28 52 17
64 95 42 68 55 67 85 16 35
49 37 89 78 74 20 14 64 77
24 38 60 78 96 92 62 40 73
19 64 57 38 75 26 79 51 78
82 65 57 49 73 84 91 25 14
39 12 91 10 68 22 87 99 40
54 56 43 20 99 59 69 34 25
39 48 28 92 43 85 72 17 97
70 90 27 12 88 71 65 14 68
10 67 75 73 52 45 51 65 38
34 46 58 53 20 63 28 99 29
33 96 14 24 62 55 57 20 66
62 30 32 31 45 55 54 67 30
26 76 91 54 87 26 88 97 79
40 67 45 24 99 97 70 47 45
71 67 71 33 66 61 66 61 55
53 69 89 45 30 90 88 70 38
20 72 88 15 85 45 17 54 39
19 56 94 32 39 25 37 19 19
33 69 99 84 47 67 49 56 99
22 83 12 17 78 66 83 37 22
75 58 24 16 91 90 40 69 21
63 80 64 35 29 57 85 84 35
97 46 55 95 56 74 69 12 99
32 58 27 45 11 65 92 22 79
0.572218
0.905084
0.859737
0.494004
0.389289
0.925955
0.75142
0.797236
0.760347
0.569166
0.447941
0.751149
0.405267
0.31583
0.320155
0.635011
0.735783
0.896488
0.482907
0.712676
0.991212
0.688633
0.320213
0.971625
0.92039
0.512342
0.427828
0.466344
0.212406
0.817847
0.746749
0.573519
0.535636
0.783296
0.608999
0.385689
0.393781
0.882398
0.743852
0.621158
0.95425
0.21824
0.832211
0.601465
0.261288
0.488357
0.679545
0.727452
0.484648
0.55983
0.837583
0.71826
0.355431
0.88008
0.225393
0.623172
0.93289
0.542155
0.764058
0.468042
439 185
406 222
344 13
137 184
498 328
259 98
44 181
398 147
205 45
4 399
202 2
167 363
298 266
335 28
178 149
375 157
138 498
130 447
450 332
339 79
108 179
461 296
257 497
312 436
107 47
38 211
248 204
371 298
344 387
26 24
181 120
44 314
191 480
357 158
85 453
11 85
454 244
115 461
226 407
157 139
481 423
350 382
304 29
369 318
436 381
111 438
45 356
215 140
90 280
106 187
191 218
251 149
260 77
40 268
212 62
214 365
6 416
256 246
18 248
214 495
4142.5
4
