60
9
0 0 0 0 0 0 0 0 0
41 84 12 42 17 88 17 77 68
99 67 63 97 31 49 92 79 80
50 93 88 33 69 62 49 57 72
29 62 75 33 83 55 48 29 44
41 75 86 34 61 29 26 42 55
60 99 93 62 73 41 48 90 60
61 86 57 79 57 84 82 71 46
99 24 73 100 73 73 50 85 61
61 44 35 45 33 34 96 81 29
82 95 67 71 48 33 91 36 93
10 85 94 49 40 97 93 33 91
88 77 18 25 56 70 20 53 61
63 74 67 30 95 22 70 87 86
26 34 68 40 94 96 69 28 73
10 99 39 47 15 36 74 35 77
80 35 96 44 67 83 23 61 54
61 83 59 10 93 89 13 93 70
39 25 69 90 46 69 27 18 14
17 96 24 35 18 13 41 98 23
25 26 93 92 67 57 60 89 16
65 94 93 33 85 39 76 94 64
65 20 33 82 99 47 63 28 69
33 48 83 77 84 18 63 53 15
72 17 25 32 20 82 19 84 38
94 68 13 45 43 22 28 98 67
22 23 10 62 67 47 46 90 24
83 81 18 72 50 40 13 32 54
47 95 12 73 53 72 86 75 25
52 12 58 82 27 18 69 89 89
20 89 32 20 21 12 62 22 27
83 54 40 76 22 18 30 82 93
11 16 14 12 10 35 42 35 23
55 38 56 77 81 90 69 57 23
23 16 78 45 36 51 24 15 19
56 57 16 38 37 16 26 76 22
18 25 47 88 80 75 17 91 32
28 76 46 75 35 45 76 57 24
65 45 62 97 82 76 61 80 61
55 86 100 81 74 37 53 66 41
76 53 91 63 29 27 36 47 78
62 81 18 44 78 96 14 53 49
67 57 21 35 100 21 56 60 50
51 27 59 67 88 86 47 90 14
24 31 76 14 77 82 37 37 78
60 56 94 47 34 17 63 60 44
63 86 76 51 66 63 54 95 61
58 39 64 51 79 42 32 31 77
70 58 41 74 80 45 25 32 93
62 66 45 47 45 16 61 23 46
80 46 75 95 95 71 16 32 92
82 84 49 24 81 67 39 85 66
73 100 93 71 20 45 70 71 28
100 21 76 94 96 100 54 53 25
19 64 29 38 18 86 59 50 47
36 47 35 80 69 98 89 11 69
94 61 11 34 16 24 45 26 14
73 89 99 81 40 78 35 80 87
54 18 78 15 71 35 11 100 24
56 16 63 58 31 33 21 52 69
0.884053
1.03765
0.96629
0.559605
1.0287
0.722261
1.10125
0.877654
0.46923
0.347437
0.951376
0.417645
0.687856
0.611413
1.1048
0.515945
1.22532
0.595434
0.731863
1.47605
0.414438
0.35041
0.642759
0.544474
1.16533
1.04673
1.32641
1.37355
1.44998
0.796566
0.751733
1.18419
0.859789
0.969898
1.14396
1.05883
0.710837
0.396375
0.659213
0.972297
1.09152
1.23815
0.798283
0.621915
0.851481
0.581246
1.26371
0.461304
0.910969
0.44139
1.02176
0.541619
1.1637
0.674355
1.47256
0.598245
1.31805
0.49872
0.680628
1.40678
359 326
251 254
33 28
47 498
230 393
363 424
308 330
418 311
87 268
23 121
395 328
245 306
112 164
288 126
407 301
310 216
107 347
211 440
328 82
119 255
389 363
283 263
26 215
170 257
174 131
196 141
56 263
300 107
493 169
448 25
130 330
285 40
284 475
256 144
330 132
166 24
51 329
370 99
277 130
142 441
231 335
487 423
412 342
434 58
136 24
64 457
403 364
71 167
168 434
372 102
475 199
57 27
482 360
462 141
433 397
3 243
100 258
299 320
323 144
64 269
4071.25
4
