60
11
0 0 0 0 0 0 0 0 0 0 0
59 27 43 91 97 45 65 94 37 62 89
89 88 29 48 33 41 48 55 55 57 64
62 93 12 86 45 75 49 26 67 55 73
20 44 52 86 24 41 87 79 98 18 53
45 91 82 100 37 18 100 97 68 18 72
80 41 17 52 99 15 49 82 48 27 93
45 87 70 41 54 64 48 72 49 11 96
61 89 30 13 46 37 45 61 19 31 81
78 53 58 61 18 14 14 30 98 55 10
17 100 14 52 17 98 59 45 72 88 88
32 71 75 36 22 49 82 55 45 90 96
13 44 64 53 72 50 32 77 72 61 61
74 12 59 63 13 72 71 12 66 73 26
18 76 87 23 59 89 39 73 96 60 22
28 69 47 13 100 38 60 96 78 27 46
36 37 43 41 38 12 30 59 45 72 57
43 83 19 77 62 69 33 41 75 81 13
67 58 12 72 25 88 82 15 61 21 27
100 78 83 84 98 66 19 40 20 64 61
51 56 18 25 73 83 19 72 82 35 58
25 12 14 32 56 26 61 45 16 66 32
46 40 59 20 99 24 36 34 76 26 68
82 34 76 82 22 83 18 10 73 25 28
32 51 60 82 88 100 12 84 53 72 73
98 58 97 38 41 32 48 80 32 46 62
33 25 62 32 70 81 46 37 74 99 14
55 13 83 76 22 90 26 14 76 20 50
60 81 79 84 42 63 75 74 14 16 93
45 99 82 99 42 85 58 55 36 41 34
74 13 99 19 26 36 80 63 14 91 32
99 37 74 13 84 40 64 17 22 53 91
47 77 96 19 78 58 84 92 78 73 66
24 42 51 72 69 25 45 91 27 86 24
13 66 61 66 36 91 20 56 41 87 35
49 59 33 30 74 50 31 11 62 93 28
21 43 86 57 61 30 94 100 32 100 45
69 51 77 55 79 43 28 96 62 95 79
11 82 80 79 17 62 98 73 85 46 89
43 99 66 88 99 56 75 65 64 84 29
50 79 12 54 47 96 16 93 14 60 45
45 72 35 51 78 32 68 10 66 57 44
13 30 32 39 49 58 61 54 99 66 37
31 52 39 88 58 16 69 96 94 82 39
64 99 88 73 99 99 56 66 100 31 21
93 98 93 48 20 37 18 84 95 53 84
15 94 13 13 60 10 92 46 91 49 71
64 14 96 36 87 24 74 10 34 53 81
76 48 28 52 61 99 37 48 26 74 80
72 11 65 66 38 22 38 98 26 74 87
70 68 95 19 30 49 96 70 53 68 33
13 38 61 79 70 42 54 29 73 71 85
97 17 93 33 22 16 36 22 23 56 31
80 36 76 18 83 32 92 26 28 65 50
51 78 83 83 89 17 48 58 24 90 89
16 34 12 82 87 33 30 71 83 73 86
79 76 56 59 47 11 45 18 72 28 26
22 24 100 69 89 44 18 41 99 43 48
95 38 40 100 10 58 28 40 26 26 93
12 61 77 79 79 70 14 68 28 88 16
2.14392
1.21448
1.21272
0.563274
0.980903
1.71941
1.01375
1.6725
2.42216
1.57386
0.834101
1.56688
1.89354
1.38367
1.31416
1.54506
0.884105
0.570207
1.51191
1.76256
0.531197
1.28796
0.682425
1.13846
1.63577
1.8007
2.31445
1.83442
2.09111
0.727034
1.39917
0.732393
1.92475
2.1011
0.902137
1.75325
1.03379
2.47144
0.763337
1.28651
2.04588
0.513265
1.38929
1.61317
1.117
0.551467
2.33158
0.586492
1.19197
1.9183
1.34406
0.686345
1.25246
2.08212
2.26214
1.7836
1.10379
1.2786
0.773732
1.02799
370 424
443 188
247 181
210 350
289 180
32 230
115 440
31 414
437 211
301 322
15 477
117 339
41 27
377 247
40 21
50 444
396 387
345 266
69 178
350 256
229 218
437 25
167 350
9 395
64 36
72 64
351 164
342 309
289 445
402 487
120 319
369 363
258 68
499 63
5 423
226 338
481 291
435 188
187 20
113 119
6 169
389 480
344 21
439 127
496 217
362 250
69 381
178 134
85 322
440 33
82 108
446 227
398 494
270 473
374 244
163 270
112 286
27 382
473 115
426 274
5433.33
3
