60
3
0 0 0
72 99 50
59 38 12
61 69 97
59 23 69
30 77 59
20 36 38
60 58 43
42 67 85
85 33 86
49 15 18
34 25 94
47 15 70
29 27 99
48 79 11
85 94 84
82 64 20
94 29 34
77 25 20
98 60 88
56 15 14
76 55 31
33 98 38
29 77 86
69 84 30
93 73 59
95 78 11
46 36 46
47 25 79
55 26 53
52 61 70
100 80 64
23 13 80
35 69 43
53 32 37
41 90 22
63 40 98
58 31 95
57 31 43
63 52 21
47 50 21
72 88 37
80 69 48
71 49 98
12 42 20
13 45 95
18 74 52
75 90 23
42 24 88
97 70 59
26 88 11
32 51 86
42 70 45
59 80 88
17 40 37
23 31 83
72 19 46
70 76 38
12 91 84
24 100 78
0.732708
1.83994
0.470123
1.6844
1.92134
0.975049
0.873392
0.793949
0.433276
1.10299
1.29092
1.34943
1.36965
1.12039
1.21482
1.90698
1.75758
0.911026
1.14503
1.19664
1.29758
0.863999
1.41889
1.54672
1.35018
0.64175
0.89526
1.55071
1.55486
1.40274
1.53112
1.92043
0.709388
0.519103
1.73856
0.788703
1.5195
0.961941
1.04759
1.85371
0.478592
0.749498
1.6753
0.727425
1.79204
1.57541
1.2181
1.15823
0.833974
1.02442
1.11416
0.437862
1.5047
0.865434
1.78605
1.43499
1.22181
1.50651
1.97254
0.532092
55 133
300 300
491 11
14 42
128 192
387 421
156 10
485 304
389 240
283 316
246 354
429 143
130 343
354 366
284 65
203 310
192 277
305 167
128 411
282 251
8 33
369 425
123 164
210 118
429 245
214 316
39 315
216 51
135 470
418 45
113 387
297 418
369 244
317 260
98 80
75 273
17 75
240 278
101 282
179 431
184 78
82 226
347 111
212 169
73 402
299 262
339 240
254 49
110 331
201 173
120 15
357 374
278 81
171 113
91 275
274 274
53 162
202 16
392 134
123 344
16095
1
