60
3
0 0 0
25 29 59
65 51 48
11 97 71
44 56 55
54 62 53
78 34 71
28 98 55
57 78 53
42 76 16
35 90 48
75 87 16
70 76 33
98 87 21
68 66 97
51 17 96
51 15 97
49 77 88
45 35 52
64 48 26
62 65 38
13 98 58
65 30 60
95 62 35
24 20 61
77 87 28
95 43 63
14 68 63
59 63 79
19 73 33
94 84 91
97 35 72
11 93 70
97 54 65
33 94 96
26 64 82
51 84 87
97 29 49
93 23 53
31 86 20
30 36 92
68 64 65
36 49 52
59 76 68
32 12 19
90 57 13
24 47 100
62 39 82
56 96 98
72 50 33
90 30 74
16 88 78
46 20 45
73 87 96
72 35 74
77 96 42
18 53 46
91 25 36
89 11 42
81 75 67
0.78952
0.636882
1.26224
1.09132
0.702632
1.45813
1.07439
1.45555
1.36672
0.579942
1.1937
1.34585
1.00767
1.08828
1.02502
1.09534
0.303062
0.330016
1.03584
0.896894
0.968494
0.77084
0.826465
1.43252
0.305852
0.712609
1.22283
1.30754
0.977815
1.41714
0.950609
0.779166
1.41481
0.838696
0.657369
1.08846
0.995086
0.5086
1.37619
0.537013
0.519385
0.875938
0.372992
0.472984
0.817391
1.34872
1.08706
1.3133
0.90484
1.35643
1.38615
1.3564
1.20135
0.359241
0.87091
1.1027
0.74414
0.856045
0.319413
1.11046
211 333
398 288
265 287
296 399
237 204
355 24
176 129
479 11
125 346
423 367
158 398
166 311
459 332
211 205
159 472
176 66
474 303
91 5
172 133
390 482
26 482
42 126
98 145
37 318
24 217
37 243
374 383
168 239
485 41
60 210
18 163
242 7
330 205
199 163
19 372
244 365
206 326
256 57
444 362
239 64
20 201
171 460
350 318
113 38
271 91
165 178
109 381
483 40
341 411
465 209
449 2
50 148
144 87
173 314
64 412
82 159
390 185
66 234
358 413
197 453
5725
3
