60
5
0 0 0 0 0
56 64 40 63 14
14 94 42 74 95
58 83 70 47 18
92 51 88 17 40
49 50 59 92 17
67 88 51 79 29
41 51 92 75 24
45 88 60 73 68
59 94 96 22 61
32 37 47 48 39
95 49 75 11 44
55 95 91 44 16
93 46 69 15 74
15 84 16 72 90
92 50 65 16 20
33 18 43 85 29
30 41 14 78 56
96 11 23 88 38
86 37 48 75 49
87 41 64 80 95
37 20 31 39 33
22 71 22 57 13
40 20 99 51 71
58 98 86 38 42
31 24 50 13 46
81 48 80 27 60
97 81 79 71 36
44 29 71 57 69
100 74 100 74 78
55 21 88 100 47
49 30 70 98 26
14 79 46 45 11
25 30 24 21 48
88 34 13 20 99
89 40 56 81 97
58 35 77 57 39
69 56 18 12 81
85 59 86 84 42
33 31 91 13 14
28 86 53 84 42
41 23 72 74 65
99 11 77 96 53
31 11 22 70 35
51 27 24 29 13
62 78 65 23 62
59 10 36 31 39
23 14 97 96 91
57 63 65 94 80
22 42 56 39 45
82 54 74 91 61
18 47 67 55 89
83 73 21 65 97
37 89 49 49 70
87 85 76 22 60
86 45 60 100 46
46 76 17 38 41
78 58 49 65 67
32 64 28 23 57
21 60 40 30 34
0.828081
0.585837
0.796116
0.880756
0.795731
0.814292
0.82086
0.420204
0.355593
0.217868
0.425114
0.735865
0.711881
0.412151
0.828712
0.693826
0.276133
0.489036
0.910952
0.401445
0.81972
0.446893
0.503713
0.680881
0.733508
0.544393
0.943192
0.889954
0.482963
0.969457
0.740821
0.635346
0.761889
0.633769
0.94338
0.668694
0.640521
0.585167
0.87945
0.790514
0.397807
0.226654
0.243313
0.798046
0.580496
0.85608
0.418147
0.532232
0.97618
0.604838
0.460417
0.37568
0.33356
0.461739
0.907073
0.791096
0.448567
0.415104
0.316162
0.981175
348 457
308 40
283 111
105 307
99 202
141 268
91 135
374 310
458 427
179 168
241 88
277 365
208 186
424 123
350 434
349 352
181 371
229 125
335 351
327 437
405 458
434 15
63 305
139 156
140 216
66 45
396 69
222 101
113 278
187 375
27 337
469 301
48 442
72 87
388 69
296 303
291 305
201 27
21 296
325 340
432 379
372 286
465 126
62 265
373 431
184 378
197 170
180 72
186 313
4 271
309 272
198 383
13 131
453 122
295 410
227 221
268 315
163 407
178 41
144 215
3214
5
