60
3
0 0 0
85 19 69
78 32 11
21 17 40
83 11 93
31 28 88
27 81 93
86 70 49
38 76 89
56 93 98
10 84 59
36 62 47
56 77 80
73 41 87
68 82 28
22 30 77
96 33 32
35 20 76
29 70 62
94 65 87
32 48 29
43 19 34
91 85 21
43 99 76
85 25 33
18 79 45
27 81 77
85 72 96
31 12 58
45 53 37
69 99 33
61 54 54
50 91 28
43 77 95
85 97 57
87 33 27
86 50 74
60 45 57
91 33 94
40 87 13
41 24 75
87 46 54
33 10 71
74 13 55
38 25 92
39 63 53
12 92 80
43 75 48
74 38 58
68 10 88
87 16 91
58 87 79
79 59 68
82 76 56
69 77 76
21 10 47
34 60 100
96 43 74
77 72 93
42 88 51
1.8573
0.44307
0.44204
1.12205
0.443413
1.53735
1.12877
1.62694
0.755596
1.01785
1.37609
0.611582
1.10189
0.815776
0.566847
1.03735
1.50917
0.452041
1.03791
1.36147
0.634013
1.30253
0.454363
1.1088
0.542119
1.85781
1.60927
0.901165
1.17979
1.46826
0.516983
1.15057
1.83937
1.01946
0.478082
1.37046
1.55032
1.67572
1.44843
0.802348
0.538624
1.35046
1.75499
1.29167
1.18545
0.881055
1.98719
0.938579
0.730341
0.802946
0.813278
1.84696
1.60977
0.88396
1.03771
1.48769
0.575733
1.39886
1.78508
1.40174
488 344
93 34
290 309
310 376
91 494
136 208
345 388
477 367
297 225
13 190
345 81
130 394
316 32
267 172
22 234
179 155
410 377
84 241
481 437
361 279
467 255
6 441
246 374
362 3
13 451
18 469
460 161
311 344
398 368
87 261
406 11
106 305
400 341
147 208
179 103
274 47
373 28
67 192
56 419
425 463
160 200
22 118
366 11
21 375
376 151
415 421
422 477
481 273
179 454
408 95
490 430
347 362
197 456
477 311
333 434
444 140
197 68
249 452
188 466
155 469
4281.25
4
