60
9
0 0 0 0 0 0 0 0 0
86 61 46 29 49 77 26 36 38
82 64 89 73 21 13 97 80 65
13 100 25 39 27 21 82 66 63
67 47 14 34 57 41 34 30 30
72 99 100 13 56 91 76 16 83
56 75 79 24 10 98 13 81 85
63 99 24 39 56 10 91 77 23
94 55 55 12 25 60 53 77 74
88 73 33 56 95 91 55 28 71
78 19 88 75 74 33 13 44 47
40 50 22 10 15 44 98 37 85
39 25 62 84 20 63 92 88 61
96 87 70 39 86 14 96 59 45
78 24 38 84 14 57 88 22 88
39 16 48 11 83 14 78 39 75
31 82 78 21 60 83 53 11 63
84 98 27 54 81 89 50 95 77
67 45 21 50 99 87 58 31 13
37 12 90 13 68 46 94 35 24
13 51 16 56 99 39 49 88 54
58 91 39 48 71 24 44 75 58
88 17 59 97 13 27 94 28 76
50 100 63 86 82 32 85 49 59
40 32 23 82 99 44 61 62 74
23 18 75 31 75 74 63 23 69
20 32 86 23 76 54 23 57 51
30 13 93 21 82 76 79 91 32
43 67 71 59 80 59 85 83 68
56 100 63 77 79 13 68 82 26
13 40 59 72 44 91 51 86 72
97 98 92 77 24 60 65 99 58
34 50 53 69 100 36 38 68 91
95 14 11 93 88 85 49 83 23
28 29 90 25 11 92 49 11 56
74 13 66 45 49 59 65 19 43
73 49 11 13 67 49 47 95 58
75 57 34 45 42 62 99 27 98
68 99 23 44 19 37 100 62 51
68 33 98 73 50 100 66 29 56
73 23 28 39 98 40 56 45 87
82 76 91 33 64 35 14 70 26
38 48 59 49 10 74 62 14 23
93 44 63 24 33 92 32 10 99
71 72 68 63 78 54 95 62 55
38 51 32 50 79 34 21 66 77
76 39 54 35 22 65 39 61 49
89 37 59 13 21 85 11 81 16
80 37 93 93 53 89 57 64 33
35 73 78 59 99 38 31 28 69
63 39 50 26 37 17 47 77 95
62 79 30 82 99 52 17 97 49
10 89 35 93 38 63 80 48 75
12 85 58 26 50 95 29 13 40
52 39 52 14 33 60 72 53 70
57 53 51 82 52 85 66 52 63
86 59 94 87 32 30 100 57 56
14 84 18 61 61 66 11 64 44
64 57 43 89 96 82 44 88 43
32 41 87 39 58 83 22 24 27
0.870496
1.94898
1.45286
0.559406
1.83743
1.28146
1.52578
0.915196
0.790233
0.940356
0.749884
0.824759
1.6837
1.12673
0.552228
1.65978
1.587
1.00206
1.41452
1.26049
0.666749
0.999724
1.22591
1.77599
0.571987
0.885177
1.77729
1.38112
0.925181
0.732418
0.97262
1.70878
1.09137
1.94651
1.06556
1.75783
1.17388
1.09368
0.679464
1.1865
0.543921
0.463926
1.50317
1.16978
1.21539
0.897146
1.33059
1.87066
1.64372
1.06066
0.683218
1.99333
1.48916
0.972181
1.32388
0.752103
1.78368
0.753489
0.408118
0.439113
406 230
290 17
300 117
17 65
242 339
139 14
76 150
299 424
179 482
42 73
467 135
468 250
235 14
343 475
342 401
221 430
224 17
155 428
301 486
427 307
339 56
82 113
251 396
468 104
156 198
250 218
100 211
196 94
340 325
332 462
51 269
374 320
0 133
41 17
258 365
275 109
400 132
148 150
152 395
368 472
136 212
464 152
348 353
292 348
422 150
51 311
297 219
473 11
18 399
425 461
275 253
429 309
34 103
66 78
284 103
148 250
284 94
9 210
398 438
122 400
3296
5
