60
3
0 0 0
56 52 95
50 70 50
95 60 100
90 83 18
80 79 93
56 55 24
24 63 66
37 90 19
69 42 90
73 51 99
66 57 38
14 28 11
87 83 22
17 84 30
67 71 85
60 16 66
26 74 73
24 25 99
37 75 47
68 18 24
74 48 36
99 45 37
11 58 72
84 79 57
92 40 12
61 22 30
84 64 96
78 14 65
85 39 18
73 15 50
27 47 63
58 95 11
46 68 92
84 76 90
79 16 90
41 41 57
68 37 39
50 16 48
78 84 61
38 31 50
22 61 51
21 47 94
80 76 97
93 82 87
59 80 73
43 21 88
73 54 51
40 25 83
12 56 59
16 10 52
53 50 44
88 29 28
47 20 79
39 79 59
65 24 62
27 13 61
41 84 32
78 60 20
84 55 96
0.365907
0.348081
0.164429
0.348139
0.471011
0.150339
0.302754
0.42963
0.274506
0.489135
0.414186
0.49092
0.29088
0.141066
0.37704
0.462898
0.196808
0.170785
0.431462
0.382559
0.358592
0.376368
0.208549
0.291419
0.180832
0.480001
0.493335
0.477556
0.346743
0.351515
0.230939
0.299875
0.310199
0.349311
0.108666
0.365695
0.215544
0.156543
0.112763
0.265681
0.135623
0.322985
0.190619
0.461664
0.144095
0.495429
0.245099
0.481479
0.378142
0.49647
0.222502
0.460914
0.391093
0.151742
0.264983
0.284005
0.345667
0.479943
0.17162
0.265442
384 429
280 71
204 43
94 288
118 248
435 121
401 174
255 58
285 468
396 134
228 274
210 473
446 118
335 89
7 65
111 117
397 334
412 246
347 309
153 230
45 100
0 233
79 351
280 469
447 158
266 432
9 151
415 377
239 351
421 100
112 382
360 427
441 337
321 312
277 89
149 455
92 295
223 186
457 493
187 87
433 486
326 396
220 183
31 426
110 489
261 319
273 32
327 212
295 133
200 266
307 287
237 37
338 292
492 454
37 42
434 189
11 189
271 436
398 418
146 442
16435
1
