60
5
0 0 0 0 0
30 36 16 87 81
59 99 96 93 24
12 74 77 65 53
29 81 83 61 10
38 37 24 36 11
35 22 58 64 61
51 33 25 72 48
100 96 37 70 50
77 82 49 35 87
92 57 27 16 34
51 97 13 67 92
52 58 14 35 70
30 23 47 19 99
51 48 12 80 58
28 81 11 85 90
56 49 26 75 84
91 68 97 13 58
77 20 35 56 44
77 47 37 42 67
47 86 15 54 33
15 20 11 53 91
75 78 28 71 70
24 95 71 27 86
46 69 43 81 18
64 30 73 49 36
14 48 88 69 26
54 29 19 48 51
65 52 84 17 85
69 60 30 82 62
81 33 51 43 68
75 64 68 12 58
74 93 33 40 95
39 21 51 38 11
66 40 81 27 40
39 26 68 33 44
80 44 82 49 83
11 65 90 20 83
34 46 15 100 94
20 26 88 15 42
73 41 36 68 34
33 42 50 29 70
93 93 20 41 89
88 52 76 35 68
58 24 54 82 18
36 17 20 19 82
42 25 36 71 92
89 84 62 100 30
23 32 99 36 20
62 17 55 36 58
59 18 60 82 86
12 53 33 58 37
36 53 58 97 11
99 94 91 74 23
71 91 45 70 97
15 66 22 67 65
84 67 52 57 11
33 65 96 26 10
68 64 85 75 87
87 17 54 90 33
1.4051
2.43561
0.939638
1.61522
1.52229
1.37612
2.10742
1.98278
2.21913
1.19968
0.899845
0.589241
1.31901
1.26049
0.837884
1.94759
2.01773
2.13832
1.57225
2.1423
2.10894
1.32189
2.07051
2.32853
2.11048
1.83821
0.787996
1.97565
1.40569
0.75438
0.513481
1.8911
1.1998
2.37608
1.18842
2.17068
1.62908
1.67286
1.12627
2.4403
0.655362
0.935061
0.80944
0.887058
1.44312
1.08166
1.62726
0.872752
1.62629
1.14998
1.7319
2.42184
1.58787
2.25599
1.16873
0.814375
1.34414
1.06625
2.19377
1.46105
326 400
442 84
319 465
82 401
409 76
183 270
245 309
498 118
308 49
69 105
6 287
418 499
388 490
197 339
174 310
429 125
141 41
447 96
235 126
319 375
432 369
387 212
2 123
215 319
486 431
367 394
18 34
73 394
434 489
168 160
416 149
223 2
203 375
116 271
213 381
155 402
204 97
390 467
63 413
149 139
183 75
498 96
458 280
69 475
377 230
394 400
493 291
68 114
267 469
167 309
464 14
187 229
463 268
120 315
187 445
397 329
471 209
311 96
404 89
92 46
3960
4
