60
7
0 0 0 0 0 0 0
84 42 84 10 48 31 27
74 55 15 84 74 73 68
72 54 32 53 69 47 93
79 23 40 80 85 67 92
55 47 96 13 97 86 64
12 87 59 46 52 85 31
48 88 66 96 14 16 85
47 72 87 84 76 11 34
39 86 32 56 20 69 53
87 87 33 79 54 56 49
75 81 87 52 92 88 68
65 86 35 31 91 84 71
96 25 92 52 61 26 99
13 36 94 75 87 88 99
80 83 62 69 84 34 57
58 34 33 50 66 84 53
39 93 59 83 48 88 51
36 64 100 86 84 99 78
56 28 72 38 62 37 20
50 79 71 16 92 17 57
16 88 92 15 100 85 21
74 20 74 15 39 76 78
35 52 78 75 32 45 78
89 91 81 78 12 47 95
53 96 92 64 61 41 92
57 90 30 43 71 86 53
20 34 66 31 58 24 23
60 25 75 52 11 13 82
18 37 24 35 72 70 22
86 39 100 89 63 19 20
89 47 95 76 28 18 46
95 45 17 10 31 50 67
88 45 100 63 62 24 34
92 90 27 68 79 74 93
47 65 51 56 66 61 70
63 27 36 25 43 39 98
68 95 15 62 99 41 85
44 68 42 14 52 17 32
78 81 73 76 60 59 30
23 66 45 10 23 73 20
92 51 60 73 32 30 63
99 61 51 12 35 54 15
64 61 18 47 49 89 82
45 13 92 88 40 78 21
24 62 78 22 88 35 40
56 38 79 57 91 97 38
77 20 53 71 47 42 25
21 28 95 30 67 64 25
97 45 17 76 24 75 63
15 64 13 51 69 51 54
80 98 39 86 17 75 10
54 10 32 37 48 11 92
82 73 19 91 93 41 63
79 55 11 20 66 13 74
29 27 65 40 14 67 17
100 36 87 74 40 36 82
74 15 49 30 22 53 40
48 26 86 95 78 33 59
59 98 10 42 87 89 85
0.401667
0.540803
0.596228
1.12117
0.798716
1.39023
0.593067
1.44791
1.37774
0.36095
1.26566
1.37052
0.302852
0.637537
0.395956
1.06594
0.437424
1.35922
0.967124
0.971841
0.610125
1.14506
0.883421
1.04808
1.38748
1.15945
0.850092
0.844157
1.39271
1.39683
0.651307
0.905496
0.924959
0.917586
0.368944
0.963623
0.338685
0.807425
1.16995
0.40576
1.45583
1.23197
0.49827
0.701321
0.524436
0.997974
1.2942
0.528237
1.28824
1.01923
0.563307
0.922617
1.04285
1.05129
0.300281
0.499445
0.903155
0.513318
0.843514
1.29783
274 414
360 163
387 404
49 413
98 294
331 258
385 128
305 478
440 343
219 317
489 123
41 392
157 464
52 210
252 457
87 323
366 132
215 286
252 440
125 216
279 309
329 213
136 301
134 85
311 64
342 33
169 196
325 392
375 41
164 246
366 294
127 392
486 181
113 20
244 22
366 8
237 305
151 439
96 68
297 353
254 36
484 487
438 218
39 308
214 374
41 321
25 386
196 379
355 326
118 10
114 412
50 160
364 155
233 10
165 217
443 189
236 436
155 324
306 236
394 445
8355
2
