60
7
0 0 0 0 0 0 0
94 29 43 12 48 59 71
57 100 73 55 61 74 98
60 73 89 90 75 71 78
82 76 83 78 55 34 80
81 97 40 75 53 34 34
36 25 24 56 31 48 77
11 74 35 34 47 67 80
62 11 45 16 29 99 26
88 20 64 94 54 46 49
28 22 58 41 74 23 28
60 28 20 34 97 88 37
43 14 20 49 62 11 12
47 91 81 13 21 19 66
23 13 79 75 73 32 91
62 12 13 78 61 80 25
89 71 10 98 53 43 78
28 16 58 31 77 94 48
29 77 40 83 37 20 11
19 20 27 23 71 53 29
83 29 48 33 18 28 50
43 42 94 85 92 41 34
26 26 39 33 31 30 84
30 17 67 73 65 32 18
75 52 29 71 89 78 71
11 75 16 90 17 86 43
98 92 78 40 67 54 69
87 18 55 25 20 24 44
53 82 21 37 25 23 19
55 74 60 12 89 47 50
27 75 94 60 95 94 97
86 84 37 62 77 59 92
35 84 59 86 63 82 11
90 25 56 68 48 27 11
75 70 95 16 48 62 79
79 38 39 70 62 95 13
84 85 31 83 37 26 60
98 17 93 75 29 30 41
52 85 68 55 41 32 97
98 13 63 48 25 26 66
74 49 26 67 29 68 81
16 75 28 45 60 38 40
66 70 41 63 65 92 46
86 45 12 50 63 63 62
82 71 80 91 79 42 44
40 46 28 62 64 33 39
80 28 82 23 17 91 81
65 43 37 40 15 46 38
38 83 95 10 38 61 10
32 55 76 98 40 72 75
91 16 33 35 75 17 95
66 91 14 60 15 52 76
56 61 66 80 14 45 24
67 72 99 72 76 13 22
10 46 95 62 11 11 10
43 21 25 39 81 77 98
46 70 34 80 79 23 48
53 55 35 99 36 54 24
47 70 21 77 21 30 74
21 61 85 29 49 97 88
1.38932
1.08182
1.14902
0.913973
1.68271
1.31088
1.851
0.751356
0.450352
1.07077
1.62364
0.888993
1.66387
1.74794
1.95491
1.19675
1.41362
0.640681
1.13659
1.94644
1.50332
0.429896
1.23812
1.18604
0.813637
1.27986
1.00407
0.629128
1.45043
0.491749
1.43828
1.90907
1.54083
1.47338
1.71152
1.0478
0.663179
0.610912
1.23449
1.25215
0.752641
0.9003
1.82465
0.869908
0.946061
1.52589
0.724479
1.58184
1.11745
1.33808
1.91592
1.86569
1.37055
1.72596
0.430945
0.455855
1.28629
1.86263
1.96445
1.02327
19 25
53 328
452 185
483 17
298 487
425 102
162 37
122 135
350 347
246 373
64 307
244 120
28 325
365 128
240 250
190 490
315 144
377 224
442 261
78 85
141 321
128 254
144 233
499 403
33 442
36 148
395 209
480 236
153 422
414 46
240 435
161 244
231 409
124 21
115 102
192 273
220 19
195 385
236 221
84 99
173 243
404 120
330 306
166 333
434 142
268 45
411 309
251 143
42 377
345 490
27 496
28 439
180 370
24 65
200 470
351 264
165 447
477 389
441 18
68 84
5241.67
3
