60
9
0 0 0 0 0 0 0 0 0
75 38 53 75 17 98 50 43 48
51 97 73 39 94 93 75 53 54
96 98 59 45 42 22 83 36 90
35 100 97 50 77 97 34 52 16
44 41 93 11 68 22 17 33 42
51 27 30 88 49 25 82 36 26
74 83 29 45 67 70 97 27 95
72 55 69 25 50 84 11 52 47
37 16 51 30 90 72 70 76 19
50 28 56 68 18 50 96 79 91
85 84 44 75 68 64 24 89 34
18 39 15 98 21 75 98 97 66
33 43 80 78 33 29 54 63 80
53 32 48 75 62 82 26 51 62
35 10 76 12 60 64 20 40 46
31 65 89 70 51 19 77 45 89
38 99 75 23 66 24 42 14 64
35 29 50 45 14 57 78 20 51
99 19 54 32 92 76 26 38 77
12 49 89 89 54 57 49 32 87
12 36 22 70 33 53 17 40 68
16 68 39 85 48 22 96 79 34
63 88 53 94 82 79 78 63 75
33 45 30 10 47 84 17 66 40
96 95 78 39 86 57 63 53 82
96 49 33 51 15 80 75 15 24
90 96 22 38 13 43 59 57 85
43 95 67 69 27 87 14 16 86
18 18 10 17 27 55 86 18 41
48 42 68 21 48 29 73 96 44
22 92 21 97 17 85 42 24 40
10 14 38 35 32 56 46 45 30
16 34 51 28 16 53 87 44 10
50 59 32 14 48 76 21 51 42
53 94 45 43 25 23 69 31 83
68 75 42 58 60 80 30 54 31
30 35 93 80 36 63 71 15 60
93 15 52 96 18 96 64 98 32
11 91 98 12 26 51 85 51 25
65 22 45 100 47 77 45 36 60
88 73 81 25 54 51 51 93 63
39 16 47 61 67 37 98 75 92
13 32 37 68 80 60 87 23 76
49 89 47 76 37 51 34 88 21
45 79 12 46 52 87 84 42 71
86 21 58 82 40 58 72 64 33
69 52 96 86 95 91 21 62 12
98 80 84 60 85 22 70 53 15
75 38 71 14 28 35 46 43 74
71 34 83 38 17 79 65 87 43
38 30 14 49 25 75 66 57 52
32 73 61 47 77 61 42 28 80
72 33 96 36 37 50 21 34 89
50 76 51 44 47 66 94 67 93
54 68 67 27 48 44 40 39 10
92 14 16 84 17 38 40 65 21
56 21 60 92 85 95 98 59 34
94 19 70 10 67 37 14 65 93
97 82 21 91 26 11 74 14 77
1.48362
1.65807
1.01499
2.1524
1.62154
1.08409
0.945093
1.0575
1.76889
1.45558
1.09576
1.41724
0.645272
2.13289
1.75399
1.68577
0.990202
0.93979
1.5413
2.01268
1.31338
1.7029
1.91949
2.29886
1.18095
0.924207
0.861726
1.99618
0.819892
1.79692
2.18487
1.2537
2.22918
1.77271
1.52073
0.557384
2.36774
1.37869
2.29239
2.36699
1.57326
1.09262
1.79962
1.8257
1.44018
0.960492
1.40489
1.62554
2.36832
2.42649
2.11802
1.46351
2.47126
1.69089
1.30039
1.24479
0.727222
0.804394
2.26047
1.70773
481 468
475 474
368 249
86 201
438 324
315 423
135 451
224 330
475 34
63 301
1 184
400 55
147 181
84 455
136 376
11 241
352 314
76 251
390 243
396 79
135 104
238 114
370 192
120 65
470 161
193 284
281 313
364 178
462 24
260 68
365 268
126 420
124 58
338 228
58 13
27 480
150 274
168 163
430 379
420 291
158 275
32 255
475 342
274 6
200 453
444 88
127 263
360 143
177 163
130 81
191 490
56 153
253 421
495 172
287 189
481 322
414 64
184 292
87 458
92 410
3972.5
4
