60
11
0 0 0 0 0 0 0 0 0 0 0
20 73 94 48 94 62 85 91 34 24 61
73 84 51 21 95 28 48 89 96 56 93
62 31 64 84 98 78 38 96 80 12 90
22 54 96 31 20 81 72 20 78 91 55
98 19 85 46 43 96 60 84 24 66 47
67 34 74 64 22 51 76 76 31 30 92
24 16 35 76 96 100 78 17 48 37 14
73 80 54 82 10 35 98 61 54 64 27
56 28 51 62 45 73 11 92 80 13 53
87 15 67 62 17 50 56 37 58 12 78
77 65 87 71 93 53 44 11 93 19 66
23 79 42 86 32 73 27 48 23 23 11
11 99 73 64 35 78 84 15 10 64 81
20 55 28 63 65 98 87 62 73 30 51
63 93 51 12 10 96 14 29 86 50 98
10 70 72 97 98 10 28 49 28 25 92
51 52 30 89 37 61 65 18 50 67 73
78 25 17 24 55 94 32 40 74 33 73
50 83 26 86 45 11 55 28 38 34 27
29 99 36 30 18 27 31 43 71 30 73
15 79 41 80 70 52 67 83 79 98 28
94 11 42 10 10 32 94 26 86 77 10
97 17 17 60 14 74 84 79 81 82 24
68 67 70 55 99 38 53 67 90 84 10
77 81 72 95 36 82 25 93 30 22 95
55 64 79 79 30 39 32 10 26 81 99
63 75 80 84 75 48 94 60 54 70 99
42 14 54 19 63 60 16 84 53 64 89
40 35 14 33 43 84 83 22 52 33 11
85 100 19 30 62 68 72 41 34 72 50
24 28 53 83 18 32 75 73 60 87 64
92 39 66 44 98 52 57 18 47 66 36
82 21 93 14 82 91 33 96 81 42 69
66 24 51 63 65 40 40 99 41 80 75
85 97 13 14 72 82 88 87 14 31 24
20 32 41 74 13 68 78 49 38 65 74
47 70 73 11 12 94 39 90 20 14 83
95 58 13 74 54 41 33 31 60 72 37
44 92 18 26 49 21 42 87 42 13 35
13 74 44 93 51 67 49 91 75 49 24
47 74 88 87 25 92 23 52 62 40 84
32 50 69 58 76 52 78 36 41 99 75
24 11 34 32 97 42 56 24 96 66 81
74 54 90 98 62 100 96 90 57 58 21
98 28 61 11 29 36 57 52 98 60 14
86 24 61 77 90 86 33 32 50 71 12
97 67 79 66 65 12 51 36 75 89 68
82 39 31 23 91 93 45 17 30 10 60
88 83 74 71 99 81 76 63 88 55 75
84 79 72 15 96 98 54 62 74 99 93
83 39 52 50 38 65 62 21 50 28 18
62 42 66 82 77 16 81 46 35 100 40
16 61 62 47 76 99 61 37 54 26 48
48 95 10 77 38 67 12 45 73 91 87
96 84 24 30 26 80 84 10 85 33 21
12 30 52 87 53 86 17 60 68 98 51
55 66 44 99 47 30 69 20 19 16 23
11 53 19 33 75 21 84 66 33 14 12
64 47 16 11 81 32 100 40 34 14 12
1.25093
0.627019
2.14008
2.25628
1.9865
1.71059
1.13331
1.28489
0.544224
0.737466
2.16433
0.533989
2.09535
0.598604
2.49194
1.1748
2.26958
0.829498
0.725501
1.88455
0.503425
1.90016
1.02066
2.14168
2.28661
2.06393
0.621285
1.47186
1.1463
0.809693
1.67665
1.39583
1.68702
2.14087
2.25369
2.03694
0.52758
1.60654
1.4262
1.0606
2.06637
1.72661
1.40205
0.538303
1.68716
2.42644
1.9674
2.33968
0.592173
1.07546
0.522801
2.05882
1.72088
0.723246
0.525975
1.31831
2.04338
2.12189
2.1997
2.46352
158 260
232 46
260 467
443 456
14 461
331 382
336 194
489 219
468 242
203 158
487 209
5 215
44 239
275 360
266 126
421 387
191 171
325 387
313 131
237 23
357 139
399 99
349 78
131 11
338 418
199 417
445 10
319 402
402 337
286 61
242 336
158 427
256 64
221 275
318 444
219 459
355 343
329 0
194 62
323 8
195 480
49 287
61 496
143 463
434 309
463 171
287 309
8 431
211 124
384 256
91 246
367 438
499 463
179 279
152 351
140 400
374 437
82 385
125 298
186 154
8162.5
2
