60
3
0 0 0
86 23 62
92 85 36
80 79 83
54 82 29
67 34 95
23 13 48
86 81 35
48 23 43
27 33 41
82 60 34
11 41 56
97 11 26
83 18 52
50 13 94
39 14 14
61 46 34
43 42 39
78 82 72
38 70 94
75 61 37
50 94 40
11 89 62
53 28 65
95 79 21
40 45 33
92 69 87
33 90 54
72 38 68
31 12 64
83 46 30
20 62 63
65 26 31
56 34 48
40 11 85
82 87 100
40 82 26
77 59 33
74 95 37
50 64 86
30 52 13
39 55 15
18 72 95
11 77 82
73 51 51
80 14 82
86 57 72
97 94 66
84 63 49
53 30 73
80 62 17
32 56 22
62 78 39
12 95 49
11 19 40
99 47 18
23 20 47
25 43 31
37 59 74
11 73 67
0.738239
0.432639
0.286506
0.473424
0.292895
0.678547
0.815273
0.486869
0.693934
0.92961
0.72359
0.582951
0.233906
0.538031
0.795524
0.301038
0.676818
0.661393
0.874794
0.206142
0.254277
0.909315
0.890239
0.991232
0.713396
0.331135
0.689125
0.938562
0.382878
0.897168
0.987881
0.659857
0.907693
0.229361
0.320653
0.603631
0.55329
0.794214
0.467373
0.928974
0.964431
0.350431
0.536834
0.648563
0.240337
0.264188
0.666558
0.630811
0.408088
0.90936
0.692536
0.427621
0.276842
0.608042
0.474204
0.258806
0.677835
0.216237
0.427831
0.430855
65 281
334 225
64 304
91 72
474 25
125 166
64 448
272 288
190 24
142 274
430 488
187 362
479 3
58 2
255 262
449 112
213 89
332 133
494 498
183 244
212 76
426 452
422 383
63 362
406 480
339 151
394 291
37 11
55 213
286 113
375 51
303 213
35 454
66 490
106 408
170 130
125 417
495 263
331 278
175 500
261 157
176 247
401 315
94 102
199 291
61 413
387 14
407 131
177 13
216 385
24 316
347 154
262 262
379 221
399 300
311 487
43 93
354 457
348 457
464 459
7870
2
