60
9
0 0 0 0 0 0 0 0 0
13 47 89 21 96 15 57 36 97
96 50 69 44 86 88 11 60 78
51 79 40 21 66 79 64 30 44
76 35 22 19 16 47 15 19 41
31 58 67 92 98 69 93 35 78
92 93 39 30 36 49 73 57 68
27 29 13 82 12 60 98 64 62
29 70 32 59 10 86 72 89 62
21 27 100 74 91 93 56 19 14
49 64 65 98 89 13 18 45 52
29 73 93 61 12 90 64 45 21
73 13 69 56 19 56 93 51 83
31 51 14 65 98 74 40 40 72
51 93 77 88 39 97 42 54 18
23 71 91 14 36 74 54 47 41
66 98 46 66 99 79 20 73 53
58 59 35 85 95 48 63 95 69
40 82 30 93 19 91 96 91 29
43 25 35 68 84 55 41 80 10
64 12 41 26 71 37 35 53 23
99 84 88 42 66 88 61 59 29
19 39 43 20 53 54 95 46 59
31 70 30 19 28 51 16 51 52
12 52 30 95 22 15 61 37 75
25 96 29 21 77 80 93 60 38
99 85 67 16 100 23 69 26 43
63 100 64 49 15 20 40 19 78
18 24 69 89 56 34 48 63 46
35 96 43 85 76 17 55 37 43
18 79 71 52 45 44 25 80 21
33 50 25 80 82 68 78 25 44
29 92 99 100 88 29 97 10 76
47 21 43 51 28 98 100 95 84
35 65 85 11 33 70 39 21 37
51 34 75 12 22 55 40 27 73
75 80 42 63 60 30 98 84 74
50 37 51 90 21 86 16 55 91
98 18 93 33 25 74 83 63 33
30 40 87 68 32 59 89 21 37
84 97 71 73 89 85 87 10 97
65 99 96 94 99 30 31 41 56
27 11 81 97 11 21 16 29 18
99 30 50 54 78 45 32 28 29
46 75 60 76 71 28 41 26 62
23 49 40 65 87 95 32 85 36
43 10 76 17 75 63 33 76 44
91 87 16 81 23 47 18 17 74
40 72 72 10 25 69 95 91 40
26 56 49 14 76 30 62 37 33
36 10 10 77 40 22 67 53 11
89 39 72 87 38 70 13 96 22
66 53 73 70 64 68 65 10 70
32 75 94 58 92 41 95 81 81
63 83 100 45 75 76 96 46 92
96 12 74 69 36 73 60 49 59
64 57 86 18 56 14 94 32 66
12 30 99 77 55 36 52 14 37
29 33 49 75 22 67 32 48 52
94 10 96 29 88 68 37 34 69
0.936121
0.952727
0.209901
0.89569
0.856077
0.817181
0.976363
0.418292
0.905293
0.616293
0.929117
0.911034
0.505161
0.78076
0.931631
0.625206
0.85269
0.935426
0.295174
0.24101
0.51399
0.876687
0.299082
0.39586
0.587894
0.252566
0.692152
0.884136
0.519334
0.548975
0.636658
0.645626
0.662011
0.630491
0.758011
0.291415
0.517775
0.786277
0.265245
0.956974
0.910188
0.327947
0.706085
0.222741
0.641564
0.560932
0.608836
0.555541
0.392081
0.385204
0.738997
0.70941
0.606942
0.489112
0.239878
0.467123
0.442177
0.697687
0.219516
0.66254
431 430
13 47
117 1
184 26
237 297
235 421
384 410
392 342
160 363
375 322
57 311
220 342
346 271
487 434
266 15
49 125
59 6
178 101
295 401
12 331
37 50
436 61
21 2
352 135
297 367
491 365
430 248
94 411
177 333
269 87
287 211
443 141
481 484
315 54
83 441
465 9
310 483
264 193
275 220
156 490
379 202
133 490
486 82
237 363
213 495
277 19
50 448
93 349
306 116
447 289
319 421
339 464
178 249
495 204
5 406
431 323
433 244
40 471
50 487
282 148
5390
3
