60
3
0 0 0
44 71 88
33 10 58
50 28 75
83 64 77
73 69 87
91 71 84
63 44 26
63 25 66
23 12 14
66 53 56
24 54 99
16 83 21
77 88 91
94 70 92
33 33 24
27 15 21
93 62 96
11 45 92
95 48 43
50 25 44
56 19 96
72 74 18
21 30 48
44 86 74
85 100 36
13 35 97
15 61 51
92 44 96
14 57 39
95 49 68
11 10 91
45 69 44
92 12 16
21 91 95
39 53 84
18 20 39
63 13 37
45 67 20
35 71 48
80 54 13
42 87 29
23 66 81
98 77 66
82 24 45
99 68 47
84 78 70
52 55 14
25 56 70
100 21 71
52 30 58
16 57 77
17 81 26
77 72 32
56 71 27
43 57 89
80 20 98
25 37 54
22 72 59
55 68 44
2.38717
1.18628
1.89629
1.77706
1.09422
1.29772
1.54274
1.41114
1.28965
1.27144
2.01557
0.733964
0.608592
1.50997
2.0945
1.22897
2.11336
1.79064
1.96699
1.25691
0.849387
2.17939
1.4023
1.22606
1.7196
2.12133
1.03212
2.20823
1.35734
1.01798
1.866
1.58933
1.10282
0.940316
0.763275
1.05467
0.856684
1.14029
1.20165
0.669628
2.49698
1.19934
1.95424
0.563234
1.65378
1.11649
0.701353
2.13876
1.80656
1.21039
2.39755
1.15389
2.43943
2.47902
1.68424
2.38912
1.69228
1.90013
0.794573
0.96339
146 243
26 327
426 350
411 221
72 304
82 493
207 20
463 329
96 209
243 254
493 432
420 20
368 218
73 171
5 104
176 410
73 212
452 460
161 176
122 301
217 198
22 265
15 31
151 300
30 447
460 289
472 122
181 254
20 112
43 89
291 126
181 105
414 78
117 246
139 7
176 320
365 414
49 47
326 145
393 468
333 371
425 122
239 109
303 297
305 247
302 440
74 244
397 336
284 220
325 384
96 58
308 459
67 59
277 4
310 16
22 365
69 447
299 280
349 434
44 313
16025
1
