60
5
0 0 0 0 0
15 17 26 82 17
85 45 86 96 44
97 15 81 83 78
42 67 78 44 95
46 76 68 56 42
12 64 55 83 58
98 95 19 72 92
96 23 48 81 77
51 35 56 83 85
80 17 31 65 10
82 35 39 82 64
21 91 76 79 99
24 39 92 95 30
64 63 66 19 53
36 35 76 36 69
76 97 95 55 13
29 67 66 76 85
84 95 63 72 59
60 36 44 29 31
45 54 73 83 91
41 89 53 100 14
97 10 86 86 29
84 35 52 64 40
72 95 32 63 55
88 77 89 59 24
40 98 92 15 57
50 23 31 37 77
29 62 27 37 54
27 82 10 17 94
78 21 54 21 77
45 49 86 20 30
49 13 48 57 62
91 20 40 89 18
87 27 85 60 61
88 13 59 15 92
76 83 92 24 49
49 44 63 67 51
16 37 62 90 38
72 70 56 75 87
67 65 52 13 15
11 13 32 14 10
10 69 81 89 11
91 31 59 81 70
39 82 63 26 38
32 24 23 40 58
19 37 73 41 85
56 88 62 13 52
49 69 13 27 80
39 50 34 35 85
100 63 45 100 76
49 88 43 31 72
77 76 17 97 94
75 15 78 61 77
65 60 57 63 14
52 61 61 47 18
53 40 72 90 12
42 45 76 24 50
10 99 21 80 60
53 32 13 30 42
0.419156
0.523891
0.750548
0.308257
0.492637
0.743101
1.25211
1.22254
1.46917
0.329084
1.45706
1.13177
0.401365
0.912069
1.12359
0.863408
0.914666
1.30888
1.01065
0.552274
0.961017
0.507275
0.672932
1.49035
0.705359
1.28362
1.37923
1.029
0.913951
1.46569
1.11293
0.579751
1.41247
0.718119
0.985221
0.894535
0.560427
0.643905
1.09883
1.39763
1.49988
0.645065
1.06846
0.791361
0.682489
1.30964
0.61495
1.00783
0.360048
0.546112
1.43783
0.685061
1.4775
1.14992
0.39509
1.49668
0.495388
1.02052
1.47053
1.35722
455 92
204 498
164 72
171 249
396 472
278 234
148 19
78 192
424 379
458 46
415 197
147 228
137 234
84 271
298 256
215 72
80 377
71 252
418 57
88 369
167 46
180 289
338 278
39 18
5 249
452 260
325 447
60 401
345 417
404 129
205 148
427 44
303 483
129 463
476 423
31 280
380 301
245 384
171 301
215 135
130 22
29 0
397 240
168 204
488 296
478 343
176 409
434 411
216 3
446 117
22 215
113 5
370 193
201 54
67 253
479 396
1 233
174 369
170 305
104 497
16350
1
