60
3
0 0 0
43 25 76
92 83 10
50 63 65
48 70 54
10 16 52
46 83 98
18 96 66
98 26 20
74 64 75
31 69 68
30 27 74
84 30 78
23 84 91
54 64 36
51 94 54
52 32 55
98 49 61
22 31 22
38 94 67
32 18 68
90 85 42
72 40 57
26 24 23
61 81 58
39 69 85
53 35 67
41 79 27
98 29 54
34 79 92
69 15 66
21 60 54
11 31 40
91 28 66
92 91 98
51 64 52
56 34 80
25 16 29
66 56 64
19 13 22
97 44 34
77 81 72
88 75 96
61 13 20
71 46 81
29 35 96
30 69 26
47 93 56
90 57 65
28 35 73
44 68 35
20 99 84
40 90 39
95 98 40
23 88 63
11 49 99
33 20 65
85 55 28
61 55 24
44 69 49
0.703809
0.76042
0.838844
0.360589
0.626611
0.613169
1.48754
0.598536
1.01545
1.03606
1.06545
1.10793
0.508493
0.653848
1.45978
0.779637
1.29442
1.3895
0.599047
0.966474
0.414578
1.33372
1.25245
0.716972
0.735958
0.393502
0.302655
1.3145
0.321855
1.16185
1.31003
0.952052
0.630869
1.26599
0.332179
0.313261
0.874612
1.44243
0.493998
0.509315
0.911515
0.37351
0.795773
1.45361
0.901682
0.705435
1.01869
1.49801
1.26967
0.799345
1.33513
0.569058
0.714167
1.21675
1.33711
0.854892
1.18445
0.349029
0.315691
0.58289
489 121
316 489
60 350
28 458
298 386
91 429
320 99
257 370
181 412
408 368
404 278
221 131
200 416
183 293
240 484
364 189
5 316
245 235
495 106
400 195
402 472
39 54
17 451
39 287
256 458
320 210
13 444
3 270
161 261
400 204
398 49
78 367
62 9
405 134
21 214
97 20
481 163
335 243
163 79
160 349
233 439
433 75
271 49
456 262
211 253
447 116
492 315
202 205
172 39
182 100
429 434
251 325
145 167
157 380
416 157
292 422
313 115
305 315
251 462
343 267
8150
2
