60
7
0 0 0 0 0 0 0
63 60 91 59 35 18 91
34 38 41 72 79 24 28
11 44 87 88 79 57 60
32 51 42 69 48 10 100
44 21 70 23 23 10 72
98 14 31 52 12 66 78
40 34 99 96 83 57 12
46 54 17 69 90 55 79
44 73 79 13 41 19 37
57 20 64 19 10 67 97
79 28 58 43 52 43 70
11 100 68 46 98 29 91
96 57 81 51 62 90 25
72 12 82 10 90 56 52
32 66 91 16 24 40 71
52 32 75 11 97 40 15
58 23 24 27 39 35 11
29 28 59 64 85 100 32
86 64 72 68 94 66 71
45 28 48 79 79 31 67
66 85 73 49 39 58 85
69 19 35 18 22 37 37
81 86 44 20 76 45 29
27 47 50 34 20 32 93
35 62 38 35 37 88 37
87 18 78 61 27 39 77
58 28 97 51 59 52 39
97 59 13 79 40 47 84
32 56 65 64 41 30 19
66 85 87 16 32 78 95
22 81 61 70 61 75 44
44 33 69 92 75 86 37
18 64 27 87 64 10 43
40 69 55 39 57 48 55
58 94 96 54 14 39 18
11 100 66 69 96 60 44
71 77 73 78 93 30 52
86 33 79 40 29 62 67
98 62 10 88 85 24 24
77 72 65 44 52 92 51
25 11 21 50 40 62 99
99 37 100 89 41 44 99
85 31 97 96 76 41 98
77 29 63 92 55 56 36
13 41 73 33 60 38 63
74 72 60 88 87 32 95
77 53 96 11 10 16 70
68 41 83 78 100 69 60
87 10 11 22 88 76 95
31 74 89 16 72 35 68
72 74 88 74 69 49 86
88 34 39 62 44 29 56
55 92 43 62 17 30 90
27 84 57 29 21 95 79
35 24 70 91 52 75 75
83 78 52 17 34 36 95
91 94 56 82 45 54 51
84 55 61 86 99 12 79
54 23 15 72 39 41 13
2.42705
1.97661
0.800449
1.3795
1.26675
1.27101
0.992971
0.518827
2.3335
0.529018
0.975574
1.68419
0.582742
0.818584
0.837704
0.846091
1.42505
1.65651
2.34599
1.29676
2.18851
1.85182
1.56702
1.471
1.03471
1.64405
1.55454
1.10466
1.21385
1.18191
0.799396
2.24167
1.50901
1.87818
1.8609
2.05622
0.544064
2.27548
1.92364
1.48367
1.08875
1.16558
0.74925
0.930532
2.42605
0.506617
0.982902
1.38934
1.30066
1.99566
0.580038
2.38012
0.645307
2.34273
1.79836
2.28869
1.24026
1.51935
0.898643
2.16213
51 158
349 30
111 69
70 259
480 473
65 337
369 48
403 417
16 472
201 269
213 482
162 66
43 176
196 78
101 118
439 161
309 214
37 496
242 353
200 266
86 32
335 294
216 36
284 270
452 267
109 238
496 339
114 319
241 292
440 44
115 421
372 49
463 307
243 102
129 488
370 27
210 48
110 92
102 60
390 336
438 170
417 242
271 346
395 66
184 12
240 329
447 47
490 427
476 117
187 105
157 304
150 202
484 282
499 360
229 421
346 310
300 254
241 356
118 3
107 346
5475
3
