60
5
0 0 0 0 0
89 48 45 23 56
77 65 31 90 58
83 16 16 50 19
98 12 16 11 96
10 66 43 67 98
94 15 73 46 60
77 66 67 82 30
54 89 61 91 43
20 30 87 96 59
80 27 32 48 21
24 33 29 53 74
100 85 37 87 40
27 92 59 40 81
94 75 17 56 67
94 79 20 65 98
32 42 45 10 71
49 20 64 99 40
67 34 83 76 61
65 15 40 73 32
88 55 89 27 94
24 33 56 51 71
74 26 90 99 79
71 72 99 10 73
55 75 75 74 25
51 93 41 71 62
70 66 63 30 86
23 79 37 87 16
57 91 30 77 82
32 83 51 44 57
60 55 97 76 77
23 82 40 80 84
61 92 12 40 37
30 63 79 31 24
17 32 61 96 62
48 42 17 53 22
29 15 63 75 39
71 42 23 18 58
25 28 73 33 60
42 12 27 88 86
40 12 70 39 90
72 62 28 35 87
97 79 31 58 84
80 68 53 59 26
58 28 98 87 26
18 38 84 19 46
78 23 60 94 98
91 61 62 85 85
37 69 48 12 72
81 38 100 20 100
93 53 88 38 51
96 63 45 47 29
39 80 23 86 18
87 95 23 16 32
74 69 83 94 73
75 30 47 96 95
70 99 88 99 22
58 59 23 86 43
80 63 53 90 77
100 77 100 86 41
1.85775
1.51971
0.550796
1.58987
0.553663
2.11934
2.12771
1.83175
0.640143
0.6921
2.05781
0.724348
1.30576
1.20343
2.47493
1.26652
2.18998
2.0651
1.97778
0.930144
2.12615
0.61368
1.97904
0.995485
2.09237
1.97876
2.36448
1.44654
1.00803
1.3686
1.18505
1.16059
2.39165
1.87233
1.29308
1.01278
2.20461
2.14987
1.97604
1.57345
2.17605
1.39563
0.852036
1.33745
2.41853
1.03331
0.672682
1.98792
2.26047
2.37159
1.94324
1.74746
2.04187
1.92181
1.75482
1.50755
1.71899
1.15919
1.62305
1.52148
406 469
393 363
414 297
76 292
96 228
100 82
383 338
298 474
138 33
256 119
116 120
435 183
201 346
212 176
303 16
460 405
379 359
128 55
43 391
437 58
119 424
448 51
481 236
438 303
185 224
220 386
484 240
36 438
317 261
288 366
422 254
480 44
174 272
312 446
414 306
492 160
197 335
244 113
252 404
284 245
396 251
352 420
298 394
411 353
496 409
110 466
260 3
433 326
245 463
9 201
132 257
350 440
97 374
26 180
79 475
221 476
340 186
192 13
297 74
5 260
3415
5
