60
5
0 0 0 0 0
11 98 86 30 85
97 43 13 76 90
65 65 16 30 99
34 11 60 10 78
64 12 44 20 51
21 66 97 42 88
25 24 57 16 65
73 92 14 41 57
39 58 66 31 32
19 76 20 63 40
73 52 14 54 71
68 93 59 90 25
37 98 51 31 83
98 83 58 47 68
41 19 60 25 94
81 52 10 95 90
35 97 12 52 23
87 48 20 10 23
95 56 11 36 49
39 51 82 89 62
16 29 80 71 60
35 53 100 53 23
44 69 73 31 100
87 39 10 12 61
99 85 27 40 52
60 89 53 97 61
32 53 84 53 100
84 44 79 59 22
36 11 74 48 58
63 65 10 49 19
69 18 16 54 89
10 11 59 54 97
19 66 44 51 55
78 27 70 76 69
45 15 55 95 30
18 11 73 19 94
10 90 83 83 75
79 80 25 98 76
59 57 86 35 41
89 12 28 94 63
95 53 56 88 66
23 81 26 95 63
43 49 80 23 87
28 71 66 88 29
59 18 49 69 61
36 45 99 22 66
65 14 39 49 57
51 51 20 53 74
29 49 71 20 81
66 51 87 10 37
10 25 77 43 48
15 91 68 89 10
83 68 86 69 33
60 28 68 57 51
97 35 47 86 69
89 11 47 93 78
11 33 23 69 69
38 35 18 81 92
46 31 64 98 31
0.855079
0.588461
0.352073
0.217536
0.394898
0.651602
0.600744
0.657054
0.720436
0.422529
0.911162
0.816103
0.382499
0.968535
0.381008
0.348673
0.228743
0.699937
0.272744
0.887183
0.871235
0.417637
0.211001
0.717968
0.755067
0.978765
0.959753
0.712732
0.689522
0.485064
0.925555
0.348279
0.812484
0.743128
0.735967
0.790934
0.236056
0.369056
0.378417
0.952914
0.600745
0.272245
0.834863
0.721184
0.929154
0.457151
0.798223
0.845673
0.593728
0.947606
0.620818
0.317592
0.708036
0.223672
0.949148
0.510243
0.928927
0.76552
0.881163
0.492589
38 161
345 430
265 432
321 69
177 282
205 492
117 128
426 368
127 372
24 64
116 86
80 180
83 18
53 126
323 212
118 347
245 414
362 2
206 488
144 486
41 43
68 265
456 3
61 87
493 465
489 108
360 166
394 178
421 137
166 383
392 187
402 291
86 255
317 44
385 19
490 10
88 315
70 393
175 24
132 38
418 260
331 98
401 381
494 101
270 330
333 0
252 423
69 476
207 395
123 175
294 465
330 92
163 281
368 489
471 61
132 21
37 413
476 440
247 126
252 290
7992.5
2
