60
5
0 0 0 0 0
60 72 35 50 78
22 58 53 86 16
43 26 13 38 35
80 58 95 19 35
73 99 90 79 19
84 52 76 12 84
57 48 99 89 81
71 92 54 81 80
87 31 70 83 63
87 43 39 21 89
68 12 43 39 13
47 31 20 92 60
44 55 28 43 60
92 19 67 29 96
56 11 54 30 89
81 18 29 16 31
55 91 12 37 90
37 17 56 50 76
62 31 52 48 43
79 29 50 48 57
51 24 38 21 80
97 19 58 76 42
77 85 75 61 41
100 89 72 69 93
55 32 46 45 99
11 28 24 88 63
74 86 47 44 86
71 72 76 42 46
31 82 72 72 94
37 50 63 98 25
14 19 59 28 100
30 37 35 35 39
98 66 95 73 30
45 69 57 19 59
22 45 21 53 54
36 25 90 68 97
91 100 83 23 37
90 74 93 87 59
15 71 20 11 86
72 10 57 43 86
24 50 91 12 92
88 10 17 24 20
57 95 79 85 97
64 33 24 69 84
64 37 29 39 38
77 81 83 35 65
14 40 95 84 75
68 79 34 91 100
25 69 75 55 26
68 86 28 89 19
92 51 38 52 27
33 99 75 14 49
47 88 58 75 80
51 68 92 78 57
80 51 97 37 31
14 99 74 45 59
21 93 83 68 97
98 71 20 79 26
43 38 48 33 41
0.732166
1.48496
1.52596
1.44089
0.476538
1.77887
0.608134
1.40476
1.53952
1.06508
1.63302
1.07491
1.75671
1.8307
0.507188
0.558186
0.732653
1.37261
1.92215
1.25828
1.99992
0.965501
1.18742
1.04466
0.64202
1.58949
1.15313
0.597432
0.698572
0.687795
1.91892
1.25364
1.52403
1.38284
1.21734
0.608126
1.07954
1.01961
0.983176
1.00948
0.809604
1.44344
0.513648
0.997503
0.941765
1.09069
1.78292
1.42028
0.840541
1.74228
0.44162
0.750275
1.88248
0.505778
0.914456
1.64913
1.35928
1.40244
1.18369
1.42128
294 111
257 258
310 394
180 95
306 17
311 243
25 385
281 74
149 140
311 304
9 90
248 124
233 384
246 312
77 31
402 248
415 413
405 9
486 204
396 62
328 377
316 84
94 465
477 240
40 216
371 484
265 224
292 227
181 467
192 208
389 309
40 171
489 81
205 400
220 446
435 252
289 416
170 67
324 104
19 245
238 332
430 228
294 243
311 455
222 390
458 31
440 319
387 322
9 254
163 25
68 165
56 157
453 378
74 298
131 376
426 245
276 321
452 19
183 164
47 314
4175
4
