60
7
0 0 0 0 0 0 0
60 10 42 60 96 43 89
11 33 36 28 57 63 53
86 61 32 42 51 32 89
12 57 56 37 56 40 65
25 32 51 19 70 32 21
66 56 72 91 96 40 98
68 77 67 64 88 46 14
64 57 94 97 81 66 93
76 76 99 29 47 37 58
29 32 46 92 91 49 87
61 55 66 83 90 61 77
73 17 71 49 60 100 21
34 73 89 45 28 82 18
60 54 11 14 11 40 55
99 46 93 61 65 87 10
69 23 11 46 94 24 15
86 94 26 51 74 21 74
23 87 40 13 41 37 75
37 69 48 48 61 52 37
76 88 19 87 91 59 54
50 62 43 72 71 44 42
55 99 12 38 24 77 54
77 67 55 27 20 84 33
50 94 26 96 27 39 88
82 44 84 36 59 12 22
100 78 73 48 35 36 76
45 73 32 47 79 83 55
67 96 75 90 69 98 32
90 58 84 60 32 96 27
63 51 83 25 31 63 66
15 37 66 29 24 41 89
98 71 37 24 53 39 38
35 20 33 94 85 79 64
18 20 83 18 13 30 17
85 68 31 12 69 19 59
49 33 13 64 66 62 43
68 19 48 100 83 100 19
47 54 89 51 100 74 15
79 49 92 56 32 50 37
72 70 13 74 64 49 75
40 23 35 53 72 86 56
59 73 85 41 94 76 89
34 66 19 66 54 93 82
66 28 82 95 81 28 56
75 12 90 77 21 68 48
32 24 74 39 32 95 30
35 99 74 77 95 72 56
91 32 47 91 34 40 19
79 78 53 98 44 55 17
46 43 19 37 12 84 23
82 77 15 80 97 76 77
16 14 100 72 22 73 66
82 100 59 72 77 37 86
92 90 33 93 99 76 54
17 78 27 18 66 53 96
87 75 91 71 66 76 92
96 96 55 13 31 82 62
28 80 14 54 42 41 54
92 13 71 17 85 39 72
2.27929
1.67628
1.4516
2.41865
1.67059
1.32159
0.974956
0.918864
2.23927
2.45032
2.09803
0.667081
2.03762
0.892411
1.46028
1.31716
2.22135
1.14781
1.94894
2.18143
0.710423
2.348
0.906523
2.11884
2.27281
0.86784
2.38068
1.30092
0.545814
1.65451
1.61862
1.8805
2.00709
2.23926
1.00419
2.24164
1.94047
0.635671
2.36375
2.06513
2.12401
2.0067
1.42273
1.93946
2.48811
2.02373
2.11174
2.0236
1.25031
1.68258
0.684051
0.882652
1.60547
1.21572
1.06564
1.60154
1.17251
1.92111
1.15308
1.955
235 229
308 58
125 476
101 170
227 353
48 273
468 253
161 92
307 476
460 34
200 159
47 313
53 299
404 40
285 285
135 160
94 38
377 390
225 356
88 166
376 59
183 315
300 407
327 186
444 37
158 39
154 456
270 153
358 344
18 178
192 258
70 479
286 132
443 405
45 392
432 14
197 179
63 335
317 367
145 357
387 489
102 186
173 273
213 480
179 378
10 329
73 347
43 42
21 30
286 444
334 389
462 413
500 106
367 444
129 406
17 416
229 198
174 213
199 320
187 203
3352
5
