60
5
0 0 0 0 0
71 42 85 89 97
97 21 29 25 23
32 59 19 98 17
11 26 91 12 74
30 33 80 77 87
80 51 44 81 85
32 81 76 99 71
97 68 41 83 11
48 51 84 93 59
41 37 22 50 28
34 45 66 24 22
84 84 14 20 28
81 92 97 81 34
54 78 45 28 46
48 65 74 69 46
21 28 93 18 33
63 51 43 38 17
80 77 29 42 36
85 85 50 18 74
76 20 85 20 97
18 96 17 80 76
69 64 30 23 74
79 83 85 25 96
37 60 73 20 79
73 99 64 86 45
90 42 60 58 72
14 76 21 77 74
44 41 51 71 54
77 89 45 11 39
25 59 58 13 52
85 16 61 60 48
94 60 76 16 58
59 42 42 54 11
14 31 70 31 31
96 31 85 17 28
45 63 71 85 16
40 22 43 62 59
54 89 28 53 19
64 53 87 17 18
54 72 53 95 34
25 29 60 69 100
36 89 24 86 91
70 33 16 55 81
13 80 34 13 35
17 54 34 88 60
87 26 85 32 79
70 45 82 75 96
20 17 59 32 75
36 52 34 53 83
44 23 61 84 42
36 89 73 37 51
33 85 80 51 68
65 71 67 82 28
21 17 31 10 74
76 64 70 11 95
85 43 44 24 26
66 93 71 61 50
98 74 70 89 82
35 48 54 90 68
0.465921
1.4382
1.44322
1.3548
0.53553
0.495949
1.16661
1.42836
0.345837
1.03225
1.37733
0.496013
1.49623
0.47681
1.23934
0.814922
1.37908
0.849214
1.21619
1.32096
0.841462
0.795035
0.837013
0.477026
1.1065
1.30122
0.515657
0.779198
1.11082
0.344458
0.961552
1.17068
0.655791
0.400612
0.693783
1.3467
0.865956
0.664767
0.944581
1.48227
0.332427
0.774489
0.653035
0.71977
0.531319
0.3038
0.428274
1.33885
0.912633
0.861915
0.77953
1.10197
1.49215
0.619921
1.47241
1.03189
0.741805
0.987982
0.83218
1.46842
48 116
30 298
337 387
433 265
313 247
32 136
274 221
187 176
364 122
155 182
302 255
408 112
297 338
347 42
48 91
323 374
359 166
455 69
250 346
174 261
87 163
41 368
326 210
188 389
26 139
425 37
100 456
87 140
328 315
26 383
258 470
83 126
145 332
206 189
313 335
84 417
342 143
237 99
432 458
51 90
122 444
338 226
368 216
316 339
66 81
416 231
195 206
456 157
285 243
49 390
141 10
206 383
290 472
426 318
439 353
227 2
94 134
385 45
290 311
403 430
16190
1
