60
5
0 0 0 0 0
62 82 84 29 54
29 52 22 75 98
67 16 75 46 88
71 69 24 34 64
95 24 58 68 38
41 38 22 64 27
73 47 82 82 78
99 82 59 39 96
96 100 96 51 43
47 46 86 41 67
55 64 99 36 23
58 88 17 69 29
56 80 27 88 22
21 62 35 79 68
92 14 34 96 40
44 77 90 58 71
35 98 71 77 58
83 43 93 92 73
32 94 48 73 19
93 94 13 40 49
73 26 45 76 29
57 44 31 41 44
74 14 48 89 91
54 76 50 82 61
95 15 32 68 100
57 41 56 76 51
60 57 66 99 23
46 13 84 81 32
81 65 96 79 34
86 60 17 69 38
18 27 75 57 26
82 28 28 20 65
80 22 37 29 55
50 92 12 31 16
65 25 27 63 91
65 73 94 96 69
67 31 17 57 95
46 76 43 96 41
29 64 15 94 93
97 80 65 67 49
93 17 88 71 91
59 28 32 91 13
53 93 92 29 89
62 95 21 100 17
96 93 49 45 52
63 56 70 45 88
62 58 73 54 70
34 30 69 31 81
67 84 15 75 96
12 38 79 90 48
42 42 16 82 14
92 65 21 13 45
39 74 12 81 59
45 56 88 49 18
41 65 14 36 64
90 30 45 34 35
92 96 23 46 92
97 36 36 18 31
13 67 94 12 76
0.362987
0.708742
0.534426
0.630215
0.436746
0.424475
0.781561
0.506185
0.207059
0.385691
0.779345
0.432797
0.947323
0.588342
0.212564
0.659466
0.637256
0.714393
0.886833
0.638396
0.835874
0.807204
0.955985
0.303581
0.444941
0.766406
0.575918
0.247172
0.823129
0.465832
0.905271
0.909474
0.296726
0.738553
0.867009
0.46538
0.237105
0.615079
0.284102
0.849579
0.834218
0.349739
0.699605
0.46325
0.790507
0.209355
0.611884
0.978507
0.523992
0.238946
0.559351
0.205939
0.242374
0.33975
0.310918
0.438336
0.832967
0.246054
0.899159
0.941805
103 351
306 62
241 81
338 339
212 174
320 210
90 24
87 372
388 486
146 155
299 297
251 54
370 277
447 483
447 320
424 393
209 36
395 19
424 288
306 482
19 485
58 214
452 287
126 76
443 122
133 324
195 138
353 201
388 171
261 299
250 488
301 44
451 266
198 296
226 30
246 337
245 459
38 385
147 362
205 207
80 495
1 311
45 304
332 40
325 48
140 472
61 350
266 105
7 11
326 39
279 49
383 464
322 63
351 71
321 21
334 274
118 138
91 254
305 482
493 238
5636.67
3
