60
11
0 0 0 0 0 0 0 0 0 0 0
59 15 19 39 22 26 26 69 27 31 90
50 28 10 84 52 44 84 80 74 70 63
46 46 52 96 93 19 24 75 84 59 70
45 76 69 41 31 14 64 14 29 59 66
99 68 10 41 60 74 10 20 92 29 80
61 43 60 29 22 71 78 23 36 79 71
38 26 94 93 16 63 90 46 17 11 51
79 42 42 55 57 77 51 75 78 70 68
53 32 54 73 20 24 38 85 47 93 58
33 21 40 83 16 79 69 11 62 75 39
36 28 15 21 83 75 16 65 21 52 96
78 61 48 53 55 41 51 59 87 48 11
57 57 73 40 53 65 35 44 22 75 30
78 46 41 55 24 68 46 76 95 58 91
96 35 48 80 16 72 50 74 96 70 31
62 81 62 25 39 100 40 81 10 72 89
51 55 29 75 99 29 43 43 48 30 10
40 98 10 15 91 62 25 18 55 15 33
22 99 58 25 76 14 33 81 86 77 96
35 55 22 84 23 89 24 20 89 35 83
67 14 74 16 63 33 14 99 34 54 41
89 86 73 89 27 29 29 44 28 31 92
85 85 64 27 30 66 14 24 56 36 34
24 63 22 69 59 73 95 39 46 48 26
50 68 28 55 72 35 61 22 87 84 14
38 71 15 14 97 97 87 96 10 62 82
67 59 48 49 59 54 100 40 30 23 19
94 50 28 40 27 90 68 55 10 34 36
41 96 75 28 31 33 69 97 54 96 100
34 24 100 58 17 44 65 75 32 27 68
76 96 50 95 91 21 89 36 85 58 11
94 39 38 48 37 13 80 98 25 69 36
21 53 49 93 83 74 32 95 100 45 89
96 47 89 29 17 31 64 39 76 58 91
100 67 55 25 57 86 43 11 62 46 27
92 33 26 52 33 85 23 76 43 58 12
95 87 99 24 82 59 96 59 74 49 10
68 30 44 52 47 34 24 14 69 91 73
51 52 30 76 27 27 60 89 29 89 83
64 95 100 54 39 11 87 47 35 91 58
100 68 58 20 31 91 10 25 11 14 92
66 66 61 31 69 26 90 100 64 38 88
75 60 16 20 70 21 50 29 83 37 30
10 43 34 50 11 69 73 62 93 47 35
51 87 66 64 12 67 31 77 30 81 79
23 69 94 21 91 46 58 88 81 100 91
34 84 54 28 96 59 81 66 94 79 91
27 52 63 12 57 60 33 76 79 29 70
87 17 80 78 71 27 67 96 34 95 29
33 85 99 47 49 27 52 59 25 28 73
82 55 13 13 52 30 85 28 45 43 63
57 49 15 12 19 10 81 46 92 21 37
59 50 42 52 85 70 79 38 29 19 47
69 84 45 70 60 43 36 11 57 21 95
44 31 41 44 23 55 73 81 40 69 81
79 78 15 86 29 87 85 71 37 65 91
94 43 76 83 53 60 90 34 87 63 36
97 89 24 63 78 19 96 28 83 72 83
69 92 65 87 40 100 42 48 29 89 65
0.185908
0.325582
0.280492
0.318529
0.434389
0.13066
0.301545
0.347641
0.484831
0.391204
0.242681
0.34311
0.445448
0.257279
0.257338
0.342715
0.27841
0.222789
0.390128
0.397995
0.467856
0.287643
0.454418
0.363035
0.298201
0.180861
0.499411
0.33124
0.226531
0.347703
0.299542
0.22785
0.252521
0.250024
0.25449
0.398
0.112583
0.372265
0.103909
0.140248
0.312962
0.275497
0.484419
0.282704
0.236806
0.162034
0.129374
0.458288
0.196179
0.100058
0.417304
0.441804
0.317783
0.483281
0.433224
0.209294
0.499002
0.270493
0.454831
0.14716
315 100
99 230
381 36
339 391
302 258
111 466
114 96
263 417
314 127
427 246
470 415
12 270
108 118
364 306
283 224
154 353
478 308
287 50
92 278
197 300
43 15
67 46
295 244
106 433
429 285
259 497
124 255
319 371
392 161
373 379
148 39
351 474
120 77
492 386
400 451
169 25
409 102
423 157
498 209
237 342
186 309
491 43
310 457
229 36
119 25
485 87
164 325
468 371
320 272
439 151
349 87
274 283
95 51
364 398
496 179
201 322
456 213
60 2
356 182
458 4
8077.5
2
