60
7
0 0 0 0 0 0 0
92 89 46 21 37 76 98
78 90 57 39 15 69 73
51 46 32 82 29 25 38
30 94 57 16 99 53 92
10 90 91 80 90 95 81
15 58 68 70 68 14 18
16 14 22 87 96 27 38
37 23 97 88 29 45 59
44 59 79 36 72 16 96
82 86 32 17 80 40 56
68 83 40 23 58 56 31
24 47 16 15 38 94 72
98 98 71 92 34 94 100
75 44 24 54 22 34 22
68 15 69 89 81 78 72
78 49 89 98 16 30 28
78 22 16 93 40 72 78
69 74 31 59 76 82 41
98 89 95 47 56 25 91
95 84 13 39 94 13 28
69 84 16 38 32 48 67
70 88 24 15 50 95 92
93 45 20 15 19 84 20
28 86 89 57 56 10 37
78 73 51 35 99 74 18
61 28 59 63 74 52 68
15 26 55 39 32 54 53
42 26 65 100 68 45 63
66 45 32 51 13 74 86
37 28 34 63 43 60 84
41 52 69 81 42 65 65
77 27 68 67 61 97 43
46 39 83 75 57 14 38
95 92 81 76 32 44 79
29 16 11 74 96 98 27
78 11 44 33 25 57 32
84 41 91 78 50 55 48
46 73 38 44 95 13 81
55 81 86 37 95 76 48
81 71 19 20 86 91 81
12 67 34 76 93 53 53
89 39 70 34 15 38 28
35 53 12 82 14 10 38
49 91 37 22 43 36 95
96 73 12 84 42 40 37
88 28 97 54 63 96 64
83 35 44 36 80 59 20
36 78 16 45 26 34 27
17 42 80 54 17 29 30
52 69 68 46 42 94 86
70 16 13 90 25 28 75
91 50 57 84 37 31 66
12 26 72 85 77 52 83
65 75 68 33 17 43 31
36 50 17 82 35 81 36
36 76 37 46 88 71 63
49 76 28 38 50 67 19
27 77 54 21 52 18 30
32 74 98 12 69 85 93
1.96467
0.70162
1.5307
1.17278
1.61584
1.90426
1.18157
0.820355
1.78238
1.13165
0.949291
1.60027
1.18829
1.69027
1.7505
1.68742
1.42203
0.453012
0.477433
0.765291
1.63657
1.76471
1.25909
0.719689
1.23492
1.57488
1.40983
1.93271
0.541218
1.37753
0.572545
0.752684
0.86836
0.846445
0.641366
0.901136
0.809697
1.76055
1.88084
1.16349
1.00966
1.48435
1.5758
0.540254
0.643558
1.12591
1.95117
1.76392
1.35461
0.430835
0.567241
0.426593
0.706142
1.65278
0.597433
0.60679
0.941538
1.07961
1.45967
0.822228
466 463
240 47
9 38
368 88
9 186
109 151
99 261
174 31
425 160
220 184
118 436
48 114
199 51
213 253
189 330
86 419
286 39
184 306
128 402
276 225
106 403
497 451
96 117
199 444
87 127
312 101
36 220
122 426
39 471
462 474
93 74
473 17
259 132
170 28
140 285
119 386
233 430
386 328
342 143
115 73
402 39
295 399
54 12
361 398
312 460
258 204
209 78
13 44
309 170
282 411
311 356
128 336
13 160
31 430
376 383
150 30
76 454
307 430
348 304
51 79
4042.5
4
