60
9
0 0 0 0 0 0 0 0 0
39 82 48 32 53 75 86 27 55
42 84 77 99 83 75 40 27 20
40 83 44 19 56 62 25 71 59
88 38 93 98 74 89 98 63 74
57 97 71 61 11 32 95 84 40
84 28 29 29 12 23 73 85 97
83 53 47 80 95 47 98 87 10
17 77 65 85 35 81 23 71 46
90 91 32 23 80 61 25 49 69
59 81 11 100 70 14 66 17 70
73 27 63 97 12 63 70 30 70
93 95 26 49 30 28 10 54 62
21 81 16 36 49 76 50 27 67
70 91 52 68 15 33 11 91 89
83 52 48 82 70 94 64 78 40
17 23 15 40 89 47 85 64 89
57 22 40 84 87 86 97 88 71
45 46 17 71 15 39 42 22 90
96 43 95 59 99 24 24 20 71
56 52 17 84 20 85 51 91 63
36 27 86 18 67 38 56 70 38
43 83 56 58 57 29 14 18 75
68 11 12 57 66 28 84 59 99
58 82 55 73 83 56 34 57 76
48 16 73 27 34 73 87 45 23
75 13 69 100 31 70 37 97 99
55 15 80 66 32 85 77 59 78
88 89 51 55 75 51 99 37 10
87 64 84 26 84 16 99 40 27
97 33 47 65 38 79 81 52 97
72 99 84 64 21 71 32 58 73
92 17 88 68 85 25 24 92 94
70 51 36 59 28 47 18 61 48
95 59 49 39 62 47 64 20 57
38 48 35 65 51 31 56 26 71
58 50 59 35 45 58 95 79 40
20 47 96 65 13 38 13 75 89
42 26 85 61 59 45 93 83 18
42 72 20 93 45 93 37 36 33
53 87 44 41 35 30 62 18 69
40 26 64 47 35 29 48 84 94
49 64 20 41 22 46 45 21 65
11 100 44 80 63 32 33 85 45
88 75 39 12 92 32 96 79 94
37 21 12 48 11 20 85 22 70
47 56 63 83 35 51 48 76 77
24 85 38 62 52 70 48 51 77
47 99 32 34 38 55 98 82 41
60 68 40 84 14 93 97 27 86
16 70 11 55 65 93 16 33 34
36 94 32 47 68 19 21 46 15
64 46 52 90 57 85 63 72 93
81 19 95 21 94 68 82 38 13
72 52 78 82 55 70 74 61 69
89 26 21 38 74 92 79 28 77
43 87 88 93 58 49 100 50 51
87 46 78 10 82 41 67 83 29
40 19 69 42 36 13 15 26 53
49 15 32 14 67 10 65 20 25
0.624836
0.205722
0.772499
0.6204
0.6337
0.950377
0.519303
0.928282
0.699501
0.220664
0.631832
0.921071
0.36135
0.663126
0.731423
0.920842
0.316732
0.866589
0.54404
0.516839
0.490061
0.27419
0.568216
0.946162
0.351146
0.222647
0.613232
0.220714
0.508683
0.307917
0.650147
0.511773
0.387641
0.811829
0.346315
0.441804
0.846135
0.526178
0.300804
0.277312
0.642024
0.312716
0.346002
0.651886
0.21164
0.268056
0.815962
0.451951
0.978348
0.695017
0.508973
0.366042
0.356731
0.917227
0.984938
0.707308
0.378258
0.487882
0.237375
0.634893
211 343
238 69
47 255
115 345
236 255
3 333
167 250
425 184
344 428
55 142
492 298
354 129
267 431
106 290
307 294
344 252
323 87
474 399
453 289
217 292
176 184
267 324
384 154
298 449
379 453
465 400
220 434
99 396
257 109
194 247
358 116
499 67
149 322
459 368
376 309
326 423
100 256
392 141
348 277
10 388
476 167
235 496
15 200
491 84
419 128
421 320
424 246
254 36
175 435
319 90
210 281
173 15
172 133
419 443
312 437
282 317
427 92
107 212
334 166
170 355
16455
1
