60
11
0 0 0 0 0 0 0 0 0 0 0
62 73 31 64 18 32 58 92 17 63 88
73 24 42 11 40 14 71 99 63 51 86
70 20 19 78 44 55 78 37 33 65 75
31 12 76 24 75 78 36 62 92 77 26
20 57 16 94 75 66 57 84 96 50 33
63 49 26 49 28 38 27 41 92 96 12
19 93 95 80 65 82 64 61 51 83 18
54 75 77 87 51 85 29 62 79 15 62
37 39 95 42 48 77 28 93 18 64 59
89 23 55 28 27 48 28 68 83 99 79
52 78 33 20 27 52 89 50 71 89 85
63 45 70 26 56 23 42 91 28 29 37
50 78 84 17 99 56 65 32 54 28 12
57 93 25 25 33 84 23 72 69 67 69
60 53 78 92 95 79 69 90 59 56 35
38 72 74 32 87 79 41 60 84 65 31
11 44 79 27 63 46 56 27 84 57 97
39 100 21 16 66 69 89 51 75 35 52
69 83 52 19 74 77 58 25 68 97 72
19 34 93 25 59 93 34 36 31 99 10
78 10 93 73 39 67 24 49 70 19 18
44 87 39 57 65 87 45 63 12 75 50
39 96 48 41 82 96 79 63 74 32 18
37 37 66 92 51 49 78 24 19 90 65
17 13 63 32 47 43 16 50 24 77 35
51 42 35 69 20 33 43 15 78 28 73
43 69 78 74 27 53 84 45 91 64 51
90 24 48 90 92 42 79 30 56 42 83
39 20 84 43 83 42 73 34 47 61 84
95 39 88 40 52 13 99 31 34 87 41
56 84 11 13 24 62 39 23 88 17 79
62 100 23 88 75 73 78 43 48 78 80
19 67 43 80 63 57 99 75 72 85 63
17 34 35 17 10 81 21 62 22 38 100
80 15 62 37 37 100 31 17 81 10 16
50 13 32 97 62 26 38 63 10 15 60
21 81 67 26 82 63 59 63 37 66 73
31 38 11 93 31 94 72 37 31 68 59
35 80 48 69 30 99 68 31 60 21 68
84 44 91 22 71 93 98 60 68 43 17
52 87 61 69 35 12 54 39 23 26 48
96 12 75 34 23 82 36 30 79 56 39
87 37 12 80 31 39 87 68 40 22 98
73 23 71 36 37 88 55 57 14 51 73
39 11 69 82 100 96 37 52 27 50 35
33 98 58 10 36 99 81 61 60 94 38
80 28 40 42 52 29 90 30 100 95 17
100 53 77 34 29 13 41 71 76 28 75
74 69 53 88 89 90 23 35 67 97 41
98 88 61 52 16 36 28 66 44 81 31
19 80 23 10 92 73 86 40 27 76 23
14 71 95 100 56 31 57 45 14 66 91
44 73 48 58 14 54 97 50 24 98 31
95 81 90 17 29 77 68 88 45 41 67
16 84 80 62 60 73 39 61 39 93 96
37 85 46 42 43 97 37 74 43 10 46
58 98 73 62 86 58 59 100 78 94 41
99 29 74 52 58 46 78 94 36 78 66
26 58 10 65 75 80 82 62 45 59 33
0.230607
0.412532
0.369593
0.100747
0.24342
0.108281
0.311839
0.252608
0.376534
0.209056
0.181954
0.175613
0.345566
0.489476
0.287214
0.398084
0.396718
0.129263
0.266492
0.20217
0.377206
0.19759
0.409734
0.423375
0.414908
0.148966
0.409063
0.244235
0.443588
0.371008
0.363628
0.316252
0.289781
0.299246
0.158898
0.349269
0.235776
0.406765
0.418719
0.412356
0.285215
0.334201
0.252813
0.115427
0.358558
0.223123
0.220979
0.488034
0.270064
0.190119
0.171921
0.40128
0.427716
0.154117
0.382719
0.416291
0.290959
0.231407
0.415802
0.429189
31 175
71 323
74 30
398 287
5 189
361 134
60 380
298 8
424 481
271 447
391 333
478 340
153 65
362 374
189 453
146 200
458 426
282 198
196 332
113 14
250 157
184 260
108 496
383 457
396 318
258 460
399 79
319 337
6 269
275 97
145 265
76 107
460 66
77 467
104 73
38 20
453 232
68 484
479 241
124 188
436 409
302 82
332 278
421 298
51 463
212 444
410 96
83 140
361 11
21 422
342 356
388 350
478 391
500 151
166 283
454 294
188 180
273 28
432 423
491 360
3273
5
