60
3
0 0 0
86 97 97
68 62 48
59 33 40
50 37 65
19 94 63
77 65 13
30 78 83
44 81 41
92 63 77
64 39 88
49 21 84
52 23 15
54 11 56
94 28 51
72 48 79
92 67 20
24 19 11
48 67 39
82 35 65
88 58 32
88 43 85
49 16 34
51 49 27
80 62 56
81 52 17
21 84 31
50 44 19
20 76 98
42 48 68
63 14 44
83 92 18
92 88 19
43 23 14
78 84 85
34 93 25
56 92 16
13 42 53
40 64 61
19 13 97
19 39 10
28 47 72
49 65 96
23 68 76
90 64 74
14 68 59
66 98 72
38 56 51
98 12 18
89 17 27
59 27 65
87 70 94
21 47 72
17 66 28
33 11 77
71 80 28
79 39 64
68 57 69
87 96 97
59 78 92
0.517853
0.843989
0.215118
0.714033
0.60907
0.492303
0.42793
0.967752
0.672751
0.346054
0.668826
0.91451
0.80461
0.585812
0.702122
0.391755
0.626203
0.309033
0.978872
0.278037
0.364823
0.377294
0.427641
0.654215
0.260771
0.583158
0.941006
0.645593
0.78299
0.976532
0.250035
0.856782
0.339925
0.324826
0.376952
0.891162
0.604502
0.258523
0.599451
0.686773
0.495564
0.661939
0.300852
0.241445
0.663767
0.692677
0.654588
0.40728
0.213845
0.261344
0.226494
0.582059
0.201924
0.831283
0.742562
0.23645
0.346946
0.297241
0.329841
0.278743
339 259
118 277
227 89
191 116
135 354
250 55
478 139
53 35
29 195
315 387
12 126
357 216
204 398
234 295
3 159
430 220
412 496
86 332
480 158
209 191
403 123
435 76
43 137
302 289
356 216
461 168
260 74
169 104
68 121
61 486
300 36
337 138
202 406
145 357
109 351
484 7
224 327
413 240
219 134
162 183
263 222
75 453
102 244
34 232
270 57
237 12
273 20
481 47
243 390
412 95
396 464
152 50
290 285
436 211
227 4
313 52
10 387
473 113
365 460
480 294
4052.5
4
