60
3
0 0 0
28 31 99
29 23 67
94 42 75
54 39 47
88 68 32
22 55 84
15 70 96
80 30 77
76 92 26
81 51 32
59 17 64
88 96 56
76 94 28
48 26 53
86 82 96
100 48 31
30 50 77
92 23 63
39 94 11
73 55 96
97 65 86
37 79 94
53 25 51
47 18 19
45 10 72
25 68 70
62 26 21
50 39 24
30 95 93
89 64 56
56 10 42
38 79 53
85 29 28
24 28 66
24 26 18
40 93 61
79 72 59
89 91 95
53 83 39
34 61 61
41 46 60
26 72 78
53 98 56
32 62 42
80 61 73
94 82 33
22 10 16
57 52 10
35 97 36
12 73 36
13 85 61
91 92 71
27 44 100
57 18 80
57 80 16
89 94 72
85 66 81
60 53 34
93 62 22
0.34557
0.954075
0.749651
0.956145
0.383026
0.98703
0.433239
0.475895
0.462117
0.945686
0.325847
0.97731
0.579378
0.459693
0.408102
0.769723
0.315844
0.34476
0.396624
0.863704
0.815135
0.992557
0.464557
0.489979
0.904994
0.305725
0.262731
0.997341
0.72343
0.544179
0.487591
0.749647
0.561246
0.354399
0.782672
0.822147
0.699815
0.661247
0.391824
0.247118
0.569947
0.627969
0.607355
0.318839
0.397935
0.637635
0.407762
0.358154
0.533054
0.8704
0.728868
0.318773
0.261159
0.440875
0.379349
0.613752
0.517229
0.50044
0.746447
0.840563
367 295
366 78
322 5
251 2
241 393
248 236
263 302
439 401
74 84
316 197
128 60
228 230
399 15
32 496
497 252
113 228
239 406
129 359
250 90
134 250
306 118
487 7
241 494
294 432
220 271
407 329
35 439
225 419
263 130
250 386
281 370
9 446
27 354
122 118
201 345
290 63
468 283
64 140
119 193
394 140
151 135
396 44
401 422
429 30
6 136
471 239
340 460
15 320
353 302
358 425
157 433
56 475
458 431
303 424
481 111
70 432
393 480
344 477
45 336
334 221
3342
5
