60
11
0 0 0 0 0 0 0 0 0 0 0
41 76 11 82 56 35 18 67 97 86 29
14 39 48 16 38 86 58 53 12 33 21
86 13 59 40 66 67 88 41 33 12 78
48 34 87 29 29 26 36 36 38 50 35
53 55 48 84 73 42 87 13 87 72 32
67 50 72 82 35 43 46 93 12 41 24
86 46 53 20 76 18 14 94 63 86 16
100 57 21 20 13 92 52 16 47 42 13
88 85 58 55 22 13 88 63 54 56 71
97 23 46 11 24 93 78 39 63 95 37
40 75 61 55 41 51 94 49 28 86 83
45 40 30 56 50 26 28 67 24 84 87
11 45 22 56 47 86 63 79 77 50 47
22 84 44 44 26 20 65 38 17 95 63
57 57 83 62 80 27 29 17 65 45 69
64 78 80 86 87 67 87 77 55 78 43
11 51 28 37 42 59 46 95 18 88 43
33 84 47 13 16 39 37 67 17 21 22
85 23 68 59 60 65 52 22 92 22 70
26 23 81 62 95 40 38 15 90 48 29
57 66 91 54 54 56 100 22 51 67 21
47 78 91 94 33 96 19 40 26 48 93
16 99 57 66 82 59 51 18 59 89 78
53 82 62 63 33 71 54 31 16 37 99
12 35 44 31 39 13 44 35 19 62 49
55 53 98 91 23 24 81 88 78 38 41
96 53 90 84 16 48 79 58 51 48 36
57 30 24 77 40 27 55 95 51 95 80
57 51 77 88 85 86 52 19 14 71 86
26 24 63 12 28 31 66 60 25 77 64
18 71 66 40 40 81 71 80 49 18 51
72 87 27 67 36 86 40 39 49 69 12
74 97 17 74 69 90 12 58 26 72 55
42 97 82 57 33 28 48 74 44 42 63
16 75 41 24 31 45 58 90 27 52 41
34 88 51 100 91 34 18 38 69 10 29
65 60 34 61 77 91 74 24 73 21 100
63 80 74 97 18 58 95 58 83 62 81
35 62 66 26 39 74 32 11 73 49 87
92 88 19 65 62 37 26 53 95 94 18
61 29 24 22 99 71 96 98 63 49 85
81 27 21 72 31 55 78 25 34 36 41
38 57 67 35 95 13 87 81 73 19 64
13 15 55 80 36 92 74 100 61 58 71
14 81 58 31 20 72 53 57 69 60 20
61 10 17 15 11 75 32 18 75 80 16
53 82 55 16 50 94 37 96 40 52 69
58 62 94 50 29 100 44 43 16 74 63
12 33 17 41 69 13 35 80 62 15 74
53 61 14 86 35 82 45 47 27 22 73
96 37 92 34 61 95 16 91 17 24 92
32 24 16 34 94 23 43 68 88 86 83
99 26 44 35 57 10 35 47 63 70 92
55 83 58 100 96 69 20 39 16 38 70
98 86 98 54 83 46 99 50 25 51 13
38 26 59 78 29 32 18 68 84 47 76
100 83 62 24 86 42 47 48 29 17 87
84 51 67 90 24 85 27 79 58 79 47
60 62 45 38 32 85 45 75 37 96 16
0.769789
0.60803
0.911287
0.760241
0.598976
0.763396
0.903293
0.882005
0.98223
0.587697
0.593007
0.34913
0.616452
0.912561
0.796128
0.354162
0.370692
0.713449
0.584687
0.792673
0.880055
0.636149
0.266536
0.614563
0.435961
0.988589
0.965995
0.645799
0.783579
0.413808
0.604258
0.486533
0.362785
0.869963
0.838076
0.595252
0.450871
0.23549
0.243344
0.60611
0.632136
0.504748
0.663231
0.621258
0.7938
0.872667
0.571159
0.364685
0.398884
0.626426
0.798021
0.608045
0.70979
0.204722
0.48546
0.903441
0.993951
0.664865
0.631142
0.978013
277 239
451 91
65 63
376 300
393 392
125 475
154 98
426 383
385 33
472 316
294 380
70 459
54 409
104 311
378 463
359 446
93 17
45 311
57 373
123 15
138 318
101 376
339 251
39 444
249 53
439 96
485 97
426 43
291 84
259 232
65 122
211 334
277 322
443 486
292 109
411 207
364 12
297 284
242 413
186 444
467 71
167 287
231 300
491 123
345 334
301 478
65 25
298 339
154 53
209 112
173 6
345 452
360 214
204 311
19 10
137 314
353 3
473 139
375 372
87 326
15855
1
