60
11
0 0 0 0 0 0 0 0 0 0 0
95 47 19 25 11 60 29 68 95 88 83
30 83 99 23 64 66 28 87 11 95 59
31 77 32 52 83 45 72 15 68 52 23
47 37 65 31 60 92 81 21 73 59 35
20 39 47 34 74 26 73 79 59 40 94
36 83 67 41 98 89 71 16 54 24 11
87 23 77 10 58 90 41 10 16 71 68
36 82 29 65 53 16 83 54 20 38 30
75 79 54 88 63 57 96 12 52 10 82
32 30 53 70 44 36 38 96 95 70 81
61 35 28 76 64 10 68 73 40 52 35
60 68 90 35 63 47 48 61 65 96 83
72 36 32 84 93 47 88 69 16 24 72
47 57 15 97 11 84 20 51 53 100 36
39 86 87 56 82 13 14 19 13 43 77
71 68 96 39 42 75 93 42 67 61 73
60 50 89 90 83 22 40 68 94 60 10
48 37 61 36 59 49 33 32 17 44 29
21 64 17 62 16 23 21 88 97 23 97
58 58 64 59 99 93 38 20 67 51 70
17 29 53 29 33 95 49 73 44 53 86
82 40 100 43 56 33 60 67 70 80 27
41 75 31 15 97 66 12 13 100 65 40
89 24 93 78 84 32 81 75 43 27 95
92 80 70 84 35 23 28 69 34 11 34
86 28 60 90 88 15 20 66 83 20 78
93 92 34 47 98 40 58 23 52 28 48
26 53 42 97 14 26 99 22 19 54 63
41 47 74 14 52 82 65 56 17 22 95
72 69 87 58 92 57 51 23 22 57 29
70 80 37 11 28 40 96 50 20 90 66
46 91 21 78 36 24 98 99 63 59 19
65 89 72 19 72 97 10 58 88 42 95
59 23 29 54 14 78 70 64 59 94 64
69 99 93 67 65 17 53 53 95 12 63
83 27 46 81 56 34 76 56 58 72 40
87 61 69 10 49 86 31 75 85 41 67
24 30 78 34 16 40 94 22 68 60 14
11 31 17 31 46 20 18 52 13 90 89
64 94 10 68 45 17 24 85 83 99 64
75 12 73 72 53 78 74 32 36 37 98
53 53 79 46 93 26 21 97 78 41 92
91 15 46 72 12 81 79 16 29 94 67
20 27 46 77 71 74 18 68 91 54 60
15 94 72 13 63 16 15 28 31 95 65
81 13 33 53 59 94 93 29 53 57 57
42 100 11 20 54 68 100 39 98 63 92
41 65 94 37 60 26 90 62 28 24 44
74 93 81 54 95 54 97 99 21 41 51
23 53 97 19 49 42 78 20 18 77 31
57 90 64 71 80 97 54 91 40 17 32
66 38 35 42 15 63 53 38 39 32 20
50 100 47 94 72 81 19 81 58 100 68
11 60 62 41 62 50 99 25 80 26 60
35 34 67 76 70 40 95 80 68 70 57
35 91 92 45 43 43 80 20 21 62 64
55 26 23 32 47 24 70 79 56 36 20
78 26 19 66 71 75 49 97 86 40 38
25 53 52 74 86 70 63 21 37 20 85
1.22018
1.27637
0.842
0.631482
0.507019
0.322309
1.13392
0.554945
0.341572
1.34679
1.11801
0.896413
1.22901
0.462363
0.747202
1.11157
1.45796
0.580394
0.86037
0.674562
1.40433
0.429146
0.987636
0.989087
1.26404
0.701825
1.26895
0.740144
0.622031
0.744277
1.47159
1.21293
1.2433
0.389836
1.05583
0.712942
1.42947
1.44691
0.30629
0.327887
0.445121
1.08271
0.924716
1.36543
1.38542
0.559736
1.11648
1.3102
1.28373
0.532026
0.718608
0.401104
1.28611
1.46751
1.02297
0.577515
0.344858
1.41215
0.808417
0.95297
356 416
412 324
395 384
299 62
51 334
341 142
14 369
308 500
218 389
276 224
186 114
242 397
334 66
16 338
457 114
87 365
362 405
394 308
380 359
92 259
410 457
84 165
215 456
301 179
366 12
436 113
66 165
187 179
433 86
420 111
410 474
111 5
333 126
6 21
478 413
43 376
230 155
46 249
144 295
429 68
462 60
457 446
363 8
160 227
427 254
342 261
227 180
82 133
231 96
121 177
128 231
236 484
336 487
228 367
498 410
414 290
414 177
240 466
460 44
414 167
3246
5
