60
9
0 0 0 0 0 0 0 0 0
70 74 26 45 51 44 94 25 67
21 11 91 55 74 62 71 54 39
83 83 11 57 17 53 58 92 80
29 68 23 100 38 25 28 22 47
33 63 84 12 22 14 40 36 66
72 97 69 27 21 16 69 47 51
91 15 75 76 29 39 35 16 82
90 42 51 100 66 84 28 15 92
13 83 41 37 67 62 69 34 72
85 28 62 60 37 86 94 87 97
56 39 35 86 16 54 91 31 13
96 35 81 91 35 100 23 77 60
10 29 99 20 27 80 57 17 21
40 53 83 43 29 48 26 35 72
20 48 41 99 32 38 67 67 36
28 58 22 68 43 16 38 85 50
73 60 81 31 71 29 90 72 36
67 31 73 76 33 85 19 86 58
98 35 49 16 14 32 31 48 82
82 16 62 93 74 73 60 20 47
91 39 75 59 69 37 52 98 65
56 14 57 67 19 65 63 18 86
10 46 49 92 40 99 83 52 41
19 78 86 59 52 34 99 62 39
63 15 89 25 10 69 61 73 93
26 37 51 12 72 78 98 83 55
83 59 95 47 31 27 86 54 51
91 68 16 58 50 56 59 39 49
63 84 49 26 74 16 68 26 88
84 80 52 34 70 36 67 74 39
48 32 54 47 55 96 49 71 11
76 97 70 75 28 94 55 42 56
35 37 86 11 94 31 69 31 97
77 88 33 78 16 68 16 41 27
32 19 76 78 64 27 54 13 44
41 60 11 46 10 51 100 43 96
50 98 84 49 12 17 92 71 24
40 69 41 69 91 93 73 81 54
80 67 43 16 15 49 79 18 87
99 26 100 48 54 47 83 75 40
60 84 66 23 56 13 79 93 58
59 61 89 30 25 28 90 100 33
56 98 83 69 47 34 72 76 19
59 53 10 47 85 36 29 39 48
86 33 21 60 64 99 25 57 20
35 26 91 70 12 15 62 25 83
22 97 66 40 35 99 91 95 69
49 44 69 65 52 46 40 99 78
42 61 67 43 11 85 70 31 16
84 64 100 20 61 27 47 14 20
30 67 60 28 71 85 30 72 60
54 49 99 75 72 20 68 30 15
97 29 40 16 45 85 55 77 54
82 98 84 35 15 25 75 32 38
56 10 67 81 28 29 46 24 69
90 32 91 91 50 64 100 12 21
16 45 84 91 65 19 54 23 52
26 24 14 75 66 28 11 98 32
54 80 56 94 59 16 92 10 73
0.346349
0.478336
0.394552
0.487263
0.446441
0.15659
0.499783
0.16689
0.398035
0.243088
0.485056
0.287943
0.485126
0.188282
0.30601
0.24641
0.354355
0.140485
0.200395
0.373751
0.351148
0.140941
0.469652
0.176566
0.288845
0.259901
0.450785
0.281623
0.436424
0.345225
0.31819
0.139876
0.235325
0.108446
0.101313
0.151667
0.239777
0.393773
0.180888
0.189877
0.427931
0.32729
0.18134
0.205369
0.448973
0.436295
0.468533
0.194732
0.212208
0.389295
0.327601
0.2341
0.379214
0.280368
0.275421
0.222882
0.184567
0.225781
0.411848
0.167956
231 204
80 75
305 129
269 392
498 339
434 354
359 14
342 442
273 294
236 458
359 299
298 113
256 350
208 272
179 446
358 124
146 295
205 270
327 343
248 258
45 274
189 265
390 0
405 351
341 237
167 416
201 268
150 23
130 11
100 372
260 345
414 185
156 262
114 424
140 216
180 372
214 102
477 429
267 252
338 14
395 131
84 57
172 129
55 441
135 295
362 400
159 210
216 422
226 194
338 390
109 292
465 490
211 384
220 100
301 394
37 65
18 226
69 459
216 384
396 401
8012.5
2
