60
11
0 0 0 0 0 0 0 0 0 0 0
79 36 73 90 97 25 48 29 67 37 68
62 39 94 91 63 94 87 65 36 18 20
38 93 45 24 39 10 28 66 62 90 78
92 15 72 58 98 23 57 18 93 97 10
83 73 58 35 33 65 15 98 99 38 86
49 89 73 37 42 71 43 79 69 57 64
68 71 80 55 81 54 26 28 31 88 80
99 32 100 48 75 46 51 55 33 52 38
87 25 49 84 41 39 98 14 71 27 93
10 48 72 80 70 100 43 63 62 63 49
17 35 96 58 41 59 84 73 23 21 89
54 16 94 23 99 68 75 86 72 99 45
92 56 98 63 15 10 19 93 59 100 47
34 57 46 26 62 82 39 73 70 100 45
48 85 77 91 68 54 28 71 38 20 38
86 89 54 41 92 50 57 99 66 79 72
44 22 94 68 15 41 55 64 53 76 91
82 78 37 81 78 18 28 43 18 40 49
81 24 70 93 88 41 78 15 69 32 55
27 85 91 92 82 69 29 62 84 11 34
36 88 78 75 29 58 74 63 72 44 85
78 59 66 38 21 65 72 65 57 46 55
56 83 97 12 69 78 60 64 85 27 83
71 66 93 65 26 64 24 23 15 55 41
14 19 37 33 20 36 82 95 44 77 65
99 52 25 16 18 70 87 30 73 53 41
48 18 81 68 30 86 24 54 33 82 16
27 91 81 74 86 49 35 84 33 48 44
77 26 51 11 78 56 82 46 70 82 86
92 47 67 45 35 23 36 84 28 27 18
38 69 77 41 33 62 97 28 22 73 91
42 77 77 53 53 90 100 49 35 25 51
65 78 46 81 59 64 11 50 66 51 82
91 39 14 98 51 100 55 94 80 22 61
49 63 52 85 75 81 27 99 64 23 42
45 18 98 36 82 35 36 49 60 85 64
70 85 57 57 36 31 84 84 55 96 13
72 66 56 17 79 36 50 86 84 16 40
61 95 85 94 82 10 93 31 68 50 44
78 88 64 42 97 23 78 30 99 97 16
29 63 42 46 35 33 15 16 40 27 64
92 74 71 30 65 93 46 12 64 73 34
66 62 76 47 89 27 53 96 97 90 89
81 49 42 17 68 50 31 63 68 35 32
69 76 43 45 81 14 65 81 59 82 39
24 40 33 24 58 83 47 39 50 41 53
17 86 67 94 55 88 80 78 83 72 60
26 99 99 62 12 50 59 84 74 82 49
54 10 82 99 66 87 36 70 53 39 29
52 54 48 13 64 27 15 43 13 25 56
30 86 16 27 88 70 72 66 63 69 11
61 39 75 87 96 25 25 46 59 100 82
60 79 97 28 46 99 12 86 63 64 49
65 39 12 44 39 41 90 46 61 75 47
35 45 89 20 31 74 97 88 72 51 98
22 72 87 37 18 88 56 61 13 32 37
58 79 77 82 79 14 77 44 85 23 71
68 91 63 29 65 14 13 95 18 69 74
60 66 78 75 87 71 62 79 21 57 98
1.23546
0.91279
1.25528
1.98836
1.43667
1.4583
1.66496
1.79807
1.35254
1.51369
0.90199
1.9338
1.36858
1.5482
1.48768
0.465652
0.785052
0.415647
1.34371
1.40099
1.84268
1.87395
0.671495
0.812039
1.11661
1.29236
0.679725
0.979705
1.78797
0.547339
1.39674
1.85319
1.15508
1.72831
1.3866
0.723766
0.75909
1.70147
0.963054
1.41065
1.25464
1.84419
0.923473
1.1107
1.89051
1.17737
1.00129
0.981516
0.647948
1.37907
1.10425
0.728848
1.18255
1.61487
1.85698
0.881804
1.56642
1.78797
0.507865
1.86609
361 81
38 59
13 425
449 40
462 2
73 241
62 8
351 230
193 50
22 76
280 185
108 255
414 388
53 291
194 174
269 30
300 183
106 405
429 429
240 49
486 421
411 214
90 97
459 260
368 113
258 328
33 291
162 158
121 290
367 321
342 465
355 459
361 448
132 79
252 318
79 166
407 72
106 323
212 470
24 86
406 373
47 3
79 234
266 164
488 39
461 311
487 60
17 127
372 324
248 221
457 70
87 87
308 268
499 11
286 252
71 101
283 330
112 244
236 354
265 435
3403
5
