60
7
0 0 0 0 0 0 0
36 17 24 29 50 58 53
46 69 15 99 81 87 70
66 22 80 96 85 53 40
35 56 40 40 62 71 88
14 94 63 94 14 48 99
56 57 96 52 82 77 22
47 69 75 73 91 81 73
68 63 42 69 49 73 30
36 90 58 28 97 20 48
56 36 40 43 24 39 24
63 24 80 68 78 85 99
62 67 11 57 59 57 27
69 65 68 59 66 31 50
15 25 39 55 99 26 30
21 16 85 10 13 90 44
100 61 73 41 63 46 51
13 80 38 76 74 48 24
37 97 70 100 58 30 23
36 52 10 17 59 92 37
47 12 66 33 79 97 10
50 67 43 92 16 55 16
37 46 58 53 31 36 46
65 71 63 14 95 36 90
56 59 30 34 98 71 94
11 38 33 59 12 90 36
92 89 22 72 61 39 68
52 94 100 31 16 59 90
48 94 85 37 78 99 23
76 52 18 39 30 88 12
86 72 58 55 96 70 27
52 59 70 12 58 47 100
86 24 76 93 60 82 86
100 32 76 27 39 31 77
24 46 50 68 73 72 87
72 69 28 97 76 95 79
79 16 63 38 53 59 20
47 56 62 94 42 96 71
22 57 45 17 89 61 67
15 80 19 60 44 69 59
83 44 55 75 59 88 40
23 40 78 68 10 83 16
94 81 69 53 67 94 36
21 33 13 98 97 41 82
16 24 93 26 71 73 48
93 12 30 83 88 40 47
53 17 42 81 21 29 22
96 35 39 59 26 14 64
66 71 57 53 87 95 41
13 35 19 63 96 42 86
38 81 57 35 21 60 96
59 21 24 37 79 19 93
68 79 45 56 59 70 70
89 43 58 29 31 27 28
11 62 28 90 91 49 34
93 28 55 37 48 76 35
29 89 12 57 41 21 24
75 32 16 19 82 32 94
85 62 27 90 64 98 19
25 69 24 26 29 22 16
0.814188
0.94002
0.391089
0.381251
0.914226
0.634832
0.914473
0.853375
0.94408
0.202162
0.725354
0.865088
0.409823
0.489588
0.419866
0.240269
0.819627
0.530312
0.972852
0.293655
0.526688
0.354734
0.582145
0.627443
0.667035
0.992121
0.515995
0.210541
0.771917
0.249722
0.239328
0.936909
0.876655
0.586488
0.215294
0.651017
0.303384
0.923492
0.677732
0.213716
0.542737
0.845046
0.729826
0.634839
0.210838
0.937497
0.429332
0.53935
0.451399
0.491239
0.429028
0.264465
0.800308
0.976775
0.387819
0.999231
0.991815
0.940969
0.995186
0.884493
198 402
122 199
122 10
102 34
170 213
253 282
70 14
20 25
95 472
330 44
438 351
208 371
299 48
344 470
69 80
436 232
348 350
487 129
0 144
265 52
169 347
329 178
6 28
421 177
220 219
228 206
150 168
211 326
70 363
445 45
83 464
432 477
398 411
482 405
432 346
177 60
177 78
317 411
351 32
429 170
24 148
432 20
126 457
211 482
327 457
40 374
54 263
47 123
71 395
86 90
496 174
437 320
276 393
234 219
321 437
103 182
454 456
292 103
427 294
217 48
16130
1
