60
5
0 0 0 0 0
38 90 56 30 11
95 43 21 76 90
61 94 80 87 97
13 52 56 75 56
35 32 74 56 29
73 65 98 93 66
59 87 58 100 92
45 72 63 36 27
65 86 30 57 99
48 88 44 15 82
67 77 35 55 89
45 82 43 61 82
93 62 55 18 42
94 65 85 26 72
73 43 45 83 90
31 17 43 58 27
100 25 50 17 12
68 43 20 66 74
97 64 79 41 55
82 30 78 51 28
43 24 72 98 46
38 23 58 17 32
65 37 13 26 73
99 46 58 98 67
43 27 31 64 52
14 47 53 27 84
32 52 82 85 18
36 67 57 90 53
83 65 97 12 61
26 44 89 31 54
48 61 18 98 45
92 36 15 70 63
68 38 98 44 87
37 29 22 89 33
73 98 54 55 94
36 78 77 41 21
75 36 51 60 89
100 52 26 73 93
54 13 70 90 32
85 61 19 90 89
10 96 62 86 75
82 72 75 61 65
80 33 82 41 42
99 59 23 98 65
88 19 76 44 76
95 100 40 64 100
55 63 11 95 84
14 89 45 15 37
37 100 54 35 42
21 27 35 23 91
63 20 57 54 30
83 56 11 81 90
16 83 52 48 76
39 89 76 46 51
87 100 79 90 34
51 75 93 53 89
10 50 68 93 12
41 15 22 14 94
13 75 22 97 64
1.37235
1.48901
0.647644
0.560279
1.74161
0.986665
1.53361
1.06214
0.901217
0.615993
0.649414
1.85618
1.35597
1.99987
1.95948
0.968262
0.727189
0.970899
0.531299
1.00181
1.3444
1.87474
1.60184
1.8447
0.622552
0.955439
1.88608
0.741746
1.71558
1.49392
1.92966
0.707026
1.25724
0.795619
0.846471
1.95628
1.4716
0.672983
1.73843
0.839721
1.09191
1.34045
0.560721
1.59992
1.52629
1.35339
1.53423
1.9176
1.0601
1.6248
1.47202
1.64785
1.33759
1.27676
1.10942
0.448084
1.10912
1.59873
0.788972
1.28856
31 263
393 35
453 277
58 158
85 190
8 93
336 491
407 132
33 36
209 79
408 23
481 262
179 39
360 64
162 450
451 207
291 6
479 246
133 15
220 42
22 207
281 187
182 453
365 138
484 124
255 465
105 171
324 226
124 201
89 259
452 53
85 142
72 249
64 321
146 319
184 445
239 326
104 257
71 65
341 430
382 9
497 259
463 5
448 24
363 384
172 315
155 455
15 453
235 53
446 221
142 295
396 2
423 308
426 178
288 371
85 233
64 234
284 492
42 303
405 292
8530
2
