60
5
0 0 0 0 0
42 34 74 51 27
48 51 63 32 53
87 77 48 26 63
54 15 57 28 55
73 74 87 67 35
37 77 70 46 49
33 26 48 47 56
84 24 80 69 74
41 53 87 87 42
39 82 64 90 16
76 50 40 27 76
15 59 34 48 26
98 17 76 81 44
19 84 47 72 97
15 28 22 99 34
63 56 42 41 43
17 10 32 77 90
57 31 12 15 37
44 82 43 82 49
76 50 82 53 77
66 29 81 64 98
48 13 97 24 67
21 64 22 48 43
46 24 19 95 12
57 87 88 55 37
80 53 47 17 53
77 89 19 44 53
34 73 39 28 70
54 48 77 82 73
10 19 89 99 25
10 87 65 97 54
96 66 48 39 92
23 23 26 52 70
15 100 83 71 12
33 95 17 23 56
16 62 50 29 62
70 59 88 11 37
16 62 25 40 32
60 44 10 59 80
43 28 98 47 19
21 25 20 86 56
74 93 23 89 52
85 64 49 52 99
11 16 11 41 100
86 73 90 52 37
61 73 16 13 83
72 70 58 70 72
100 13 53 37 86
91 90 45 59 95
80 28 41 24 20
99 73 81 24 23
49 25 80 90 77
81 56 43 10 62
25 72 47 93 30
23 35 21 85 96
29 25 23 78 19
65 11 40 60 60
26 84 70 65 86
39 89 59 52 71
0.475891
0.311792
0.996763
0.824037
0.554542
0.643034
0.403337
0.384064
0.348932
0.813058
0.493269
0.400425
0.986268
0.944187
0.742087
0.360287
0.973197
0.9827
0.605159
0.390596
0.837978
0.908403
0.382933
0.565614
0.325803
0.572811
0.21118
0.940548
0.640393
0.598359
0.571454
0.856319
0.411529
0.512991
0.217015
0.349647
0.6087
0.588999
0.791098
0.267459
0.651059
0.226916
0.217494
0.600823
0.615504
0.319016
0.35274
0.319668
0.421466
0.820504
0.469073
0.428255
0.267619
0.466534
0.409587
0.523013
0.828813
0.757358
0.626129
0.798246
275 28
396 168
201 66
464 191
405 251
105 1
75 80
392 227
210 337
151 44
94 268
188 244
493 438
494 167
380 407
8 290
119 330
210 218
483 295
439 239
442 342
162 164
276 320
260 49
383 204
282 448
199 221
183 324
342 104
375 210
91 236
181 11
408 201
383 131
129 328
349 417
156 202
423 109
248 252
352 307
324 417
198 260
497 50
492 29
227 3
414 153
145 482
293 181
9 0
89 209
54 328
268 102
235 52
411 272
143 172
337 139
475 435
180 187
21 154
24 275
3937.5
4
