60
7
0 0 0 0 0 0 0
81 30 50 26 55 56 47
70 43 45 36 100 32 10
65 52 86 95 86 69 29
11 78 40 56 22 69 13
31 45 87 31 76 93 50
26 67 55 14 61 14 81
73 20 29 66 80 78 35
34 44 74 98 49 69 55
66 56 87 13 36 87 18
10 62 53 79 90 97 71
95 82 47 24 56 41 40
43 75 26 59 99 76 63
24 33 37 41 29 25 19
12 45 26 15 82 73 49
52 85 92 82 88 57 78
11 33 72 13 68 93 74
23 46 70 26 30 91 34
39 56 68 82 56 81 56
13 54 76 41 56 35 41
99 56 58 26 66 66 60
25 88 21 48 59 26 43
59 22 51 88 28 74 53
11 25 82 56 30 81 41
23 31 88 94 39 86 88
18 93 93 38 91 15 63
31 13 25 97 91 59 16
63 60 60 59 78 84 25
92 24 19 52 93 59 100
98 60 65 96 73 55 100
63 64 48 80 34 76 28
13 41 33 15 99 100 21
15 22 39 64 19 64 76
24 51 10 65 98 64 32
59 49 55 97 79 61 84
74 12 96 23 87 90 78
35 54 73 15 33 77 28
59 69 48 77 46 57 84
30 67 62 93 34 44 13
35 81 71 63 78 43 51
92 76 13 94 45 62 27
73 62 55 58 79 67 53
85 86 23 86 38 24 37
29 48 42 97 97 36 24
71 45 91 35 30 54 80
78 34 28 61 98 93 70
26 70 88 59 56 92 75
48 62 39 54 10 40 66
77 75 81 93 25 66 10
31 62 19 10 54 79 17
43 88 96 39 62 59 12
32 78 28 29 99 84 39
98 83 18 12 34 63 29
89 92 29 71 11 61 51
34 95 87 30 88 15 83
18 26 89 94 41 80 78
46 70 60 99 37 67 85
62 56 73 27 83 48 31
50 45 27 46 55 62 62
83 87 66 58 74 60 82
1.0294
1.76826
1.10845
0.937813
0.864674
1.24079
0.568176
2.06785
1.74496
0.563103
0.555182
2.00088
1.47414
2.32341
2.15454
2.00164
1.38929
2.14338
0.82868
1.64829
2.07423
1.10931
2.09237
1.7209
0.577817
2.19637
1.14652
1.76917
0.822902
0.649581
1.55109
1.90134
1.06412
1.24883
2.27118
1.62829
2.2312
1.34276
1.68448
2.05448
2.17774
1.65833
1.1263
1.35563
1.90803
1.35322
0.716097
2.17632
2.31996
1.1614
2.13395
0.545935
0.889605
1.12127
1.68891
2.27541
1.0877
1.25403
0.665796
1.72595
166 107
232 128
476 33
421 458
196 28
230 337
500 16
244 173
472 139
366 264
371 418
498 427
496 204
209 281
435 85
476 482
162 52
370 79
377 394
429 161
220 435
467 439
454 213
249 198
447 486
56 129
232 257
420 440
366 475
420 384
52 44
288 300
41 234
103 107
332 207
418 168
267 437
46 421
272 51
73 129
143 440
331 495
22 391
381 147
8 100
103 452
423 57
332 241
370 29
11 466
134 248
493 78
331 464
197 251
111 350
146 447
300 207
34 2
381 39
239 107
5485
3
