60
11
0 0 0 0 0 0 0 0 0 0 0
98 42 55 91 72 65 58 63 72 17 65
61 47 59 94 24 91 55 73 33 10 84
55 46 16 41 88 30 79 50 58 56 63
87 88 89 85 65 21 98 61 17 57 12
20 10 79 68 38 97 61 10 29 84 35
100 34 32 11 56 88 94 22 33 27 67
10 28 87 95 36 22 97 97 74 86 27
29 49 39 51 45 41 52 89 17 99 30
51 30 52 10 94 90 34 37 69 16 15
83 79 22 44 32 10 49 75 80 83 71
83 13 47 26 33 41 49 38 12 62 36
24 41 46 100 42 61 27 94 33 70 48
50 36 33 71 58 53 57 48 95 88 43
71 33 40 10 91 90 13 81 37 87 46
85 95 76 53 42 77 13 68 72 55 27
40 54 65 63 60 39 100 19 10 11 97
73 18 91 74 56 55 97 46 34 36 16
24 73 37 75 21 77 32 45 87 66 87
96 60 15 83 71 37 12 46 94 84 43
12 82 76 80 89 27 12 47 14 25 70
53 73 54 61 42 89 80 92 18 47 93
23 35 17 13 77 94 22 99 14 48 77
43 38 81 51 51 56 71 40 50 27 22
98 59 29 92 55 42 59 67 41 22 14
94 31 72 35 81 60 56 45 81 31 96
58 30 22 78 31 70 52 62 60 15 52
94 85 56 29 27 100 29 72 11 81 75
30 19 83 74 46 67 34 18 31 22 56
98 59 36 72 88 69 16 44 88 45 84
52 54 25 24 51 16 77 68 29 87 85
65 20 93 58 91 42 31 86 71 86 52
49 55 34 91 49 52 68 90 88 34 47
62 90 43 14 52 57 53 85 25 29 85
35 75 76 27 13 29 96 69 48 27 26
85 48 50 78 75 12 16 12 90 67 79
46 16 71 59 58 65 28 14 73 89 54
89 11 29 30 57 85 33 83 84 20 10
29 54 98 72 24 78 81 65 77 39 93
86 58 26 21 29 75 78 30 24 37 85
49 46 44 66 58 82 78 42 31 51 52
18 34 35 59 12 44 96 28 56 96 46
84 23 70 78 16 51 100 59 15 80 66
42 47 91 86 23 92 90 22 65 47 38
51 11 60 59 80 63 37 90 23 90 98
66 17 64 92 93 83 22 52 96 28 63
61 37 25 70 27 45 84 19 22 51 87
24 66 35 63 84 60 52 73 24 67 16
47 19 34 26 19 84 84 33 83 18 73
60 46 35 98 58 37 44 91 20 34 21
86 63 34 49 53 12 74 67 78 47 38
17 83 23 51 39 96 47 24 40 45 43
26 73 63 56 44 97 41 24 29 16 45
48 24 11 50 50 72 71 18 27 51 27
26 72 41 48 89 84 25 31 78 40 59
23 92 57 59 35 25 67 25 73 39 11
37 97 12 33 96 56 30 63 26 14 92
93 71 95 46 14 50 35 35 27 34 26
54 49 94 72 100 38 22 51 82 62 95
18 48 42 59 23 37 91 44 56 67 99
1.09532
0.528318
1.67081
0.539615
1.06056
0.940832
1.97403
1.24181
0.629754
0.965752
1.95374
1.93158
0.928999
0.408087
1.84358
0.537415
1.90143
0.962386
1.42948
0.607275
0.411918
1.04517
0.423637
1.58084
1.81083
1.12512
1.54696
1.71948
0.987515
1.54492
1.27011
0.965873
1.26459
1.88127
0.402324
1.98845
1.40034
1.72762
0.82857
1.34416
0.807521
0.921384
0.410831
1.16123
0.594392
1.53197
0.847101
1.38528
0.56633
1.2409
1.0584
1.44068
1.2231
0.85587
0.985786
0.531607
0.977134
0.988775
0.43129
0.451902
50 21
71 286
244 58
411 267
387 99
474 346
113 377
200 356
169 393
49 281
132 173
130 237
215 490
192 299
240 216
37 24
290 336
20 443
199 491
130 443
414 132
336 311
378 360
186 274
85 103
93 402
106 189
142 72
86 303
158 442
203 251
113 260
376 289
298 246
444 426
216 311
289 417
393 494
319 288
413 216
355 100
159 145
356 182
217 483
473 335
46 241
55 24
30 292
400 433
429 92
49 445
447 479
488 203
316 432
379 377
149 85
129 51
144 386
248 315
58 112
3157
5
