60
11
0 0 0 0 0 0 0 0 0 0 0
35 46 29 48 73 40 61 33 35 42 100
92 39 37 25 53 84 75 31 91 54 72
52 58 92 35 71 23 15 80 14 79 36
43 74 66 62 55 21 12 95 74 34 84
99 16 74 40 82 98 61 82 68 94 82
32 87 24 46 90 97 21 11 76 93 17
40 98 91 94 31 91 44 22 15 13 55
66 46 18 75 56 39 14 49 95 39 19
100 24 54 100 54 53 73 40 83 14 24
57 92 73 14 25 47 68 74 28 79 92
81 96 78 61 69 30 96 97 69 28 94
90 37 17 37 23 75 71 68 99 46 49
54 25 62 80 31 32 37 90 41 87 94
25 55 24 75 69 89 27 97 98 60 12
70 44 14 98 79 35 25 24 76 100 71
43 27 86 13 34 92 27 63 27 44 26
50 41 98 72 96 81 26 64 15 32 35
76 84 45 17 56 23 89 92 21 52 71
66 30 67 90 42 99 22 56 77 91 29
10 96 59 100 49 35 13 77 76 60 85
89 35 32 80 67 78 34 71 28 35 82
21 52 58 21 51 42 86 92 19 56 21
10 13 69 50 89 32 82 87 77 46 57
99 31 10 64 93 48 68 55 46 15 21
81 15 31 29 73 83 44 90 93 33 22
77 91 58 95 10 60 99 61 74 73 74
61 41 33 62 90 12 32 23 52 17 81
22 88 40 42 30 80 36 55 30 84 91
44 56 95 28 13 91 67 35 39 85 72
23 91 56 62 44 95 18 41 79 62 95
50 42 20 34 92 15 78 86 38 21 71
82 52 63 60 21 19 32 92 90 30 31
17 96 35 46 54 90 96 61 26 90 37
52 97 12 74 93 28 10 45 71 86 83
21 55 67 53 38 60 63 28 40 93 38
89 78 61 14 44 11 58 53 36 54 69
48 73 100 86 97 61 47 90 65 12 47
74 44 19 61 46 76 28 59 88 28 30
13 38 13 44 88 76 12 92 48 16 55
64 46 84 59 81 95 67 76 87 43 50
75 40 18 13 98 27 67 12 99 56 44
45 35 30 73 47 73 79 65 68 92 22
23 91 57 53 95 45 47 94 13 48 54
72 42 40 15 29 36 72 50 17 92 65
50 90 36 36 58 90 84 83 83 49 38
31 17 79 15 87 78 15 87 14 28 92
23 96 35 74 46 95 82 20 69 37 43
35 95 78 77 74 85 57 72 66 86 48
64 67 17 88 90 61 97 28 48 86 60
27 82 62 50 39 29 17 83 52 95 85
92 39 100 85 27 35 85 81 25 60 70
51 40 35 57 98 100 14 67 21 62 13
23 68 33 60 47 83 21 19 97 89 37
18 44 20 86 65 84 24 50 98 91 24
54 48 64 34 91 95 15 98 16 12 75
21 80 13 60 64 39 51 34 36 33 81
69 38 48 86 94 21 64 87 28 28 84
53 54 65 30 48 23 35 49 51 17 17
37 60 45 95 43 10 24 92 20 86 76
1.18729
0.63628
2.26098
0.955006
0.507214
1.78217
2.20246
1.57217
1.36175
0.827534
1.57864
1.81931
1.74741
1.00917
1.22659
1.81412
1.06205
0.621328
0.888053
0.924342
0.853864
1.97416
0.559645
1.30936
1.48963
1.39633
2.21366
1.70731
1.28211
2.05114
2.45213
1.75081
1.04365
1.92211
1.6544
1.8835
0.559396
1.78776
2.04192
2.2683
1.25861
2.14098
1.71707
1.59183
2.24697
1.63148
1.39678
0.652195
1.76916
0.910114
2.45842
1.07462
0.5255
2.42869
2.17131
1.62404
0.829729
2.33442
1.43552
1.75217
173 401
75 201
13 352
446 10
374 111
477 37
172 403
112 191
368 158
192 482
358 434
7 206
234 73
359 185
78 407
211 156
238 16
426 54
75 311
153 400
64 398
103 56
377 309
236 124
174 99
156 34
248 186
190 411
1 360
57 389
453 257
350 406
89 277
215 413
357 91
369 353
6 475
412 173
41 126
479 485
270 71
453 211
185 269
124 497
3 431
197 413
287 353
394 307
193 198
252 368
303 370
106 72
229 157
101 106
212 71
408 193
251 375
115 273
292 463
250 153
4107.5
4
