60
9
0 0 0 0 0 0 0 0 0
43 41 26 42 33 10 23 23 73
75 86 14 62 50 67 48 37 11
36 79 23 25 47 30 83 90 92
37 20 30 72 94 27 30 31 80
34 46 31 80 10 75 60 41 52
83 27 85 64 63 53 77 49 78
38 37 55 18 97 64 88 68 53
65 29 42 57 26 21 21 87 62
95 25 96 34 87 54 73 25 19
59 41 87 21 86 99 85 81 38
94 90 76 76 81 14 14 16 12
70 92 48 75 12 58 19 61 83
51 53 90 16 45 100 18 28 94
59 27 15 94 32 34 49 11 49
53 36 67 15 22 64 85 66 73
70 91 96 65 27 81 18 92 59
46 59 52 66 100 92 92 64 64
85 50 39 86 78 51 18 42 50
95 75 85 76 100 23 89 46 81
46 55 41 71 23 87 93 93 100
99 84 85 41 24 48 89 68 31
85 62 97 55 15 35 14 32 51
82 24 83 87 14 32 28 63 30
76 91 76 95 55 59 97 40 67
46 23 47 35 96 97 79 66 16
67 77 63 39 58 92 47 100 100
45 58 42 99 60 15 91 96 88
12 10 59 11 70 27 13 90 45
98 37 48 20 29 38 12 27 95
79 54 48 20 25 28 54 22 53
68 39 69 17 89 17 68 87 40
71 61 19 54 50 90 87 36 57
89 84 86 45 89 86 93 68 40
18 19 35 18 25 59 65 30 86
67 26 74 64 35 49 31 80 94
21 42 59 28 97 87 60 59 80
92 12 100 71 79 26 70 77 83
69 10 48 30 42 36 52 45 84
75 97 37 40 29 59 39 33 14
93 89 100 24 65 97 42 82 92
82 55 58 85 19 86 49 61 12
99 52 31 52 38 59 51 95 64
88 89 84 79 42 78 67 76 94
61 74 96 79 82 22 55 41 55
33 11 46 57 65 98 26 57 91
40 33 30 56 64 72 87 81 68
61 61 51 19 60 61 43 86 95
71 84 92 34 85 32 18 86 20
46 89 59 24 25 42 99 14 36
67 64 12 75 90 90 88 39 59
60 19 59 68 28 88 18 25 15
35 92 73 16 75 79 58 39 58
84 96 95 48 54 66 13 74 27
20 96 42 19 76 54 15 27 27
27 84 39 79 75 74 38 88 34
17 32 99 95 13 13 67 45 60
78 96 25 14 74 11 39 29 14
73 99 62 84 52 76 85 37 28
59 21 57 69 77 97 84 24 44
0.459228
0.18347
0.368805
0.397831
0.349268
0.357934
0.298127
0.155129
0.241785
0.231221
0.165689
0.158318
0.463263
0.362079
0.419427
0.384848
0.360252
0.366467
0.422472
0.313835
0.461222
0.122848
0.374517
0.165568
0.282706
0.445009
0.145405
0.345121
0.39252
0.364131
0.262625
0.243924
0.243399
0.425235
0.45687
0.280218
0.328949
0.129345
0.461492
0.432284
0.109906
0.212438
0.15552
0.204408
0.130867
0.435746
0.216257
0.33974
0.125391
0.319573
0.1828
0.299324
0.20267
0.256117
0.276308
0.137617
0.408849
0.227801
0.135402
0.203434
492 125
241 386
1 280
66 325
227 377
71 314
319 323
86 499
483 452
220 235
465 138
354 319
254 128
155 60
269 12
294 210
311 475
468 290
222 395
286 267
444 198
191 129
80 337
240 356
434 302
69 214
205 138
483 31
97 209
90 102
156 219
145 286
485 260
3 147
273 194
333 380
299 160
460 195
117 250
464 203
498 218
366 235
52 128
268 321
252 315
85 484
191 3
459 191
478 119
154 409
381 92
79 163
169 365
134 435
497 483
76 231
191 2
210 477
225 156
125 157
8340
2
