60
7
0 0 0 0 0 0 0
84 81 46 33 25 100 14
75 67 31 50 27 39 60
44 86 77 15 43 10 28
39 39 65 12 99 14 28
99 45 54 42 63 74 89
28 46 13 61 17 14 48
49 27 13 55 17 77 39
38 86 86 35 46 17 34
81 50 75 25 89 96 64
54 38 40 75 36 87 32
35 19 83 96 52 86 83
55 70 32 65 66 75 37
86 27 84 53 100 90 89
76 24 81 26 92 82 79
14 55 46 69 14 55 26
95 26 11 87 10 94 34
24 98 86 13 49 25 48
10 77 72 24 97 38 38
91 33 46 36 22 68 100
62 14 74 27 13 64 49
37 79 11 42 83 73 91
84 18 74 21 74 74 74
38 75 26 14 52 93 59
34 53 18 49 12 17 94
31 49 47 99 80 54 100
20 62 55 45 99 77 21
39 43 70 91 54 56 21
52 37 61 37 51 55 26
22 61 54 17 91 10 13
41 95 40 31 41 69 100
43 81 10 75 87 74 58
34 94 21 86 93 69 57
99 73 37 76 69 35 70
45 74 37 11 50 45 80
34 88 28 75 25 30 70
54 21 72 68 19 45 73
35 77 34 19 94 59 44
22 14 47 19 92 14 92
55 37 43 95 52 67 34
29 46 34 87 40 61 96
80 56 30 85 35 72 83
76 93 13 60 48 82 99
38 76 90 86 63 15 79
68 27 57 84 63 76 41
47 73 14 45 77 72 41
30 28 91 11 37 40 74
82 65 14 10 77 61 29
19 62 19 50 98 88 30
77 60 94 71 58 62 46
71 44 38 40 64 73 66
12 77 14 75 68 92 56
74 98 95 84 50 38 51
91 16 44 93 74 85 64
69 46 52 25 21 100 31
98 31 86 95 51 50 23
80 86 15 38 10 73 48
19 85 67 82 46 55 35
10 49 23 51 62 37 27
99 35 91 19 23 51 15
0.289302
0.511839
0.360691
0.843898
0.653217
0.68887
0.570386
0.868066
0.559356
0.998356
0.394037
0.831629
0.60031
0.60176
0.991943
0.328788
0.74923
0.580943
0.535348
0.79623
0.796384
0.555181
0.427071
0.51436
0.688065
0.65844
0.904796
0.645655
0.943843
0.618091
0.321709
0.31959
0.895659
0.61764
0.82376
0.683025
0.68329
0.407065
0.414278
0.528635
0.531461
0.954136
0.834438
0.719099
0.781648
0.559515
0.482951
0.38698
0.665377
0.743849
0.619674
0.618903
0.214601
0.849943
0.483799
0.98126
0.509145
0.817567
0.8696
0.429992
304 36
273 218
413 82
289 307
209 404
172 191
1 26
289 455
296 330
190 378
350 18
80 48
122 464
424 273
391 191
50 393
91 369
277 354
492 29
247 162
317 490
453 111
303 455
446 19
134 101
37 21
139 149
289 472
203 277
42 34
97 113
163 97
475 489
467 284
202 377
232 18
89 407
149 331
28 255
149 232
452 388
405 28
38 160
434 190
16 437
400 254
50 293
159 418
309 147
22 437
365 255
442 7
432 352
61 448
217 230
46 133
281 10
30 162
446 107
333 467
7982.5
2
