60
11
0 0 0 0 0 0 0 0 0 0 0
76 66 72 82 40 52 43 39 12 96 37
17 65 43 55 74 43 30 82 21 16 69
34 85 75 20 80 89 70 34 82 22 28
38 17 27 79 93 69 62 26 16 32 100
17 18 95 88 84 86 36 19 53 45 74
48 94 77 29 63 53 40 22 54 28 50
95 45 24 15 27 63 77 89 42 97 55
60 35 42 15 26 65 67 87 85 58 25
23 33 55 75 61 59 83 65 85 23 84
29 20 74 79 59 14 16 43 39 51 27
79 83 64 59 62 65 84 43 22 22 75
48 60 40 67 51 44 25 15 78 79 77
58 59 94 12 64 99 78 85 91 50 31
22 76 11 49 80 42 50 86 55 80 39
43 96 16 77 91 13 72 11 13 61 83
60 75 96 91 76 39 15 61 80 93 19
91 97 90 38 50 23 41 91 12 43 65
53 20 12 43 30 41 53 49 91 69 71
94 56 20 98 45 10 10 73 42 11 22
91 34 26 51 81 32 47 32 77 74 82
32 61 43 98 17 63 98 43 44 48 47
87 27 16 47 24 50 95 29 84 26 66
40 80 40 97 50 88 63 33 31 66 63
97 20 63 100 88 99 52 47 77 85 24
35 38 48 65 25 33 88 100 87 53 10
29 16 51 69 49 78 81 91 41 33 95
41 96 87 90 89 49 33 55 45 91 78
74 35 27 73 28 53 51 33 34 53 55
26 50 58 39 71 42 14 37 95 52 12
88 30 54 64 78 60 66 34 32 89 87
12 38 96 66 59 54 46 75 42 28 78
73 32 15 66 83 67 42 63 82 71 52
26 45 25 71 18 89 94 85 58 33 29
71 82 92 75 14 98 14 69 99 100 41
90 67 24 93 41 26 49 43 25 39 32
27 51 59 56 96 48 47 60 100 43 51
99 62 74 46 31 18 24 63 83 89 15
16 35 58 29 38 72 83 54 45 88 79
63 75 18 44 60 96 89 83 74 71 70
89 84 31 47 77 14 12 83 57 46 92
94 64 81 50 69 62 42 58 82 88 30
44 30 58 57 34 62 73 48 43 35 67
23 65 50 68 41 68 89 19 67 46 15
45 85 37 13 69 53 87 47 15 98 79
46 27 63 38 99 85 17 88 45 69 17
56 26 68 74 85 61 74 54 83 49 32
52 92 89 87 30 74 77 53 44 40 64
67 55 79 67 46 83 57 34 54 11 74
98 82 44 51 29 13 91 74 24 95 86
25 78 57 74 52 61 24 54 49 92 71
51 78 35 65 41 23 50 82 94 88 40
67 27 98 68 40 89 28 52 15 18 87
76 32 67 27 21 16 38 23 20 88 34
69 93 88 42 33 92 77 20 37 23 59
67 28 67 13 36 53 42 47 33 57 33
37 73 55 12 51 67 32 77 65 50 60
47 59 24 74 75 33 42 47 71 18 81
14 96 44 70 64 12 87 82 22 57 43
12 92 29 21 26 13 76 15 70 79 68
1.61795
0.571625
1.39159
0.741619
1.58191
1.00143
1.32039
1.68148
0.91278
1.71
1.63178
1.70153
1.32362
1.96764
0.517168
1.1309
1.62409
1.98549
1.52655
1.85288
1.64618
0.922202
0.959903
1.69141
1.3031
1.2945
1.64436
1.71318
0.600741
0.799679
0.949693
1.73793
0.65154
1.64776
1.31995
1.3575
1.0537
0.438652
1.5988
1.40451
1.33771
0.765333
0.408697
0.820814
0.596661
1.51937
1.68532
1.3719
0.484462
1.7392
1.9815
0.953696
1.48897
1.42796
1.48567
0.533685
1.56041
1.97766
1.05831
1.27674
281 14
486 328
97 256
276 418
401 213
74 100
57 59
469 235
290 148
473 129
113 449
12 71
84 254
193 312
234 447
395 245
309 254
177 2
333 79
21 305
177 182
293 226
113 324
265 177
80 420
29 394
472 458
261 241
372 6
85 47
129 152
468 324
289 129
181 214
324 345
327 261
455 158
258 421
72 342
22 260
429 322
60 423
223 218
89 356
37 57
441 307
455 470
156 57
410 79
454 459
381 345
394 464
444 183
156 411
433 354
204 243
223 106
87 97
238 292
164 251
4067.5
4
