60
7
0 0 0 0 0 0 0
72 27 75 25 85 37 35
36 88 84 95 34 40 40
55 66 34 49 67 77 30
31 28 22 76 67 87 10
99 83 99 99 20 54 67
89 56 80 83 13 71 69
95 45 81 41 47 56 79
31 35 22 70 64 81 17
12 25 36 91 79 20 80
95 18 39 17 74 98 78
56 37 99 44 43 77 92
81 24 43 54 44 81 27
75 77 25 43 17 31 65
41 43 35 44 30 22 47
12 94 55 21 82 35 10
27 89 21 87 31 97 44
96 54 33 66 65 52 66
13 61 18 32 29 61 95
65 51 28 60 49 80 87
96 47 53 26 94 55 52
36 79 70 68 33 86 93
23 42 98 21 26 52 61
51 80 37 44 81 68 60
16 51 73 63 36 76 97
52 92 84 94 31 22 51
22 55 93 78 14 23 82
71 35 92 26 81 29 65
83 44 76 17 87 73 32
72 58 34 77 71 18 81
13 92 33 41 74 68 34
46 73 37 15 87 32 89
40 95 61 27 87 54 53
76 84 11 59 94 24 90
88 41 51 78 26 23 100
17 31 36 31 24 54 63
70 76 69 82 82 80 20
25 43 78 52 67 41 42
21 18 68 25 38 68 82
15 43 20 17 11 99 94
18 59 27 44 30 64 90
52 24 79 48 70 80 84
20 34 54 54 50 88 45
48 29 77 63 83 76 80
41 92 73 10 63 45 10
99 14 85 23 95 81 21
31 58 86 76 13 58 46
65 39 35 25 10 34 66
53 72 46 81 79 53 69
27 91 43 40 85 68 47
42 56 10 98 35 63 90
68 65 65 29 91 84 26
96 12 91 29 47 29 99
68 47 18 68 54 16 79
64 28 95 15 48 73 36
93 49 24 20 13 89 58
83 59 87 69 25 14 66
69 48 23 57 30 50 72
90 58 99 33 45 19 30
14 21 84 44 38 95 57
2.38476
2.33901
1.86152
1.54894
2.21085
2.41781
0.762374
1.28077
2.10535
0.668436
1.6315
1.75974
1.36497
0.920168
0.873764
2.30367
0.641614
2.47036
1.22555
1.10861
1.79025
2.29451
1.49984
0.683532
1.66981
0.934688
0.994217
0.948965
0.57737
1.61036
2.05096
1.69253
1.02737
2.49959
1.12856
0.972379
2.13342
0.507208
0.873985
1.47714
1.80954
0.751336
2.46823
2.22229
1.62596
1.52309
1.34135
1.00821
1.94414
1.81905
1.91903
1.44167
0.974445
0.791729
1.70564
0.907343
1.71128
0.96463
1.53858
2.37954
149 157
473 437
43 319
229 253
352 232
400 105
386 326
314 474
215 294
77 53
331 22
19 14
498 272
417 30
31 455
6 167
236 52
314 104
310 251
488 404
23 51
343 60
62 49
213 356
346 181
332 105
210 97
470 362
286 152
489 408
140 5
58 27
29 257
30 268
64 73
2 70
45 22
201 12
151 347
309 345
68 397
277 473
97 349
402 181
454 9
87 97
305 244
262 257
256 17
499 27
153 371
22 73
482 355
354 398
497 164
163 334
141 451
21 41
426 78
132 286
3225
5
