60
5
0 0 0 0 0
62 53 21 22 75
89 40 83 78 75
81 20 100 66 42
12 15 25 67 22
93 18 15 67 46
93 90 75 91 20
10 85 36 23 88
90 13 44 85 18
50 54 39 87 68
88 29 66 80 49
84 59 42 59 99
16 12 30 47 77
97 64 47 62 30
15 47 34 82 81
89 36 66 76 21
51 74 97 65 24
59 60 24 76 95
59 100 82 46 65
58 39 26 73 29
34 70 75 66 30
92 44 91 64 95
64 17 50 78 26
79 71 60 86 81
60 37 46 54 64
29 74 97 76 59
38 99 17 56 49
20 44 78 62 91
89 10 30 66 27
95 52 29 49 51
45 29 52 63 39
86 62 32 17 72
86 72 40 16 72
73 75 25 73 82
67 21 83 70 69
41 80 71 63 51
35 93 47 86 78
84 99 95 58 48
86 54 60 59 12
100 56 28 28 56
89 60 40 88 71
58 45 85 38 37
53 28 24 92 64
47 12 76 29 14
32 13 26 69 17
12 69 58 86 16
97 72 37 83 93
60 86 43 79 76
79 39 97 44 45
81 50 53 28 32
69 43 72 97 95
51 47 28 17 51
13 61 80 84 23
62 55 77 62 26
35 32 100 42 33
28 27 59 67 67
63 12 33 79 67
51 87 61 74 60
49 46 98 22 20
29 50 20 66 98
1.22512
0.579508
1.65741
0.85371
0.671133
1.0738
0.722518
1.73682
1.66096
1.38026
1.1904
0.712087
1.09055
0.498792
1.2153
0.411534
0.406689
1.95313
0.838099
1.14178
1.4665
0.80804
1.36694
1.40697
0.815416
1.64515
1.87645
1.97282
1.02644
0.466926
1.26032
1.66506
1.75662
0.542471
0.881951
0.482839
1.10558
0.566171
1.42748
1.22128
0.86474
1.26408
0.491556
1.6117
1.97678
1.77332
1.3235
1.47494
1.71458
1.78241
1.75602
1.36339
0.792575
0.462739
1.33844
1.08827
0.94834
0.745341
1.26977
1.49899
101 171
156 233
241 264
223 76
336 246
28 71
192 397
21 307
145 284
6 201
393 279
17 88
32 41
445 179
337 227
266 360
418 375
52 98
454 117
125 72
380 410
194 52
471 410
32 202
11 453
496 369
165 334
99 141
225 356
163 336
278 104
468 29
344 356
329 185
254 292
199 167
124 443
402 463
222 60
143 86
399 39
495 227
292 311
73 194
5 6
211 408
166 262
83 133
229 8
335 371
131 52
315 183
214 288
203 73
342 334
447 499
171 469
293 157
90 132
363 8
16650
1
