60
7
0 0 0 0 0 0 0
14 88 92 36 49 84 33
15 49 95 49 21 73 19
50 21 36 14 45 30 92
42 100 70 34 96 87 56
92 34 19 53 28 56 10
22 93 70 39 16 67 24
61 37 12 45 67 88 63
96 41 99 77 55 31 82
32 65 85 54 50 45 88
68 82 99 61 68 43 41
81 76 58 62 93 47 53
72 86 83 37 21 21 25
62 76 30 40 53 98 87
47 42 57 84 39 16 26
35 89 45 90 17 70 23
29 69 28 71 23 11 65
62 90 42 25 27 99 16
10 32 53 97 96 91 96
54 92 39 77 24 34 67
31 94 34 12 25 27 87
77 36 56 67 48 16 81
94 46 84 36 81 85 28
21 65 89 100 69 15 94
94 26 19 36 54 46 31
62 35 88 61 80 72 63
37 32 25 15 22 44 77
53 20 89 67 75 56 42
23 90 50 45 71 18 40
31 97 91 73 21 32 85
50 47 60 76 30 62 82
70 78 97 35 78 35 75
91 44 41 64 52 72 40
89 48 13 56 77 98 91
99 97 42 84 65 79 38
13 75 70 52 47 34 86
86 59 29 100 40 55 70
83 46 45 39 66 84 38
40 56 47 64 53 71 96
73 47 57 30 21 45 92
98 91 60 42 25 97 14
83 61 100 31 95 95 46
39 29 36 94 28 88 64
54 59 19 97 28 31 74
45 39 28 67 82 97 89
33 18 40 38 98 53 85
27 58 69 65 86 24 74
35 31 36 33 20 46 13
93 47 70 24 58 98 36
32 54 33 77 72 84 87
67 58 97 98 54 92 36
99 48 28 29 87 16 94
69 69 33 40 90 70 18
22 19 53 15 93 44 73
63 68 55 17 98 99 42
51 60 18 36 81 38 41
33 19 33 77 70 92 38
21 83 73 74 24 78 11
83 95 14 75 40 92 91
93 38 34 100 50 46 70
0.747055
1.93017
2.04888
0.888306
1.48834
2.43315
1.85294
1.08371
1.94396
1.13417
1.4233
1.17787
1.13182
2.22528
1.0739
2.2282
1.24196
0.656388
1.98933
0.549595
0.830085
2.00676
2.43584
1.06766
1.61047
0.776558
0.537648
1.56839
1.03986
0.86924
0.58645
0.967985
2.09751
1.40745
1.98241
1.91369
0.607973
2.13783
1.30641
1.20135
0.676966
0.604694
0.987113
0.900957
2.29194
2.16981
0.658533
1.79192
0.84967
2.0591
0.718981
1.87044
1.82687
2.10184
2.23646
0.533653
0.686914
1.40389
0.904977
1.12197
139 198
221 193
415 497
159 223
188 91
91 279
363 385
12 53
438 205
401 210
393 417
484 232
141 42
420 310
254 32
422 441
292 385
116 305
144 140
201 51
178 212
394 177
67 461
437 330
163 465
43 327
155 412
467 65
168 42
10 490
31 445
444 180
216 234
434 386
106 149
469 444
3 113
97 442
258 142
403 450
20 97
272 494
87 78
153 318
401 0
271 55
432 234
391 142
311 397
86 374
282 248
469 435
407 33
279 478
236 398
169 428
362 353
21 342
27 104
145 246
4170
4
