60
3
0 0 0
72 17 12
34 42 97
20 76 14
41 71 32
14 42 18
86 58 46
47 87 21
58 34 31
41 72 34
93 60 95
56 54 48
63 39 49
49 10 60
51 70 14
15 19 25
37 50 57
64 43 17
37 68 13
36 45 62
19 43 89
35 15 51
63 89 30
50 80 32
21 63 41
19 56 58
85 55 20
49 84 24
73 17 63
74 45 80
42 44 70
80 56 94
26 77 42
63 54 85
93 82 76
83 42 88
72 63 84
40 42 33
64 16 33
37 13 24
59 48 41
63 47 31
81 11 60
93 67 86
31 73 59
48 65 26
69 96 29
35 17 49
91 25 53
73 30 74
21 21 52
57 28 68
42 48 64
61 10 32
84 18 28
84 33 33
29 96 12
69 83 66
71 14 94
49 18 75
1.292
1.39057
0.642291
0.937777
1.13599
1.10565
1.68937
1.84892
0.69838
0.778134
2.18766
0.648365
1.20963
1.91929
2.28512
0.7316
1.94834
2.26828
1.66654
0.876082
1.44756
0.946977
2.01429
1.24558
2.22736
1.47846
2.44324
1.16886
2.30638
1.04943
0.600867
1.52548
1.89325
0.720895
1.07929
1.57108
1.13657
1.62571
0.942677
1.83668
1.81336
1.31772
0.89897
1.56427
1.36285
1.61844
0.576456
1.92802
0.852639
2.07587
1.92697
0.900991
1.81602
1.87469
1.27457
2.33492
0.606173
2.45825
1.63645
0.673948
144 129
273 51
288 25
147 148
240 148
438 185
319 354
89 185
345 382
337 70
358 165
495 321
354 328
476 217
211 412
489 431
280 415
39 266
247 361
410 27
184 50
2 325
426 492
248 282
467 225
430 126
256 130
31 476
322 143
127 420
188 419
277 495
72 105
162 495
461 101
476 111
72 218
436 244
388 398
132 460
378 277
500 1
114 170
499 50
113 209
195 428
190 441
312 206
341 327
296 367
491 17
118 421
340 495
153 323
410 166
123 463
20 148
203 393
85 104
485 55
14910
1
