60
9
0 0 0 0 0 0 0 0 0
99 54 39 62 40 65 69 77 39
58 20 98 87 67 53 44 69 14
74 49 39 11 51 21 51 17 26
98 87 52 66 76 24 52 67 51
23 51 27 90 44 37 22 48 45
23 53 58 90 42 13 62 58 66
40 17 31 48 46 25 54 93 52
19 88 97 54 75 79 76 11 43
82 81 31 51 28 23 70 41 63
12 39 64 23 63 82 66 58 48
67 62 46 27 36 21 49 85 89
85 98 77 56 93 92 45 58 28
27 35 92 46 16 24 16 74 13
62 51 88 83 91 96 97 61 29
59 100 59 31 83 96 73 70 35
26 70 94 53 30 90 85 39 12
76 20 24 78 59 86 76 53 84
50 28 88 67 65 57 24 17 30
21 71 88 53 58 50 90 87 88
44 100 44 43 30 61 87 70 65
66 52 12 33 12 52 58 46 95
42 71 27 64 40 14 99 95 23
23 11 86 86 16 65 66 71 96
77 10 98 81 85 48 66 58 74
100 50 55 70 41 56 35 42 29
76 51 11 80 76 60 57 54 55
93 45 25 37 77 10 31 83 34
16 40 27 16 89 100 95 71 48
54 93 67 90 73 96 37 92 88
49 11 89 27 94 14 76 77 85
93 25 39 13 53 96 94 90 17
66 62 90 49 89 88 94 88 94
28 88 48 67 58 64 12 98 76
54 40 44 83 64 95 66 14 64
29 52 15 27 77 24 50 40 54
14 46 57 88 19 42 16 65 56
30 71 75 11 46 56 31 43 73
48 51 76 60 83 28 22 92 64
49 15 100 90 92 24 62 17 21
75 85 30 54 22 21 15 12 93
27 38 24 18 35 78 18 75 38
75 48 41 48 11 82 12 64 79
68 28 83 19 47 33 55 49 85
97 21 24 30 64 68 19 79 43
60 69 76 87 70 42 95 32 24
58 11 39 31 47 50 50 54 75
63 32 32 71 55 66 56 24 23
78 48 83 94 87 26 83 64 30
70 58 19 54 20 56 94 44 41
65 87 49 22 95 16 40 54 26
61 75 48 38 36 44 100 77 81
83 18 82 29 35 61 66 14 86
61 97 81 17 49 69 43 62 27
73 20 32 22 27 69 10 17 48
19 29 37 69 54 97 19 37 54
87 65 83 48 60 97 82 98 31
64 94 58 50 58 22 71 64 74
54 84 17 28 70 83 26 64 17
75 87 79 23 23 43 91 58 49
0.700765
0.52075
0.484322
0.743148
0.443203
0.986238
0.597133
1.46497
1.08643
1.42378
0.713963
0.922842
0.459218
1.45018
0.748351
0.781476
1.38802
1.06436
0.967218
1.34509
1.47563
0.698557
0.56062
1.36693
1.14798
1.09927
1.34255
0.503791
1.38914
1.33205
0.783292
0.730546
1.25375
0.510553
0.342464
1.04447
0.923373
0.376527
0.769999
1.17483
1.05622
1.29827
0.521825
0.319954
1.21532
1.26087
0.558775
0.641635
1.00021
0.450673
0.694358
0.68576
1.49254
1.40779
0.497819
0.695099
1.27205
1.35377
0.388741
0.814077
486 305
402 38
48 161
318 359
62 261
151 402
290 151
122 188
186 500
458 85
170 354
8 378
478 4
497 226
363 393
235 194
267 366
489 193
138 225
208 459
471 232
85 232
267 9
415 17
411 408
97 292
410 275
388 13
283 150
99 364
112 19
286 135
334 356
38 390
313 7
448 208
441 408
301 331
257 106
473 406
423 231
71 428
445 127
254 391
239 247
23 102
428 98
415 491
311 116
454 339
31 128
479 102
123 314
233 403
305 127
227 90
98 288
430 198
432 331
34 140
3243
5
