60
9
0 0 0 0 0 0 0 0 0
89 11 88 22 53 36 67 96 95
16 82 43 70 67 57 28 98 12
53 43 82 44 81 40 18 25 98
57 62 60 56 40 11 97 25 62
39 42 43 82 65 84 61 17 42
98 25 36 13 48 63 27 74 57
56 12 10 59 86 31 14 13 22
61 13 98 42 99 85 25 100 64
40 36 94 45 37 31 84 59 25
46 46 28 45 59 41 18 62 90
30 83 81 22 61 45 17 47 81
97 89 73 69 75 41 20 43 51
20 44 83 37 73 54 99 34 43
49 60 97 58 49 89 45 13 61
34 26 45 77 68 56 31 97 57
45 45 12 10 92 13 34 100 44
74 63 47 32 47 45 40 95 23
79 35 55 87 67 52 41 34 13
94 67 54 36 24 55 30 85 16
21 22 64 55 21 51 83 62 32
37 31 24 63 43 99 94 61 97
50 48 76 63 26 83 84 89 66
55 32 22 20 45 46 22 39 95
96 89 91 15 47 53 48 48 44
72 50 67 98 16 84 13 33 67
88 73 53 53 39 18 76 87 93
19 38 83 67 11 62 58 25 50
64 97 53 75 38 24 79 97 78
16 91 69 57 75 27 48 80 64
35 58 93 93 20 21 58 100 46
26 62 91 50 48 58 39 96 11
82 100 11 65 70 61 51 55 52
49 26 68 97 64 10 63 72 20
47 20 44 64 47 13 97 42 53
36 74 21 93 42 34 45 14 69
94 89 40 89 37 36 32 15 73
12 20 91 23 84 16 19 66 19
84 50 17 99 47 35 72 56 46
94 51 48 39 90 62 28 52 34
16 56 68 27 48 34 51 39 58
44 80 56 89 79 57 71 29 10
69 79 47 49 84 63 83 39 45
74 77 68 34 13 91 76 92 66
93 95 53 45 67 88 81 21 56
27 33 39 20 50 88 84 80 31
61 15 64 81 72 33 57 55 76
92 34 71 42 99 14 20 37 100
93 49 89 13 53 36 48 83 31
67 77 38 34 73 18 81 38 74
44 19 53 73 96 11 60 41 54
12 40 57 82 63 13 85 58 51
74 72 79 11 77 32 34 81 44
86 86 66 32 10 40 69 91 39
56 57 66 84 31 89 70 12 39
76 37 33 92 88 43 88 35 11
41 10 56 20 60 45 71 55 19
91 52 85 81 16 50 21 31 39
38 60 41 93 58 12 45 69 96
81 69 10 53 31 40 14 15 71
0.409866
1.14568
1.15702
1.13422
0.937927
1.21771
0.763953
1.12585
1.29435
0.484897
0.513024
1.40897
1.29529
0.683978
0.508159
1.3235
0.471217
0.79243
0.867653
0.312601
0.399475
0.622092
1.04065
0.689354
0.856795
0.39846
1.33454
0.420537
0.970799
0.898631
0.59048
1.10281
1.01535
1.33857
1.06348
1.31684
0.341454
0.463459
1.09923
1.48211
1.09904
0.580998
0.75563
0.379369
1.29876
0.686448
1.03072
1.49706
1.02359
0.799306
1.42783
0.368506
0.506106
0.881774
1.42231
1.35253
0.811471
0.675543
1.48739
0.78123
39 374
324 340
452 294
70 403
44 97
284 165
419 80
133 450
150 4
149 14
474 267
497 63
492 310
221 438
68 224
119 346
291 336
262 151
309 499
353 224
454 160
211 373
351 239
423 127
69 53
183 374
487 182
162 245
228 317
481 351
240 454
230 254
407 28
208 28
124 251
0 371
225 60
327 335
434 316
55 242
349 494
80 408
117 182
237 456
366 126
347 95
49 105
231 21
463 395
125 304
369 296
381 499
31 11
438 268
149 359
201 192
375 331
326 428
287 156
78 381
5296.67
3
