60
9
0 0 0 0 0 0 0 0 0
11 69 42 64 46 10 87 63 37
18 95 85 90 38 92 96 36 33
90 37 91 34 18 57 68 24 37
66 82 30 14 31 23 43 41 13
24 98 97 79 23 90 33 67 20
29 17 59 50 60 97 90 100 87
78 25 75 53 25 97 44 64 98
55 12 94 13 21 37 49 78 33
13 81 83 61 94 49 38 13 17
41 37 36 89 32 10 43 66 44
73 74 11 27 35 62 89 62 48
47 84 76 43 11 42 21 82 64
25 99 76 92 55 50 73 28 43
77 80 85 34 72 20 60 88 44
91 64 32 92 94 69 42 60 56
92 72 77 47 30 24 56 97 42
72 16 96 70 48 85 91 100 47
67 66 84 76 25 68 47 77 30
69 34 98 88 21 67 56 50 78
81 20 41 23 51 57 100 72 69
71 77 63 93 38 93 69 87 74
76 22 56 16 43 59 50 55 99
82 40 38 26 57 64 90 20 12
38 85 55 68 50 60 40 25 96
71 88 18 58 62 15 57 54 52
12 94 30 45 21 79 36 83 74
80 97 32 89 32 58 37 48 65
91 28 38 23 64 79 90 55 28
58 29 92 17 70 32 80 90 35
40 57 27 17 96 79 83 28 24
84 81 17 74 37 80 87 86 85
76 36 95 73 97 98 47 81 33
55 69 31 34 37 46 56 85 43
55 26 78 49 99 94 15 22 64
76 32 82 50 22 89 45 88 13
77 51 28 75 12 61 38 80 54
73 79 62 55 68 19 84 88 35
66 77 51 35 10 46 86 13 32
64 74 76 96 37 88 38 76 36
78 12 99 98 79 77 76 55 48
36 30 86 30 85 90 78 88 21
38 70 81 82 53 97 44 42 94
64 14 59 33 24 62 44 41 100
28 27 30 60 62 52 17 41 32
73 38 95 87 49 99 86 31 48
21 64 94 51 48 65 29 81 35
40 80 24 64 47 92 93 40 82
20 58 96 74 22 34 52 68 46
52 94 82 69 83 10 51 34 80
98 12 25 32 84 92 29 17 64
39 77 47 42 64 75 38 10 76
15 49 45 53 74 31 12 88 52
44 71 63 92 44 77 41 22 86
23 36 51 64 15 27 68 68 100
81 34 82 94 34 81 58 71 63
12 97 43 13 23 13 88 40 54
97 19 67 21 55 80 58 54 16
63 81 71 42 65 40 45 72 33
96 95 50 73 90 66 75 12 42
0.543684
1.10215
2.07798
1.43668
2.41862
1.79568
0.844934
1.86695
2.45652
0.705813
2.41461
2.06673
0.953529
2.19538
0.886575
1.99375
1.15011
2.48719
2.27256
1.81781
0.993408
1.26835
2.18948
1.17517
0.7382
0.640375
0.955756
1.58972
1.94049
1.70855
1.22327
1.09658
0.757922
2.18778
0.582219
1.81776
1.40422
1.34829
2.02139
1.60007
2.31611
0.817043
1.67571
1.43822
1.87662
1.42953
0.834464
2.18829
2.03348
1.67202
0.691788
1.41558
1.02603
2.32285
1.18581
1.98346
0.948977
1.72832
1.47947
1.85022
339 80
283 181
392 208
340 172
190 453
53 429
499 39
444 19
121 74
104 134
445 94
451 166
54 206
425 491
122 231
224 343
1 103
359 27
353 157
263 65
284 79
168 399
493 121
430 365
159 221
41 165
168 91
288 84
404 496
324 106
249 325
239 470
327 154
312 190
457 38
52 56
175 17
69 23
258 242
211 251
373 344
64 248
52 312
286 349
243 23
46 223
379 8
184 416
445 140
388 396
34 477
34 270
318 241
212 152
365 105
445 199
346 342
385 445
341 395
340 447
3341
5
