60
5
0 0 0 0 0
28 73 38 91 76
60 57 11 25 97
18 33 41 24 54
76 38 15 12 34
54 10 58 20 90
42 96 78 35 61
18 30 73 51 24
43 80 67 81 15
39 37 60 77 100
42 37 40 27 31
69 54 35 79 28
100 42 87 16 32
55 76 91 32 81
39 65 80 52 60
38 36 31 60 15
78 30 82 27 97
71 84 11 71 45
54 63 24 65 67
74 67 33 13 64
27 100 89 75 21
72 37 10 66 63
89 68 49 54 71
46 99 32 36 85
88 23 92 61 86
11 54 74 83 19
90 66 99 22 68
95 40 41 43 89
78 42 13 56 19
84 75 71 73 62
28 70 71 75 64
79 91 81 12 89
52 41 52 33 85
24 11 13 96 52
41 97 69 63 76
78 79 93 67 34
81 67 33 51 21
64 56 22 40 15
22 67 93 69 43
92 97 33 89 23
45 34 38 26 15
63 41 84 67 93
36 16 35 84 86
29 46 21 58 44
21 50 72 91 96
99 43 40 75 94
39 51 43 32 90
77 65 67 62 55
20 29 17 60 20
30 66 91 51 35
100 29 59 41 48
69 27 13 73 43
97 66 78 64 94
40 90 31 95 79
66 33 45 50 62
96 21 18 62 76
48 89 77 93 58
71 35 29 51 50
50 10 66 30 38
42 58 30 58 92
0.584356
0.989634
0.213942
0.709247
0.268573
0.678479
0.878305
0.913349
0.888752
0.393638
0.297858
0.78889
0.859702
0.95496
0.918577
0.932339
0.693602
0.803774
0.207024
0.665178
0.244319
0.924405
0.354628
0.332678
0.797278
0.948422
0.204647
0.6375
0.946398
0.27909
0.907231
0.637559
0.895133
0.273445
0.796568
0.293279
0.209493
0.680227
0.992081
0.934436
0.259151
0.715845
0.827619
0.6818
0.32213
0.694285
0.282329
0.932833
0.997152
0.994627
0.461335
0.372837
0.361333
0.548371
0.537687
0.495341
0.453649
0.838055
0.630013
0.612444
401 100
260 137
11 162
133 436
454 410
374 266
113 307
132 88
363 140
207 206
28 160
416 290
114 383
259 143
277 114
476 497
49 170
309 444
468 498
75 413
243 147
94 129
417 301
265 363
271 378
429 148
245 76
274 216
16 161
286 378
413 106
11 241
265 371
68 298
2 378
359 244
4 491
252 67
368 267
271 232
420 147
418 47
203 469
327 296
457 370
95 55
263 335
478 89
175 389
126 174
309 391
314 368
310 247
73 237
38 258
197 492
291 0
357 442
200 249
186 62
16270
1
