60
5
0 0 0 0 0
66 16 95 20 10
38 37 12 55 65
55 10 83 83 84
46 26 72 18 83
23 72 73 16 23
23 68 25 58 77
40 62 25 97 49
79 31 73 93 11
90 100 23 38 50
47 50 72 80 80
77 83 75 54 72
44 45 52 73 44
33 10 51 69 45
44 34 59 90 48
96 74 24 29 94
64 48 92 78 23
35 63 73 29 26
91 60 14 43 68
79 80 36 74 66
74 44 71 12 56
15 88 55 91 55
52 11 94 23 49
49 94 61 64 47
12 73 15 57 69
39 43 63 87 11
63 65 20 83 93
40 28 78 69 85
33 90 99 24 16
87 99 64 97 30
86 21 53 37 55
43 56 85 92 92
23 65 92 88 94
31 67 39 33 51
17 94 86 23 57
32 46 69 99 32
54 30 68 48 46
58 15 30 100 79
48 89 76 52 19
53 83 11 50 43
16 69 22 11 46
74 61 88 52 45
80 86 12 55 74
43 38 30 86 38
61 80 93 16 38
90 51 70 87 12
43 32 21 27 43
94 14 18 79 24
55 46 95 80 82
28 52 32 44 99
22 74 37 63 56
43 53 47 88 67
89 27 47 98 76
78 48 38 28 90
95 50 78 73 34
94 72 80 30 31
74 54 61 73 47
91 77 81 61 60
100 44 34 41 51
95 73 27 63 54
0.177707
0.33789
0.232011
0.427525
0.344092
0.442174
0.391762
0.393619
0.153527
0.177967
0.429457
0.472138
0.350007
0.252893
0.168619
0.386016
0.38866
0.225917
0.284577
0.179791
0.25177
0.497613
0.208423
0.119274
0.128732
0.362475
0.389275
0.135072
0.20252
0.369044
0.161749
0.16921
0.250075
0.241536
0.236242
0.175216
0.237682
0.395973
0.328074
0.366159
0.29663
0.154953
0.375794
0.343783
0.124751
0.262964
0.128885
0.386214
0.398911
0.292541
0.266233
0.277804
0.153318
0.233576
0.423014
0.273707
0.365989
0.242905
0.138235
0.340626
418 87
5 279
51 44
251 306
250 156
221 185
310 495
146 144
112 236
170 179
407 325
342 190
38 64
215 215
97 351
483 127
217 126
438 307
146 268
141 19
103 73
471 287
148 204
493 387
179 443
364 179
203 456
128 135
293 70
15 40
407 236
231 324
323 251
187 142
115 257
197 167
9 33
362 370
248 287
108 228
374 331
402 174
232 118
13 225
2 489
306 252
184 309
150 374
478 422
388 236
306 239
102 344
107 75
313 194
276 123
12 286
459 335
380 348
472 242
91 212
8262.5
2
