60
11
0 0 0 0 0 0 0 0 0 0 0
95 59 98 57 30 70 72 79 54 70 75
42 29 80 73 50 67 92 66 15 88 82
79 83 38 48 85 48 79 96 55 53 89
37 90 67 12 90 53 49 36 37 51 39
46 61 75 96 12 53 75 86 52 41 89
83 19 30 49 64 29 44 52 21 21 80
26 35 70 66 52 81 96 87 99 24 23
38 80 60 60 57 21 41 55 39 94 48
62 13 61 72 40 32 100 22 16 93 78
54 42 69 61 21 39 48 86 86 89 42
27 85 67 50 12 89 44 94 74 18 16
73 82 38 98 90 81 55 49 29 56 76
89 85 36 55 97 36 71 52 84 66 79
43 56 33 96 15 30 70 45 56 68 52
98 30 35 35 56 29 29 43 12 41 69
16 91 75 43 52 45 56 78 13 44 93
88 42 74 59 54 29 46 57 94 45 25
71 54 55 90 45 11 25 33 32 88 83
91 17 41 67 41 99 68 42 86 82 54
45 53 78 13 11 67 11 25 67 91 61
18 10 25 93 13 63 98 68 64 79 90
79 58 76 55 53 74 76 53 26 56 39
60 67 38 27 33 74 96 72 34 85 11
82 36 96 44 66 72 89 25 34 61 16
61 19 50 49 18 76 30 60 90 33 85
67 27 83 96 91 51 25 36 53 49 80
40 23 54 62 56 44 71 98 85 77 81
83 32 71 41 19 90 100 87 82 73 25
65 54 41 51 20 85 46 76 94 23 92
45 49 63 75 57 50 51 74 29 47 12
18 62 79 37 44 89 92 65 82 66 86
67 31 27 32 77 65 42 38 71 52 23
67 50 35 39 98 57 44 32 59 91 21
66 64 47 99 77 98 24 87 22 22 34
93 54 97 76 29 72 48 64 85 80 83
31 99 71 83 47 79 14 23 80 80 29
72 22 87 45 86 76 67 33 90 60 25
51 81 93 69 23 38 69 56 11 64 48
39 50 70 53 75 31 56 55 51 32 76
46 60 10 68 69 57 49 40 18 48 51
83 13 38 12 13 15 71 20 63 56 13
58 56 27 58 91 65 72 97 81 54 44
80 90 47 40 83 64 14 34 38 42 25
97 33 68 19 62 70 41 55 24 71 34
71 73 18 51 31 45 49 53 10 19 80
34 27 74 82 96 44 84 52 49 78 58
49 38 24 83 80 81 31 55 37 84 87
82 67 76 91 41 89 19 98 61 11 36
14 43 84 35 37 77 70 75 16 93 61
77 17 49 58 98 48 74 92 89 50 16
72 83 81 24 42 80 85 82 19 60 64
61 62 83 30 23 39 76 100 64 46 58
17 75 94 14 21 59 81 39 39 42 98
39 96 34 50 48 51 67 73 21 19 83
71 85 48 77 69 39 70 79 84 63 65
93 86 78 17 92 42 25 41 93 30 78
18 90 85 73 71 96 66 98 65 38 91
34 12 78 19 27 27 64 38 11 85 42
30 39 27 82 31 53 98 48 97 88 18
0.414254
0.365533
0.385719
0.564534
1.31378
0.629963
1.23402
1.30232
0.511652
1.08716
0.915295
0.3629
1.30106
1.10176
1.2214
0.417598
0.433889
0.539075
0.321077
1.28507
1.38954
1.03441
1.27471
0.735445
1.28993
1.13946
0.564369
0.887199
0.323332
1.02007
1.30529
1.30153
1.13259
0.696244
0.339368
1.06953
1.22441
0.539017
0.668849
0.336163
0.387256
1.03943
0.709545
1.26951
0.307686
0.899396
1.43294
0.499445
0.55981
0.987655
0.941091
0.691857
1.00088
0.808958
1.04151
1.21334
1.28057
1.31224
1.24841
0.328435
201 399
276 470
59 39
434 275
107 114
433 172
80 305
2 5
18 266
375 200
30 210
66 196
424 180
216 386
43 195
28 311
72 170
2 310
272 123
372 327
422 125
155 289
466 417
26 449
207 121
372 388
454 237
371 111
55 303
458 496
303 59
87 458
273 4
202 207
235 487
122 401
477 101
347 426
407 197
229 485
342 27
149 311
45 303
98 287
488 123
276 114
5 11
466 228
442 220
474 259
107 375
318 474
142 402
315 63
1 359
462 93
125 468
379 420
471 458
452 262
4187.5
4
