60
3
0 0 0
50 44 11
26 32 66
81 87 78
72 80 81
97 99 29
21 23 27
39 40 92
100 79 36
28 21 86
66 15 15
15 94 27
68 32 76
11 25 21
85 71 96
26 62 24
82 49 90
32 100 24
37 27 75
70 93 76
16 33 11
96 74 44
94 98 28
88 39 28
81 29 82
95 69 58
48 18 53
84 92 65
38 87 60
10 39 23
43 43 76
10 97 51
27 50 16
30 59 100
36 16 24
31 23 93
49 92 32
100 99 45
43 89 62
82 56 92
62 78 66
15 87 31
40 27 48
13 41 59
80 31 64
71 93 38
93 14 90
36 23 50
45 49 30
100 45 34
21 44 13
35 86 20
44 70 12
18 28 30
50 97 86
80 73 66
77 58 30
64 82 19
44 62 53
36 69 23
0.920673
0.411035
0.755032
1.11708
0.850585
0.881388
0.754742
0.936725
0.761855
0.306176
0.715354
1.13726
0.305108
1.45866
1.22355
0.569772
0.897837
1.04869
0.460966
0.42446
1.29396
1.39848
1.07241
1.09718
1.13984
0.772848
0.811961
0.528709
1.30764
0.743298
1.35873
1.22484
1.21006
1.20199
0.373241
1.21081
0.718962
0.584032
0.38555
1.04023
0.549093
0.381272
1.42783
0.552117
1.04483
1.27312
1.20832
1.39624
0.359667
0.888788
1.40401
0.552538
0.957188
0.60962
1.02367
1.08683
1.41724
0.630984
0.527318
1.41685
457 250
367 242
489 160
375 260
96 98
354 343
35 151
199 272
146 356
222 194
397 166
362 452
129 307
243 183
189 42
19 293
323 114
163 402
483 236
446 12
11 405
468 324
165 32
352 266
374 82
437 367
232 104
72 374
126 215
242 187
95 484
133 276
358 69
102 491
302 144
39 295
471 185
14 263
74 496
219 67
297 233
315 423
235 152
346 463
32 188
211 285
263 417
237 141
72 45
69 122
51 47
165 362
293 408
120 363
459 126
468 275
66 267
458 364
446 334
184 467
15830
1
