60
11
0 0 0 0 0 0 0 0 0 0 0
21 81 26 81 57 88 86 51 14 37 79
30 29 93 68 16 22 86 13 62 37 100
60 10 19 96 88 75 14 21 63 18 68
58 15 93 78 44 96 75 84 55 27 19
67 67 43 32 83 73 41 15 95 22 74
61 47 13 28 66 31 55 97 89 59 56
57 61 78 12 96 77 27 19 28 70 24
70 59 55 36 99 51 45 50 21 75 47
97 90 46 24 76 33 15 62 53 68 100
76 30 83 28 80 33 54 99 12 33 77
17 27 88 54 10 42 50 54 63 12 22
59 13 62 96 67 29 83 18 61 41 78
13 66 97 94 46 58 97 40 10 39 83
34 95 58 15 65 24 88 50 65 26 77
54 98 57 85 51 12 62 58 73 88 55
54 53 39 43 56 84 63 64 18 52 82
30 67 43 19 32 14 64 83 23 98 80
29 11 44 40 29 64 94 46 15 94 23
79 89 27 94 33 24 54 34 57 82 17
19 89 84 32 68 99 45 83 76 100 41
36 22 18 41 97 52 21 93 76 93 38
32 100 86 15 66 54 27 24 96 27 55
76 11 29 23 90 40 72 85 78 49 64
95 30 83 87 49 95 36 96 10 11 32
41 28 23 32 49 16 21 53 55 65 94
80 85 18 39 63 46 52 36 77 100 58
21 72 73 57 100 63 37 57 13 12 57
47 81 66 77 89 14 63 48 62 13 44
73 82 66 69 86 82 69 100 24 75 77
49 29 68 99 62 80 78 63 62 92 61
74 14 20 77 83 49 80 56 71 70 73
40 13 74 67 33 92 55 52 29 63 57
93 50 86 51 47 66 49 99 25 38 15
24 66 42 49 66 86 10 51 40 15 52
51 27 45 38 87 44 96 75 30 53 38
74 70 46 93 13 38 69 76 30 69 85
20 38 94 94 59 94 65 67 28 77 22
59 18 63 60 69 62 88 20 74 91 51
17 76 83 68 35 44 77 90 67 49 41
18 11 100 47 43 37 56 32 27 88 99
23 49 85 84 33 39 92 66 71 81 73
45 92 84 39 53 10 20 37 71 59 73
94 28 19 98 38 90 30 78 95 61 51
96 40 88 32 53 83 35 36 91 69 83
88 42 99 12 33 93 87 77 52 48 65
38 91 75 77 16 87 33 51 76 18 88
47 41 13 55 26 26 31 92 45 42 16
30 27 33 58 94 87 44 33 48 78 10
20 21 69 90 73 69 64 47 63 55 60
10 58 34 54 23 38 98 13 48 29 10
34 68 44 88 75 21 95 12 59 46 32
90 77 39 91 87 39 34 62 56 79 25
96 20 27 32 75 38 40 87 91 95 23
64 22 62 87 11 13 97 23 49 10 91
79 78 79 39 45 100 16 52 68 38 82
18 98 35 11 69 61 71 71 52 11 47
10 19 22 76 49 66 20 72 86 83 100
70 14 86 80 34 20 64 55 46 43 100
97 16 45 64 92 67 72 78 81 14 79
1.93993
0.920373
1.67109
0.831427
1.34464
1.47206
1.61901
0.584088
1.12291
1.07001
1.37166
0.906193
0.665011
1.24046
1.01261
0.617106
0.739159
1.07449
1.96885
1.2509
1.17396
0.675029
1.91264
0.788331
0.992351
1.01158
1.65171
1.08285
1.01601
1.32084
1.96022
0.965352
0.981408
1.15111
0.897681
0.440969
0.646191
0.468943
1.96391
1.21564
1.61031
1.53697
1.00281
0.79482
1.25036
0.958333
0.89328
1.12912
1.01794
1.08133
0.885702
1.62998
1.34399
0.827486
0.631333
1.01891
0.705891
0.789908
1.11086
1.25896
105 440
461 237
385 490
247 38
72 397
260 404
440 409
125 367
423 468
474 484
185 132
231 221
84 367
331 391
208 209
444 339
452 366
135 380
239 253
8 306
408 319
227 112
271 304
196 69
18 490
282 201
297 441
141 49
261 60
433 126
496 240
497 129
181 65
353 413
392 21
236 82
8 42
326 424
50 151
497 198
173 189
465 256
272 487
251 256
197 34
209 41
493 264
73 59
290 329
158 33
206 94
336 153
282 192
294 153
52 404
297 413
271 151
228 313
191 338
464 271
5440
3
