60
5
0 0 0 0 0
93 27 100 98 53
96 74 49 73 52
91 32 90 20 89
43 88 70 54 46
18 68 56 59 87
36 100 38 91 80
48 85 14 60 97
17 58 34 14 47
58 47 41 12 19
49 94 42 23 86
50 85 48 51 67
79 73 58 78 22
11 38 93 67 61
63 31 84 89 32
18 78 57 51 100
33 49 19 23 38
19 11 76 15 62
60 94 15 40 87
34 84 75 99 17
10 80 41 70 80
70 93 82 48 17
30 60 80 51 53
54 77 51 71 58
57 43 28 25 10
72 51 45 85 72
93 41 57 95 14
20 39 65 13 45
53 66 12 32 53
91 45 14 22 92
15 14 98 35 87
59 49 34 17 63
65 97 33 75 73
64 76 21 58 36
58 49 39 83 42
59 78 48 52 42
54 54 21 34 97
80 15 11 18 43
94 40 32 31 82
100 53 78 70 11
28 36 43 54 47
62 52 11 64 23
97 13 81 21 27
64 38 42 37 96
16 17 16 88 78
80 13 21 72 46
60 16 53 71 87
100 23 98 94 97
11 52 25 67 13
65 76 98 74 14
92 10 40 67 58
34 74 88 11 82
51 37 57 85 28
85 90 15 46 15
43 52 31 64 80
11 28 51 18 51
67 78 85 56 19
80 78 59 97 71
34 46 82 48 92
55 31 52 80 21
1.9464
2.46001
2.49863
1.31652
1.39471
1.27479
1.92211
0.5889
1.52132
0.784474
0.802941
2.24202
1.23515
1.896
2.2128
2.0989
1.37625
2.38574
1.06827
1.00282
1.79245
0.572301
1.6718
1.97433
2.21326
0.809405
2.13065
0.73397
1.93831
1.4916
2.06499
2.19451
0.606154
2.41843
2.028
2.33998
0.539993
0.842052
1.49529
1.47327
1.03964
2.11724
1.47572
0.799271
0.903117
1.17312
1.8513
0.937277
0.962007
1.43267
1.43941
1.71772
2.15729
1.9601
2.32407
1.8805
2.14376
1.19136
0.682429
2.09363
91 224
257 99
275 482
190 59
33 291
135 212
433 56
304 60
357 43
166 193
374 395
373 359
290 148
332 448
300 253
45 70
14 207
472 272
72 463
74 248
381 473
372 123
82 334
424 457
140 208
245 203
483 388
247 333
202 403
456 220
365 81
105 345
77 437
438 35
93 240
175 310
193 220
138 113
386 270
132 436
277 62
343 183
491 356
365 379
336 194
464 156
421 278
487 223
84 257
460 87
389 121
404 203
2 146
429 358
376 146
477 415
191 458
124 137
53 252
303 122
3978.75
4
