60
5
0 0 0 0 0
78 19 90 37 92
28 26 40 44 95
93 31 30 38 84
25 13 29 82 32
16 81 17 61 62
48 89 42 72 51
84 93 48 10 67
81 85 81 26 48
30 85 83 12 32
23 58 15 56 20
53 38 39 70 34
66 71 40 64 77
74 41 21 26 91
18 52 57 81 67
66 77 10 57 50
90 82 80 20 100
94 43 51 40 21
65 23 68 90 65
19 35 27 86 13
88 45 75 78 12
94 63 70 13 28
72 98 79 52 60
40 12 60 57 59
55 92 78 100 68
67 76 46 36 16
64 61 12 72 85
93 88 45 86 19
29 40 97 19 97
19 46 67 87 82
55 95 71 74 82
55 100 27 55 25
58 59 80 98 10
87 89 31 46 21
83 13 34 22 84
33 34 60 82 53
61 72 55 80 46
71 93 34 50 88
93 51 16 62 50
93 85 39 87 85
66 80 65 40 96
56 32 89 84 41
56 11 85 70 24
14 47 99 76 65
18 43 87 75 12
83 96 27 44 49
11 52 98 55 68
26 73 69 87 100
54 59 31 90 39
21 18 16 47 86
21 57 99 28 71
74 79 94 94 71
22 21 32 55 46
38 43 95 54 57
55 27 40 63 93
27 87 59 86 80
94 97 35 62 78
62 68 58 21 46
16 57 53 78 12
29 83 96 91 22
2.024
0.534536
1.87274
1.66088
0.769423
2.34468
1.46558
2.41312
0.650582
1.76975
0.772397
2.23676
1.73747
1.778
1.02474
1.13335
0.930321
1.34493
1.39992
1.06846
1.60035
1.79884
1.65548
1.03904
1.87504
1.49706
2.10274
1.16291
1.11044
1.37818
2.09193
0.831266
1.99596
2.38484
2.03641
0.50153
1.35313
0.779248
1.00716
0.970818
2.02174
2.495
1.76264
1.85072
1.00967
1.73141
2.05337
0.96011
0.97467
1.19985
1.90013
1.05141
2.19301
1.03851
2.17215
1.09264
1.94898
2.08837
1.77383
0.606055
344 259
466 461
81 228
306 278
425 296
360 466
151 229
156 420
394 489
316 7
24 268
339 278
333 314
19 3
194 62
50 237
242 389
108 271
189 439
380 138
429 498
35 102
139 400
379 339
333 44
333 323
63 450
31 67
488 304
272 413
340 218
352 79
56 338
25 142
89 457
490 298
181 469
286 256
456 283
9 105
133 161
220 179
370 219
127 66
157 376
375 471
175 453
21 324
383 496
55 144
373 285
309 471
195 497
366 387
332 194
441 309
220 3
136 474
169 343
251 298
8405
2
