60
3
0 0 0
95 88 40
86 42 80
95 63 71
88 40 81
94 49 41
36 27 98
39 39 13
50 39 13
10 40 29
66 53 33
58 10 25
79 24 55
59 48 90
36 23 39
21 16 18
20 12 30
62 92 47
32 79 20
88 45 77
37 40 59
99 34 81
93 60 64
57 42 99
29 90 84
72 15 34
87 42 39
95 81 37
70 44 72
11 34 97
96 99 35
44 45 29
42 78 90
80 90 77
53 45 68
40 22 66
34 100 59
40 46 15
36 82 94
21 58 55
34 17 19
40 94 84
61 48 33
32 48 17
28 37 68
99 66 22
89 92 41
22 34 79
58 16 12
31 49 69
95 86 41
45 67 84
22 67 93
89 75 32
10 50 73
47 96 26
84 84 85
93 56 34
86 69 88
96 25 15
0.561122
1.92693
1.83076
1.90576
1.59322
1.13085
1.64161
1.77558
1.60046
0.629208
1.49308
1.42304
1.59032
1.9274
1.88809
0.566083
1.64483
1.56607
1.36379
0.868765
0.426553
1.47553
1.07343
0.427116
0.976872
1.44368
0.54037
0.459742
1.24048
1.87936
0.852215
1.15627
1.57571
1.55267
1.707
1.83815
1.34629
1.30723
1.32491
1.38072
1.17213
0.964101
1.47914
1.73126
1.02669
1.13347
0.487388
0.848581
1.35291
1.87051
1.7866
0.967852
1.47012
1.0328
1.26636
1.0903
1.21121
1.08308
0.793235
1.53369
130 365
312 61
440 236
191 84
462 171
479 63
197 409
219 142
393 473
302 272
421 96
69 378
29 365
3 39
0 229
280 344
275 199
72 225
73 318
188 58
238 438
23 439
450 474
309 174
360 68
213 62
369 150
419 180
484 130
362 440
214 260
297 408
195 468
80 301
293 429
119 489
258 271
451 381
357 260
102 468
288 314
407 384
311 9
254 431
56 413
490 316
168 351
224 417
410 89
3 173
232 318
12 95
466 255
57 38
241 23
484 180
237 420
419 185
78 78
438 379
5406.67
3
