60
9
0 0 0 0 0 0 0 0 0
23 60 87 68 78 75 17 83 85
69 96 67 66 24 40 66 27 55
33 57 37 37 66 24 27 67 87
78 82 22 39 31 11 93 70 28
53 67 75 92 62 46 78 84 72
17 20 80 97 100 44 51 53 88
91 30 61 92 55 69 29 11 41
10 74 87 13 72 52 68 63 78
40 100 71 25 10 99 58 38 37
85 34 31 50 60 94 58 19 53
62 36 29 63 96 33 100 37 75
69 84 66 85 16 53 13 36 20
44 86 96 27 74 60 17 37 53
17 21 86 32 56 49 46 69 68
87 93 62 97 57 13 23 88 75
69 95 31 56 26 69 50 96 90
68 22 36 18 21 22 44 89 53
36 72 56 28 38 21 85 77 93
75 12 61 29 28 17 51 13 50
71 31 65 51 38 64 90 51 26
47 98 99 79 94 74 39 20 89
25 76 71 43 73 88 22 74 55
35 31 82 83 49 71 26 25 90
82 36 13 96 100 31 72 85 59
10 28 86 60 95 41 57 52 72
97 82 45 10 60 94 61 59 83
28 45 56 66 18 65 85 49 51
65 71 62 81 21 28 25 20 44
97 31 14 59 85 27 16 28 72
43 61 68 34 16 29 62 79 86
42 31 45 26 64 49 32 15 27
84 15 64 73 30 24 30 70 59
25 97 73 46 34 36 11 49 68
93 88 96 44 22 32 86 59 10
25 95 62 100 50 93 29 31 22
17 72 75 34 10 89 18 13 78
23 65 62 11 51 21 41 71 32
43 88 86 61 69 73 15 38 64
30 73 97 30 84 85 51 58 73
67 83 51 73 14 40 76 46 32
21 50 32 59 83 73 16 63 65
99 95 51 86 48 15 69 43 57
94 13 46 26 40 62 82 10 61
82 41 80 70 42 99 44 34 19
61 30 37 79 90 82 48 48 82
100 73 94 79 17 87 86 77 85
58 40 52 72 39 23 88 49 90
92 70 11 37 66 40 88 68 73
66 82 68 50 55 40 98 91 56
42 18 51 47 61 91 73 64 97
21 92 31 77 48 27 66 91 46
87 64 18 64 55 34 34 89 71
42 72 72 34 72 83 25 71 15
100 89 93 23 43 80 66 25 35
47 37 82 68 41 22 66 80 37
40 20 69 44 92 68 23 45 61
97 63 38 30 38 81 89 45 30
20 53 95 82 88 49 16 47 78
31 42 29 15 94 29 12 62 41
0.140058
0.338001
0.394045
0.438926
0.179764
0.201233
0.482223
0.151832
0.130576
0.326753
0.114328
0.487924
0.246125
0.288659
0.434023
0.395601
0.293797
0.385375
0.424296
0.101179
0.244652
0.471408
0.12017
0.275835
0.275917
0.273639
0.247028
0.231083
0.292256
0.187616
0.355024
0.384008
0.308179
0.193936
0.395574
0.242468
0.270022
0.306908
0.206037
0.292246
0.361826
0.276688
0.154782
0.451994
0.105647
0.232569
0.274364
0.479527
0.476736
0.38453
0.183995
0.487046
0.309721
0.410686
0.447476
0.387935
0.148304
0.439106
0.449622
0.452269
211 432
475 103
380 286
415 493
276 362
142 100
197 191
150 90
475 22
338 166
218 310
290 272
313 360
349 43
177 411
445 64
165 132
130 348
436 254
384 318
277 29
282 471
160 68
394 384
418 19
121 38
153 39
72 371
29 27
178 94
358 252
340 439
114 131
259 491
442 261
359 99
200 64
462 359
158 471
149 463
479 33
370 104
44 4
459 485
83 399
211 324
134 454
148 161
116 152
137 109
384 256
250 407
427 95
369 126
142 200
233 416
453 334
450 434
209 44
354 306
5456.67
3
