60
3
0 0 0
81 39 35
97 62 93
14 95 88
40 17 76
61 13 32
95 12 98
81 15 46
54 29 88
55 94 59
18 65 84
43 36 98
98 80 74
88 53 17
38 25 61
41 54 88
72 91 16
69 20 30
53 65 84
22 62 47
100 15 27
29 38 19
77 75 67
10 46 60
41 94 85
71 13 79
70 80 92
75 46 28
26 84 98
65 69 31
90 80 19
22 48 38
79 89 36
21 35 89
27 21 20
31 57 74
81 60 61
45 47 76
28 62 14
84 32 99
73 57 21
52 85 45
35 78 85
48 53 81
100 45 94
16 98 100
77 12 34
33 14 40
36 32 32
52 29 34
29 57 91
49 13 93
86 25 90
87 25 83
89 16 21
31 13 64
28 60 25
94 68 86
34 42 16
86 46 68
0.208651
0.935748
0.631029
0.444235
0.782144
0.96106
0.574555
0.275188
0.430384
0.342823
0.486601
0.689888
0.695584
0.203837
0.913633
0.983442
0.668381
0.302159
0.949564
0.352835
0.967432
0.212015
0.6844
0.596031
0.633023
0.67577
0.51541
0.48892
0.905266
0.689426
0.337525
0.969646
0.613884
0.343542
0.775529
0.459679
0.541793
0.615407
0.813236
0.732623
0.773424
0.769725
0.231497
0.760965
0.782605
0.527994
0.758458
0.606378
0.346348
0.532103
0.576594
0.238177
0.853317
0.363263
0.449448
0.670575
0.224675
0.780612
0.380789
0.875044
492 50
124 213
71 91
126 385
134 359
478 172
293 340
139 196
231 415
230 39
5 234
392 238
129 282
447 385
26 187
192 374
357 215
183 394
351 315
277 479
265 102
139 188
239 447
431 302
27 186
40 28
237 446
395 452
174 283
295 196
449 219
295 105
391 60
62 114
313 482
21 247
472 135
444 306
115 254
392 137
492 33
391 303
434 404
367 61
299 46
119 427
287 74
221 375
459 376
93 180
132 101
302 390
308 455
197 93
496 275
363 128
452 387
275 9
28 471
228 352
8117.5
2
