60
3
0 0 0
74 57 66
34 40 44
29 29 76
73 44 62
34 85 28
42 72 30
87 31 32
90 71 18
14 77 21
76 38 46
37 95 38
43 37 76
96 84 11
14 63 39
71 42 60
82 24 90
47 65 14
22 84 73
56 63 75
13 54 43
68 53 66
68 63 77
15 77 35
26 23 74
97 85 96
10 40 25
64 96 92
52 47 55
93 30 90
44 18 38
34 45 68
64 95 69
67 88 85
17 80 60
53 31 52
70 85 50
63 44 51
27 57 93
25 82 32
14 89 30
10 99 13
45 100 49
87 90 85
67 40 80
79 66 20
37 15 86
25 85 75
28 52 45
71 81 29
63 10 12
26 41 61
33 41 19
71 12 58
45 75 22
15 30 71
36 62 17
17 39 25
75 74 70
55 66 17
0.626978
0.294742
0.3199
0.702505
0.54136
0.284048
0.829033
0.508725
0.878218
0.902233
0.335692
0.948012
0.409253
0.246344
0.542812
0.765345
0.571732
0.519136
0.9173
0.642438
0.452697
0.273715
0.327663
0.6096
0.403348
0.355611
0.883526
0.983462
0.211092
0.266698
0.763338
0.937521
0.392052
0.760548
0.238965
0.310287
0.401481
0.879074
0.504453
0.630375
0.640058
0.833643
0.706426
0.742282
0.896316
0.462037
0.279533
0.86477
0.877044
0.815126
0.349489
0.258847
0.980098
0.601968
0.706899
0.632636
0.679917
0.209855
0.503758
0.883671
301 359
111 490
14 0
177 291
188 199
423 261
89 306
464 298
191 226
89 361
313 332
435 446
215 95
443 31
152 357
92 452
273 91
293 273
490 202
321 95
451 371
176 264
176 120
323 301
152 281
312 456
272 174
415 149
429 282
448 282
473 93
25 61
258 26
190 421
449 42
188 447
99 0
146 62
206 11
284 268
50 423
371 206
261 210
332 359
39 61
294 117
472 79
254 332
160 182
375 287
256 158
279 235
481 465
118 18
323 100
243 180
112 349
337 342
276 54
493 418
5213.33
3
