60
11
0 0 0 0 0 0 0 0 0 0 0
75 39 19 88 61 40 89 17 53 31 73
87 28 60 32 13 23 96 85 47 75 87
97 34 85 94 95 53 65 100 70 38 10
21 59 38 66 57 69 95 85 74 37 91
90 80 28 52 98 32 11 43 63 21 39
97 93 58 10 66 63 76 19 88 72 82
58 54 13 57 72 80 13 85 55 17 46
95 51 38 86 48 82 76 58 26 92 25
57 70 33 64 80 89 64 28 89 74 76
54 24 34 27 69 72 44 18 44 78 28
83 93 90 81 21 79 13 61 87 97 25
71 16 85 43 22 55 79 65 19 56 10
71 11 61 73 48 12 41 78 41 48 67
24 14 92 70 14 12 13 19 32 13 91
46 51 31 70 40 34 91 91 22 36 39
85 84 60 46 62 76 90 56 16 24 52
40 37 84 44 18 55 42 50 43 18 97
56 55 50 100 97 63 12 25 12 21 59
18 18 73 83 73 30 75 74 58 29 18
20 82 73 96 46 84 28 39 81 41 29
61 63 32 81 67 67 53 64 97 14 49
16 47 44 30 18 52 24 57 19 57 81
22 53 91 64 54 81 38 46 14 77 25
52 37 74 79 62 71 83 13 98 47 14
98 27 81 12 34 94 90 54 64 17 10
61 38 49 58 11 39 72 47 63 28 19
24 75 52 69 83 94 44 24 55 87 65
29 60 98 44 12 56 21 86 76 46 86
53 19 58 84 73 89 50 88 99 43 33
19 14 70 27 21 56 14 70 38 57 37
83 67 10 93 49 76 44 45 27 79 19
17 67 33 35 30 38 60 61 93 39 77
43 18 94 34 95 75 81 34 29 44 62
61 64 24 53 18 75 32 34 66 99 57
28 21 70 74 34 71 15 50 49 17 64
93 54 65 79 28 99 82 37 93 49 82
17 65 91 78 92 48 31 37 25 90 42
82 77 64 89 90 23 90 83 51 22 38
84 81 90 77 89 81 76 67 89 96 42
64 74 11 49 69 68 40 57 32 67 95
92 83 86 24 25 59 97 33 51 25 45
94 26 34 86 48 54 35 25 54 13 14
23 26 89 43 18 17 37 37 81 11 56
95 46 83 46 23 14 92 92 97 36 76
78 87 67 77 45 78 27 81 88 49 53
20 35 11 46 92 95 39 34 99 85 56
27 51 52 66 49 68 32 18 59 12 65
11 83 71 78 14 98 46 64 98 19 84
42 55 59 20 35 87 27 45 23 70 79
77 98 32 20 10 29 37 92 46 95 90
63 47 73 80 43 31 88 82 57 92 11
87 34 45 19 77 16 66 43 91 60 37
33 69 92 95 47 76 96 99 95 60 96
28 46 16 56 20 83 40 52 87 82 27
98 75 50 47 40 44 82 66 12 26 95
64 53 92 85 69 35 30 78 52 15 44
30 33 24 100 78 67 77 16 44 58 14
36 48 51 53 78 16 98 72 32 35 23
74 12 21 96 56 75 49 53 91 19 39
1.38512
0.783295
1.12451
1.05237
0.392208
1.27673
1.14239
0.910929
0.602759
1.10701
0.85497
0.964308
1.32288
0.821016
1.30058
0.435303
0.739356
0.426545
0.779767
0.319359
1.27272
0.569812
1.0253
0.655796
0.525941
0.95495
1.10252
0.750365
0.993452
1.15784
1.14519
0.513364
0.430987
0.636427
0.766657
0.746061
0.880275
1.17899
0.416208
0.819395
0.443753
0.516677
0.437429
0.49759
0.518039
0.524515
0.670525
0.949714
0.514815
0.986363
0.30641
1.42834
0.409056
0.381653
0.603474
1.02826
0.964798
0.537137
1.34201
1.21826
476 301
296 293
289 425
237 219
292 122
137 24
466 188
358 8
300 288
292 44
396 390
351 75
282 34
164 262
440 18
39 294
348 15
215 34
17 286
0 269
179 324
25 472
205 468
339 357
281 310
495 297
278 7
256 417
245 175
290 280
340 361
419 469
489 209
73 88
310 495
153 181
76 75
373 27
467 328
287 455
109 42
326 87
210 289
328 169
438 58
22 118
177 403
234 118
286 339
202 99
247 204
397 421
382 425
270 361
315 383
165 324
462 351
156 208
202 126
48 217
16205
1
