60
7
0 0 0 0 0 0 0
32 100 25 13 38 75 74
25 31 10 55 47 65 24
98 47 73 18 14 26 34
54 51 85 70 31 23 73
86 55 40 95 46 31 95
48 65 15 78 82 86 93
86 12 78 65 60 90 24
31 17 39 36 44 64 52
90 49 51 79 42 19 33
85 22 39 35 94 18 14
54 60 35 21 16 33 66
84 28 35 70 52 55 18
26 54 82 79 84 93 69
70 67 40 58 13 28 53
89 61 76 16 28 81 54
88 43 79 64 33 86 63
88 81 50 10 59 25 14
39 17 71 96 89 70 47
98 78 34 55 95 26 74
10 27 75 21 95 72 56
60 79 89 50 93 38 75
51 50 23 68 86 50 97
86 89 14 35 42 45 94
99 35 84 31 96 53 12
36 92 16 23 11 50 72
57 24 74 59 65 88 23
21 57 98 10 76 33 54
89 73 68 42 82 70 67
36 26 79 25 78 36 54
94 14 83 31 20 31 18
50 53 35 11 99 48 25
81 79 22 57 40 42 64
98 36 39 50 17 58 70
26 82 84 73 19 62 86
60 10 19 52 42 96 70
82 14 20 46 75 90 66
43 18 28 50 70 54 69
75 29 69 13 39 85 49
56 69 62 75 58 70 57
100 33 10 76 12 57 73
22 96 99 95 61 38 28
51 62 79 90 45 76 80
90 14 48 86 19 95 88
93 49 57 91 21 96 15
60 24 64 59 41 25 54
83 83 18 63 66 84 38
16 95 22 42 93 18 18
62 97 47 81 97 70 17
82 70 23 74 26 40 48
76 85 28 20 19 81 87
51 26 81 42 47 49 66
46 66 76 79 68 37 88
16 60 85 12 29 27 20
27 39 92 38 58 14 62
56 49 43 60 71 96 82
35 46 17 87 58 64 16
27 85 71 17 62 28 65
47 72 72 41 70 33 44
12 11 81 97 41 38 93
0.914503
0.442063
1.42135
1.3656
0.478318
0.600547
1.49375
0.992529
1.36464
1.22899
1.21849
1.17736
1.14619
0.791454
0.7135
1.3947
1.34203
1.37657
1.20386
1.48492
0.40544
1.30478
1.09554
1.17903
0.873212
1.01952
1.03546
1.05098
0.373399
0.863015
0.861078
1.38983
0.70413
0.672886
0.450896
0.421703
0.56008
1.25688
1.34779
0.30307
1.26808
0.366881
0.955027
0.600296
0.527514
1.15202
0.739026
1.40169
0.641824
0.802752
1.38073
0.363136
0.665962
0.85083
0.905738
0.668243
0.913232
1.4285
0.434665
0.670946
177 203
94 470
374 101
438 489
120 199
439 67
46 302
443 414
208 323
89 337
486 214
211 265
290 192
88 408
142 411
27 379
463 112
193 235
376 77
143 71
466 383
318 202
57 219
158 301
122 423
379 104
377 124
277 258
350 455
49 23
114 252
36 108
287 243
219 242
371 287
399 360
311 118
295 255
185 238
272 336
147 458
334 203
249 112
231 371
390 308
311 433
44 427
151 350
4 40
275 384
27 344
9 21
420 407
184 267
197 289
53 91
69 411
221 361
23 406
190 374
4011.25
4
