60
3
0 0 0
43 55 11
97 89 96
91 26 28
56 11 10
52 51 67
79 79 45
15 36 45
14 99 67
58 11 95
95 41 74
20 41 83
100 35 46
82 87 33
60 31 40
40 59 22
55 48 58
38 75 64
58 18 14
62 53 81
91 48 38
24 69 27
44 85 23
63 84 99
96 56 10
88 94 37
20 23 82
29 100 76
24 96 40
30 40 20
86 40 30
13 54 83
83 61 99
47 18 48
31 20 10
73 66 84
92 51 88
49 99 60
27 83 16
43 13 99
60 12 83
54 98 70
81 39 54
47 88 54
60 54 11
30 69 22
58 49 78
46 37 57
100 56 11
96 99 78
77 42 46
55 21 34
70 37 60
72 90 33
47 16 41
17 42 67
56 51 60
48 14 47
80 28 39
59 34 45
0.445951
0.905924
0.249993
0.654581
0.932151
0.298419
0.89255
0.533876
0.361853
0.990747
0.231038
0.321018
0.933569
0.955594
0.933429
0.829563
0.585852
0.327489
0.999857
0.39789
0.578595
0.349631
0.364086
0.934653
0.250794
0.786514
0.605226
0.4271
0.564081
0.945082
0.340059
0.672958
0.824653
0.599931
0.208583
0.257925
0.82177
0.884871
0.600259
0.220556
0.579703
0.84724
0.332163
0.286094
0.713107
0.924521
0.571068
0.752409
0.333648
0.648284
0.897889
0.755654
0.503612
0.357418
0.628959
0.956246
0.593255
0.467846
0.743182
0.729962
261 281
366 494
91 256
463 469
341 461
202 456
74 178
410 232
153 195
86 286
461 121
441 407
35 90
151 191
276 361
433 435
450 236
103 365
160 303
47 349
362 109
277 312
172 359
428 260
118 115
65 466
220 463
270 376
6 342
281 144
448 329
389 43
114 492
386 67
476 354
56 144
444 366
387 146
105 464
437 309
352 1
346 64
4 261
104 93
285 279
324 186
498 140
466 60
124 95
269 66
26 56
485 186
20 390
487 220
397 286
221 46
173 320
137 187
297 295
375 181
5300
3
