60
11
0 0 0 0 0 0 0 0 0 0 0
92 74 90 79 61 31 90 20 100 49 90
49 24 67 24 86 78 82 50 78 24 87
29 23 38 98 45 18 99 68 69 28 72
16 29 13 74 86 54 56 77 74 56 98
24 89 26 14 20 80 72 16 70 24 62
45 49 16 73 87 95 70 49 71 44 92
15 54 91 37 74 39 48 70 45 97 24
37 47 73 65 12 81 70 49 79 60 87
88 57 97 58 94 36 64 61 73 85 45
46 50 11 54 88 97 100 48 67 38 93
10 46 53 40 70 14 11 83 46 74 54
40 70 85 88 47 80 14 58 16 15 80
27 99 18 13 86 60 74 58 74 69 67
46 67 22 70 73 13 32 83 79 70 69
84 27 18 100 65 50 88 52 53 97 64
50 59 18 94 23 94 23 14 96 52 98
47 91 35 60 19 77 92 100 11 56 48
10 59 17 98 46 52 95 25 82 90 19
71 35 60 75 42 81 90 36 42 20 63
95 94 58 26 25 80 61 42 27 44 10
31 56 29 71 73 49 100 11 79 72 29
13 24 45 66 72 20 75 11 44 96 75
22 13 95 57 93 50 10 47 23 59 67
73 61 32 16 46 92 68 65 14 38 30
85 92 36 38 72 56 21 34 44 83 82
48 31 68 58 75 67 61 89 74 68 10
31 77 80 87 95 65 11 30 53 44 11
42 42 42 57 28 53 23 30 88 27 28
12 20 90 30 76 28 26 10 53 100 57
31 65 22 20 96 48 74 70 28 52 28
88 37 38 91 84 35 18 75 100 66 77
31 91 95 82 21 91 84 63 19 48 94
16 24 57 52 49 86 16 55 11 98 18
48 55 82 53 67 75 81 51 84 80 23
15 46 80 71 48 76 96 33 36 59 86
21 31 28 100 47 91 75 12 100 29 80
79 72 78 55 69 82 17 24 30 59 73
98 46 91 81 30 88 25 78 29 27 64
40 79 95 97 57 72 100 78 80 16 21
82 90 54 57 18 36 33 36 44 33 41
55 45 81 51 17 44 17 42 86 70 92
81 68 23 57 17 41 56 15 19 83 45
92 87 11 42 45 28 86 22 12 33 41
47 99 73 88 64 21 27 64 51 78 49
81 93 34 94 87 76 24 70 50 54 92
82 82 18 63 91 97 97 41 76 75 72
91 75 82 63 99 82 45 72 25 59 93
71 34 72 36 15 91 53 33 85 52 71
90 19 28 39 66 64 84 41 90 66 20
35 67 60 81 18 37 55 72 78 84 19
49 52 52 68 57 26 22 83 40 73 15
23 69 82 75 80 55 10 83 39 44 21
42 88 91 59 23 80 58 84 44 54 68
54 70 42 95 75 97 96 18 65 77 28
71 98 43 95 92 79 98 40 85 21 16
47 66 79 50 69 35 72 93 88 91 28
37 98 39 58 61 49 83 47 13 84 71
53 40 24 39 34 10 43 13 97 77 36
19 23 38 52 67 60 16 80 49 57 52
2.34224
0.713321
1.89222
1.45893
2.35876
2.07075
0.528709
1.08454
0.604927
2.10241
0.801009
1.53388
1.12488
2.164
1.11262
1.47795
2.36219
1.69175
1.03586
1.61051
1.97976
2.17411
0.708146
2.05778
2.41349
2.33292
0.657676
1.18417
0.814596
1.67627
2.16652
1.47973
1.27771
1.55983
1.08555
1.30811
0.849779
0.595615
1.72304
1.6605
2.2956
1.08064
1.03866
0.790321
1.66747
2.37489
0.914037
2.37039
1.40117
0.620147
0.935723
0.879826
1.89472
2.08958
1.49548
2.4806
1.48544
2.44584
1.90083
2.32783
478 457
327 426
278 314
82 427
254 292
429 75
222 143
40 216
347 402
216 294
488 442
53 187
211 242
393 288
134 295
87 443
158 214
94 105
298 351
319 132
104 202
278 203
413 346
303 342
487 112
234 41
407 149
467 233
185 373
177 426
270 309
283 83
466 3
215 16
443 424
112 136
372 468
433 432
15 316
138 52
393 394
294 204
436 434
310 237
286 48
176 90
78 368
483 321
91 436
154 418
452 374
194 484
72 31
162 269
291 26
475 273
497 477
275 377
389 341
204 233
8330
2
