60
5
0 0 0 0 0
99 100 57 79 72
45 72 85 68 75
24 29 66 61 47
23 95 60 49 13
19 43 63 20 58
99 39 22 10 43
81 20 99 95 49
12 22 15 24 41
82 33 73 92 45
36 50 26 70 40
60 97 19 70 85
52 77 39 61 36
74 20 94 60 18
68 85 61 10 96
63 87 20 99 23
81 98 87 86 46
94 57 67 64 12
59 17 60 76 37
48 54 49 79 63
20 64 24 97 39
44 36 86 61 17
93 26 31 48 79
11 49 44 92 46
17 84 77 17 28
76 34 29 21 78
15 29 58 72 46
88 18 59 62 37
76 78 95 17 40
73 22 91 71 10
89 65 32 45 66
56 12 86 18 24
68 13 37 26 63
63 32 85 36 71
65 65 99 26 44
54 70 63 24 58
25 45 89 46 37
50 35 41 14 63
81 61 24 42 12
96 70 15 96 98
44 10 61 11 33
80 19 67 51 19
71 21 15 24 48
53 24 22 70 20
20 28 50 26 26
52 82 17 94 17
60 96 45 95 54
89 19 79 73 56
54 26 69 65 96
47 39 88 91 46
86 63 85 76 41
39 67 40 75 35
33 18 14 55 32
24 61 45 97 58
58 25 100 67 51
61 39 81 12 28
36 61 82 63 16
52 50 76 94 84
55 79 70 17 20
82 61 66 50 15
1.19425
1.2486
1.10942
1.91332
1.55657
2.24046
0.771502
2.07225
1.48941
1.09114
1.30181
1.86812
1.6525
1.49464
1.35284
1.41215
0.633318
0.548502
1.72801
0.763968
2.15869
2.41845
1.44721
1.07329
0.966921
1.34856
0.704276
2.36251
1.09899
1.98372
2.46044
1.66423
0.911137
1.49504
1.91014
1.9697
1.30369
2.22604
1.18766
1.58004
2.42856
1.42178
1.16332
2.02807
0.646364
2.45544
2.25683
0.509014
0.855643
1.72756
2.0733
2.09063
0.786609
0.947835
1.35001
1.0177
1.72053
2.21987
1.41666
2.33938
496 437
464 376
282 238
369 341
58 45
411 58
335 14
147 315
386 45
218 183
479 104
190 295
106 180
221 78
315 81
429 230
354 394
438 87
311 386
490 46
166 205
107 302
166 416
418 489
476 262
309 21
236 419
63 105
367 312
3 312
407 272
493 411
257 55
330 102
257 31
489 202
135 428
288 265
187 303
297 216
325 41
316 1
94 492
74 233
13 58
44 165
83 336
457 105
131 280
32 280
343 180
216 270
365 277
477 407
395 437
177 362
275 129
295 53
419 382
355 253
15625
1
