60
9
0 0 0 0 0 0 0 0 0
55 87 49 25 56 33 43 68 16
67 84 17 38 99 79 42 77 14
90 43 34 25 32 96 24 54 46
90 55 93 80 65 39 90 73 34
99 21 33 48 14 86 72 17 47
55 29 56 34 45 34 24 82 83
11 10 49 88 22 92 85 50 47
59 21 14 64 34 54 92 45 88
91 92 57 33 63 29 10 13 97
26 87 27 64 22 85 39 33 27
18 25 52 47 21 40 94 47 40
90 71 22 77 50 52 47 81 93
92 84 38 49 92 40 52 81 41
52 36 24 70 68 100 81 94 88
65 58 21 45 53 93 64 61 86
95 13 54 79 59 28 37 73 77
26 61 76 19 77 56 79 83 60
57 98 70 58 52 28 26 74 49
24 68 25 36 59 46 16 38 73
99 89 82 66 21 48 68 42 35
100 84 96 70 26 43 70 20 91
24 15 72 57 89 20 87 61 88
96 56 22 38 92 66 52 67 10
47 88 18 64 83 22 27 83 39
95 21 78 22 76 19 50 46 76
24 43 38 48 99 11 12 14 92
59 39 82 26 99 78 68 72 41
55 51 25 23 32 69 61 76 79
55 46 40 30 87 55 13 47 22
54 21 88 88 40 16 91 17 97
58 87 39 50 15 10 68 100 79
62 82 67 57 54 49 91 19 85
28 21 79 82 12 73 38 68 51
56 37 37 62 68 81 20 92 44
12 62 46 23 94 78 53 45 85
32 99 100 53 81 48 16 34 49
12 83 38 100 76 97 62 25 28
83 52 85 62 43 78 32 78 86
70 45 71 20 70 90 38 17 70
74 94 97 12 41 100 100 61 87
45 96 15 97 67 59 85 80 61
89 90 59 43 39 10 54 61 26
22 61 45 69 43 98 85 95 54
95 41 28 92 81 55 79 37 39
67 82 28 34 75 25 99 43 35
34 71 17 37 86 76 33 38 63
56 45 44 85 77 91 93 80 92
58 14 44 75 97 23 86 54 10
99 54 92 66 44 55 81 56 18
44 29 93 62 89 84 71 34 39
33 84 99 53 23 21 18 96 19
32 98 62 64 23 34 26 97 32
26 31 11 41 10 24 64 62 91
11 52 81 30 42 73 45 45 59
73 16 66 95 23 100 83 37 61
65 39 69 61 26 80 98 20 73
34 57 98 90 84 27 14 63 89
16 23 18 90 27 78 10 21 47
51 27 47 92 13 67 63 57 36
1.34858
1.01473
0.339611
0.617034
0.966935
0.61183
1.11806
1.18583
0.591554
0.469998
1.42015
1.37526
0.551042
0.894272
1.04968
0.786602
0.632599
0.797188
0.844188
1.24063
1.33071
1.2828
0.739113
0.901007
1.00451
0.407465
0.32331
1.26995
1.2036
0.688254
0.521128
0.733228
1.14936
0.366801
1.46099
0.822496
1.16326
1.27365
1.42495
0.327577
1.12803
0.734232
0.659416
0.940487
1.37559
1.19363
0.57891
1.42036
0.575325
0.924268
1.17329
1.45133
1.41467
0.738624
1.19652
0.908553
0.482872
0.841915
1.29372
1.26616
2 200
125 306
353 205
1 90
119 163
247 381
457 194
42 102
151 363
293 69
426 355
21 327
125 193
327 392
138 272
7 406
483 212
103 64
23 90
467 179
47 82
294 44
382 136
322 42
419 208
337 394
165 50
215 472
168 476
302 272
435 80
122 53
312 442
356 445
466 75
171 9
479 345
245 435
79 487
69 495
23 489
350 25
375 260
37 28
468 59
445 492
124 388
57 278
288 319
438 30
255 496
124 280
388 52
474 235
423 491
153 122
331 278
338 452
16 30
34 498
4112.5
4
