60
9
0 0 0 0 0 0 0 0 0
15 55 84 57 24 48 33 31 79
63 78 41 97 16 37 51 66 98
29 39 58 61 54 75 39 93 22
70 93 10 82 35 39 52 48 84
70 27 50 99 98 33 67 72 80
55 98 61 77 91 35 41 81 23
24 48 58 92 88 42 76 89 96
82 81 72 85 51 39 27 18 91
99 10 77 27 67 48 48 33 65
41 34 76 41 88 31 63 57 42
60 84 38 13 23 31 71 53 50
89 35 56 33 100 51 82 62 41
77 92 33 61 49 57 27 77 47
69 100 21 31 11 57 60 32 94
13 70 94 71 12 36 68 65 88
92 97 59 42 81 57 44 84 78
90 10 98 23 15 18 79 41 65
14 53 69 32 20 59 71 93 24
86 13 83 69 73 50 54 74 25
85 20 56 38 11 38 67 69 70
43 100 95 68 92 95 44 44 31
19 84 58 85 87 12 43 69 77
76 16 100 54 10 80 54 27 17
72 63 83 41 29 99 10 87 48
16 49 23 73 38 49 54 99 49
25 96 59 33 33 45 73 68 47
19 73 35 50 72 64 61 54 73
80 56 13 98 29 14 72 78 28
86 74 90 73 19 36 38 38 25
87 63 69 35 65 61 98 13 10
80 83 30 49 84 25 35 31 70
48 77 58 55 22 90 76 42 68
24 88 28 72 50 19 80 62 11
55 85 17 73 26 87 37 53 38
94 98 42 91 73 64 13 56 53
85 29 63 32 41 71 96 69 48
58 67 10 48 42 57 86 98 40
18 62 33 36 18 12 61 67 83
39 11 83 44 31 46 45 99 63
71 38 24 14 34 46 20 19 43
17 15 80 89 38 58 96 97 80
53 88 75 48 55 50 35 58 39
73 90 47 89 78 22 30 60 53
21 55 72 22 40 21 36 11 41
37 67 71 70 43 57 89 72 57
40 96 88 68 41 43 98 90 69
23 64 65 96 61 47 76 64 27
50 78 53 35 10 87 16 56 20
70 72 70 30 64 44 36 95 75
81 86 78 78 78 46 33 37 15
63 55 26 46 39 100 20 46 14
24 11 10 32 20 69 93 61 54
69 10 87 11 37 98 56 27 75
54 21 11 15 63 93 50 77 80
63 25 26 48 52 44 82 76 61
82 79 43 10 82 71 93 70 19
37 57 58 91 34 71 75 93 92
38 36 28 95 88 50 64 43 18
77 84 27 28 82 51 100 48 37
0.471604
0.812911
0.925761
1.1422
1.77385
1.48492
1.64144
1.77811
0.533852
1.94809
0.765266
1.2649
0.519574
0.509674
0.611185
1.71695
0.570272
1.85025
0.845126
0.754515
1.18501
1.7123
1.41847
1.18134
1.13581
1.58233
1.52567
1.70104
0.504654
1.43032
1.67511
1.39631
0.677426
0.883885
0.458242
0.923386
1.73873
1.35483
0.513457
1.14226
1.17279
1.9853
1.88714
1.85814
1.12436
1.29506
0.544159
1.39808
1.47891
0.821352
1.67466
1.21823
1.27932
1.07923
0.653054
0.495777
0.528686
1.54523
0.855893
1.54105
291 282
228 52
260 458
377 44
177 86
45 225
71 249
434 7
252 108
441 280
333 465
230 271
465 48
288 239
238 281
260 94
250 322
478 49
436 477
418 317
269 218
256 46
430 217
174 387
486 19
141 129
2 500
370 255
235 429
410 223
171 197
469 280
170 54
221 314
251 114
166 297
166 416
201 159
246 422
11 353
343 99
74 226
373 327
473 104
193 417
203 379
223 440
372 210
467 132
19 210
234 137
280 51
307 110
317 3
424 41
496 237
127 225
315 107
31 477
279 214
3264
5
