60
9
0 0 0 0 0 0 0 0 0
18 84 71 54 41 76 96 60 11
56 25 77 40 96 48 95 30 34
96 19 66 94 17 64 99 54 70
89 61 38 92 46 45 92 14 65
73 26 72 43 82 38 40 50 90
50 51 54 14 71 88 28 46 73
100 38 74 93 26 99 11 89 17
58 97 14 11 98 64 25 17 26
45 68 58 71 18 22 83 15 96
61 63 76 16 81 89 25 28 44
51 81 87 96 97 15 82 78 20
59 28 62 54 51 22 35 19 49
42 21 50 64 32 82 92 42 84
77 48 97 30 12 60 18 81 30
92 75 59 14 83 12 69 46 88
52 78 75 33 57 73 44 43 20
33 43 96 83 16 22 76 95 38
36 33 92 75 29 10 64 46 77
46 44 70 53 38 59 14 72 19
14 49 94 32 85 84 14 18 36
25 57 29 91 99 60 100 76 21
52 10 65 46 25 49 76 90 28
87 100 92 39 54 97 97 23 50
49 12 20 96 47 17 62 49 48
81 54 63 92 81 40 55 35 32
95 30 94 89 66 69 51 99 27
17 58 11 23 48 57 16 31 67
73 18 54 93 92 68 47 14 84
96 62 62 66 91 29 74 84 100
31 84 25 50 76 20 87 91 47
12 93 30 27 65 91 29 62 82
70 58 86 61 70 30 20 66 36
18 54 32 10 28 51 34 97 73
69 60 57 46 88 76 50 14 52
10 58 70 74 68 59 35 69 56
81 49 13 23 23 78 37 81 87
35 77 78 82 18 48 54 66 37
50 19 87 90 83 66 27 85 10
25 42 19 22 91 54 14 14 54
44 60 70 100 86 47 86 22 57
84 21 55 26 73 94 25 14 11
39 44 32 68 17 34 61 64 35
52 95 72 67 14 99 35 63 29
29 68 74 28 59 72 32 94 70
68 95 68 82 92 40 48 91 69
31 94 52 10 93 59 38 71 79
54 28 16 92 37 59 85 42 21
22 45 26 13 77 36 24 78 53
93 19 20 14 54 71 27 45 60
80 27 15 88 56 47 16 90 39
21 99 16 57 60 74 54 33 26
32 73 66 54 16 65 79 30 48
80 51 35 18 34 57 50 39 92
94 33 15 25 95 38 49 34 31
44 18 73 23 22 28 40 83 52
58 85 31 65 23 35 53 38 14
55 43 55 10 35 41 26 86 16
43 97 10 22 35 42 67 92 33
36 51 42 88 70 84 44 75 71
0.109024
0.456289
0.113825
0.435931
0.17147
0.449019
0.352076
0.303789
0.363279
0.261808
0.441462
0.331256
0.164522
0.473701
0.223666
0.471046
0.145363
0.428181
0.279642
0.465847
0.100001
0.296262
0.374121
0.283154
0.457021
0.434487
0.183548
0.381406
0.487054
0.176105
0.342328
0.434283
0.449753
0.243017
0.454381
0.200652
0.207225
0.18609
0.1729
0.442397
0.443792
0.314817
0.430631
0.143932
0.417409
0.259043
0.441641
0.387481
0.482656
0.490995
0.126386
0.265806
0.214268
0.422463
0.236593
0.427492
0.278376
0.153238
0.456704
0.160046
98 22
211 109
20 134
479 69
474 411
43 434
32 436
304 461
385 69
268 113
475 498
61 408
98 336
169 231
466 133
429 464
352 463
4 289
411 340
48 479
408 42
279 149
442 289
426 494
489 431
262 256
139 412
410 172
298 9
220 327
3 268
410 273
153 463
413 344
118 360
388 430
387 389
363 267
81 68
128 401
450 67
204 91
260 60
284 444
270 435
419 93
487 401
347 403
298 122
45 368
436 174
320 244
369 48
455 345
152 93
115 217
103 293
459 52
266 321
427 443
3161
5
