60
7
0 0 0 0 0 0 0
75 28 93 85 47 21 26
18 19 95 91 73 54 10
22 96 66 51 63 34 10
53 43 63 58 36 46 69
94 94 74 31 73 11 92
87 49 49 43 68 25 65
26 31 71 69 20 33 26
93 68 59 61 24 100 93
90 56 84 30 58 90 48
88 51 55 42 25 21 98
31 23 54 63 22 36 77
95 58 32 94 17 85 58
74 84 78 76 56 58 30
51 65 44 99 50 73 88
66 30 84 40 99 29 16
27 26 90 43 13 100 93
98 94 66 95 99 49 33
69 12 11 46 44 32 63
80 50 27 27 59 81 96
25 48 100 25 17 39 70
48 75 20 48 78 70 50
69 28 18 43 82 75 94
50 92 21 94 71 83 81
88 24 44 98 85 65 64
33 88 56 93 52 75 40
24 13 94 81 92 46 42
65 76 67 13 51 27 22
94 39 68 44 26 97 74
49 26 90 25 98 65 93
50 14 25 94 70 48 53
36 28 15 72 15 69 18
51 27 64 88 69 33 55
24 30 84 34 94 60 88
42 17 35 55 75 88 23
26 54 72 30 71 59 12
12 13 75 18 24 66 16
71 72 94 52 84 55 82
39 64 57 72 24 18 92
80 77 42 50 18 60 21
19 85 13 94 10 13 61
86 51 25 11 27 20 79
93 72 97 10 41 82 92
12 32 99 96 82 100 20
81 64 90 63 35 85 61
18 14 88 79 88 96 69
76 76 88 100 47 54 27
64 70 30 84 42 77 28
32 24 67 79 65 48 87
100 45 39 79 12 46 59
57 67 80 68 30 15 94
35 48 96 40 85 69 39
77 99 11 47 48 79 70
92 23 65 32 34 82 44
20 53 15 94 32 54 29
86 46 94 42 20 92 36
28 12 51 87 28 91 60
96 69 95 65 98 35 76
81 27 95 79 18 54 16
16 23 67 71 86 33 20
0.746445
0.949686
1.67796
2.07291
1.46324
2.07889
1.86657
1.96548
2.02218
2.34249
2.13277
1.1394
1.06504
1.50474
2.25557
1.51206
1.25712
1.7399
1.87383
1.56979
1.36976
2.41985
0.8817
2.05282
2.41047
1.26883
2.11309
1.79514
0.754992
1.56788
1.31645
1.26323
1.97725
1.55595
1.21172
0.551893
1.76485
0.947205
1.53789
1.7583
0.649702
1.49152
1.94286
1.54307
1.03998
1.96067
2.2046
0.714995
1.54249
0.851777
2.1157
0.592559
2.22354
0.970798
0.837899
1.97478
1.09767
2.01322
1.26037
1.54606
188 29
151 360
94 466
171 19
96 488
343 316
439 222
362 374
445 403
135 197
130 48
206 192
466 395
40 83
309 455
362 410
489 57
367 353
487 135
246 262
241 348
250 371
142 148
61 135
321 67
118 61
168 332
23 314
489 143
376 488
349 295
433 154
313 387
220 485
254 56
32 79
265 200
55 340
456 427
417 377
15 178
49 302
201 171
92 72
82 378
241 468
367 43
182 370
359 397
500 217
495 315
176 205
432 229
60 312
335 385
237 210
13 464
497 257
488 140
16 229
16580
1
