60
3
0 0 0
40 22 42
64 88 93
93 100 39
55 61 74
19 70 38
86 35 21
37 99 18
79 28 25
60 95 31
78 88 78
76 83 74
26 73 51
96 32 66
13 80 33
12 28 91
66 78 23
78 22 57
42 88 46
65 71 67
91 29 15
58 29 100
39 54 33
100 51 77
69 28 53
36 67 79
39 29 19
12 84 91
99 69 46
68 38 43
10 86 31
54 49 21
31 86 88
28 17 53
52 16 32
98 40 89
11 81 69
76 24 49
26 66 42
58 35 72
51 12 23
58 54 27
75 42 78
77 78 71
73 79 23
78 56 92
97 34 90
47 67 26
92 91 76
48 22 55
87 42 25
27 84 42
12 88 69
29 18 83
44 19 40
63 31 53
91 42 73
44 49 63
62 56 16
43 84 17
0.473541
0.821467
0.228722
0.877542
0.413941
0.227093
0.352583
0.904199
0.605306
0.514086
0.614951
0.486152
0.829073
0.548152
0.402748
0.369872
0.254064
0.43395
0.829885
0.930545
0.842288
0.943493
0.420261
0.542847
0.752814
0.542365
0.262497
0.688379
0.584265
0.776647
0.5549
0.777269
0.66878
0.730721
0.89823
0.203986
0.787288
0.589727
0.274165
0.945254
0.517543
0.556858
0.840425
0.843146
0.392291
0.469406
0.362945
0.246588
0.860884
0.588429
0.730994
0.241906
0.415182
0.790132
0.912632
0.3102
0.64045
0.345366
0.860659
0.588288
408 224
265 494
410 63
473 173
185 404
1 376
283 107
409 449
265 454
20 389
324 239
213 91
339 222
66 432
103 383
317 270
141 324
418 297
107 441
383 455
203 6
298 114
159 97
3 371
94 97
22 132
258 67
190 473
299 78
416 269
27 170
334 163
181 100
190 192
135 22
421 174
272 194
306 439
23 432
225 299
434 404
100 393
62 40
437 446
131 89
114 430
306 110
284 438
401 453
306 76
330 339
274 326
62 422
242 430
44 91
347 324
210 72
468 455
365 290
447 43
3238
5
