60
7
0 0 0 0 0 0 0
11 69 25 68 59 43 55
34 37 39 15 48 85 77
99 45 31 72 69 37 13
65 55 39 47 74 24 52
27 73 45 19 72 33 58
79 14 24 96 88 64 27
51 97 42 17 89 13 93
14 59 31 58 31 74 15
67 56 74 73 82 37 26
26 50 22 69 82 89 99
39 71 18 74 68 97 55
66 38 94 81 20 65 26
18 27 56 49 85 53 58
65 90 37 96 71 19 98
95 42 13 42 86 37 58
63 82 22 19 31 62 32
67 44 12 80 74 69 46
84 52 64 26 11 10 15
34 74 20 20 10 81 77
74 53 78 79 29 19 40
12 38 69 32 58 59 98
27 25 29 63 31 93 87
45 50 29 50 81 93 26
72 75 91 59 15 52 45
87 31 45 93 61 68 30
19 22 19 99 94 75 52
45 56 99 19 40 13 35
10 81 100 58 50 67 91
47 52 42 87 49 51 80
38 69 87 88 85 12 81
77 81 94 70 86 89 56
37 53 72 32 72 46 44
75 43 24 42 82 24 13
51 68 10 93 12 25 20
98 16 69 30 99 45 13
96 33 52 38 45 54 22
20 88 45 49 67 19 23
80 47 41 45 95 13 32
14 88 56 82 47 19 51
44 50 26 17 65 89 17
75 52 23 23 15 77 92
11 51 35 84 41 10 31
63 87 45 24 77 53 92
21 49 65 42 31 59 25
32 26 43 88 38 15 100
44 83 28 78 47 75 84
72 36 82 87 85 96 28
37 51 51 70 93 32 55
95 46 58 20 17 44 52
30 38 22 92 50 67 47
49 25 40 31 62 42 81
27 58 17 19 40 72 71
38 64 75 23 23 30 84
38 68 98 77 100 30 53
38 43 98 58 95 10 61
14 80 16 69 75 17 51
89 31 13 84 85 77 58
29 96 23 35 23 36 44
66 88 67 82 67 65 20
0.266834
0.268136
0.327585
0.44259
0.16955
0.381701
0.499417
0.215383
0.340561
0.438095
0.381418
0.349781
0.435335
0.231287
0.177263
0.285413
0.485736
0.362786
0.475539
0.161601
0.368025
0.180571
0.113682
0.346584
0.154763
0.337642
0.412945
0.124448
0.419926
0.19409
0.378599
0.26999
0.161147
0.468987
0.272597
0.353212
0.380719
0.284205
0.175928
0.406485
0.175784
0.392439
0.239518
0.150295
0.33124
0.187548
0.136482
0.47033
0.143653
0.369582
0.304242
0.384696
0.326818
0.347221
0.179698
0.104741
0.364217
0.33564
0.374706
0.226558
253 375
238 321
345 231
225 474
240 81
156 321
2 397
270 233
126 137
25 223
54 472
10 47
488 148
93 427
132 90
409 250
367 371
412 266
391 252
461 171
426 213
423 46
223 373
288 294
39 111
476 274
289 82
203 399
381 25
386 76
189 365
243 347
376 260
474 440
373 228
303 291
156 17
364 463
315 73
47 82
384 278
317 272
87 26
412 134
356 312
447 150
175 170
195 143
353 385
66 490
364 163
297 249
187 466
306 355
390 374
426 145
341 433
474 212
301 464
489 421
3112
5
