60
7
0 0 0 0 0 0 0
32 90 30 84 53 98 95
79 61 23 75 35 66 38
87 28 44 29 65 14 43
44 91 66 98 62 65 13
33 30 43 99 22 67 65
72 55 14 50 71 41 62
64 71 96 72 63 23 83
65 17 16 84 28 37 98
50 76 51 97 36 16 40
66 18 31 36 24 82 75
93 38 60 100 10 96 34
38 91 43 30 18 99 25
99 31 78 65 69 24 90
60 44 58 29 57 48 53
47 36 96 93 55 60 91
32 36 61 67 67 63 57
86 75 54 66 25 47 67
46 46 33 29 80 18 16
51 84 48 85 52 70 32
42 21 29 34 15 96 73
42 75 26 29 86 83 44
56 58 94 26 64 34 72
100 17 13 72 90 85 39
16 22 78 86 26 100 69
76 90 62 39 69 32 80
76 66 22 35 14 11 75
94 11 43 25 75 47 76
37 12 12 51 49 69 94
53 76 27 100 14 66 65
61 43 94 97 11 48 29
43 13 93 35 92 20 92
42 17 31 96 94 28 24
89 38 66 76 17 82 65
51 72 74 23 79 13 94
33 50 16 87 100 18 42
31 16 63 96 34 29 29
79 42 36 100 14 40 33
12 94 23 100 50 91 76
88 99 30 27 10 82 51
60 65 36 29 35 34 55
14 12 62 69 18 50 49
15 59 86 47 41 14 12
25 86 67 69 60 16 49
77 64 98 25 41 91 36
61 36 81 78 55 41 39
79 76 99 50 29 31 52
59 17 40 75 23 98 58
57 83 63 37 65 86 46
38 13 95 31 38 40 84
68 57 99 11 74 76 16
68 38 20 76 11 68 79
93 20 92 45 60 97 67
58 91 79 41 92 33 37
34 96 56 72 90 19 17
65 13 81 64 36 88 23
55 25 68 50 30 11 26
86 80 64 14 71 27 87
22 86 68 63 58 45 55
54 98 97 50 38 87 100
0.857703
0.609316
0.822456
0.551075
0.7811
0.583909
0.919184
0.843427
0.955131
0.809532
0.992964
0.715584
0.535214
0.43462
0.772958
0.739142
0.520854
0.768551
0.328092
0.546684
0.835326
0.339328
0.752581
0.365857
0.834759
0.626976
0.238309
0.288723
0.891838
0.359689
0.396186
0.945565
0.419743
0.601563
0.272368
0.43565
0.225977
0.324787
0.80146
0.745066
0.796747
0.298499
0.65932
0.553526
0.73071
0.259067
0.599808
0.590878
0.68066
0.293994
0.610596
0.50952
0.472377
0.577806
0.307801
0.657022
0.939863
0.358522
0.767092
0.626245
327 278
498 218
496 139
160 350
352 20
386 163
158 285
31 354
392 418
470 183
404 37
26 445
375 46
83 124
303 379
290 55
208 449
197 26
32 468
16 391
31 167
462 346
258 177
355 319
266 462
388 201
219 92
48 180
380 264
273 52
383 321
293 284
298 21
184 429
182 430
108 195
242 162
88 361
39 29
77 84
463 27
265 215
16 381
19 231
30 334
408 154
332 236
438 433
423 24
381 128
362 328
75 144
289 192
353 410
415 307
263 327
320 367
438 345
315 270
371 419
8060
2
