60
3
0 0 0
68 18 49
89 29 62
33 12 93
16 71 95
71 77 70
54 31 27
88 44 52
47 85 78
11 86 27
24 97 87
47 69 43
82 90 30
65 39 67
95 37 27
49 70 14
26 60 96
15 13 99
98 31 45
88 35 20
80 20 66
53 52 55
27 18 94
66 25 42
74 19 100
80 54 56
91 40 75
14 36 61
10 37 72
66 51 46
82 68 88
35 71 94
76 18 11
43 60 98
72 47 80
37 76 51
100 86 81
58 13 38
69 41 97
53 57 84
34 41 92
54 31 26
81 35 71
19 67 68
23 17 24
42 35 90
88 36 63
39 69 62
71 48 81
73 95 80
62 46 85
76 24 13
65 16 58
53 92 78
21 75 11
34 96 49
90 33 10
17 24 36
73 28 27
100 24 45
0.141527
0.231117
0.451328
0.339181
0.347087
0.347329
0.381705
0.470328
0.418942
0.419076
0.453625
0.216901
0.243748
0.328914
0.118792
0.309611
0.121483
0.471152
0.185374
0.386263
0.101491
0.421296
0.331688
0.262002
0.308605
0.217778
0.250462
0.121318
0.192046
0.221903
0.116421
0.151386
0.258084
0.389283
0.485525
0.223952
0.106334
0.197006
0.441549
0.199274
0.423631
0.464477
0.390139
0.350278
0.165833
0.123913
0.439803
0.138425
0.34873
0.106101
0.422723
0.397005
0.498691
0.242152
0.489733
0.185835
0.385084
0.426277
0.109645
0.336677
388 495
202 251
382 442
418 356
422 221
54 435
442 496
438 254
179 287
183 8
171 445
16 439
461 495
319 370
429 453
384 422
209 488
163 204
32 283
89 166
493 121
283 209
347 393
121 240
401 334
417 299
172 52
5 342
319 50
186 459
220 86
438 218
338 65
181 221
377 75
289 161
415 17
154 499
366 455
165 318
148 72
440 126
397 128
248 177
0 228
239 78
422 232
366 383
454 159
485 252
64 241
207 375
497 164
318 23
224 129
261 147
277 301
234 146
294 169
253 222
8100
2
