60
7
0 0 0 0 0 0 0
82 30 31 50 56 50 21
70 69 14 68 44 91 57
94 71 61 68 85 46 85
73 53 88 26 37 59 98
62 46 48 93 61 18 64
39 11 78 46 53 99 82
62 48 77 99 34 51 79
62 67 80 28 96 100 71
77 66 90 68 43 84 89
27 68 42 37 86 95 37
64 52 62 21 76 51 26
12 19 54 37 82 52 30
35 20 33 56 72 84 98
100 45 55 10 27 32 65
69 83 83 75 32 47 57
85 82 20 96 11 91 72
12 78 39 47 48 26 11
46 42 46 27 75 90 64
79 75 23 53 84 91 39
28 37 66 51 12 56 24
46 37 40 69 18 32 99
38 46 53 18 14 100 37
47 11 28 32 13 25 14
68 23 62 36 33 100 30
100 14 36 23 73 74 54
74 37 58 80 56 25 51
93 47 39 99 39 92 14
93 87 62 92 63 27 45
42 32 53 97 18 70 95
57 62 44 74 19 40 51
53 55 75 28 16 11 24
86 26 63 15 89 79 25
24 59 62 98 87 12 69
33 39 89 34 92 29 64
57 76 94 74 95 46 58
17 52 76 52 10 48 58
86 48 78 38 51 97 29
69 79 39 72 63 85 61
61 63 48 43 84 25 81
60 56 59 40 65 20 70
33 98 14 35 28 44 38
72 87 81 75 41 49 26
89 40 81 19 61 54 83
51 63 79 77 60 15 79
99 14 79 88 50 72 30
33 40 62 79 41 40 30
87 14 59 92 22 63 87
41 91 48 34 63 49 92
56 95 91 97 24 90 35
75 37 86 45 97 33 10
87 69 77 91 81 98 88
94 47 61 85 63 43 53
72 28 66 54 55 59 68
72 57 41 29 15 66 95
13 18 92 98 54 36 91
93 83 33 93 21 70 95
78 73 50 55 83 27 45
13 43 15 66 41 48 47
60 90 38 92 20 13 54
0.379679
0.318636
0.447646
0.107465
0.497879
0.111873
0.42407
0.187072
0.359909
0.1991
0.143507
0.267295
0.397463
0.226866
0.459616
0.195598
0.300974
0.302297
0.379282
0.422715
0.223038
0.15433
0.222809
0.388087
0.285364
0.250404
0.231588
0.12592
0.19365
0.321673
0.176478
0.321003
0.212424
0.354843
0.204725
0.434242
0.408017
0.339069
0.255862
0.140516
0.293453
0.170077
0.305409
0.197814
0.14803
0.22287
0.215486
0.286277
0.150954
0.499844
0.17076
0.112034
0.417533
0.201932
0.270136
0.319979
0.351516
0.119349
0.340362
0.22902
189 363
49 76
418 9
347 443
6 169
172 403
219 380
386 243
237 87
226 351
462 420
398 19
279 225
477 254
71 270
247 247
45 367
228 385
254 94
248 451
422 429
497 28
111 463
5 194
297 38
391 460
310 327
110 159
21 426
210 45
72 114
33 61
287 81
308 430
342 449
47 194
53 302
114 455
351 26
490 277
165 493
375 235
148 192
353 495
364 310
134 46
440 376
112 328
78 220
110 199
175 144
86 200
216 133
106 143
325 451
490 405
265 178
64 447
323 361
83 330
8310
2
