60
5
0 0 0 0 0
29 86 74 30 46
99 90 52 49 45
48 55 42 36 66
28 48 49 34 66
51 64 58 94 70
11 69 37 50 98
77 37 86 56 84
47 13 76 24 60
86 38 83 93 34
83 93 53 46 81
25 99 97 26 26
57 20 64 26 69
81 86 77 84 99
12 41 19 98 42
17 30 77 14 62
39 74 75 93 20
10 11 84 94 43
42 84 58 57 22
98 50 99 41 47
78 32 10 21 63
96 88 44 49 66
60 10 91 89 24
21 15 100 26 37
53 99 18 40 67
52 97 44 86 86
65 20 58 98 35
81 75 66 72 72
57 94 57 25 56
37 31 54 35 77
99 49 92 43 31
12 58 90 35 70
82 96 24 74 71
16 100 46 56 99
40 81 24 96 38
74 51 87 19 73
78 63 83 19 42
44 84 28 95 29
35 83 44 95 72
16 22 24 20 24
52 80 70 56 54
68 15 20 66 46
17 34 16 46 46
22 11 43 31 64
43 72 10 90 58
44 40 22 66 41
90 61 36 34 56
75 15 42 89 75
91 18 20 61 34
89 84 66 82 90
54 15 40 17 91
87 57 91 89 24
39 33 92 76 74
91 31 66 81 48
43 84 14 88 45
70 39 32 49 49
77 99 38 16 61
48 90 64 32 84
88 78 12 22 88
75 77 59 94 82
1.78031
2.40952
2.07093
2.08651
1.78922
2.45552
1.97158
1.02215
2.04343
2.33565
1.93928
1.5672
1.42006
2.17133
0.924792
1.34536
0.760176
1.26762
1.53864
0.805265
1.2928
1.63785
2.42796
1.10683
1.22752
1.31706
1.48872
1.12353
1.41418
1.43536
0.949198
1.84982
0.594556
0.982154
0.742919
1.98826
1.02582
1.81915
0.868139
0.996355
0.747148
1.06439
2.18221
2.30124
1.00763
1.12812
2.30906
2.16091
1.08782
2.30314
0.826636
2.17164
0.612195
0.985757
1.29291
1.9515
1.12247
1.21295
1.25827
1.58732
357 129
45 18
98 485
286 25
55 486
218 156
380 312
477 398
251 11
414 194
174 137
151 251
86 243
15 280
111 148
431 244
381 253
418 416
99 103
56 139
235 304
429 460
6 1
123 368
27 364
13 358
233 206
420 107
335 304
1 218
27 41
69 377
227 79
38 351
301 404
375 493
203 228
259 432
105 111
474 314
480 466
231 250
202 247
348 370
81 459
293 27
459 485
430 373
179 22
398 309
123 182
173 191
230 120
356 0
1 135
42 454
197 460
488 250
406 362
498 433
3322
5
