60
3
0 0 0
36 87 71
24 50 70
19 45 42
48 56 38
42 23 26
77 51 82
38 72 10
28 65 25
27 48 89
83 96 92
48 83 28
58 13 94
48 70 70
66 11 42
25 65 54
98 14 64
72 45 93
94 90 20
84 80 51
29 63 19
10 52 19
93 24 62
69 75 75
57 69 77
81 95 47
32 49 99
82 33 56
65 22 70
71 55 59
11 95 78
57 41 79
28 96 28
22 73 45
67 58 75
20 18 24
54 63 21
48 50 45
69 33 23
53 24 88
10 38 99
87 12 58
44 84 31
30 90 30
38 46 83
44 91 38
97 39 88
88 90 40
12 15 54
22 65 58
30 100 58
83 61 32
51 42 58
96 12 55
15 39 20
24 10 88
82 66 85
34 45 16
57 67 32
48 42 91
0.499081
0.653751
0.865918
0.796927
0.822419
0.520461
0.795582
0.585365
0.699826
0.958677
0.526379
0.310399
0.931405
0.60743
0.246209
0.613775
0.754276
0.986775
0.884552
0.772487
0.662573
0.682756
0.829183
0.651419
0.935442
0.272416
0.57472
0.805813
0.401315
0.384501
0.474813
0.968476
0.438064
0.713164
0.903358
0.488966
0.216025
0.30129
0.954102
0.995058
0.28228
0.876479
0.890344
0.65178
0.952199
0.402661
0.793614
0.948347
0.67728
0.228048
0.689618
0.211772
0.496647
0.768676
0.821058
0.934098
0.978094
0.670117
0.363979
0.388765
189 103
436 52
165 92
212 205
202 23
265 310
264 226
381 382
256 248
361 6
350 464
58 159
174 98
7 106
359 107
435 276
441 248
256 393
468 255
7 218
434 261
227 78
99 38
61 245
182 456
146 411
491 390
393 472
496 445
354 497
431 127
87 443
150 245
101 405
473 289
118 319
194 212
123 4
278 150
198 220
381 34
113 71
242 437
424 45
165 473
143 224
496 97
283 260
482 106
360 98
114 408
282 355
201 202
339 255
486 387
174 173
446 226
280 282
182 2
1 53
3956.25
4
