60
11
0 0 0 0 0 0 0 0 0 0 0
81 65 87 29 97 87 38 81 70 87 67
92 46 84 85 97 65 86 93 99 22 26
73 49 64 42 49 82 85 82 57 48 67
51 68 26 71 17 49 50 37 90 42 77
26 91 95 58 45 86 17 64 99 83 15
72 58 13 52 90 52 36 77 11 53 40
36 40 45 46 45 82 15 71 52 17 19
59 91 24 68 26 94 52 27 66 82 60
43 85 93 84 22 66 58 72 55 68 57
81 64 51 36 15 20 61 95 56 36 89
100 39 53 34 79 31 14 89 29 43 63
52 97 60 55 56 35 76 74 44 24 39
88 57 40 46 91 75 49 16 20 83 99
64 50 81 94 52 62 76 51 89 10 66
58 64 84 25 73 37 29 85 85 20 77
35 40 62 61 87 47 77 91 32 67 65
52 66 81 69 41 34 45 14 46 67 34
36 80 96 83 53 92 71 59 83 87 68
44 58 98 27 76 18 36 27 21 87 74
95 81 78 55 61 11 91 16 72 89 68
42 23 89 51 73 57 24 82 86 62 81
49 62 30 25 60 50 36 69 72 29 40
81 84 36 99 41 80 88 92 66 26 85
21 63 98 24 46 59 79 49 38 85 47
30 80 36 85 47 94 30 57 58 92 45
43 88 80 85 26 56 44 96 33 66 77
59 98 49 92 70 28 83 16 55 36 64
98 10 21 11 97 33 77 44 79 19 62
86 13 68 67 24 78 34 19 19 49 21
83 61 17 16 37 77 77 55 42 82 77
72 57 54 95 15 13 91 22 90 99 77
14 40 72 33 43 84 57 95 80 10 78
28 79 33 90 65 97 33 28 30 89 86
13 44 52 67 64 78 31 90 71 97 54
36 57 16 12 23 78 85 40 83 71 100
45 21 55 67 93 80 95 92 47 17 86
96 31 14 80 21 46 53 40 27 27 33
74 52 54 13 49 96 58 62 33 20 93
25 39 28 94 68 27 12 38 71 100 56
99 21 25 79 47 48 22 71 36 37 57
76 69 33 49 85 92 34 33 88 87 11
45 53 85 24 57 42 54 47 47 62 63
32 64 27 70 58 40 99 97 36 48 99
82 23 71 13 30 56 13 26 62 26 32
43 39 21 51 79 56 36 20 81 61 100
43 55 57 74 61 99 27 95 55 10 41
54 60 17 44 47 88 95 81 99 58 39
20 79 68 27 16 84 68 35 57 94 35
41 37 57 48 18 63 88 30 25 74 56
51 95 92 42 55 37 70 79 52 61 28
31 98 62 78 51 34 91 56 70 74 73
43 54 87 65 53 12 82 13 64 85 38
76 72 70 96 36 36 30 70 13 10 87
45 73 79 34 20 61 61 38 75 44 85
56 11 62 82 77 48 71 92 37 60 46
50 96 57 76 85 61 31 40 93 53 69
99 25 37 84 22 15 14 58 100 18 54
22 70 65 12 30 80 68 24 17 75 52
96 90 30 22 59 49 45 59 71 24 72
0.266916
0.430375
0.268344
0.133517
0.381334
0.132834
0.186448
0.361692
0.410224
0.499654
0.325465
0.321021
0.478104
0.105376
0.383518
0.188791
0.388597
0.43366
0.443526
0.252319
0.392379
0.121562
0.228435
0.226515
0.208641
0.170419
0.31388
0.345304
0.2642
0.301537
0.174738
0.210404
0.136312
0.221189
0.390548
0.178775
0.258773
0.143159
0.104709
0.383847
0.131304
0.152347
0.193251
0.266555
0.27592
0.15302
0.127672
0.264575
0.204198
0.451834
0.307158
0.410139
0.280106
0.307519
0.451962
0.3448
0.400871
0.397393
0.134599
0.166675
421 435
187 67
469 340
217 28
95 200
421 248
312 166
486 6
218 130
164 39
133 402
202 336
74 235
285 292
239 292
199 24
136 329
348 209
341 228
315 80
488 441
439 100
215 208
190 489
407 73
414 290
147 262
375 23
405 216
384 227
13 384
182 140
313 430
333 484
324 52
483 21
366 442
119 103
317 171
129 154
355 339
253 101
267 252
145 491
448 84
17 386
179 486
436 470
148 387
481 349
437 355
23 83
449 460
324 161
131 12
328 442
92 33
218 483
491 319
224 468
4187.5
4
