60
11
0 0 0 0 0 0 0 0 0 0 0
62 22 99 92 61 77 19 51 54 54 63
36 30 75 37 12 62 97 64 71 11 46
68 36 38 59 45 74 27 75 53 61 57
97 34 84 16 67 62 24 72 10 77 71
66 49 97 85 98 36 40 99 92 24 41
11 45 61 46 73 46 20 21 93 68 48
100 18 69 75 17 82 82 92 40 98 100
86 31 15 78 42 47 86 67 85 62 21
99 40 64 88 21 74 43 72 15 71 22
91 57 33 68 47 53 18 23 34 54 42
94 65 10 13 46 57 72 74 98 72 24
32 36 54 61 29 31 39 54 76 11 31
23 19 61 43 67 50 70 75 45 11 11
52 30 41 41 24 13 18 93 14 73 79
88 94 98 16 75 60 35 43 86 49 79
35 56 83 64 65 22 44 36 17 72 31
26 51 60 83 73 60 17 64 32 58 86
40 70 42 35 71 51 38 17 54 23 50
18 71 67 93 88 63 99 12 19 15 57
89 21 26 84 96 48 99 85 47 59 84
81 77 28 98 81 53 93 49 14 98 24
15 21 85 100 30 11 50 42 68 79 31
83 30 62 65 22 62 55 72 54 37 29
72 52 44 14 33 83 60 31 46 97 47
59 80 51 28 67 59 20 78 76 96 97
77 100 79 81 39 87 94 70 21 26 79
59 54 29 87 40 48 55 85 48 69 67
93 33 40 87 95 71 89 99 67 33 26
46 19 40 26 58 86 46 79 70 23 83
72 65 14 30 52 23 66 61 55 32 15
55 55 93 16 40 23 50 97 88 26 100
44 96 15 56 72 27 95 36 69 44 19
36 98 27 15 43 79 87 47 44 69 67
35 46 41 24 85 42 77 59 58 30 44
13 67 29 59 75 56 96 49 58 13 36
35 53 61 59 64 20 67 94 17 33 65
61 58 99 97 75 35 20 67 76 65 66
38 98 32 23 60 59 94 16 40 74 55
24 90 30 40 64 29 100 41 14 29 40
45 85 46 77 72 38 95 53 16 33 64
15 75 73 26 56 16 100 31 70 16 60
53 29 59 94 59 60 66 23 87 82 30
47 45 95 70 36 88 22 43 83 46 48
79 54 17 40 92 98 39 85 90 54 78
60 29 26 11 39 12 64 14 36 43 58
72 99 79 82 46 95 89 38 96 37 91
85 78 48 82 80 76 48 83 94 81 69
58 74 15 15 94 16 100 98 92 74 84
67 53 21 44 38 12 94 93 92 32 91
35 75 76 80 29 14 21 98 83 19 54
62 47 74 73 70 93 31 48 80 96 76
42 12 81 51 99 20 14 87 28 47 21
34 29 65 92 41 79 51 81 30 98 98
62 82 10 50 24 89 48 35 41 64 15
91 68 59 37 27 67 100 43 15 22 62
59 86 65 30 15 47 61 97 23 51 100
66 49 40 65 99 71 47 76 11 53 39
74 36 79 25 75 18 76 28 58 93 69
90 23 84 58 74 19 15 46 47 95 23
0.328867
0.279804
0.179107
0.381098
0.417027
0.239609
0.442797
0.322443
0.247047
0.384317
0.279972
0.229941
0.106506
0.295044
0.208538
0.456108
0.223068
0.333509
0.218836
0.349402
0.386949
0.446414
0.318505
0.101435
0.222232
0.376021
0.140693
0.10069
0.118951
0.434329
0.439142
0.179522
0.474077
0.226593
0.478007
0.458283
0.498214
0.291758
0.455777
0.490594
0.34533
0.14969
0.166878
0.349243
0.230606
0.197231
0.194156
0.126965
0.391532
0.302416
0.305421
0.10645
0.207274
0.446719
0.389734
0.213924
0.355787
0.11079
0.324792
0.103422
146 42
159 416
198 498
309 33
383 189
324 122
171 473
68 238
111 39
479 290
334 312
16 25
366 487
6 27
80 133
389 312
107 145
330 173
87 473
148 439
457 242
42 345
176 202
4 87
399 300
435 424
125 184
26 299
55 381
162 329
108 478
153 96
316 229
37 171
259 315
465 318
455 359
287 289
283 410
227 427
305 153
56 212
461 379
292 460
495 86
257 207
276 436
384 338
381 115
418 189
477 413
421 388
126 482
159 492
131 492
378 155
25 219
270 364
321 340
459 197
4105
4
