60
7
0 0 0 0 0 0 0
94 78 39 72 10 33 37
99 69 72 30 98 80 84
74 48 80 59 74 46 51
10 99 38 47 12 57 45
18 59 17 53 94 98 16
19 64 70 33 82 50 55
82 22 43 59 80 62 73
56 31 97 66 76 13 13
95 68 69 81 94 97 28
72 72 70 22 46 85 27
34 38 69 95 68 93 44
50 90 68 76 27 68 24
66 17 93 37 59 12 50
43 44 91 83 28 22 44
11 30 11 92 42 66 29
20 80 67 22 16 23 82
62 11 52 96 93 49 72
83 15 43 72 29 21 62
89 31 19 87 14 21 13
75 30 58 44 11 60 19
22 57 39 96 71 10 73
88 32 52 61 99 80 64
99 86 88 79 65 96 60
62 87 86 86 70 92 99
84 19 29 41 18 46 69
58 17 89 21 32 88 77
73 35 84 27 59 33 31
86 23 45 57 20 88 94
40 12 30 13 43 16 83
80 42 72 89 24 81 75
66 13 31 51 29 96 87
31 93 37 50 44 38 84
55 98 52 78 20 72 79
20 39 25 83 44 18 68
63 26 62 50 15 95 49
58 67 74 74 65 80 14
47 99 47 56 63 98 98
55 21 20 37 84 73 88
47 32 86 12 89 34 25
61 73 50 35 90 65 83
77 82 16 87 11 91 28
78 38 36 29 46 80 76
53 27 63 71 72 47 46
61 73 71 49 10 76 23
13 41 98 70 15 59 42
69 42 81 64 37 29 33
83 54 45 70 10 100 86
30 27 17 52 50 78 76
10 39 86 85 85 88 53
95 34 81 56 55 26 91
50 79 60 99 66 67 64
36 61 14 19 97 88 36
55 21 18 100 83 20 31
23 48 13 26 80 68 30
12 37 46 28 48 85 17
88 59 25 29 77 56 45
65 87 19 67 67 86 52
37 65 25 22 10 74 16
23 14 49 35 32 68 83
1.63606
1.49351
1.10117
0.71869
0.819513
0.629774
0.627689
1.3003
0.963184
0.659783
1.82863
1.52836
0.797663
1.75695
1.63997
1.17886
1.50726
1.4989
0.58353
0.613708
0.736729
1.72683
1.60594
1.20205
0.563759
1.79007
1.2812
1.89275
1.28334
1.86582
1.08308
1.00828
1.9007
1.0496
0.641007
1.19193
0.6945
1.05013
1.92466
0.681275
1.41134
0.882876
1.27606
0.94827
1.10177
1.43692
0.559855
1.12598
0.790214
1.09249
1.78645
1.97071
1.41785
1.52038
1.00667
1.61596
1.51893
0.749952
1.33214
0.583693
3 185
81 42
192 219
106 244
219 463
80 30
254 331
246 212
349 19
378 322
367 283
351 102
357 419
137 344
142 284
139 304
152 303
231 48
321 320
64 298
264 305
0 321
449 16
434 500
4 361
224 299
51 224
272 82
136 401
266 207
88 211
23 187
393 348
316 175
343 125
337 275
75 297
44 1
304 490
120 343
426 82
410 153
70 97
18 350
403 271
128 286
491 452
383 164
144 460
115 363
298 248
321 335
394 350
279 191
155 67
114 218
270 14
403 50
412 191
29 9
8067.5
2
