60
9
0 0 0 0 0 0 0 0 0
49 81 25 29 71 45 98 11 100
70 72 24 84 53 74 39 53 52
80 86 36 27 49 98 88 99 14
42 97 78 97 61 43 64 88 46
39 73 23 81 84 25 72 33 64
69 78 33 68 15 98 15 28 51
68 82 84 34 92 52 36 81 84
100 45 60 43 13 73 44 100 77
19 85 43 64 61 22 56 94 16
83 15 46 65 35 24 55 18 42
89 83 41 97 82 74 22 21 46
37 62 98 15 36 78 20 45 40
99 26 57 72 55 97 83 43 96
53 100 70 23 36 74 13 25 72
10 53 65 19 78 99 91 75 89
48 37 92 32 78 53 61 52 98
85 38 72 45 18 100 100 65 72
37 31 73 74 89 15 34 79 50
81 57 74 100 83 66 65 13 57
64 31 80 15 87 23 80 62 77
51 18 13 79 78 29 73 16 45
48 10 17 71 58 98 83 80 38
22 58 28 93 74 61 77 61 20
52 35 53 96 37 72 96 58 40
81 89 77 40 25 60 21 16 60
76 60 86 75 55 89 72 78 14
17 20 47 90 80 36 64 50 17
81 38 87 73 65 31 76 12 73
84 54 60 24 34 31 42 80 34
61 86 93 56 90 79 60 37 16
91 87 96 40 68 53 24 79 21
75 94 49 62 88 83 59 100 31
91 43 77 53 36 65 28 84 63
42 12 31 48 39 59 22 49 53
27 85 50 67 11 80 13 31 50
17 36 87 78 89 14 85 89 58
37 77 30 51 29 37 47 81 79
94 50 23 99 62 38 10 48 86
87 27 87 13 22 52 84 45 87
53 17 39 57 19 68 29 31 41
68 19 47 42 22 60 71 71 100
64 75 62 56 96 15 59 25 18
64 34 28 43 63 28 36 22 35
18 65 62 29 22 78 53 66 10
22 68 24 11 26 14 78 38 15
67 24 81 47 53 72 38 45 72
27 44 52 87 72 77 40 95 84
17 61 28 19 23 50 99 74 72
65 43 75 93 94 24 18 34 87
17 19 44 72 52 47 69 18 95
98 46 37 41 62 49 34 26 56
74 72 30 58 14 98 14 41 63
13 53 97 54 19 24 76 49 55
55 81 22 66 55 35 38 98 49
13 84 18 60 64 63 59 56 87
39 68 94 39 47 73 27 59 68
33 56 69 98 75 27 42 83 14
40 17 40 95 90 11 16 71 12
78 21 81 50 97 75 94 86 36
0.223596
0.478202
0.294346
0.463079
0.342522
0.156932
0.404451
0.105319
0.271517
0.327832
0.356669
0.493454
0.412941
0.425949
0.285974
0.100687
0.434403
0.282458
0.471927
0.396569
0.103846
0.250737
0.319967
0.393135
0.169287
0.277228
0.256949
0.214986
0.377873
0.443344
0.347279
0.106263
0.116747
0.369346
0.201938
0.185147
0.469072
0.477402
0.281126
0.335936
0.411712
0.19009
0.198584
0.479111
0.319125
0.237015
0.455103
0.276986
0.147988
0.368265
0.454641
0.408458
0.156543
0.227606
0.38868
0.27499
0.233592
0.216663
0.287203
0.419541
302 363
88 266
497 406
200 234
11 480
430 157
268 131
269 36
214 197
264 458
50 165
382 220
220 432
70 287
404 419
114 22
16 105
188 261
137 378
118 11
30 303
268 252
466 500
343 71
83 312
137 14
154 30
13 29
187 432
328 58
324 353
90 52
395 500
416 293
84 196
362 108
182 492
123 405
374 5
286 155
295 323
460 302
416 83
36 291
428 233
339 257
46 433
341 236
70 392
333 407
417 0
78 302
211 197
157 436
349 273
217 355
297 49
132 195
335 153
255 41
4077.5
4
