60
5
0 0 0 0 0
24 56 25 33 29
38 16 29 37 69
57 24 33 18 23
86 71 61 19 70
59 72 39 51 20
41 26 77 84 64
93 54 41 41 89
99 15 59 49 89
95 17 41 14 90
94 77 96 88 89
27 74 49 57 44
57 96 23 45 90
69 86 82 32 54
26 99 23 20 29
31 41 64 22 83
24 19 20 25 65
41 31 47 67 66
65 66 96 18 69
63 12 46 35 25
55 69 33 95 69
99 72 81 44 58
77 25 55 23 64
96 58 70 10 13
21 26 59 91 14
50 37 71 71 39
63 44 86 64 49
24 30 29 65 16
75 31 82 64 88
21 51 40 88 12
78 32 19 77 27
82 65 71 21 77
21 38 60 18 17
96 17 40 21 13
33 32 76 82 46
89 59 45 16 23
40 85 50 50 39
69 39 72 77 74
66 35 62 73 17
43 31 39 56 79
57 70 40 84 71
45 83 89 26 29
13 59 78 68 83
30 91 93 46 98
17 51 34 27 72
24 93 52 55 46
83 14 70 75 72
79 91 43 89 25
56 32 68 86 18
38 17 52 51 50
60 96 75 51 48
41 14 58 25 54
37 50 10 58 34
32 67 12 84 40
12 46 28 36 41
47 63 19 82 19
24 10 13 46 62
57 22 18 23 86
80 82 66 10 63
76 20 86 50 13
0.17699
0.356211
0.445175
0.252001
0.297137
0.419222
0.105512
0.125311
0.237364
0.134377
0.193091
0.244213
0.374118
0.256074
0.126653
0.298266
0.42173
0.206881
0.14284
0.312567
0.393197
0.162249
0.294869
0.125952
0.19227
0.43701
0.172278
0.426091
0.130731
0.228786
0.444667
0.300081
0.437998
0.227176
0.367784
0.132618
0.499969
0.354084
0.206898
0.384308
0.227618
0.259324
0.443611
0.3003
0.300522
0.117684
0.310346
0.169279
0.344276
0.2345
0.182644
0.174204
0.490543
0.252585
0.470877
0.491992
0.290556
0.173173
0.159253
0.429393
59 157
493 167
405 385
474 272
67 175
407 392
60 398
282 269
159 481
196 483
316 439
389 454
496 190
113 493
241 135
296 28
201 437
44 407
461 328
56 19
272 101
239 167
28 500
476 434
125 458
333 332
171 429
215 268
128 242
112 100
373 391
51 268
237 191
303 361
362 390
224 396
460 382
414 390
296 418
221 458
37 231
167 497
394 487
359 64
93 210
317 492
398 171
454 450
232 308
178 258
191 69
450 476
283 385
55 223
458 267
463 327
112 476
395 66
170 188
197 433
7567.5
2
