60
5
0 0 0 0 0
23 87 58 49 94
90 99 88 35 64
19 84 82 95 81
84 88 84 53 38
97 59 95 70 99
70 45 68 79 12
84 61 81 63 48
45 22 79 48 50
44 61 37 92 50
62 56 69 98 42
67 74 21 61 52
52 70 71 46 61
62 38 75 83 92
37 20 24 100 42
34 10 44 75 62
17 40 82 57 21
64 23 59 89 54
29 32 43 50 25
92 16 56 95 42
62 23 25 67 92
49 93 48 30 76
19 48 46 25 25
44 89 32 32 16
66 64 46 65 88
41 60 20 75 37
50 72 28 69 27
20 38 89 53 23
82 52 24 54 84
26 79 20 45 54
33 70 42 70 32
78 21 81 92 29
76 72 68 91 39
29 99 52 97 13
17 38 36 12 66
55 85 88 73 29
60 94 85 59 42
46 78 97 16 13
28 43 45 10 14
95 74 98 26 20
37 71 89 86 50
49 37 36 35 68
23 58 81 14 33
86 17 75 77 74
62 96 96 90 69
21 82 34 40 89
68 48 18 37 15
16 94 21 43 63
54 72 48 10 47
56 72 90 42 86
43 88 12 29 47
18 100 79 66 97
34 92 54 53 55
36 49 39 87 61
91 53 42 14 34
22 51 56 53 78
47 98 92 90 13
75 36 46 43 66
31 19 94 42 24
79 20 15 20 70
1.1341
0.985347
1.3266
0.61101
0.666013
0.532319
0.59197
1.28419
1.28698
0.525033
0.716345
0.330834
1.20708
1.2689
0.993218
1.14757
0.671729
1.2965
1.15809
0.701259
0.437947
0.422723
0.400111
0.561202
0.325675
1.41925
0.501869
1.35187
1.36556
1.07739
1.0034
0.336057
1.04734
1.29702
1.16762
1.44111
0.75995
0.978065
0.894386
1.11909
1.11334
0.676586
1.18531
0.591516
0.631951
0.775922
0.525035
1.36222
1.18882
0.415788
0.576634
1.13451
0.922688
0.425453
0.438375
0.882668
0.693177
1.02756
1.19213
1.278
104 480
53 154
468 180
252 226
64 211
76 309
456 243
72 8
476 140
161 463
297 112
470 270
124 243
78 337
253 213
394 363
24 117
463 142
397 457
132 346
349 8
251 240
398 50
153 288
16 61
81 485
492 265
41 33
186 185
495 296
454 239
297 38
420 103
98 237
11 477
11 491
6 98
352 385
288 179
103 253
129 445
24 319
262 403
446 165
417 42
253 150
211 28
2 481
52 289
451 275
411 256
453 123
133 484
408 84
310 168
261 268
364 416
340 316
125 159
116 186
5428.33
3
