60
5
0 0 0 0 0
55 97 29 31 84
87 28 20 49 90
65 43 90 52 100
40 54 11 76 12
42 84 46 50 42
53 21 50 78 90
58 63 72 91 41
67 66 30 14 25
67 25 27 74 44
65 95 56 57 18
28 62 22 89 56
31 41 62 27 84
20 94 96 75 38
64 26 46 48 49
47 57 71 23 89
26 19 18 40 86
85 62 63 47 72
87 37 93 86 60
94 11 29 95 72
71 53 34 98 90
31 57 95 31 51
61 81 78 43 95
31 92 25 37 37
35 85 60 40 53
25 30 98 88 49
78 91 45 34 59
37 26 34 71 53
65 76 25 14 10
27 29 86 51 12
47 21 50 14 76
65 17 17 86 18
72 35 44 31 66
16 40 92 76 56
76 69 94 65 67
66 74 37 100 80
27 97 29 21 11
69 84 29 65 72
34 48 66 65 28
66 23 41 88 37
31 20 75 94 28
79 91 45 69 64
30 30 14 49 72
79 27 100 34 54
99 59 73 86 16
27 60 27 88 36
94 68 48 74 31
32 13 69 31 79
32 38 68 95 41
99 46 57 19 44
82 92 56 54 64
63 10 28 52 68
83 25 21 14 16
58 69 88 84 64
91 31 89 32 15
84 36 62 33 50
61 35 79 77 19
91 46 95 66 71
19 86 97 69 95
38 39 54 34 10
1.90395
1.07265
1.07411
2.18435
1.90378
0.754005
2.00436
1.71874
1.17533
1.31235
1.23372
1.19319
1.8973
1.5928
2.45846
2.20574
1.24105
2.08862
1.06883
0.999008
1.57856
1.08103
1.67409
2.03606
1.99503
1.73008
2.18947
1.47456
1.55086
1.47162
0.956372
0.965514
1.87165
1.42178
1.2235
1.54847
2.36617
2.35037
1.27132
2.23615
1.74963
1.46845
1.5157
0.66727
1.06
0.773703
1.21166
1.28107
2.08697
0.574144
1.18151
0.941541
2.14029
0.89395
1.83401
0.96599
2.48546
0.946491
1.50134
0.870138
29 5
113 77
173 286
228 341
58 333
417 486
489 158
275 386
32 347
426 299
181 371
2 191
41 317
231 236
79 185
34 138
122 109
462 366
156 315
200 86
188 189
186 29
109 198
434 64
333 127
82 262
80 388
493 384
27 380
370 448
127 488
304 137
89 245
356 78
280 493
412 409
0 97
272 133
221 134
101 434
414 23
339 178
213 236
392 63
223 211
135 404
117 339
132 264
182 47
50 29
287 137
404 35
488 429
55 118
325 445
260 192
187 439
275 87
430 48
393 464
8060
2
