60
3
0 0 0
27 29 89
47 36 95
15 28 28
95 39 81
20 59 19
60 31 44
50 78 38
51 41 53
46 56 98
74 59 75
91 14 71
53 38 89
23 42 70
67 58 21
78 77 23
49 37 96
47 55 19
28 72 70
74 67 81
91 20 88
28 26 84
67 85 29
74 92 12
50 36 17
18 61 78
54 85 37
33 56 36
80 11 40
100 35 97
27 13 82
55 38 38
95 79 35
83 10 98
75 53 85
73 47 49
49 38 18
44 97 64
34 82 50
18 30 24
65 40 98
83 39 13
73 26 72
23 65 61
51 19 28
79 89 16
32 96 88
93 18 19
70 55 61
16 77 19
88 19 67
69 53 69
61 78 23
28 42 62
61 96 79
29 52 74
12 87 99
65 99 98
20 100 11
11 17 23
1.27328
2.0927
2.46318
2.38447
1.80473
1.01473
2.36194
2.14048
1.83415
2.30092
0.689965
2.23683
1.48835
1.74196
0.870555
2.11662
1.33181
1.47286
1.21925
1.90798
0.522986
2.33218
0.907818
1.7496
2.34087
2.13369
0.885963
2.4493
1.98098
1.76334
0.760007
1.74063
1.33615
2.27079
0.719525
1.26276
2.30623
1.56156
1.25991
2.03172
1.49604
1.377
1.81395
2.04589
2.38476
2.30185
2.09957
1.02627
1.90374
1.00641
1.60507
1.46327
1.25421
1.54782
0.505756
2.03186
0.593763
1.18911
1.64897
1.18364
210 114
426 274
255 178
382 50
347 294
475 474
393 397
322 414
104 478
309 227
281 270
177 442
88 168
287 33
383 131
494 248
116 94
412 165
78 240
316 16
491 167
279 72
353 47
122 410
88 449
180 163
456 212
462 239
3 184
19 124
271 435
147 89
274 188
253 360
155 168
191 22
376 323
288 116
337 203
355 376
497 327
382 5
498 92
125 208
169 231
14 410
352 139
480 111
330 14
278 264
500 436
453 184
172 463
428 338
157 418
26 77
76 96
315 410
430 346
435 52
3978.75
4
