60
7
0 0 0 0 0 0 0
30 40 100 83 97 89 94
21 89 56 59 39 13 10
47 14 90 91 46 17 28
16 37 84 64 46 46 46
94 47 76 99 66 40 41
66 91 64 25 42 29 81
96 53 32 95 54 83 34
60 49 33 30 94 84 24
22 18 84 71 99 32 56
66 17 58 55 38 34 23
91 14 27 13 13 52 58
33 76 56 51 20 24 81
58 87 50 54 100 73 100
11 77 68 20 15 35 49
50 52 35 89 52 92 17
16 71 19 43 66 10 44
46 73 66 46 100 14 24
50 52 35 54 82 37 94
34 75 48 54 29 87 24
71 83 68 43 78 92 53
44 45 19 71 77 81 93
39 49 10 98 64 51 52
73 77 42 99 26 52 88
25 11 20 28 82 67 64
91 86 65 82 25 67 76
35 44 84 77 35 48 47
28 51 10 78 30 65 17
48 59 87 39 29 63 67
32 90 85 36 16 79 77
52 69 34 92 33 26 45
51 28 17 60 35 65 23
98 11 10 94 77 77 23
58 83 16 42 89 18 78
32 62 91 38 96 47 64
32 77 85 48 28 53 87
42 99 20 12 93 49 81
37 67 27 13 79 86 45
48 12 48 82 24 20 93
30 52 95 41 86 31 45
66 61 81 54 62 47 67
92 15 60 53 39 67 39
82 23 71 73 87 31 34
26 51 52 70 44 99 69
13 77 82 80 93 92 52
86 50 45 24 65 61 95
94 12 97 53 33 63 73
68 41 81 86 66 54 49
69 72 65 14 80 41 22
13 30 45 52 70 72 35
64 55 68 73 14 33 69
60 57 58 66 26 56 45
77 46 22 92 83 79 54
34 84 85 91 45 39 14
73 92 20 37 85 42 45
43 74 55 31 71 84 98
39 29 41 35 99 66 42
27 18 25 57 15 39 90
39 27 44 51 16 73 20
33 67 12 30 98 26 46
0.660031
0.346989
0.263971
0.888343
0.616461
0.937913
0.410676
0.359079
0.520591
0.597941
0.222018
0.608855
0.442028
0.262639
0.865045
0.807584
0.28101
0.255403
0.63051
0.226271
0.653928
0.961178
0.462655
0.49162
0.972585
0.922938
0.643291
0.445184
0.780123
0.245995
0.668067
0.933921
0.426242
0.564933
0.904963
0.495853
0.482488
0.582321
0.455849
0.768759
0.875452
0.623819
0.715394
0.481822
0.722012
0.599462
0.587858
0.281789
0.718025
0.948833
0.686863
0.22842
0.994538
0.646075
0.788866
0.493914
0.872336
0.988288
0.750795
0.86797
204 256
462 429
131 205
211 422
280 210
389 123
265 370
43 489
147 416
463 68
275 272
124 183
492 454
161 181
219 153
301 248
181 414
98 217
213 170
313 206
380 263
354 185
320 376
316 122
136 262
407 289
260 394
58 28
497 493
248 267
49 259
152 213
347 298
267 325
348 291
382 189
361 163
405 210
306 259
295 465
194 427
456 500
440 313
183 66
287 160
279 108
460 361
438 33
345 177
480 258
299 467
12 164
20 289
116 165
219 81
402 409
67 241
16 209
382 381
119 425
5341.67
3
