60
7
0 0 0 0 0 0 0
65 53 19 42 31 25 58
54 97 98 91 34 25 57
95 51 30 69 48 61 97
16 70 83 66 60 23 46
67 14 72 47 63 94 90
70 60 30 86 96 41 75
32 38 18 58 97 51 17
74 96 77 87 11 79 14
28 26 22 95 50 16 32
97 49 30 75 16 40 84
11 24 59 41 54 44 86
81 69 81 87 70 94 94
96 22 79 12 36 93 31
94 52 84 13 93 54 59
39 55 19 87 67 14 15
69 70 25 88 88 13 92
45 11 70 33 47 52 48
29 23 28 78 37 98 65
47 44 75 18 73 80 71
35 80 64 28 91 83 27
95 89 21 91 65 38 12
75 86 90 93 65 70 24
25 84 23 14 91 39 82
61 28 29 81 25 93 43
84 26 79 77 50 13 39
43 49 22 34 18 56 97
16 28 68 69 10 94 52
37 40 10 96 28 33 30
20 66 42 81 12 48 29
10 20 38 60 68 20 52
88 18 100 14 29 80 33
80 26 92 35 54 66 100
63 32 86 16 98 31 86
72 33 34 13 33 33 80
94 23 25 13 68 84 11
99 28 28 54 85 61 58
90 87 37 76 60 27 93
48 73 30 95 27 19 43
74 65 23 60 89 82 95
14 20 87 99 47 20 10
95 88 11 61 90 88 11
98 99 30 95 91 33 21
28 10 71 50 56 22 93
80 75 83 59 89 42 70
23 89 40 15 100 68 20
50 46 46 23 91 91 66
88 10 38 77 55 42 46
49 98 100 64 66 51 60
21 31 31 33 35 51 72
57 80 28 76 15 67 15
77 98 16 44 36 74 55
50 10 20 91 41 76 91
45 96 59 74 54 18 22
52 32 46 59 27 81 67
23 11 55 30 76 14 85
97 71 66 78 69 62 44
19 89 68 18 62 40 65
30 63 25 88 73 25 16
43 66 48 45 65 100 86
1.18187
0.664487
1.38712
1.10152
1.34553
0.811702
1.40231
0.433965
0.781321
0.756076
0.745299
0.441979
0.999139
1.1404
1.35566
1.14885
0.409873
1.41936
0.808912
0.787786
1.36171
0.845199
0.686106
0.770371
0.633862
1.09501
0.460761
0.916602
0.900474
0.616373
0.312755
1.41189
0.820462
0.384808
0.319618
1.26535
0.841145
0.724532
0.325871
0.708582
0.945076
0.931047
1.22224
0.727003
0.367108
0.750409
1.49316
0.776663
1.09936
1.14463
1.28576
1.13547
0.68025
0.451228
0.773561
1.33491
1.34489
0.530362
0.976925
1.46022
52 479
273 304
157 236
26 220
314 35
38 197
373 235
494 122
477 87
140 62
359 16
278 287
38 232
153 377
323 144
393 273
440 406
415 158
346 134
255 113
71 71
378 59
434 481
120 307
496 304
90 279
254 395
438 409
257 155
183 59
85 292
154 464
440 328
226 290
437 366
461 215
446 230
33 22
419 474
116 98
164 80
33 392
272 295
430 151
76 159
335 88
263 83
230 72
311 425
263 69
404 426
156 354
100 263
196 439
470 127
3 367
55 133
472 56
479 220
137 476
16100
1
