60
7
0 0 0 0 0 0 0
11 40 25 14 98 85 87
93 24 82 26 86 70 78
31 83 74 57 59 70 38
15 95 100 13 95 34 12
43 64 85 37 32 60 27
83 50 98 96 20 97 39
65 79 47 36 89 93 51
45 43 88 100 16 47 26
91 99 79 25 48 83 19
14 44 82 19 38 35 62
25 73 53 23 12 30 30
32 11 67 57 76 16 42
24 18 81 55 26 91 81
65 49 25 64 72 55 93
32 98 40 21 35 74 88
99 49 75 60 86 55 17
99 84 39 91 84 25 19
47 31 55 79 13 45 62
100 41 92 31 36 58 38
37 21 84 20 54 98 31
79 34 58 85 33 19 99
20 96 81 84 34 48 95
14 72 78 84 97 67 49
56 99 54 26 81 72 23
20 95 82 90 87 49 18
62 31 57 45 22 97 81
68 26 80 90 48 49 89
61 100 76 48 61 70 49
99 42 55 41 63 90 13
39 52 61 23 36 96 12
25 65 15 67 32 48 13
96 90 70 53 11 90 13
68 78 49 78 27 26 66
54 47 66 54 76 28 32
83 23 39 64 47 10 82
52 42 49 64 72 57 91
68 83 75 35 23 83 85
66 65 34 80 58 65 80
68 57 30 64 36 34 63
83 14 74 55 86 74 31
58 55 67 41 10 49 57
34 97 35 89 86 35 54
13 51 47 31 98 12 14
26 85 64 52 33 94 88
65 45 91 92 88 69 67
57 82 49 96 72 67 74
18 61 74 68 50 21 96
87 11 26 66 90 33 99
23 94 79 78 64 38 75
71 22 64 80 59 25 95
91 97 61 39 32 32 54
100 58 15 29 30 85 99
32 85 10 14 58 64 60
46 24 80 82 63 22 50
19 87 40 62 78 46 25
69 53 89 96 90 18 80
64 42 84 95 27 70 21
56 20 56 14 52 25 59
80 56 86 52 95 100 21
1.37662
1.05171
1.50743
1.96535
1.35624
0.905681
1.09539
1.07304
1.73779
1.67272
1.90956
0.812082
0.552896
1.31759
0.908563
0.908268
1.34298
0.911993
1.96037
1.39394
1.51424
1.95624
1.55774
1.51513
0.449625
0.745806
1.4264
1.55942
1.97403
1.42646
0.544969
0.757222
1.00961
1.10642
1.28093
1.15534
1.26668
0.613593
1.20875
1.20568
1.04343
0.519453
1.3603
1.27625
1.36153
0.953048
0.443109
1.82663
0.990229
1.26177
0.767923
1.93852
1.61396
0.683693
0.770019
0.441545
1.82875
1.74987
1.61184
1.22761
320 297
165 494
424 91
184 160
128 145
261 5
75 80
142 207
446 160
59 144
129 6
353 328
127 257
118 121
133 491
349 179
160 198
189 244
395 112
49 293
304 466
61 284
411 170
110 296
250 360
77 380
438 244
300 279
238 344
345 486
454 445
340 251
399 200
230 164
203 0
136 40
13 415
407 18
249 131
497 124
298 270
361 217
359 450
444 61
389 322
103 58
488 102
395 468
161 265
341 371
47 154
323 51
310 114
27 291
362 299
53 489
3 137
461 62
172 118
391 413
16760
1
