60
7
0 0 0 0 0 0 0
100 22 39 24 39 90 69
31 71 48 100 56 11 16
63 94 28 25 28 61 94
74 62 57 19 87 72 85
80 52 51 42 43 70 94
55 49 13 30 26 91 80
69 27 54 14 42 48 41
22 60 24 64 100 40 87
13 55 25 68 51 16 11
84 75 28 74 80 49 21
22 16 36 61 22 47 37
37 19 17 43 21 77 44
37 78 83 35 72 54 22
29 60 42 48 65 25 37
55 69 28 43 50 63 84
94 32 12 86 96 53 29
64 72 54 88 94 81 80
16 26 35 53 30 90 32
13 42 36 79 31 25 49
45 43 20 57 41 69 86
30 82 62 26 42 18 34
42 98 84 67 54 69 32
54 76 30 19 95 87 32
81 88 38 21 49 90 48
45 24 23 20 85 63 37
19 92 58 59 20 74 36
14 12 64 27 45 60 45
15 43 44 20 86 99 48
57 44 67 98 80 29 17
10 47 28 45 90 80 67
61 52 53 54 35 93 35
84 27 70 21 65 72 18
18 45 18 63 43 72 46
59 46 72 40 15 17 12
20 29 42 81 100 54 26
61 98 28 53 13 55 74
77 32 20 27 51 84 36
55 72 96 13 88 95 88
51 30 81 29 64 33 72
49 33 55 11 65 89 99
91 92 58 31 32 87 56
97 55 86 41 68 86 93
57 97 30 13 89 30 64
51 33 94 91 34 28 36
78 16 75 99 49 54 46
19 34 38 95 21 29 23
90 89 37 31 40 18 44
96 86 16 23 78 68 11
68 20 14 26 27 59 85
93 19 66 64 99 37 23
21 45 38 49 24 48 92
14 65 98 87 12 43 74
34 36 15 84 21 87 47
14 66 33 86 67 44 87
81 28 71 67 38 79 80
89 99 48 21 73 90 85
80 87 99 98 78 44 42
12 97 80 89 100 48 55
57 21 49 70 42 30 54
1.39371
1.15439
2.4315
2.17703
2.30594
1.84879
2.42055
1.745
2.44692
2.30262
0.762105
0.636625
2.20828
1.36837
1.20944
0.578407
2.22775
0.796098
0.795944
0.830855
1.67383
1.45921
1.52353
1.45548
2.33113
1.43469
1.30841
0.748152
0.947203
1.54939
1.56736
1.7441
2.29805
1.97295
2.07086
1.29907
0.974557
1.37493
0.91772
2.10736
2.25637
2.04357
1.62217
0.987561
1.24137
1.75901
0.835905
0.742849
1.57872
1.33959
2.09977
2.14039
1.16187
2.08075
2.04714
1.40017
1.7874
1.74875
0.763934
2.11503
148 27
94 42
155 93
78 317
463 7
343 438
39 335
69 155
104 61
415 172
341 431
220 185
219 38
161 461
316 144
191 417
425 436
223 142
193 341
344 461
496 478
94 205
230 371
475 211
183 151
176 422
311 412
39 57
346 455
419 348
424 57
0 378
41 246
39 459
132 148
143 159
113 16
467 51
300 225
453 486
317 417
498 388
300 20
166 96
417 318
98 315
156 221
99 8
7 175
97 401
433 211
441 314
54 453
55 220
366 177
164 329
418 342
474 257
50 375
257 190
15620
1
