60
3
0 0 0
64 98 80
58 68 24
76 71 12
66 71 39
15 77 59
69 55 62
40 45 86
96 53 91
45 65 23
34 85 25
79 98 93
64 31 41
53 66 27
46 76 77
39 49 27
76 83 96
55 63 64
81 82 85
72 13 54
76 57 43
100 37 89
69 84 96
61 36 20
73 75 49
20 45 64
87 35 98
100 87 32
46 98 50
95 34 74
10 37 21
59 60 26
58 97 53
23 81 100
23 74 24
43 84 44
98 80 16
85 85 50
23 98 67
64 81 61
80 34 45
57 86 84
83 67 66
21 62 95
92 38 90
43 63 56
10 37 93
64 10 27
28 69 63
97 50 11
33 76 58
79 65 57
15 99 54
90 63 44
79 58 85
90 15 88
15 15 36
52 48 76
60 87 17
38 35 25
0.746015
0.253335
0.603943
0.212301
0.266988
0.518219
0.286413
0.300389
0.372203
0.506628
0.839272
0.522734
0.249461
0.877047
0.742581
0.438118
0.646448
0.241135
0.334863
0.594265
0.202663
0.374347
0.266424
0.354809
0.898687
0.469659
0.575141
0.482022
0.631953
0.529219
0.49727
0.882259
0.945102
0.356988
0.602497
0.512196
0.686691
0.326184
0.916183
0.409969
0.391749
0.42335
0.958472
0.268578
0.302303
0.294514
0.288559
0.311951
0.384784
0.930015
0.735058
0.232575
0.791738
0.253544
0.963783
0.896412
0.90626
0.235025
0.709538
0.207773
211 411
445 224
223 411
261 425
285 423
447 65
382 97
319 146
364 369
142 367
266 387
370 335
96 168
82 494
16 113
191 333
156 101
180 350
446 143
40 216
173 232
410 46
383 38
127 220
302 287
476 226
466 224
453 242
175 328
238 286
458 396
485 370
291 51
290 125
236 88
450 453
159 67
116 218
239 285
446 277
201 472
439 133
403 177
304 13
320 95
342 298
307 244
56 49
283 184
55 190
165 440
84 293
386 341
302 347
386 160
56 85
419 328
83 363
172 318
246 128
5816.67
3
