60
7
0 0 0 0 0 0 0
75 80 68 52 76 80 75
19 29 79 87 57 17 57
60 18 90 16 73 18 28
42 83 98 88 31 12 20
100 42 76 24 73 78 53
74 39 47 39 41 11 30
61 56 44 77 80 97 48
32 76 50 14 32 40 37
90 95 19 78 79 19 55
84 12 96 70 44 90 68
55 82 72 76 17 41 67
84 14 20 38 13 54 72
16 31 24 83 74 35 88
73 30 81 38 41 87 40
67 82 89 94 54 93 15
77 100 49 77 56 50 98
69 89 58 12 35 53 15
94 34 33 31 14 47 24
83 53 98 32 29 28 76
92 98 92 82 99 64 69
84 21 39 95 71 24 27
29 92 11 44 72 52 36
65 100 81 21 29 47 90
46 72 15 35 63 58 97
79 76 83 25 57 46 88
41 70 41 70 50 53 100
52 10 66 25 26 74 23
47 28 73 22 26 87 22
12 42 21 90 71 100 22
13 86 63 56 63 31 38
74 30 23 87 48 16 30
100 72 44 84 10 19 52
54 81 15 18 83 66 38
21 78 41 46 98 94 64
44 32 19 73 73 33 66
21 96 92 29 91 26 64
48 90 30 92 59 33 94
66 52 30 38 26 15 62
63 56 37 49 11 62 22
63 82 76 62 88 14 54
81 12 75 41 29 11 16
78 66 95 99 97 100 29
16 81 24 94 28 80 40
75 28 69 96 77 11 95
72 84 70 34 67 90 21
75 27 11 70 51 48 85
15 83 41 35 60 69 36
79 47 29 11 70 27 43
60 61 84 97 59 87 82
28 65 34 55 71 15 87
16 52 20 38 51 24 82
19 99 23 33 18 92 88
64 62 65 11 46 63 15
33 20 32 16 67 37 87
95 77 26 77 54 15 51
18 96 40 32 62 98 86
81 63 65 36 66 49 54
59 50 61 22 100 48 34
69 24 87 72 47 27 43
0.255536
0.245752
0.17321
0.322922
0.202597
0.149408
0.433586
0.288099
0.19804
0.418737
0.457067
0.212863
0.388426
0.46508
0.315377
0.25805
0.335378
0.206886
0.341876
0.105117
0.285697
0.314356
0.430956
0.263329
0.239107
0.13897
0.25092
0.25606
0.256006
0.376655
0.115901
0.409626
0.246972
0.205212
0.129845
0.309832
0.296708
0.266918
0.445188
0.397384
0.397092
0.316888
0.253865
0.345303
0.399383
0.475908
0.226794
0.24785
0.174404
0.194927
0.188456
0.137852
0.155578
0.270329
0.273354
0.465397
0.463769
0.121506
0.214235
0.450319
2 1
207 164
419 495
318 216
251 399
70 422
117 124
251 284
303 274
496 225
112 488
293 69
269 410
460 92
421 383
38 188
293 490
391 404
246 347
271 137
395 86
10 313
38 367
255 320
399 431
392 497
433 339
124 7
246 213
90 419
87 450
10 114
410 87
268 491
348 206
6 429
252 71
253 212
119 422
94 220
280 497
5 295
366 397
38 433
189 467
248 469
442 29
451 212
164 276
85 387
114 351
127 263
300 456
152 357
338 83
82 224
188 171
375 87
287 428
499 202
4032.5
4
