60
5
0 0 0 0 0
38 76 18 13 82
39 33 92 28 51
96 100 53 22 100
99 44 38 87 60
47 86 82 20 52
91 32 34 36 36
21 57 61 60 43
82 43 43 15 95
14 54 72 89 15
84 16 44 93 89
45 55 20 97 44
37 25 53 34 34
95 66 12 18 98
40 89 61 62 71
11 61 11 63 74
94 44 98 58 80
29 54 72 83 28
74 38 31 29 53
72 14 90 76 62
20 51 27 51 70
72 85 12 90 39
57 77 63 78 58
82 95 20 63 95
72 73 57 32 24
36 58 69 55 76
16 32 68 16 83
28 75 93 25 29
96 100 33 97 18
52 98 63 88 67
61 33 47 51 65
39 83 10 99 87
91 88 87 46 60
62 38 37 77 64
31 93 52 44 100
20 52 84 22 11
25 69 29 15 79
76 85 11 80 96
72 17 86 51 49
78 67 68 12 62
60 41 55 34 30
25 55 85 86 13
68 47 59 45 62
36 60 13 56 70
26 17 15 95 40
37 27 58 31 73
43 89 14 47 91
53 43 15 51 24
52 25 13 25 28
67 39 54 84 10
100 93 36 95 61
24 93 70 35 61
86 81 46 70 25
92 68 34 34 37
58 83 41 43 95
99 82 84 54 25
50 22 66 20 53
25 28 70 41 69
11 71 27 11 18
48 57 63 98 74
0.776791
1.24493
1.47581
0.516326
0.776639
0.626713
0.936861
0.303988
1.36792
0.545935
1.26813
1.18364
1.42614
1.17989
0.550963
1.03477
0.854811
1.21881
1.2905
0.970547
0.367766
1.07866
0.608839
1.11829
0.476983
1.07762
1.09337
1.11416
0.97575
1.11376
0.891525
1.45171
0.847503
0.383637
1.46253
0.34644
1.24754
1.14486
0.925189
0.367421
1.18889
1.29045
1.02009
0.425972
0.575026
0.843015
0.434229
0.757291
0.894123
1.11326
0.454629
0.992635
0.409291
1.05751
1.22212
1.28332
1.06126
1.33811
0.671547
1.32937
393 321
361 48
59 304
43 99
292 318
64 45
151 52
63 349
210 210
32 489
407 95
123 357
189 81
312 328
448 89
350 352
475 448
86 248
27 358
442 73
173 215
367 371
177 263
305 266
403 357
441 130
215 220
35 321
468 316
396 344
376 429
370 433
5 170
228 360
153 6
311 19
53 282
176 17
122 254
415 64
79 372
356 207
77 192
453 273
372 207
193 386
79 480
350 486
388 385
188 119
261 194
472 413
163 74
405 446
92 151
26 247
379 346
114 439
323 155
420 412
16135
1
