60
11
0 0 0 0 0 0 0 0 0 0 0
92 45 97 61 26 70 43 44 51 80 17
35 71 72 47 33 16 46 13 39 40 47
55 55 28 30 64 61 68 42 84 39 94
78 35 58 15 81 10 81 86 79 55 89
67 60 42 43 70 49 32 10 55 52 52
41 78 13 21 39 39 44 31 97 18 44
51 100 91 99 49 29 93 41 20 69 36
72 69 77 45 23 75 58 16 54 98 18
15 10 43 64 86 26 47 40 90 38 48
69 95 58 15 12 68 20 42 52 79 84
71 73 28 70 81 27 21 28 48 90 24
66 86 65 68 31 62 42 53 35 86 56
56 15 31 53 50 52 30 70 97 57 84
52 85 28 73 23 90 32 26 77 20 79
40 20 78 90 49 21 59 48 72 98 55
69 59 48 18 79 72 15 82 57 85 50
88 79 73 78 85 98 27 27 10 67 30
69 54 91 26 10 63 62 89 20 70 31
66 27 20 41 31 48 52 33 25 17 90
16 48 39 77 73 92 59 74 26 15 19
73 58 26 100 38 74 44 82 95 90 42
91 88 60 27 76 10 64 47 64 19 92
63 80 69 62 90 97 24 57 33 53 73
98 36 59 38 36 94 17 89 43 79 34
69 52 66 65 25 91 36 48 22 58 85
66 55 66 67 58 62 27 83 83 50 15
25 49 47 69 38 100 88 51 89 16 13
80 18 74 27 63 43 76 74 24 63 10
79 40 17 34 78 83 59 98 46 94 13
68 31 81 94 26 51 65 100 57 90 82
39 64 85 34 20 26 16 63 94 26 86
45 74 99 93 43 66 29 17 41 100 95
58 44 56 25 72 19 96 27 40 43 81
91 48 84 83 57 90 96 77 48 20 56
66 27 16 49 28 19 14 76 58 63 27
61 74 25 71 47 42 59 35 62 53 66
59 27 36 21 59 10 47 20 24 69 87
39 32 57 39 76 88 30 61 78 34 76
73 69 30 46 75 61 29 60 87 52 63
24 66 52 99 51 47 48 18 35 74 70
16 54 71 61 82 24 64 93 29 38 73
76 61 67 16 17 49 81 29 53 91 15
36 99 17 23 54 41 17 91 65 77 45
61 30 53 63 90 75 24 56 73 96 73
71 67 93 32 21 75 85 80 21 95 28
18 81 73 16 49 94 22 43 21 41 65
25 33 81 90 100 47 16 49 85 93 55
53 31 27 67 95 99 95 93 58 72 46
28 55 77 19 62 80 99 43 25 10 16
34 46 84 23 48 47 22 12 64 75 47
36 63 78 70 32 32 93 33 47 46 87
88 41 25 64 83 87 28 52 44 51 53
95 13 42 63 76 22 18 89 40 49 19
84 86 37 41 30 100 78 56 25 64 36
14 33 67 25 93 97 61 19 40 39 10
21 56 49 69 59 44 73 40 20 31 42
86 42 17 78 80 70 50 12 99 70 15
73 13 83 31 67 65 39 40 36 84 32
74 78 22 31 72 75 80 72 63 86 50
0.398758
0.418051
0.753672
0.231349
0.380609
0.452029
0.884685
0.474511
0.473653
0.720883
0.914614
0.249577
0.980605
0.99826
0.318948
0.3528
0.215165
0.621057
0.434775
0.932491
0.888386
0.779408
0.332325
0.598395
0.765218
0.648248
0.933936
0.539965
0.295241
0.91198
0.774256
0.895913
0.506177
0.944225
0.263614
0.47356
0.853655
0.422765
0.446132
0.646664
0.608525
0.518998
0.887296
0.504726
0.985814
0.849539
0.531004
0.928894
0.901064
0.277344
0.719189
0.43957
0.282278
0.996831
0.981826
0.39639
0.613168
0.398741
0.995085
0.46617
86 192
79 428
228 362
241 96
304 51
5 239
55 436
194 436
476 322
74 71
15 82
187 251
375 290
168 393
62 201
31 485
1 476
422 472
122 254
95 210
24 163
331 492
428 446
465 182
184 124
442 63
240 18
125 4
416 267
36 204
57 402
292 278
104 350
145 90
477 153
314 471
453 489
164 91
141 163
115 8
246 337
56 65
229 278
286 282
26 179
122 482
99 253
283 151
223 140
179 416
127 314
47 492
399 195
18 384
114 261
133 135
128 371
353 39
492 153
386 282
3210
5
