60
7
0 0 0 0 0 0 0
74 48 76 16 66 49 84
84 82 30 14 58 68 43
46 32 47 53 68 40 53
11 65 74 82 95 63 79
62 47 71 38 44 45 78
61 10 15 47 90 88 26
99 72 42 72 100 32 79
68 88 20 93 75 93 10
26 31 35 74 42 41 72
15 86 13 95 43 97 34
16 83 70 30 71 53 51
86 76 78 79 97 94 67
19 18 22 59 53 76 45
87 17 62 76 16 77 74
89 13 92 82 21 45 28
97 50 44 11 29 69 79
85 41 15 44 28 24 52
72 73 81 51 56 92 63
84 93 35 42 31 61 53
56 27 83 70 68 29 85
97 98 39 90 97 80 70
17 76 42 58 51 63 93
20 93 42 48 66 100 10
73 52 30 91 19 37 98
75 56 69 18 21 57 99
24 56 33 91 40 69 42
35 46 78 60 58 32 56
99 37 29 41 68 90 100
67 60 19 76 52 15 86
82 25 74 67 88 95 87
40 53 54 83 73 59 70
65 73 11 56 85 99 79
90 10 87 16 25 60 50
82 72 99 30 58 86 99
27 27 69 56 50 72 76
65 31 19 23 52 90 62
55 87 32 90 71 76 13
91 90 26 20 30 40 85
10 65 25 77 42 29 98
69 28 50 14 90 27 61
63 57 26 21 84 41 56
17 40 72 50 66 82 75
94 26 70 15 90 80 57
10 76 93 22 89 35 14
97 48 35 10 92 77 56
30 50 28 81 53 42 29
57 43 81 18 74 63 72
37 41 67 35 58 41 82
54 17 22 53 73 85 95
60 47 36 42 21 48 92
56 73 64 79 32 18 29
14 58 30 58 91 10 80
34 56 12 64 42 45 18
70 69 70 89 31 76 43
24 27 93 74 65 58 37
89 45 61 30 86 63 36
50 65 14 44 18 70 82
35 96 41 66 51 58 57
80 18 86 39 43 53 90
1.80589
1.40715
0.521455
1.81616
0.642291
1.75405
1.87058
1.3005
1.13502
0.950162
1.09834
0.604894
0.705283
0.569674
1.51964
1.93638
1.63822
1.3459
0.770909
1.51583
1.35002
1.84552
0.691564
1.02933
1.18446
1.87506
0.761849
1.66669
1.81027
0.993595
1.57681
0.918389
1.45891
1.01963
1.90382
1.51576
1.0494
1.0255
1.76695
1.47273
0.854736
1.1943
1.56063
0.920795
0.93952
0.503538
0.802585
1.7846
0.634461
1.20622
1.70574
0.622465
0.736529
1.1741
1.18452
1.28509
0.982048
0.453318
1.38816
1.19116
470 72
233 179
176 456
409 17
268 327
498 69
375 46
336 441
103 354
316 283
198 15
104 84
433 261
350 310
16 486
280 280
466 266
20 468
483 99
240 344
465 70
422 458
144 92
103 256
462 289
63 275
478 38
92 11
427 56
315 212
45 330
470 195
87 469
271 252
460 74
274 67
68 384
138 403
306 17
155 116
211 71
28 152
422 98
228 450
403 410
220 65
435 367
394 130
81 358
237 443
456 444
18 423
299 330
321 491
283 191
437 108
344 312
76 198
8 133
52 2
16625
1
