60
7
0 0 0 0 0 0 0
41 40 39 43 89 74 78
46 79 51 22 59 90 23
38 55 64 24 33 95 88
80 18 41 47 68 74 38
37 97 76 84 74 52 71
94 56 99 90 48 79 80
66 77 72 36 69 42 20
50 32 99 86 95 21 94
26 78 75 29 16 82 49
99 42 48 12 28 87 32
82 17 17 31 97 15 35
82 55 34 83 10 51 38
26 15 30 14 62 11 25
37 74 88 76 63 49 65
30 61 94 52 13 23 58
15 43 77 55 27 73 85
39 48 75 73 95 64 11
17 34 13 77 17 53 89
99 10 10 41 62 44 56
36 97 95 29 68 57 73
53 98 74 73 12 85 16
50 85 56 67 64 63 100
97 50 45 97 65 81 38
89 12 58 68 67 43 18
23 95 91 59 36 27 40
84 97 24 78 16 56 70
50 21 64 22 47 20 18
39 33 96 87 76 40 98
86 27 27 32 23 85 57
10 98 72 83 39 73 90
18 12 68 94 47 28 55
41 54 98 41 56 87 79
46 56 18 65 99 10 39
98 97 39 69 57 89 40
40 14 88 32 66 16 17
53 66 33 20 27 16 13
30 79 80 66 92 43 43
98 38 35 49 38 49 17
23 55 34 12 37 47 96
65 27 46 42 43 85 71
64 21 31 71 95 71 57
56 80 15 71 54 55 15
22 49 92 70 80 49 72
98 81 74 23 41 55 96
21 15 95 100 74 14 69
39 61 84 71 52 25 48
40 94 47 75 41 98 62
51 33 26 77 63 80 80
55 56 50 30 68 46 57
70 77 70 62 14 58 16
57 48 41 33 73 91 64
46 34 29 52 45 18 46
63 41 87 29 65 97 37
19 67 100 80 64 36 35
17 45 21 63 86 49 52
43 55 39 65 32 42 77
21 50 95 92 56 100 24
42 70 58 21 77 43 29
48 64 40 12 20 63 34
0.306175
0.345059
0.624002
0.768658
0.318968
0.941326
0.253098
0.632462
0.617932
0.22941
0.467777
0.721657
0.959872
0.372058
0.814983
0.473153
0.311261
0.221026
0.487669
0.955798
0.268133
0.320638
0.797313
0.783084
0.401814
0.660866
0.614695
0.657459
0.575362
0.336486
0.70091
0.63229
0.664589
0.64511
0.997137
0.336984
0.223904
0.44052
0.819509
0.302438
0.23951
0.84227
0.62488
0.637647
0.993735
0.749827
0.700445
0.42582
0.75353
0.470938
0.465759
0.303613
0.689549
0.704506
0.379556
0.673992
0.509826
0.852685
0.280574
0.942388
89 135
181 61
231 180
7 482
103 240
348 470
497 58
287 370
410 21
113 250
404 268
445 20
38 115
420 193
346 70
126 213
493 380
72 80
445 210
205 447
11 87
406 251
60 496
137 89
56 286
128 176
427 283
133 89
14 481
438 482
51 376
314 456
171 236
384 359
178 47
181 320
223 169
373 291
397 114
424 450
496 347
71 17
326 142
266 272
20 147
295 488
264 421
173 301
201 464
111 25
344 371
485 410
384 80
15 174
7 85
88 459
304 71
234 374
432 126
97 290
4007.5
4
