60
9
0 0 0 0 0 0 0 0 0
40 98 10 57 56 43 41 65 52
99 91 34 11 91 71 17 38 32
67 49 23 10 96 35 44 56 99
60 98 71 32 35 44 95 13 55
54 34 43 90 78 32 57 13 54
66 60 94 87 21 35 90 96 70
84 15 62 39 31 93 59 42 91
35 16 52 94 45 20 85 85 14
20 16 56 97 62 46 54 26 45
78 66 49 86 50 31 82 81 39
69 32 41 61 63 44 68 58 10
21 59 16 14 63 26 74 77 15
88 99 98 46 15 34 32 65 57
55 65 24 44 77 13 58 63 71
89 38 94 71 59 13 63 42 56
48 83 100 91 15 24 22 38 36
42 18 79 56 81 67 55 87 77
62 40 41 78 11 67 93 35 39
52 81 41 66 83 89 97 43 13
69 50 100 89 21 60 76 12 36
27 17 22 24 22 61 83 10 31
95 100 29 81 18 23 34 79 96
16 51 86 74 64 36 37 55 100
51 69 82 58 94 82 13 29 25
40 19 67 47 92 48 85 67 75
57 92 34 44 37 79 29 95 52
53 75 62 85 54 22 100 52 86
53 77 32 16 45 33 43 51 59
18 54 96 84 47 42 97 63 63
28 29 58 56 17 78 83 88 14
78 27 99 28 99 12 22 39 58
36 65 32 83 42 32 65 57 98
10 52 47 55 94 79 27 70 57
83 62 10 40 25 71 66 59 66
12 78 19 97 95 77 34 39 27
73 57 42 63 32 86 32 83 15
61 30 28 45 21 21 19 38 35
15 10 20 69 95 53 41 98 91
93 93 39 43 47 83 81 60 44
75 50 86 61 19 75 65 88 77
10 11 28 88 55 52 43 28 49
75 40 82 68 66 66 21 90 79
14 54 98 72 96 62 91 97 14
98 47 99 79 83 52 64 39 23
83 28 13 90 86 15 46 64 40
45 61 14 58 14 80 62 97 18
65 53 79 81 52 69 84 82 73
25 18 96 98 23 56 79 16 27
54 90 19 65 14 48 53 65 75
22 87 28 36 94 94 88 79 69
83 49 34 93 74 44 69 38 45
14 76 19 16 52 29 56 75 71
60 66 84 88 58 65 69 17 37
42 13 23 66 66 44 65 47 37
21 43 15 54 42 29 20 39 13
86 38 24 64 12 98 55 72 76
54 42 52 56 61 82 95 65 81
17 54 100 11 100 94 26 20 47
91 27 60 32 96 14 14 35 38
0.404007
0.37579
0.212717
0.412381
0.135489
0.392148
0.433208
0.421384
0.302358
0.108228
0.181136
0.283849
0.284417
0.410621
0.168504
0.217769
0.279207
0.129709
0.156521
0.100857
0.126052
0.241192
0.474744
0.254975
0.145982
0.366
0.263709
0.323101
0.223387
0.170866
0.353203
0.482863
0.104762
0.264812
0.113567
0.444164
0.150671
0.14113
0.125217
0.445442
0.482846
0.147021
0.121741
0.337671
0.456795
0.473326
0.470656
0.457187
0.285295
0.235244
0.250565
0.359673
0.431881
0.400633
0.107715
0.353776
0.279877
0.133358
0.448515
0.168585
216 38
110 12
423 139
214 190
313 8
99 195
220 463
428 428
248 79
168 369
114 173
13 135
385 436
138 257
479 438
470 280
61 124
67 413
374 61
130 416
268 323
215 124
199 12
277 2
375 62
150 489
475 153
430 251
285 233
194 484
218 165
52 486
220 82
169 139
387 171
460 359
186 204
104 251
100 113
71 411
38 182
386 283
168 217
276 88
493 456
440 296
483 245
97 7
22 62
487 224
152 406
148 42
447 416
172 481
64 172
324 435
339 407
152 442
459 423
181 222
4030
4
