60
9
0 0 0 0 0 0 0 0 0
31 15 42 76 95 32 30 27 51
80 98 58 36 64 87 14 25 41
33 76 82 77 89 23 25 54 75
10 35 53 33 19 32 93 53 80
44 91 59 33 15 98 60 44 46
49 62 67 48 65 33 42 49 51
56 96 37 17 45 32 25 48 78
93 16 45 71 54 43 39 38 44
39 31 58 33 35 36 44 75 36
63 75 70 68 68 59 63 27 78
76 54 70 40 27 63 99 81 95
82 35 51 96 30 52 88 32 55
85 76 83 58 19 77 68 12 62
32 61 36 22 21 78 93 38 78
37 76 91 24 90 40 19 30 57
87 96 23 95 30 78 59 83 70
85 64 28 94 87 37 84 32 41
63 72 69 32 83 80 27 30 42
26 16 43 90 26 36 57 31 60
48 94 73 71 72 25 98 30 50
71 41 56 14 11 29 29 74 20
43 79 11 12 28 23 36 78 71
25 86 44 49 35 89 40 62 47
57 91 49 46 67 17 38 68 88
61 58 17 12 98 30 75 70 70
90 66 79 97 67 72 91 96 70
22 26 56 28 13 56 35 34 89
96 11 95 27 38 82 71 73 19
96 13 22 13 11 69 61 40 17
62 88 39 45 14 35 13 14 21
78 96 16 82 33 86 10 32 24
77 27 99 56 83 45 36 46 94
51 76 87 39 62 92 56 12 19
89 91 63 22 63 76 71 97 34
62 99 26 62 15 10 99 27 23
71 10 15 77 20 54 48 17 36
27 87 45 28 45 36 30 88 60
27 21 11 83 83 29 54 91 90
28 16 48 10 91 89 35 76 32
30 89 68 15 85 86 11 52 44
63 54 53 17 69 53 57 72 99
76 71 53 73 28 28 96 50 32
48 75 79 40 16 89 84 69 53
65 39 93 28 93 89 48 36 62
94 43 85 27 42 89 53 75 15
68 67 82 86 42 94 57 50 17
72 35 92 20 17 40 24 35 80
13 33 54 61 20 30 85 90 12
73 71 41 100 10 69 17 14 44
38 82 57 19 93 51 82 26 60
12 11 41 56 36 86 48 86 14
58 84 78 93 32 21 65 40 61
33 72 45 38 19 67 82 16 36
35 58 48 86 73 39 54 86 99
56 32 67 23 56 33 16 56 25
39 70 87 22 26 20 25 96 16
71 77 13 78 38 50 10 46 61
92 100 88 49 42 33 27 51 51
42 60 93 30 99 52 33 41 62
0.704399
0.780482
1.75468
1.08498
0.538697
1.76731
0.871936
1.10264
0.800884
0.602112
0.954986
1.00803
1.69017
1.44285
1.59406
1.66052
0.701584
1.97024
1.24142
0.93076
1.68638
1.99558
1.38432
0.440347
1.07967
0.979812
1.98188
0.693974
0.61649
1.8695
0.635202
1.97002
1.21715
1.86548
1.40224
1.28135
1.80881
1.58018
1.57351
0.764892
0.817029
1.63706
1.72542
1.3847
1.78227
0.533417
0.881782
1.71244
0.744722
1.95561
1.78846
1.32596
1.22721
0.437816
1.73758
1.51567
1.10165
1.49381
1.86048
0.740732
311 214
48 282
483 373
289 67
140 332
23 415
340 232
366 299
283 282
31 486
206 137
85 436
378 203
74 14
135 358
420 220
457 330
378 373
155 448
403 26
139 425
496 487
52 220
106 170
419 499
359 353
72 179
299 217
116 318
87 189
252 200
278 309
274 76
139 122
180 444
410 23
325 30
224 147
40 243
171 249
88 311
394 278
393 50
369 459
283 329
129 13
283 490
189 485
127 407
293 264
226 279
474 156
451 409
374 369
305 113
457 433
435 271
86 468
104 115
379 206
7837.5
2
