60
5
0 0 0 0 0
12 49 65 37 48
44 73 47 46 61
74 72 70 34 58
64 11 90 71 79
100 40 47 75 39
21 68 45 29 57
78 93 31 61 58
53 48 75 94 95
39 87 66 30 10
83 15 89 92 22
47 17 75 14 61
72 24 33 55 22
41 86 53 39 90
19 25 36 33 60
72 70 16 47 96
96 69 51 48 23
27 59 73 23 16
51 20 11 33 82
52 55 31 35 31
50 39 96 77 35
53 20 92 73 54
22 48 86 17 13
60 17 64 100 77
44 95 76 66 52
32 48 19 18 69
76 45 99 36 29
76 26 41 27 81
36 24 16 26 83
94 52 40 67 49
31 63 85 51 24
92 26 83 77 42
31 96 30 98 57
33 99 10 11 89
82 48 23 71 60
59 55 49 55 68
71 22 18 11 80
54 49 59 35 74
49 40 22 73 31
55 12 31 69 97
43 78 93 73 40
34 77 50 59 30
66 32 70 23 34
11 55 68 70 94
84 75 43 79 17
79 94 53 48 11
90 96 70 99 64
45 56 79 17 30
70 28 36 25 68
10 92 22 60 14
61 22 44 20 18
28 29 18 72 87
14 16 31 86 99
61 53 11 52 33
52 39 75 43 28
12 85 18 27 91
87 83 89 29 63
43 90 42 25 24
85 66 70 82 38
10 56 37 85 51
1.03603
0.464649
0.968569
1.65086
0.428503
0.801663
0.825592
0.482624
1.39056
1.59237
1.0272
1.22856
1.10992
1.43089
1.02816
1.68568
1.01568
0.563198
1.65064
0.493784
1.30825
1.38747
1.80205
1.97867
1.12302
0.953983
1.57089
1.97893
1.82312
0.573355
0.978252
1.80543
1.5124
0.757693
1.39235
0.818705
1.10053
1.50597
1.64445
0.728898
1.22873
1.40127
0.685235
1.36726
1.71267
0.471761
1.68224
1.79276
1.69725
1.69627
1.60262
1.47119
0.896359
1.0396
1.16516
0.837093
1.06285
1.6723
0.485166
1.45939
240 427
347 149
58 107
296 29
4 362
76 237
49 227
374 345
343 483
344 396
287 381
302 454
300 368
422 49
208 289
151 198
140 40
30 153
317 353
58 12
191 440
106 186
96 308
63 33
32 117
383 360
349 251
489 497
464 495
165 416
151 335
245 491
2 70
299 397
78 410
129 412
461 403
214 202
10 360
11 433
249 202
325 472
63 499
53 378
341 430
106 479
140 225
291 232
328 475
112 337
438 42
84 198
58 295
452 124
74 180
457 127
412 481
480 119
403 282
111 68
3090
5
