60
5
0 0 0 0 0
85 93 40 80 83
33 32 44 87 60
43 92 43 29 81
99 79 57 95 80
40 70 60 23 78
26 38 67 27 64
33 92 20 23 18
36 31 34 19 67
64 90 76 38 23
20 16 41 92 80
25 30 51 81 91
97 33 99 31 27
17 69 17 46 52
52 56 71 48 63
27 80 70 19 89
64 37 84 93 13
19 18 65 42 78
90 85 97 22 61
78 21 58 49 92
49 63 38 42 53
24 32 42 92 63
39 31 40 37 60
72 96 59 34 71
71 60 77 14 10
17 10 91 78 59
66 63 23 91 45
54 62 91 72 58
57 13 98 48 55
52 74 12 16 58
81 33 95 72 50
33 57 50 71 89
73 89 89 19 86
65 96 42 47 59
92 18 89 44 23
32 38 30 11 46
54 94 75 44 34
27 68 89 45 50
51 58 60 69 38
20 11 89 61 56
40 98 87 29 47
32 13 97 29 78
31 75 15 89 51
25 59 79 94 93
88 17 73 80 13
70 43 52 52 30
63 97 56 78 99
31 30 36 17 64
74 95 85 84 18
27 49 96 11 29
60 16 16 97 80
72 13 29 22 84
21 72 16 26 63
32 51 13 38 98
95 70 76 22 47
61 52 43 16 42
56 23 23 75 64
76 99 43 32 58
24 36 96 58 45
84 61 21 57 75
1.84733
0.723118
1.49113
1.74702
1.60211
1.69308
1.5373
1.28162
0.495616
1.14313
0.526175
1.7848
1.49903
1.19558
1.37095
1.19914
1.93447
1.29425
1.17145
1.74946
0.406021
0.951909
1.18305
0.505249
1.631
1.00813
1.22916
1.53761
1.04215
1.29662
1.56854
1.68977
0.952862
1.29367
0.806731
1.30057
0.898622
1.30922
1.76497
1.7752
1.27931
1.77595
1.3644
1.26122
1.79295
0.792685
1.74079
0.977848
1.47243
1.86552
1.90452
0.53586
0.716064
1.24992
1.06239
0.95422
1.31075
0.901694
0.907644
1.94674
369 171
142 347
447 378
404 335
133 116
11 275
293 387
467 1
486 347
19 446
401 140
421 16
128 392
395 338
110 461
98 113
25 298
38 386
412 222
42 124
416 65
141 171
34 490
71 367
282 303
308 237
341 292
52 462
278 87
270 375
479 440
324 410
462 353
481 50
375 301
206 77
20 160
185 168
338 182
275 425
73 179
202 23
298 317
292 119
483 343
94 345
185 153
341 277
231 32
108 49
112 148
75 344
290 16
319 351
304 301
143 48
98 249
309 30
248 65
286 0
5351.67
3
