60
3
0 0 0
41 24 72
16 64 68
42 100 61
38 92 67
15 39 37
60 72 88
62 13 36
16 51 75
18 66 40
10 66 47
64 71 80
66 76 61
51 59 43
82 57 96
49 41 50
50 80 75
100 44 85
22 65 68
55 65 48
86 63 89
65 82 72
27 97 97
98 59 83
27 28 12
18 59 87
44 81 40
56 100 36
14 67 85
83 96 41
92 31 28
44 22 52
72 15 83
76 49 20
62 23 21
59 86 61
99 77 26
23 29 67
79 93 38
73 48 95
36 59 74
65 63 31
48 21 100
88 71 23
74 16 45
33 18 52
88 74 91
98 92 16
67 20 11
24 25 57
84 51 79
63 91 87
67 52 10
80 59 47
62 73 33
96 14 75
95 96 11
90 69 16
31 33 29
39 93 71
1.2934
1.02046
1.98391
0.724702
0.930894
2.21972
0.647314
0.624113
2.2103
0.538732
0.632574
1.71874
0.675388
1.04618
2.4274
1.22998
0.998465
1.11218
1.33848
0.82267
1.91585
0.645818
2.2145
1.18051
2.08725
2.03112
1.84802
1.95261
1.05958
1.6701
0.588231
0.543075
1.86171
1.4875
1.16885
1.88951
2.41435
1.11668
0.675165
1.14078
0.549085
1.08493
1.24932
1.91512
2.2274
0.787809
1.7171
1.429
1.73579
2.45653
1.84726
2.05985
2.46222
0.926268
2.36007
1.4942
1.08114
1.62858
2.26953
1.40542
165 434
235 54
408 273
158 135
458 486
268 141
101 306
40 433
74 33
92 139
45 346
170 356
344 103
49 68
281 131
18 352
492 181
165 230
252 54
307 495
284 17
198 394
291 455
379 336
202 473
69 239
109 458
355 267
162 73
383 346
401 461
308 6
89 108
343 161
347 289
346 77
75 23
307 296
351 221
476 192
189 246
452 18
465 258
277 459
336 404
46 76
338 233
24 65
328 432
337 387
65 346
41 359
426 448
420 250
499 38
77 414
64 389
467 36
423 139
398 43
3370
5
