60
3
0 0 0
68 66 49
54 94 73
10 10 72
95 38 97
55 29 68
51 89 36
78 20 87
79 95 58
70 33 56
15 40 56
83 36 21
65 69 66
32 95 91
26 55 71
85 95 39
82 91 31
39 25 95
66 85 45
77 41 76
66 16 22
36 26 100
27 20 17
54 49 10
43 92 60
87 11 45
28 91 49
82 60 45
54 89 14
95 86 32
24 80 51
15 63 62
63 81 86
34 52 73
49 80 50
75 12 87
93 40 55
84 12 83
14 50 57
91 20 41
29 63 35
98 97 30
91 75 87
35 70 47
78 65 17
36 67 66
70 27 41
47 80 37
84 24 70
96 51 58
14 71 30
37 35 58
10 15 32
62 77 43
59 59 87
58 37 89
85 42 12
54 80 28
11 70 35
78 28 14
0.940826
0.485754
0.668796
0.946025
0.72633
0.572567
0.931095
0.274511
0.316416
0.308614
0.623868
0.434148
0.206301
0.81114
0.666447
0.507533
0.492282
0.248322
0.571817
0.911381
0.281802
0.773433
0.619303
0.916848
0.872408
0.344705
0.368492
0.851994
0.824896
0.773283
0.687284
0.458498
0.974215
0.446134
0.497538
0.605011
0.802322
0.428754
0.456497
0.537319
0.908066
0.289625
0.94532
0.856606
0.583506
0.943527
0.339988
0.577924
0.775792
0.913216
0.515376
0.602638
0.689232
0.714716
0.80924
0.417565
0.522368
0.930648
0.837745
0.415161
472 456
494 74
175 311
416 40
246 279
393 112
171 168
88 212
205 379
308 112
113 19
438 177
158 292
8 499
90 1
107 266
313 452
446 39
420 390
259 281
490 450
366 435
192 69
472 290
46 206
268 281
173 87
398 322
239 383
438 479
493 176
101 398
239 460
128 304
241 319
459 335
85 64
273 111
495 68
46 321
134 207
128 309
344 317
442 155
240 357
500 449
481 233
342 473
340 148
443 166
200 261
109 233
407 279
236 7
178 407
416 144
445 166
257 23
399 107
12 329
16310
1
