60
5
0 0 0 0 0
17 62 45 33 39
17 51 26 17 38
52 84 73 57 17
20 10 60 100 62
80 40 31 90 75
13 67 41 23 76
50 55 69 60 78
22 41 90 22 89
50 15 24 88 59
27 48 19 97 79
76 39 43 15 49
46 14 57 40 41
12 93 32 96 29
65 48 38 73 62
67 38 90 44 46
63 75 44 16 59
67 40 65 37 30
11 27 57 96 98
39 96 27 21 74
74 63 32 26 22
70 15 60 80 62
23 77 53 49 64
31 80 22 86 12
52 63 88 72 78
42 33 93 83 68
94 29 64 95 32
30 13 60 29 14
93 73 68 69 30
47 67 73 76 35
19 38 26 56 75
89 47 87 16 38
37 93 13 59 45
74 64 72 51 20
35 63 62 96 49
23 71 83 70 15
11 53 72 56 59
89 100 15 61 38
89 89 64 36 52
66 43 75 65 15
14 99 56 69 33
80 31 76 20 59
36 17 21 61 79
19 20 33 11 37
15 36 17 45 51
31 92 78 78 90
63 75 63 75 93
65 63 67 67 20
78 23 93 77 58
87 60 40 25 77
80 12 58 15 36
97 27 68 17 12
92 47 32 36 67
90 22 56 26 42
60 88 48 93 45
81 51 30 50 66
72 45 61 41 78
59 28 74 86 46
79 77 64 56 49
30 84 20 80 27
0.12917
0.24734
0.229532
0.350416
0.313436
0.335194
0.274141
0.442976
0.364938
0.489406
0.222388
0.165209
0.151278
0.156804
0.226957
0.43017
0.272769
0.185329
0.261714
0.46461
0.292723
0.308787
0.429547
0.212573
0.496586
0.25826
0.378151
0.45127
0.388995
0.112666
0.317265
0.391326
0.427406
0.131985
0.438618
0.493879
0.196766
0.432516
0.494395
0.186022
0.105185
0.312443
0.454375
0.264109
0.472707
0.450608
0.293374
0.452248
0.186262
0.309707
0.490252
0.439298
0.345317
0.135517
0.459168
0.359168
0.160312
0.399584
0.463628
0.483013
26 128
146 500
422 290
374 450
388 453
427 10
49 200
242 37
236 327
161 470
362 136
135 390
49 408
264 14
302 292
167 379
369 0
411 221
448 226
70 394
105 486
441 244
91 267
448 146
355 251
398 92
108 231
482 96
222 351
89 357
222 133
445 441
82 191
460 449
327 249
124 266
153 103
155 19
265 352
466 216
205 494
381 314
217 71
357 8
52 255
163 316
277 352
201 443
171 472
369 27
477 383
52 465
459 250
76 352
362 223
138 183
183 198
82 246
51 137
158 413
3915
4
