60
7
0 0 0 0 0 0 0
69 70 98 22 79 26 56
30 15 50 71 73 83 87
33 41 26 94 94 81 64
11 54 26 93 21 82 76
41 15 42 44 59 32 60
44 30 30 59 13 30 37
71 33 15 85 74 64 76
88 36 60 16 65 100 77
81 85 21 17 83 98 19
27 78 85 37 55 32 80
11 53 23 24 52 96 91
27 30 28 42 18 26 69
65 64 74 33 64 91 43
99 29 65 22 24 12 20
80 39 94 57 22 54 94
62 100 15 74 32 70 67
39 62 61 77 35 44 34
74 98 43 52 20 70 60
84 37 69 79 26 35 93
86 47 89 96 21 32 86
73 77 21 47 22 60 27
90 41 71 28 16 16 95
27 34 26 48 94 47 88
96 23 18 84 15 47 49
28 45 14 93 69 100 88
63 76 47 42 18 53 11
59 31 93 46 37 57 96
62 16 88 39 79 36 46
88 12 10 62 24 89 34
25 52 20 83 91 63 85
15 16 59 97 56 62 43
26 15 14 42 61 90 49
19 21 13 21 94 35 23
39 77 66 45 19 86 20
78 49 15 93 79 42 70
29 80 92 23 32 19 87
53 11 16 54 98 65 54
72 89 45 34 21 11 43
68 89 84 24 56 25 91
21 23 99 90 65 39 47
83 49 77 42 54 27 88
38 23 99 84 86 14 37
28 67 76 64 47 68 57
88 90 95 45 77 83 30
69 15 97 37 43 37 59
58 53 70 47 88 19 24
18 80 44 48 94 94 86
13 87 50 37 29 82 45
10 13 68 88 29 74 15
60 38 29 45 41 58 33
58 75 54 48 86 97 51
30 67 36 99 52 28 39
43 90 10 72 92 76 24
29 80 44 75 10 53 32
11 87 23 16 10 63 11
68 72 59 82 26 43 95
86 62 81 25 100 69 18
30 64 14 35 46 56 15
31 25 20 79 98 27 93
0.332611
0.141767
0.156232
0.185991
0.445206
0.166055
0.235949
0.289627
0.451163
0.452347
0.40288
0.354235
0.276144
0.368354
0.374109
0.246052
0.330953
0.302025
0.460472
0.241237
0.327831
0.437611
0.395081
0.290993
0.456729
0.205332
0.421601
0.230243
0.13703
0.41878
0.369687
0.150527
0.225732
0.306026
0.301019
0.419322
0.138753
0.250527
0.106774
0.11958
0.471003
0.279806
0.343792
0.306356
0.328521
0.14364
0.389213
0.204271
0.286559
0.104801
0.201864
0.206875
0.468704
0.445496
0.292125
0.360797
0.313253
0.205213
0.360529
0.308209
59 15
157 253
197 469
71 47
410 4
173 33
99 355
488 81
496 210
42 116
218 69
78 38
113 236
337 421
271 105
322 182
267 97
241 259
161 178
348 351
142 7
5 39
53 47
29 467
340 428
331 161
50 198
197 471
0 91
128 160
217 331
330 290
116 330
183 244
479 129
30 46
405 457
404 77
35 210
305 232
101 337
358 499
372 333
295 409
234 150
148 359
132 238
227 236
100 282
162 10
313 31
271 0
320 88
155 13
147 125
313 21
118 84
56 290
489 22
53 486
3128
5
