60
7
0 0 0 0 0 0 0
68 39 17 19 88 63 62
90 14 28 82 39 11 19
98 30 45 100 55 56 38
70 68 64 24 25 37 100
49 29 43 88 41 36 50
58 91 81 73 94 11 99
55 63 88 62 53 89 76
87 93 85 48 67 15 50
74 59 15 11 17 99 75
90 74 84 75 24 94 56
88 26 20 38 34 65 39
53 93 65 67 17 76 49
100 12 32 24 79 55 49
30 69 70 46 45 87 13
67 30 74 41 10 86 77
10 20 96 28 77 98 22
20 29 63 96 59 68 30
58 10 24 98 43 90 98
63 12 12 15 39 56 14
91 89 23 19 17 21 43
51 43 93 22 16 19 43
51 18 19 40 23 52 62
88 96 18 14 62 15 67
32 42 44 86 75 73 57
78 99 35 20 17 65 55
41 81 81 96 69 76 41
62 86 16 11 57 18 80
56 71 26 99 31 99 26
81 21 86 52 30 72 81
31 57 37 99 14 73 76
45 85 74 92 35 51 17
10 31 41 31 80 56 30
39 31 73 16 62 22 89
56 62 81 88 77 86 40
24 41 58 93 82 53 58
60 35 89 78 26 33 41
45 86 42 39 59 81 13
51 40 45 75 98 83 83
19 77 36 76 72 89 51
50 30 96 15 10 97 99
25 39 11 100 16 92 46
41 18 40 41 95 31 45
35 34 12 35 22 49 28
23 47 90 93 47 77 26
50 41 13 45 97 90 24
99 89 64 30 57 27 27
87 69 50 28 60 32 14
82 30 62 40 61 90 84
25 16 26 27 97 91 68
58 79 30 96 68 11 76
86 76 59 11 43 13 41
29 88 99 60 58 28 50
67 65 77 46 24 70 98
69 61 75 44 67 35 29
16 21 16 57 100 33 17
74 31 18 89 78 96 22
63 85 40 23 13 63 76
86 58 14 46 21 63 54
89 58 26 61 48 33 54
1.6316
2.27588
1.16671
1.85115
1.13686
1.85468
1.398
2.05612
0.673968
0.672484
1.95212
0.5851
2.18902
0.923563
0.715973
2.21311
1.92446
1.49706
1.30909
1.67296
1.76058
1.08671
2.2487
1.07822
0.75522
1.04067
1.3788
1.95255
1.94625
1.05512
2.10379
1.72481
2.38294
1.12739
1.44422
1.5942
1.89564
0.966802
1.75038
2.39693
1.99159
2.39603
0.775253
0.681045
1.37205
0.661727
0.539092
1.79179
1.2264
2.22011
1.29382
0.818548
1.52663
0.605279
1.63115
2.09022
0.678103
1.20062
1.62508
1.38759
441 434
171 442
157 444
240 363
359 48
345 414
124 244
474 184
431 465
116 238
297 152
44 98
260 208
432 4
237 236
280 109
312 149
30 432
35 9
137 304
447 417
419 50
112 381
432 486
206 181
282 287
413 348
269 461
128 427
393 405
269 466
186 252
440 339
251 450
126 205
399 29
242 121
21 350
260 78
481 147
342 362
214 75
383 483
75 471
21 130
310 355
242 130
358 191
244 233
290 127
368 81
209 499
191 67
57 77
27 6
142 208
168 288
183 183
29 119
497 334
7882.5
2
