60
11
0 0 0 0 0 0 0 0 0 0 0
81 58 100 50 37 99 41 47 13 34 15
70 69 13 70 67 66 76 29 100 96 68
76 83 40 47 75 61 16 69 53 32 30
31 53 72 15 13 75 89 98 73 35 81
28 46 94 79 37 91 61 96 81 63 60
53 76 80 23 97 39 96 33 98 84 73
96 88 88 29 17 56 91 49 40 11 28
36 16 77 90 54 27 90 16 33 67 95
81 32 30 65 48 18 75 97 79 89 38
90 61 47 21 34 96 31 95 15 90 82
60 55 34 12 18 16 41 46 33 48 47
37 81 70 58 11 38 10 17 95 84 47
47 44 50 64 32 50 26 40 16 59 75
24 92 97 65 100 88 13 21 80 35 92
37 29 10 31 85 66 93 69 10 19 31
95 24 84 20 59 88 62 14 34 37 31
34 26 22 61 57 15 95 99 76 97 26
84 53 84 98 87 23 41 62 36 12 22
33 49 44 10 47 61 56 53 100 42 13
62 51 51 50 56 27 67 70 65 83 10
15 98 35 20 20 33 100 28 68 14 23
10 68 16 44 16 98 42 32 93 93 99
43 21 29 56 63 68 31 13 70 58 84
72 62 32 92 72 17 100 59 64 44 90
48 66 13 28 45 95 43 45 73 100 69
68 18 78 37 52 84 73 58 43 83 14
58 55 87 40 54 42 60 80 17 29 33
99 13 47 86 83 96 51 76 93 88 52
12 88 51 39 73 68 33 71 21 80 34
65 83 96 29 35 80 39 21 99 72 32
96 58 77 54 81 38 60 71 20 25 65
46 90 33 14 81 50 57 24 100 63 80
76 22 70 95 80 77 88 69 97 70 87
13 37 29 61 70 94 30 83 37 59 39
93 60 94 13 36 10 76 74 43 81 26
72 98 29 66 85 25 58 22 26 19 29
93 33 68 61 97 77 88 80 100 20 100
32 47 15 85 11 60 84 57 93 38 83
24 18 21 82 64 53 50 54 16 79 59
69 60 57 93 21 62 45 16 24 23 92
86 44 44 28 83 85 37 92 73 74 14
93 18 74 87 18 95 74 75 100 73 61
14 88 33 88 69 67 73 80 40 27 62
11 76 15 42 19 68 100 85 100 31 60
25 35 55 12 90 45 59 56 75 43 57
35 52 59 41 100 100 78 71 67 95 26
37 16 55 26 14 56 32 21 46 49 59
42 81 81 21 19 88 27 67 68 49 73
90 12 38 29 100 83 22 62 11 97 42
31 64 49 89 72 45 30 26 14 81 29
59 85 73 32 83 74 69 44 86 11 68
59 43 91 32 47 36 70 53 38 68 54
68 64 42 75 34 55 69 29 60 21 21
38 39 87 35 54 66 14 74 90 15 55
40 23 26 55 79 13 86 17 90 37 68
27 73 15 70 74 28 75 10 88 75 82
46 36 97 86 52 57 98 43 65 97 27
94 96 96 45 32 60 65 56 80 38 27
18 24 77 96 79 45 26 60 80 35 86
0.899754
1.27475
1.32857
0.954698
0.446937
0.325643
0.755428
0.875085
1.34088
1.34093
1.14287
0.674565
1.41823
0.719182
0.625893
0.715958
1.2108
0.679897
0.594134
1.12242
0.688842
1.1385
1.3491
1.36604
1.03967
0.884009
0.367771
0.427888
1.03246
0.826837
1.35566
0.733169
0.353491
0.424352
1.13169
0.903129
0.562817
0.308255
0.471929
0.773143
0.472743
1.15738
0.928389
0.674554
1.02184
0.641123
0.948514
1.02608
1.46468
0.524656
0.662619
0.415848
0.863982
1.02643
0.469402
1.48046
1.42329
1.40338
0.974193
1.47288
374 422
212 114
173 438
171 373
58 297
396 257
6 225
119 191
187 41
398 109
364 351
150 441
56 252
211 138
22 166
280 350
365 3
100 97
358 42
369 412
194 485
131 393
108 296
430 6
392 80
360 328
452 297
163 126
244 19
445 355
160 15
193 474
417 260
161 374
79 215
319 307
86 498
345 422
7 239
177 27
108 120
195 218
182 336
92 203
180 159
278 277
484 418
94 232
182 54
319 407
17 44
286 367
308 485
430 192
299 111
110 353
242 77
121 28
126 186
194 144
5463.33
3
