60
9
0 0 0 0 0 0 0 0 0
68 91 10 40 95 96 51 60 10
75 19 76 58 44 95 48 13 59
16 43 19 15 33 34 19 89 90
43 54 56 13 29 77 61 62 20
100 67 59 37 23 91 69 73 63
16 98 47 91 66 52 28 50 22
63 67 100 75 33 31 80 35 81
80 84 29 46 38 91 48 99 97
15 98 57 33 19 40 39 100 46
19 16 66 47 93 71 100 30 20
53 79 22 23 31 37 46 34 65
97 33 42 83 98 59 44 97 91
100 76 94 59 15 34 33 31 14
82 26 72 15 70 40 25 39 49
46 53 22 26 52 48 36 14 35
60 88 43 12 97 70 61 67 67
33 31 84 57 95 21 20 63 61
10 26 38 20 73 79 39 61 11
40 52 45 38 44 92 17 97 99
76 17 26 43 27 83 37 13 98
52 46 99 63 22 47 79 64 29
56 51 90 31 25 58 53 27 57
99 16 92 65 11 85 100 13 82
31 68 54 71 32 62 57 43 23
31 95 69 39 84 12 78 89 73
83 49 41 66 65 28 21 96 77
12 98 69 32 77 97 39 40 59
40 64 45 80 51 100 77 37 16
63 67 26 71 99 86 23 29 49
15 57 84 97 88 40 46 77 61
74 83 31 28 87 62 72 12 66
92 61 32 71 54 21 60 53 94
81 12 55 70 56 24 36 81 31
52 94 41 22 31 23 38 84 82
25 93 57 11 63 32 17 50 93
99 82 71 25 55 74 17 37 24
96 77 45 98 89 10 62 50 36
39 100 19 82 29 86 93 75 58
29 66 23 76 11 51 29 15 50
92 66 75 98 70 11 81 50 69
55 31 46 36 62 30 38 73 17
64 100 82 51 92 19 81 48 25
44 84 72 20 81 73 62 96 96
43 30 70 52 63 97 69 23 58
72 12 18 40 56 30 55 20 68
59 87 94 16 25 44 94 84 69
14 32 62 26 58 68 12 77 39
33 59 45 51 44 36 14 85 58
25 80 43 36 11 27 72 90 89
81 86 74 37 11 21 42 39 45
67 33 63 76 60 29 24 47 85
32 11 71 84 62 96 65 88 95
87 73 76 98 37 74 98 56 22
42 79 19 21 41 28 58 66 97
12 32 79 64 35 97 77 27 57
68 97 23 74 66 25 77 16 43
41 19 78 83 51 22 15 26 53
36 31 12 55 48 42 96 77 95
19 84 57 61 43 66 67 60 46
0.3971
0.197352
0.369615
0.132771
0.216475
0.275175
0.461623
0.413782
0.154571
0.130469
0.399814
0.451183
0.496736
0.1191
0.29638
0.243305
0.127832
0.430943
0.376828
0.277718
0.376083
0.300762
0.406498
0.472551
0.176025
0.456785
0.142744
0.494155
0.323145
0.232985
0.284983
0.388697
0.155919
0.377507
0.249033
0.475595
0.244166
0.439143
0.461631
0.408155
0.443477
0.340186
0.107156
0.38286
0.4996
0.152451
0.138074
0.107761
0.117725
0.403091
0.493569
0.317188
0.27217
0.476385
0.14199
0.290893
0.12231
0.306542
0.402387
0.254668
241 487
56 256
226 256
269 192
296 361
272 213
13 46
329 83
304 13
341 248
57 225
346 164
126 307
346 194
23 90
110 223
5 450
295 163
266 110
479 401
342 431
277 339
305 23
229 17
50 202
460 325
270 445
42 244
151 172
38 20
498 176
142 28
60 254
281 213
75 493
427 299
295 238
406 341
393 205
412 383
373 271
25 159
423 151
111 59
270 54
180 431
131 477
160 36
303 72
442 335
309 269
69 158
291 24
25 272
348 203
386 150
356 352
469 88
156 45
112 131
4013.75
4
