60
3
0 0 0
61 60 45
61 53 80
19 57 29
79 56 15
80 11 37
39 44 88
45 28 58
100 42 12
36 11 12
43 77 14
68 31 40
72 23 99
22 46 52
93 12 15
77 50 65
82 19 32
60 65 72
97 75 30
43 19 52
90 38 37
41 92 22
26 10 49
54 88 100
89 61 83
40 21 71
22 62 95
20 53 60
44 89 89
83 90 63
24 67 76
44 93 23
40 99 46
28 27 57
39 76 43
87 35 49
30 77 28
90 34 93
45 92 36
99 97 84
88 71 20
23 69 53
17 39 27
27 11 11
99 63 30
62 47 63
53 41 80
67 84 19
55 66 41
79 43 79
74 99 27
84 69 61
40 48 89
94 40 21
33 95 13
67 75 92
13 57 75
60 80 38
14 93 66
42 44 12
1.82788
1.09373
0.726929
1.16107
1.90049
0.65193
0.59116
1.71169
1.85908
1.74118
0.868804
1.9729
0.733404
0.774253
0.576895
1.02989
1.8275
1.73306
1.00071
0.586774
1.02202
1.84951
0.626488
1.92191
1.49468
0.485112
1.226
0.585362
1.00981
1.24831
1.43965
0.670661
1.17924
1.8309
0.759068
1.09904
0.737032
1.31463
1.35412
1.10375
1.41298
0.578775
0.644522
1.47872
1.37048
0.919211
1.67445
1.68857
0.752606
1.24309
1.24884
1.56238
1.43878
1.31692
1.19297
1.06876
0.59445
1.12225
1.87992
1.53797
278 38
241 271
466 239
297 138
57 498
349 228
341 192
36 76
123 104
227 90
283 13
132 249
171 328
469 181
480 377
393 108
450 48
346 78
403 61
461 42
47 217
72 166
65 316
274 0
368 275
340 180
93 321
430 499
370 140
183 360
491 359
8 56
340 221
39 449
173 28
237 313
91 381
211 472
242 393
389 298
323 182
145 128
263 277
54 1
370 248
116 133
211 394
341 116
332 389
139 440
29 45
198 485
401 277
435 395
100 263
182 360
132 351
439 156
333 254
67 105
15975
1
