60
5
0 0 0 0 0
80 24 54 53 56
84 24 10 69 94
10 10 83 77 19
29 27 62 21 25
76 99 14 55 52
24 17 61 18 45
68 28 66 28 38
69 68 83 15 47
18 16 77 46 28
75 54 64 86 19
37 23 93 74 94
37 32 82 98 34
12 77 100 41 95
74 18 62 40 97
44 83 14 42 69
13 79 14 72 10
46 48 74 100 36
52 34 28 17 73
27 58 61 90 32
90 61 99 89 55
71 52 59 28 98
67 91 11 48 28
59 34 58 80 83
11 79 17 13 61
32 72 81 46 39
98 68 97 53 56
74 17 50 57 28
88 74 55 62 65
57 79 17 59 29
84 20 31 57 59
64 26 23 94 89
29 80 72 26 87
62 51 21 27 15
16 75 21 46 39
72 48 98 71 72
38 99 25 11 94
82 88 30 83 22
39 73 74 70 75
90 20 78 80 63
33 12 87 58 88
97 40 57 70 17
85 39 66 100 82
69 81 33 26 68
60 97 64 81 96
62 11 21 67 56
83 90 22 49 40
23 82 40 91 82
59 83 85 60 25
45 61 13 18 84
97 94 72 81 32
25 81 53 89 30
98 84 69 25 23
99 40 74 93 27
53 13 81 13 93
25 44 38 30 45
13 23 12 77 32
66 95 79 20 60
87 75 59 75 73
42 53 20 23 83
1.95589
1.45791
1.80452
1.49383
0.75864
0.929098
0.814272
1.93775
0.411096
1.649
1.69397
1.34587
0.504782
1.37291
1.39521
1.26209
0.476241
0.979745
1.63329
0.888702
0.846348
0.735303
1.76956
0.53884
1.71163
0.520757
1.91131
1.3032
1.04701
1.90425
0.673333
1.21158
0.894548
1.03036
0.77212
0.817099
1.17855
1.54335
0.570535
1.92741
1.80373
1.60951
1.2867
0.845112
1.04198
1.47145
1.54493
1.66186
1.33822
1.29449
1.69303
1.45849
1.62872
1.67931
1.42562
1.70122
1.38979
1.18441
0.781866
1.63937
163 378
451 417
447 118
219 240
215 258
451 301
15 325
416 404
68 155
312 329
192 305
183 207
429 100
126 408
190 110
67 209
51 39
215 430
150 92
348 76
449 367
48 141
335 285
369 56
152 238
449 246
135 199
44 444
197 449
103 325
347 110
243 29
97 274
168 199
320 210
167 5
334 339
283 45
67 312
316 203
355 408
11 381
409 155
268 264
294 27
379 378
82 452
244 435
74 127
134 414
461 455
491 347
67 456
253 169
373 460
411 34
277 156
279 305
363 115
289 489
4062.5
4
