60
5
0 0 0 0 0
47 92 54 99 15
69 31 79 79 19
19 13 45 60 44
25 31 98 74 56
20 45 79 74 70
43 75 65 82 98
26 27 42 59 92
66 20 42 10 56
20 52 98 45 57
46 91 12 12 37
54 74 61 13 74
35 37 73 99 69
29 72 79 77 10
10 24 50 86 83
91 80 97 69 37
41 73 27 93 33
100 57 72 51 57
92 36 20 89 64
22 27 23 77 58
35 55 43 94 14
20 79 11 32 42
76 61 84 13 31
40 29 98 61 42
59 21 77 96 11
54 20 44 61 31
84 80 38 55 33
10 43 51 15 78
95 65 22 66 78
42 26 37 51 29
17 95 34 58 82
71 58 67 86 75
91 54 92 11 99
31 81 26 22 84
14 15 27 97 83
37 30 41 50 13
89 38 100 93 49
24 47 60 58 20
11 80 21 18 48
37 53 75 87 74
51 36 16 98 11
66 78 64 17 22
97 68 72 35 86
22 38 71 54 92
16 67 56 61 54
11 49 45 33 42
16 53 56 61 76
35 84 12 83 51
76 48 74 93 14
61 77 83 85 47
63 100 35 79 36
40 50 52 44 18
48 82 65 100 93
69 96 48 48 21
50 90 94 43 85
54 61 89 43 47
42 43 19 34 49
90 75 83 24 44
25 77 25 73 68
81 87 89 45 81
1.27372
1.30736
1.40305
1.39619
1.28175
0.77812
0.324141
0.3246
1.40604
0.957489
0.998989
0.431776
1.04948
1.47515
0.764574
1.02231
0.958877
0.681455
1.06189
0.550495
1.37059
0.741015
0.492066
1.0553
0.679812
0.506556
0.989063
1.29236
1.0744
1.07729
0.768287
1.28056
1.29424
0.573885
0.406109
1.16698
1.3094
1.22948
1.20184
0.320438
0.509604
0.436935
1.49597
1.2936
0.870921
0.48272
0.551124
0.962535
0.32304
0.784672
0.667791
1.48828
0.604156
1.13783
1.46347
0.62784
0.827574
1.08256
0.514672
1.45757
8 329
324 332
118 305
204 371
93 27
345 142
261 254
50 117
178 103
195 195
82 104
285 463
20 363
419 203
80 205
144 261
281 354
354 66
459 497
181 251
272 240
300 40
212 127
469 492
47 334
131 208
204 115
135 255
141 237
100 40
100 17
172 213
71 240
163 325
262 74
25 199
355 203
141 473
327 167
24 274
349 352
51 457
474 479
468 79
399 105
153 411
215 464
96 41
59 487
13 294
91 336
500 365
442 340
451 217
83 182
378 125
240 470
473 293
41 261
380 17
5356.67
3
