60
7
0 0 0 0 0 0 0
50 76 29 59 91 87 95
44 27 80 91 80 91 27
92 70 94 71 44 24 79
55 40 30 28 52 95 14
27 99 80 24 19 57 75
53 22 10 90 62 87 75
79 73 26 56 24 70 88
18 62 64 50 76 29 73
58 50 83 59 41 33 81
26 14 22 70 45 76 23
46 47 83 66 15 73 64
68 86 39 100 65 27 35
23 38 94 99 38 13 49
48 70 15 11 44 35 66
49 62 85 50 38 70 49
64 84 36 39 53 12 96
48 18 80 47 17 76 27
53 44 36 74 40 67 48
61 26 52 32 24 45 34
51 36 75 52 93 20 62
62 76 31 36 58 99 17
99 37 69 65 34 92 61
54 57 18 45 75 25 73
68 83 86 18 86 31 93
77 17 71 50 44 26 69
69 52 33 49 97 55 65
72 87 95 90 26 45 40
92 84 97 14 28 50 60
47 14 97 87 15 49 17
22 23 25 33 11 85 95
54 17 66 51 63 99 60
38 89 94 51 68 43 38
68 57 41 56 25 65 94
93 47 43 70 92 71 22
64 63 77 20 82 86 88
68 17 89 63 73 56 47
22 86 44 83 11 65 93
46 73 97 53 92 14 35
15 67 42 87 98 87 31
40 27 31 42 51 87 32
95 67 69 14 73 70 64
39 69 52 11 64 73 99
31 84 58 78 29 61 69
35 29 10 45 75 61 92
58 81 91 91 50 11 38
16 81 35 21 51 69 20
50 43 29 70 89 50 39
74 58 28 16 84 62 76
54 49 65 25 69 62 66
41 78 76 32 55 42 97
19 25 39 92 89 15 78
43 39 53 96 34 55 81
83 62 65 88 62 53 46
73 24 91 61 70 57 48
38 11 19 64 63 81 93
42 98 47 77 34 34 63
57 70 43 19 63 91 59
15 65 62 23 56 92 27
45 100 34 45 50 55 98
1.94946
0.632651
1.82183
0.900945
1.4836
1.1197
1.27548
0.553505
2.34444
2.41036
0.569145
1.92888
1.46739
0.541378
0.680828
1.46045
1.35217
2.101
1.80002
2.06908
0.565119
1.10297
0.832572
2.10537
2.0139
1.46634
1.54321
1.64053
1.86897
1.29073
0.597324
1.72759
1.51204
2.42186
1.58577
2.36164
2.14795
1.46657
1.78297
2.49787
0.942715
0.784323
1.38883
0.824122
1.32733
1.97912
1.97893
2.29772
2.43372
1.64509
0.552962
0.926032
1.30916
2.23074
0.688861
2.28939
1.0034
0.567025
1.93349
1.52006
120 11
37 434
377 458
206 403
386 341
309 51
79 206
26 289
189 340
137 222
254 366
483 123
91 245
223 85
139 59
133 448
458 228
209 405
93 83
114 418
431 353
24 360
26 468
420 380
482 451
450 357
70 380
331 477
382 448
456 229
107 192
458 392
71 484
241 67
367 450
135 217
298 319
37 285
356 113
457 175
65 332
37 338
370 88
144 274
136 105
15 220
457 396
293 265
182 310
155 101
449 339
450 387
70 174
470 15
170 64
2 497
0 396
227 484
175 130
57 200
5491.67
3
