60
7
0 0 0 0 0 0 0
23 63 100 69 97 80 96
91 51 90 80 34 61 37
90 15 74 83 63 45 54
77 26 27 24 62 57 20
16 15 39 34 55 24 27
22 83 22 24 50 44 76
93 99 90 29 11 84 20
12 61 11 86 71 11 23
31 43 20 95 32 99 70
81 14 18 17 96 38 90
82 91 84 96 88 84 25
41 89 43 46 52 27 34
14 99 47 81 99 69 78
71 77 76 91 44 25 23
10 97 42 13 27 93 50
75 89 11 59 75 91 57
33 96 44 45 91 61 15
16 21 15 16 14 20 47
84 43 81 40 44 70 71
59 49 14 21 76 12 75
76 75 84 82 83 45 45
23 25 90 64 44 59 27
27 41 28 70 17 46 45
92 75 24 10 10 16 70
81 30 40 54 29 57 12
19 17 69 12 79 27 91
95 18 74 47 20 19 45
68 37 60 15 97 42 60
92 55 73 83 30 19 71
48 11 57 88 21 75 27
37 61 64 57 24 85 22
49 70 62 100 95 12 55
57 66 61 39 32 44 95
30 82 19 11 95 57 90
65 91 89 73 25 77 59
24 26 19 82 77 16 66
26 40 14 65 71 48 77
90 79 43 50 97 86 10
90 17 69 90 36 88 97
100 17 50 71 44 78 71
35 58 34 88 53 22 17
11 45 36 17 73 85 22
56 54 80 89 50 39 20
69 97 28 62 13 75 48
78 73 84 13 13 57 97
25 87 83 28 98 34 37
48 65 57 40 53 85 15
72 60 84 14 32 52 22
100 54 27 72 75 54 63
58 60 19 11 98 16 46
40 11 66 81 54 60 29
31 56 86 65 85 77 77
69 48 46 83 94 82 25
90 53 70 10 87 96 45
13 14 72 75 35 43 45
21 50 67 77 49 64 87
92 73 22 39 65 50 58
69 25 18 13 68 85 10
80 19 84 54 38 44 22
0.334614
0.538789
0.264292
0.536129
0.490617
0.263969
0.580304
0.523225
0.529769
0.986522
0.571585
0.935722
0.564692
0.254928
0.771516
0.200602
0.694723
0.80079
0.673636
0.906382
0.798638
0.32568
0.676256
0.741602
0.998986
0.504262
0.906154
0.846025
0.930347
0.543117
0.274732
0.756633
0.639723
0.332312
0.461026
0.78506
0.938699
0.949711
0.495027
0.755356
0.267896
0.251867
0.774654
0.922369
0.777141
0.616447
0.318948
0.29339
0.208781
0.584444
0.319068
0.761599
0.694047
0.87093
0.314468
0.400076
0.377906
0.286912
0.546803
0.265434
67 469
416 459
153 174
244 122
334 212
206 350
134 177
92 1
465 189
485 363
254 49
239 390
225 154
113 378
176 181
248 235
256 84
413 66
120 301
387 92
98 77
156 360
255 426
353 386
276 179
372 127
218 3
231 358
329 182
292 356
281 185
284 143
7 415
271 144
285 75
6 261
129 444
496 1
51 196
494 204
499 20
4 434
81 165
332 331
213 129
428 72
92 292
258 41
29 106
82 210
62 305
484 280
368 190
111 143
86 349
363 20
274 295
418 222
497 20
141 213
15800
1
