60
3
0 0 0
17 61 13
78 48 32
10 23 65
16 89 63
15 75 52
11 54 30
55 15 93
65 64 76
73 12 23
31 90 87
23 65 39
92 20 67
85 19 76
29 68 65
14 24 70
96 92 77
50 29 22
34 27 73
96 62 61
33 88 51
64 58 77
38 19 86
19 77 72
33 69 83
10 73 15
94 62 15
23 77 20
68 30 69
58 33 50
90 57 14
91 73 24
91 64 67
87 62 76
70 71 36
60 30 79
53 35 47
56 28 38
30 18 17
34 79 39
44 61 99
90 99 25
76 62 86
82 98 21
18 62 66
65 51 98
53 53 82
97 52 15
44 90 28
31 24 38
76 70 26
19 93 81
64 14 10
34 10 99
37 52 21
22 87 83
30 59 31
18 24 22
60 33 24
56 32 19
0.927609
0.570394
0.840244
0.501611
0.202474
0.343581
0.797683
0.605795
0.363042
0.695085
0.278768
0.690873
0.243429
0.468311
0.807248
0.685584
0.665589
0.654335
0.721033
0.989112
0.583143
0.465277
0.710619
0.479102
0.868876
0.880709
0.374641
0.652063
0.47584
0.701281
0.707817
0.682905
0.397472
0.357097
0.248327
0.484778
0.548659
0.406521
0.945255
0.883052
0.205062
0.443454
0.917397
0.648455
0.244987
0.605948
0.626489
0.501931
0.963041
0.661564
0.738183
0.268907
0.387986
0.299742
0.830726
0.730423
0.866286
0.518797
0.920763
0.392961
464 169
399 236
368 394
128 308
354 438
52 391
293 489
236 94
154 419
12 467
313 204
471 408
382 442
195 278
81 171
283 267
208 332
83 139
23 199
488 284
497 104
323 71
306 5
97 399
18 477
317 47
37 93
119 67
171 302
136 390
245 447
80 194
86 344
357 444
300 130
402 479
296 412
313 476
82 318
174 202
229 24
175 256
145 49
110 177
432 111
295 3
155 487
330 16
102 89
113 264
428 193
434 434
326 29
146 117
53 237
99 229
32 283
297 361
402 304
392 64
5115
3
