60
11
0 0 0 0 0 0 0 0 0 0 0
16 22 15 71 94 48 53 40 91 14 40
25 92 73 20 36 26 96 70 23 68 76
100 57 81 91 57 27 10 45 71 40 71
56 63 11 11 12 54 59 77 57 19 81
20 59 36 94 92 68 71 64 31 44 92
27 87 68 20 72 77 57 95 60 81 91
15 82 75 90 84 14 48 79 28 97 90
22 43 97 47 23 60 85 47 53 93 60
12 31 47 29 72 33 46 94 47 36 12
55 81 53 27 90 50 39 93 54 82 35
10 37 78 81 37 85 91 13 90 75 48
54 57 78 45 22 86 83 32 85 68 45
51 60 30 79 43 79 92 93 83 23 80
11 64 41 91 20 16 38 56 54 24 71
33 49 68 60 30 22 79 94 31 31 79
22 99 59 13 37 19 35 11 81 25 78
63 33 19 69 91 48 82 67 85 34 55
88 72 91 29 22 86 14 37 15 59 25
92 43 40 82 40 99 32 88 31 35 97
80 47 74 22 79 56 16 45 49 55 78
91 78 34 48 56 43 33 18 31 11 95
93 51 61 19 77 71 37 39 60 74 86
83 86 56 96 27 23 26 94 70 44 98
61 98 15 70 65 65 85 52 40 47 61
30 80 33 96 69 10 23 73 79 17 39
97 47 32 55 76 44 87 91 39 19 66
35 53 46 99 23 59 14 47 33 81 65
73 23 66 86 23 73 20 81 96 46 18
15 61 30 53 95 59 22 86 51 64 13
47 74 19 65 42 24 39 96 79 11 74
44 11 25 68 21 26 69 97 34 43 96
51 93 32 38 56 71 54 47 65 36 15
57 71 98 91 71 94 24 55 24 64 59
86 30 55 24 60 35 15 37 99 87 54
19 92 50 49 80 42 26 100 86 18 57
71 52 19 14 36 35 30 61 11 26 63
46 67 71 72 54 85 13 73 82 92 37
91 18 79 78 39 69 50 67 81 20 45
28 57 88 92 72 72 80 89 92 35 36
23 69 79 21 33 80 31 56 92 53 84
56 14 60 81 42 49 92 65 99 77 69
52 73 47 74 33 17 17 10 51 65 12
65 53 68 11 83 42 37 20 33 59 47
71 77 17 33 23 29 28 49 19 11 74
79 62 19 93 34 22 60 14 69 63 94
36 88 57 57 31 34 23 83 49 82 21
53 35 15 68 66 15 27 28 85 94 62
25 64 80 20 78 61 82 69 36 72 34
77 18 44 19 64 85 98 37 48 94 70
16 64 89 90 18 37 23 31 37 32 38
23 83 38 99 72 68 50 23 25 60 35
52 18 77 100 95 44 69 46 69 63 30
85 99 99 65 99 84 97 65 29 40 38
10 81 76 37 47 61 49 52 97 16 61
84 48 36 52 15 39 60 15 42 99 79
90 18 65 75 80 62 71 39 11 92 44
23 96 60 34 94 54 46 57 76 44 90
97 20 63 69 56 74 65 52 42 91 18
36 88 90 41 36 51 71 26 19 69 70
0.790897
0.903681
0.490245
0.462085
0.959399
0.78456
0.900059
0.72317
0.933728
0.963568
0.604299
0.236282
0.714379
0.346951
0.374469
0.533198
0.208131
0.490328
0.585877
0.596631
0.398593
0.479787
0.794694
0.294395
0.732499
0.624343
0.298161
0.316627
0.468128
0.576881
0.610951
0.391625
0.253079
0.338965
0.597758
0.224626
0.364176
0.298248
0.499086
0.452704
0.440683
0.47411
0.592035
0.278085
0.706062
0.951099
0.230551
0.266888
0.949461
0.279187
0.4921
0.414145
0.619914
0.451648
0.912678
0.965231
0.890993
0.605927
0.684437
0.965023
372 231
109 130
260 40
179 68
222 435
98 315
183 246
355 132
41 138
234 266
207 405
322 139
418 195
498 481
221 480
29 331
81 471
283 332
250 207
425 314
477 342
44 28
41 237
346 496
319 262
183 150
269 167
424 471
43 373
177 71
310 250
400 212
112 169
48 263
339 330
235 245
234 245
385 496
288 17
167 305
130 443
484 65
286 211
17 14
439 9
10 281
154 463
180 254
98 147
144 496
404 395
240 194
465 263
461 267
291 500
266 419
37 363
290 168
388 417
319 108
8095
2
