60
3
0 0 0
45 17 53
21 56 63
10 21 48
53 87 82
90 42 22
33 45 80
95 22 95
73 90 26
85 51 73
84 52 81
26 90 96
57 77 13
81 11 44
70 31 44
55 61 88
92 99 38
44 23 68
39 27 56
49 48 53
25 90 10
10 80 37
31 25 24
40 19 11
76 45 32
74 25 10
31 30 45
19 69 76
94 28 67
86 93 57
14 47 42
87 46 12
53 65 72
29 74 15
94 60 99
95 42 52
86 21 23
58 26 43
29 37 70
16 62 83
95 96 88
50 24 30
47 88 50
39 53 97
73 36 18
92 84 58
58 15 49
70 13 81
10 25 57
23 43 63
96 90 96
78 59 51
91 76 79
15 30 96
98 13 21
34 36 81
88 34 54
81 99 21
53 19 33
65 11 63
0.426348
0.264836
0.259131
0.129327
0.129763
0.422137
0.398764
0.449203
0.416459
0.23954
0.416733
0.417544
0.291998
0.110039
0.353663
0.263289
0.164544
0.259162
0.178208
0.171778
0.193725
0.175665
0.317318
0.41603
0.128481
0.245996
0.407242
0.327338
0.460837
0.422314
0.431034
0.232704
0.370277
0.262486
0.438459
0.144883
0.43471
0.350446
0.208836
0.487545
0.413866
0.239941
0.257711
0.483513
0.338459
0.380035
0.321601
0.24009
0.454295
0.26803
0.416912
0.197084
0.459696
0.451664
0.37891
0.238845
0.341345
0.353331
0.1936
0.272828
100 115
403 498
446 413
232 420
114 326
372 346
81 88
58 192
345 194
485 397
189 283
459 446
395 272
249 413
382 466
173 361
469 149
400 176
85 84
22 289
234 456
224 157
377 250
37 43
1 232
307 228
222 5
437 139
291 472
230 198
490 335
357 48
277 361
161 342
427 411
245 419
493 471
22 136
468 312
471 305
185 99
198 309
96 125
284 265
440 316
500 73
37 459
75 40
473 111
65 354
218 80
243 46
281 313
284 460
269 45
455 298
3 359
372 354
155 294
351 419
15785
1
