60
3
0 0 0
83 63 87
88 35 44
71 98 47
84 19 37
79 30 40
75 69 98
10 79 47
63 22 48
17 48 75
66 64 89
63 95 58
71 54 15
44 19 25
36 55 43
67 30 80
84 24 88
31 68 82
21 34 30
83 16 68
53 28 41
91 71 87
79 69 91
90 71 41
86 90 14
57 96 59
46 49 50
23 29 99
71 40 15
76 67 16
39 60 47
15 61 56
65 22 15
23 84 27
47 26 86
20 61 46
51 34 54
90 84 74
69 81 11
84 31 34
66 93 62
45 15 37
41 18 74
67 18 93
99 25 99
55 13 55
30 21 32
45 76 31
40 55 45
25 65 53
83 67 46
43 35 42
38 27 55
88 83 87
63 23 18
61 33 31
82 74 11
43 56 90
96 80 39
61 58 64
0.669853
0.709387
0.970172
0.289691
0.254998
0.756329
0.737865
0.4457
0.640429
0.230622
0.566774
0.587613
0.459859
0.481405
0.453116
0.935183
0.30107
0.879642
0.681962
0.231372
0.479727
0.505274
0.759187
0.607699
0.345807
0.876094
0.334345
0.354047
0.567062
0.431198
0.712158
0.609435
0.82375
0.586176
0.872691
0.896784
0.817886
0.626178
0.31974
0.402712
0.355623
0.611062
0.353323
0.536533
0.790236
0.27453
0.582555
0.208569
0.890221
0.53228
0.324266
0.216316
0.424273
0.366283
0.815202
0.44263
0.889175
0.882706
0.359882
0.542148
146 63
129 369
123 31
194 217
290 330
266 324
476 476
115 5
380 375
416 113
273 490
379 211
99 477
294 210
52 288
209 95
424 207
66 404
156 258
225 369
474 245
227 436
471 11
229 313
131 72
84 188
10 86
251 117
123 269
84 315
113 323
372 45
246 457
101 474
57 441
301 45
196 482
261 12
27 125
463 474
24 149
465 84
353 240
23 144
421 202
145 330
341 26
446 346
312 125
206 336
169 449
150 180
359 49
457 330
274 65
90 98
338 181
334 480
227 250
367 496
8017.5
2
