60
9
0 0 0 0 0 0 0 0 0
32 88 25 56 20 57 59 21 19
54 89 63 22 19 80 53 38 28
40 90 20 84 47 87 80 64 83
41 34 36 23 79 62 68 41 77
96 51 81 57 33 52 90 26 55
51 97 37 58 88 33 85 27 70
79 48 57 45 55 95 51 72 11
35 99 66 65 19 97 43 36 77
97 68 10 87 32 17 13 86 10
96 16 10 50 55 19 45 48 54
12 67 61 44 76 48 48 80 28
88 98 18 33 88 11 26 22 74
10 31 50 57 81 79 41 69 99
93 44 58 74 36 67 53 52 84
16 71 79 27 17 82 70 53 91
79 18 38 79 96 60 16 20 57
37 87 24 74 93 76 12 72 97
52 67 19 69 72 87 13 88 82
62 13 89 76 90 30 23 96 19
41 66 61 70 99 42 80 36 67
55 77 67 44 30 34 80 52 12
72 95 15 55 46 50 13 24 50
68 93 49 11 18 16 14 79 46
50 55 79 37 72 10 60 72 54
26 49 17 60 10 18 22 95 18
60 52 96 10 77 12 55 54 80
84 21 53 10 36 46 32 37 26
17 88 78 53 28 85 55 42 53
59 98 41 34 99 60 64 30 44
70 28 41 47 13 45 28 59 78
74 80 31 44 57 45 75 36 14
85 12 46 28 92 85 78 93 78
87 40 16 33 38 96 72 92 26
52 21 28 29 78 39 95 46 66
30 41 30 56 60 76 22 83 29
86 43 75 44 10 35 43 41 97
12 75 52 92 17 75 23 89 21
93 93 53 98 19 63 33 96 19
34 71 90 55 52 46 58 44 71
82 94 83 72 87 88 69 63 62
50 31 58 20 25 48 10 41 80
77 50 84 37 95 56 27 29 64
70 64 47 41 83 87 39 49 92
71 95 42 62 43 50 95 21 37
87 73 94 80 65 68 61 89 45
16 69 26 37 100 62 15 49 81
96 20 40 93 20 27 84 72 63
15 32 27 57 35 73 94 25 91
57 17 50 87 70 56 30 94 61
48 41 48 51 16 88 92 50 21
29 60 90 10 83 96 51 32 66
67 21 81 19 48 100 86 87 72
78 64 49 37 97 82 70 58 71
95 85 79 94 67 33 43 35 13
34 67 57 54 56 35 92 36 21
32 92 11 43 29 27 64 81 62
82 90 63 38 47 18 84 85 51
51 66 84 39 45 76 72 33 25
34 84 40 10 90 58 99 63 36
0.13322
0.226668
0.212565
0.25392
0.317857
0.322386
0.428304
0.111265
0.250373
0.3739
0.377217
0.121672
0.369639
0.159953
0.155893
0.452323
0.110837
0.370463
0.471814
0.132776
0.201105
0.235495
0.247267
0.146731
0.452064
0.343474
0.229232
0.369474
0.20566
0.176516
0.253098
0.47171
0.486272
0.444726
0.196325
0.247255
0.164277
0.428981
0.138466
0.241834
0.337333
0.412263
0.225423
0.311102
0.152254
0.305626
0.151581
0.381475
0.302982
0.410873
0.30849
0.469335
0.115588
0.311817
0.413496
0.101247
0.462503
0.394459
0.363399
0.132937
202 85
11 116
495 167
324 188
455 469
223 191
392 195
42 292
66 486
404 304
204 253
496 290
500 389
144 240
291 38
420 487
292 177
415 103
196 117
192 455
143 461
490 498
64 64
321 322
95 93
334 94
302 332
348 312
449 278
381 362
260 165
118 185
42 257
449 459
30 268
287 225
291 315
70 0
351 329
343 151
143 306
83 486
212 394
497 91
5 470
73 351
437 251
311 216
15 231
209 31
302 255
103 389
463 470
76 266
278 444
476 370
291 111
429 45
327 309
298 118
16225
1
