60
7
0 0 0 0 0 0 0
47 99 49 48 57 53 25
32 51 10 15 52 27 98
75 46 24 83 54 71 71
42 27 82 84 89 45 42
45 42 51 31 97 65 17
57 73 52 86 91 90 94
88 100 24 65 91 43 44
67 89 75 92 54 48 69
46 26 68 63 38 36 47
63 94 28 66 76 83 53
28 65 51 39 45 43 38
31 11 86 98 27 46 67
78 23 75 58 49 65 72
30 16 61 55 57 77 16
99 100 10 53 22 33 39
87 52 96 43 75 42 32
26 20 60 84 43 57 76
34 19 58 82 21 31 77
37 94 82 52 68 43 75
37 48 54 47 87 84 12
54 53 39 44 96 78 46
78 44 81 20 88 80 77
61 20 17 87 81 81 59
35 42 15 15 75 89 77
80 77 99 52 96 75 87
45 45 72 52 36 99 80
67 89 25 41 99 40 51
92 94 38 13 29 51 59
69 64 20 21 19 93 85
56 35 32 87 58 48 80
14 70 76 92 19 22 46
26 26 51 77 88 53 88
54 80 90 88 56 84 18
59 29 97 49 17 32 41
95 57 24 11 68 75 37
40 23 59 42 67 46 100
72 87 50 80 77 96 15
60 63 18 69 60 58 52
79 15 94 54 93 81 31
92 22 62 35 89 69 70
42 99 35 53 63 97 76
24 84 12 23 74 34 92
35 60 93 73 50 33 96
41 41 30 95 49 82 37
47 45 48 80 34 55 34
63 16 15 72 21 57 97
58 100 82 24 29 89 96
68 64 85 22 80 93 89
22 16 54 83 76 98 17
21 41 52 47 38 99 98
40 29 30 70 57 48 79
29 49 18 86 33 47 39
31 40 47 94 88 80 48
33 79 12 99 36 21 84
20 70 26 67 69 66 35
36 23 46 12 67 26 76
73 36 71 59 43 29 89
63 30 46 54 48 89 29
87 16 62 19 94 26 82
0.772062
0.833693
1.86893
0.692164
0.693375
0.556366
1.90454
1.13187
0.542898
1.46615
0.601724
1.25961
1.06286
1.83378
0.977444
1.57067
0.676801
1.28233
1.41859
1.635
0.805988
1.93703
1.5092
0.641246
1.41287
0.801974
0.682844
0.915374
1.99547
0.452164
1.77421
0.559095
1.68627
1.31888
1.28456
1.13887
0.868939
1.29261
1.93105
1.93418
0.942512
1.45666
1.16668
0.695082
1.74781
1.68868
1.43987
1.85248
0.9593
1.40023
1.63621
1.47776
1.4063
0.457582
1.95636
0.542567
1.03026
1.55197
0.988416
1.48381
220 220
33 57
309 159
199 125
382 64
389 49
466 401
308 83
265 188
104 301
438 319
167 315
251 281
478 212
62 491
14 52
95 389
236 203
366 402
150 305
465 137
196 307
37 120
371 354
13 276
47 479
373 133
365 177
149 235
116 470
240 265
311 371
62 43
257 304
160 102
62 352
289 381
403 470
415 59
331 220
98 257
417 147
327 247
400 47
333 151
493 25
481 302
361 491
29 229
256 52
448 259
56 138
169 278
484 479
79 245
389 474
206 439
272 234
182 200
349 351
16650
1
