60
11
0 0 0 0 0 0 0 0 0 0 0
42 56 28 71 31 45 99 75 16 73 81
71 17 52 63 19 19 30 56 24 18 14
32 60 65 18 82 61 70 47 14 30 62
27 68 99 50 12 53 79 73 40 82 62
64 19 94 16 46 68 93 46 49 46 71
46 37 20 43 26 42 11 40 47 15 19
100 22 16 69 17 91 90 14 38 48 66
40 59 93 85 19 91 31 14 20 46 84
56 49 79 92 33 24 90 88 59 52 90
15 14 48 52 10 57 25 93 14 72 25
30 15 45 18 47 29 63 15 77 32 40
40 33 80 98 47 43 74 79 67 89 49
37 63 24 52 69 35 68 90 31 50 52
50 15 16 76 64 88 30 61 61 61 26
81 100 98 78 32 13 36 29 53 28 15
67 99 81 86 22 27 51 61 95 34 10
12 82 82 96 48 60 28 78 20 36 31
66 49 30 32 66 86 87 50 82 32 75
37 21 26 95 21 85 97 98 17 55 65
85 98 66 86 47 93 10 56 80 62 52
21 68 55 88 96 84 79 17 96 58 36
18 14 42 30 91 86 93 21 63 40 60
97 58 65 20 81 88 100 32 21 69 97
89 94 54 59 79 91 33 26 60 98 15
57 92 47 44 94 16 85 96 67 77 35
40 19 25 52 90 52 36 22 55 29 13
80 63 49 81 64 41 57 59 50 46 94
43 69 41 33 33 58 80 75 53 62 22
64 48 21 85 64 47 52 23 30 74 32
59 43 45 54 59 38 37 55 51 69 17
83 39 67 70 22 86 24 49 87 83 41
56 90 20 11 38 55 65 25 44 60 60
84 87 89 49 35 19 72 60 82 33 15
42 64 18 68 76 70 60 84 45 89 75
93 97 37 32 45 79 25 57 57 31 70
80 70 66 21 12 80 38 52 57 92 76
21 44 86 46 62 41 88 27 70 40 57
78 51 15 46 63 61 58 51 39 47 19
40 18 42 34 66 67 75 20 81 53 63
82 12 85 83 87 95 94 19 70 21 54
62 84 77 29 14 81 16 29 13 19 18
57 39 88 23 29 54 39 35 34 61 64
84 12 18 68 95 99 64 49 58 95 99
30 74 46 71 23 66 60 47 14 60 48
81 60 82 18 43 11 40 25 48 22 34
90 47 14 19 18 41 44 63 76 61 84
92 49 83 47 20 74 39 61 31 75 44
52 31 14 35 31 65 21 89 53 67 22
70 49 43 90 59 75 66 63 65 19 57
76 34 18 19 56 41 38 12 27 29 41
38 94 71 15 37 24 61 75 91 45 63
14 86 12 22 17 84 87 88 45 63 85
43 57 42 10 68 26 18 37 73 84 15
47 15 63 31 96 92 99 84 75 49 58
68 55 44 63 95 56 56 100 99 12 81
68 64 27 83 94 46 22 74 41 20 35
85 78 49 37 39 83 84 37 81 75 60
65 53 13 17 33 33 66 24 68 53 95
66 37 13 10 38 54 82 54 56 83 44
0.108146
0.48088
0.28647
0.229301
0.266874
0.421529
0.450509
0.474171
0.41038
0.151836
0.308827
0.410255
0.231979
0.320857
0.454138
0.493793
0.485553
0.145491
0.242542
0.400422
0.42408
0.235189
0.358616
0.136692
0.107551
0.279214
0.127964
0.358912
0.448862
0.478021
0.273456
0.387735
0.113699
0.108416
0.183893
0.207956
0.162124
0.40579
0.279873
0.445351
0.121138
0.251024
0.330605
0.105265
0.376121
0.463468
0.185036
0.407798
0.452589
0.154425
0.465591
0.127098
0.406744
0.420532
0.172459
0.343877
0.429132
0.223144
0.469183
0.232357
41 339
108 335
189 270
347 167
473 392
334 259
333 195
375 456
190 76
399 291
168 137
280 369
450 211
370 4
103 204
334 41
203 395
463 14
31 456
89 58
136 3
145 134
397 347
485 5
321 283
144 184
253 194
275 125
269 194
327 398
467 79
79 335
289 118
248 192
38 167
442 166
151 480
275 408
224 431
161 385
359 157
70 382
252 349
367 265
377 299
75 358
17 442
413 392
289 168
410 352
144 478
272 455
123 466
385 412
196 485
194 300
111 222
8 414
207 491
320 173
5240
3
