60
11
0 0 0 0 0 0 0 0 0 0 0
20 43 90 18 10 12 47 19 41 64 58
29 71 40 18 97 19 88 75 45 62 98
81 38 81 39 97 65 56 49 76 62 60
52 18 92 43 82 13 99 83 24 53 14
90 27 51 93 24 80 75 32 33 42 22
18 52 70 31 15 75 23 56 88 61 14
63 50 90 98 96 16 64 41 93 75 37
82 35 66 68 76 77 15 42 50 73 76
48 98 74 14 82 71 30 74 76 56 51
90 24 45 74 44 66 60 100 84 16 72
90 39 78 83 100 40 89 83 96 90 19
80 44 41 43 33 26 89 93 77 12 84
14 94 68 67 93 33 46 90 81 13 57
64 78 19 50 45 71 55 22 93 87 60
81 15 100 32 60 65 23 65 92 66 99
34 12 62 80 64 49 92 10 87 65 84
14 12 76 34 45 17 91 78 83 55 99
11 45 47 53 56 57 21 83 22 26 29
69 90 51 77 71 46 65 29 35 70 20
63 29 73 16 58 31 58 52 93 85 93
61 24 73 80 83 73 27 96 34 89 56
29 37 61 32 45 24 45 76 28 31 96
55 100 29 58 72 19 41 15 36 89 94
67 48 17 10 29 52 30 20 80 68 14
78 67 66 81 87 99 87 65 84 76 67
13 81 85 14 81 21 58 27 67 90 72
40 90 51 18 24 37 23 80 58 43 86
44 64 13 13 12 45 15 84 40 97 48
15 60 56 62 66 33 11 55 96 19 27
21 77 62 90 93 96 97 52 81 32 16
20 49 79 26 70 92 61 81 25 70 95
89 76 23 64 53 10 81 47 13 40 10
87 54 52 84 86 76 22 82 24 94 36
93 91 18 46 20 38 40 72 90 96 81
59 42 54 52 34 65 47 45 23 34 75
88 97 29 26 20 74 29 98 89 37 55
84 56 84 11 42 93 45 77 39 79 23
22 100 56 64 90 100 82 65 94 43 85
25 59 46 60 47 11 79 61 74 34 100
76 54 88 99 40 45 32 23 29 66 67
13 88 15 19 69 75 37 86 93 60 78
32 70 66 47 50 87 56 25 13 15 22
42 67 44 71 92 91 95 65 91 69 79
29 62 30 65 84 38 87 58 33 77 58
15 35 77 84 87 28 59 44 71 98 74
72 29 56 69 13 76 55 85 97 81 83
19 32 17 26 28 96 12 91 44 68 74
35 62 86 33 55 17 99 67 99 55 86
66 14 43 64 92 53 99 29 53 35 21
89 82 52 75 66 47 48 100 13 16 82
43 82 60 59 18 44 56 94 87 81 64
89 36 84 61 80 75 56 79 57 95 29
36 40 94 90 60 92 33 92 74 53 24
15 13 14 24 44 63 33 65 22 43 47
77 55 66 69 73 61 19 34 18 23 62
72 15 29 80 93 62 69 71 65 90 67
44 55 66 74 50 22 17 14 82 92 47
54 63 21 78 67 99 85 43 100 63 87
86 79 40 44 47 24 15 74 76 61 86
0.881787
0.942345
1.41094
0.407648
1.02793
1.18307
0.493527
0.665949
0.82973
0.807782
0.989178
0.969068
0.835478
1.00762
0.39299
1.23055
0.80083
0.373775
0.614887
1.20973
0.907022
0.300701
1.18582
1.44258
1.03071
0.455109
0.725453
1.40758
1.34513
1.44802
0.929095
0.632504
0.626214
1.37449
1.15584
1.01694
1.22424
0.403825
0.446425
1.37168
1.08194
1.28762
1.21674
0.625617
0.985469
0.941893
1.10927
0.573382
0.612168
1.03873
0.709709
0.812166
1.43025
0.892183
0.669422
1.27966
0.910075
0.75763
0.978154
0.971422
447 434
41 185
180 8
293 98
22 430
390 464
379 492
470 283
403 6
283 108
256 250
128 151
240 317
20 159
59 126
18 130
215 29
112 32
413 120
8 261
257 436
313 217
250 38
380 451
368 0
442 255
402 188
28 205
112 137
377 61
36 11
378 256
485 23
19 303
172 490
113 227
401 173
215 248
235 110
126 428
466 332
313 201
360 134
104 289
400 244
203 399
432 384
181 72
472 18
373 148
464 433
427 437
131 153
182 203
500 115
208 202
55 482
471 412
495 286
387 142
3360
5
