60
5
0 0 0 0 0
51 91 68 65 91
68 38 18 40 30
76 98 71 99 84
69 37 68 47 49
43 56 76 66 68
42 88 70 50 46
53 13 71 67 40
78 81 70 67 76
12 57 72 67 88
56 53 39 76 53
65 55 83 31 84
94 49 72 31 99
50 76 95 58 12
87 94 24 91 85
49 13 80 70 36
84 36 60 35 22
89 47 28 73 85
59 33 38 34 59
27 18 76 20 33
76 69 59 82 72
73 90 44 64 61
41 19 11 64 87
13 42 69 49 62
93 85 43 69 66
92 23 86 94 15
82 45 35 94 65
48 77 92 88 96
48 69 87 65 80
36 21 91 73 80
20 48 47 65 93
16 15 70 10 77
56 22 11 90 67
66 34 40 45 75
75 13 37 18 30
94 56 19 37 64
49 80 83 31 88
10 93 44 75 50
44 34 92 81 78
24 36 69 51 35
27 82 61 37 64
99 19 27 76 88
81 28 97 87 97
19 84 38 61 79
55 95 75 18 64
94 37 67 48 98
70 45 12 80 98
51 96 77 87 93
32 88 10 80 66
42 62 22 48 77
74 82 20 59 62
33 38 54 24 11
67 97 42 19 45
69 75 53 60 95
14 83 91 100 73
59 63 48 21 66
86 40 35 46 94
39 32 56 20 52
69 77 19 44 38
98 43 25 81 62
0.469432
0.174594
0.246174
0.402003
0.40385
0.309451
0.148612
0.459375
0.288876
0.445762
0.275649
0.238744
0.298991
0.442844
0.145655
0.401856
0.121663
0.172291
0.416888
0.363205
0.129155
0.333664
0.319495
0.412286
0.455324
0.450872
0.41785
0.394966
0.239202
0.135337
0.341974
0.419585
0.111208
0.430239
0.163697
0.449537
0.400657
0.170277
0.480879
0.176236
0.144332
0.348136
0.497384
0.494764
0.388674
0.221327
0.419626
0.145356
0.400138
0.461917
0.165188
0.296175
0.338888
0.446499
0.268933
0.143405
0.394055
0.497523
0.299089
0.301028
360 332
150 12
316 418
124 22
104 107
376 117
403 50
179 165
343 197
128 429
333 333
76 301
18 351
128 222
81 361
340 458
467 128
251 39
191 403
54 190
6 0
207 385
366 412
113 254
20 277
179 489
41 465
361 1
343 232
116 289
201 65
286 369
316 396
279 313
485 356
407 303
428 325
182 13
136 408
408 304
198 394
251 133
384 295
213 315
410 38
160 275
200 369
433 387
352 322
321 274
106 108
429 363
402 454
347 416
207 142
461 114
397 441
287 181
295 143
221 235
4305
4
