60
7
0 0 0 0 0 0 0
86 40 49 67 94 76 37
92 15 96 48 36 74 35
47 30 72 77 71 28 91
60 14 80 45 62 34 29
98 10 49 58 88 62 16
82 100 51 26 19 88 48
97 17 78 27 92 83 72
54 14 40 10 63 78 45
88 25 94 34 61 58 93
19 87 71 61 100 39 78
71 20 50 86 33 34 67
43 52 65 38 58 72 20
63 33 76 24 29 55 10
29 19 94 46 17 37 41
16 52 68 83 39 94 96
98 34 28 32 10 93 98
60 98 89 37 96 36 87
61 64 92 21 29 87 39
63 41 49 85 98 35 44
25 72 52 50 18 82 58
80 25 67 30 88 79 47
98 91 52 50 14 41 22
40 36 95 57 36 29 21
80 35 100 72 41 95 68
66 89 37 31 38 77 31
30 92 82 15 76 13 54
19 37 28 97 17 91 38
52 79 55 44 79 68 59
58 79 54 26 65 17 68
32 48 19 64 34 50 90
50 99 24 39 56 100 100
91 93 27 52 35 58 16
42 52 29 20 47 77 43
57 61 86 95 39 14 78
32 70 71 58 34 78 64
40 24 28 90 28 14 33
64 48 16 67 45 65 23
99 35 19 31 42 67 33
84 100 93 41 89 70 10
81 45 82 85 54 41 84
66 65 46 100 36 23 70
22 91 81 47 44 70 81
35 46 41 58 36 11 36
15 17 64 89 99 48 43
40 12 99 21 17 85 29
96 15 46 86 79 74 73
18 65 15 23 68 80 76
87 81 17 63 100 39 36
77 95 17 27 89 76 23
71 11 43 42 83 82 57
51 88 99 37 79 78 48
35 43 39 27 71 39 62
47 70 26 20 79 41 52
26 20 96 75 99 41 85
85 23 96 47 33 39 70
15 16 36 56 70 52 80
69 77 96 44 99 34 59
81 12 65 52 36 25 34
97 49 28 89 26 84 89
0.123659
0.181221
0.432092
0.392753
0.123517
0.372855
0.240488
0.141579
0.11694
0.446413
0.290438
0.414855
0.422538
0.456816
0.265592
0.279052
0.15776
0.26118
0.113475
0.147685
0.266554
0.269285
0.404855
0.212486
0.486785
0.225288
0.135483
0.1081
0.475962
0.103393
0.157835
0.330886
0.173906
0.173469
0.489884
0.310417
0.415506
0.449304
0.122078
0.315594
0.255836
0.474743
0.366104
0.166727
0.344159
0.357521
0.483179
0.217264
0.122915
0.232451
0.36904
0.432454
0.449507
0.281752
0.277314
0.261954
0.178486
0.136654
0.376302
0.174494
191 43
253 294
465 179
420 498
212 288
394 180
16 219
198 62
4 282
462 469
317 235
463 346
349 295
411 255
229 477
477 387
276 257
133 157
40 170
74 97
229 437
478 93
385 160
281 225
392 229
422 362
464 82
159 118
382 247
442 84
94 57
375 25
348 244
247 284
467 37
488 404
430 10
1 478
427 194
148 409
281 442
200 259
329 494
483 57
465 366
58 118
211 428
3 274
491 196
387 404
152 83
180 312
304 232
160 178
130 16
265 27
315 293
363 16
73 141
150 227
4078.75
4
