60
9
0 0 0 0 0 0 0 0 0
11 42 36 89 64 26 69 60 11
65 12 35 96 58 39 58 23 71
63 56 22 46 13 47 91 90 29
98 32 75 66 100 41 21 60 95
84 73 97 79 19 67 23 34 54
39 74 92 37 77 86 89 34 86
26 36 63 29 81 93 17 39 17
58 84 25 58 60 92 47 66 17
66 85 12 90 43 29 68 83 41
37 33 44 96 73 12 47 74 23
68 77 94 56 22 22 34 80 68
47 87 84 26 39 63 90 93 48
54 51 38 54 72 41 22 89 80
14 71 13 84 89 63 28 21 67
13 13 67 47 16 71 38 44 28
33 24 21 33 95 51 54 96 67
13 51 70 25 43 25 30 16 18
34 86 23 68 37 58 63 57 35
12 79 93 86 89 93 37 16 14
29 53 19 15 56 26 40 64 87
48 74 96 99 95 71 57 75 20
30 34 50 69 19 10 33 44 11
52 84 11 30 16 15 16 54 37
25 42 28 57 72 61 73 72 72
23 43 95 40 99 57 88 14 50
69 63 72 68 53 29 67 58 31
84 46 65 75 73 61 90 67 45
43 73 72 15 74 78 90 30 43
95 22 86 100 37 98 59 51 88
44 57 98 88 64 47 15 58 11
91 38 85 55 30 74 60 79 87
38 58 13 41 70 95 59 73 80
84 12 25 45 97 40 90 37 97
50 65 87 91 33 87 12 87 85
22 91 99 80 40 46 14 28 64
96 74 52 14 87 56 61 22 72
24 89 18 60 10 73 16 19 45
51 90 21 47 23 36 72 82 99
87 74 22 21 24 31 83 90 93
55 24 87 61 30 77 12 54 65
81 66 19 73 44 78 65 17 22
73 75 76 46 48 37 31 16 79
49 87 88 19 45 60 16 57 77
17 42 30 84 64 93 37 39 42
61 70 25 81 19 51 90 66 52
73 76 29 65 99 41 41 22 21
88 96 71 14 13 41 77 53 54
19 31 45 52 69 46 28 90 49
90 11 20 86 44 44 61 46 73
80 27 35 29 17 51 24 59 48
34 70 89 71 59 23 95 70 22
35 79 93 65 39 12 69 27 11
12 96 95 67 31 70 21 43 79
63 14 96 67 49 96 68 26 40
17 85 32 83 76 26 28 81 82
81 95 54 97 15 77 13 53 39
32 43 28 20 52 26 43 25 12
43 26 79 12 32 26 22 55 46
49 80 69 75 91 25 19 44 77
0.602086
0.585103
1.33916
1.29915
0.496885
0.342364
0.832153
0.329743
0.385073
0.782416
0.436193
0.393495
1.44727
0.896381
0.352427
1.03387
1.09712
1.27421
1.30536
0.999742
0.714803
1.13647
0.624133
0.516863
0.316835
0.49587
1.22507
0.437449
1.2296
0.353734
0.950154
0.935921
0.440454
1.01704
0.791473
0.367702
0.860528
1.37675
1.39696
0.706874
0.383449
1.20286
1.06747
0.93966
1.13046
0.370142
1.4343
0.635542
0.354018
0.316839
0.498618
0.472451
1.05111
0.596662
0.643872
0.812076
1.2124
1.49848
1.47873
1.44754
200 160
387 442
356 267
354 310
282 76
50 174
157 265
26 184
174 51
422 259
135 23
209 335
344 184
152 177
37 424
314 453
406 223
234 14
352 118
360 329
219 62
357 356
72 351
390 216
276 230
492 23
369 82
171 484
83 67
190 439
36 257
27 291
455 231
365 193
139 35
475 21
0 258
348 77
242 266
414 228
415 381
367 267
79 475
299 235
460 217
135 185
283 254
57 130
318 280
407 5
3 387
305 84
167 454
31 121
130 500
1 270
31 318
392 68
421 132
50 245
3157
5
