60
3
0 0 0
54 25 14
41 23 71
97 74 91
88 30 68
14 92 64
93 51 86
33 60 21
49 15 11
60 89 25
23 22 40
57 25 10
74 37 68
49 87 51
33 32 75
84 12 82
64 86 54
93 72 49
56 49 92
61 81 76
71 50 80
53 71 81
92 71 63
29 55 40
26 73 72
72 48 42
93 35 59
86 48 75
59 91 24
33 64 54
61 89 89
71 76 13
83 88 84
30 86 87
53 100 76
33 51 12
38 92 53
40 84 44
84 69 47
49 67 55
32 100 22
36 19 65
73 98 96
38 90 10
10 78 64
41 31 13
98 35 57
87 55 56
19 97 31
55 29 48
71 20 36
85 17 64
18 34 49
59 67 26
93 38 25
56 68 95
85 30 43
17 43 14
66 67 73
64 22 23
0.213741
0.124504
0.30523
0.346042
0.303315
0.488459
0.39221
0.399469
0.392097
0.350714
0.452898
0.122199
0.368453
0.201673
0.260355
0.463216
0.136406
0.493648
0.480483
0.381909
0.301981
0.302331
0.232676
0.19189
0.167925
0.302962
0.317157
0.305453
0.195304
0.214499
0.45774
0.292713
0.266169
0.405773
0.232331
0.163846
0.380504
0.181122
0.223766
0.126432
0.300326
0.273058
0.483823
0.186045
0.139217
0.217239
0.471426
0.191025
0.197821
0.495263
0.453229
0.201922
0.331039
0.210073
0.156777
0.15605
0.382766
0.304688
0.248473
0.143477
232 136
487 343
444 442
131 4
369 101
100 418
354 310
398 330
266 164
266 128
83 403
279 83
165 167
205 361
309 434
43 465
314 405
159 128
180 21
232 25
162 447
391 92
347 174
94 445
417 360
317 11
172 228
247 270
448 23
384 460
110 97
297 15
308 127
277 471
247 105
157 93
177 328
214 374
134 466
162 447
42 421
156 453
12 371
76 371
31 17
364 293
56 432
64 424
494 159
202 420
310 222
211 120
437 356
4 25
461 254
363 106
308 214
357 73
118 359
29 299
16495
1
