60
3
0 0 0
44 14 85
29 88 99
83 99 73
90 63 36
17 12 90
27 52 35
91 52 69
52 91 14
10 23 78
83 59 95
23 75 63
71 27 12
81 19 94
37 76 74
50 85 69
66 38 66
59 48 46
59 75 11
100 80 87
59 43 89
48 14 66
25 96 81
63 55 17
53 43 86
21 63 78
86 95 49
20 54 41
19 35 14
55 19 87
49 55 98
30 81 23
72 83 20
27 54 26
38 16 90
18 72 86
51 83 55
61 35 57
94 76 96
65 49 21
24 29 50
25 40 55
15 93 12
27 80 89
93 70 19
67 28 87
95 67 41
85 11 87
38 100 85
100 95 42
73 33 78
81 100 87
31 18 57
55 35 22
41 23 81
48 48 10
50 46 80
77 97 47
76 83 14
65 81 58
0.621394
2.16619
0.703058
2.29767
1.12543
1.10828
1.61536
0.632739
1.18311
0.991594
0.738787
2.24922
0.533747
2.12589
0.54166
0.620639
1.08021
2.12308
0.778544
0.937038
1.01627
0.569498
0.860508
2.09739
2.2821
1.84806
1.42154
1.74704
0.609536
1.98382
1.61341
1.97001
0.963019
1.89205
1.45914
1.94197
1.68856
1.91236
1.47806
2.43778
2.1618
2.19437
1.38749
0.893585
2.49262
2.32966
1.13062
2.05597
1.77505
1.8624
2.23367
1.4523
2.41361
2.16064
1.93134
2.38008
1.14686
1.71726
1.70489
0.688515
61 93
407 93
346 177
234 185
223 172
49 421
392 416
167 64
486 61
43 253
31 396
343 123
400 379
462 66
397 413
175 293
87 378
142 438
442 440
25 181
349 478
346 292
351 95
449 220
68 352
476 494
266 39
318 402
69 184
84 220
74 219
63 119
450 123
109 334
333 476
379 342
343 370
297 99
351 221
434 24
487 312
211 178
203 7
250 144
386 306
225 396
271 451
127 90
95 496
410 411
254 331
406 287
286 411
177 397
42 393
93 429
444 25
256 443
290 139
330 475
5578.33
3
