60
7
0 0 0 0 0 0 0
42 34 43 37 22 93 23
89 55 54 38 14 82 39
30 12 46 77 79 38 84
21 79 86 70 66 64 81
68 38 25 81 27 91 56
16 41 61 68 94 63 34
12 43 92 57 67 91 16
26 21 61 82 16 43 92
89 32 41 44 27 45 76
62 23 76 42 57 46 39
72 59 33 63 88 61 70
30 12 42 62 53 19 63
86 19 57 88 96 41 20
86 31 67 62 34 12 43
50 21 44 38 18 54 14
10 40 86 92 62 23 97
69 67 70 30 72 62 75
24 11 49 44 96 52 78
78 40 52 66 24 79 16
87 28 58 51 12 18 37
94 73 88 40 78 56 40
45 68 83 17 40 54 99
48 62 27 42 99 39 85
55 67 53 73 48 49 75
15 45 86 71 81 64 60
95 75 44 100 27 46 52
21 17 36 45 51 13 83
87 57 61 57 82 78 88
76 81 92 91 10 96 16
91 96 62 46 76 36 17
71 15 27 43 91 82 34
70 40 55 42 67 38 87
16 27 94 49 48 100 60
89 88 34 32 30 40 98
47 83 74 89 58 75 29
51 61 11 100 21 34 93
81 36 95 96 49 70 17
75 91 21 26 90 73 10
87 91 31 78 38 27 15
52 94 29 45 53 49 40
35 43 33 98 95 76 30
70 22 81 41 29 98 66
23 66 47 60 46 36 54
64 43 32 83 40 38 79
67 74 71 71 52 90 57
96 25 94 28 14 56 85
83 61 24 19 27 67 84
72 47 38 19 67 76 62
45 42 51 99 56 21 37
84 12 32 73 88 16 96
22 82 34 53 22 56 66
86 51 25 95 39 90 31
97 84 94 90 71 10 65
16 75 62 16 28 43 22
54 93 72 80 48 96 26
95 44 17 29 83 51 19
56 49 84 49 21 61 96
100 45 72 21 46 60 29
67 22 52 38 71 69 49
0.480643
0.28081
0.33323
0.447559
0.480421
0.173346
0.223958
0.339215
0.386639
0.346821
0.333613
0.420015
0.475069
0.182167
0.26621
0.115686
0.239349
0.388603
0.343211
0.251811
0.202179
0.234953
0.217326
0.305648
0.142342
0.114117
0.42821
0.128735
0.135308
0.49756
0.21467
0.233297
0.122059
0.255788
0.467915
0.322773
0.369257
0.390208
0.42612
0.262205
0.32321
0.1913
0.150331
0.222924
0.147583
0.493316
0.436027
0.32164
0.143387
0.308597
0.247992
0.464882
0.348575
0.170144
0.239123
0.457372
0.263069
0.265845
0.202202
0.289315
365 269
436 322
417 34
212 338
111 123
220 351
268 317
226 286
29 75
229 418
264 454
281 353
166 33
207 25
63 381
400 55
242 469
111 82
199 151
430 239
294 201
55 439
460 365
3 114
315 250
192 212
415 385
232 76
226 420
354 96
172 395
107 402
362 417
283 278
375 233
319 206
399 406
347 87
231 309
321 214
171 159
126 397
293 238
181 189
85 86
285 377
85 133
387 290
56 472
172 289
112 62
156 114
128 491
47 101
155 151
471 324
363 76
19 252
312 114
372 178
5430
3
