60
5
0 0 0 0 0
95 82 88 55 25
48 41 83 14 74
75 98 71 80 42
93 41 58 74 90
46 100 29 12 43
74 92 47 51 82
20 53 17 32 42
80 77 57 83 29
46 85 23 94 21
64 16 33 52 79
45 91 61 12 44
64 75 27 12 68
21 97 73 49 16
31 15 10 23 81
77 27 12 31 59
85 55 96 49 40
14 66 39 19 14
81 70 65 43 22
93 92 49 48 20
12 56 56 59 86
100 36 68 71 19
70 51 39 53 45
67 67 18 90 79
29 72 42 60 43
96 76 21 99 88
12 15 14 49 61
94 57 13 72 22
67 39 93 69 57
90 90 81 71 48
73 50 64 15 71
65 91 26 69 71
78 99 66 42 14
69 10 19 82 69
51 25 14 13 56
31 24 85 49 86
94 83 48 87 86
67 12 100 81 70
47 83 67 48 21
71 13 53 20 63
41 77 79 46 59
70 76 33 39 95
71 53 43 89 62
92 19 76 100 21
96 40 51 30 60
23 41 19 69 25
79 83 26 31 42
86 97 28 47 11
13 77 46 35 32
66 39 34 50 70
40 97 64 44 49
29 75 30 10 55
15 96 44 96 16
96 53 18 92 66
62 54 50 17 81
12 72 49 36 17
12 67 65 36 87
97 43 15 47 69
26 83 93 65 37
64 75 43 81 96
2.29731
1.21445
1.35894
0.646511
1.99729
1.26652
2.1238
1.534
2.06772
0.932573
1.73002
1.11144
1.8377
1.03471
0.790855
0.823946
1.04464
1.15882
1.64603
1.93991
2.41577
2.14534
0.654594
1.66786
1.40979
0.546106
1.29902
1.96664
1.94062
0.54931
2.43528
1.4907
1.01877
1.42181
1.13281
2.10861
2.23803
0.579331
1.32615
2.45677
1.23699
1.71987
1.80631
0.689396
1.66414
0.839664
1.49281
1.93244
1.34813
1.31362
0.776576
1.83035
2.34644
1.39136
0.894917
1.22205
1.61204
0.612688
0.780359
0.785727
202 152
159 473
482 314
273 355
63 471
267 377
257 267
336 400
200 25
355 421
286 244
242 47
260 106
67 485
494 245
396 411
459 250
133 152
96 409
484 43
21 397
181 220
491 352
432 182
180 38
426 302
180 366
419 327
386 134
319 277
258 142
2 104
112 156
340 163
160 402
322 457
50 280
40 61
118 446
10 234
178 228
409 263
321 370
316 380
383 410
326 306
479 74
26 379
126 21
455 214
192 129
250 25
443 488
452 265
187 283
258 445
196 454
136 240
244 35
202 225
5393.33
3
