60
7
0 0 0 0 0 0 0
97 53 36 14 64 13 31
26 71 72 52 20 32 89
66 72 33 65 82 88 57
82 69 39 100 95 40 82
66 62 45 69 24 63 85
65 23 46 66 42 34 52
27 91 39 55 14 24 10
37 85 74 72 44 70 11
33 48 30 34 17 14 96
81 12 31 40 20 73 95
96 56 78 61 55 27 21
35 30 21 14 42 42 89
75 39 76 61 14 80 38
77 16 23 14 12 78 18
69 83 20 33 91 99 42
48 54 90 34 67 50 26
52 30 88 91 27 79 89
21 16 92 63 41 83 48
27 25 28 48 32 39 91
86 49 100 63 72 34 44
17 26 36 93 34 74 99
75 48 100 21 62 93 28
25 54 13 94 15 50 54
91 44 39 69 33 54 73
67 89 85 64 29 48 72
14 56 59 39 43 25 40
16 45 48 70 20 83 41
83 73 10 54 71 18 27
54 96 81 61 53 77 35
91 76 65 72 10 40 33
100 74 76 17 90 87 36
82 71 88 84 19 39 17
60 77 78 78 22 90 56
20 58 97 99 45 19 26
73 33 28 19 52 78 51
46 21 12 62 87 89 80
76 80 99 32 73 74 93
72 92 15 92 38 29 52
48 75 80 100 68 37 38
81 84 33 91 29 36 33
59 83 13 82 72 60 23
15 92 30 52 32 82 95
30 93 87 22 76 96 48
15 31 46 19 43 39 56
16 41 13 54 55 99 11
39 78 71 77 39 91 15
36 16 61 89 73 23 49
20 12 89 26 70 59 95
94 79 21 54 15 69 27
86 58 27 44 95 50 77
75 10 29 57 72 85 83
59 27 57 19 31 53 76
75 20 21 88 21 60 54
93 58 91 49 72 35 52
69 50 29 71 26 35 39
84 51 15 39 74 27 87
95 86 91 91 14 38 48
80 53 62 31 81 45 24
84 43 45 62 52 84 78
2.15542
0.561826
2.20809
2.48505
1.6335
2.31023
2.15851
0.529697
0.941296
2.48079
2.06094
1.41068
1.18811
1.72547
1.37401
1.0654
2.33148
1.13668
1.58715
1.36346
0.810115
1.9812
0.695351
1.38367
1.2389
0.858582
1.83064
0.656918
1.11469
1.89742
2.42495
1.78234
2.36597
2.27376
2.40259
0.74038
2.34709
1.18023
2.24239
1.56569
1.21989
1.59421
2.1702
1.92725
2.04156
2.24234
2.226
0.822907
0.621402
1.09059
1.06758
2.29549
1.58193
2.25751
0.936514
0.796474
2.45335
1.89584
1.93864
1.8123
56 436
332 399
438 86
252 387
258 439
156 290
147 5
441 483
303 149
222 223
277 479
226 127
187 364
441 499
9 391
47 198
34 425
390 115
442 166
85 362
390 215
447 136
188 462
390 34
256 129
61 228
122 405
432 245
500 225
258 406
206 175
170 105
147 258
223 107
214 453
145 36
146 155
27 397
389 454
454 362
225 260
482 155
359 486
369 494
372 386
440 111
211 248
471 186
88 166
131 220
47 307
484 204
349 408
454 451
368 390
155 144
61 82
129 288
394 475
166 259
4008.75
4
