60
7
0 0 0 0 0 0 0
64 71 44 28 46 45 91
86 62 65 21 36 78 43
19 67 90 12 55 18 69
33 82 80 58 87 54 95
36 36 60 11 42 59 63
54 73 62 75 64 15 67
32 31 69 21 20 87 85
81 76 40 30 51 34 34
23 51 65 35 35 65 92
24 95 61 20 23 54 78
78 79 68 65 79 67 90
60 44 81 19 81 93 78
64 41 88 37 95 91 65
12 27 80 53 51 46 21
70 37 13 46 17 26 21
54 38 75 41 90 82 77
79 82 48 96 10 77 23
59 69 71 99 51 11 81
29 89 25 38 62 91 71
74 50 98 87 44 92 60
31 70 51 100 86 55 77
25 16 85 43 17 87 64
13 61 29 99 55 53 15
41 14 42 84 84 50 14
51 37 55 68 19 30 63
53 43 72 46 85 96 44
53 29 42 54 36 39 52
22 19 67 91 74 28 98
77 27 69 89 11 15 92
93 94 94 43 89 27 20
27 77 16 10 35 87 75
89 81 19 68 97 32 80
61 88 28 81 59 64 72
49 47 81 31 37 21 14
80 59 85 92 30 67 19
49 42 30 89 34 37 22
46 72 36 96 99 49 59
28 75 58 20 27 14 38
13 29 38 42 62 97 97
96 50 48 15 95 54 68
59 80 55 54 21 46 62
100 68 25 43 41 25 70
53 84 85 53 99 70 48
96 26 32 79 85 41 66
11 16 49 85 71 19 42
58 20 40 53 99 14 53
82 76 12 90 48 97 87
72 16 38 44 33 59 43
27 83 90 87 10 56 91
40 55 88 77 51 76 66
62 97 18 89 66 40 76
12 58 80 71 24 30 68
21 43 82 18 49 87 72
61 98 31 46 48 45 26
42 13 29 33 71 86 46
28 100 45 79 68 83 76
10 98 81 27 70 63 49
61 10 24 74 74 41 86
24 74 57 63 93 87 55
0.125072
0.324206
0.462449
0.177307
0.293092
0.307576
0.451102
0.10004
0.370273
0.276064
0.372795
0.104436
0.486656
0.368341
0.465727
0.185921
0.386853
0.278102
0.427879
0.297637
0.417634
0.178328
0.430121
0.123346
0.462702
0.314197
0.326871
0.195872
0.354922
0.476145
0.377762
0.351749
0.498917
0.332183
0.133899
0.266771
0.428607
0.448795
0.27363
0.149242
0.27707
0.461548
0.129773
0.410513
0.470557
0.321429
0.35202
0.233071
0.215834
0.366805
0.330027
0.468433
0.448716
0.184349
0.195428
0.400394
0.394149
0.196851
0.120262
0.284108
409 191
42 328
182 112
176 280
122 228
371 167
64 112
115 68
109 30
419 216
172 27
229 242
31 182
281 276
292 434
492 279
248 184
499 313
204 124
405 213
209 247
494 301
222 79
488 190
261 476
389 61
478 446
284 23
322 164
395 308
338 465
402 274
9 498
5 304
255 319
242 497
77 117
429 239
51 493
197 306
482 176
300 393
431 366
153 141
213 193
338 361
364 113
215 429
455 307
404 0
456 280
108 147
94 418
83 116
238 383
74 320
346 270
64 186
21 353
385 373
5478.33
3
