60
7
0 0 0 0 0 0 0
69 78 75 39 59 25 65
12 70 54 99 58 24 91
32 59 73 25 33 88 37
35 54 51 25 41 68 54
67 15 88 66 58 50 68
73 92 62 78 77 90 72
28 50 45 78 96 55 25
72 52 77 45 11 51 79
51 53 79 36 59 81 94
13 62 69 27 82 45 90
25 95 31 58 75 67 64
12 76 65 80 52 100 89
93 57 16 24 34 91 16
39 22 74 34 82 33 31
61 33 42 78 98 14 12
89 26 98 34 11 24 63
41 81 60 83 50 47 93
40 80 61 56 89 55 39
63 41 32 40 99 46 57
70 19 12 34 65 82 85
83 17 47 68 18 18 39
67 33 95 31 95 30 32
14 12 26 49 71 74 11
41 94 22 28 40 57 19
11 38 19 67 21 42 73
24 73 57 66 17 83 28
36 51 88 41 36 25 85
26 93 12 70 42 84 23
28 10 82 78 31 78 91
66 19 42 49 19 97 53
44 33 58 81 99 36 11
43 12 31 21 87 40 36
37 89 21 19 36 58 95
23 100 36 27 36 53 35
90 17 37 55 55 15 58
49 99 93 30 25 59 87
79 52 19 25 99 40 84
52 77 57 35 99 93 51
69 45 77 71 37 46 45
49 28 70 41 23 53 100
15 22 11 91 92 37 10
94 85 32 56 45 34 45
12 67 49 40 36 75 70
38 47 41 11 94 51 72
18 11 22 64 50 25 58
23 10 39 75 68 30 88
93 16 29 47 25 99 95
35 79 79 82 37 94 53
95 93 39 69 81 44 43
98 25 64 68 78 28 81
13 38 58 80 56 84 17
42 97 67 84 98 38 90
16 61 89 97 85 39 19
15 63 45 70 96 90 91
50 24 74 21 38 64 14
50 36 50 43 87 70 97
72 18 50 95 44 22 92
53 77 53 74 47 92 29
25 68 49 83 15 51 18
0.419847
0.235218
0.400571
0.227862
0.163144
0.383938
0.134937
0.281249
0.228275
0.13305
0.185276
0.225404
0.45505
0.339589
0.363575
0.219477
0.130784
0.465049
0.143697
0.299998
0.394519
0.353079
0.425616
0.128137
0.14571
0.349575
0.380404
0.147589
0.155695
0.170272
0.40534
0.455678
0.263357
0.36508
0.125027
0.200029
0.229503
0.417259
0.418739
0.166171
0.275931
0.388588
0.349465
0.454822
0.128317
0.304654
0.479266
0.384252
0.360523
0.180774
0.22108
0.289846
0.266009
0.378632
0.163942
0.12448
0.381511
0.275436
0.199157
0.323617
340 272
54 415
227 305
258 490
38 359
368 76
228 355
87 286
0 473
78 96
194 163
15 155
105 142
150 250
452 430
67 243
89 311
129 183
132 185
14 447
385 351
243 139
275 303
218 396
338 1
93 381
10 230
14 166
384 79
54 441
429 24
472 418
319 404
96 123
91 38
455 285
58 375
235 136
187 247
31 354
478 220
389 453
23 52
260 290
50 209
179 184
89 346
242 460
117 143
45 456
160 437
121 415
467 208
453 173
1 421
52 118
125 0
287 165
304 138
467 63
15845
1
