60
9
0 0 0 0 0 0 0 0 0
64 75 75 90 46 66 22 75 62
32 29 92 34 36 83 95 34 17
48 19 48 59 24 33 31 39 83
24 11 29 49 19 14 16 44 12
57 27 65 78 26 48 75 46 42
21 64 76 88 95 27 65 77 79
89 42 94 21 93 79 91 10 64
22 55 52 70 90 25 11 84 86
98 10 24 54 45 83 74 97 41
83 66 71 29 100 97 46 45 38
48 15 51 91 49 23 83 47 48
59 86 75 12 52 26 80 90 48
22 41 80 39 64 23 41 20 89
97 66 49 67 29 73 34 97 38
79 44 35 19 89 47 87 28 73
100 63 62 65 70 70 29 37 77
61 97 96 93 45 99 58 60 43
77 96 47 75 12 95 54 38 88
71 18 82 61 91 53 94 14 34
71 83 51 46 57 98 18 79 96
22 17 25 34 46 39 62 38 47
22 38 89 27 91 14 36 77 54
44 39 69 26 12 75 94 12 100
34 91 38 100 75 89 61 50 71
54 81 41 42 67 52 30 42 43
65 72 13 54 19 87 13 65 79
70 57 94 59 49 97 81 96 36
84 62 31 29 38 52 42 42 73
29 62 34 29 88 20 94 51 12
100 68 81 54 67 12 98 80 26
71 49 12 43 64 17 23 21 38
32 43 43 94 12 63 13 94 50
66 62 26 65 47 83 21 15 50
20 15 66 89 17 38 40 29 58
31 24 46 54 84 56 32 100 59
30 42 24 77 62 93 15 69 34
71 59 28 63 51 87 82 10 61
25 14 97 32 37 71 28 38 63
100 51 76 94 27 19 99 41 79
52 19 18 15 53 26 35 18 57
63 71 29 15 35 40 39 44 57
43 33 83 47 68 13 20 44 11
55 90 88 46 62 13 57 18 36
94 74 86 57 80 82 11 22 19
72 96 27 97 46 73 91 99 63
93 36 67 37 65 73 54 15 48
47 34 60 47 72 77 95 77 46
82 66 92 31 45 84 11 48 22
70 88 76 16 100 84 97 41 100
27 70 80 86 61 36 93 57 34
51 19 48 30 95 25 77 12 26
95 77 100 48 39 43 37 83 75
56 28 81 10 66 33 48 71 35
45 68 90 46 74 88 89 17 76
48 16 19 77 14 49 47 27 38
99 53 46 23 82 98 52 36 82
31 98 77 56 27 90 24 14 58
35 87 69 17 10 12 89 21 93
18 15 61 18 32 68 54 90 38
0.276048
0.37361
0.359563
0.372847
0.171026
0.398003
0.307489
0.317378
0.178774
0.218185
0.473873
0.325954
0.174416
0.196927
0.49259
0.43469
0.262965
0.21043
0.432349
0.473941
0.420505
0.403093
0.284128
0.295268
0.485639
0.397451
0.309179
0.260031
0.331853
0.297785
0.35456
0.429997
0.105463
0.256984
0.368448
0.151751
0.374755
0.2801
0.187769
0.372049
0.256271
0.353832
0.194658
0.252429
0.481882
0.404026
0.444814
0.480071
0.38598
0.240015
0.307259
0.405983
0.300034
0.384874
0.435146
0.324255
0.240567
0.463807
0.406319
0.277054
418 358
28 179
169 459
3 333
250 46
250 54
417 193
25 167
152 290
217 348
312 177
481 87
264 255
349 388
458 478
200 418
271 285
467 162
113 369
253 212
267 172
136 260
338 67
1 384
437 477
463 253
90 51
478 66
457 292
164 477
128 300
290 115
407 411
275 364
244 172
28 164
344 100
128 21
430 384
356 355
411 316
10 83
297 211
174 358
390 417
479 348
107 100
153 105
251 219
193 191
318 464
400 141
198 131
177 338
187 410
465 311
215 479
494 267
303 428
405 285
3997.5
4
