60
3
0 0 0
18 34 75
66 83 15
75 67 33
11 59 53
88 24 87
100 57 97
59 61 32
82 40 74
38 41 44
44 55 64
37 49 27
68 29 92
47 12 56
28 82 59
75 64 47
60 30 62
42 31 43
38 49 85
10 98 69
13 19 33
77 73 94
12 20 27
96 84 56
66 49 56
12 84 36
64 54 84
68 27 95
55 74 38
82 65 28
69 65 32
53 24 83
24 96 26
59 82 79
24 30 82
22 49 70
50 42 79
27 81 59
92 71 31
65 31 82
93 74 31
21 84 25
36 85 23
45 61 75
45 53 60
58 15 15
41 33 26
90 26 91
78 72 35
18 67 35
98 81 34
78 36 56
54 81 55
42 20 74
15 70 71
50 51 36
15 22 24
77 98 70
56 93 19
35 82 90
0.332803
0.267562
0.232915
0.427977
0.402647
0.474722
0.288499
0.102839
0.269296
0.251826
0.387718
0.374595
0.114816
0.210532
0.276103
0.360918
0.1641
0.334723
0.332788
0.345171
0.466422
0.256183
0.177885
0.204313
0.363733
0.124859
0.395262
0.120537
0.136202
0.369589
0.174636
0.178538
0.285662
0.357043
0.344998
0.454755
0.340695
0.243261
0.247521
0.145948
0.366638
0.160712
0.360212
0.152786
0.437492
0.276018
0.377808
0.454671
0.122441
0.330538
0.202852
0.485495
0.177031
0.284292
0.247859
0.208999
0.102401
0.464378
0.446256
0.439535
48 1
16 253
174 355
208 482
130 328
186 341
388 282
147 430
300 402
266 0
252 498
491 118
210 352
366 22
292 10
18 227
39 211
416 23
189 487
202 262
327 330
359 52
196 268
200 351
271 174
423 131
270 201
127 126
368 223
288 483
216 174
72 467
107 16
459 182
326 192
392 447
178 302
361 192
415 8
480 211
170 295
19 61
350 446
357 459
251 232
240 206
494 135
17 449
273 266
204 262
404 48
135 36
434 271
288 301
31 395
330 181
160 336
298 101
302 426
460 69
3991.25
4
