60
7
0 0 0 0 0 0 0
38 75 77 64 51 29 42
41 37 12 18 66 57 34
93 16 90 18 53 44 47
70 10 20 85 74 95 91
81 87 60 27 55 83 10
48 92 70 51 92 41 75
31 96 93 52 68 89 100
15 84 74 30 25 66 62
24 85 90 21 87 24 74
34 25 99 47 37 55 94
95 92 15 50 99 54 30
17 28 30 95 14 96 29
83 94 87 29 18 40 52
87 51 22 71 18 82 57
80 64 63 29 89 17 68
75 32 38 76 85 89 57
75 66 33 59 35 96 27
17 76 39 79 75 92 39
33 48 37 90 73 21 52
51 64 100 88 45 91 83
86 71 24 35 39 38 13
37 67 46 99 45 77 87
16 51 23 54 69 65 87
21 96 45 61 96 50 67
13 80 88 18 81 28 57
24 91 41 16 42 62 79
34 18 19 84 19 48 77
50 43 67 79 33 74 54
24 62 65 48 43 69 59
85 82 51 37 29 69 25
67 36 19 32 26 26 78
15 12 34 41 30 36 56
97 73 24 44 99 61 49
44 22 33 24 28 45 60
75 48 29 75 47 23 25
66 83 61 60 77 70 69
90 67 36 76 96 53 98
21 42 35 88 64 51 96
78 73 87 47 97 82 77
49 96 30 88 93 92 25
40 72 84 20 13 100 30
45 68 28 39 54 89 41
19 13 25 77 68 51 89
16 73 50 62 28 82 80
36 67 95 14 73 72 73
24 79 20 73 58 17 32
27 46 69 91 41 29 79
89 82 63 24 65 82 87
54 29 76 28 46 59 41
27 92 10 23 73 35 59
99 47 80 26 81 92 81
95 79 71 54 41 96 59
66 74 100 10 49 34 31
96 90 79 34 65 92 59
30 48 64 18 46 89 52
30 41 21 87 50 42 70
82 35 24 56 81 37 31
51 57 56 34 24 31 68
16 60 32 48 13 41 78
0.219606
0.37941
0.258692
0.43999
0.194441
0.336748
0.359185
0.256985
0.497202
0.211495
0.480175
0.226214
0.251199
0.144344
0.148424
0.103083
0.297859
0.292121
0.275315
0.241486
0.106069
0.313512
0.485282
0.423977
0.262221
0.324638
0.167904
0.465338
0.111288
0.476178
0.236461
0.180736
0.447308
0.46935
0.11416
0.11053
0.357936
0.321776
0.420312
0.467724
0.390819
0.358977
0.352287
0.486329
0.28397
0.392091
0.172744
0.35516
0.105414
0.372448
0.293896
0.222575
0.16338
0.261271
0.281944
0.440972
0.353572
0.338711
0.18347
0.157968
119 417
447 431
47 135
329 321
448 78
259 445
494 226
318 500
218 459
266 368
339 222
380 163
44 227
261 175
457 416
404 25
335 427
120 241
129 253
324 429
32 251
71 485
159 127
23 378
165 466
449 387
235 490
495 25
319 399
138 185
39 465
454 315
15 315
419 431
236 265
498 426
458 500
372 436
370 247
407 415
347 35
376 300
280 133
196 254
168 257
315 5
343 500
74 290
122 470
307 33
194 336
170 325
293 100
411 368
121 385
135 374
123 193
42 356
322 57
178 349
16425
1
