60
11
0 0 0 0 0 0 0 0 0 0 0
22 71 21 61 45 21 68 99 75 60 30
74 83 68 58 52 16 72 31 68 10 34
53 14 90 98 89 53 84 97 74 55 52
84 87 42 60 37 75 94 13 84 28 91
70 78 16 59 13 87 41 39 45 27 16
41 79 40 65 26 13 22 33 20 77 71
39 13 33 61 22 56 87 13 19 98 63
84 45 17 57 12 20 93 62 31 33 16
61 27 96 86 62 18 75 93 47 93 66
71 23 23 50 66 17 59 20 40 83 14
36 44 72 22 87 65 91 56 37 43 30
55 10 16 34 80 84 41 18 94 51 70
55 92 41 63 56 92 94 93 93 89 38
63 29 41 79 49 97 53 33 96 76 73
66 41 48 44 50 50 94 94 33 16 91
75 30 31 79 45 53 21 56 40 72 28
90 80 47 92 82 66 30 89 88 61 12
84 93 48 88 66 23 45 66 52 21 60
79 67 34 24 99 33 47 73 11 43 42
18 91 63 33 16 60 19 82 11 17 84
97 82 46 91 94 15 79 38 16 56 38
70 11 70 79 97 36 70 33 85 17 77
41 41 13 40 50 80 23 74 65 73 94
81 40 77 48 48 48 80 17 48 80 58
45 72 84 21 17 61 47 84 52 94 61
17 93 22 44 25 66 95 35 26 10 52
60 11 12 85 51 11 19 39 78 40 43
34 30 10 15 50 82 24 99 45 32 21
72 68 14 48 73 23 67 29 65 26 53
21 71 83 81 69 77 98 87 32 18 43
86 24 22 15 73 15 63 90 54 54 38
62 56 27 32 25 55 12 20 91 51 25
97 81 95 99 58 23 53 94 59 20 61
25 82 40 82 98 65 55 52 91 16 79
44 56 15 48 78 33 32 10 85 85 69
11 26 25 47 61 15 39 17 75 58 80
13 17 29 96 30 30 23 98 54 27 90
63 30 45 98 56 82 65 53 58 38 46
39 58 37 33 60 96 31 32 18 98 64
71 21 61 35 31 74 98 51 99 68 40
64 11 74 84 51 79 17 40 89 60 34
38 38 51 68 95 91 55 55 37 62 82
72 15 20 34 21 56 90 20 94 47 97
56 74 84 79 41 29 27 68 69 32 95
26 12 38 30 11 98 21 99 19 89 36
22 50 96 51 38 69 76 95 76 88 46
54 84 57 91 72 20 84 68 74 14 77
57 44 12 82 40 86 51 55 85 88 11
21 91 26 18 51 60 34 22 99 18 40
49 44 40 67 56 33 40 44 17 59 48
41 97 24 61 48 95 36 72 32 73 30
89 73 92 66 72 70 79 54 40 58 79
38 96 21 78 68 75 97 83 52 32 23
71 39 51 35 78 93 62 35 42 44 64
15 30 62 67 51 24 26 43 74 60 89
20 90 25 78 45 67 91 63 25 45 81
59 91 79 33 53 50 43 49 51 54 13
79 32 67 56 28 85 21 12 28 25 22
80 100 52 38 31 82 83 69 81 65 41
0.946605
0.986552
1.61135
1.11879
0.823163
1.27707
0.921338
1.00914
0.684514
1.94716
1.32051
1.53183
1.24386
1.96547
1.51777
1.65339
1.78227
0.754223
1.75546
0.763483
0.951868
1.22567
1.08978
1.59717
1.0594
1.31759
1.8354
0.842642
1.19548
1.83488
0.899148
0.696396
0.95061
1.13414
1.2364
0.482844
1.95072
1.78646
0.420796
1.12676
1.40941
1.41496
0.614223
1.64208
0.57254
1.60285
0.495374
1.39618
0.527816
1.8426
1.79405
1.81191
0.897078
0.935978
1.31631
1.39379
1.27404
1.26976
1.74445
0.790152
0 441
204 111
481 105
39 446
213 427
121 434
190 20
189 117
31 445
407 140
28 152
280 325
261 195
209 313
319 360
289 478
313 98
288 244
401 451
364 227
223 278
325 262
343 278
426 215
479 114
38 320
186 147
33 168
253 184
0 423
256 233
189 78
378 445
161 422
288 442
283 163
245 224
109 414
129 61
90 340
167 313
246 269
96 140
92 126
478 214
144 284
108 163
181 343
359 151
256 70
227 135
253 57
469 442
296 172
82 348
485 499
162 101
310 394
367 193
35 375
15920
1
