60
3
0 0 0
97 12 45
84 50 67
87 13 79
48 46 80
50 79 66
31 99 10
17 75 56
40 55 34
63 64 10
89 100 10
25 68 25
82 61 25
56 73 23
14 65 42
53 97 89
84 67 46
33 67 47
38 24 26
74 50 48
69 30 49
44 63 40
81 39 69
96 64 31
10 88 95
90 19 62
90 52 81
85 77 19
78 36 40
55 55 100
76 87 24
40 44 67
95 25 67
98 30 19
91 82 22
23 92 16
97 54 41
27 73 97
95 70 63
87 78 48
16 36 38
21 74 14
77 72 15
69 19 17
97 41 66
15 36 21
42 33 26
78 56 23
32 84 40
48 59 65
85 11 41
28 31 10
100 91 94
32 45 25
68 18 21
33 64 93
84 26 47
98 95 80
11 37 61
68 80 56
0.507743
2.35804
1.52726
1.89416
1.1035
1.3426
0.730911
0.922173
0.78121
2.0814
1.01139
0.784782
0.90125
0.601465
0.576518
2.22845
0.939127
1.53914
1.5205
2.48346
1.97128
1.85926
0.638584
1.87678
2.3788
2.36676
1.0501
2.43151
1.40461
1.32456
0.789464
0.706707
1.04627
1.55726
2.23548
1.49436
1.41653
2.31329
0.521527
0.720064
0.770699
1.35373
1.93742
2.07492
1.84708
0.836394
0.682036
2.33552
0.642135
1.20554
1.90952
1.79781
1.6509
1.1463
2.37
2.08373
0.510607
0.513133
1.74413
2.22315
257 310
162 346
396 47
63 327
289 475
298 44
500 133
359 435
362 125
244 375
435 61
412 436
287 55
50 182
37 422
344 398
10 138
89 212
50 106
314 94
412 25
51 346
457 377
277 346
256 348
354 79
34 66
1 214
6 54
495 427
85 303
415 95
470 178
152 229
16 90
147 390
260 263
85 378
120 183
395 126
123 291
475 71
292 397
40 128
310 348
469 379
121 348
433 79
23 465
434 380
196 99
289 408
325 6
377 185
402 362
438 324
144 452
210 250
326 75
287 309
5363.33
3
