60
11
0 0 0 0 0 0 0 0 0 0 0
58 78 47 75 73 77 65 64 93 100 28
31 95 50 94 48 23 88 90 51 29 31
35 33 27 37 10 93 21 40 20 30 15
99 32 47 11 43 92 95 33 29 64 74
15 25 57 72 84 78 100 53 46 82 25
59 59 30 45 80 47 29 80 27 97 36
21 78 51 29 97 24 86 55 66 56 84
28 90 95 62 11 91 73 81 28 58 50
78 75 50 47 43 39 96 48 26 69 73
99 65 99 73 84 77 50 22 14 89 65
78 26 65 86 36 89 24 59 31 44 79
39 45 89 64 47 68 61 89 10 49 62
78 27 19 99 66 45 34 40 80 82 66
27 15 16 21 71 71 40 22 41 77 91
10 58 14 42 39 51 59 27 65 33 70
78 19 43 73 24 78 25 44 33 83 28
75 97 27 51 78 49 49 54 44 44 89
90 66 74 41 60 13 70 13 79 100 46
64 33 42 39 59 19 76 10 23 89 83
64 89 75 89 90 16 90 86 27 30 46
28 35 35 14 19 62 92 43 11 53 85
92 13 18 77 22 90 31 59 38 14 50
92 19 55 30 66 21 90 22 20 73 60
40 51 92 19 69 60 18 34 24 20 30
87 34 77 54 78 26 83 82 20 72 29
88 87 45 68 77 98 74 84 43 49 27
86 14 87 71 96 76 99 85 79 91 87
86 48 71 68 11 95 39 98 56 28 72
99 52 67 26 44 78 83 24 68 56 20
17 17 100 16 79 60 19 52 65 58 62
87 57 80 32 12 66 13 78 34 81 54
73 93 15 51 43 29 26 13 58 87 34
58 18 65 24 80 98 32 56 99 63 43
94 60 100 57 16 12 48 59 90 32 25
73 60 13 90 16 44 29 31 18 37 68
11 48 39 41 52 69 54 83 50 74 27
60 15 45 83 46 33 12 53 88 51 17
55 52 68 14 42 59 95 35 34 61 83
87 37 62 72 85 11 49 93 54 63 14
100 94 22 11 38 47 18 93 46 68 61
14 16 73 90 96 99 33 24 67 33 55
35 91 21 58 34 65 16 67 82 93 67
63 13 46 17 27 90 67 91 57 27 79
83 95 29 49 68 96 75 56 15 72 91
44 59 80 92 52 30 74 57 21 57 38
35 51 85 31 67 14 49 30 29 91 68
68 40 64 41 53 32 51 35 17 71 65
74 97 91 38 22 76 76 50 85 77 91
72 83 65 37 81 21 47 72 30 40 55
34 93 80 23 31 76 56 15 31 52 71
60 16 33 31 26 71 65 41 31 17 22
83 58 38 87 35 39 87 37 77 17 44
51 95 56 49 14 74 53 10 21 12 78
99 16 60 50 80 32 50 36 73 52 47
13 13 13 11 64 54 95 15 55 84 73
95 83 44 38 51 84 39 98 26 10 34
20 30 19 80 88 84 19 16 67 12 57
11 92 21 59 91 63 72 36 77 79 57
17 89 26 83 38 48 98 77 69 81 87
0.388243
0.947789
1.08464
0.642414
1.47807
0.654989
0.49262
0.682806
0.666723
1.26084
0.519196
0.496044
1.42303
0.962254
0.683037
0.735391
1.15624
0.726606
0.83783
1.23401
0.346572
1.32893
0.42257
0.982067
0.356576
1.40544
1.28738
0.881539
0.758817
0.434187
0.668589
0.470546
1.1269
0.38828
0.613352
0.878948
1.37606
1.33469
1.49781
0.689586
1.32193
0.957013
0.708093
1.03114
1.23828
1.45565
0.919079
1.08685
0.931557
0.786344
1.42246
0.394414
0.837252
0.443956
1.04463
0.560414
0.821167
1.3483
0.467218
0.901017
291 203
320 243
190 275
402 214
135 405
245 293
332 316
451 211
314 107
400 159
78 43
290 185
330 225
243 402
500 105
180 222
164 350
322 118
345 243
109 7
212 125
273 356
64 39
208 5
311 122
216 273
269 237
101 168
438 145
165 242
441 114
339 264
154 263
289 308
370 247
156 324
352 167
55 311
63 361
1 304
105 267
412 91
328 407
60 223
179 365
148 464
79 311
142 368
299 379
376 166
79 227
71 77
137 466
334 360
13 67
297 17
215 190
278 58
232 324
252 177
5335
3
