60
5
0 0 0 0 0
17 90 98 20 88
68 36 72 68 31
68 70 94 70 74
26 26 92 34 95
33 11 57 89 92
24 34 70 79 70
26 30 42 52 40
67 39 59 56 20
36 10 89 92 59
27 26 18 92 65
56 19 60 92 16
16 29 33 98 74
13 56 49 66 15
33 14 65 61 17
48 32 46 32 94
55 52 100 59 32
70 63 35 27 75
42 75 47 51 57
83 50 36 91 37
91 100 74 31 83
39 45 40 14 50
97 21 24 23 41
64 78 53 81 71
24 55 81 16 57
56 17 99 35 89
23 47 86 12 98
11 11 96 97 36
61 83 20 21 63
26 36 54 54 87
16 51 60 36 13
63 74 57 79 85
74 32 49 30 83
26 48 36 59 52
94 85 93 56 63
56 32 28 17 87
55 34 17 57 41
93 83 67 35 35
15 82 39 86 84
92 75 11 45 59
25 11 56 78 55
25 11 30 34 48
85 57 16 74 24
51 98 61 52 18
23 48 67 69 80
77 39 61 89 87
98 44 48 77 41
77 15 56 66 33
70 39 59 66 52
28 74 40 97 69
33 89 22 26 88
85 74 93 10 22
32 42 78 88 99
58 84 35 51 94
19 54 53 86 50
20 15 71 97 49
65 99 64 91 11
31 36 22 78 19
30 71 92 23 90
93 80 10 44 14
1.30447
0.547856
1.41675
0.812468
1.7688
1.20566
1.01131
0.477753
0.675085
0.82187
1.07496
0.559191
1.98225
0.863968
1.30931
1.72464
0.665941
1.2089
1.81157
0.793146
0.48171
0.472835
1.43263
1.81992
1.07373
0.859119
1.75323
0.966275
1.39779
1.95439
1.21144
0.772478
0.896602
1.11151
1.60206
1.51653
1.02834
1.2969
1.47615
1.62214
0.799392
1.41861
1.00476
1.91723
0.565913
1.17296
0.41949
1.70128
1.46922
1.75606
0.972176
1.21412
0.801266
0.639411
1.31988
0.41982
1.28465
1.10709
1.42778
1.9594
211 405
22 185
138 128
142 430
283 374
491 10
252 455
40 105
296 190
492 243
59 17
315 50
299 480
491 165
389 288
220 63
396 243
280 300
448 149
436 223
67 71
216 444
9 57
111 8
217 87
41 413
357 56
270 295
422 147
194 305
354 188
125 93
262 262
299 253
155 19
432 243
55 204
103 80
355 93
293 460
78 75
341 231
386 64
68 34
496 287
135 104
414 293
229 286
256 237
327 470
492 292
492 87
448 428
143 193
299 0
337 156
153 203
465 298
12 130
279 264
7950
2
