60
9
0 0 0 0 0 0 0 0 0
16 36 74 43 81 23 51 14 23
63 13 14 99 92 12 17 84 80
46 35 47 21 66 44 37 49 31
90 12 26 49 88 72 96 30 15
95 99 29 37 61 57 42 55 35
27 95 99 13 28 71 14 65 64
59 29 43 76 21 94 77 54 79
71 74 96 86 46 95 13 95 38
41 80 31 78 56 14 54 36 32
99 53 10 81 93 96 76 31 63
26 70 28 64 39 92 54 23 13
72 70 71 83 77 45 29 49 68
29 51 24 14 10 71 88 61 84
19 96 58 50 10 54 56 55 76
36 77 91 92 39 11 52 61 15
85 80 47 34 54 94 90 54 40
61 10 30 51 70 86 16 49 28
23 58 95 21 34 36 45 26 93
95 49 51 21 40 72 25 53 74
80 38 62 88 37 82 83 32 37
99 93 83 97 90 44 37 32 16
86 11 53 44 70 47 50 84 77
21 97 33 43 10 13 24 69 80
36 68 73 43 49 95 83 51 61
12 72 13 85 26 84 88 48 50
58 52 22 81 84 48 65 68 65
22 72 75 72 48 78 62 16 58
83 20 64 39 22 59 16 87 22
64 47 52 23 74 67 45 46 44
83 69 54 28 28 54 49 48 54
10 82 54 63 20 53 19 12 77
19 92 55 89 96 88 47 67 28
20 70 12 10 16 88 30 90 56
87 91 10 39 23 68 97 26 37
68 47 97 87 24 83 86 38 63
22 63 14 79 71 43 25 19 55
72 57 71 51 78 82 51 81 54
50 55 39 56 65 35 75 35 86
88 15 100 93 82 85 52 43 43
99 13 95 99 16 67 87 22 12
59 89 61 70 21 53 44 12 30
47 51 69 63 18 42 91 87 58
53 52 69 23 34 84 66 30 14
90 43 57 96 90 49 20 66 71
39 13 66 25 59 97 56 51 41
62 95 90 56 28 12 26 36 38
46 95 21 63 35 15 19 85 67
25 37 65 61 39 49 98 38 77
45 65 19 79 96 35 41 39 95
36 72 12 36 47 10 29 73 42
98 16 63 58 43 72 59 73 40
44 57 75 53 68 93 81 50 97
97 17 34 99 73 13 58 67 66
31 43 99 67 11 24 81 25 44
38 95 38 58 38 45 28 62 58
71 63 51 66 46 17 90 27 28
96 66 22 96 25 89 64 84 37
17 22 92 94 98 13 14 29 62
96 44 60 24 33 64 59 81 75
1.80652
0.846361
1.89939
0.91066
1.36488
1.40453
1.66894
1.49197
2.18761
2.45647
2.28586
2.13727
1.05331
1.33373
0.648895
2.02851
1.81518
0.563966
2.09122
1.12161
2.39333
1.50563
1.00391
2.19972
0.638715
1.13085
1.59366
1.07961
0.535179
1.01035
2.32823
1.71288
1.35579
1.49406
2.26073
2.2252
1.86517
1.99484
2.2448
2.23197
1.22586
1.76111
1.06333
0.945737
2.25278
1.63802
2.45891
2.43607
2.18437
1.19057
1.21079
2.01435
2.24331
2.47592
0.649019
2.04387
0.622467
1.38178
1.08791
2.4807
350 15
282 418
129 263
198 458
175 301
48 89
403 352
247 354
152 486
220 250
52 105
209 433
375 168
456 456
71 250
405 8
136 458
141 293
117 462
380 2
4 386
34 398
231 28
53 152
487 92
308 486
427 402
395 220
36 73
195 359
476 389
499 50
355 108
157 95
144 411
366 183
361 71
244 36
20 89
336 452
407 390
245 1
418 362
311 91
144 352
498 182
254 463
228 100
424 132
113 241
320 333
196 42
359 486
379 113
363 153
298 218
80 59
122 43
345 46
442 186
5335
3
