60
3
0 0 0
56 11 75
98 33 19
72 54 35
33 98 45
63 40 30
19 19 93
98 12 36
27 92 96
93 34 96
58 84 41
83 91 61
51 37 50
53 44 15
98 72 21
36 35 88
50 25 91
11 57 39
60 80 72
28 74 49
33 77 44
18 16 92
46 40 71
81 93 81
74 26 83
45 62 22
60 47 20
17 44 75
49 88 91
29 21 39
53 36 63
77 93 93
30 84 100
29 32 76
27 79 84
44 99 98
34 96 63
37 17 59
57 59 26
39 65 81
36 38 53
35 58 11
40 69 46
97 20 47
72 79 72
28 33 53
58 84 19
86 24 98
32 61 92
77 44 32
76 42 70
99 79 91
73 31 78
98 35 17
42 71 34
31 95 76
32 14 34
42 80 47
33 28 40
50 94 22
1.30386
0.822019
1.36218
0.850492
0.743759
1.12988
0.626094
0.969558
1.06511
0.390524
1.23094
0.558928
0.34147
1.35872
1.26205
1.09595
0.774531
1.00504
0.332556
1.0942
1.35765
1.28365
1.10527
0.763239
1.12338
1.47532
0.990631
0.457661
0.657758
0.360889
0.577557
1.36274
1.23973
0.544606
1.14332
1.35754
0.618757
1.21467
0.672514
0.338365
0.626625
0.704516
1.00415
1.11012
0.629962
0.520284
1.47468
0.491682
0.605566
0.689108
1.22877
1.18584
1.16842
0.449448
0.402726
0.771437
0.598242
1.15933
0.464195
0.728131
212 131
332 423
282 316
334 277
458 260
83 443
326 246
493 218
207 467
184 250
332 38
158 409
186 419
161 406
302 108
165 361
320 11
172 261
309 322
247 150
285 427
3 122
167 185
81 144
232 360
249 26
131 235
139 312
300 183
461 49
103 370
226 290
395 231
167 251
185 265
167 154
458 368
22 138
226 441
280 196
3 374
27 421
211 454
140 339
155 61
227 68
448 105
93 25
130 414
131 463
176 141
462 396
43 17
408 277
257 224
245 337
227 149
132 235
459 300
275 84
16320
1
