60
9
0 0 0 0 0 0 0 0 0
76 33 68 13 23 52 20 48 47
40 60 21 53 50 47 63 86 89
36 79 66 53 97 88 95 15 28
28 23 34 76 21 60 96 21 50
63 87 40 41 56 51 81 27 91
86 49 45 68 78 55 42 61 67
48 84 60 16 34 94 98 15 35
31 12 74 64 19 94 64 98 75
39 28 63 11 40 30 10 93 88
76 49 84 91 59 55 27 77 25
12 59 50 60 63 29 58 91 50
38 71 53 37 15 80 31 92 19
28 58 61 20 66 13 47 93 41
63 85 60 60 36 70 34 56 27
68 53 67 19 16 19 81 25 50
96 32 67 75 36 56 35 50 73
24 97 74 18 55 100 72 40 12
95 14 63 71 36 75 65 55 23
94 71 77 66 79 60 50 44 67
86 56 67 51 98 71 80 98 62
55 67 75 88 62 95 35 76 97
66 44 83 80 24 43 26 68 81
23 29 37 90 32 93 55 35 87
43 32 14 95 11 71 60 23 46
67 52 80 16 94 20 89 64 27
86 29 88 79 95 39 20 18 69
60 62 22 90 86 100 79 59 93
98 11 31 20 98 60 21 43 32
22 22 74 95 72 29 36 14 55
66 83 13 40 68 91 98 35 31
95 52 39 67 19 80 11 29 19
20 66 69 46 74 81 41 37 80
83 73 83 86 90 45 63 34 88
52 28 92 47 84 35 99 93 56
71 45 25 56 80 29 50 17 18
53 72 33 78 83 26 96 53 65
97 29 99 100 51 33 24 47 62
58 79 80 50 100 33 20 73 51
41 78 54 51 23 21 78 24 54
21 87 13 84 68 33 80 32 99
38 64 41 91 45 80 64 39 96
100 63 98 66 77 10 80 27 14
91 30 19 37 81 56 97 77 66
96 56 64 90 74 91 90 54 40
96 63 96 33 58 48 25 74 17
81 28 79 18 44 27 72 57 80
91 86 31 67 85 76 67 20 11
61 37 24 11 45 27 62 45 50
57 12 28 79 79 100 27 84 73
45 43 45 66 18 80 51 22 34
18 45 30 44 48 100 48 37 20
79 94 35 21 72 44 49 43 84
68 91 53 16 70 74 39 10 94
29 37 83 35 47 22 90 56 95
10 55 29 78 88 29 30 89 99
24 90 73 57 27 35 75 52 53
22 67 14 23 14 94 32 76 59
81 43 51 29 35 68 18 82 14
49 12 67 15 76 59 38 79 79
0.529653
0.779401
1.98997
0.525806
1.98018
0.860367
1.49585
1.42984
1.9662
0.511735
0.600207
1.69795
0.986848
0.927791
1.5432
1.26638
1.04385
0.75432
0.685739
0.856821
1.15778
0.770145
0.898055
1.08154
1.60676
0.700484
0.57995
1.40518
1.11231
1.74741
1.50365
0.711331
1.46935
0.792624
1.2442
1.94547
0.829357
1.2379
0.837633
0.695786
0.715374
0.439771
1.57277
1.5041
0.576458
1.68403
1.87028
0.876346
1.38667
0.42862
1.76923
0.964674
1.16386
1.37263
1.45823
1.35971
1.57684
1.52395
1.87289
1.05218
402 181
9 491
262 321
197 461
273 412
457 123
341 265
441 142
403 458
467 458
128 281
170 474
471 311
238 342
478 226
22 446
311 147
489 329
496 480
135 117
177 169
209 74
28 381
358 368
130 287
237 361
276 494
281 426
178 272
234 341
61 189
319 456
327 0
470 475
260 219
186 171
444 160
398 232
426 128
138 401
378 114
192 393
262 327
184 72
31 108
128 360
289 193
252 275
125 118
274 371
343 425
213 253
39 216
206 202
306 470
157 265
194 293
319 469
398 288
259 325
5456.67
3
