60
3
0 0 0
82 10 12
95 82 70
37 34 81
81 22 66
61 99 42
92 90 21
40 93 71
62 13 80
68 24 97
48 72 69
96 78 26
87 36 33
36 54 94
45 59 87
77 94 13
67 29 59
30 69 24
32 30 68
27 37 17
66 61 26
45 84 21
63 24 85
75 99 79
92 10 48
44 52 16
35 27 83
17 64 79
45 100 100
71 33 41
24 15 93
100 71 59
20 10 57
86 88 32
62 98 23
75 37 66
11 81 61
96 30 55
20 31 97
34 14 30
72 29 13
62 64 80
74 50 96
85 42 45
57 100 85
77 27 64
80 70 44
51 63 93
89 11 62
23 73 95
66 42 59
11 80 59
49 42 14
11 41 68
15 92 10
68 13 100
55 49 87
21 66 31
10 70 54
62 37 26
1.24796
1.44022
1.32102
1.13014
0.80457
1.20609
0.601666
0.452614
0.81057
0.781276
0.384542
1.0247
0.43522
1.17053
1.23503
0.44005
0.889743
0.525809
0.467081
1.25329
0.920791
0.323043
1.05902
0.571668
0.956387
0.624913
0.718333
0.767208
0.591481
0.404414
0.720157
0.416975
0.780161
0.659174
0.772211
0.511498
0.926765
1.16532
1.19055
0.832973
1.20685
1.01236
1.28919
0.670062
0.891309
1.31861
0.880153
1.23198
0.407051
1.02716
0.675174
1.26305
1.10554
1.33175
0.988809
1.19953
1.05548
0.9249
0.981479
1.45787
450 292
303 271
464 220
193 179
409 31
51 198
135 376
71 201
57 427
448 146
168 449
152 108
283 166
109 288
485 458
108 434
4 312
314 136
224 360
45 59
173 272
269 400
348 195
479 147
254 207
342 351
156 340
240 79
188 399
132 354
272 410
382 115
328 488
3 95
351 61
387 317
190 282
56 42
493 315
195 127
462 348
465 293
91 113
355 187
124 385
223 143
200 341
180 23
213 259
339 436
310 409
156 265
191 448
197 413
222 147
18 322
243 45
289 124
492 306
87 479
16270
1
