60
9
0 0 0 0 0 0 0 0 0
98 27 79 58 26 37 13 78 64
37 12 69 58 24 89 16 15 57
29 60 28 33 93 51 29 35 60
50 88 82 66 84 70 31 12 55
43 33 55 99 90 31 44 99 43
75 34 93 91 40 72 77 55 42
31 11 40 22 90 68 67 20 26
66 66 25 14 57 65 27 12 63
39 68 95 91 14 83 92 90 53
22 93 100 32 66 51 61 85 16
13 59 57 87 95 46 34 92 76
93 85 41 56 77 16 71 58 68
45 67 93 86 17 57 99 78 39
96 40 17 26 33 69 80 61 14
45 47 62 85 97 59 71 70 26
68 40 19 59 82 65 93 53 19
51 73 92 96 49 65 23 67 99
87 35 26 16 75 83 71 17 94
91 93 84 82 86 11 71 55 38
58 90 97 67 47 83 33 71 97
10 75 28 83 87 29 94 34 75
26 21 30 75 62 78 18 30 24
54 17 92 24 48 32 38 20 37
75 82 43 18 64 65 12 45 87
95 10 98 96 96 75 22 48 56
23 77 14 77 27 83 14 95 96
88 62 26 67 60 78 93 29 45
11 73 93 75 86 24 65 75 67
64 11 53 24 70 39 96 29 33
55 40 99 39 40 73 77 24 43
17 77 89 10 51 84 14 42 20
98 60 21 99 20 58 66 37 75
74 98 66 90 45 60 76 26 74
35 49 81 42 31 61 89 26 60
22 68 59 59 78 90 64 68 65
52 57 80 28 17 29 60 77 20
27 18 50 98 71 99 78 62 83
24 29 28 87 97 46 51 36 20
95 93 39 75 49 55 81 62 31
46 23 91 99 67 94 56 71 80
81 59 78 57 30 45 91 10 26
86 20 24 98 66 80 95 56 94
39 99 86 78 48 92 71 47 53
45 33 71 14 79 89 93 11 29
94 42 45 30 98 20 83 18 21
14 86 31 12 61 34 14 29 26
73 75 31 14 29 43 66 70 15
90 89 39 25 45 65 38 90 97
22 56 100 14 53 42 28 28 24
72 15 94 77 53 40 97 95 71
78 94 99 55 61 33 64 82 53
23 61 43 49 33 78 80 88 96
57 59 62 19 70 67 100 13 100
44 59 27 74 100 86 81 89 44
88 34 32 19 85 17 93 22 72
10 42 89 80 23 57 31 90 51
57 10 87 57 79 66 15 93 85
16 93 10 89 72 28 18 28 90
63 33 37 42 76 26 61 43 93
2.17199
1.56478
1.50228
1.42266
1.78986
2.3951
0.914842
2.17798
0.789423
1.8046
2.23431
1.19373
1.60815
0.770852
1.25105
0.957248
0.554775
0.968023
1.51248
2.24299
0.782814
1.11566
1.7382
1.22357
1.68702
0.566099
0.949254
1.73385
0.576358
1.03051
0.894882
1.36724
0.770389
2.35538
1.31061
0.916419
2.04557
2.1405
1.4518
0.734151
1.23063
2.42061
2.22935
2.24673
2.21188
0.589613
1.47268
1.03517
0.518228
1.53791
1.51418
2.19413
1.24874
2.18338
1.6646
0.659769
0.605712
0.691744
1.51977
0.831358
377 405
94 494
249 60
152 80
211 391
442 472
7 487
204 297
490 197
195 253
56 475
43 240
356 194
13 194
192 8
413 307
200 298
236 312
340 451
467 157
305 204
454 1
292 83
48 2
24 131
106 260
207 331
303 447
318 92
392 67
73 324
295 221
208 229
187 28
101 83
354 8
393 166
152 146
49 384
241 223
338 139
285 269
222 498
206 268
180 307
496 237
466 302
178 103
220 405
243 266
415 71
8 451
474 138
31 203
391 224
455 367
429 239
401 350
18 284
308 199
4185
4
