60
9
0 0 0 0 0 0 0 0 0
15 35 78 91 35 29 51 30 61
48 91 19 17 92 51 84 60 39
20 54 11 48 37 24 15 34 23
20 21 70 46 40 60 49 36 87
42 98 62 86 68 89 12 21 100
65 23 49 46 47 28 70 84 99
49 63 79 55 23 23 51 82 12
59 78 59 35 76 80 94 44 54
57 31 46 96 70 38 81 28 80
98 58 47 27 83 28 75 69 60
25 16 68 59 39 29 69 15 33
80 62 71 50 26 78 58 55 31
47 35 35 43 13 52 48 48 97
74 11 42 97 38 41 14 74 56
52 51 13 60 100 11 28 54 35
25 91 86 30 20 90 24 79 48
41 54 31 70 37 12 88 93 74
37 13 19 23 55 48 44 43 85
92 41 52 58 88 23 51 89 27
69 31 24 90 93 19 48 36 56
41 66 68 58 27 53 93 43 84
47 68 89 14 12 53 16 53 76
64 18 30 26 98 58 87 17 76
64 56 70 15 75 83 35 44 44
53 10 41 70 85 56 44 78 94
72 20 18 84 22 79 28 12 70
74 21 22 46 36 83 87 33 72
29 54 55 36 10 45 23 81 68
51 77 83 36 54 41 14 31 20
21 91 74 52 100 22 17 99 20
66 41 95 52 39 66 44 54 15
94 30 52 84 79 30 43 83 44
59 89 10 83 90 10 73 45 72
35 85 92 44 32 33 83 97 35
15 53 90 79 69 14 64 31 47
87 47 50 37 59 44 98 25 15
13 32 50 80 66 90 38 13 70
29 30 79 85 10 29 43 12 73
21 20 64 78 52 45 86 79 35
20 61 59 12 81 52 16 41 72
96 61 17 99 28 27 16 92 31
66 100 75 27 59 30 93 24 61
34 53 76 60 28 44 28 86 79
39 50 46 68 95 44 74 74 99
93 68 49 44 56 20 71 54 67
33 14 38 93 54 51 66 32 58
98 11 74 93 68 88 54 12 30
63 85 92 81 15 73 28 77 45
17 60 98 88 82 97 72 82 88
75 96 24 35 55 28 59 92 14
55 61 58 31 88 38 16 23 71
29 59 15 85 97 44 58 75 77
67 20 69 56 41 91 81 41 53
54 46 51 37 32 68 57 52 87
43 90 29 32 98 39 47 82 59
56 68 45 54 69 66 48 11 74
38 55 28 72 32 66 70 71 16
94 79 85 55 41 19 66 77 78
95 77 93 63 77 56 20 75 77
0.944449
1.43791
0.538049
1.40842
0.42616
1.19091
0.947273
0.977839
0.613053
0.797151
1.0063
0.55046
1.4317
0.804595
0.303035
1.09794
0.397173
1.16472
1.06658
0.345578
0.469173
1.29889
0.337981
0.970402
0.665794
1.06431
1.18179
0.863092
0.368868
1.30648
0.700213
0.492411
1.3885
0.90337
0.572451
0.370193
0.742381
1.15448
0.729432
0.422971
1.24222
1.13048
0.322192
0.890658
0.317135
0.572194
0.671385
0.517594
0.824066
1.4406
1.16184
1.15127
1.09779
1.03787
1.26736
1.26994
1.24874
0.600554
1.34
0.704324
464 118
182 32
313 273
258 58
472 361
297 33
392 304
479 373
12 192
75 294
30 353
146 357
332 467
362 44
491 289
460 156
328 26
387 410
85 153
222 203
58 378
47 46
254 125
171 10
413 69
229 59
184 95
2 242
71 376
479 405
73 370
448 16
27 345
424 38
8 311
347 223
263 248
332 181
40 445
247 240
362 370
101 34
24 199
121 106
90 389
67 52
280 491
51 127
239 287
88 33
218 255
19 368
284 356
255 431
301 311
320 159
132 198
424 90
317 304
425 156
15890
1
