60
3
0 0 0
18 33 15
79 79 25
68 23 22
71 19 89
78 96 16
85 19 48
90 47 41
75 10 60
26 59 24
43 39 81
77 97 83
41 49 70
75 62 78
72 63 34
86 74 87
74 75 60
82 88 14
61 49 28
21 46 89
37 88 21
80 65 98
55 54 68
51 95 97
80 21 96
100 68 11
93 22 56
45 87 89
41 71 22
27 63 30
46 48 30
70 56 94
54 71 70
57 55 21
97 97 83
97 28 10
24 58 50
51 91 56
71 21 90
11 30 11
77 18 22
35 96 27
84 64 37
20 36 90
89 14 79
64 39 97
88 38 52
84 60 13
17 67 39
20 12 63
70 71 93
69 97 85
79 45 89
69 73 45
42 32 56
56 91 87
67 20 15
73 57 87
21 45 79
37 40 89
0.618163
2.34529
1.94922
1.78572
2.37581
0.610882
2.16009
1.54261
1.86356
1.70755
2.11678
0.814302
2.49926
2.16879
1.07719
1.83335
2.16827
1.28461
2.15964
1.28945
1.23814
2.22122
0.838259
1.25081
1.0843
0.509444
1.48626
1.60229
0.87068
0.873466
1.42211
1.68106
2.48606
1.95094
1.03218
2.04954
0.902265
2.43732
1.67534
2.31163
2.42208
1.9179
0.872048
1.9337
1.64586
2.07834
1.25217
0.783294
1.50456
2.30667
2.48011
1.96704
1.0932
2.14572
1.3258
1.76422
1.61533
1.61723
2.40474
1.36744
109 2
21 68
74 397
491 452
182 132
167 2
390 293
194 13
184 348
338 364
103 236
241 386
350 90
337 176
41 435
4 488
145 34
469 119
34 8
443 463
262 407
151 84
376 417
378 85
449 358
1 412
316 305
190 100
88 203
176 119
304 128
79 1
147 441
418 336
125 80
34 163
285 43
193 186
240 228
431 198
420 334
288 264
262 285
89 61
233 95
76 51
324 199
127 63
339 16
357 17
131 480
388 409
462 127
116 360
108 136
314 100
442 297
231 65
347 315
345 500
3370
5
