60
11
0 0 0 0 0 0 0 0 0 0 0
31 94 36 82 51 44 87 24 17 92 47
39 20 62 52 31 63 99 53 75 78 55
83 35 36 11 59 12 97 84 59 80 25
91 69 33 52 44 72 34 97 46 12 70
71 28 99 37 16 93 30 70 22 60 93
31 54 99 20 26 20 69 39 93 39 87
65 88 22 37 42 33 43 78 24 100 75
21 100 72 43 79 59 96 72 29 87 23
14 68 22 87 63 53 31 10 66 86 85
68 50 15 74 15 52 41 41 77 55 61
32 40 95 40 47 51 62 53 57 34 54
48 36 95 95 62 47 72 91 36 28 49
82 35 95 90 94 52 12 60 89 32 22
85 59 38 24 13 55 35 43 14 87 42
15 26 89 98 98 11 59 13 85 56 88
78 95 85 42 71 57 43 90 72 75 50
72 60 19 12 93 38 79 80 32 27 44
16 82 93 41 13 69 42 41 63 17 98
52 52 57 18 42 43 38 15 14 81 38
57 86 56 30 15 83 72 66 10 16 78
33 86 52 58 33 42 38 34 13 81 56
81 35 69 40 91 21 59 55 12 24 73
47 46 99 71 94 51 16 11 62 61 19
63 85 36 27 81 14 21 95 83 79 44
86 30 95 54 93 68 23 87 19 83 79
20 40 34 16 46 71 20 30 82 52 42
85 30 95 73 94 55 13 13 95 65 56
80 21 17 63 13 21 96 20 72 30 12
48 64 38 67 73 15 15 73 71 51 68
43 49 49 10 83 32 46 36 84 65 37
87 97 37 60 89 87 18 93 63 57 78
81 58 37 12 51 12 39 82 70 89 43
38 22 71 63 57 88 66 53 97 79 73
26 41 19 42 34 85 33 35 34 75 16
13 92 84 98 26 42 78 85 87 14 76
65 39 96 87 47 61 65 51 37 37 40
73 22 44 87 59 79 57 85 63 20 35
68 58 62 67 76 99 67 91 70 44 68
39 73 28 41 79 60 13 23 77 49 57
76 26 100 53 69 73 39 32 99 86 60
24 18 13 63 57 82 85 86 24 54 38
71 37 76 46 67 56 31 89 34 95 31
90 40 82 50 84 55 31 100 17 42 98
55 10 73 15 55 46 53 87 90 50 53
88 85 12 24 23 65 15 52 63 55 41
74 56 43 24 39 80 78 49 36 29 86
97 25 45 48 41 64 44 30 62 56 55
65 51 13 88 48 90 71 83 79 80 61
43 35 27 86 75 14 32 82 66 67 41
59 32 26 44 93 89 76 49 61 84 16
76 65 90 14 48 75 21 40 86 45 27
73 68 14 92 80 39 63 72 97 82 35
94 81 26 26 66 23 88 21 21 27 83
92 84 21 82 83 44 27 76 96 47 30
63 42 93 23 16 62 30 50 51 83 10
43 92 96 99 61 44 71 56 14 49 15
91 86 30 78 64 63 96 52 43 19 46
38 82 27 33 61 81 64 76 25 50 13
74 91 33 27 100 81 74 77 80 44 27
1.58223
1.00367
1.86719
0.447481
1.30577
1.25266
0.986586
0.956662
1.2599
1.38863
1.89693
0.958578
1.24654
1.14105
1.72223
1.42026
1.60174
1.05634
1.30946
0.6969
1.75461
1.28205
0.738593
1.36496
0.9922
0.769177
1.39325
1.1958
0.525855
1.73685
1.11352
0.509052
0.886053
0.618564
0.624579
1.6309
0.623963
1.65859
1.48699
1.37834
1.29465
1.95637
1.69783
0.675393
0.508985
0.831862
1.79579
0.898705
0.434355
0.713503
1.3403
0.880189
0.638184
0.401569
1.49231
1.89903
1.16788
1.10764
1.63848
0.975527
227 188
302 422
348 307
385 66
255 486
266 144
451 431
104 377
110 394
339 145
305 448
365 214
253 5
447 462
145 39
321 66
131 113
457 114
329 351
484 447
63 69
413 332
306 192
7 251
407 328
222 3
437 175
192 210
15 327
185 360
474 37
192 86
246 111
257 7
285 263
484 245
406 225
496 14
253 364
135 199
116 183
316 409
126 350
351 19
212 390
474 9
221 246
270 423
362 399
44 2
127 195
135 103
52 415
281 425
471 229
362 385
259 465
449 114
305 72
6 262
4070
4
