60
5
0 0 0 0 0
92 89 87 79 81
19 86 66 89 61
60 60 80 48 22
14 89 67 31 74
28 53 70 35 57
12 75 26 31 43
39 73 48 59 10
40 19 40 92 33
49 63 28 36 73
62 80 95 88 11
71 87 28 48 66
46 27 24 63 33
83 17 14 22 19
27 23 81 94 42
42 22 40 71 24
67 74 52 35 36
85 88 40 88 20
100 54 88 25 26
30 53 36 48 41
66 17 98 93 52
97 93 21 66 15
57 12 91 40 53
84 80 67 46 13
30 60 97 90 49
48 64 84 37 96
77 21 57 58 87
56 39 95 99 58
30 30 12 76 69
97 54 43 15 93
71 81 84 35 44
31 14 79 49 63
90 87 97 62 19
45 100 26 24 22
10 10 97 95 51
42 78 88 56 78
72 44 64 56 61
41 23 26 47 76
98 47 20 67 100
37 84 92 47 39
50 100 70 11 31
44 48 31 24 26
62 62 87 46 17
54 77 67 76 61
74 33 48 43 54
21 13 88 56 71
92 71 87 46 50
68 70 24 46 91
30 74 10 95 89
47 97 20 56 92
16 12 19 56 67
33 92 99 34 26
16 75 74 18 90
20 36 66 74 22
67 71 13 66 46
83 89 61 96 40
97 40 16 100 32
69 80 71 89 84
54 20 17 40 79
79 20 25 12 88
0.792632
0.266765
0.241871
0.342426
0.437915
0.312597
0.738241
0.341144
0.860048
0.381191
0.742017
0.824278
0.864308
0.83377
0.888741
0.429745
0.390775
0.981336
0.892351
0.211534
0.860262
0.400478
0.983343
0.583766
0.645447
0.92552
0.209841
0.422995
0.717481
0.902575
0.634469
0.361647
0.622886
0.241037
0.714484
0.945137
0.849017
0.439471
0.206677
0.29615
0.416425
0.438279
0.720244
0.398763
0.957282
0.940376
0.553309
0.484008
0.343412
0.71314
0.799399
0.71923
0.892066
0.577232
0.253174
0.863682
0.771918
0.263377
0.708482
0.761528
319 143
461 131
390 148
95 321
361 380
241 396
1 358
438 280
57 121
159 415
341 394
413 34
23 458
239 75
26 23
240 252
448 360
424 253
494 272
228 382
364 39
486 404
345 128
423 453
263 158
269 25
472 376
176 161
431 438
53 454
183 292
473 235
499 168
158 156
294 457
37 97
91 284
433 495
10 199
491 46
368 420
200 498
131 470
459 464
146 298
30 182
312 321
315 149
78 324
191 477
388 27
452 265
335 139
477 401
456 96
233 135
14 313
103 437
465 204
186 52
3260
5
