60
9
0 0 0 0 0 0 0 0 0
10 100 56 95 43 77 65 52 82
25 74 34 72 60 10 66 68 17
75 44 87 50 94 57 56 78 31
84 64 93 45 77 58 45 39 51
86 71 79 27 83 90 79 91 74
58 100 16 75 75 14 28 92 89
44 58 73 49 34 53 17 80 45
99 43 83 58 98 100 10 57 97
28 14 83 22 77 69 79 15 49
75 39 67 16 79 47 77 79 10
53 100 55 53 97 72 78 34 27
20 23 34 41 76 69 25 24 67
37 36 83 99 20 67 43 71 95
62 12 96 62 45 31 39 10 18
36 35 36 74 67 95 86 29 68
29 47 56 56 58 17 33 17 34
44 69 83 62 20 42 100 80 82
66 57 39 80 88 86 64 38 70
75 16 34 53 75 41 54 31 44
39 90 16 85 52 59 68 40 57
79 30 45 11 13 28 100 77 16
60 87 60 48 19 29 49 17 38
33 51 75 59 62 17 49 83 52
27 26 51 62 43 29 23 34 24
51 88 97 57 45 11 42 48 91
100 92 64 94 41 72 26 65 53
91 38 52 63 41 27 85 10 41
95 29 79 25 35 43 60 94 21
71 91 56 44 49 59 69 60 19
44 59 45 100 56 51 100 81 51
38 85 86 84 64 98 46 73 35
11 19 23 88 35 86 41 78 69
84 68 77 39 27 60 27 76 20
52 80 34 15 10 94 73 63 21
14 96 21 66 17 49 23 72 16
68 63 68 88 12 90 93 47 61
80 62 81 98 22 67 37 88 33
54 44 19 26 50 65 93 22 85
53 27 84 92 29 13 31 36 22
28 52 54 93 60 92 47 50 78
30 76 16 98 72 80 38 22 23
33 92 81 17 53 38 42 42 92
90 78 17 20 12 53 43 11 38
23 95 20 65 14 95 13 68 79
34 73 47 41 30 38 18 64 28
83 42 77 22 88 88 86 86 16
32 46 60 58 62 55 27 48 69
96 69 87 14 63 52 25 96 50
79 39 34 65 90 11 22 60 46
97 20 70 70 59 70 76 38 48
62 82 65 42 97 72 68 47 89
67 83 35 43 66 99 78 44 46
69 83 20 99 79 57 52 62 87
79 16 38 23 59 21 34 99 49
10 71 58 12 86 64 19 62 36
58 35 41 48 76 22 85 64 42
68 23 31 32 28 10 42 17 50
65 63 64 60 88 56 34 78 47
84 88 46 62 24 31 45 49 94
0.791078
0.42733
0.750444
0.729583
0.911037
0.627816
0.545329
0.386843
0.516486
0.56879
0.935655
0.559165
0.857472
0.396688
0.508865
0.535754
0.483668
0.46398
0.56381
0.811271
0.214103
0.757983
0.35213
0.705817
0.442067
0.418953
0.544413
0.341183
0.433542
0.586068
0.248131
0.928731
0.377149
0.851852
0.52089
0.343934
0.450235
0.387553
0.754536
0.660713
0.498304
0.269134
0.520176
0.707158
0.418703
0.930854
0.300001
0.601296
0.989586
0.404694
0.81308
0.717188
0.576198
0.983894
0.664807
0.925611
0.64928
0.909255
0.934405
0.368748
91 218
94 423
30 216
230 145
278 340
400 105
160 444
336 165
381 158
332 57
398 346
224 349
401 262
31 334
273 185
7 163
175 53
110 241
263 229
48 213
95 387
245 220
5 46
156 129
2 159
19 459
376 277
277 9
126 481
136 196
421 129
487 136
223 281
164 25
145 497
228 490
440 60
262 312
350 327
487 267
180 434
182 435
283 423
165 411
304 319
492 238
133 320
389 330
365 0
1 290
87 18
430 34
133 16
434 439
160 138
133 271
282 354
446 71
133 453
217 136
8092.5
2
