60
5
0 0 0 0 0
96 50 99 82 33
44 48 96 66 17
16 56 96 26 37
41 43 10 63 65
36 46 36 87 66
22 92 82 99 48
51 41 58 97 100
44 96 57 56 67
77 47 55 27 81
84 33 71 78 17
26 38 70 55 58
24 36 97 85 85
30 69 25 86 84
29 40 96 75 27
97 80 70 65 77
57 95 28 38 35
51 55 59 96 34
51 68 98 24 66
93 59 76 27 47
54 78 31 39 41
42 92 92 12 45
81 40 83 64 91
72 82 69 49 82
63 96 99 72 79
27 42 63 92 18
52 52 85 40 24
22 30 78 51 64
99 57 39 49 20
63 35 45 91 72
39 80 92 10 18
18 15 85 57 86
66 30 88 73 12
67 41 96 81 89
25 15 37 95 96
84 75 85 66 100
62 72 37 17 57
80 25 52 36 46
44 19 69 75 55
97 93 71 20 74
42 74 32 24 100
27 51 48 37 41
38 51 37 55 87
16 30 94 39 48
56 25 55 54 64
26 91 33 42 94
22 57 69 50 18
97 11 81 55 87
68 75 94 78 90
15 36 58 77 100
26 90 87 79 34
86 24 67 59 37
61 82 25 22 21
36 80 37 89 26
17 33 93 95 77
97 47 66 50 66
20 98 95 31 35
84 45 67 99 84
92 37 54 18 80
63 74 100 44 42
0.928606
0.700181
1.1776
1.4853
1.48484
0.538363
1.37054
1.10153
1.24736
1.47905
1.23978
0.974189
1.23682
0.953129
0.628052
1.05453
0.499757
0.915791
1.22289
1.23138
1.22539
0.853655
1.34544
0.845799
0.87655
0.697881
0.434251
1.14364
0.465288
0.522716
0.762485
0.355571
0.956937
1.28446
0.985044
0.587376
0.481056
0.583755
1.16734
0.658932
0.318231
1.42612
0.341912
0.926174
1.23646
0.970084
0.908191
0.503453
1.1673
0.93505
1.0206
1.21662
0.481769
0.542948
0.634656
1.4485
1.06042
0.666492
1.13981
1.27411
417 142
287 251
434 205
123 268
407 388
196 63
206 187
170 250
16 350
73 212
342 109
176 173
125 86
490 159
51 122
40 423
425 450
176 462
239 73
315 292
362 249
402 426
316 130
151 298
337 409
77 0
108 266
24 363
467 18
425 424
310 309
277 358
443 441
276 426
428 67
482 464
63 331
477 208
463 335
276 270
310 344
268 373
377 204
455 254
478 448
446 465
140 125
146 170
33 301
390 223
323 79
72 178
235 47
307 353
293 74
431 318
363 210
269 309
302 290
27 353
8607.5
2
