60
5
0 0 0 0 0
62 11 69 37 18
78 47 92 24 93
83 22 28 71 29
36 49 76 14 58
81 100 77 90 88
58 28 33 81 49
80 54 58 99 55
29 44 63 53 29
57 28 61 58 92
47 90 92 23 28
44 57 30 75 26
43 71 55 77 85
80 93 47 27 64
16 75 91 45 82
70 55 34 13 80
31 48 21 14 94
81 54 43 40 66
97 30 48 21 99
58 92 98 85 66
50 92 93 73 19
69 91 72 35 48
98 10 65 66 100
60 43 65 21 35
80 60 84 59 70
56 65 59 76 72
86 16 94 39 55
48 72 87 14 37
13 63 21 99 70
71 17 35 13 12
10 97 58 21 20
16 74 72 51 12
30 20 41 14 21
97 88 16 51 87
74 59 81 91 43
100 87 38 68 37
47 100 69 93 54
31 12 33 41 70
65 26 91 19 40
38 66 74 45 30
36 60 18 74 69
84 44 22 53 84
48 72 29 59 39
90 31 79 61 42
25 36 66 91 89
34 25 96 56 37
99 63 59 45 20
49 30 96 52 19
48 47 93 56 43
100 30 22 26 32
66 85 76 96 83
22 76 55 23 87
52 50 41 30 80
63 11 58 81 37
71 97 24 32 16
96 52 52 91 13
43 57 91 51 38
100 79 18 67 95
73 78 29 95 91
14 95 57 74 95
0.34419
0.458611
0.437428
0.30483
0.40709
0.349778
0.299883
0.292234
0.319619
0.178872
0.288621
0.229233
0.155889
0.258736
0.288118
0.335161
0.134079
0.217468
0.220552
0.186064
0.363508
0.322273
0.322546
0.351554
0.319689
0.299196
0.271598
0.160565
0.136165
0.342746
0.414606
0.494198
0.455481
0.216691
0.239564
0.180538
0.332481
0.275851
0.232778
0.464687
0.254581
0.44003
0.185431
0.308574
0.197569
0.264322
0.265028
0.259627
0.432672
0.357353
0.209108
0.460271
0.174728
0.32981
0.280192
0.22405
0.497665
0.437835
0.38926
0.12039
371 216
363 226
74 476
84 478
0 269
163 200
247 175
283 413
210 198
323 138
412 304
128 438
359 187
160 80
88 146
330 280
277 227
460 136
452 361
0 240
441 184
49 105
276 177
10 475
413 81
75 320
449 11
443 373
381 281
187 151
245 219
17 47
284 234
406 157
301 5
23 96
88 250
46 381
375 484
256 416
322 246
22 84
427 214
32 35
416 473
200 216
67 115
169 32
278 412
103 430
434 121
466 500
402 11
327 449
388 178
99 313
62 72
365 180
333 205
30 244
5546.67
3
