60
11
0 0 0 0 0 0 0 0 0 0 0
53 98 34 90 81 61 39 98 47 26 69
55 16 69 25 17 97 88 74 16 97 36
88 14 72 58 23 93 39 97 57 90 35
98 93 77 90 43 33 99 58 50 21 70
68 43 57 43 71 57 82 36 31 18 26
49 34 20 99 83 25 81 46 36 94 21
64 17 67 95 37 17 28 21 45 33 86
53 14 57 22 100 94 54 45 59 58 56
75 27 99 80 12 92 86 79 43 48 13
67 56 77 97 21 21 61 37 87 52 86
10 35 68 54 80 67 83 52 82 56 54
94 51 50 30 78 78 24 32 98 85 58
76 12 32 94 78 11 32 82 31 98 81
18 49 91 100 42 66 36 51 88 96 98
28 20 72 36 70 69 34 51 76 70 96
94 56 48 92 49 87 87 98 16 43 69
21 17 75 37 37 13 70 73 65 35 77
19 69 19 53 46 35 49 15 26 17 77
99 63 43 92 65 31 66 70 31 11 94
19 66 33 93 17 94 29 30 100 40 32
46 57 52 52 27 32 22 46 89 73 16
80 21 80 81 33 36 19 37 17 62 13
40 93 43 50 53 11 76 22 25 61 73
47 83 32 58 97 80 11 77 44 39 31
38 66 46 18 92 84 12 13 69 65 73
61 91 16 23 72 99 52 25 82 98 39
68 57 79 84 53 46 15 68 51 57 85
81 55 49 92 11 96 46 64 15 81 19
76 80 98 80 53 99 19 96 88 71 67
76 82 59 11 44 87 85 76 45 94 68
69 39 12 60 100 71 86 23 18 85 31
57 67 18 51 22 52 27 21 41 57 61
96 97 78 82 62 71 87 23 93 93 87
64 21 35 42 46 100 70 23 13 82 39
14 95 96 82 95 83 71 60 31 87 25
17 98 17 92 55 53 33 71 75 95 10
49 34 93 50 51 99 14 58 31 86 18
21 67 39 45 77 85 73 95 96 100 25
21 56 60 72 99 60 73 68 18 100 88
21 26 66 12 21 61 46 68 51 78 62
92 53 75 50 18 45 44 61 27 28 89
86 75 85 86 60 63 31 33 72 60 17
92 71 33 91 12 68 15 43 53 38 75
55 25 33 90 85 25 17 95 40 87 55
77 72 84 13 88 82 45 21 77 96 57
54 97 58 69 45 58 97 55 97 94 71
63 96 79 52 10 83 83 15 64 95 35
74 22 100 67 79 79 66 83 36 32 31
69 97 56 22 52 27 21 80 48 35 70
60 68 66 19 19 94 38 97 29 55 76
57 47 27 14 15 62 32 84 65 14 16
14 23 98 79 54 19 93 62 27 45 54
13 21 99 16 58 40 63 69 44 64 83
47 49 72 38 26 88 14 36 100 33 80
88 29 88 31 29 12 34 84 28 86 45
38 90 21 16 64 42 25 84 100 86 44
21 99 89 27 59 56 47 90 45 50 39
88 75 66 74 99 79 72 28 27 26 38
60 36 99 92 91 84 93 28 91 69 35
0.306652
0.145023
0.131091
0.140997
0.213013
0.202504
0.446642
0.314123
0.238618
0.198092
0.191072
0.458991
0.340821
0.480538
0.244028
0.222082
0.193288
0.106822
0.321924
0.180912
0.155545
0.48251
0.182127
0.403263
0.143949
0.454734
0.390341
0.217739
0.455299
0.224774
0.48343
0.43268
0.25789
0.3638
0.23853
0.137984
0.485611
0.429916
0.478224
0.27822
0.336101
0.432509
0.431844
0.39074
0.420291
0.210068
0.176151
0.353082
0.113845
0.498414
0.141417
0.197182
0.166405
0.282418
0.490589
0.360009
0.435791
0.319624
0.14283
0.2872
390 445
470 214
209 35
411 380
296 429
421 238
491 72
267 232
251 116
287 480
401 208
255 450
430 16
429 192
463 482
369 338
221 45
0 168
259 443
6 482
20 475
401 4
121 177
20 12
118 373
305 197
228 345
75 337
48 141
330 318
152 418
94 254
96 51
433 13
263 492
260 136
373 63
197 469
151 424
156 87
86 137
237 186
369 229
347 16
224 370
118 130
421 263
201 14
249 114
144 199
122 304
18 100
213 138
423 260
187 213
285 415
177 195
445 500
320 347
117 250
5588.33
3
