60
11
0 0 0 0 0 0 0 0 0 0 0
73 37 67 47 60 38 80 58 97 23 96
17 11 77 69 87 75 90 15 61 100 68
57 90 90 80 95 59 31 86 42 39 47
70 40 33 53 97 43 87 17 31 54 93
54 40 72 94 83 22 83 26 80 44 15
17 51 25 97 44 100 98 27 79 45 70
21 29 12 57 84 64 95 91 39 66 23
58 92 46 65 73 39 14 44 96 51 54
62 61 45 79 15 60 15 42 43 61 57
59 38 28 38 54 92 22 10 30 37 71
24 19 87 67 17 54 57 89 73 12 21
13 85 93 46 48 37 72 87 71 34 47
78 39 31 89 29 39 92 62 38 27 97
31 19 13 42 14 18 22 58 75 56 48
75 86 95 99 85 26 75 98 24 73 19
20 35 11 80 80 44 63 41 38 73 38
84 55 19 67 41 18 62 16 41 57 27
76 13 99 26 82 29 11 31 66 15 92
29 86 69 59 40 31 32 69 43 72 78
63 20 62 45 85 96 59 69 37 73 84
56 31 86 43 29 72 37 48 60 15 63
18 30 54 54 51 51 55 30 87 16 16
52 19 81 58 49 74 38 67 94 41 77
80 54 33 40 65 76 73 96 62 90 67
63 88 72 85 40 22 81 16 68 75 10
16 13 23 20 39 33 20 93 87 52 73
87 70 51 98 67 63 36 25 92 31 50
59 70 77 100 16 11 19 40 63 94 11
43 56 14 45 82 88 89 28 32 92 71
48 21 29 60 54 59 26 24 35 20 10
14 98 72 61 26 48 45 29 66 37 90
20 50 80 65 52 90 88 23 45 79 57
58 21 61 19 57 97 30 89 53 35 92
76 11 88 67 25 25 37 25 41 26 25
98 40 39 35 89 17 64 62 50 72 70
50 98 43 45 48 86 21 53 18 35 28
80 77 63 66 42 15 29 58 39 69 91
17 52 94 22 100 67 68 44 98 69 39
91 99 74 45 95 39 22 75 97 10 69
18 30 39 58 10 79 43 86 94 66 90
29 60 65 72 57 91 91 35 59 99 12
53 23 63 85 96 32 60 99 93 61 12
29 31 23 64 36 28 53 78 69 57 96
24 30 61 66 45 68 35 96 95 35 37
32 81 72 97 37 42 69 57 94 17 35
52 27 68 87 51 91 22 96 12 31 11
89 23 92 94 25 86 48 76 67 16 14
56 85 45 52 59 18 23 38 50 79 49
22 15 46 28 48 55 35 34 64 79 90
15 22 77 48 73 98 79 20 92 43 31
53 71 16 83 71 76 42 36 25 68 51
40 19 48 95 30 12 63 62 11 15 72
95 14 35 13 54 81 29 96 43 46 50
27 67 32 33 41 31 34 21 11 82 33
17 48 22 45 38 49 97 73 99 58 48
64 16 57 39 64 90 83 84 70 94 48
15 69 85 70 92 15 57 61 90 33 66
40 84 83 84 28 82 57 36 33 60 100
45 78 38 30 87 97 71 77 90 39 48
0.159113
0.239137
0.356669
0.266621
0.225127
0.14202
0.192428
0.277026
0.190935
0.308654
0.292937
0.265985
0.380731
0.10464
0.149371
0.125158
0.467529
0.186638
0.468166
0.225906
0.481118
0.4931
0.435062
0.332946
0.391065
0.119042
0.279273
0.370722
0.128883
0.259025
0.297135
0.479573
0.364884
0.464859
0.254081
0.364897
0.445847
0.495022
0.291518
0.362109
0.438089
0.460343
0.127096
0.454145
0.452717
0.140231
0.231883
0.423789
0.183791
0.342177
0.24399
0.462949
0.198892
0.175971
0.13886
0.312479
0.212536
0.293477
0.308398
0.48782
325 358
111 153
408 156
75 3
18 422
33 373
452 67
444 442
255 81
53 234
453 425
126 362
147 464
446 456
212 274
429 334
48 489
244 419
71 128
51 158
418 209
13 297
90 398
48 186
489 417
218 409
95 71
497 437
422 33
371 263
20 88
42 179
410 440
382 461
394 219
14 61
330 442
359 452
96 477
94 495
238 327
264 213
456 341
453 156
405 343
97 273
172 108
181 399
134 79
449 483
439 114
298 83
46 29
137 347
98 444
218 37
297 279
341 485
97 161
174 361
15960
1
