60
7
0 0 0 0 0 0 0
12 76 29 78 90 69 57
80 49 100 26 39 65 14
71 32 81 94 57 17 79
30 82 48 53 64 16 13
39 17 45 95 38 45 44
33 26 78 75 80 33 13
49 26 100 86 97 63 80
29 25 43 73 33 16 84
95 64 19 35 82 100 76
53 69 62 63 26 74 80
29 13 94 15 57 27 49
94 35 81 51 79 44 38
25 24 71 29 81 34 35
65 36 87 96 71 94 69
35 79 18 26 96 94 15
44 52 78 56 98 26 18
50 54 74 70 98 70 46
56 22 25 92 25 53 37
87 79 59 15 45 99 72
81 54 81 12 26 29 24
59 21 45 61 37 45 35
49 88 29 39 34 52 69
47 35 25 16 17 79 50
82 93 24 18 76 54 60
32 62 67 43 33 14 77
21 24 49 90 48 22 29
59 55 75 83 60 64 19
15 74 86 51 15 45 83
83 89 91 66 83 25 33
59 84 19 72 98 22 15
43 86 87 45 79 86 64
68 98 90 60 84 69 14
83 79 13 94 32 21 78
52 77 82 41 28 61 95
69 49 59 82 22 95 52
95 82 64 35 87 11 72
58 62 60 18 40 31 43
39 17 14 92 51 47 61
16 90 80 64 23 19 82
49 95 88 66 26 99 17
64 49 94 86 41 10 88
45 50 89 89 43 74 48
46 73 54 14 89 73 70
19 79 36 24 22 10 35
46 12 26 25 64 67 54
71 78 73 92 53 51 90
98 80 23 69 92 62 53
82 91 94 12 33 20 62
60 47 87 42 40 43 87
36 12 98 35 13 93 68
62 34 35 29 38 60 45
74 45 62 17 84 54 91
24 46 28 67 99 51 79
82 97 43 49 57 17 54
82 12 100 89 84 58 59
19 61 31 79 11 16 10
44 18 75 72 39 16 48
97 46 14 20 87 95 24
83 34 68 15 87 39 80
2.41838
1.73502
2.4688
1.43941
1.71355
1.8482
2.05083
1.00741
0.6325
0.848469
0.640442
1.8645
2.34997
1.65947
1.10534
0.605942
2.06525
1.39353
0.940217
2.3
2.34042
1.39822
2.11892
1.98541
1.16195
1.52568
1.28199
1.67526
1.11844
0.919343
1.64183
1.21726
0.582282
0.876204
2.27993
1.03219
1.38196
2.34543
0.766527
0.771712
0.598165
1.60404
2.01236
1.1031
2.44492
0.690521
0.722944
1.04353
2.4095
1.74209
2.37304
2.34755
2.13566
2.1418
1.14514
1.85795
2.04645
1.74537
2.33474
1.66995
116 130
162 377
48 96
62 210
162 468
394 120
184 16
247 478
71 153
402 253
399 371
123 56
268 201
410 140
350 109
26 191
298 65
416 378
344 366
276 53
148 176
456 421
238 185
119 330
259 73
440 63
18 401
397 332
414 197
356 51
439 168
421 297
73 350
207 258
265 1
184 425
179 358
227 24
239 146
175 143
225 362
184 156
12 468
95 63
460 452
312 23
296 367
334 360
241 126
200 308
102 19
47 358
67 388
312 359
350 305
16 381
438 296
465 427
191 209
363 262
4046.25
4
