60
3
0 0 0
83 95 74
25 75 64
11 79 70
98 57 93
10 90 11
21 14 53
86 15 16
62 28 89
43 96 41
91 44 13
52 13 33
33 48 13
81 11 73
26 44 74
34 72 45
52 71 92
62 65 41
45 36 94
40 69 100
85 50 60
58 89 84
62 24 80
59 93 12
10 50 95
26 91 92
13 88 89
100 70 39
54 50 32
67 81 41
12 44 18
94 15 28
76 28 67
24 47 12
57 93 26
12 52 50
84 14 62
46 72 85
19 96 20
98 31 80
25 82 65
78 52 90
35 52 67
93 25 10
10 28 64
11 56 29
22 79 58
59 53 25
44 73 89
79 100 62
95 60 51
16 17 67
28 35 69
35 54 49
56 79 68
93 13 79
38 79 11
63 53 23
20 39 67
76 69 51
0.184729
0.206589
0.154554
0.368887
0.102988
0.491951
0.105588
0.198934
0.387366
0.245867
0.276678
0.356881
0.12635
0.49287
0.425725
0.425082
0.432522
0.303747
0.272646
0.219384
0.367063
0.465355
0.222586
0.467101
0.481493
0.320792
0.132701
0.42657
0.467968
0.417977
0.414
0.32879
0.119978
0.432173
0.129549
0.425121
0.443111
0.36061
0.276043
0.331428
0.492805
0.482156
0.417881
0.282104
0.216429
0.390885
0.426593
0.227569
0.317042
0.300525
0.41575
0.362189
0.20188
0.149182
0.366376
0.470311
0.379092
0.200163
0.334944
0.464211
221 248
42 214
466 155
265 237
333 275
209 331
387 179
464 402
262 339
292 118
211 255
346 488
209 65
110 450
193 435
191 210
444 298
228 269
398 177
153 138
362 37
422 105
482 245
68 155
368 84
42 99
478 173
135 216
181 210
286 242
118 449
343 182
310 436
433 173
213 418
351 87
154 288
116 222
263 82
277 405
464 441
421 464
392 128
324 153
62 266
348 292
469 88
223 380
327 68
362 148
344 155
216 333
0 444
1 397
9 359
67 399
84 28
478 281
304 435
248 459
3180
5
