60
7
0 0 0 0 0 0 0
73 37 56 70 81 12 45
31 16 98 22 34 19 39
52 72 63 26 22 63 11
57 41 75 31 20 73 56
10 46 15 79 95 43 61
49 53 45 76 41 42 80
94 99 50 62 99 56 65
96 100 49 86 99 82 35
86 44 76 72 40 57 99
50 12 51 18 51 95 19
87 48 77 39 55 89 78
77 39 78 32 60 29 58
97 59 17 45 52 34 62
36 96 89 37 99 93 76
18 36 87 41 34 91 47
70 76 15 84 67 67 99
10 38 17 26 16 83 39
39 29 77 81 46 99 72
28 19 93 74 31 97 43
58 24 16 48 76 63 20
59 66 24 57 49 89 75
62 64 56 80 19 19 17
34 52 37 70 87 69 55
19 28 48 41 78 54 37
89 78 65 88 25 95 96
77 98 20 54 39 96 39
100 72 33 67 56 82 46
37 37 20 63 67 77 15
70 47 20 48 61 22 43
95 57 84 47 73 15 23
28 45 24 37 86 56 62
83 18 11 61 92 16 58
80 21 12 40 73 58 45
90 47 96 61 35 74 58
19 53 45 83 63 34 39
20 52 87 100 98 80 52
88 99 74 65 40 47 92
38 76 57 99 20 32 81
51 46 62 80 86 83 94
97 42 74 51 55 51 38
70 30 10 72 26 39 73
99 72 79 68 34 40 55
96 59 19 30 56 43 10
37 33 59 77 34 82 89
14 10 97 72 40 14 14
81 13 27 58 31 25 57
98 22 100 75 27 69 66
17 44 43 45 44 16 63
89 80 14 53 85 90 81
76 21 19 91 25 25 37
98 78 72 18 95 46 61
48 87 40 68 51 73 46
60 78 40 23 38 64 60
13 41 13 37 10 87 19
70 52 100 57 15 15 63
96 86 63 60 41 92 96
96 70 10 15 75 10 89
33 29 55 13 66 67 67
78 23 34 67 64 94 69
0.209369
0.344819
0.430435
0.341824
0.277283
0.324952
0.293332
0.178611
0.422475
0.410665
0.288289
0.239875
0.204719
0.315953
0.212307
0.402887
0.108421
0.164895
0.245263
0.115726
0.352589
0.394999
0.172304
0.407929
0.123404
0.384026
0.334611
0.33836
0.426941
0.108603
0.348564
0.20053
0.286342
0.423192
0.220373
0.189439
0.298485
0.31049
0.177223
0.287568
0.3944
0.469844
0.301578
0.190045
0.268776
0.272621
0.274809
0.310162
0.108056
0.384141
0.378139
0.144526
0.27853
0.356815
0.166144
0.208088
0.460852
0.1406
0.235088
0.102003
394 301
253 379
460 391
82 422
124 499
263 36
266 367
282 69
243 311
211 214
149 317
200 1
64 169
389 92
134 236
114 282
91 443
66 395
311 428
420 363
5 423
41 413
442 36
93 252
349 238
214 350
247 206
401 6
80 377
483 149
184 184
448 257
145 322
410 176
388 399
498 276
157 47
447 389
403 324
175 238
479 406
211 429
51 314
79 127
40 269
79 312
351 36
109 362
353 177
457 23
367 434
255 312
55 41
414 229
459 219
318 23
82 32
340 162
473 384
157 90
5440
3
