60
7
0 0 0 0 0 0 0
82 41 78 29 27 37 40
53 11 92 32 38 32 70
91 77 28 29 19 60 31
74 59 16 81 76 38 27
61 30 22 77 66 20 10
49 82 71 27 13 32 100
36 63 13 58 72 58 56
10 27 56 17 62 42 24
37 40 21 78 95 59 99
77 27 61 73 83 23 64
81 14 22 85 55 33 67
42 56 78 64 57 17 51
96 46 58 63 56 28 85
53 96 30 83 14 15 43
38 46 46 28 59 92 63
97 62 17 63 51 49 48
76 77 57 92 71 39 88
18 20 80 98 96 24 24
73 46 12 27 97 12 98
73 58 63 86 75 27 20
85 42 57 91 33 60 17
61 53 45 68 79 81 43
17 10 39 92 88 45 78
81 91 92 27 45 13 23
86 51 26 20 67 86 69
28 87 62 92 98 58 78
28 80 38 33 46 50 89
38 45 69 37 56 84 78
58 90 71 53 19 85 20
28 55 54 12 16 22 24
41 20 80 68 11 64 35
28 36 74 62 45 34 35
87 15 28 81 51 23 28
47 48 78 31 71 46 18
93 64 21 70 11 83 99
67 64 27 57 86 100 43
58 78 14 69 81 93 63
82 34 41 72 87 86 68
13 21 75 80 10 65 91
49 66 93 84 50 58 85
60 41 40 36 78 61 74
95 60 100 58 89 86 26
61 53 17 92 18 15 10
29 100 81 78 70 98 68
18 86 75 84 37 40 32
70 36 39 23 16 11 34
14 68 15 100 65 17 45
38 68 46 18 35 59 45
35 13 88 71 43 91 64
57 51 99 40 15 21 82
50 52 29 16 83 18 29
91 92 81 91 94 85 73
97 73 85 32 41 16 14
34 63 64 60 11 75 40
11 54 30 27 58 13 19
11 53 35 16 79 30 71
47 63 34 92 85 15 52
50 35 25 96 96 26 41
25 44 33 21 85 85 87
1.77492
0.466049
0.940241
1.16948
0.712777
1.10208
1.1985
1.95966
1.73233
1.21386
1.55509
0.898979
1.09151
0.485192
0.417
1.35629
0.859482
0.472488
0.483118
1.023
0.726255
1.5983
1.82262
1.30835
1.18583
1.88219
0.482191
1.93749
0.479859
0.840458
0.886837
1.39933
0.811516
0.716741
1.49283
0.61131
1.84535
0.607859
0.483338
1.98434
1.8773
1.91958
0.499149
1.72731
1.18838
1.57366
1.43501
1.75404
1.55235
0.501005
0.823957
0.631641
1.99234
0.687679
1.81429
0.774029
1.99863
1.3795
1.05019
1.48245
488 66
475 453
218 371
246 410
374 493
142 422
185 335
264 493
319 74
148 385
9 135
76 105
227 426
157 52
189 279
454 271
83 471
79 206
385 436
144 76
261 449
207 132
98 318
119 149
345 363
70 406
402 19
387 349
237 18
400 319
486 379
349 129
50 378
52 365
375 483
347 457
200 437
38 325
382 21
29 347
267 480
53 314
419 426
18 348
495 401
229 219
439 454
279 8
213 111
368 89
233 102
24 174
333 142
438 414
364 458
205 93
325 422
197 172
278 163
34 170
7870
2
