60
9
0 0 0 0 0 0 0 0 0
90 73 76 24 30 55 38 67 43
50 11 11 10 39 90 58 94 97
49 35 69 45 91 12 97 64 79
75 25 16 32 61 53 30 59 11
92 93 49 52 22 26 34 66 11
19 98 29 38 26 72 33 83 92
32 14 18 96 46 20 55 31 70
13 13 37 100 20 100 64 52 41
12 47 85 91 78 58 25 41 65
55 85 51 24 49 43 77 29 21
34 23 91 17 10 52 57 41 85
83 48 10 61 37 22 66 23 10
40 69 73 22 82 55 79 33 18
40 49 10 65 32 20 94 22 40
17 97 83 11 47 78 47 21 83
92 89 77 23 62 62 21 65 35
20 22 31 69 73 53 56 16 68
65 15 95 33 80 34 38 92 67
19 76 89 26 20 53 43 28 31
79 87 24 79 24 60 75 74 78
88 10 17 82 52 20 57 44 96
55 42 51 92 20 56 75 83 34
34 13 90 31 86 51 34 25 94
69 12 36 71 50 58 11 27 46
93 15 94 84 56 49 15 62 44
68 25 98 73 62 55 80 34 57
91 94 34 39 76 64 47 66 37
23 49 41 72 87 90 15 22 39
70 67 75 79 92 80 32 29 80
56 33 48 34 77 16 43 13 94
58 15 65 92 16 47 15 31 76
25 55 79 48 28 44 18 42 68
76 41 48 22 88 95 18 26 10
97 28 22 95 95 80 76 51 46
70 90 100 23 28 31 92 84 51
20 63 36 82 76 82 53 86 97
97 85 74 40 52 71 74 16 49
50 88 62 99 91 88 50 41 93
23 51 60 92 49 77 24 54 76
87 100 27 33 39 11 31 54 39
21 64 62 46 76 29 85 31 99
77 68 54 98 40 93 100 25 77
96 13 81 78 45 42 82 15 12
16 63 73 71 26 74 100 60 67
38 69 74 71 56 38 24 61 69
49 14 28 93 15 72 99 78 54
91 84 65 29 81 18 10 21 23
14 70 74 29 41 24 92 62 22
50 36 32 52 23 76 82 17 86
75 94 83 81 96 89 56 82 69
66 45 93 37 20 10 11 59 58
13 71 77 91 18 35 58 45 89
65 94 23 68 22 13 92 19 15
84 84 61 63 52 16 92 74 18
60 33 38 30 34 55 62 58 59
35 93 82 53 57 64 48 68 24
57 20 53 12 68 86 85 47 14
46 37 71 68 81 97 36 52 21
60 67 14 65 32 73 75 100 64
0.884851
0.620736
1.44004
0.923598
0.959071
1.73665
1.14347
0.54768
1.30418
1.25885
1.11885
1.61864
0.825439
1.18556
1.73456
0.73906
1.9647
0.884503
1.22348
1.50411
0.877752
1.86128
1.64467
1.5197
1.02523
1.57694
1.05873
0.690596
1.46954
0.644655
0.600301
0.757976
0.953867
1.5729
1.10194
0.934126
1.07034
1.93661
1.4779
0.822192
0.936877
0.561334
1.34676
0.933893
0.700827
1.96575
0.728726
0.505913
1.49346
1.79397
0.839602
1.67997
1.12665
0.717681
0.874642
1.90304
1.52571
1.61977
0.803307
1.67469
83 105
183 45
186 88
38 456
481 403
431 462
223 467
397 164
331 41
436 390
475 372
449 13
77 402
281 397
267 270
364 64
299 10
437 167
333 303
17 326
105 100
197 379
340 409
97 459
411 321
144 313
418 307
373 296
132 3
119 426
471 361
368 307
293 296
189 274
431 479
446 208
290 140
281 67
423 288
463 31
225 103
348 385
357 7
97 261
321 102
274 182
264 148
404 314
169 245
150 383
384 244
335 472
416 268
382 469
212 181
429 264
401 439
281 101
260 194
108 138
3970
4
