60
11
0 0 0 0 0 0 0 0 0 0 0
19 16 72 89 100 48 49 77 88 15 47
36 55 12 11 69 33 40 25 31 22 100
55 71 25 26 24 14 66 86 62 14 81
74 94 89 50 66 19 46 63 42 99 94
86 95 40 47 13 78 95 18 73 15 79
42 76 28 91 70 87 60 74 57 67 61
29 26 33 10 98 35 41 77 21 10 46
89 23 27 22 94 46 58 26 19 19 97
64 37 84 15 74 67 54 41 86 76 54
90 33 43 38 75 63 33 25 22 61 71
22 52 80 87 38 97 16 34 76 25 65
50 15 30 17 34 13 94 11 58 83 24
41 15 17 20 87 45 99 95 24 53 93
44 93 98 71 54 96 49 36 73 46 34
18 85 49 48 12 12 85 45 14 30 50
29 87 82 86 89 12 67 84 99 26 43
72 77 54 37 22 76 74 38 15 22 87
27 20 32 91 46 84 17 78 45 68 19
60 30 23 87 12 64 92 39 44 97 81
42 72 51 96 55 95 42 36 27 19 10
45 60 42 26 81 35 37 51 40 62 97
42 44 46 46 24 41 49 71 34 66 77
38 82 39 26 75 15 83 98 12 60 23
72 11 95 13 100 98 21 64 43 39 95
70 91 63 76 95 62 99 90 41 85 33
78 77 78 83 40 11 85 30 23 10 89
54 86 72 95 51 22 76 77 46 70 29
64 35 64 100 70 81 24 44 15 86 54
60 53 81 32 23 43 75 82 26 97 36
100 38 11 13 67 57 55 16 80 89 89
72 49 11 88 25 58 24 41 30 37 75
96 95 37 52 46 49 72 74 29 45 86
40 38 10 17 20 57 86 45 100 86 15
99 45 75 13 43 35 39 71 94 94 74
53 86 99 47 13 47 16 58 79 33 86
97 18 81 92 75 58 41 37 80 49 98
21 35 92 60 16 30 60 22 28 22 23
37 67 21 89 12 34 27 14 40 77 17
92 58 32 64 66 46 95 95 77 11 63
84 14 37 17 14 11 18 57 93 51 32
90 52 10 76 25 67 12 88 70 83 42
45 12 62 73 76 25 27 21 26 94 14
96 83 100 31 73 86 85 64 56 69 23
82 16 74 51 23 74 69 94 36 87 99
29 53 88 38 22 78 61 13 44 68 47
88 91 13 54 67 17 52 86 68 72 53
98 17 16 29 99 86 21 47 51 68 19
47 75 76 23 61 94 48 66 100 28 53
89 78 26 77 61 42 22 85 97 15 66
17 38 42 100 37 16 82 55 69 96 85
48 62 42 18 57 68 67 66 42 71 67
82 57 24 35 90 32 18 84 82 54 82
38 30 76 57 51 30 50 53 15 45 12
76 21 13 83 34 100 20 63 72 11 43
16 49 39 50 58 93 67 29 47 89 18
54 100 20 16 80 88 15 82 84 12 84
99 16 48 13 50 90 51 36 91 28 15
96 57 61 59 65 67 22 20 13 40 100
59 53 23 91 90 46 91 48 31 42 84
0.182337
0.264511
0.219296
0.379605
0.263708
0.199797
0.378241
0.393111
0.304991
0.226575
0.406638
0.16293
0.357209
0.214734
0.19175
0.155734
0.216235
0.227827
0.164362
0.453368
0.437531
0.349002
0.491283
0.390222
0.263806
0.273793
0.382707
0.174635
0.208505
0.144808
0.458379
0.233509
0.474974
0.1491
0.150175
0.314564
0.352698
0.479545
0.40663
0.409149
0.307535
0.212348
0.429107
0.441211
0.154574
0.27742
0.391116
0.291068
0.326258
0.193702
0.343469
0.322953
0.129172
0.291202
0.279767
0.23943
0.14149
0.367274
0.447385
0.232039
257 438
201 9
37 162
163 391
412 37
17 88
11 295
19 96
259 259
23 81
347 139
138 129
440 202
230 202
9 211
131 477
57 88
351 384
343 345
443 225
94 345
363 357
331 99
489 295
450 479
92 183
275 235
168 265
220 107
58 17
133 228
493 102
378 162
56 298
170 53
109 82
209 206
498 373
371 95
221 452
222 273
334 2
434 100
209 196
52 498
482 246
26 485
460 434
469 270
433 285
393 482
151 216
464 108
293 323
363 97
463 369
341 263
430 479
427 476
27 57
7957.5
2
