60
9
0 0 0 0 0 0 0 0 0
18 52 27 97 30 83 89 12 74
19 76 40 96 50 14 79 23 83
69 39 69 34 81 67 26 16 28
13 64 13 88 36 92 34 59 61
62 66 93 23 36 26 75 24 54
96 48 71 24 28 59 56 51 88
54 69 78 100 93 75 76 28 77
26 65 43 23 97 93 33 37 83
41 79 99 79 20 39 40 73 45
33 30 89 80 74 77 66 62 48
68 78 39 21 42 44 68 30 71
23 81 20 12 76 34 56 15 59
61 49 42 93 91 26 38 62 14
53 69 57 96 86 21 30 74 72
56 76 65 74 52 36 57 41 92
90 30 28 35 25 30 28 77 20
62 57 76 99 80 88 49 72 93
56 97 55 78 100 32 70 78 64
38 97 53 82 39 35 63 49 34
85 28 97 97 80 40 75 74 23
88 22 57 23 89 28 92 20 70
57 34 67 34 51 58 100 38 69
44 63 56 20 12 43 69 59 13
13 24 60 98 46 81 73 49 12
68 34 87 23 38 57 33 21 33
59 14 67 29 36 87 58 57 20
68 24 81 89 74 84 40 93 19
21 76 48 22 28 10 89 57 10
17 31 83 78 87 93 93 58 61
72 91 63 82 81 30 47 10 49
58 96 38 68 94 32 28 12 19
63 13 81 90 23 95 19 65 15
82 25 67 12 61 21 83 59 97
68 64 31 52 96 37 42 11 71
26 91 82 16 57 87 35 31 55
91 18 100 28 69 48 95 27 36
84 64 34 35 10 71 95 27 98
98 60 16 36 87 73 37 41 96
100 57 100 41 62 84 17 38 13
81 59 25 32 93 98 93 27 66
64 76 75 54 74 89 93 26 66
90 33 54 93 64 74 53 15 38
79 70 47 83 49 45 70 29 34
11 59 82 76 64 28 83 33 86
100 76 88 53 55 92 92 17 96
78 95 46 29 91 94 16 70 74
58 27 85 10 57 84 94 88 62
54 11 47 62 48 91 97 10 96
80 35 50 39 86 98 25 14 79
35 33 35 27 56 80 68 77 71
86 77 12 22 40 28 69 11 27
18 40 83 73 57 81 37 14 64
77 71 24 93 78 13 83 26 84
65 22 39 30 29 41 73 14 57
48 91 78 52 87 33 10 53 14
73 47 44 68 93 59 18 90 88
80 71 100 92 49 29 86 49 50
56 20 22 72 80 17 45 77 67
44 38 78 77 92 45 64 75 70
1.24939
1.42814
1.7828
0.851606
0.943765
1.86673
0.992554
0.858026
1.23201
0.602246
1.25458
0.884979
1.56896
1.60978
0.851903
1.86225
1.43011
0.865583
1.82534
1.02548
1.4951
1.52493
1.83404
0.497843
1.04563
0.964563
1.46612
0.553102
1.99155
0.975023
1.00344
0.565024
0.620536
1.73043
1.96653
1.43955
0.58007
1.49638
0.419627
1.1534
1.35181
1.10086
1.65083
1.0385
0.925912
0.427206
1.22362
0.447049
1.56646
0.713081
0.653043
1.53692
0.7561
1.43818
1.57563
0.413106
1.40072
1.84128
1.70135
1.96555
177 75
421 56
252 154
465 44
483 369
435 9
5 299
22 132
192 244
49 188
90 156
118 358
413 106
304 300
23 244
315 209
238 274
473 283
329 333
169 215
37 498
345 221
14 221
370 120
220 296
317 112
355 114
302 73
100 181
370 359
460 93
329 218
365 342
301 482
341 463
260 329
259 294
295 78
195 185
157 388
80 15
411 119
168 420
158 310
112 222
10 453
98 17
267 345
364 466
488 168
413 196
76 488
352 22
153 335
285 28
278 96
157 383
170 391
194 263
434 7
3323
5
