60
5
0 0 0 0 0
43 57 47 29 61
23 73 68 69 89
97 59 42 65 95
22 12 74 51 46
81 63 27 58 29
70 57 54 49 28
64 27 61 96 93
86 42 37 78 83
33 85 58 42 47
44 55 40 34 24
69 74 13 85 15
32 58 96 58 22
48 96 44 65 10
85 39 30 53 51
13 85 22 51 57
43 95 44 16 84
85 56 61 97 14
96 68 37 64 93
31 96 17 48 13
54 30 89 20 68
97 72 12 61 76
71 58 68 54 35
98 85 93 73 11
62 36 76 100 60
45 23 46 30 10
35 24 62 53 11
47 26 29 40 62
60 89 39 31 42
78 47 44 50 68
23 41 86 59 67
54 63 81 42 20
13 43 39 53 13
68 55 56 20 58
66 85 76 41 23
41 87 39 37 33
100 18 40 18 21
51 76 27 65 15
94 99 23 69 82
64 51 38 59 38
49 17 97 40 30
93 57 55 37 82
65 79 13 100 83
10 15 48 98 69
15 25 36 39 21
52 53 10 60 49
59 81 59 17 47
70 25 90 35 66
11 75 30 14 14
98 80 73 46 99
84 32 71 31 55
39 23 14 65 89
64 29 71 97 32
72 81 83 91 57
54 63 96 66 27
65 97 20 53 73
60 43 72 77 50
39 19 89 88 37
77 52 86 92 25
61 44 89 17 11
0.570165
0.588193
0.938903
0.745789
0.850875
0.466173
0.855382
0.34737
0.586546
0.662105
0.485514
0.557448
0.557294
0.939186
1.37826
0.309304
1.25641
1.49412
1.12831
0.512688
0.688141
1.29363
1.39064
1.43716
0.32813
0.500312
1.36734
0.328353
1.48689
0.739789
0.612667
0.898219
1.0827
0.443482
1.24625
0.830006
0.366992
1.4584
1.2496
1.0698
1.1568
0.836688
1.15997
0.739181
0.569853
1.05742
0.876271
1.33591
1.06762
0.97755
0.793236
1.15878
0.55371
0.789913
0.559091
1.13185
1.40921
1.30858
1.39096
1.30655
306 420
496 53
330 148
91 472
304 182
188 225
251 436
350 500
204 4
152 489
1 389
281 215
83 349
376 34
247 407
92 212
319 113
16 475
188 285
143 296
50 323
272 332
485 24
118 131
391 163
407 21
403 275
360 70
121 238
9 264
244 271
80 171
13 87
441 491
126 188
414 299
293 496
225 56
89 392
462 198
398 298
139 129
455 418
298 55
421 495
9 172
234 315
367 249
147 383
61 306
342 375
360 91
159 462
51 150
62 280
33 114
225 269
115 8
473 267
188 130
5293.33
3
