60
9
0 0 0 0 0 0 0 0 0
63 31 50 23 10 68 57 15 22
33 69 39 21 48 92 38 19 32
93 40 66 32 82 38 59 28 70
90 99 70 56 64 76 68 13 100
73 44 88 75 28 53 21 69 14
41 47 28 13 93 14 59 78 95
69 27 98 86 62 72 37 96 18
25 28 30 18 75 21 41 88 35
92 50 31 16 65 76 51 70 25
49 14 40 46 68 11 33 19 59
44 96 20 27 18 79 86 14 100
93 48 66 58 93 22 52 98 73
61 67 73 54 38 63 83 74 60
98 43 53 28 48 59 21 12 68
51 14 76 58 73 45 66 67 74
25 43 84 90 81 53 64 49 96
18 93 92 99 71 39 54 23 81
16 55 49 81 44 38 73 23 64
66 92 39 29 13 91 50 92 36
63 18 63 93 87 28 27 55 50
41 13 23 35 14 53 23 16 41
36 83 57 12 62 62 54 19 99
73 53 35 33 79 53 13 61 15
25 31 21 99 14 14 19 51 22
79 87 74 51 100 10 37 62 74
72 27 16 63 92 29 10 21 90
53 10 51 49 57 59 44 100 80
93 64 90 86 35 80 29 73 94
89 85 70 10 42 86 80 20 54
22 86 50 71 84 95 28 34 84
37 58 12 35 48 19 30 13 46
22 44 41 70 18 51 76 33 80
21 20 70 77 36 31 86 25 29
77 37 96 63 96 82 98 34 47
95 28 49 13 95 79 39 100 42
60 93 91 42 35 63 65 41 82
45 92 42 98 79 10 76 26 58
98 96 36 42 37 77 88 12 96
66 73 87 94 99 22 66 64 61
63 40 20 16 24 10 97 46 86
82 19 58 22 87 36 28 13 26
97 87 31 20 71 10 16 87 32
92 37 23 15 85 26 24 31 79
21 17 62 41 13 33 63 43 73
93 57 85 86 71 66 43 41 88
29 44 36 15 79 75 48 70 11
95 94 53 30 31 32 62 52 37
79 81 61 54 88 68 48 42 66
91 62 92 10 45 10 46 70 69
57 37 18 98 62 43 52 38 86
79 34 59 52 24 91 87 42 34
67 63 21 94 94 78 27 12 82
31 88 17 51 40 74 82 19 91
75 39 22 91 25 36 16 20 54
94 72 56 75 34 53 44 81 72
51 79 70 70 99 93 58 59 41
63 82 78 89 27 62 35 31 75
28 82 19 73 67 63 50 68 38
64 61 87 25 27 40 44 98 82
0.777361
0.82061
0.89657
0.214945
0.624656
0.863299
0.365945
0.649466
0.782493
0.582503
0.389424
0.309722
0.497971
0.466127
0.686658
0.271657
0.379266
0.649869
0.631937
0.216362
0.443867
0.8491
0.293948
0.985933
0.221634
0.970566
0.681809
0.652615
0.725522
0.30429
0.256275
0.339398
0.281717
0.93226
0.639462
0.496006
0.340917
0.737355
0.664217
0.491095
0.62798
0.338308
0.299406
0.231081
0.582694
0.2677
0.845002
0.598338
0.955963
0.315986
0.416194
0.673964
0.6954
0.445829
0.419707
0.844212
0.967741
0.523833
0.562194
0.551452
3 224
387 495
219 125
420 18
266 209
390 5
493 320
260 287
400 353
249 15
95 375
211 494
139 308
227 19
258 292
79 170
211 334
226 84
380 384
202 242
300 20
365 130
200 57
493 136
67 386
458 249
31 169
434 148
68 485
3 9
66 239
335 172
260 98
479 455
127 398
2 297
160 247
496 489
288 220
120 430
270 85
331 437
385 424
461 461
243 420
104 454
401 336
270 220
332 364
348 445
267 290
264 472
95 446
354 79
43 216
217 282
137 188
63 258
424 157
437 101
16005
1
