60
9
0 0 0 0 0 0 0 0 0
95 96 98 50 40 23 84 53 71
15 65 65 11 37 40 82 78 89
71 84 57 70 38 65 54 61 15
23 94 16 38 80 49 42 25 26
49 81 15 28 91 70 34 14 48
51 82 40 83 43 55 63 11 61
97 27 98 14 74 87 72 40 21
48 74 61 41 27 43 79 76 65
86 49 40 85 91 98 66 44 64
26 83 69 58 86 100 97 11 54
17 81 71 31 95 46 36 49 73
22 22 60 21 51 65 13 99 36
66 31 47 37 16 55 67 42 38
43 30 27 50 49 48 76 80 45
41 40 12 47 77 21 24 34 45
40 88 96 18 13 52 63 56 93
87 84 64 34 39 64 30 39 11
71 91 68 50 78 29 22 66 46
57 48 14 69 72 91 95 100 46
51 88 44 89 97 64 51 65 60
72 84 45 41 34 22 79 69 43
77 77 26 14 91 91 47 44 29
100 99 63 59 26 80 31 30 47
83 48 24 25 33 21 100 76 40
69 89 31 70 63 93 63 81 48
30 11 96 27 84 11 71 16 41
22 63 45 81 20 75 16 51 45
69 98 50 70 54 47 10 11 46
81 64 68 39 66 34 76 73 76
55 51 33 94 16 72 16 46 60
29 85 38 22 93 22 49 86 48
12 40 55 22 44 23 59 93 92
39 11 42 34 97 72 28 14 46
37 57 53 23 63 100 18 71 33
42 100 96 37 100 69 96 87 33
40 94 21 60 97 78 35 82 79
60 59 54 43 17 35 26 50 96
44 42 32 26 93 53 14 40 36
10 66 21 67 24 12 59 36 21
51 19 91 39 69 36 48 28 65
38 81 73 78 45 94 11 49 54
73 15 24 12 68 25 70 58 55
53 96 73 98 87 24 16 16 65
71 48 53 35 70 85 59 44 75
28 58 95 38 27 74 56 44 23
99 58 49 61 91 18 96 74 21
82 79 16 98 77 99 61 51 78
67 85 15 50 27 24 81 46 57
71 35 75 27 88 44 51 96 23
38 81 65 12 48 49 34 15 44
10 66 46 85 13 50 17 72 60
56 17 74 41 30 78 42 59 64
28 90 19 68 43 49 30 40 100
10 22 73 40 45 94 21 99 13
43 77 58 80 66 56 89 51 50
50 35 15 72 46 46 11 40 51
48 90 53 52 55 69 41 87 39
15 38 67 71 74 68 33 15 24
99 63 83 82 22 87 75 85 52
0.123083
0.178916
0.270501
0.288715
0.254772
0.469751
0.265792
0.219889
0.448287
0.111716
0.179323
0.174789
0.317795
0.164046
0.138786
0.152368
0.464112
0.256741
0.409462
0.483521
0.107783
0.378538
0.235269
0.497854
0.259649
0.242869
0.236451
0.308539
0.273233
0.370157
0.172524
0.240011
0.211379
0.22197
0.42641
0.450969
0.155076
0.373918
0.100981
0.280556
0.370596
0.223966
0.422649
0.101107
0.106445
0.435266
0.187282
0.323065
0.24374
0.27047
0.369141
0.199812
0.372948
0.286929
0.222249
0.450142
0.292233
0.395533
0.214076
0.395651
127 397
326 390
101 2
423 483
6 11
1 277
383 136
332 157
109 273
35 215
223 482
238 126
494 344
30 483
290 434
19 80
278 494
28 266
79 374
162 143
395 369
197 339
428 147
291 304
323 359
100 120
241 282
64 183
382 461
398 315
313 186
488 264
359 376
438 182
392 360
182 247
93 255
464 305
264 33
346 273
447 321
155 420
210 184
99 64
281 59
22 497
477 150
70 379
478 494
172 394
349 31
88 25
442 214
241 367
348 228
370 244
220 71
188 52
282 175
360 407
3183
5
