60
7
0 0 0 0 0 0 0
21 95 43 32 58 86 37
51 99 94 48 98 30 20
83 67 87 71 12 54 24
35 65 16 41 52 33 51
84 100 80 42 94 42 50
45 68 100 29 30 75 10
89 63 13 67 29 18 82
95 34 41 16 64 35 11
33 85 55 43 43 97 25
65 38 87 65 17 36 66
85 61 60 72 24 53 82
100 85 52 40 58 80 84
56 66 64 80 53 53 20
43 90 30 56 94 68 10
85 30 63 10 80 66 91
84 33 59 80 86 81 60
92 79 92 53 63 54 79
35 47 36 48 26 55 19
51 23 75 12 31 39 17
86 25 29 80 31 45 35
43 61 57 48 76 52 67
15 70 56 39 85 97 57
100 28 26 76 28 43 67
88 78 48 75 82 11 95
79 88 29 53 79 33 79
56 37 23 78 11 32 50
42 72 22 58 59 51 21
29 42 57 79 72 81 52
87 21 66 12 32 84 31
13 18 75 17 60 10 14
69 61 92 66 55 12 31
63 28 22 94 87 60 88
73 40 34 31 57 41 87
86 16 18 28 78 72 38
26 63 57 78 57 77 89
63 13 98 86 73 62 29
57 19 95 46 79 22 70
29 12 24 85 100 28 96
100 36 81 83 77 72 10
73 81 66 13 38 15 94
56 77 93 98 72 40 77
78 11 73 50 85 57 55
62 38 82 68 36 50 80
88 100 89 92 80 19 52
98 62 65 71 21 60 47
99 86 36 17 85 76 33
60 26 53 53 54 39 23
20 39 63 73 27 26 66
52 81 90 68 86 86 42
71 81 81 96 38 58 65
92 18 71 65 61 65 99
45 58 69 83 40 20 59
34 99 78 25 56 32 35
42 59 46 55 13 43 92
18 59 38 81 20 28 44
65 90 32 68 15 32 35
40 58 81 78 92 35 89
15 63 29 70 19 60 50
20 19 91 69 67 72 54
0.232693
0.883621
0.297858
0.596799
0.301542
0.313405
0.747518
0.761662
0.737738
0.691793
0.214547
0.458668
0.476716
0.731395
0.561763
0.637767
0.350435
0.761289
0.356006
0.792742
0.391048
0.230541
0.90698
0.908498
0.782572
0.951632
0.347694
0.661168
0.245369
0.258171
0.734064
0.311709
0.216705
0.387612
0.498661
0.955036
0.543999
0.473576
0.350768
0.46359
0.505239
0.341237
0.994392
0.973192
0.571149
0.675352
0.665931
0.499888
0.767641
0.713951
0.76347
0.437218
0.260538
0.934469
0.366354
0.659473
0.642246
0.964453
0.229658
0.736069
43 494
185 169
497 60
481 394
205 43
25 282
434 187
341 171
285 321
352 4
246 302
332 252
380 469
159 117
206 130
389 337
215 178
254 353
239 137
200 383
283 408
168 402
72 173
0 141
372 14
14 31
491 340
165 443
107 88
338 300
283 230
433 284
372 215
237 234
451 115
17 149
28 334
290 477
38 337
176 377
66 332
284 233
73 428
327 440
396 405
492 221
151 362
300 323
148 354
2 59
192 205
232 320
224 190
2 213
340 83
45 191
422 491
327 35
193 334
234 73
8250
2
