60
5
0 0 0 0 0
56 15 52 68 17
97 88 96 33 32
94 29 35 90 60
93 36 17 64 71
12 42 13 74 42
14 31 26 82 67
50 61 55 40 10
11 51 69 38 96
22 76 36 58 44
71 20 24 61 40
100 73 86 92 25
46 56 24 58 49
67 84 27 78 18
46 34 77 82 90
57 27 49 86 69
41 85 88 35 61
84 57 69 89 78
17 49 62 43 17
93 75 29 46 28
27 36 45 63 96
25 90 54 39 100
44 24 12 57 84
79 72 48 97 26
50 97 52 27 53
23 21 51 61 61
18 83 81 72 45
15 81 40 11 60
50 56 85 21 64
23 99 10 33 90
72 35 43 19 79
84 26 70 79 76
68 20 64 13 48
15 66 44 18 40
48 75 46 30 57
48 50 39 38 65
28 46 32 12 31
95 45 61 30 54
71 96 27 51 10
13 94 14 91 48
75 46 57 96 41
98 96 41 94 95
70 98 30 94 12
17 32 29 30 46
64 100 87 16 22
59 56 49 82 79
96 71 73 100 34
43 56 92 97 53
29 29 25 94 29
47 52 22 31 87
85 38 85 29 83
30 97 69 94 78
18 26 21 14 91
15 47 73 48 79
57 17 37 35 29
48 63 56 48 77
47 97 43 94 48
24 62 43 37 40
51 36 85 76 89
67 40 71 22 26
0.184191
0.274109
0.331478
0.130123
0.295901
0.18459
0.484743
0.143941
0.458337
0.381666
0.254524
0.271461
0.286885
0.365288
0.285425
0.227014
0.378743
0.481246
0.24666
0.497498
0.130224
0.415523
0.470854
0.161401
0.363479
0.142298
0.209075
0.127939
0.487925
0.144658
0.295142
0.465287
0.246857
0.382818
0.172253
0.144984
0.228493
0.188251
0.2604
0.262825
0.382167
0.172748
0.370063
0.429006
0.347571
0.354975
0.193923
0.355872
0.457545
0.392747
0.439632
0.101756
0.411878
0.423555
0.144644
0.210756
0.320331
0.15854
0.246613
0.18583
64 158
415 370
54 239
97 5
492 103
413 477
396 405
407 361
420 46
427 358
83 49
326 381
29 440
381 298
373 212
35 444
255 351
311 390
346 441
309 130
4 73
119 388
271 482
2 393
102 406
441 71
53 188
185 65
96 342
61 449
323 387
340 98
245 33
172 222
432 70
382 370
10 470
320 420
235 175
242 28
224 314
478 489
494 496
422 129
355 365
316 233
228 374
494 277
311 483
150 282
105 377
72 208
98 398
47 144
127 355
64 332
372 438
130 33
294 33
282 263
15855
1
