60
7
0 0 0 0 0 0 0
93 59 12 35 39 70 49
96 11 13 33 77 54 75
91 49 76 12 16 36 75
87 78 82 59 70 11 33
29 28 15 36 84 60 65
50 65 54 45 82 10 27
67 15 30 49 60 37 100
69 64 41 64 57 35 98
70 100 87 15 76 65 79
36 52 100 80 13 51 97
59 29 86 29 67 74 68
51 60 94 60 55 79 70
80 38 55 99 79 59 66
38 90 20 96 85 13 15
71 46 65 58 85 29 30
91 20 56 61 20 94 87
31 14 87 58 48 33 94
54 76 41 89 47 84 96
33 84 97 68 41 66 63
65 88 66 86 69 20 56
66 66 29 52 26 64 32
50 78 89 47 38 90 48
54 88 33 39 83 37 88
79 21 31 57 81 33 52
99 39 95 39 22 74 18
27 83 77 75 71 32 73
95 11 85 91 27 98 36
72 44 88 56 90 81 63
16 80 10 97 100 39 65
82 79 81 31 96 18 34
38 24 66 95 64 24 69
91 33 42 56 73 43 59
86 95 54 83 56 47 61
93 32 49 96 67 81 43
93 24 78 36 86 79 34
79 92 46 87 15 47 57
41 33 83 59 51 71 89
39 24 81 18 52 43 100
23 57 58 73 17 18 65
68 37 32 72 42 53 47
82 25 48 40 95 40 38
48 76 56 35 34 68 36
20 62 83 36 23 54 96
49 73 59 60 91 28 21
87 53 70 25 79 81 27
59 91 38 27 27 20 74
76 44 35 65 23 18 13
77 68 10 50 74 69 80
82 67 32 13 83 60 77
19 91 10 100 85 49 70
60 72 92 56 31 43 44
62 39 54 40 50 74 38
18 33 52 68 99 74 59
51 52 97 58 18 45 71
47 14 60 14 68 37 41
19 85 15 70 33 27 41
54 35 44 58 86 73 21
89 61 43 73 80 74 86
69 99 97 85 70 51 69
1.25475
0.511522
2.31884
1.2742
2.09045
1.30719
1.98354
0.710446
1.32493
1.04354
2.07932
2.48531
0.640771
1.63827
1.56946
1.31011
0.792018
2.15867
1.13507
1.60353
2.4787
0.584377
0.565471
2.21963
1.11552
1.28919
0.92165
1.94435
1.54126
1.98964
1.39027
0.890034
1.08198
0.706228
0.906687
1.1932
0.633244
1.07674
1.38799
2.09402
0.54878
1.9192
0.722956
1.0877
1.32185
2.00762
0.843823
0.905887
1.84974
2.06303
1.6663
1.1018
2.42947
0.99525
1.18381
1.95212
1.17532
1.68378
1.46676
2.28229
229 108
285 268
334 432
58 279
447 259
218 273
139 326
229 27
197 274
433 40
156 219
494 109
436 312
25 202
189 451
338 213
122 28
190 409
6 64
112 269
266 371
428 401
368 277
401 260
80 86
170 476
376 301
210 157
312 200
234 498
7 171
56 139
69 431
157 126
399 467
75 123
300 292
59 223
234 487
479 264
146 325
72 89
263 299
146 131
393 6
450 261
417 498
78 163
211 430
197 417
350 159
169 369
229 500
268 276
60 284
463 186
453 412
260 295
340 462
93 337
3371
5
