60
5
0 0 0 0 0
94 90 30 77 37
52 91 21 75 45
19 97 58 59 85
58 44 66 98 16
91 14 19 29 84
34 48 41 82 62
86 45 74 32 75
10 48 49 61 68
99 51 24 33 30
35 95 42 22 86
20 12 18 27 98
54 98 88 61 51
100 62 34 77 53
16 82 79 11 35
61 21 35 80 40
40 49 46 38 33
77 70 14 21 40
23 56 48 82 19
98 25 13 87 39
92 82 30 52 94
80 44 27 33 65
21 58 94 73 65
48 23 81 83 15
18 63 16 33 96
75 22 77 90 49
41 64 30 80 70
12 26 66 34 64
44 67 84 39 55
49 27 27 98 74
94 47 58 95 78
60 66 89 11 98
92 30 31 84 97
75 70 43 63 80
85 13 63 32 17
74 89 27 67 14
50 78 80 88 34
68 77 22 85 18
10 60 97 17 87
56 63 100 59 22
71 80 34 16 82
48 53 67 96 68
34 65 97 46 27
70 68 61 80 13
70 56 71 20 86
71 48 57 23 84
64 80 20 42 29
96 70 42 18 27
19 57 50 20 75
88 78 32 80 12
15 95 57 81 93
96 90 28 38 21
47 58 49 76 55
76 35 95 12 84
65 73 85 27 32
45 37 50 27 68
20 27 64 67 67
98 49 50 56 40
52 79 34 96 52
27 52 55 11 90
0.405771
0.12558
0.272611
0.234755
0.479469
0.317312
0.407807
0.174739
0.428872
0.472593
0.125173
0.254088
0.339955
0.328509
0.223042
0.429181
0.141775
0.410657
0.396498
0.259845
0.168357
0.244971
0.11778
0.264524
0.450129
0.242157
0.219658
0.440464
0.427909
0.237171
0.230633
0.293866
0.106561
0.293006
0.228769
0.323825
0.4698
0.35619
0.133291
0.484459
0.468393
0.232896
0.488987
0.207418
0.189678
0.233738
0.454667
0.401243
0.479097
0.148399
0.420678
0.25128
0.26928
0.135286
0.339531
0.494967
0.164952
0.207415
0.14659
0.289235
338 379
182 50
192 414
270 487
202 175
337 414
306 398
424 34
235 337
5 89
251 255
275 284
480 94
441 199
79 349
240 238
450 185
180 383
490 375
182 321
334 487
324 459
150 430
468 299
296 91
315 31
370 495
388 474
223 399
260 343
311 279
305 467
299 290
22 260
131 99
388 116
196 135
487 339
468 130
265 33
380 337
453 456
463 407
486 268
139 474
160 114
235 350
212 179
192 484
321 319
344 265
310 497
73 13
161 201
8 204
250 323
175 140
400 175
234 408
84 232
3266
5
