60
9
0 0 0 0 0 0 0 0 0
42 53 57 85 73 36 36 67 91
90 34 15 30 56 76 60 72 61
78 55 17 89 94 27 29 37 37
36 94 17 57 32 84 19 48 59
99 51 95 40 33 27 42 28 42
77 61 22 71 75 41 48 88 94
61 54 17 45 36 40 30 75 83
77 24 43 60 17 82 24 46 17
85 15 91 43 72 30 48 30 55
31 64 61 62 60 92 69 31 43
21 89 98 100 41 94 90 37 22
43 32 66 37 38 26 15 71 19
52 35 47 37 32 55 24 32 64
68 20 47 72 24 37 25 83 87
67 80 15 19 69 41 25 70 13
20 42 90 73 67 51 77 39 50
98 57 42 42 60 10 81 38 52
39 63 99 81 24 30 26 17 27
62 42 60 69 96 99 20 93 24
88 61 20 47 31 44 65 46 32
28 34 64 42 88 95 10 59 92
42 10 92 71 36 59 80 42 54
55 70 20 71 67 43 64 49 71
23 55 76 11 35 34 54 80 40
48 70 17 25 43 68 56 13 66
62 22 82 33 86 53 48 58 78
94 19 34 33 17 60 28 24 10
47 26 58 57 18 95 41 77 79
20 18 91 92 97 25 65 72 46
56 25 81 76 44 25 69 98 63
37 50 11 70 12 47 69 51 90
53 91 24 79 56 89 19 95 100
48 65 18 91 44 63 97 92 56
88 31 37 35 74 70 68 24 46
56 31 83 17 55 90 61 24 63
10 22 28 32 54 12 59 68 33
30 42 41 73 84 17 60 95 31
76 88 12 35 63 25 27 87 96
76 38 61 83 53 88 17 22 10
57 37 100 37 77 15 84 57 56
58 21 54 30 17 46 67 42 35
77 56 95 20 33 78 100 90 51
17 97 52 85 33 77 14 45 54
76 70 77 76 21 61 53 56 60
64 36 53 63 81 83 60 43 45
72 86 23 57 99 56 14 61 64
25 39 62 43 13 93 20 10 77
34 85 72 67 47 63 67 48 18
22 22 11 95 82 39 17 10 13
43 63 98 75 92 83 40 14 71
82 88 62 33 46 57 33 57 80
50 72 89 10 33 51 22 14 43
37 58 43 93 77 46 58 85 16
75 97 52 77 34 52 70 31 70
81 90 84 32 61 34 12 28 100
78 42 47 34 85 61 63 39 51
90 90 91 94 28 71 39 57 18
32 15 98 14 57 46 45 15 73
39 14 56 37 95 22 93 30 42
0.277862
0.251155
0.25222
0.168795
0.45299
0.231836
0.159362
0.366382
0.193107
0.4125
0.1423
0.198135
0.464662
0.175143
0.24574
0.134724
0.483902
0.499521
0.244905
0.493978
0.280453
0.286695
0.273665
0.393155
0.273054
0.366494
0.100914
0.192268
0.273812
0.496088
0.33086
0.35704
0.121685
0.196569
0.234847
0.228716
0.350622
0.406972
0.375628
0.118413
0.233195
0.243485
0.498178
0.33608
0.146108
0.188558
0.465248
0.186081
0.236504
0.399022
0.260438
0.190688
0.256808
0.106003
0.247527
0.446632
0.393323
0.102378
0.229192
0.344978
207 288
287 344
315 78
177 221
261 499
81 407
43 226
3 47
156 252
133 23
479 187
242 287
381 182
273 164
355 308
350 168
481 101
482 437
59 433
62 403
472 480
149 221
376 289
290 55
277 264
276 377
211 127
156 293
175 145
484 334
470 106
398 124
127 461
324 236
495 145
99 195
38 19
156 347
406 198
391 223
304 342
444 116
119 382
487 409
161 187
291 464
41 237
228 148
112 70
71 33
160 17
336 422
308 327
165 153
75 2
26 259
454 379
321 425
66 339
105 315
7822.5
2
