60
3
0 0 0
88 11 29
22 24 35
42 88 26
67 84 50
33 61 32
86 84 52
82 89 44
98 23 45
27 38 38
93 36 95
56 76 83
49 54 53
63 83 77
100 82 79
29 34 81
49 76 26
83 39 60
66 47 20
78 76 30
15 47 92
87 22 10
76 13 94
40 47 12
42 81 90
98 51 75
70 20 75
97 75 65
21 33 98
35 79 94
19 50 89
99 46 22
15 84 72
71 65 91
47 90 71
58 86 57
58 22 14
29 96 36
63 32 29
92 49 93
69 88 18
66 13 61
32 88 98
13 100 94
16 93 15
65 77 71
34 59 22
21 27 34
35 39 32
24 26 83
73 39 99
38 10 93
14 30 50
36 75 62
43 73 41
36 31 47
41 19 12
32 85 40
94 94 78
80 62 57
1.1039
0.363293
1.02224
1.30287
1.00789
1.29495
0.73138
0.44426
0.842808
0.394353
1.32493
1.33547
1.45063
1.39409
1.03875
0.988816
0.706582
0.986989
1.03535
0.618658
1.01009
1.48535
1.20792
1.38497
1.49374
1.18489
0.976562
0.938678
0.683915
1.29383
1.31345
0.726423
1.49541
0.911635
1.43505
0.77249
0.489155
0.571463
0.719962
0.492524
0.347814
0.76407
1.00577
0.445354
0.990351
0.733648
1.01614
0.954742
0.649571
0.947749
0.347322
1.02329
1.09166
0.437528
0.599976
0.645649
0.609806
0.905799
0.889974
1.03836
144 289
36 404
269 204
402 75
495 461
249 92
332 70
22 162
15 424
108 120
327 90
493 347
151 266
69 198
81 202
349 76
401 335
31 257
332 424
209 397
429 59
165 278
412 75
285 142
321 27
13 131
294 11
226 165
412 214
422 411
41 141
419 234
42 196
68 185
68 448
366 279
412 89
414 150
389 24
167 408
88 418
283 457
55 12
53 192
478 49
73 219
374 359
112 468
276 65
445 358
28 269
173 122
189 106
360 417
425 55
115 32
165 403
463 21
16 242
297 194
5481.67
3
