60
3
0 0 0
59 53 65
84 14 92
44 35 37
95 98 98
80 47 68
24 97 85
66 25 47
12 67 53
66 45 49
89 25 39
66 45 86
82 76 29
21 40 10
100 75 98
82 31 85
61 91 38
14 24 21
68 35 65
81 65 38
35 39 90
79 55 76
50 40 19
74 29 49
81 20 42
96 80 27
46 74 86
33 41 82
92 28 29
40 58 95
63 41 91
43 86 13
63 18 80
21 91 82
25 82 25
32 77 73
66 40 26
69 50 37
76 100 13
63 66 78
77 90 39
89 89 23
80 51 28
91 66 50
93 52 41
50 45 52
99 44 21
66 91 47
37 71 26
10 56 59
75 99 67
89 56 58
29 82 15
96 50 61
19 39 76
71 99 99
87 67 60
38 21 50
78 63 76
82 53 23
0.567942
1.72211
0.916322
1.84365
0.696473
1.31633
1.96196
1.21938
1.03781
1.47084
1.95162
1.4266
0.579651
1.48791
1.56967
1.51558
0.644245
1.07267
0.927441
1.18698
1.39129
0.823284
1.43069
1.17383
1.52597
1.51971
0.410376
0.62437
1.45831
0.432174
0.794911
0.441638
0.427285
1.37542
1.54083
0.930669
1.35084
0.939796
1.32448
1.58582
1.30451
0.810124
0.898139
1.93893
1.83966
1.65614
1.7356
1.39331
1.30819
1.50729
0.752499
1.29655
1.85871
1.91848
1.83771
1.77116
1.39917
1.2364
0.492702
0.479952
453 182
453 198
192 397
398 335
205 85
364 67
497 414
374 321
47 162
331 430
305 382
323 449
462 421
82 95
267 220
362 215
423 245
149 372
271 430
42 107
474 92
111 68
166 361
62 7
381 193
185 185
114 476
292 33
40 355
148 41
401 393
335 253
17 40
458 88
204 278
35 22
6 285
400 259
318 122
314 301
290 337
407 356
99 3
486 408
85 3
420 379
136 324
376 131
97 140
312 52
257 107
198 250
81 216
450 273
412 411
314 307
466 156
202 317
426 264
338 19
4278.75
4
