60
9
0 0 0 0 0 0 0 0 0
52 44 72 92 73 33 87 61 63
79 53 37 94 25 19 81 16 42
32 33 10 40 74 45 15 100 71
75 12 35 57 33 23 63 82 94
62 80 40 75 93 17 32 53 46
30 68 86 16 17 29 16 61 48
65 98 13 97 53 31 22 53 28
48 73 51 18 13 69 19 35 24
75 46 14 37 60 39 78 26 84
14 63 13 48 15 92 99 64 28
41 80 90 39 97 10 67 15 81
22 38 91 97 16 14 72 13 37
76 85 73 79 78 36 44 68 52
89 92 63 35 69 81 76 35 83
67 77 28 97 23 71 22 65 11
79 23 37 33 83 11 24 49 36
16 91 42 17 51 56 61 46 63
66 11 41 36 58 22 100 56 28
13 74 36 38 37 80 51 79 14
100 73 64 85 93 84 64 90 68
34 23 53 56 22 33 63 85 98
34 28 10 100 41 51 83 72 96
60 55 97 48 44 13 51 14 21
65 63 93 37 84 71 51 77 52
23 76 59 20 28 89 62 47 21
11 13 37 27 52 59 11 32 74
23 62 21 71 54 68 84 71 19
20 55 48 20 61 18 16 55 19
58 72 27 37 29 53 68 43 95
10 97 35 62 58 98 68 15 26
41 51 44 19 67 11 78 24 14
28 94 50 48 47 51 28 94 79
57 72 43 14 100 41 65 97 87
26 66 48 67 86 55 16 46 65
79 61 28 80 68 52 66 66 11
62 47 87 27 15 25 76 55 26
72 37 68 82 33 20 32 91 89
53 51 90 68 50 90 92 17 75
57 68 25 54 62 76 21 80 71
90 85 71 89 59 52 34 83 34
31 79 59 21 20 12 11 57 94
26 97 78 89 58 90 84 41 39
83 19 18 46 40 55 34 42 83
16 96 24 36 57 32 64 54 73
13 22 51 44 67 67 58 29 98
40 47 59 40 19 82 11 81 32
78 52 51 24 43 56 58 25 24
97 17 70 91 97 95 45 81 33
97 68 25 43 47 17 36 21 33
83 51 13 12 25 31 57 75 52
56 18 91 34 28 92 77 83 97
69 89 98 23 31 57 42 32 29
82 59 40 24 32 71 78 19 57
71 64 66 30 94 30 44 44 40
91 96 14 20 88 42 87 40 57
79 56 100 78 67 24 54 35 27
78 19 24 95 30 63 27 46 97
30 86 35 19 42 26 99 38 96
87 45 78 20 75 18 59 26 42
0.341007
0.519796
0.799532
0.815714
0.369769
0.405598
1.11662
0.804412
0.636593
1.23343
1.06438
1.44204
0.420688
0.372675
1.41321
1.28359
0.665524
0.482157
0.75303
1.28575
1.36329
0.862335
1.28406
0.623593
1.0079
0.796015
0.71704
0.970185
1.00154
0.422228
0.651467
1.48059
0.979701
1.18753
0.720852
1.2035
1.25329
0.910284
1.16174
0.704851
0.47687
0.683652
0.70732
1.41392
0.972304
0.654226
1.13443
1.49541
0.658518
0.654148
0.592012
0.84416
0.587942
0.533934
0.990331
0.7012
1.46518
1.13271
0.927604
1.3176
462 139
224 452
10 496
306 306
375 155
234 207
274 101
76 15
80 172
66 385
369 341
460 177
169 144
328 427
111 12
257 342
491 206
103 394
35 472
467 85
168 12
190 451
444 51
178 232
269 273
99 495
69 475
417 106
291 228
368 496
483 390
199 212
272 117
300 270
288 150
176 498
311 78
269 320
305 454
394 458
298 301
416 389
280 230
236 231
0 118
56 102
499 36
300 292
449 340
98 380
495 356
354 391
347 143
478 5
485 95
106 426
474 266
161 201
129 63
75 336
7770
2
