60
9
0 0 0 0 0 0 0 0 0
86 46 16 91 19 95 32 69 74
99 43 70 35 34 90 97 17 69
61 27 40 85 48 96 39 11 99
64 44 30 33 35 64 19 14 23
72 16 39 74 48 76 43 72 46
78 35 27 80 100 73 42 48 71
50 24 83 74 17 57 61 15 85
66 45 39 72 83 40 82 34 86
90 17 75 25 45 82 82 92 43
33 80 12 90 49 69 23 11 38
27 62 76 54 23 98 66 83 41
81 43 81 93 44 13 20 52 34
61 63 96 99 35 37 35 56 35
41 80 33 33 66 47 96 66 52
88 63 39 27 37 97 57 14 91
67 74 73 52 10 16 72 89 23
29 57 93 79 61 90 26 68 45
97 34 84 31 14 83 44 76 45
61 52 26 89 61 98 28 91 80
71 94 62 81 67 60 67 14 36
100 49 38 88 15 94 12 37 83
15 28 97 75 76 77 22 87 90
32 93 70 78 53 11 80 25 76
30 87 10 90 37 78 87 84 73
64 21 50 76 96 47 10 73 92
55 11 29 38 63 77 79 41 92
31 91 64 27 42 35 19 62 15
94 41 62 28 48 70 43 36 92
20 66 85 71 30 61 44 34 19
14 19 98 86 70 22 94 41 44
55 92 88 100 79 75 47 98 23
63 45 75 26 32 82 95 23 92
62 80 60 28 12 77 81 62 93
52 22 79 17 59 67 60 21 83
79 61 35 35 63 90 43 13 75
56 74 11 92 13 86 10 25 34
29 13 40 36 63 43 94 20 66
31 86 61 40 55 25 74 53 12
12 68 13 53 84 98 32 10 96
90 86 12 36 54 46 65 78 40
21 66 31 63 35 70 93 43 27
55 38 89 98 65 15 76 65 28
93 54 51 16 64 73 38 100 82
55 66 41 76 19 77 82 25 82
34 94 49 83 59 14 54 100 71
69 33 64 90 58 89 89 87 67
46 92 59 81 88 99 49 45 36
100 22 96 20 71 68 77 79 43
57 68 15 75 83 19 85 78 12
32 25 79 54 31 45 64 96 46
34 62 65 95 24 29 93 75 12
41 18 40 84 78 96 47 64 17
17 60 56 84 26 63 52 18 44
66 33 54 36 16 31 66 19 83
22 52 36 84 77 18 79 91 14
69 80 17 59 63 80 48 57 23
88 62 55 36 66 13 83 93 85
29 65 36 18 88 27 19 27 37
88 99 79 35 40 83 49 75 31
0.444358
0.14758
0.454252
0.377457
0.310148
0.248982
0.345357
0.327373
0.44763
0.170166
0.221798
0.322736
0.232986
0.496991
0.217533
0.333224
0.210099
0.485222
0.346625
0.323466
0.41345
0.359649
0.430167
0.125413
0.124188
0.493095
0.166256
0.457092
0.1836
0.499963
0.274648
0.344275
0.192911
0.126284
0.174891
0.378629
0.486211
0.14949
0.110383
0.493853
0.36351
0.116692
0.371589
0.11307
0.440689
0.426019
0.197481
0.15122
0.253784
0.454477
0.332109
0.244888
0.287054
0.359939
0.381819
0.222769
0.114068
0.411359
0.404381
0.168115
92 80
293 376
281 219
408 485
376 384
222 23
140 270
95 486
380 487
298 427
171 369
231 255
353 286
20 329
388 389
133 103
375 27
108 373
487 425
440 115
293 162
413 192
31 59
462 314
349 53
486 143
480 440
76 239
309 354
282 90
131 126
236 134
256 56
416 388
174 248
188 104
476 300
228 134
462 108
89 121
188 375
254 12
391 323
15 103
497 266
423 128
475 96
2 374
316 455
81 35
75 448
328 42
326 408
407 406
232 462
56 68
496 4
151 407
246 191
90 46
4128.75
4
