60
9
0 0 0 0 0 0 0 0 0
35 21 64 84 10 62 24 51 38
88 48 30 77 81 70 42 84 74
18 13 16 24 59 85 96 68 98
94 57 81 64 73 46 43 16 63
77 85 31 14 31 20 92 72 26
91 57 81 37 39 38 69 60 37
96 100 85 32 80 61 91 40 93
88 72 81 60 47 46 61 24 63
71 69 87 57 100 86 87 34 96
83 24 42 57 98 87 90 45 18
78 73 67 86 27 54 72 73 25
34 59 80 34 13 95 31 71 61
97 43 11 33 19 25 15 89 79
40 13 98 38 78 21 97 53 85
35 73 18 47 95 69 55 10 92
46 84 22 36 92 79 42 61 81
20 48 29 14 81 99 43 87 61
32 97 89 12 91 65 90 56 36
36 51 39 53 93 42 15 21 83
42 23 27 23 27 86 67 49 45
93 63 95 28 33 32 70 64 91
75 58 82 94 61 99 58 57 17
37 70 72 65 32 99 48 72 24
26 13 29 36 58 20 35 30 76
18 25 44 56 22 35 87 54 56
43 97 64 10 81 79 59 77 20
20 16 99 25 73 37 36 22 83
16 96 79 76 63 32 80 57 36
56 44 59 23 87 38 75 81 76
89 65 66 74 10 11 85 75 46
73 91 59 47 67 60 68 42 44
31 10 28 80 28 60 66 40 29
65 79 40 17 18 96 34 63 37
34 58 17 33 82 70 97 39 64
51 38 21 20 23 51 37 52 15
57 91 83 30 61 79 44 70 28
32 92 51 91 67 36 37 88 65
73 27 53 80 17 63 53 75 16
61 92 14 78 89 41 54 75 91
87 64 28 90 32 56 81 37 75
70 62 13 78 51 26 37 94 16
74 98 91 67 18 75 80 76 85
78 14 67 73 14 74 82 93 61
58 46 77 92 30 17 51 50 75
80 87 90 61 59 38 36 90 89
95 23 98 91 100 86 65 34 56
74 98 16 82 10 67 25 90 49
30 86 18 83 26 50 48 70 18
43 46 11 10 45 32 13 97 16
61 23 82 57 80 85 76 46 20
46 56 18 92 87 19 74 52 21
22 12 31 52 60 30 37 45 91
96 90 15 58 96 84 49 21 82
86 32 18 54 63 84 71 63 23
53 95 43 57 92 76 32 51 35
77 55 90 41 86 29 66 58 62
17 33 91 57 37 37 51 82 27
22 69 99 94 14 65 100 11 97
99 24 32 21 54 61 45 85 75
2.14034
2.48754
1.46257
2.39224
1.74182
1.92925
2.17632
0.721507
1.9725
1.39688
0.892986
1.00386
2.25611
2.30119
1.2023
1.35806
1.57992
1.34109
1.29144
0.857321
0.918167
1.50172
2.04978
1.08191
1.1008
0.577834
2.25664
0.673588
1.75935
1.48875
0.754804
0.525998
0.986187
0.790982
2.43182
2.30089
0.606621
1.56765
1.8978
1.51465
0.605494
0.996976
1.53924
1.15213
2.48585
1.71398
1.93257
1.88537
0.611144
0.587276
2.1837
1.90374
1.51883
1.61712
0.65185
1.91816
1.06839
2.35218
1.37956
1.1487
348 484
117 268
157 29
285 16
119 173
330 265
496 303
346 195
156 192
75 366
86 149
317 78
192 462
195 124
393 13
230 74
95 382
355 292
234 195
284 330
77 242
286 290
106 111
407 295
467 230
349 371
126 368
339 23
373 312
415 368
64 118
185 229
209 394
358 466
0 270
489 393
434 411
124 14
163 183
216 106
71 177
499 489
126 410
185 41
352 180
218 297
414 303
401 457
471 439
450 39
60 305
446 112
40 456
499 206
52 254
300 335
339 187
318 26
212 272
98 74
4146.25
4
