60
9
0 0 0 0 0 0 0 0 0
74 93 37 65 65 47 38 85 40
60 34 49 83 46 47 10 40 13
68 15 40 93 14 59 58 14 39
25 51 53 59 99 99 86 32 89
28 10 54 74 56 78 51 60 49
24 55 41 38 36 15 27 16 73
79 37 32 12 92 79 87 92 29
43 82 55 45 16 26 18 36 54
74 63 35 55 44 93 18 82 70
37 52 36 58 46 35 96 54 34
99 35 24 95 14 27 59 76 21
61 80 40 22 85 89 15 92 72
19 61 88 61 16 53 21 31 44
25 49 92 91 41 69 41 53 63
40 60 24 42 99 57 19 98 62
31 19 66 62 83 94 18 94 74
49 52 72 66 48 51 45 87 36
63 71 65 21 97 53 100 98 68
41 22 20 53 34 99 92 38 28
91 24 34 73 24 45 97 51 18
32 55 100 68 78 91 85 75 23
58 90 69 91 23 29 11 47 35
33 91 36 83 45 73 89 62 24
48 89 34 44 90 90 59 74 19
22 61 16 82 48 88 77 97 50
78 80 72 57 32 16 90 41 26
23 35 84 73 22 83 91 15 81
74 16 12 48 60 66 25 67 47
40 56 65 15 19 70 17 99 97
31 86 37 74 49 39 15 79 46
21 22 86 54 64 42 73 77 86
79 86 30 73 94 62 81 52 86
29 41 47 29 39 76 11 19 94
64 53 18 57 48 30 16 67 36
37 65 10 76 71 64 22 22 56
54 66 60 67 74 30 10 80 54
21 91 22 89 27 94 89 27 18
86 93 50 43 19 88 90 42 35
46 22 70 12 69 33 97 71 67
26 55 32 78 32 20 81 67 68
28 21 84 56 68 81 80 36 18
26 49 91 90 16 72 80 20 11
46 16 48 88 22 52 50 83 48
67 15 87 36 49 89 59 10 48
78 68 54 81 46 67 50 13 49
56 100 79 71 19 15 64 95 20
15 43 36 42 48 50 55 81 79
45 20 47 31 68 45 49 76 56
16 86 74 96 32 28 70 53 20
76 99 71 42 28 21 33 89 13
86 15 69 88 60 41 10 94 61
37 65 83 70 88 84 49 19 46
34 42 21 36 85 22 15 55 28
48 21 15 91 86 25 10 61 52
37 98 30 59 98 64 67 79 45
52 68 100 24 53 92 36 97 13
92 69 21 87 97 52 89 43 94
21 13 22 46 55 82 43 49 25
40 64 61 43 88 59 29 96 86
0.890728
0.768025
0.451257
1.18322
0.877699
1.48689
1.07557
0.731521
1.08328
1.14575
0.767656
0.786675
1.2312
1.05252
0.448536
1.04397
1.37966
0.699796
1.21294
0.535223
1.05938
1.43526
1.47175
0.689902
1.1452
0.583371
1.0429
0.759152
0.786088
1.33658
0.396999
0.507968
0.728744
0.941666
0.500341
1.47011
1.24865
0.992109
0.56245
1.19169
0.490183
0.373932
0.929106
1.37945
1.33911
0.936033
0.525792
1.31879
0.836535
0.945448
1.12067
1.28853
1.08379
0.859191
1.00632
1.28533
0.841155
0.965333
1.42691
1.40061
245 327
417 363
29 281
310 112
292 59
370 123
36 498
349 27
389 234
141 165
330 34
88 179
142 84
407 472
316 258
339 13
393 103
238 293
107 443
337 379
263 387
301 182
213 305
286 102
182 254
222 210
332 334
344 490
476 297
31 348
199 343
391 203
353 84
301 492
191 336
280 97
71 372
384 489
25 375
490 341
275 480
122 186
319 460
301 440
470 400
113 390
62 300
308 137
433 114
452 225
391 115
243 330
228 398
445 96
319 231
391 458
77 236
431 299
385 141
319 99
15910
1
