60
11
0 0 0 0 0 0 0 0 0 0 0
39 40 65 39 98 23 72 87 75 80 53
19 65 28 51 64 35 65 53 55 30 94
90 32 84 83 88 72 27 90 49 70 78
11 73 11 80 53 81 34 23 29 60 52
89 80 70 81 63 33 100 70 14 27 80
15 17 25 45 20 32 18 39 54 82 73
26 72 19 33 76 17 47 92 25 44 23
39 59 19 36 64 79 35 66 43 93 52
85 10 99 95 39 49 31 23 47 55 96
100 10 38 18 97 20 78 66 32 81 99
89 88 68 29 35 32 30 89 62 41 54
54 81 27 15 48 19 24 89 70 25 48
42 10 54 80 99 17 20 94 26 80 89
45 14 77 69 71 14 78 64 75 27 27
85 96 34 52 89 26 83 28 85 66 77
36 34 37 29 51 57 48 81 68 60 99
38 23 51 40 43 27 74 77 47 22 23
65 30 31 12 33 34 53 56 88 72 75
87 44 49 26 64 73 16 86 98 26 64
82 17 18 95 75 87 46 25 91 53 82
78 70 90 21 88 74 78 85 69 91 96
73 46 51 54 76 52 87 92 46 10 81
46 81 68 50 98 81 100 67 20 88 17
72 39 77 87 21 47 47 22 55 85 52
51 44 42 95 84 58 69 12 68 26 32
18 11 38 56 41 53 15 10 85 69 69
40 63 90 25 67 91 62 88 61 54 69
85 13 75 27 17 21 90 65 20 48 82
81 74 14 71 66 67 67 73 80 53 12
35 22 16 55 41 70 78 11 73 74 14
59 33 100 59 99 77 55 91 31 85 52
39 39 77 21 64 90 10 68 24 82 10
100 92 61 25 83 78 45 66 74 77 16
57 86 66 18 29 86 96 60 75 20 83
52 81 17 61 84 63 59 69 21 66 26
11 36 43 59 91 39 85 23 24 66 82
26 95 54 70 14 56 94 58 40 29 11
12 37 87 46 70 86 83 75 99 24 52
99 56 83 44 59 82 50 46 93 33 97
72 14 36 95 31 95 45 19 50 53 28
64 59 69 50 64 83 64 61 37 61 71
81 50 45 75 67 71 94 78 23 30 85
31 91 52 100 90 49 94 25 90 24 100
82 80 94 77 80 26 50 48 48 58 61
76 50 46 20 86 81 45 93 86 34 28
48 61 49 66 47 53 33 88 31 43 82
45 46 36 53 13 85 97 97 97 68 29
56 37 25 42 29 15 40 44 49 52 50
71 23 19 28 54 39 35 20 100 73 48
48 26 45 74 20 79 91 88 41 35 49
80 100 68 88 87 10 90 58 79 39 16
100 81 42 50 34 45 18 43 17 82 79
14 29 26 49 76 96 66 39 25 30 42
94 13 100 53 58 60 10 98 45 53 49
46 76 22 86 39 10 76 69 61 22 69
61 21 23 69 19 62 38 13 69 43 52
68 72 69 19 45 76 40 43 41 60 64
61 54 26 34 86 18 84 68 100 49 96
84 82 16 24 70 98 27 26 86 80 59
0.407904
0.56518
0.345706
0.58398
1.36507
0.413232
0.913742
0.939608
0.746222
1.13285
0.539402
0.679036
0.481853
1.19618
1.10801
0.638258
0.48184
0.474261
0.491461
0.788529
1.05185
1.4423
0.339092
1.34951
0.902368
1.26523
1.11269
0.654925
0.574447
1.26725
1.34322
0.994753
1.46131
1.16524
1.39728
0.324698
1.12371
1.29011
1.4907
0.668137
1.33306
0.909802
0.785796
0.31538
1.3581
1.216
0.896046
0.419118
0.312036
1.43454
1.03202
0.361637
0.913839
0.748914
0.551301
0.840946
0.804066
1.17561
0.425641
1.02798
121 387
93 312
403 93
123 141
362 290
333 358
124 149
450 271
440 56
37 484
195 206
300 461
434 308
65 50
493 80
399 69
9 459
45 206
434 15
433 13
155 462
413 78
462 293
498 312
281 448
377 94
187 498
383 447
380 266
116 255
390 380
356 321
114 393
309 255
438 127
372 307
227 97
25 42
243 54
152 328
493 427
4 285
50 431
279 81
211 55
233 270
186 255
400 324
210 15
17 257
191 80
266 256
265 7
36 75
373 439
111 71
301 397
177 30
418 321
402 327
5478.33
3
