60
3
0 0 0
23 71 75
73 31 96
91 32 81
56 18 73
93 34 66
62 81 76
21 43 78
75 49 56
81 71 55
90 31 87
56 10 52
39 93 80
34 70 92
34 80 53
43 25 37
15 12 29
70 58 89
51 25 85
28 51 41
39 49 79
86 94 95
58 43 32
89 46 18
100 79 76
60 31 79
86 75 40
36 56 19
20 34 35
65 70 76
69 37 68
15 33 40
19 35 42
52 30 94
96 87 74
42 29 54
93 12 91
77 68 87
92 58 59
85 17 92
24 16 47
59 83 31
64 79 11
34 11 72
99 38 66
23 23 26
89 91 56
15 65 37
40 20 46
62 21 68
92 76 12
94 87 69
87 60 63
40 64 11
29 61 30
57 98 40
76 39 38
30 28 52
94 73 23
20 28 65
0.627126
0.630619
0.248763
0.484038
0.872441
0.543237
0.992716
0.330568
0.340634
0.897786
0.69001
0.442409
0.98916
0.924849
0.411369
0.363717
0.548984
0.486305
0.234641
0.402299
0.598124
0.246408
0.742649
0.683059
0.631625
0.362956
0.929102
0.389417
0.487843
0.867769
0.837609
0.742961
0.367354
0.399577
0.591175
0.696259
0.896328
0.220701
0.721044
0.787673
0.672406
0.457829
0.95327
0.58103
0.443032
0.54854
0.795899
0.86301
0.561454
0.867732
0.474475
0.908516
0.609468
0.711716
0.486146
0.452669
0.211785
0.859743
0.539633
0.217252
180 111
258 428
46 464
202 411
180 150
370 388
160 204
495 260
328 200
401 136
328 336
238 136
312 148
84 67
377 448
162 466
108 199
400 477
163 237
349 0
348 60
348 354
167 210
425 92
316 230
210 227
112 466
467 388
322 474
111 292
39 117
496 166
389 340
438 213
282 392
209 29
174 173
464 470
436 80
58 122
463 471
34 42
141 76
352 457
459 147
223 430
300 35
410 3
231 488
247 87
181 406
335 221
473 89
42 434
92 422
19 256
467 100
40 212
139 125
355 101
3261
5
