60
5
0 0 0 0 0
94 26 58 19 90
62 25 11 50 49
40 55 53 91 71
26 54 90 34 84
31 47 72 81 92
19 57 58 86 62
52 34 66 82 85
40 96 75 90 75
82 65 35 37 67
40 95 96 20 19
97 61 19 12 86
90 22 91 62 47
98 39 24 48 10
11 20 23 28 54
31 34 76 25 18
71 36 30 48 17
63 54 86 44 48
12 22 40 55 38
91 49 59 58 36
82 48 34 83 54
66 12 77 58 25
60 22 66 84 26
70 74 65 41 73
64 44 47 34 73
30 80 26 85 30
90 66 73 14 20
20 72 10 36 14
43 73 56 17 62
54 81 10 98 22
78 92 37 31 61
35 36 86 57 64
41 34 19 55 89
63 63 14 22 31
51 78 29 98 40
34 71 61 28 84
13 17 69 51 98
29 62 14 69 84
98 93 22 34 79
73 44 55 21 68
21 23 37 21 85
46 90 72 66 45
42 32 76 98 43
64 31 45 69 95
39 30 14 43 27
36 72 71 67 94
56 59 100 65 52
59 39 58 87 36
47 66 79 87 65
45 80 93 40 96
65 37 15 73 63
60 63 59 55 57
37 81 66 96 29
81 100 60 57 29
15 74 66 84 77
23 93 87 83 34
20 62 22 53 52
52 22 74 37 25
88 81 62 29 34
30 44 11 32 68
0.661699
1.47647
0.337238
0.521974
1.40655
1.07181
1.34503
0.370335
0.938975
0.559645
1.17893
0.448349
1.13864
1.20368
0.765891
0.490245
1.14768
0.873452
1.2285
0.385282
1.33319
1.22332
0.841492
1.03295
1.28309
0.37132
0.336497
0.812781
1.37653
1.12147
0.981668
0.605109
0.369073
0.640768
1.38906
1.48817
0.461172
0.353938
1.35998
0.380147
1.30584
1.17116
1.18745
1.0955
1.35979
0.943128
1.31559
0.70077
0.330791
0.921935
0.432181
1.21515
1.37064
0.723857
1.4062
0.575411
0.930673
1.24764
0.953122
0.607672
276 473
446 14
164 382
349 282
169 345
76 430
100 347
421 425
408 78
423 417
231 476
228 12
119 444
136 124
308 143
231 479
240 226
295 490
170 431
350 37
263 117
492 445
104 92
169 229
66 74
384 298
58 34
18 11
278 109
460 57
493 70
411 148
197 456
246 359
411 489
485 454
363 22
279 108
1 425
303 333
113 88
468 331
128 447
449 165
57 244
295 325
144 92
438 454
437 22
276 322
396 152
176 148
2 283
485 230
24 122
63 285
319 273
97 95
109 48
241 279
15880
1
