60
3
0 0 0
68 86 57
38 59 54
76 88 46
85 60 79
97 56 85
85 62 17
60 71 60
23 34 31
48 80 21
38 31 89
38 11 84
34 57 96
34 34 59
20 60 82
99 64 71
81 11 11
73 63 84
72 81 54
54 73 59
72 25 52
37 65 38
25 44 27
72 99 95
73 59 42
26 65 13
57 71 98
80 74 10
99 28 26
48 94 97
80 85 51
10 13 36
84 68 88
86 11 75
48 58 34
98 65 90
77 37 30
75 14 30
83 65 71
63 17 47
66 15 72
41 73 97
44 80 59
82 12 66
41 97 80
34 59 11
78 17 33
23 42 52
45 32 56
73 68 35
41 99 49
57 64 28
40 18 43
98 54 80
91 90 84
11 49 95
80 91 77
87 98 61
37 75 38
89 11 98
0.447746
0.636907
1.33831
1.69257
1.77826
1.33487
1.75681
1.29521
1.06797
1.84145
1.97549
0.893259
0.715248
1.44263
1.11068
0.566846
0.757816
1.09483
1.69851
1.25325
1.81054
0.521372
0.808141
1.77669
1.73944
1.84794
1.57337
1.18277
1.49475
1.07896
0.715709
1.35936
0.760739
0.629627
1.27212
1.59364
1.06449
0.911455
1.67206
0.497928
0.924152
0.463935
0.514577
1.37152
0.926981
1.42693
1.61714
1.47674
1.93145
1.9977
1.15025
0.549077
1.20419
1.81818
0.517674
0.421233
1.62497
1.90492
0.808738
1.98524
44 153
282 294
88 272
348 454
25 274
162 176
462 460
11 48
357 85
403 416
159 56
110 214
214 282
300 51
338 389
323 212
490 30
234 418
198 377
57 362
113 231
433 109
66 169
229 315
282 463
365 109
407 282
449 303
79 66
244 17
185 462
470 123
382 249
267 272
134 82
158 274
401 19
262 215
24 0
224 109
375 197
222 315
376 297
465 90
446 113
492 297
258 0
171 484
43 121
307 362
244 215
191 56
448 443
169 97
141 283
197 226
82 113
8 90
305 81
163 47
3419
5
