60
5
0 0 0 0 0
28 52 95 76 98
85 94 40 25 31
23 71 26 93 75
16 16 62 26 85
58 29 69 50 67
51 39 19 98 85
70 100 17 83 50
32 89 64 97 91
82 24 89 97 41
87 46 58 19 78
32 42 92 45 65
73 20 78 10 91
11 70 98 70 21
45 87 58 88 52
51 15 70 97 13
43 88 15 95 58
86 60 43 16 17
31 35 68 30 62
12 84 82 32 50
67 95 56 76 83
76 82 13 99 53
87 66 63 35 38
20 81 83 70 74
34 45 96 52 69
70 71 97 56 47
27 69 44 63 86
92 91 58 60 15
41 28 100 93 54
65 63 18 31 29
83 57 21 86 32
88 12 92 50 34
88 68 95 72 77
58 21 61 51 51
17 19 14 84 84
48 46 94 11 75
55 87 25 64 13
47 23 43 83 21
82 53 15 26 90
56 10 41 45 42
19 18 50 99 55
24 87 87 21 58
52 33 73 30 13
62 85 44 26 75
45 70 79 39 95
99 59 18 29 80
32 43 99 89 87
28 22 64 74 10
69 23 17 31 94
77 99 42 72 75
44 38 20 94 30
23 98 19 89 85
82 49 14 38 79
100 10 71 34 74
74 93 29 33 92
65 83 11 15 54
63 71 53 38 86
69 87 12 100 41
23 99 31 56 97
15 90 68 70 25
0.690478
0.423651
0.652719
0.296292
0.26132
0.418856
0.736968
0.578523
0.853968
0.239151
0.372946
0.439418
0.475563
0.71265
0.923092
0.779032
0.230019
0.524547
0.772862
0.225074
0.521253
0.463896
0.994655
0.819711
0.539687
0.298866
0.220585
0.400951
0.427772
0.600821
0.400713
0.861417
0.928663
0.473459
0.729672
0.741514
0.438598
0.626176
0.864321
0.870951
0.851307
0.941609
0.479774
0.332189
0.810867
0.739812
0.361436
0.567417
0.438425
0.795181
0.229058
0.640123
0.210042
0.5302
0.428394
0.67227
0.351266
0.513586
0.224656
0.957055
79 63
454 23
429 63
71 173
489 229
466 138
35 309
134 198
195 130
474 483
468 55
243 183
273 366
284 103
263 486
176 344
57 313
390 373
500 483
415 446
69 265
301 392
248 73
154 427
108 323
362 452
20 441
43 381
173 132
220 95
177 433
500 212
217 127
439 287
439 358
112 59
145 426
8 457
37 214
196 188
213 219
456 106
309 365
94 203
374 314
435 129
486 260
155 318
265 371
440 346
104 366
451 219
314 346
79 470
405 404
64 392
295 322
57 227
354 393
353 396
16690
1
