60
11
0 0 0 0 0 0 0 0 0 0 0
99 63 46 62 57 25 69 41 59 41 64
98 25 47 75 36 58 11 55 10 27 74
68 50 71 58 33 98 71 45 33 16 70
70 60 59 64 94 79 56 11 90 26 19
79 66 83 51 14 52 15 94 18 54 26
63 29 52 36 49 77 13 40 55 15 12
23 92 37 18 23 71 76 52 96 98 24
58 16 96 56 40 57 94 73 96 95 76
99 18 70 47 87 16 86 69 14 14 55
70 29 43 60 76 83 44 98 28 14 45
23 45 87 34 23 95 77 99 98 47 84
75 12 92 94 14 83 83 97 80 59 90
49 53 14 45 70 64 90 49 35 86 93
82 25 18 77 16 27 100 33 83 27 89
40 11 75 10 87 95 23 35 20 17 46
30 55 20 20 10 87 41 46 84 48 71
64 18 44 34 94 49 13 73 32 96 56
28 52 17 65 46 54 42 84 44 64 21
78 96 25 31 11 69 82 29 59 94 19
58 23 70 98 88 91 63 14 70 100 25
87 33 94 26 99 40 71 92 10 93 41
41 57 61 41 11 80 41 17 86 62 21
52 92 59 72 63 42 24 63 82 76 32
65 87 10 90 94 12 42 48 13 58 36
59 27 99 89 35 50 44 80 52 88 42
53 48 29 91 13 60 10 80 36 75 95
76 69 36 99 19 44 46 53 82 40 83
100 89 27 13 36 23 29 21 76 35 58
97 81 100 50 49 43 31 79 53 60 39
27 29 21 61 33 26 96 30 77 78 76
22 31 57 97 93 83 39 57 66 63 33
31 65 10 76 97 14 65 53 19 34 75
18 43 57 45 74 74 55 73 59 54 100
13 49 75 29 80 31 29 50 58 63 59
82 41 35 88 88 50 16 17 80 45 14
39 66 10 67 83 70 28 18 32 41 15
66 100 46 91 94 49 87 44 60 41 96
79 60 80 50 40 18 10 23 51 81 77
96 39 32 82 76 26 18 67 37 18 70
27 87 73 54 10 17 18 24 41 37 99
37 82 71 77 15 95 46 55 92 55 84
38 98 81 12 21 43 71 91 33 64 43
24 22 44 61 61 27 59 98 14 94 13
82 88 14 95 91 34 80 33 50 32 46
28 57 59 99 51 11 59 90 46 20 30
43 43 44 77 89 36 58 82 50 14 71
76 18 25 73 34 23 18 92 67 60 85
85 68 64 46 26 10 31 11 71 61 91
15 35 18 87 83 19 98 28 96 79 93
18 40 59 37 87 60 91 48 22 67 37
88 63 53 26 93 49 12 40 28 26 82
72 16 34 30 64 53 94 91 95 100 93
59 29 19 49 28 34 88 81 16 22 44
73 71 79 38 72 18 39 73 12 10 91
52 85 82 46 18 87 57 31 46 65 34
87 61 73 18 25 78 29 47 95 85 71
58 51 80 55 74 11 75 40 14 81 10
25 42 35 23 34 41 27 53 46 61 84
50 77 14 88 45 100 48 21 96 82 48
1.86556
0.472136
0.804768
0.543603
1.13922
1.23143
1.17473
1.04943
1.78591
0.959307
0.89702
1.69334
1.4639
0.967193
1.66584
0.933661
1.1127
0.947618
1.61339
0.816237
1.0764
0.834531
1.82014
1.2082
1.42125
1.34646
1.99072
0.577495
0.867465
1.31672
0.744742
1.53865
1.42079
0.555568
0.701032
0.957138
1.51365
0.416981
1.93497
0.491813
0.635262
1.95678
1.08177
0.545504
0.535177
1.47945
0.615106
0.727205
1.92251
1.61462
0.606423
1.02001
1.61958
0.734671
1.13307
1.81817
1.96715
1.31215
0.5475
1.92391
457 233
214 159
76 209
178 396
484 278
426 474
168 152
350 328
125 463
378 275
240 121
167 88
264 396
175 254
28 378
212 39
159 321
123 327
340 126
152 179
480 245
331 346
272 308
325 36
155 161
161 391
19 485
327 52
411 210
79 63
95 309
5 194
418 19
141 80
348 404
461 39
15 28
466 287
265 111
488 28
111 31
436 177
20 436
254 120
169 55
354 2
252 221
56 110
474 435
380 96
175 315
365 306
79 26
77 135
186 14
396 108
248 254
188 490
463 424
372 259
3191
5
