60
7
0 0 0 0 0 0 0
25 80 91 97 92 49 77
33 51 57 31 69 99 93
22 25 98 50 41 73 35
48 72 70 79 43 61 65
31 13 65 67 58 98 10
50 33 83 100 80 95 41
61 93 67 15 25 84 10
13 81 61 99 65 17 55
69 43 70 60 39 23 19
56 20 31 78 51 35 19
51 100 73 26 85 70 60
89 12 69 67 90 48 81
26 16 70 96 92 22 80
58 23 77 30 60 84 59
86 82 31 50 32 43 99
80 78 81 84 98 66 50
19 71 32 16 19 93 75
90 63 44 59 86 75 59
91 27 23 90 57 67 15
47 24 10 97 38 94 97
82 91 79 54 48 93 82
57 35 86 57 17 63 33
68 24 33 14 12 88 23
81 48 52 17 91 63 96
84 74 46 84 78 14 61
85 91 47 99 51 31 30
36 84 64 37 61 42 20
90 76 38 80 53 15 97
32 69 47 78 87 86 99
70 39 75 29 79 84 34
91 77 23 45 31 10 16
39 44 24 50 71 23 70
77 42 78 74 36 91 11
11 15 97 100 72 100 27
25 97 29 20 35 100 48
100 68 23 50 40 45 17
65 78 86 42 100 53 72
69 38 45 48 81 58 23
76 39 49 13 27 100 48
46 92 91 23 93 37 70
81 58 52 52 81 31 78
63 84 90 48 10 26 13
59 18 23 16 54 63 53
43 33 95 57 29 87 44
69 87 54 67 84 92 36
97 25 71 77 13 67 49
98 40 27 100 98 50 52
28 83 20 52 20 21 16
99 27 66 19 21 60 67
58 52 39 98 26 33 48
17 56 67 82 79 96 56
14 32 64 49 70 85 28
28 25 50 55 64 14 61
83 21 11 26 43 94 34
33 99 12 71 83 33 81
27 87 100 87 47 45 22
16 88 62 58 24 19 41
59 40 84 13 60 24 60
29 43 48 74 21 21 94
0.282788
0.213121
0.250107
0.328563
0.418296
0.188519
0.310312
0.282082
0.233996
0.312498
0.464597
0.417686
0.482868
0.337299
0.362173
0.378458
0.184258
0.442548
0.104501
0.126347
0.158709
0.373637
0.2727
0.411898
0.29744
0.434457
0.367539
0.354242
0.26372
0.48815
0.471825
0.248137
0.241149
0.286827
0.290556
0.261906
0.453848
0.309943
0.375929
0.29969
0.37422
0.439688
0.116457
0.454638
0.175741
0.215058
0.295487
0.150806
0.357991
0.226019
0.267362
0.463055
0.286031
0.216073
0.455668
0.275379
0.14986
0.407875
0.164274
0.481981
438 33
358 157
179 342
274 427
430 431
372 442
429 225
57 24
154 277
95 105
314 462
357 16
323 356
4 227
446 396
223 228
481 148
117 101
377 9
147 270
413 182
49 225
109 490
218 103
35 31
131 457
308 433
154 425
47 141
58 267
17 233
154 59
64 270
38 88
254 8
12 108
166 333
368 314
116 40
429 241
373 68
282 308
38 446
207 414
237 307
288 307
396 195
212 369
386 196
356 11
468 146
376 158
447 66
331 411
433 488
343 495
421 433
17 469
399 493
192 393
16485
1
