60
3
0 0 0
26 81 85
36 34 25
83 27 28
62 84 30
11 46 47
56 45 61
38 69 19
86 41 13
44 94 43
94 40 68
58 98 60
26 65 58
38 100 41
93 48 37
49 46 27
25 51 61
79 27 54
16 97 29
21 22 69
13 37 46
10 94 40
37 90 33
66 93 89
41 77 39
55 23 16
49 51 39
12 20 68
10 42 22
48 40 48
19 98 97
18 59 83
92 78 39
14 27 27
98 22 32
56 47 14
62 32 72
60 39 39
78 77 41
80 41 56
63 35 67
64 95 25
68 83 32
35 69 35
86 90 84
60 21 96
56 56 24
17 98 76
86 82 25
36 89 45
16 43 36
18 22 10
97 40 55
31 66 43
47 14 75
47 58 46
67 42 31
23 79 64
54 86 76
56 92 51
0.635084
0.899075
0.608207
1.08098
0.307808
0.499317
0.762272
0.865492
0.397581
0.896237
0.980272
1.439
0.66017
0.968187
0.304007
1.12305
1.33815
1.38191
0.888353
0.637129
0.979444
1.23892
0.734331
0.675349
0.526998
1.04185
0.3519
1.0121
0.719629
1.01546
0.510283
1.27886
1.05649
0.862027
0.340303
0.725546
0.590746
0.402041
1.18398
1.42916
1.2228
0.555346
0.792169
0.965316
0.420314
0.987948
1.02937
0.529259
0.958026
0.641928
0.418451
0.671654
1.32834
0.337619
0.719222
0.908728
1.26942
1.05708
0.692788
1.25443
366 235
175 140
132 496
238 23
405 299
362 422
45 228
452 249
308 152
297 132
79 319
101 138
482 370
190 240
134 322
204 296
5 88
191 190
302 491
2 118
499 141
284 131
86 195
5 209
129 176
460 260
7 17
272 73
28 228
88 185
253 477
250 293
165 447
378 37
74 177
42 122
20 26
145 390
76 182
373 223
41 271
362 92
89 440
332 368
140 19
179 26
371 91
183 25
121 126
187 294
408 175
220 77
489 181
466 100
132 396
291 136
158 317
312 226
411 363
144 313
15230
1
