60
9
0 0 0 0 0 0 0 0 0
37 73 55 18 37 54 60 16 10
57 68 87 15 16 81 70 38 83
42 85 44 10 97 76 72 42 58
100 39 70 28 49 62 96 34 59
87 50 92 77 100 31 64 49 43
56 15 55 91 39 11 73 48 33
97 44 66 93 18 63 87 25 88
14 100 33 83 71 96 87 36 97
45 50 36 77 10 60 51 52 63
64 19 29 93 41 22 17 82 28
72 35 96 87 41 76 90 14 31
65 85 82 84 39 39 62 80 83
91 60 65 14 87 69 29 55 75
92 86 73 40 12 82 69 69 32
54 18 99 46 63 60 15 10 47
81 100 89 74 33 50 39 83 26
68 78 87 17 49 99 70 71 16
77 91 26 55 26 35 89 93 34
73 35 96 76 36 66 59 86 18
10 57 78 48 78 60 71 24 81
34 92 62 64 26 55 38 21 56
37 64 28 84 36 56 38 41 31
91 94 50 24 47 13 43 55 16
20 79 49 12 20 18 14 59 39
33 38 23 85 29 95 40 72 73
25 33 94 50 29 58 79 51 30
35 47 13 15 36 50 69 43 11
36 27 27 53 72 12 98 42 90
10 75 66 96 43 34 15 89 85
18 23 53 34 47 39 37 92 54
53 82 97 34 91 17 85 67 87
89 63 19 31 59 26 49 91 44
82 88 38 43 89 81 51 49 39
86 38 70 72 73 22 55 100 28
56 19 71 72 71 84 43 80 16
50 68 66 42 35 39 86 74 60
20 96 28 54 58 58 32 51 65
73 48 98 23 34 36 38 92 18
77 23 85 70 29 64 71 23 82
20 78 61 32 46 45 83 53 42
98 22 96 81 100 42 95 12 41
11 11 94 11 79 34 52 53 46
21 43 52 17 55 40 46 32 39
19 78 35 69 41 57 15 25 12
51 82 92 57 41 31 80 71 67
45 28 43 17 29 20 33 30 97
50 48 99 46 44 15 60 44 39
14 24 81 42 94 96 90 70 12
70 86 37 13 41 55 57 74 46
89 75 68 47 85 29 71 39 52
49 82 29 33 77 98 26 20 95
84 54 41 61 23 50 11 22 95
49 56 35 37 94 26 13 85 73
87 63 88 59 45 91 84 45 44
74 16 68 96 29 52 15 20 17
68 29 75 74 84 68 52 69 39
44 84 56 23 71 18 88 64 20
62 26 23 75 31 71 27 43 100
55 80 34 93 37 72 37 25 86
1.06881
1.10308
0.972223
1.15044
1.27008
1.26861
0.448913
1.12359
0.906124
0.45149
0.846493
0.497574
0.824723
1.08308
0.96451
1.35408
0.782505
0.762334
1.45883
1.02665
1.05312
1.17613
0.744172
1.00177
0.674682
0.77596
0.846052
0.369507
0.732993
0.521109
0.623496
0.754944
0.639681
1.2094
0.680852
1.31891
0.998704
0.920283
1.38526
0.890397
0.644113
0.898408
1.17308
0.458541
0.738634
1.17495
0.570951
1.12281
1.37447
1.37503
1.20976
1.08172
0.533337
0.943349
0.420355
0.598826
0.716204
1.16269
0.504587
0.353949
486 66
211 488
32 288
138 30
154 270
214 432
51 152
167 429
192 145
287 463
495 81
174 40
245 297
354 352
16 329
67 75
0 36
160 374
216 20
69 388
238 294
286 420
97 382
254 475
54 423
66 176
117 301
231 369
425 372
154 481
55 63
138 185
282 496
280 448
262 211
110 126
354 188
460 170
79 197
375 379
48 499
89 252
77 148
363 250
120 173
181 26
98 320
51 77
135 207
92 363
480 455
9 400
298 291
6 433
177 160
334 394
165 452
261 370
392 456
494 176
3990
4
