70
7
0 0 0 0 0 0 0
88 85 47 57 46 40 28
42 68 10 37 99 84 84
31 78 23 48 10 11 36
65 18 64 20 18 19 43
81 58 19 47 82 36 76
73 22 57 38 49 81 18
25 65 61 25 58 69 11
55 23 62 66 12 80 66
93 20 70 15 24 38 90
31 46 21 90 89 96 68
80 91 10 37 89 86 55
96 52 66 25 46 44 55
99 87 43 63 68 95 99
44 95 15 50 37 99 21
51 49 63 36 73 89 27
91 45 77 67 16 12 74
59 86 41 85 75 38 43
31 23 29 68 56 68 79
16 90 25 92 56 45 95
50 19 59 34 84 30 48
86 72 13 91 84 88 26
93 87 31 21 19 55 55
54 88 58 15 83 84 99
28 71 17 94 43 11 25
26 54 50 61 20 57 91
57 54 94 54 96 87 26
77 21 52 87 63 62 41
98 49 13 79 99 56 38
67 29 73 96 54 40 70
64 28 58 73 32 68 36
10 22 17 59 35 54 30
57 13 31 68 92 58 18
92 46 46 100 86 52 10
14 70 60 63 98 96 46
58 73 22 75 87 47 78
26 61 77 99 100 75 44
50 77 11 95 20 29 49
65 44 49 78 33 55 53
73 39 42 43 75 10 15
72 17 66 85 27 90 10
58 94 29 31 23 75 97
74 94 44 36 80 54 11
98 29 83 56 29 14 91
62 16 13 87 71 76 67
98 67 24 97 70 27 14
70 58 18 25 29 19 59
93 36 78 56 54 22 42
93 83 18 69 47 68 99
100 10 56 75 18 89 93
31 90 53 78 63 59 49
59 57 43 32 31 44 58
88 96 47 63 17 65 51
70 11 38 13 68 100 17
36 41 43 36 76 64 74
90 21 94 93 54 32 91
10 59 52 42 34 72 24
40 86 35 82 42 17 15
52 80 34 51 50 83 40
88 21 54 76 15 91 96
91 31 48 81 12 100 58
32 41 32 15 41 59 61
12 32 68 15 48 64 51
43 53 80 30 29 21 59
64 84 51 19 10 45 50
58 62 81 77 92 87 80
27 67 15 15 44 68 100
61 71 23 41 53 62 71
55 40 61 73 73 63 15
99 59 14 26 21 28 80
0.709742
0.272088
0.85559
0.935828
0.32007
0.212267
0.300598
0.464706
0.435691
0.434277
0.313633
0.608262
0.214943
0.549978
0.279882
0.390588
0.720398
0.864435
0.905143
0.987276
0.524746
0.883726
0.616916
0.523561
0.692052
0.680585
0.268837
0.394859
0.642671
0.296685
0.799418
0.925296
0.368523
0.419296
0.384274
0.947053
0.567019
0.489908
0.468619
0.456403
0.251371
0.806843
0.640945
0.84586
0.606587
0.486135
0.873261
0.708267
0.809377
0.570873
0.6631
0.831132
0.480435
0.359102
0.236994
0.390103
0.436963
0.30956
0.520785
0.717109
0.554441
0.290308
0.272042
0.719223
0.811947
0.691304
0.343293
0.615627
0.567828
0.632663
237 68
50 171
82 153
226 219
348 384
35 159
381 236
354 212
405 163
428 53
255 180
203 363
500 402
486 141
106 120
312 196
174 491
328 204
316 357
424 249
405 193
497 54
491 51
377 419
59 89
28 286
92 444
430 163
474 35
286 304
476 114
270 26
156 145
203 178
141 249
443 1
269 368
20 353
43 326
272 83
414 177
446 140
428 460
88 445
197 93
178 493
142 197
226 235
293 113
226 144
39 156
408 49
263 258
166 287
101 123
26 206
159 73
242 81
349 315
233 453
32 307
82 162
322 116
487 199
481 391
284 460
214 85
420 435
274 281
479 228
18755
1
