70
7
0 0 0 0 0 0 0
59 75 26 86 60 20 60
46 91 61 97 49 19 34
65 61 45 51 18 24 49
86 82 91 28 57 79 56
84 64 55 73 49 64 23
68 34 100 71 68 44 88
57 47 37 39 37 32 75
16 16 89 83 18 14 42
71 30 37 65 40 69 33
75 78 21 13 78 21 46
19 29 54 74 64 91 66
94 83 97 66 35 90 67
45 91 51 91 82 44 79
39 69 43 83 88 76 75
16 79 83 59 69 36 57
23 97 48 81 95 65 14
42 41 79 75 80 66 21
13 82 72 75 79 93 28
17 74 84 68 19 20 90
69 27 61 54 83 96 12
30 65 22 91 86 19 67
24 37 67 75 16 59 53
11 57 26 70 31 34 96
78 71 37 79 27 65 60
44 14 56 89 24 36 89
86 68 81 49 14 44 93
18 16 38 69 88 69 86
73 24 69 34 73 47 64
18 29 86 78 87 75 73
31 51 49 62 43 48 66
21 23 26 85 89 31 88
34 95 93 21 57 59 19
84 27 91 42 22 90 57
61 10 10 62 27 85 26
79 14 23 85 23 13 38
87 71 41 51 57 76 38
37 71 61 20 23 22 37
12 23 90 59 12 12 27
24 89 72 49 96 67 93
49 22 32 87 34 55 16
64 31 59 59 48 16 31
93 34 90 97 48 89 21
56 22 27 10 68 68 67
29 41 43 77 58 52 75
77 59 75 69 85 84 43
44 94 27 66 87 85 34
30 29 92 78 55 59 38
73 16 57 91 46 40 15
49 73 59 17 38 38 33
92 82 19 27 56 70 41
40 19 60 51 62 25 77
100 94 57 32 98 56 14
12 72 50 50 29 47 41
68 13 23 14 63 48 11
16 61 79 21 73 88 43
25 30 69 89 52 16 27
38 72 93 93 54 50 20
92 37 54 75 65 54 69
66 21 28 22 90 16 36
95 68 13 16 37 12 98
68 64 66 66 11 27 77
60 32 73 56 82 77 14
49 52 81 12 73 46 41
30 11 34 78 91 33 12
18 65 60 99 19 19 23
41 51 57 15 49 13 83
93 51 90 44 64 91 94
78 57 41 14 63 63 68
42 19 72 73 51 97 15
0.37227
0.336045
0.227125
0.437518
0.423041
0.30071
0.397396
0.478595
0.181599
0.488204
0.371156
0.315348
0.463095
0.442176
0.361914
0.493908
0.428798
0.390464
0.367214
0.279317
0.386734
0.113351
0.134301
0.228515
0.195614
0.456426
0.140742
0.229022
0.205491
0.445053
0.314631
0.101949
0.324733
0.13487
0.192414
0.103543
0.444239
0.20648
0.335316
0.43055
0.490572
0.162522
0.464774
0.211508
0.455701
0.353192
0.124462
0.191774
0.259151
0.241055
0.212535
0.191464
0.327697
0.313238
0.421091
0.295085
0.497152
0.176965
0.459251
0.299481
0.44812
0.272764
0.382477
0.434627
0.374603
0.354086
0.38752
0.44894
0.462468
0.275312
57 258
226 240
146 377
412 290
186 438
70 230
129 434
65 458
417 328
259 373
120 160
28 136
375 180
236 103
74 392
49 480
209 225
174 27
292 159
209 125
159 474
163 265
98 264
106 324
32 33
33 387
392 97
79 90
383 98
76 161
27 17
405 390
402 47
281 492
80 290
479 419
492 444
62 127
221 20
385 449
149 227
151 115
431 140
230 309
105 429
443 398
239 372
305 201
84 27
289 314
18 7
35 148
471 146
125 173
451 343
12 50
116 34
89 29
197 461
27 497
95 57
480 60
324 13
57 499
322 179
344 0
456 60
341 178
257 234
170 399
4627.5
4
