70
5
0 0 0 0 0
95 97 24 96 28
33 79 76 70 65
58 28 59 11 90
75 11 39 87 18
30 84 45 87 23
28 99 35 58 59
51 61 98 67 14
85 64 41 90 29
24 62 26 39 18
70 100 54 44 83
99 13 68 64 44
54 80 60 58 10
10 63 41 88 42
34 89 27 67 54
39 58 90 86 85
64 11 58 28 71
54 69 35 19 35
30 91 48 64 18
74 62 97 50 33
56 35 34 22 50
35 11 86 16 97
54 94 71 93 31
72 48 17 96 72
100 44 97 53 59
61 75 21 41 32
48 67 34 68 30
38 45 29 90 54
63 69 91 64 85
95 87 44 80 28
27 32 23 23 18
41 92 58 93 84
42 95 82 53 49
17 31 50 83 74
55 22 17 97 58
46 27 41 20 58
84 86 50 29 66
21 19 89 79 10
53 88 11 44 68
83 79 58 57 59
17 13 72 23 95
68 86 68 86 100
84 23 61 36 75
30 58 76 99 76
18 12 96 95 15
71 62 99 89 44
90 79 25 75 77
26 73 82 20 88
56 39 54 15 66
92 40 46 90 70
89 25 63 79 59
53 65 86 92 100
24 32 77 22 28
68 57 81 87 56
20 74 18 11 94
56 90 35 58 13
12 91 70 44 84
84 100 50 98 100
66 78 66 37 73
86 58 23 90 92
34 63 84 45 38
66 69 27 38 93
86 98 54 11 37
63 100 64 39 88
83 85 66 42 61
77 24 60 80 65
80 75 60 18 26
53 51 55 55 19
56 49 75 47 17
99 71 79 97 15
0.557374
0.594756
0.526536
0.384865
0.557738
0.386396
0.640818
0.890856
0.65082
0.365365
0.654582
0.233198
0.933166
0.495623
0.743607
0.591327
0.204568
0.695969
0.443601
0.619211
0.99161
0.9464
0.787788
0.518975
0.85959
0.393825
0.78317
0.207765
0.423907
0.361187
0.377967
0.235435
0.695217
0.237128
0.75204
0.634071
0.47408
0.419148
0.517062
0.843713
0.39722
0.621678
0.708988
0.994094
0.624485
0.373851
0.793145
0.402147
0.858893
0.639502
0.527724
0.260582
0.992993
0.60018
0.506301
0.904566
0.459553
0.880806
0.308825
0.888223
0.661454
0.455919
0.682205
0.640925
0.293742
0.831055
0.953392
0.914406
0.722838
0.68084
1 284
305 304
254 405
261 448
29 474
189 295
176 475
360 200
479 320
273 449
292 254
280 425
430 282
314 297
440 192
262 236
180 454
446 155
152 118
179 368
14 367
177 165
348 100
411 94
23 457
55 199
291 56
77 22
412 475
475 401
202 147
189 302
311 287
0 356
112 397
374 382
431 378
455 263
156 115
305 119
274 431
257 135
74 383
0 488
411 290
314 12
157 10
401 342
210 429
22 300
121 305
414 91
356 21
215 52
500 304
289 2
285 108
59 376
445 359
252 375
42 398
42 400
289 293
270 187
344 341
41 285
462 399
34 452
192 72
442 331
3973
5
