70
5
0 0 0 0 0
89 90 46 49 86
82 100 97 60 46
51 44 22 70 49
77 13 30 69 57
86 52 43 57 23
90 42 18 83 80
99 84 73 27 12
64 85 10 31 77
77 69 64 38 56
83 42 81 86 81
76 69 20 79 19
48 35 20 33 69
67 52 39 50 21
83 89 85 75 56
91 27 50 18 65
75 20 17 61 76
63 62 79 98 52
17 32 32 82 32
49 51 81 39 66
25 22 60 92 15
42 97 75 40 73
36 28 92 59 59
35 87 30 76 97
63 86 96 75 89
85 42 31 42 98
37 61 61 39 56
33 22 65 25 70
23 75 49 36 18
25 47 69 49 60
21 96 40 27 54
50 73 28 24 77
29 37 55 21 29
52 89 43 73 21
70 99 90 79 18
14 56 93 61 77
16 84 35 25 56
42 25 66 67 87
51 63 32 77 22
81 71 52 61 27
51 35 18 41 16
49 11 63 10 15
72 49 18 85 32
27 95 34 14 59
28 50 99 21 24
16 27 26 47 35
54 80 56 100 59
30 26 94 84 40
40 36 45 46 59
36 43 80 37 54
44 54 16 44 11
91 20 35 45 46
60 14 74 40 95
56 89 59 33 22
35 75 35 78 12
76 38 20 83 64
72 69 64 35 97
21 78 50 58 85
48 65 86 78 58
50 98 32 85 32
57 62 77 15 33
61 86 38 74 12
88 83 32 73 93
69 58 61 90 26
22 57 98 79 67
32 20 14 47 88
52 33 55 59 88
95 47 22 44 75
40 18 26 13 34
31 51 99 99 54
0.106298
0.221631
0.161691
0.478652
0.169864
0.114686
0.122724
0.221556
0.378744
0.417562
0.399978
0.470498
0.250857
0.165626
0.105349
0.185616
0.438765
0.398989
0.296338
0.12174
0.234658
0.443633
0.41498
0.138534
0.34483
0.354933
0.177145
0.1591
0.192599
0.429789
0.288748
0.238186
0.35489
0.391753
0.193495
0.33005
0.383776
0.211134
0.412907
0.199941
0.42384
0.281706
0.195895
0.36042
0.409245
0.472252
0.445913
0.37458
0.407379
0.286119
0.311638
0.384567
0.462827
0.3949
0.131685
0.487719
0.407082
0.416725
0.37127
0.373459
0.40519
0.283679
0.451722
0.46637
0.368861
0.30167
0.454988
0.10361
0.409248
0.468159
207 7
98 478
394 203
497 428
78 492
355 462
317 127
44 57
282 168
337 329
20 231
122 19
80 23
245 294
347 474
224 88
86 386
360 70
145 471
183 426
178 238
29 31
269 22
188 390
456 97
313 316
183 165
32 189
299 124
109 181
446 189
41 190
276 320
457 89
216 64
244 300
360 116
53 80
375 154
148 314
146 155
15 337
4 302
55 417
217 169
25 397
33 42
218 303
491 309
141 287
154 418
441 434
452 145
127 488
484 452
277 433
277 260
466 363
188 372
320 361
482 373
268 336
258 265
192 183
500 389
173 369
318 86
111 9
40 43
373 353
6200
3
