70
5
0 0 0 0 0
26 88 80 62 59
82 22 57 45 76
25 78 15 91 88
91 50 69 85 42
36 99 28 36 76
64 56 34 69 73
32 36 32 99 16
15 100 43 32 90
52 84 31 11 63
42 45 98 51 78
36 16 50 86 24
19 64 61 21 69
55 96 35 42 13
17 11 54 35 23
84 11 56 86 55
41 12 14 63 63
32 65 71 37 56
22 42 77 84 74
63 60 96 85 76
35 78 64 67 88
62 78 26 54 25
96 90 12 23 63
58 28 19 57 66
11 50 25 12 30
83 39 79 15 15
75 72 39 76 56
66 52 89 59 41
93 98 47 95 64
67 75 88 56 16
44 92 42 87 27
99 63 67 96 16
28 58 38 40 50
85 76 27 41 74
85 25 41 90 41
33 72 12 60 86
45 10 89 89 88
18 33 31 44 40
34 96 89 94 85
21 73 10 97 22
79 20 90 15 21
29 54 63 47 22
75 31 57 90 46
33 27 64 63 96
53 59 17 64 22
51 74 99 32 58
69 31 10 77 73
51 18 27 81 61
65 76 33 66 73
25 18 47 74 41
60 85 17 99 96
28 50 96 66 38
58 97 27 21 57
62 77 86 25 30
90 61 41 45 27
19 86 76 86 70
59 37 64 100 78
27 37 44 97 31
68 39 46 82 92
59 59 39 100 47
52 51 95 26 86
52 52 76 96 64
74 97 25 58 31
65 62 74 82 80
36 66 86 23 76
45 64 21 54 91
55 19 42 82 22
27 73 22 44 51
16 15 48 22 98
95 85 82 12 59
0.854485
0.33851
0.871928
0.379324
0.860543
0.21797
0.930871
0.610376
0.977386
0.362225
0.218535
0.849233
0.380507
0.931336
0.401014
0.23581
0.61809
0.911905
0.979712
0.881226
0.591682
0.558417
0.434515
0.683129
0.451095
0.396715
0.213131
0.781957
0.71256
0.200168
0.392232
0.312904
0.656641
0.275178
0.477831
0.534806
0.77403
0.285383
0.409039
0.468894
0.338218
0.870416
0.540884
0.308831
0.460503
0.836567
0.320722
0.398682
0.628692
0.825708
0.521373
0.56239
0.913649
0.268905
0.835259
0.510296
0.949113
0.357208
0.649299
0.75434
0.78961
0.553162
0.822758
0.404731
0.893197
0.319123
0.811148
0.844667
0.971918
0.62908
95 168
374 117
416 123
247 420
13 219
172 343
111 85
206 409
147 450
439 67
68 51
415 108
187 361
27 383
339 261
491 91
367 149
333 169
142 91
109 147
69 134
289 84
48 74
499 19
480 428
389 242
204 290
40 140
55 437
479 460
51 194
342 3
17 2
463 421
180 22
19 236
10 105
338 341
245 108
193 231
93 246
466 348
284 116
9 4
166 215
446 125
168 61
481 470
251 106
253 156
474 468
380 383
292 493
95 187
67 76
232 298
358 89
31 425
368 99
284 123
418 215
75 118
258 487
265 297
328 19
260 188
260 380
141 470
0 16
186 67
3811
5
