70
9
0 0 0 0 0 0 0 0 0
34 39 74 15 24 56 55 27 90
45 33 54 63 22 29 39 15 78
44 81 47 57 80 100 86 99 47
20 51 79 83 81 48 68 39 53
97 36 15 84 26 55 36 48 41
82 93 53 54 44 76 100 69 70
99 57 14 91 74 40 100 46 20
99 63 52 77 75 42 72 63 47
78 98 42 56 26 66 37 73 48
36 35 22 44 36 42 30 95 94
45 77 59 23 81 39 31 88 38
36 59 24 64 62 24 45 65 40
14 27 57 48 73 32 54 49 57
71 76 68 74 44 54 40 34 60
83 13 13 57 37 36 14 78 71
45 39 49 95 13 26 37 67 86
20 47 11 66 78 27 26 99 91
79 55 58 27 97 10 88 21 33
18 59 62 78 79 30 53 82 18
25 14 23 70 83 15 95 59 59
97 86 66 49 22 14 19 43 30
83 89 50 35 81 90 32 60 85
43 18 96 70 99 52 19 86 10
69 95 81 35 55 61 75 100 74
97 41 53 52 42 56 19 96 67
92 70 93 43 55 94 22 92 18
15 65 94 13 99 28 51 92 17
34 60 98 69 11 40 39 39 50
16 24 47 91 57 21 20 37 67
15 44 51 34 73 61 68 25 73
15 16 68 72 82 81 24 39 46
93 88 52 31 11 34 31 99 65
49 25 36 94 28 10 10 21 27
71 57 16 98 73 27 38 18 21
63 87 11 19 59 12 82 22 15
67 30 75 10 12 88 52 86 21
35 43 71 83 88 63 76 72 12
36 56 75 58 90 91 84 46 40
53 54 14 59 29 47 73 90 52
18 75 97 17 74 29 13 58 50
58 97 10 60 23 61 89 45 38
99 97 97 79 16 57 50 84 82
40 61 47 89 54 28 12 71 100
57 81 27 67 31 71 37 15 18
34 87 81 93 98 93 43 32 16
71 72 65 66 23 65 81 95 69
85 35 14 100 19 69 25 73 49
21 77 21 73 81 28 67 73 89
95 43 100 82 17 50 54 18 82
31 63 92 67 67 63 90 92 71
26 68 84 95 81 58 91 34 46
11 76 81 34 76 55 68 52 28
14 19 95 42 32 24 31 49 71
35 97 63 73 31 81 81 32 38
92 51 63 76 29 87 22 62 56
50 60 98 85 95 20 62 56 94
30 96 76 30 12 35 68 70 73
35 56 49 30 37 90 69 50 15
14 55 42 74 97 75 51 68 20
84 18 54 12 67 22 26 80 83
78 34 26 51 51 67 27 99 26
77 65 80 54 46 53 49 56 53
82 85 42 34 42 77 42 63 46
36 49 52 42 68 63 33 46 72
70 51 21 32 67 32 90 46 84
98 13 69 87 44 71 54 46 81
45 75 98 36 82 77 16 56 29
81 72 63 49 77 17 45 98 36
34 70 51 69 87 53 87 92 87
1.24906
1.04867
0.914351
0.382249
0.801249
1.4987
1.2657
0.760904
0.806649
1.39051
0.589375
1.20456
0.38985
0.878076
1.40442
1.43035
0.654412
1.12014
0.752328
0.760413
0.887264
1.17446
1.27257
0.449754
1.18358
0.433913
1.0215
1.15482
0.587868
1.37216
1.4435
0.941127
0.312659
1.04901
1.08627
0.72055
0.52126
0.783204
0.730534
1.2895
1.27516
1.00545
1.35061
1.46988
1.42283
0.739586
0.883701
1.29317
1.36244
0.825938
0.743209
0.530317
1.14676
0.685835
0.440859
0.766735
0.851433
0.51917
0.318463
0.358278
0.488064
1.0604
1.23921
0.410025
1.25043
0.343995
0.470445
1.22998
0.911252
0.421133
448 17
35 469
390 462
245 499
90 318
435 14
388 328
85 216
393 259
104 313
484 426
84 260
404 363
183 275
116 357
205 262
486 394
496 192
431 393
278 275
324 12
307 104
147 5
150 4
37 448
278 174
21 467
160 452
14 467
355 349
376 114
175 145
274 151
467 13
79 371
55 392
498 342
385 260
145 225
420 84
449 402
31 320
321 389
430 177
326 56
374 60
218 402
469 361
404 428
378 236
444 375
312 116
242 256
313 444
493 293
65 254
203 257
413 139
188 92
247 175
66 242
464 378
5 70
316 437
168 89
492 274
204 399
359 301
103 13
417 113
19045
1
