70
5
0 0 0 0 0
31 79 80 99 83
88 40 88 50 42
15 95 32 57 88
50 36 75 87 58
15 86 52 47 88
67 48 55 75 38
77 43 59 72 75
62 78 86 70 21
42 67 27 29 52
10 70 28 95 54
69 23 45 15 60
87 68 40 62 82
55 86 42 20 48
47 98 47 55 48
99 100 89 36 19
89 48 99 37 20
29 60 28 36 65
65 80 29 78 100
26 82 32 88 52
97 51 66 11 99
28 52 21 18 28
27 36 100 17 25
22 81 48 26 74
53 85 12 19 52
44 17 32 75 39
77 41 16 61 88
40 23 69 66 26
39 94 12 50 90
99 99 54 34 16
36 74 41 39 58
40 99 23 35 11
84 64 47 61 40
17 89 80 32 16
96 92 77 71 24
98 65 35 75 60
65 42 90 61 74
45 68 38 14 93
65 65 73 71 54
82 72 25 39 38
35 57 93 82 82
53 96 51 32 71
99 85 49 41 97
33 52 25 37 86
27 38 60 20 87
100 45 81 27 15
20 71 25 98 64
65 84 69 37 15
57 34 63 17 35
87 33 89 59 58
27 91 32 42 71
75 69 32 12 75
12 16 93 32 55
72 75 64 40 84
34 82 72 90 23
63 82 32 36 79
76 60 90 65 41
90 58 78 20 47
76 64 97 29 39
89 79 85 78 52
33 74 36 25 86
55 94 15 89 80
60 49 95 85 80
56 57 20 49 13
66 72 68 65 84
94 32 88 58 23
24 60 84 26 35
37 27 66 45 40
64 22 97 53 40
86 39 78 24 63
0.57176
0.718884
0.247717
0.689494
0.756734
0.732385
0.853964
0.504341
0.558677
0.532602
0.694747
0.500025
0.617196
0.843309
0.834683
0.985047
0.68667
0.816665
0.514374
0.60805
0.8257
0.607984
0.464784
0.471228
0.475257
0.855067
0.532726
0.384987
0.597873
0.78347
0.748686
0.994289
0.255257
0.722396
0.553312
0.6288
0.963051
0.907857
0.868008
0.316653
0.246067
0.537622
0.329271
0.585174
0.949674
0.995201
0.264931
0.602392
0.202636
0.542214
0.62785
0.248854
0.64839
0.259782
0.43963
0.758303
0.56948
0.973994
0.901174
0.388489
0.481461
0.511953
0.623568
0.860851
0.608563
0.363127
0.790523
0.474891
0.399268
0.777371
329 215
489 436
405 165
209 249
107 128
350 400
458 487
164 279
93 282
336 305
59 255
406 131
480 116
256 482
452 201
11 102
223 473
177 320
457 11
69 27
369 139
270 361
300 465
224 100
420 235
267 16
256 397
395 155
335 334
394 223
467 25
150 218
134 291
394 410
359 178
232 198
188 455
11 255
263 122
7 107
225 79
107 367
293 41
180 372
193 112
416 428
180 315
317 359
380 453
224 379
175 62
495 480
296 74
171 349
144 79
368 452
301 244
434 147
281 412
378 173
433 328
229 0
341 99
487 234
348 102
413 115
425 65
75 497
71 347
391 26
19465
1
