70
11
0 0 0 0 0 0 0 0 0 0 0
87 100 71 19 70 16 91 20 21 16 84
10 16 63 97 100 93 83 16 40 80 70
41 58 64 82 28 88 15 96 34 92 33
86 60 55 24 93 81 42 96 95 31 32
17 21 57 74 16 35 81 100 70 63 96
67 68 84 49 97 69 63 65 31 80 39
55 68 37 36 75 22 87 55 69 12 25
92 91 14 64 86 14 34 67 64 86 59
59 92 15 46 23 42 67 32 46 32 93
10 55 38 12 28 84 10 24 52 60 11
55 24 52 63 60 76 13 10 21 55 44
52 70 67 73 44 81 77 11 25 88 39
59 61 73 12 67 85 89 95 12 97 82
40 83 56 36 80 45 31 60 16 60 82
55 100 50 92 93 19 16 14 75 32 59
56 44 42 36 15 62 26 97 72 53 20
18 85 97 75 27 56 39 36 99 47 97
71 16 69 45 82 44 55 65 69 18 27
38 96 70 48 85 13 20 80 39 15 52
49 16 61 95 97 93 63 66 12 83 58
37 97 99 99 83 87 39 32 53 69 26
95 63 100 52 37 39 41 91 50 53 88
39 33 24 85 99 14 43 97 15 25 53
38 99 20 96 52 27 85 83 52 44 29
51 22 60 32 24 100 51 52 93 13 50
59 23 75 95 30 63 46 28 10 83 42
31 48 38 14 58 36 43 63 58 31 92
34 42 71 54 51 27 42 21 67 12 64
67 51 37 79 41 53 43 94 67 92 75
89 96 95 20 21 28 88 60 45 65 71
50 24 62 75 55 67 20 95 55 56 99
30 46 57 15 51 60 72 48 89 84 48
62 80 46 81 42 48 13 52 47 56 82
10 36 99 23 68 70 97 33 99 95 63
92 46 83 91 84 16 10 40 96 39 63
38 96 58 52 69 43 73 80 23 28 66
67 93 39 16 88 67 53 45 54 40 54
53 95 18 82 49 62 37 34 82 90 67
55 25 13 58 64 96 16 31 50 84 75
15 81 34 59 11 19 41 82 37 38 99
68 30 87 79 26 54 62 38 60 36 44
74 92 90 67 54 84 79 95 26 25 44
44 23 16 25 50 88 37 70 35 61 32
17 51 19 92 62 90 51 36 22 86 54
91 94 46 56 79 56 24 75 86 27 25
54 41 26 59 74 23 12 99 17 31 20
40 31 95 28 13 33 31 26 31 92 90
32 26 29 21 83 47 92 33 13 98 63
85 26 12 51 75 33 26 91 85 99 51
18 92 13 71 98 75 23 60 67 82 43
73 93 42 17 78 13 46 67 47 33 78
19 98 35 32 50 38 44 44 77 24 98
98 100 12 87 31 71 31 27 20 20 75
22 60 36 34 90 51 52 19 47 42 39
56 80 89 15 50 77 30 42 20 76 84
61 46 27 92 36 45 63 21 17 16 43
20 59 43 75 82 57 14 32 63 69 89
79 56 91 21 21 94 36 59 22 73 24
82 54 36 92 100 16 60 71 30 38 81
67 28 15 46 87 24 87 35 41 59 16
14 81 47 22 100 95 50 47 96 25 24
64 14 11 50 37 51 45 80 64 52 59
11 32 41 66 30 17 89 60 64 39 49
21 72 54 19 67 96 59 79 28 64 14
41 72 78 47 36 51 13 70 48 50 32
63 17 67 70 11 29 50 61 16 80 96
85 11 91 18 25 44 28 95 76 32 48
16 60 96 86 91 28 77 88 83 48 69
80 33 67 81 93 65 89 17 49 43 12
0.423036
0.123628
0.311901
0.327489
0.181736
0.302655
0.20771
0.295155
0.361254
0.349025
0.491617
0.401666
0.387666
0.100949
0.29301
0.493984
0.456621
0.196852
0.124658
0.467675
0.22957
0.266965
0.332632
0.490475
0.438204
0.163265
0.272721
0.135315
0.430766
0.146031
0.476286
0.430437
0.395674
0.27544
0.265403
0.428745
0.49606
0.101691
0.283636
0.14963
0.331517
0.383463
0.17168
0.19371
0.13479
0.363926
0.409558
0.31166
0.175448
0.175977
0.150231
0.34169
0.491386
0.315225
0.393183
0.190718
0.226991
0.317843
0.255164
0.113585
0.364047
0.268156
0.267461
0.301456
0.305615
0.46925
0.404041
0.376454
0.303151
0.362696
188 68
290 234
132 337
97 229
179 237
192 459
431 496
86 489
284 456
29 136
226 219
189 307
320 477
424 398
339 35
484 359
71 444
323 349
229 298
74 362
493 96
149 486
237 40
62 352
341 57
51 469
163 484
463 139
440 283
336 376
333 397
121 319
88 386
494 366
481 324
490 208
115 157
129 455
413 233
217 153
345 194
182 481
343 478
159 129
491 345
146 411
291 367
35 131
373 420
297 261
396 379
388 392
123 159
204 9
36 167
214 318
190 42
71 251
129 2
194 177
124 328
128 20
79 395
114 44
19 231
16 14
386 365
129 52
410 199
438 427
9330
2
