70
5
0 0 0 0 0
62 57 54 33 67
48 39 78 42 54
16 61 50 13 17
15 86 84 79 95
11 75 31 54 55
75 71 80 93 14
17 80 32 38 67
54 87 56 49 26
82 39 31 38 74
83 71 20 99 43
14 73 30 28 79
97 17 14 25 34
31 85 50 59 62
52 88 23 14 18
33 18 73 17 64
38 60 95 69 87
51 35 67 46 50
16 76 27 66 43
44 87 82 59 76
46 24 33 97 66
20 12 14 51 61
76 76 24 95 64
48 62 35 73 57
40 84 58 43 44
99 47 66 79 84
36 80 48 41 62
78 28 21 48 21
39 75 70 70 99
29 24 80 50 29
30 88 67 13 96
26 18 77 61 47
99 26 67 71 66
90 17 78 45 57
75 87 57 34 66
54 68 94 61 22
11 38 33 56 97
18 99 71 47 58
99 14 29 85 50
29 13 86 47 83
10 56 61 25 54
74 23 74 84 62
49 86 77 63 60
88 100 67 56 52
92 51 72 95 28
67 60 90 16 34
85 72 34 43 41
95 36 17 11 52
69 43 58 31 29
89 18 100 13 92
52 20 23 38 16
54 53 53 23 26
42 14 73 63 76
43 18 65 67 53
44 84 19 13 41
53 69 95 18 18
88 58 51 50 13
100 96 86 84 55
18 61 78 95 28
53 39 53 83 52
64 23 21 63 22
56 68 46 15 69
72 88 32 80 55
60 18 37 47 49
61 82 16 45 51
44 73 17 73 100
71 60 52 84 74
54 81 35 24 84
65 20 32 31 33
40 41 25 26 46
1.10012
0.449822
0.321597
1.16436
0.815626
0.564139
1.44265
0.427106
1.30344
0.982236
1.20944
0.873119
0.669599
0.702964
1.36269
0.998361
1.03365
0.384978
1.47571
1.01922
1.39619
1.27063
0.858485
1.21963
0.878448
1.09932
1.37932
1.43835
0.462932
0.462508
1.23302
1.45367
0.865918
1.36995
1.04945
0.388189
0.595585
0.71711
0.873639
1.43985
1.44191
0.76281
0.365893
0.937596
1.46469
0.794834
1.14218
0.911321
0.831502
0.399861
1.31151
0.628221
1.21605
1.09067
1.33929
1.17653
1.19498
0.338807
1.02149
1.46274
1.27826
1.06785
0.39026
1.34613
1.03851
0.862834
0.618832
0.895822
0.583807
1.4107
443 205
244 391
106 243
145 105
206 284
135 84
33 330
435 434
405 481
333 378
242 266
469 377
307 276
383 491
429 113
61 265
92 278
367 241
330 494
169 427
296 326
35 260
389 360
73 398
382 472
414 397
180 302
462 293
71 5
433 121
465 239
40 11
247 445
363 309
42 296
411 494
465 396
200 12
153 353
174 461
425 280
58 177
251 411
53 457
471 173
24 119
67 229
405 283
465 497
3 336
411 197
259 314
465 315
6 339
124 244
227 208
197 366
136 338
372 213
436 129
333 121
393 19
123 359
322 261
432 472
135 129
377 32
185 447
217 75
335 387
9217.5
2
