70
7
0 0 0 0 0 0 0
22 14 19 41 83 23 67
63 67 74 29 100 29 99
38 83 29 64 74 42 23
72 80 61 63 88 85 34
71 84 91 97 33 81 52
75 17 14 99 12 57 32
42 88 59 36 10 21 91
31 89 57 56 45 65 75
42 15 95 10 72 36 87
98 51 41 80 88 11 19
89 62 33 60 10 38 55
70 78 87 17 47 94 54
75 17 28 58 82 14 52
10 74 64 87 14 44 32
40 53 67 52 87 90 47
100 25 38 81 39 19 54
78 51 60 55 53 70 39
78 84 94 64 52 51 40
38 11 42 11 93 87 44
72 85 60 69 62 42 71
29 18 62 73 10 68 23
68 39 80 13 71 47 41
20 45 19 64 87 74 37
21 43 13 65 39 31 92
89 20 80 63 58 10 25
98 58 40 31 84 67 100
38 33 58 60 85 54 57
44 76 58 42 57 49 48
18 77 59 10 73 65 30
32 56 90 23 23 10 56
64 81 23 73 89 79 61
97 62 85 77 76 41 25
13 30 62 92 48 38 99
29 58 68 53 68 43 27
76 92 96 39 20 56 54
34 14 29 61 86 13 66
91 38 39 73 54 52 12
93 17 92 56 18 79 14
16 97 45 87 47 42 81
42 49 80 46 43 38 16
33 43 68 97 34 61 25
72 38 68 71 71 92 98
96 67 19 82 73 77 32
27 17 68 92 53 31 67
30 77 58 60 29 24 25
64 37 33 22 50 84 35
97 34 12 46 10 48 51
44 98 66 43 65 48 87
49 73 63 63 55 93 41
72 13 16 61 90 31 58
67 73 86 68 44 41 11
20 77 99 51 27 95 94
75 55 81 75 82 90 53
32 44 90 16 97 93 39
97 66 24 23 24 58 14
56 23 88 75 42 16 48
58 19 82 38 81 74 58
59 34 34 22 37 38 61
46 85 55 89 28 68 14
89 77 25 15 30 39 24
33 63 21 65 33 82 76
23 28 26 25 57 89 24
66 18 44 40 88 83 83
33 16 32 55 97 87 91
93 50 77 42 100 15 97
79 55 11 55 58 10 50
50 64 26 19 19 65 73
29 33 57 54 24 88 50
24 69 62 29 49 35 50
1.32863
0.4995
1.24852
1.97368
1.46812
1.92196
1.47373
0.687427
1.00254
0.962266
1.97633
0.844661
1.06738
1.42681
1.697
1.70254
1.70267
1.65204
1.82284
1.66402
0.858298
1.23426
1.89719
0.551908
1.90849
1.63798
1.64269
1.95241
1.0015
0.86901
1.7718
0.988126
1.22717
1.88311
0.434953
0.687581
0.604665
0.648722
1.95677
0.423178
0.714056
0.508485
0.890644
0.667948
1.76356
0.779913
1.40671
0.873753
1.78244
0.608662
0.720697
1.99765
1.49952
0.608825
0.628106
1.45349
0.564305
1.60109
0.596901
0.447223
1.18557
1.58121
1.65394
1.69874
0.966564
1.07243
1.31887
1.94067
0.573468
0.702637
431 183
498 110
476 158
339 456
303 115
323 348
312 122
360 176
92 462
457 87
136 416
165 198
243 13
56 417
50 47
464 260
422 262
76 321
212 314
408 268
412 382
252 0
420 278
48 397
70 333
347 330
266 126
16 340
471 27
50 470
36 131
443 155
481 65
195 196
461 459
87 342
241 381
37 478
426 343
196 436
287 243
317 68
269 198
172 285
186 384
132 304
341 193
445 228
4 337
246 317
193 330
224 371
31 396
241 226
44 43
84 486
457 255
345 200
231 117
413 170
19 465
474 46
396 221
7 325
200 453
102 488
336 285
307 364
68 31
123 146
9287.5
2
