70
7
0 0 0 0 0 0 0
37 88 20 83 77 33 49
27 79 38 86 45 73 49
56 11 16 51 15 23 78
57 78 85 85 19 77 39
92 22 17 57 59 95 95
40 72 45 27 55 19 69
42 65 72 35 48 53 31
95 22 58 96 50 47 48
27 90 83 22 13 90 31
72 79 13 24 40 84 96
73 76 52 48 44 55 100
35 72 68 96 42 15 94
18 90 57 65 68 80 56
39 12 35 56 51 20 68
57 83 54 41 46 47 11
73 95 16 60 84 49 90
91 45 99 33 38 90 65
33 18 26 92 45 24 10
36 99 37 32 47 46 18
10 65 35 71 73 72 55
40 100 95 75 94 16 66
44 22 45 32 88 96 45
29 88 50 44 56 95 93
98 58 18 28 84 88 39
64 47 66 36 15 25 52
60 28 16 27 95 91 92
23 75 42 24 15 32 44
29 48 87 27 17 74 47
84 66 61 43 76 85 56
14 94 72 46 73 79 25
65 95 95 30 21 72 51
36 23 48 45 43 44 53
55 98 70 58 49 42 100
90 49 96 57 24 43 28
40 41 75 95 51 10 95
90 73 36 80 82 58 38
78 71 85 59 49 25 31
83 98 71 45 83 15 95
86 36 94 52 82 38 18
96 81 72 12 95 72 99
85 96 80 92 12 37 13
92 61 73 79 26 25 57
77 28 51 73 39 67 97
44 94 55 22 70 32 44
29 46 16 52 18 15 22
25 55 52 16 16 31 42
31 56 26 18 46 47 10
83 19 85 41 79 74 85
78 51 62 35 77 86 30
92 51 37 83 24 32 96
37 54 66 82 12 98 43
41 82 86 69 64 15 10
71 18 31 84 65 49 54
77 25 92 88 88 55 94
27 85 50 39 92 83 49
88 30 73 53 59 92 64
26 59 12 83 63 62 14
66 27 93 78 45 30 84
71 27 26 36 21 33 22
36 54 35 18 63 74 74
73 75 87 95 64 92 40
43 24 67 44 52 48 33
46 75 33 56 42 68 88
52 49 86 58 34 70 44
49 16 53 97 90 33 100
19 29 39 70 54 58 10
60 46 54 79 78 34 76
76 91 67 90 85 71 61
43 53 87 55 36 34 78
0.362591
1.4436
1.35966
0.313943
1.19758
0.636434
1.45781
0.920879
1.16166
1.1062
0.349377
0.993124
1.25769
0.49334
1.14912
1.25263
0.994572
0.63895
1.40445
0.768654
0.445268
1.41629
0.911064
0.314982
0.485067
0.351169
0.880452
0.541055
0.305735
0.846704
0.428657
1.02933
0.782932
0.949946
1.41348
1.12962
0.31588
1.23512
1.29312
1.29323
1.24497
0.896171
1.05619
0.965459
1.14684
1.41577
0.589074
1.48005
0.674627
0.745389
1.21524
0.712753
1.04372
1.28393
0.967852
0.997344
0.648298
0.724793
1.40622
1.1661
0.751576
0.813641
0.999862
1.48796
0.773452
0.306042
1.49124
0.7604
1.40433
0.33978
321 365
320 188
210 451
41 465
325 255
105 367
442 148
3 46
235 212
447 77
83 77
217 19
130 215
368 464
256 229
402 9
254 376
318 402
207 250
408 424
81 238
425 147
373 32
52 153
86 343
19 406
166 494
374 314
312 485
476 354
491 325
352 88
373 442
9 433
313 268
294 326
342 77
32 413
220 161
397 279
192 375
338 272
127 339
304 217
376 285
57 76
375 41
175 99
135 55
444 396
144 189
377 217
400 493
486 113
104 302
353 357
455 23
306 250
35 7
231 284
185 472
126 284
259 233
228 276
463 23
52 426
417 294
486 204
14 476
201 95
4801.25
4
