70
11
0 0 0 0 0 0 0 0 0 0 0
96 69 96 32 19 24 14 22 34 84 35
39 56 31 96 47 97 67 93 15 79 81
28 24 13 94 59 99 99 52 84 89 79
38 14 29 71 29 34 58 30 92 75 39
56 93 25 98 30 73 46 14 33 80 56
69 87 69 46 52 19 85 25 53 76 26
85 49 66 41 64 100 48 11 60 66 83
24 38 78 82 22 45 61 80 87 14 58
95 38 57 20 35 86 92 43 38 73 48
10 85 75 39 81 96 67 15 83 52 91
65 71 48 76 98 19 15 14 47 91 13
80 83 53 55 61 18 14 61 73 59 32
30 62 18 17 68 60 34 96 14 52 71
19 57 28 68 11 27 27 49 94 97 67
69 86 50 81 99 43 93 46 52 75 54
97 79 43 73 31 35 86 32 33 14 70
94 46 34 15 32 15 60 58 43 31 49
62 62 16 61 79 96 11 39 21 54 21
33 78 45 81 32 76 85 93 51 78 20
46 58 39 32 38 56 13 58 99 68 11
72 12 80 92 39 67 98 16 58 68 50
23 20 31 85 86 93 90 77 23 48 57
89 36 60 14 45 46 57 17 17 57 48
70 98 84 58 42 84 55 91 11 78 93
100 77 29 70 79 46 97 17 59 18 100
70 80 74 49 97 98 89 34 50 83 68
92 10 63 94 63 44 24 36 19 33 98
69 11 23 42 12 30 82 27 15 99 66
25 67 13 97 54 83 65 11 91 43 35
72 76 87 41 53 67 35 81 37 15 77
26 92 24 66 81 43 89 77 100 26 41
13 10 37 74 13 40 67 91 42 68 77
28 82 84 62 96 28 98 71 87 61 79
81 55 99 15 10 48 39 69 14 88 32
51 91 13 77 63 43 34 75 58 54 54
47 88 14 81 11 69 71 15 50 41 40
30 56 58 93 92 98 87 38 26 18 60
50 69 39 17 20 31 85 69 99 50 29
29 99 48 36 11 69 99 46 83 72 21
35 81 71 26 81 17 78 77 48 56 35
20 15 77 87 88 39 42 42 32 59 60
33 48 49 33 44 57 39 61 87 30 48
24 68 50 25 13 77 31 68 63 21 17
22 92 19 69 36 99 29 84 16 87 74
79 50 35 41 45 18 99 97 28 62 58
25 82 79 76 28 16 45 86 47 58 46
48 37 26 91 51 81 67 97 10 35 25
24 100 13 87 82 60 18 78 25 16 85
83 13 75 87 91 74 98 31 54 39 17
81 27 28 95 16 44 67 88 83 81 34
68 56 75 45 32 55 27 97 30 87 73
95 70 73 82 28 33 83 25 34 19 40
46 27 15 47 30 66 31 88 97 38 20
88 93 56 81 17 99 80 45 100 37 30
66 89 100 60 85 63 13 32 75 84 41
77 99 31 66 81 58 98 95 75 68 16
49 81 80 45 42 47 63 61 90 48 19
24 20 80 42 82 100 60 60 98 62 47
28 93 49 29 24 49 23 73 27 64 35
13 48 73 58 56 59 100 97 56 94 69
70 68 22 40 68 77 88 31 64 35 35
58 83 62 94 57 23 33 31 81 15 48
90 74 21 35 66 68 11 77 88 49 91
92 56 22 93 89 44 67 48 49 47 35
13 59 74 44 60 68 24 47 61 69 98
28 87 79 77 12 70 64 74 81 61 22
29 39 15 78 74 21 50 41 57 31 39
91 46 30 78 17 23 23 69 45 76 59
55 88 62 49 87 67 86 78 81 77 14
0.651364
1.22161
1.24207
0.852925
0.330332
0.582715
1.17148
0.764935
0.432634
0.379754
0.851786
0.588207
1.33981
1.47831
0.391234
0.547612
0.356063
0.981926
0.711282
0.679312
1.03627
1.39358
0.979481
0.660892
0.812937
0.776601
1.25998
0.680139
0.493032
1.16422
0.574893
0.867266
1.05685
0.550081
0.823087
0.439044
0.428501
1.1209
0.836863
1.20957
0.417041
0.43999
1.48066
0.702991
1.06518
1.25091
0.988721
0.95223
0.859506
0.355907
1.19454
0.446854
0.974625
0.889143
1.46821
0.628486
0.54276
1.32895
0.407482
0.919313
1.43575
0.728327
1.38036
0.685433
0.720171
1.49402
1.21428
1.24302
1.28204
0.889124
153 389
91 349
66 446
339 382
55 175
490 38
467 98
258 81
218 38
338 308
105 333
465 153
343 280
364 223
10 390
335 152
48 24
81 132
25 48
233 362
499 216
291 408
239 264
368 198
7 254
492 146
263 147
335 6
64 46
231 345
289 32
0 439
190 370
235 230
185 367
373 414
204 290
108 156
174 298
388 112
79 368
417 88
474 452
246 303
306 448
114 67
278 26
201 249
493 324
457 472
274 421
33 438
42 389
64 30
347 235
474 87
175 361
327 439
440 342
240 275
377 127
254 172
316 174
68 311
246 273
229 345
401 53
373 219
372 487
352 132
6393.33
3
