70
7
0 0 0 0 0 0 0
91 47 36 30 34 19 87
13 67 23 62 55 43 74
89 42 12 48 25 46 17
58 44 57 91 30 71 54
90 47 14 21 49 95 15
63 88 95 79 71 18 68
94 50 67 53 54 83 94
29 61 95 58 37 47 100
96 91 96 50 49 97 68
77 82 96 29 57 63 12
58 21 37 85 59 86 99
90 29 92 100 68 11 95
19 76 75 83 66 37 28
28 60 63 59 28 76 94
83 89 17 27 32 34 40
47 81 25 31 78 36 58
95 20 18 39 38 70 36
85 40 62 56 86 21 61
74 68 33 87 49 86 21
49 71 49 65 29 68 12
51 91 69 73 48 21 92
57 98 43 80 16 40 34
22 77 22 87 56 16 79
99 14 96 79 14 40 70
68 54 92 80 18 44 24
73 76 17 88 64 71 76
24 73 42 23 98 56 52
48 71 43 42 31 31 93
100 39 15 38 21 53 55
51 39 16 11 84 67 32
92 50 25 64 54 16 16
32 75 57 80 36 59 98
77 92 30 69 69 36 78
19 88 27 63 56 97 79
99 44 93 40 38 80 96
20 57 16 32 58 86 95
62 56 29 65 71 97 21
38 96 24 34 94 73 18
86 15 19 30 94 54 28
15 20 21 22 55 20 19
24 84 53 88 42 67 56
54 31 24 52 63 21 61
63 95 54 88 83 38 53
58 29 69 59 55 21 45
33 70 81 94 32 49 95
27 47 16 45 98 82 47
60 34 19 83 67 35 56
80 84 34 100 97 66 32
44 23 15 23 43 83 85
66 22 63 15 100 43 64
74 84 87 56 51 93 68
80 29 98 73 99 11 10
21 53 96 81 43 36 23
26 99 41 58 19 50 68
11 16 25 94 30 25 65
97 81 33 56 45 27 67
55 65 50 41 72 31 41
17 87 74 48 99 92 34
85 92 41 71 57 18 35
72 24 47 11 73 69 55
52 51 80 67 19 32 90
59 71 62 34 56 90 10
65 99 15 53 53 67 17
23 70 16 12 68 68 56
93 73 15 24 47 26 73
20 20 99 42 11 43 51
21 19 66 34 61 69 30
84 91 91 64 94 32 93
98 42 58 12 77 75 26
0.938984
0.41246
0.99263
0.324337
0.39417
0.620473
0.839491
0.413065
0.382545
0.675226
0.357731
0.818972
0.261297
0.36038
0.553598
0.88314
0.812025
0.955795
0.834867
0.761175
0.861297
0.353594
0.767446
0.292812
0.216438
0.513807
0.44219
0.276356
0.44042
0.786462
0.476346
0.591513
0.909956
0.88553
0.311455
0.534109
0.275956
0.297573
0.917595
0.535184
0.845161
0.212661
0.709169
0.446417
0.895244
0.826988
0.395527
0.867275
0.797044
0.721105
0.589644
0.512422
0.770302
0.308848
0.720715
0.699389
0.669083
0.600113
0.473316
0.966036
0.975981
0.383304
0.481228
0.441844
0.699323
0.947492
0.321945
0.679578
0.560974
0.471931
375 370
134 440
34 494
448 408
316 140
310 295
327 117
387 35
445 54
292 159
104 46
105 342
253 358
363 414
450 430
180 264
268 362
368 488
117 290
466 434
183 44
457 205
144 156
231 76
79 485
421 358
294 402
157 339
41 369
354 138
115 9
190 83
36 49
379 245
200 49
468 218
384 455
243 350
102 141
165 187
2 410
115 403
118 98
7 90
67 30
74 101
265 315
41 406
246 290
169 45
183 152
385 325
423 310
188 318
277 482
132 28
41 149
341 379
243 206
383 265
146 73
385 100
148 198
131 221
326 118
474 229
399 130
206 222
412 464
236 253
9485
2
