70
7
0 0 0 0 0 0 0
19 76 43 87 50 97 24
78 31 99 33 95 93 40
87 91 66 56 87 26 89
77 81 24 63 54 55 79
39 17 89 91 29 85 56
29 16 30 33 15 44 31
95 54 18 80 21 40 92
73 36 91 70 60 90 14
95 51 62 75 78 56 27
41 52 30 13 32 55 30
58 90 39 20 66 63 51
42 66 61 30 62 80 64
14 48 23 47 33 13 42
58 37 39 55 66 84 72
79 11 81 64 34 97 97
95 94 52 88 29 37 84
34 14 29 18 21 53 67
49 61 86 87 23 63 12
19 50 47 90 63 35 28
33 76 44 26 94 47 72
65 34 85 19 41 50 94
66 78 34 18 95 15 49
39 73 52 32 63 68 81
25 99 59 83 95 65 56
13 91 71 97 39 83 63
56 19 57 66 61 47 59
78 65 10 41 56 50 70
48 73 90 25 79 24 100
96 87 78 10 86 16 12
97 54 83 76 97 84 60
60 70 76 61 72 73 60
20 11 48 76 83 68 19
53 88 51 89 10 91 54
46 93 77 15 61 35 44
64 84 54 30 52 19 62
95 86 52 54 13 38 66
79 47 74 64 62 30 67
17 12 84 78 91 99 25
56 25 79 10 68 82 96
72 28 54 61 63 23 62
86 66 55 74 51 86 65
93 52 74 58 63 41 83
88 46 60 84 29 92 11
78 46 99 95 100 83 93
79 60 45 93 57 89 29
27 42 32 97 53 28 99
38 85 40 61 14 15 53
30 82 100 63 58 15 31
55 86 99 49 82 60 74
83 42 96 45 58 53 83
85 83 50 32 68 99 96
18 80 34 70 75 17 85
91 34 56 83 62 99 73
11 27 79 35 61 64 12
77 65 99 52 23 29 29
87 87 46 53 72 46 35
53 88 100 60 66 32 59
94 99 12 88 73 54 58
45 10 53 65 11 14 33
63 100 74 29 54 94 16
78 87 30 82 61 55 31
25 29 79 20 64 69 48
74 19 65 49 100 28 88
98 84 44 30 95 79 53
13 48 10 75 53 70 12
48 40 88 26 97 57 37
14 79 18 54 21 86 49
88 85 70 88 53 55 69
66 10 30 96 36 27 40
0.46854
0.656166
0.72413
0.547011
0.722516
0.285439
0.532447
0.517139
0.387208
0.231404
0.914628
0.830587
0.966237
0.916044
0.341434
0.824171
0.824044
0.490064
0.789847
0.213723
0.272786
0.494091
0.566104
0.78921
0.674816
0.789427
0.621395
0.617541
0.528274
0.99288
0.257551
0.36691
0.399989
0.445093
0.600983
0.930832
0.690741
0.887336
0.942789
0.615099
0.606566
0.564545
0.879436
0.413617
0.597339
0.602651
0.652905
0.637506
0.778308
0.30143
0.636798
0.54313
0.395299
0.251712
0.351953
0.742566
0.487889
0.22983
0.382934
0.234987
0.549914
0.358517
0.549364
0.549504
0.254731
0.635565
0.466638
0.277715
0.443908
0.778969
271 301
326 486
11 497
236 192
368 268
266 154
473 368
381 447
46 345
107 41
281 488
118 63
245 142
317 105
276 493
390 206
444 259
439 91
342 347
203 298
468 184
49 165
411 261
24 226
363 393
483 82
156 192
46 206
260 380
358 131
207 16
288 419
265 22
245 284
85 337
244 248
12 262
424 144
51 373
383 250
242 193
466 491
139 281
113 220
304 438
52 345
290 175
109 220
222 181
500 262
201 7
93 474
276 153
150 452
78 65
463 261
1 342
139 395
163 444
19 235
451 75
486 106
290 425
263 364
94 294
258 381
294 66
380 324
210 489
91 424
4963.75
4
