70
5
0 0 0 0 0
86 67 54 11 66
70 67 25 64 17
90 40 75 18 28
63 24 55 32 93
65 38 63 34 37
21 54 37 100 81
87 64 11 68 32
86 65 91 13 62
63 99 75 83 100
14 41 31 28 84
75 57 68 12 39
28 12 45 14 52
47 79 55 38 85
43 74 26 60 39
30 96 38 23 55
28 51 97 97 86
48 28 21 13 24
17 70 27 57 49
20 34 75 33 85
52 23 75 30 30
43 69 38 44 20
62 76 76 73 97
83 69 53 56 82
12 70 76 35 13
51 23 30 20 76
35 98 25 50 84
27 78 100 52 36
66 60 91 34 32
64 36 45 84 26
28 88 39 39 52
90 37 30 59 58
61 63 78 38 56
60 45 50 68 61
35 18 35 83 39
59 34 91 100 54
12 96 73 95 94
69 28 34 55 11
35 72 98 41 35
28 75 21 76 51
31 76 80 37 91
15 80 43 40 33
83 14 65 86 39
52 75 63 31 83
37 70 20 22 69
49 72 36 44 40
21 38 16 77 38
40 70 32 68 47
46 49 21 14 95
73 40 52 23 100
59 52 66 37 69
73 40 82 59 69
75 97 24 23 82
90 76 25 88 73
99 43 100 48 72
33 90 73 18 45
70 32 31 18 98
14 36 75 22 91
40 15 60 11 76
56 65 25 27 92
26 18 54 97 20
53 22 85 17 36
84 68 76 22 20
78 21 79 31 44
83 76 50 39 22
17 16 57 95 58
35 94 14 64 54
17 92 31 53 67
36 35 89 66 43
45 25 37 24 24
0.30133
0.435039
0.530388
0.881817
0.927438
1.21804
1.21437
0.304695
1.14231
0.956613
0.868395
0.497797
1.44599
1.2504
0.747062
1.27043
0.821745
0.755435
0.777192
0.306929
0.377674
1.26919
0.427612
1.09896
1.12289
1.48919
0.875485
0.637542
0.43941
0.683127
0.914237
0.503091
1.33197
1.29465
0.41969
1.48714
0.384102
1.11714
0.615304
1.29711
0.530531
0.835884
1.29815
0.853869
0.382974
1.20255
1.31774
0.882995
0.393153
1.34791
0.81343
0.53463
0.614119
0.478667
1.39566
1.03706
0.80616
0.837189
0.427519
0.510503
1.27777
1.19852
0.593315
1.26168
1.1501
1.02195
0.788821
0.412924
0.501737
1.39122
206 373
235 98
232 399
195 303
109 436
276 136
21 389
117 382
299 165
378 351
372 269
152 382
399 214
279 292
47 23
333 421
94 476
402 54
203 375
96 75
260 327
247 470
262 344
265 58
118 469
52 157
458 329
89 68
235 325
35 61
135 232
214 203
23 460
480 8
400 419
191 91
339 196
126 385
460 86
321 357
62 342
412 365
165 427
271 318
65 207
43 224
133 210
322 53
394 313
442 36
329 332
345 458
274 453
421 78
443 342
220 466
454 451
425 90
120 344
233 66
76 69
15 13
129 63
323 157
106 347
73 226
64 195
434 474
230 262
228 83
4531.25
4
