70
3
0 0 0
65 95 20
67 59 76
46 80 81
55 31 60
69 87 50
27 58 29
37 17 76
51 38 62
49 37 95
74 91 92
39 70 96
13 85 81
57 81 13
16 91 60
41 56 84
40 49 40
81 49 57
74 68 59
34 95 53
80 72 66
82 95 82
67 98 91
11 70 27
73 61 30
31 34 31
34 92 74
46 61 26
24 50 13
89 10 61
13 75 76
80 27 42
34 30 24
48 85 37
42 41 31
15 75 57
73 29 79
82 96 47
52 21 19
71 99 81
68 18 59
19 26 41
69 90 43
70 68 73
65 53 64
99 54 64
100 66 27
71 30 95
34 36 45
96 55 22
66 30 33
31 95 78
17 79 39
74 10 59
89 88 51
53 67 73
42 89 38
98 75 39
25 52 55
78 25 12
66 77 61
75 60 45
94 23 38
56 91 69
47 13 37
27 29 42
38 54 37
95 17 90
19 18 26
60 20 18
0.936112
0.515457
0.40165
0.704531
0.563292
0.6466
0.400678
0.377326
0.84565
0.44234
0.874965
0.684872
0.235774
0.469517
0.918475
0.293224
0.270437
0.237595
0.688115
0.518792
0.929028
0.620412
0.343684
0.953128
0.489577
0.941489
0.493085
0.954648
0.997699
0.380755
0.835326
0.696093
0.250217
0.418928
0.822742
0.8501
0.635644
0.660102
0.473905
0.494277
0.448767
0.339435
0.237913
0.414853
0.223142
0.592847
0.657483
0.372178
0.605033
0.538368
0.957395
0.914021
0.413381
0.537628
0.874816
0.228627
0.359924
0.69376
0.957295
0.771921
0.88078
0.932584
0.414558
0.961995
0.719102
0.456746
0.781894
0.31639
0.415973
0.478106
321 28
7 496
298 79
256 172
166 445
391 311
182 455
410 334
258 271
309 150
331 48
191 150
188 67
489 412
112 490
34 330
469 278
498 274
280 211
249 124
8 300
207 80
481 345
360 473
16 350
397 361
308 186
256 464
51 441
392 498
371 137
434 216
396 123
144 412
213 45
405 492
167 174
407 471
257 88
367 278
414 126
141 439
302 263
405 234
343 8
487 227
65 144
322 348
339 426
274 281
358 98
421 277
484 125
86 88
463 141
55 405
500 360
166 457
391 233
320 174
114 281
352 210
300 129
86 29
434 440
130 73
253 335
335 281
484 35
131 343
6355
3
