70
9
0 0 0 0 0 0 0 0 0
51 20 54 54 59 94 60 43 81
100 11 71 75 54 15 60 13 35
45 21 91 34 66 46 100 21 88
36 63 83 49 47 15 68 21 79
84 43 29 23 85 58 42 94 22
47 69 20 49 64 56 58 37 87
98 61 54 78 93 85 41 31 95
52 16 64 54 46 56 22 15 22
36 79 91 82 98 52 75 30 73
66 89 78 83 91 46 33 52 11
90 98 30 37 65 86 65 58 33
23 42 89 49 96 34 49 13 26
57 25 19 70 40 71 23 91 44
99 41 92 83 74 94 99 71 43
65 41 94 21 97 77 42 41 66
34 64 67 56 70 75 95 14 34
38 100 60 44 19 56 76 88 97
52 53 92 24 66 19 59 50 76
81 25 25 95 14 57 15 46 34
42 78 77 14 40 23 66 31 64
95 64 92 17 23 97 85 100 12
37 100 35 69 87 20 78 85 91
38 79 48 30 77 36 80 76 43
70 36 49 57 43 10 50 41 91
63 98 73 41 99 84 50 72 19
84 74 41 49 19 19 11 85 16
64 23 29 35 13 21 21 51 92
43 14 97 71 76 17 74 65 86
81 21 100 13 62 34 13 52 56
82 90 43 14 42 38 13 86 27
50 78 38 46 48 33 75 25 41
96 17 94 27 35 48 93 36 77
83 68 32 14 61 34 12 63 49
34 83 77 87 45 10 30 24 49
10 98 96 82 22 99 43 80 79
20 40 10 41 36 79 70 46 15
59 82 69 95 39 77 23 45 73
40 57 80 28 98 14 51 86 62
37 49 38 67 70 45 62 59 28
29 68 30 90 38 77 86 80 78
29 37 65 91 49 62 88 59 12
12 85 37 59 11 17 56 46 33
92 48 65 16 61 71 59 71 12
40 35 12 28 25 20 76 53 54
10 30 26 46 12 35 16 79 10
47 70 86 26 29 85 14 36 21
82 16 65 79 14 24 65 70 62
18 41 91 90 60 49 53 20 97
11 61 26 41 82 10 31 78 83
96 23 30 23 32 58 10 61 63
57 64 30 56 81 36 97 65 55
49 44 63 18 72 53 56 89 13
75 13 87 55 56 99 15 44 64
35 44 87 48 73 33 55 38 31
67 83 59 22 39 63 52 85 16
63 26 73 83 57 25 12 80 92
68 52 55 99 22 21 88 81 79
34 92 74 25 48 80 79 25 70
14 70 12 84 96 59 85 69 43
64 65 55 31 66 32 43 31 33
29 57 86 98 14 55 36 51 65
60 23 30 36 65 50 83 87 58
33 73 82 50 69 71 70 89 88
23 82 78 61 51 30 26 85 44
98 56 41 78 25 90 68 23 33
15 93 14 37 10 25 62 54 54
15 93 32 83 24 13 58 96 72
12 32 70 16 23 87 16 55 92
36 16 89 95 64 13 45 63 53
0.130315
0.367704
0.471062
0.468814
0.123601
0.210657
0.25312
0.490037
0.242526
0.12061
0.315376
0.105903
0.178057
0.131028
0.420797
0.174605
0.163353
0.148876
0.485177
0.476807
0.2562
0.123636
0.488941
0.11827
0.48675
0.424063
0.10321
0.435025
0.279789
0.198816
0.212831
0.31968
0.4083
0.363214
0.165061
0.175217
0.418773
0.365451
0.486707
0.140851
0.429996
0.305344
0.340796
0.402185
0.487046
0.144667
0.179713
0.428882
0.268288
0.396691
0.268278
0.137603
0.476678
0.49321
0.166321
0.398828
0.202968
0.221257
0.467029
0.443325
0.427133
0.320408
0.485515
0.256215
0.224997
0.344389
0.112294
0.398556
0.309091
0.104739
333 131
308 235
64 97
269 393
246 45
392 137
487 166
38 21
224 372
400 246
391 339
229 262
402 371
65 374
445 440
212 100
288 228
220 301
409 140
240 143
69 54
248 385
225 415
0 22
211 108
356 460
378 447
70 1
382 63
0 463
485 60
86 420
485 113
267 436
32 23
178 161
277 319
349 460
373 59
89 487
343 262
68 71
197 111
196 54
17 1
313 3
197 271
51 42
26 341
398 270
225 418
459 455
27 432
392 346
449 226
95 22
294 214
370 110
206 472
455 400
139 151
268 59
405 292
29 46
32 71
457 203
114 263
322 341
111 67
486 58
4636.25
4
