70
5
0 0 0 0 0
96 17 37 71 83
28 76 28 85 15
39 65 66 57 59
90 84 42 97 35
52 50 83 43 44
51 24 82 43 69
99 78 33 44 100
93 14 71 21 32
83 14 15 28 43
74 66 47 47 95
97 90 65 28 32
10 81 16 27 32
62 64 96 80 28
77 30 25 83 94
63 25 78 23 41
39 66 70 49 69
12 91 81 36 88
85 68 28 51 52
41 65 57 85 56
40 35 36 55 13
40 20 80 25 50
70 59 24 46 36
15 61 53 57 38
37 39 35 50 88
17 90 88 38 82
90 22 100 23 51
11 18 61 76 39
56 37 17 29 76
52 83 69 92 81
39 13 98 95 57
29 20 55 89 63
37 20 61 61 93
36 32 33 36 34
87 34 99 83 30
98 45 26 41 75
52 44 33 39 96
29 72 25 79 34
51 47 22 40 28
91 69 57 66 55
45 77 34 22 77
38 52 84 83 46
94 88 76 13 76
47 73 60 53 27
52 66 26 49 96
23 37 91 69 99
35 82 82 10 51
13 50 14 27 13
22 97 88 21 45
34 89 21 26 43
32 84 90 14 97
25 67 40 52 67
24 65 79 62 30
25 36 71 29 21
73 34 78 13 73
43 54 26 83 19
33 67 76 77 83
38 32 93 27 31
67 97 27 89 55
64 15 57 24 27
69 47 63 69 92
30 23 37 23 34
31 41 14 76 85
60 77 39 36 95
61 11 30 65 34
66 82 81 40 79
99 75 19 94 10
72 68 20 85 46
31 24 68 12 97
12 71 36 13 18
0.287483
0.239462
0.478022
0.217044
0.351248
0.3139
0.227961
0.412825
0.487267
0.104738
0.286489
0.187609
0.387413
0.192056
0.486969
0.440523
0.318772
0.175336
0.306424
0.152223
0.331179
0.357006
0.374452
0.326084
0.12771
0.253484
0.194243
0.293819
0.100509
0.172033
0.122577
0.247624
0.415038
0.313393
0.27289
0.438417
0.140549
0.353332
0.203171
0.127773
0.268697
0.36953
0.151992
0.23943
0.122324
0.270933
0.221055
0.238585
0.26495
0.217798
0.125064
0.403889
0.24872
0.155887
0.250778
0.212054
0.166074
0.221632
0.427063
0.400419
0.460552
0.150044
0.395195
0.405923
0.487778
0.374328
0.145852
0.403454
0.334176
0.101274
430 323
368 309
129 435
375 386
95 411
46 273
431 62
171 124
190 318
362 458
430 407
445 265
490 422
62 386
54 52
478 470
241 234
444 466
247 105
143 286
430 222
482 315
189 11
175 456
131 453
124 485
357 257
225 18
174 368
454 303
258 289
471 492
226 449
386 281
16 109
254 401
16 285
168 486
464 291
148 334
492 23
250 289
334 194
305 303
187 402
454 266
130 179
455 107
91 247
209 121
208 38
137 128
7 17
36 445
1 356
400 208
202 360
456 19
172 312
443 228
215 385
113 365
339 7
391 3
308 194
443 381
185 10
195 32
364 24
89 90
18270
1
