70
9
0 0 0 0 0 0 0 0 0
75 75 46 85 40 77 25 37 19
65 23 69 38 48 94 98 80 35
60 51 80 33 72 86 20 66 27
93 32 16 100 14 82 71 99 29
96 82 98 34 61 12 78 83 68
17 18 17 94 95 37 14 78 87
36 80 50 22 55 87 38 17 87
48 91 100 31 96 40 74 19 87
24 44 20 100 94 77 66 69 36
69 44 36 23 89 93 73 75 80
15 51 63 64 11 70 55 44 90
86 37 39 92 83 59 72 27 25
15 16 53 58 39 41 46 12 60
15 58 10 42 89 95 80 35 78
40 58 32 79 21 58 69 38 89
13 86 86 77 69 32 76 43 16
64 99 91 37 64 79 26 22 16
70 82 14 11 22 19 55 47 91
25 20 48 45 16 33 19 80 61
88 30 44 40 63 56 63 39 82
48 10 53 53 78 78 32 38 83
78 95 58 63 49 15 60 100 54
32 85 53 36 34 74 43 96 64
74 56 22 67 73 43 81 44 20
95 14 35 86 99 29 52 45 80
97 73 92 76 58 52 32 17 52
99 89 76 98 91 92 33 64 20
41 98 27 15 94 100 66 46 26
12 38 93 20 100 68 94 80 29
11 43 76 72 45 59 15 44 14
58 40 62 16 56 47 54 11 27
60 93 85 52 92 24 92 73 64
65 86 14 27 94 38 35 61 13
39 59 81 58 59 59 34 52 29
61 59 63 56 33 41 10 16 24
38 74 10 82 70 31 82 98 50
66 10 53 25 34 93 29 95 70
42 80 73 47 80 26 15 86 67
48 49 89 97 24 90 77 86 82
32 94 31 34 42 82 55 23 26
45 49 75 95 34 78 11 89 73
28 64 40 34 10 96 93 38 63
90 79 83 85 66 77 14 50 53
72 57 49 65 87 15 90 94 29
92 86 83 51 14 22 30 80 78
52 29 85 86 38 29 67 99 97
87 11 78 36 87 68 69 34 87
59 72 60 32 100 77 11 56 70
68 91 97 23 17 99 91 99 84
69 92 56 21 84 60 75 84 77
31 29 70 72 32 69 99 78 77
48 90 97 35 63 95 85 61 75
80 96 49 76 48 86 46 69 92
46 100 15 10 67 88 23 95 33
27 80 50 87 21 73 43 76 80
81 87 27 47 56 42 37 32 72
32 11 71 59 33 51 77 30 14
84 36 93 17 62 30 100 74 60
11 99 39 19 78 62 74 30 60
64 43 14 100 92 54 42 98 96
24 11 18 83 85 49 100 87 56
71 35 50 76 79 84 47 85 37
84 20 96 93 99 65 11 73 92
51 90 80 94 60 60 42 39 73
41 64 62 60 46 19 82 66 55
89 57 75 29 37 86 93 42 21
53 15 76 99 93 61 61 62 12
74 44 88 87 96 78 70 86 69
39 98 19 20 39 11 28 30 38
1.43179
1.07216
1.96349
0.541993
1.48341
0.6438
0.858185
1.73651
1.75722
0.835671
1.37219
0.727713
0.458133
1.19184
1.91659
1.56733
0.465083
0.635402
0.704118
1.49769
1.69601
0.481436
0.433323
0.974852
0.833707
1.42301
1.67866
1.01943
1.51139
1.29373
1.22703
1.3101
0.881244
0.746934
1.84548
1.04543
0.790615
1.64636
0.482747
1.22859
0.660578
1.55753
1.48705
0.767187
1.49062
1.16125
1.78063
1.59043
1.31272
0.884293
1.09954
1.22838
0.405878
0.786828
1.95926
1.20743
1.74867
1.42808
1.78549
1.78138
1.98081
0.988513
1.0598
0.535673
1.00197
1.84751
1.65939
0.98344
0.750273
0.590047
322 435
229 167
495 238
492 387
52 107
324 128
417 467
327 155
9 178
113 455
20 394
429 172
293 268
121 86
94 216
407 25
387 397
496 433
363 174
279 490
329 134
259 324
476 147
201 71
380 461
87 446
174 418
132 320
326 197
213 267
14 480
287 142
30 293
98 246
235 97
328 467
253 153
174 466
363 74
415 360
449 387
10 461
451 165
78 145
352 313
76 51
77 337
394 494
160 311
389 32
346 3
100 64
174 45
335 109
327 403
238 147
251 429
375 96
116 283
252 137
239 302
82 259
400 404
110 242
86 234
252 31
257 477
113 8
53 82
275 140
4976.25
4
