70
5
0 0 0 0 0
15 90 47 47 20
45 92 49 11 41
82 41 52 32 35
79 39 10 83 61
92 29 61 44 25
17 42 77 62 19
87 40 31 93 43
91 93 77 63 12
94 52 58 89 89
70 92 68 82 36
88 55 50 44 83
67 32 53 71 77
64 99 11 99 69
25 23 67 38 38
52 85 18 62 21
93 52 20 75 54
12 41 16 65 18
84 50 94 87 66
14 52 55 22 85
58 100 88 28 29
46 20 74 48 65
80 79 80 10 56
40 25 16 43 34
81 93 76 51 82
20 80 32 26 78
26 86 44 68 39
26 57 32 58 42
42 40 16 64 43
66 70 15 44 73
93 87 51 86 95
46 25 47 51 68
59 40 25 29 99
13 95 22 58 31
21 64 39 28 58
60 89 13 93 20
80 45 67 86 60
84 86 32 55 86
50 12 19 31 12
43 43 41 73 92
15 62 72 48 63
33 65 20 28 84
57 54 24 60 70
20 64 26 34 50
23 58 67 78 39
33 64 88 19 56
28 73 47 72 13
93 94 73 50 82
56 51 44 57 15
71 94 56 38 19
52 45 80 53 39
46 95 25 96 91
20 18 16 20 37
17 52 79 76 31
12 45 41 29 51
52 100 34 50 17
62 92 21 94 54
30 93 69 78 74
50 59 21 58 61
24 64 37 36 94
83 57 32 26 61
64 14 90 50 13
11 50 17 17 14
69 77 29 44 59
11 36 83 14 11
26 63 48 38 98
95 17 82 71 81
72 87 26 89 59
16 61 76 52 76
54 64 38 14 70
0.197924
0.475134
0.256928
0.316072
0.467554
0.42329
0.38178
0.319499
0.281667
0.140313
0.488231
0.137592
0.111739
0.231628
0.151934
0.359316
0.282961
0.139966
0.305198
0.402931
0.181535
0.199704
0.264501
0.129553
0.320134
0.108824
0.206051
0.342801
0.303506
0.241445
0.238271
0.492585
0.134578
0.440224
0.299333
0.213319
0.281102
0.242736
0.338908
0.298404
0.313862
0.371646
0.447132
0.281776
0.332847
0.150206
0.219532
0.270194
0.12387
0.254679
0.216196
0.324455
0.409778
0.306624
0.355096
0.165976
0.475094
0.427321
0.41797
0.463634
0.214655
0.266918
0.382652
0.369591
0.116926
0.357696
0.417162
0.30972
0.452783
0.193936
87 283
303 299
458 241
411 286
106 158
149 392
422 135
326 225
98 399
351 274
223 254
417 127
351 444
452 20
458 409
475 422
439 99
324 125
129 146
168 325
380 451
464 15
39 358
399 126
341 9
346 416
18 32
427 126
132 409
388 323
10 62
87 186
426 289
247 24
440 183
42 208
432 32
232 115
3 494
405 129
316 176
313 485
254 129
284 417
475 39
281 333
53 106
459 418
477 261
370 64
476 406
281 37
39 158
175 487
488 383
16 354
318 242
385 380
31 346
348 46
29 92
245 322
69 255
13 290
13 281
193 264
184 340
415 140
347 185
188 129
18230
1
