70
9
0 0 0 0 0 0 0 0 0
100 77 22 17 38 14 47 17 71
26 46 92 80 21 16 59 75 21
92 90 48 14 26 41 50 13 43
18 85 67 100 61 81 64 89 34
42 86 63 52 26 38 13 32 70
67 56 89 79 74 30 30 47 55
61 18 93 45 70 42 16 16 19
75 37 35 99 53 73 80 90 39
77 36 92 58 67 84 67 38 11
17 93 82 39 70 73 95 85 47
31 83 80 23 99 93 83 100 66
98 76 57 54 26 42 47 27 40
24 93 75 80 57 40 44 28 85
36 32 43 57 97 35 35 28 13
62 23 87 33 73 14 25 52 17
38 99 36 80 31 82 59 98 98
65 52 50 90 82 80 82 60 59
82 24 64 51 14 83 27 35 77
25 17 96 69 18 91 69 55 70
59 97 49 47 63 63 64 74 16
72 96 18 61 79 73 22 100 72
70 67 44 18 38 71 50 18 31
24 42 70 35 26 42 69 11 56
63 74 54 93 88 81 100 33 85
68 47 72 80 99 86 11 95 80
97 86 97 52 68 93 75 23 60
90 64 98 66 35 70 47 46 58
24 17 53 78 74 45 98 53 91
89 67 22 40 61 26 66 86 45
58 50 84 19 53 42 44 32 38
79 84 73 18 77 23 28 37 78
75 55 68 92 57 35 28 31 51
46 34 33 15 24 11 85 25 15
47 68 84 100 33 68 25 99 21
18 62 12 81 28 41 32 32 30
38 99 100 30 15 15 24 63 15
97 62 46 77 24 38 41 13 100
78 91 42 30 62 42 73 33 80
87 58 72 90 13 49 40 68 99
30 64 26 48 33 95 97 76 44
93 86 72 58 14 43 19 76 34
15 79 77 15 88 82 46 65 11
31 58 81 68 76 21 72 99 58
50 18 80 14 66 23 37 91 62
28 15 27 82 59 28 12 25 55
33 92 46 97 77 88 14 44 79
51 12 66 53 71 59 16 47 86
36 66 49 25 21 93 11 65 66
87 42 61 42 77 45 33 61 29
32 17 85 37 69 29 25 29 46
22 95 73 97 34 60 38 88 31
67 81 24 14 81 60 15 41 38
27 94 76 19 45 68 98 66 47
91 18 53 83 57 63 69 50 59
35 71 63 53 100 58 34 36 64
74 52 92 12 79 44 23 83 94
98 30 93 94 93 35 71 77 45
27 93 46 39 97 82 83 39 40
31 37 71 44 22 42 42 26 87
47 51 40 11 45 89 59 77 20
36 28 14 97 38 51 98 75 95
64 33 76 62 59 99 75 17 47
66 53 20 87 42 80 28 71 51
32 66 25 30 94 32 96 16 29
40 45 95 92 91 71 17 99 49
51 68 28 73 52 63 29 50 54
58 10 74 92 55 20 79 26 71
64 90 100 13 85 78 34 60 79
64 74 32 84 87 50 97 98 92
0.647522
0.420185
0.373871
0.257281
0.792155
0.920889
0.895408
0.245285
0.571382
0.881868
0.338093
0.872616
0.93813
0.926287
0.727392
0.781273
0.348255
0.484372
0.555233
0.741722
0.262656
0.517366
0.986463
0.648891
0.563875
0.999982
0.610626
0.352776
0.265
0.860666
0.219673
0.39816
0.541768
0.773493
0.26021
0.368013
0.74306
0.642789
0.526975
0.864523
0.48547
0.910283
0.999194
0.248924
0.436545
0.472797
0.790831
0.626572
0.773405
0.394899
0.292241
0.700187
0.395364
0.440195
0.418577
0.70795
0.446759
0.714735
0.552576
0.894244
0.86908
0.853434
0.720234
0.772321
0.945123
0.747749
0.286514
0.309405
0.461955
0.375505
439 386
66 335
403 365
80 36
122 309
103 22
218 392
22 330
5 482
78 306
410 384
50 368
220 481
424 249
60 176
245 165
488 156
419 20
329 320
290 116
253 96
104 220
8 7
447 380
250 276
451 381
392 392
158 253
307 81
185 8
38 320
283 454
166 25
200 218
130 193
353 34
416 77
51 196
113 172
372 157
472 188
428 155
199 241
84 39
413 369
2 227
248 242
166 95
22 444
204 241
65 180
472 450
450 208
186 48
139 173
406 259
29 177
371 116
453 363
445 477
247 173
39 371
12 300
363 194
294 90
151 15
142 455
453 54
39 90
290 432
9625
2
