70
7
0 0 0 0 0 0 0
38 76 20 92 57 52 56
68 17 49 23 66 53 92
40 43 18 59 93 58 19
28 55 30 67 11 23 86
16 86 26 72 42 75 15
34 15 92 55 55 20 92
56 49 84 35 41 49 24
60 83 47 66 25 94 68
62 76 65 42 79 94 76
34 32 15 15 15 43 75
26 36 10 53 59 97 84
27 70 77 35 79 70 34
13 90 30 93 58 14 90
20 78 75 23 16 19 40
52 83 50 13 22 11 35
47 23 79 66 58 38 18
42 61 43 70 75 76 89
91 32 88 57 22 21 21
25 75 47 41 69 28 16
67 77 19 77 22 100 66
32 46 30 90 21 87 77
49 48 82 95 99 39 81
60 47 94 12 83 88 25
45 17 87 60 30 59 11
44 24 48 38 100 100 33
83 47 68 86 33 57 19
91 19 59 34 39 76 63
41 79 63 30 55 64 10
93 90 39 52 93 19 32
48 93 88 79 90 63 12
24 78 22 53 71 11 39
42 16 49 68 14 83 39
14 70 41 56 73 38 15
43 83 24 30 66 26 44
28 60 26 14 37 25 64
43 89 78 62 33 52 95
87 27 79 63 84 64 45
83 83 23 54 71 78 71
62 89 55 43 53 86 89
98 69 34 50 17 83 36
34 98 36 24 60 94 16
92 88 94 23 66 92 83
25 96 68 21 69 69 89
31 59 61 67 14 94 98
61 89 84 41 84 66 24
92 51 14 46 65 59 21
51 65 81 35 18 67 70
51 58 37 64 48 86 81
36 100 10 17 88 86 75
45 54 97 13 50 36 11
82 36 52 13 58 67 96
91 28 78 40 27 91 51
30 39 13 75 24 94 78
38 29 83 14 57 23 89
86 14 53 76 82 13 21
38 27 43 68 95 55 28
54 54 73 96 18 60 32
77 67 25 86 37 69 87
62 27 28 96 81 99 72
52 23 23 27 36 86 92
59 24 55 59 74 87 58
65 98 80 85 87 13 28
84 42 29 78 11 59 15
42 59 61 96 82 32 30
69 57 73 88 23 22 90
81 59 25 16 84 47 80
48 87 48 35 23 31 26
24 83 29 29 45 30 86
96 27 14 41 64 91 85
0.414524
0.717363
0.96915
0.679487
0.405464
0.935012
0.222764
0.484597
0.962193
0.740641
0.537997
0.796336
0.258981
0.782134
0.964755
0.577337
0.782821
0.205263
0.866549
0.448795
0.932961
0.238413
0.226823
0.212451
0.790449
0.702412
0.712524
0.413529
0.73493
0.382745
0.218863
0.85809
0.607892
0.829585
0.7428
0.580025
0.976704
0.670123
0.404473
0.83911
0.426621
0.480333
0.546325
0.549758
0.354417
0.644803
0.645909
0.50636
0.571403
0.471644
0.367687
0.310391
0.828545
0.46818
0.577975
0.807591
0.380767
0.51416
0.769595
0.67175
0.738272
0.897951
0.450605
0.629513
0.727383
0.834058
0.885551
0.358702
0.831061
0.294723
287 323
121 357
397 162
480 57
429 371
441 182
117 31
291 458
109 31
129 362
128 491
495 450
47 219
289 47
467 490
268 126
456 182
333 240
256 169
480 193
450 433
307 451
385 263
279 338
58 345
153 22
101 335
487 12
213 277
208 121
119 341
464 355
385 466
475 195
273 267
318 211
179 311
137 119
463 445
139 225
404 70
247 1
418 472
421 13
222 94
191 397
322 389
457 489
202 25
90 47
415 160
427 216
289 430
396 142
383 481
171 95
318 259
354 80
160 463
73 36
82 44
167 407
399 338
276 151
57 263
322 380
327 383
171 288
404 386
158 153
6235
3
