70
5
0 0 0 0 0
83 83 15 47 97
45 78 20 93 35
67 57 52 30 59
26 74 44 12 55
26 32 78 88 30
77 14 84 56 25
21 78 36 63 43
50 35 72 54 15
43 25 98 83 61
83 52 37 24 37
14 27 81 76 82
70 35 83 98 63
86 34 80 87 89
20 25 74 91 61
59 79 14 34 96
38 36 43 46 64
33 62 40 45 95
18 36 47 69 14
35 49 68 53 54
32 76 37 89 55
22 26 32 29 22
40 58 60 74 53
52 96 46 23 88
60 18 72 91 76
23 86 54 10 90
65 45 19 46 40
94 12 24 32 71
92 94 90 89 79
27 77 91 91 62
92 57 56 46 51
35 67 83 13 86
58 55 98 72 59
46 98 22 11 33
53 63 58 13 98
65 11 78 56 28
33 73 98 68 32
10 72 35 73 19
86 69 30 98 36
58 92 29 90 72
82 17 75 37 37
15 91 57 48 60
66 43 82 34 85
42 100 92 96 37
91 38 28 18 23
76 38 22 23 20
92 22 61 17 100
33 37 22 56 80
92 85 55 18 21
59 85 65 39 76
11 80 52 75 81
55 15 68 87 50
31 72 17 78 55
69 41 97 59 93
43 57 19 13 64
27 92 39 19 37
100 38 88 39 27
88 25 18 38 71
43 23 54 26 26
12 68 89 77 26
92 50 68 51 71
61 44 40 76 16
99 44 25 27 40
24 99 97 89 20
78 31 19 70 88
57 80 43 38 78
96 39 100 92 31
98 16 22 34 64
50 20 39 21 16
15 25 12 58 15
0.612843
0.349698
0.611581
0.536235
0.510136
0.415825
0.611965
0.497821
0.918706
0.992607
0.251734
0.740056
0.456985
0.402515
0.732489
0.549877
0.380099
0.284174
0.573921
0.992043
0.7655
0.532257
0.824323
0.351901
0.945093
0.220669
0.678336
0.678249
0.326743
0.577382
0.966475
0.820903
0.939533
0.998704
0.253073
0.604438
0.65951
0.693186
0.437336
0.479753
0.685133
0.210209
0.241944
0.74
0.472907
0.836923
0.465002
0.261932
0.561749
0.591369
0.914014
0.233083
0.906499
0.307549
0.694204
0.259065
0.424972
0.696824
0.869994
0.943407
0.524275
0.785059
0.315752
0.365273
0.8337
0.581224
0.885155
0.383959
0.647062
0.399461
451 178
126 248
146 155
431 255
205 280
402 153
200 149
243 225
312 24
55 44
31 434
69 161
314 443
255 200
418 335
432 364
156 476
429 107
35 306
258 425
374 443
459 27
111 71
289 3
97 402
236 242
376 62
127 86
117 112
91 319
42 242
412 179
344 457
146 413
219 421
89 109
149 291
155 18
381 309
453 442
392 210
178 129
269 381
193 38
357 141
20 485
45 404
130 411
402 101
25 143
66 481
13 192
74 304
148 61
418 33
212 326
172 434
374 349
489 411
162 283
342 335
219 76
244 68
324 367
185 78
331 74
49 127
131 152
261 263
221 409
18595
1
