70
3
0 0 0
35 12 65
27 98 57
71 86 67
31 28 92
77 63 11
42 100 52
58 100 54
85 33 91
55 81 24
39 64 28
53 66 33
79 39 87
37 47 76
71 26 14
21 11 46
23 75 88
39 98 19
75 48 99
71 98 69
76 40 27
21 28 58
16 20 39
76 36 77
14 34 88
75 64 28
48 79 27
64 83 62
90 40 36
96 54 74
99 21 43
13 32 42
70 72 78
65 98 88
43 19 30
32 88 66
39 49 40
100 77 73
95 33 24
39 51 99
96 100 61
81 40 81
81 12 81
21 38 95
42 67 42
19 43 58
91 22 28
22 26 72
29 40 95
24 90 44
77 19 34
48 46 90
12 33 17
73 20 94
35 99 78
41 17 67
12 52 54
10 75 86
30 33 35
38 91 100
90 39 25
51 42 36
79 43 25
95 83 73
10 47 53
45 90 39
73 32 13
64 34 65
10 41 10
51 73 10
1.35063
1.57906
1.39234
1.71803
1.0389
1.50919
0.840686
1.99735
1.7827
0.905376
0.59708
1.20409
1.94704
0.435126
0.495993
1.19926
0.938184
0.899694
1.04614
0.63026
0.945351
1.75994
0.648264
1.36561
1.48031
0.691287
0.889481
1.21085
1.15611
0.814596
0.597734
1.15684
0.671058
1.27621
0.43848
0.676719
1.92117
1.21319
1.2007
0.52826
1.61868
0.592942
1.32991
1.41946
0.589453
1.65508
1.86101
1.8115
1.29161
1.55351
1.21843
0.622582
1.80468
0.597216
0.482532
0.573088
1.98993
0.510031
0.660464
0.783824
1.60616
0.482472
0.991645
1.385
0.786192
1.23814
0.92531
0.499623
0.909393
0.983191
167 120
179 466
0 1
369 269
324 443
172 225
475 175
358 110
455 425
400 176
162 123
144 79
69 422
319 339
446 272
410 489
6 18
353 443
359 4
306 20
170 331
91 98
491 445
459 356
321 172
106 400
241 482
151 32
389 408
302 261
326 412
461 116
394 92
492 397
19 391
261 343
67 9
326 258
363 311
25 414
50 124
344 133
248 227
121 284
373 382
145 54
141 348
308 186
271 234
33 61
453 195
319 332
211 186
6 240
321 312
358 346
106 58
498 80
132 109
241 258
398 110
116 261
238 33
230 498
466 141
142 21
500 39
476 10
435 49
497 245
3706
5
