70
7
0 0 0 0 0 0 0
26 59 24 15 82 25 64
100 12 74 99 23 65 99
87 62 14 71 100 45 10
59 52 34 61 90 61 15
82 16 59 98 66 18 63
85 21 35 43 20 70 60
53 68 49 38 84 73 22
43 24 28 93 96 38 30
33 94 52 52 20 88 82
51 95 16 60 80 62 48
91 71 84 46 56 55 24
34 85 99 52 100 11 91
86 49 91 59 59 50 10
36 99 12 92 34 100 63
79 60 53 47 87 79 35
88 59 87 86 44 80 16
77 38 61 12 77 55 37
96 86 87 61 46 72 61
80 90 95 31 24 32 21
17 38 75 80 55 15 76
62 91 80 84 89 76 24
81 73 58 57 49 93 55
84 75 54 68 51 54 73
34 52 47 78 50 49 42
93 31 10 18 52 93 72
83 73 90 39 82 82 56
56 28 47 50 71 38 63
77 97 41 44 22 27 91
13 61 45 88 100 98 44
63 98 56 23 58 82 71
92 98 96 39 36 34 28
27 42 89 82 27 42 58
100 39 92 50 45 15 21
69 79 78 26 42 11 42
10 56 38 60 48 91 29
89 71 100 15 15 70 90
67 65 95 14 11 11 31
73 31 54 81 14 51 16
64 76 55 15 14 61 46
41 86 72 94 19 96 90
98 65 38 29 27 99 63
49 18 29 44 85 62 63
62 20 59 90 37 17 48
44 32 10 72 34 39 91
59 93 94 58 34 52 36
64 59 59 54 82 20 80
42 80 50 12 62 47 32
81 74 46 85 11 53 99
56 16 60 31 11 100 100
70 20 31 24 87 22 10
79 93 85 38 18 27 30
74 13 75 79 35 47 33
62 76 42 67 68 91 30
94 84 92 96 36 93 53
95 46 82 25 14 23 63
46 24 33 56 79 11 40
40 89 69 84 69 88 24
79 11 23 91 65 21 31
12 34 15 67 85 91 83
51 42 12 36 41 22 66
96 88 77 25 36 100 93
32 77 82 85 28 69 26
45 31 32 37 65 99 61
86 39 80 21 20 27 85
27 58 63 83 90 63 26
68 66 56 74 68 19 73
69 77 97 56 33 60 52
96 14 82 18 72 51 67
10 60 70 61 48 10 48
0.221494
0.46135
0.462137
0.309617
0.292179
0.463732
0.110047
0.218292
0.204586
0.210953
0.284601
0.241235
0.164698
0.24613
0.308892
0.254541
0.295815
0.367325
0.454411
0.363927
0.278707
0.111528
0.351218
0.156162
0.114658
0.125547
0.205337
0.144712
0.418764
0.190743
0.494667
0.228271
0.42238
0.107067
0.470969
0.320237
0.489171
0.445333
0.429375
0.39644
0.287044
0.453271
0.192067
0.462627
0.478822
0.101442
0.380903
0.245775
0.149473
0.254488
0.166502
0.183708
0.295111
0.264389
0.293068
0.201839
0.16312
0.442579
0.317249
0.288895
0.269055
0.414143
0.481828
0.166699
0.461577
0.310457
0.143913
0.461759
0.484113
0.434123
433 487
488 435
214 304
16 418
408 289
408 492
428 494
342 309
244 339
283 283
378 252
90 359
230 351
256 104
89 406
121 452
425 4
363 61
415 21
174 262
174 323
363 134
320 262
471 337
376 270
107 38
391 410
35 359
168 82
62 58
276 444
79 439
159 16
366 415
308 241
158 280
240 466
341 27
170 314
67 186
385 361
395 431
357 456
500 144
287 185
402 377
439 363
12 97
285 80
235 481
175 186
213 1
188 217
198 181
459 61
453 340
374 230
286 36
435 249
437 328
347 455
335 121
254 255
436 311
42 112
369 478
34 307
148 82
425 398
158 288
19425
1
