70
9
0 0 0 0 0 0 0 0 0
96 55 83 57 25 84 66 23 51
54 49 16 98 100 22 11 57 38
14 61 12 14 41 69 69 47 66
34 50 27 63 56 47 29 85 96
21 90 17 80 13 21 34 12 12
36 42 42 13 26 98 28 87 88
30 64 93 40 46 59 68 69 28
90 99 51 30 30 39 77 26 38
52 29 44 39 71 43 99 32 14
68 13 27 25 49 37 64 39 13
97 59 56 65 99 81 86 49 79
91 42 74 62 69 80 37 32 100
95 53 53 97 29 28 58 16 100
18 87 76 87 23 98 76 99 77
67 92 82 71 95 75 90 44 86
89 22 77 87 18 34 62 63 97
20 54 39 29 15 35 78 95 77
52 36 59 33 61 68 55 37 92
92 59 91 77 58 16 21 13 10
35 79 16 13 67 71 17 80 26
76 77 87 52 12 28 96 20 93
33 96 14 31 70 39 61 77 31
29 53 12 93 77 88 77 85 75
33 15 19 80 100 63 48 77 72
67 78 73 93 74 13 31 11 62
21 17 59 27 38 57 46 48 97
42 24 82 48 46 61 14 80 71
83 51 45 67 79 42 42 49 40
98 63 15 24 25 12 91 11 22
86 66 99 94 24 43 87 12 77
59 88 35 46 75 72 49 21 24
42 37 76 68 48 26 91 42 87
71 74 47 37 54 95 78 20 65
11 71 96 54 90 26 71 69 49
68 48 69 56 63 24 79 95 60
34 55 16 95 82 22 84 99 58
12 31 51 20 73 62 23 80 38
13 32 48 32 59 26 40 68 79
57 100 17 41 16 36 37 96 74
82 15 40 93 86 88 57 26 39
44 64 63 12 97 46 41 95 67
49 17 92 97 80 15 53 82 34
63 56 91 25 46 92 51 21 12
100 38 33 31 48 22 65 42 79
80 66 19 74 46 88 30 41 90
46 71 24 49 80 57 20 31 73
61 57 96 44 55 71 43 84 85
14 86 78 73 98 10 70 65 67
53 56 68 20 92 43 18 24 47
60 85 98 83 95 92 75 30 65
82 15 80 49 61 61 82 78 38
34 47 85 19 94 43 55 15 12
53 82 48 20 31 57 52 82 64
91 35 43 86 99 17 68 31 14
40 30 50 89 62 39 18 95 55
28 34 74 14 87 93 56 86 73
98 34 36 99 41 26 22 72 51
94 61 32 76 33 56 20 95 24
40 87 39 17 20 15 35 11 99
11 66 56 54 94 81 72 82 80
85 64 81 50 87 31 71 10 60
55 61 91 92 17 94 16 59 19
100 41 28 80 20 25 29 49 25
91 87 97 91 37 90 29 42 18
37 16 62 86 42 31 23 96 15
34 76 32 55 98 45 25 27 23
24 32 27 58 25 10 70 40 12
41 58 81 32 31 79 73 65 82
37 100 81 29 90 52 29 50 20
0.565292
0.581815
0.367014
0.304975
0.242278
0.90638
0.490549
0.418243
0.742876
0.929849
0.607099
0.630784
0.745714
0.317083
0.531866
0.72142
0.313467
0.330105
0.219618
0.707879
0.993856
0.594412
0.648116
0.448428
0.985846
0.532867
0.873936
0.275147
0.919207
0.739614
0.504242
0.47237
0.606477
0.649165
0.407852
0.911213
0.967359
0.602331
0.451715
0.582503
0.872952
0.575305
0.481064
0.742893
0.585417
0.381854
0.373173
0.520795
0.375673
0.843482
0.41895
0.901258
0.831114
0.804077
0.841064
0.374902
0.454422
0.483728
0.415407
0.633613
0.310194
0.62507
0.707469
0.663583
0.399598
0.952662
0.903734
0.390315
0.221428
0.929169
376 93
217 380
152 249
169 435
181 463
285 452
362 105
397 230
373 440
23 239
253 344
84 177
60 464
479 85
5 389
466 127
155 260
274 398
177 88
169 98
306 284
56 126
128 71
67 428
350 391
84 295
405 457
194 55
476 373
424 299
20 318
321 76
203 278
97 123
325 305
381 458
215 91
379 8
475 106
477 382
127 400
104 131
130 396
493 169
144 423
52 209
150 32
218 108
321 376
69 152
276 386
422 481
288 61
369 106
330 499
260 482
94 463
243 46
70 335
359 68
37 479
95 71
434 183
413 268
27 39
301 470
72 128
353 399
375 371
192 26
18855
1
