70
7
0 0 0 0 0 0 0
12 70 57 37 57 85 68
42 16 44 29 89 61 66
57 95 19 97 80 25 40
53 57 59 44 75 93 22
37 47 53 30 24 54 26
53 57 43 79 59 65 12
31 43 69 86 43 90 89
82 41 19 39 65 85 28
62 94 58 86 70 47 76
54 50 23 54 75 68 70
58 91 16 97 90 27 100
38 44 93 20 29 34 67
87 41 63 36 44 75 47
79 67 70 51 73 49 40
42 14 65 74 58 97 22
26 43 65 41 10 12 14
42 97 94 97 51 71 19
51 68 41 30 36 93 37
89 94 30 20 29 76 60
27 52 41 64 90 47 98
66 33 26 33 74 58 86
24 64 75 59 70 51 21
90 94 30 40 25 26 13
39 58 88 66 79 75 43
65 40 21 17 74 61 90
22 28 93 16 99 40 12
88 74 54 63 80 20 66
92 21 77 76 36 42 29
53 47 39 22 79 16 16
100 32 12 47 62 79 50
10 71 89 21 64 26 38
15 23 73 74 28 96 20
18 62 35 63 49 51 97
44 100 54 48 28 10 54
95 60 64 25 26 23 85
89 11 40 86 43 43 62
24 16 32 16 86 73 87
98 16 57 66 95 21 39
69 56 64 49 85 30 62
15 34 64 64 57 22 76
96 86 53 15 17 78 83
92 32 48 17 94 44 53
76 33 89 82 91 58 84
74 38 99 97 11 20 71
46 20 17 67 61 60 100
73 39 74 71 51 92 46
50 64 47 40 79 62 32
85 61 34 21 63 89 14
65 42 51 22 55 77 57
59 64 82 82 47 38 85
39 89 71 72 25 42 61
51 54 23 38 16 78 43
54 65 67 26 82 43 48
43 41 77 51 41 91 67
29 100 16 43 29 56 64
49 96 54 62 55 97 62
77 71 45 15 18 79 77
73 54 46 85 40 41 85
22 27 90 47 59 92 84
81 25 66 89 25 68 13
55 97 72 87 85 96 38
19 73 63 46 25 76 53
73 25 37 10 64 47 77
83 77 38 76 97 74 68
24 71 86 62 51 65 14
81 21 63 40 53 97 97
91 25 14 42 56 54 56
20 25 55 78 97 46 96
15 54 62 71 23 34 94
0.698229
0.712554
0.378498
1.05486
0.386773
0.689561
0.655039
0.625473
1.3048
0.941754
1.07044
1.34789
0.668252
0.315253
1.19744
0.677542
1.07356
0.883091
1.43931
0.664147
0.300154
1.45045
0.505358
1.2248
0.680759
0.553015
1.22446
0.847397
1.04932
1.06242
1.11389
0.439001
0.665537
1.33431
0.726207
1.30611
1.23506
0.702613
1.31484
0.355
1.33622
0.585962
1.39621
1.35454
0.959243
0.940576
0.591786
1.00409
0.752371
0.595169
1.42376
1.02616
1.42945
0.97225
1.28424
0.899242
1.41084
1.27773
1.03586
0.739226
0.660279
0.781358
1.19871
0.842357
1.4847
1.43658
1.26568
1.30174
0.543938
1.37988
222 247
29 284
306 27
358 496
72 24
495 309
174 145
418 216
88 460
427 149
75 113
94 261
134 27
237 417
400 173
411 96
147 8
383 185
357 268
455 254
120 277
466 21
29 27
101 433
90 347
63 94
284 88
100 73
415 422
184 90
55 437
83 168
498 59
248 41
0 123
288 367
210 420
211 122
137 500
40 143
348 294
366 179
256 333
358 370
462 344
82 151
482 462
25 107
334 180
56 170
41 107
152 355
43 400
122 313
479 285
366 71
233 87
413 88
72 236
225 119
299 125
406 464
395 221
480 338
202 203
436 434
247 138
419 104
93 140
26 451
19045
1
