70
7
0 0 0 0 0 0 0
60 74 80 24 43 28 37
98 100 88 34 48 53 55
27 75 99 97 42 97 93
12 88 93 23 35 56 80
47 71 87 11 57 76 92
32 51 78 47 19 54 93
17 19 22 28 71 12 22
88 48 17 16 69 68 100
78 99 29 54 43 40 63
43 36 23 82 33 69 94
41 93 45 86 84 14 73
13 31 59 36 34 14 75
70 31 53 59 24 49 45
93 31 65 10 14 36 12
87 26 28 37 16 38 62
44 47 68 59 37 84 15
50 45 59 95 31 73 79
88 52 76 81 83 81 46
79 60 91 65 49 99 80
25 91 11 88 27 79 57
80 85 51 95 81 79 66
87 23 94 37 36 61 83
91 75 16 71 65 51 13
84 89 37 66 87 29 35
44 24 90 21 60 51 13
28 88 52 13 82 97 94
22 15 20 67 49 72 16
80 69 95 94 52 85 84
78 46 85 89 22 14 94
58 17 85 27 40 17 53
39 53 25 99 97 18 26
14 59 32 23 93 37 25
87 52 71 47 56 28 18
43 14 18 21 69 45 96
60 97 90 61 32 26 20
42 61 71 89 84 17 75
29 66 67 76 40 66 92
24 77 38 94 29 76 90
17 39 39 12 10 21 21
16 36 49 53 65 16 28
41 13 45 12 95 31 60
24 92 30 79 78 36 76
18 23 78 12 58 90 68
44 81 87 23 42 82 73
74 69 36 33 39 89 80
40 83 28 33 58 37 62
20 27 73 70 77 42 74
72 42 36 94 73 57 13
19 23 34 61 67 97 64
19 52 60 75 69 63 82
14 47 85 73 46 26 68
37 85 57 46 93 34 100
98 60 45 96 19 87 58
19 89 80 62 53 85 52
40 79 35 58 88 48 15
77 37 33 21 36 45 37
96 30 68 73 46 25 22
67 64 23 17 82 67 71
82 91 38 49 69 48 14
85 54 91 36 68 43 28
96 62 69 26 86 96 67
49 41 56 67 87 70 69
43 32 92 22 26 94 11
99 33 27 22 79 27 76
19 85 42 69 55 89 93
40 28 84 82 81 99 26
32 71 93 67 79 95 51
72 14 58 70 82 32 72
18 78 18 90 23 38 47
0.471459
0.272073
0.262974
0.458473
0.429642
0.425761
0.226188
0.458638
0.238533
0.346482
0.128744
0.408592
0.316588
0.329722
0.481973
0.300109
0.484715
0.100892
0.216726
0.101674
0.330908
0.35367
0.25202
0.404354
0.493596
0.340364
0.405115
0.486763
0.12951
0.40289
0.270135
0.167628
0.20443
0.443097
0.459811
0.330929
0.39484
0.189161
0.332387
0.431054
0.486624
0.486307
0.30604
0.209951
0.152644
0.451943
0.29068
0.455794
0.399142
0.453368
0.471678
0.284409
0.444112
0.347708
0.449298
0.243923
0.497532
0.297077
0.3597
0.442324
0.46629
0.350649
0.196716
0.387041
0.206374
0.435251
0.106906
0.42441
0.388432
0.219015
318 66
46 203
311 290
243 326
432 347
494 241
70 300
366 171
62 104
243 48
171 170
173 272
391 151
191 274
381 495
253 101
223 264
225 411
192 426
129 445
178 480
167 200
53 461
152 481
266 465
325 295
310 86
153 400
268 188
262 374
7 399
201 266
121 63
71 239
153 140
110 409
423 179
466 304
74 206
49 227
168 142
44 95
0 168
378 370
339 133
253 373
257 492
243 248
473 500
213 293
178 305
345 165
1 164
247 256
48 283
52 391
333 465
45 39
147 85
389 300
425 389
109 74
140 456
146 41
491 32
5 396
53 369
26 238
291 121
303 227
4755
4
