70
7
0 0 0 0 0 0 0
64 76 25 48 17 17 69
75 82 86 16 61 38 54
68 42 86 63 48 60 20
91 33 84 87 11 10 67
52 10 20 29 40 89 48
13 30 55 75 84 34 60
27 50 79 11 56 80 54
28 47 96 70 41 37 56
11 34 32 86 53 34 33
100 100 26 99 77 39 22
88 88 96 39 87 10 37
22 87 99 47 19 39 38
57 60 38 99 98 59 11
55 31 30 33 63 64 99
13 15 68 43 55 49 10
12 35 23 23 26 31 12
20 34 44 80 76 54 46
51 99 17 91 59 68 86
11 100 13 76 97 98 85
86 21 26 13 74 52 100
26 34 52 98 35 88 50
100 90 49 62 16 44 72
54 19 96 18 89 63 92
96 15 59 13 44 18 100
99 43 81 62 53 39 32
77 88 16 41 42 27 83
39 49 70 22 92 92 42
100 90 11 61 40 15 18
62 55 51 37 15 13 93
58 50 89 77 54 22 82
86 41 20 90 95 51 22
35 12 20 75 65 49 95
69 45 95 52 41 26 32
97 64 93 10 92 100 61
69 87 14 53 97 81 58
97 78 28 13 97 92 99
36 33 79 36 10 94 52
25 65 99 47 86 41 13
59 44 67 59 20 48 37
24 21 30 96 61 51 13
21 62 26 78 84 55 47
19 54 47 52 33 16 98
49 79 23 56 63 94 81
40 22 89 99 33 74 79
78 64 83 23 36 69 58
79 33 67 69 83 89 51
53 23 91 30 36 12 100
99 87 77 10 43 41 85
89 23 17 25 25 42 39
85 88 65 94 19 11 71
88 77 34 63 57 20 82
75 69 82 61 90 58 80
80 51 23 14 72 14 24
73 18 34 23 63 47 77
21 27 36 32 79 15 34
23 37 26 13 36 72 81
45 42 17 62 38 56 61
35 55 100 67 62 64 46
28 45 88 64 39 41 13
15 38 75 21 84 13 42
92 74 95 55 64 18 88
46 54 44 93 59 61 80
55 68 86 68 89 55 79
30 55 25 49 21 26 43
24 44 71 97 64 37 84
39 44 79 17 78 36 75
19 78 25 69 47 66 60
90 58 87 65 23 96 18
90 87 85 89 56 25 32
1.32899
1.3569
1.15445
0.990359
1.90155
1.69267
1.34417
1.60292
0.421369
1.28972
0.439688
1.23062
1.69429
1.25146
1.21185
0.433232
0.719093
1.68299
1.72968
1.04101
0.46122
0.576355
1.58825
1.59805
0.572092
1.50089
1.83003
1.79512
0.640686
1.3886
1.4005
1.29785
1.03821
0.580147
1.26833
1.07522
0.74609
0.472182
0.815524
1.0853
0.411317
1.90708
1.98917
1.73479
1.92965
1.0757
1.97017
1.31558
0.795614
0.895008
1.07726
0.92499
0.927618
0.404875
0.901634
1.95576
1.79556
0.477923
1.87216
0.789636
0.631987
1.63398
0.417859
0.445582
1.50664
1.33475
0.780843
1.59632
1.33764
0.905042
420 133
329 146
449 402
221 325
44 406
31 46
90 159
282 198
34 243
305 84
13 268
370 121
18 169
254 9
119 314
232 324
366 8
103 437
165 153
441 57
122 105
111 490
20 206
312 299
75 23
356 89
482 314
270 425
1 331
410 261
447 29
440 194
116 22
76 316
70 176
176 24
345 208
243 458
69 456
446 53
270 303
398 255
237 451
183 386
156 205
465 23
119 54
380 236
248 197
185 11
209 81
27 261
10 423
229 255
423 42
3 67
374 167
341 248
114 415
47 400
114 477
281 31
179 1
479 78
236 152
107 316
29 6
207 361
210 363
178 31
3744
5
