70
7
0 0 0 0 0 0 0
50 33 69 87 67 16 29
35 29 32 51 69 71 91
91 98 12 29 57 33 25
54 10 12 70 95 14 41
35 43 69 57 72 25 42
20 12 59 45 100 10 53
19 53 79 19 92 46 88
17 88 96 26 97 74 86
63 77 51 66 44 90 52
17 96 40 31 60 52 52
58 48 26 96 65 72 37
26 81 60 70 67 39 37
21 52 19 52 27 84 44
62 64 79 35 15 93 17
15 13 64 19 47 44 39
68 59 52 80 69 30 26
76 59 31 66 71 33 75
10 42 52 21 89 86 65
39 38 26 59 60 66 53
19 61 20 49 17 13 19
14 18 62 27 95 44 26
94 62 85 100 26 89 76
90 60 21 43 81 84 59
45 63 48 41 24 70 85
32 97 51 59 42 85 92
85 86 46 45 86 11 94
77 43 92 85 20 86 43
23 42 12 99 45 61 96
96 65 77 95 98 15 39
34 80 67 90 69 63 94
35 77 29 19 26 65 45
48 78 10 90 10 72 12
29 66 26 64 16 48 21
88 10 40 59 89 88 30
38 12 56 69 34 41 45
49 35 94 78 23 86 29
59 45 36 76 29 79 98
45 88 53 87 42 55 85
27 28 39 29 21 25 81
82 96 51 21 79 86 16
25 57 87 12 10 49 33
44 79 21 31 58 45 10
41 80 34 97 37 71 72
55 50 100 56 72 29 29
97 28 41 69 24 46 97
25 51 23 40 36 22 66
36 69 13 67 53 31 32
57 96 18 61 15 93 14
96 38 77 35 93 33 41
65 81 100 29 15 84 94
54 76 14 30 60 77 63
100 89 87 17 16 67 85
99 41 71 92 62 49 82
10 39 39 14 11 42 18
51 22 21 69 55 84 85
45 64 29 74 52 33 42
14 37 93 68 15 89 40
98 12 56 23 96 61 43
23 87 84 19 21 100 53
85 43 38 19 74 29 46
95 51 46 26 82 32 34
29 10 88 78 39 44 99
13 96 51 27 93 35 90
100 92 60 83 25 45 94
43 22 77 32 56 22 38
69 91 63 84 17 49 77
62 10 70 62 14 56 74
33 92 71 94 38 29 55
53 53 94 43 72 79 95
1.38721
1.12388
0.675601
2.36
2.1889
0.905995
1.7148
1.3012
2.48544
0.885369
1.63158
2.22569
2.21624
1.38679
0.736357
0.984081
2.20092
2.20389
0.790282
0.965592
1.04405
1.44854
2.38552
0.72951
1.21002
1.79427
1.71994
1.11133
2.10127
1.12437
2.12891
0.762744
1.40587
1.88538
0.914597
0.88764
0.514769
2.28022
0.914435
2.19584
2.40773
2.13588
2.24433
1.87819
0.935531
2.3884
2.23566
0.797514
2.34533
0.680939
1.7356
1.87993
2.4892
1.8797
0.81166
1.86124
0.820208
2.17512
1.01747
1.89675
0.758103
1.96151
1.36327
1.35606
1.21814
1.66802
1.91948
0.606055
1.56234
2.35649
5 269
299 322
250 337
476 153
206 497
121 37
64 116
61 387
301 211
445 416
57 193
320 108
204 278
166 202
293 307
400 35
103 252
50 57
216 444
203 188
480 338
444 496
46 168
214 61
324 33
136 40
182 152
265 59
65 109
173 495
386 323
184 180
359 402
459 466
94 306
444 337
114 188
399 8
292 461
415 211
388 440
426 348
261 469
366 334
47 261
331 255
182 326
427 445
9 385
255 313
391 217
86 18
140 496
34 311
68 284
257 145
42 423
9 454
195 100
485 192
119 252
405 55
426 62
184 138
473 231
254 354
30 58
116 54
171 173
61 261
3697
5
