70
3
0 0 0
82 64 45
99 66 74
75 99 42
67 40 17
58 91 74
22 62 57
90 68 21
55 34 17
93 25 97
27 47 88
19 17 39
75 69 25
55 64 92
24 74 54
22 19 14
13 32 56
87 67 45
12 21 21
54 24 69
77 46 20
38 98 50
20 18 37
75 90 98
11 36 67
43 28 92
37 48 33
39 46 63
42 51 54
38 73 54
99 63 43
68 26 49
45 32 13
50 28 14
69 68 51
28 99 61
46 45 84
56 65 37
82 58 12
66 38 47
78 30 80
82 92 11
34 18 14
51 47 15
61 79 81
77 57 80
27 41 85
32 13 11
59 25 14
86 29 17
68 15 32
71 81 100
68 69 68
86 86 35
93 26 77
69 38 11
26 88 60
19 27 72
94 85 100
31 35 41
11 53 59
83 11 48
16 78 16
54 22 91
39 18 36
43 39 82
70 65 47
94 90 91
91 67 23
71 27 54
1.06671
0.847512
0.905815
0.720911
0.941365
1.36369
1.28985
0.447043
0.959774
0.418617
0.376771
0.462161
1.24123
1.13559
0.693651
0.392585
0.896203
0.766755
1.41004
0.611565
0.974669
0.565694
1.32864
0.513642
0.489211
1.13122
0.940483
1.33905
0.582222
0.359335
0.599134
1.35502
0.837996
0.307397
0.368379
0.982875
0.521876
0.7355
0.689337
1.2563
1.39957
0.883396
1.29381
0.326239
0.35684
0.745671
0.594099
1.2845
1.33484
0.372027
0.406668
0.838875
1.061
0.804601
0.547089
0.778753
0.3206
0.942645
0.985969
0.338075
0.889327
1.3403
0.519601
0.917488
0.391476
1.46416
1.04816
1.1368
1.01839
1.36687
17 258
397 195
423 159
444 352
210 186
333 192
469 160
367 149
54 84
435 314
274 14
230 94
294 3
344 343
214 267
446 365
224 426
119 88
155 383
214 201
228 484
300 387
273 142
482 257
24 355
114 329
490 56
294 127
388 86
5 71
229 127
181 60
100 325
260 345
272 204
347 89
310 251
322 394
328 61
167 281
152 388
42 358
24 406
265 372
153 229
133 483
265 450
313 304
218 202
438 356
25 78
456 255
181 406
187 265
458 295
176 36
5 26
81 54
45 150
285 154
113 436
467 427
211 204
450 276
388 178
348 433
40 452
222 310
369 243
76 247
9007.5
2
