70
7
0 0 0 0 0 0 0
13 40 81 70 75 36 66
12 19 47 85 79 60 57
99 64 27 41 85 45 60
44 47 69 24 39 39 69
94 46 37 57 74 67 98
68 15 32 78 80 37 42
18 68 39 34 13 27 76
17 18 70 90 77 54 21
47 89 23 65 84 100 57
27 95 76 30 92 14 58
45 29 19 88 19 42 14
77 72 95 47 14 86 44
76 34 55 33 79 89 80
88 65 40 42 92 67 55
84 15 99 81 28 79 58
42 61 62 85 87 52 49
100 32 46 11 64 45 88
47 57 21 54 80 12 52
58 40 86 41 43 52 11
10 75 53 53 17 11 72
23 99 81 41 97 89 44
89 89 95 61 52 78 36
28 40 67 63 32 51 57
22 72 60 30 77 74 12
85 96 36 51 82 43 67
80 18 22 87 83 67 11
16 33 27 23 90 98 21
26 71 70 66 15 22 88
33 75 15 11 78 20 70
46 56 64 63 70 65 67
19 88 58 26 44 76 96
77 68 24 78 48 98 67
94 53 23 94 98 13 71
87 75 79 94 64 67 19
36 99 76 72 49 52 78
82 52 69 88 96 38 71
92 47 53 71 42 10 61
13 69 36 66 97 82 66
41 27 19 26 70 61 72
56 86 52 76 15 51 80
91 27 32 77 82 68 72
30 19 66 91 87 10 89
96 82 16 74 29 82 37
75 57 96 50 10 54 98
32 85 84 40 74 20 68
98 80 68 44 28 29 26
48 48 29 49 41 19 64
37 32 62 10 76 100 13
54 100 25 58 14 16 18
76 31 62 80 82 41 29
68 57 46 66 94 76 65
31 58 89 93 85 19 23
41 48 12 29 83 59 95
34 70 17 71 40 84 46
38 58 11 48 34 40 64
100 53 95 58 61 72 64
46 93 36 53 66 70 26
65 15 78 49 23 58 65
90 40 23 20 49 16 22
30 22 98 36 15 28 73
68 10 91 30 36 66 85
75 29 13 55 62 82 54
74 96 29 92 72 99 68
74 83 52 58 36 21 62
93 60 85 32 37 93 21
89 91 90 51 64 23 25
65 90 23 64 59 35 20
49 31 73 57 68 72 17
100 94 68 18 29 19 36
0.132784
0.242423
0.41912
0.203375
0.348835
0.399749
0.264264
0.264969
0.230938
0.330909
0.161765
0.419336
0.367561
0.404785
0.129597
0.485798
0.343195
0.13418
0.311139
0.151344
0.382593
0.275214
0.120362
0.154557
0.218174
0.29206
0.41349
0.423358
0.241055
0.216769
0.149614
0.202367
0.358054
0.255954
0.239132
0.129604
0.380555
0.29954
0.397219
0.38023
0.318537
0.176212
0.230454
0.295784
0.219805
0.143482
0.461012
0.179548
0.309532
0.203054
0.232712
0.445531
0.310967
0.31847
0.243123
0.239132
0.208334
0.347717
0.366562
0.133648
0.357749
0.225156
0.295488
0.448088
0.342008
0.164104
0.384323
0.226855
0.160903
0.474272
36 461
268 451
231 111
347 108
374 214
5 10
431 468
33 468
387 247
365 129
43 254
40 11
136 14
142 237
159 301
105 87
495 416
48 219
387 292
387 376
365 51
369 386
58 355
357 143
253 389
466 407
146 163
116 59
368 486
279 322
263 398
464 361
381 123
132 274
95 237
71 322
249 89
387 73
88 260
407 182
101 154
241 71
163 267
253 100
415 428
180 455
330 94
338 221
127 231
253 81
339 462
380 415
258 164
215 90
356 186
352 73
158 389
217 112
107 200
133 93
141 393
223 392
419 368
472 10
265 348
268 197
154 343
434 427
472 136
367 49
9597.5
2
