70
9
0 0 0 0 0 0 0 0 0
63 42 84 48 25 70 71 33 61
82 52 27 95 90 72 62 96 42
53 51 39 62 11 52 53 73 38
44 59 34 97 81 76 24 63 70
18 70 27 90 40 74 66 23 14
59 68 31 89 72 56 10 13 46
50 93 36 55 55 94 39 69 32
76 82 11 44 97 66 61 56 12
34 51 37 95 52 88 44 70 57
72 72 22 49 57 13 67 47 61
16 88 12 19 34 51 32 35 87
79 57 40 26 39 27 50 12 76
62 31 89 54 69 67 84 90 66
95 67 83 12 56 82 23 62 20
27 96 75 26 93 66 13 36 95
43 50 22 14 87 61 89 56 46
38 93 13 35 49 23 37 66 97
13 10 91 21 50 95 81 20 79
60 93 26 52 35 41 61 88 12
38 42 25 97 68 55 28 78 63
13 52 23 14 63 88 15 94 28
77 39 26 69 20 56 74 38 19
19 75 88 80 86 94 73 71 40
27 75 59 22 29 11 55 28 83
62 37 95 92 48 98 85 50 99
69 80 98 82 84 76 96 76 64
79 97 97 48 25 62 95 87 53
66 45 99 23 39 12 73 54 63
96 92 90 47 94 68 41 65 99
10 30 22 59 49 73 27 24 96
17 61 16 42 13 10 44 16 13
46 40 78 44 82 65 79 56 30
72 55 57 53 62 93 19 12 53
69 52 92 62 43 98 54 25 72
63 79 94 53 37 63 98 24 73
46 29 20 54 84 55 42 35 100
68 67 90 39 85 23 51 12 62
35 46 69 91 25 30 69 22 95
96 80 74 100 10 28 30 24 94
26 77 97 17 11 23 30 90 12
11 11 83 38 62 31 59 55 23
10 35 57 36 51 57 54 16 12
85 56 95 96 38 82 97 77 45
65 37 14 86 93 25 87 18 80
92 37 100 99 66 75 71 70 96
20 91 74 80 99 36 74 69 78
41 67 96 96 70 26 94 81 47
27 13 94 88 70 33 81 13 15
67 20 29 56 75 71 70 90 88
11 31 14 26 16 37 35 81 44
32 18 15 65 32 50 43 30 95
51 100 57 32 15 36 95 31 92
17 96 50 12 72 34 88 24 19
16 19 68 62 77 33 22 29 79
39 64 64 36 57 13 23 84 95
43 70 62 33 69 15 63 36 43
74 40 49 58 40 19 23 69 75
73 10 63 93 52 93 12 90 97
66 92 50 13 100 31 37 12 31
15 90 23 86 33 13 47 62 85
40 21 43 26 52 62 74 86 94
57 77 53 84 17 21 95 38 95
30 95 59 52 35 95 21 98 71
12 90 38 92 93 29 46 67 98
28 80 53 99 86 40 73 75 13
100 93 73 14 90 66 24 86 40
75 80 80 84 73 34 87 31 37
82 99 22 27 16 48 15 18 50
81 98 14 47 21 70 57 22 84
0.823373
1.18089
1.3196
0.981131
0.471038
0.588749
0.702553
0.3853
1.02576
0.497847
1.34106
1.42244
0.478456
1.21647
0.947636
0.884251
0.850558
1.00746
0.582064
0.606509
1.17384
0.88294
1.04467
1.01402
1.3654
0.919615
1.33931
1.49187
1.44614
1.06641
0.569325
1.16785
1.28869
1.28422
0.512121
1.36756
0.627263
0.476036
0.376728
0.479171
0.458614
1.17122
0.366459
0.461061
1.43724
0.338464
1.10366
1.21106
0.89771
0.909023
0.59265
1.1439
0.642949
1.12119
0.520181
1.40367
1.05362
0.884653
0.646452
0.850515
0.699391
1.26651
0.865544
1.14842
0.834502
0.949393
1.07405
1.15396
0.749786
1.29853
51 53
243 297
325 86
463 392
332 19
331 488
349 42
462 405
153 433
194 38
417 187
390 141
327 204
385 207
208 208
244 469
104 495
167 486
193 181
235 260
367 57
86 233
363 229
475 464
192 107
294 31
245 238
475 312
94 227
319 119
315 96
28 494
153 33
292 280
25 96
373 208
212 419
360 79
406 278
272 162
387 178
176 173
124 341
250 362
146 19
227 3
431 122
18 382
426 105
423 354
162 3
150 242
245 431
82 162
365 352
348 352
196 385
351 453
78 25
253 173
427 170
500 273
392 360
75 247
390 271
69 203
151 270
417 187
92 245
308 314
9522.5
2
