70
11
0 0 0 0 0 0 0 0 0 0 0
66 67 17 70 87 65 88 25 82 26 41
64 81 29 61 93 63 18 14 97 21 65
64 37 93 64 42 38 59 48 35 20 50
19 86 100 26 49 47 26 20 44 23 15
22 10 42 12 71 64 13 48 69 39 87
23 15 51 62 71 93 61 74 67 40 51
21 72 13 29 17 94 91 11 51 42 48
86 42 34 95 95 48 45 95 82 81 58
64 11 47 93 34 18 82 24 72 62 74
33 19 77 66 15 89 60 51 72 81 68
59 26 25 45 22 26 79 44 80 15 81
60 90 57 17 57 10 78 29 86 79 79
44 76 33 10 28 69 28 17 71 80 74
95 95 41 86 42 90 42 33 11 63 57
14 26 99 66 80 92 95 81 59 28 31
69 70 81 79 73 44 16 93 48 30 59
12 76 70 25 25 99 76 57 42 27 21
72 100 19 56 53 15 60 91 61 89 92
26 51 37 52 71 13 68 68 40 43 22
46 13 98 55 66 83 21 61 94 34 28
83 71 17 91 22 20 78 79 29 46 58
44 50 21 73 17 59 53 83 23 71 60
29 12 25 30 29 85 34 91 44 62 11
21 64 71 94 26 62 63 97 43 33 18
50 13 26 43 10 86 93 79 29 49 52
43 88 23 74 86 51 25 88 99 96 98
46 86 56 29 12 23 76 53 20 18 11
92 95 50 14 62 55 80 58 15 36 34
18 23 21 95 37 66 95 47 79 25 58
39 40 68 62 79 49 85 72 85 80 58
86 13 98 63 92 42 19 28 97 49 11
71 60 35 77 24 53 97 54 91 21 64
91 97 67 71 92 24 72 41 26 57 47
83 68 72 28 93 93 60 31 69 66 33
98 19 47 26 98 57 24 11 88 58 72
52 58 51 73 91 35 53 10 63 30 91
95 31 41 14 83 12 81 94 12 55 54
94 11 80 51 22 61 63 50 33 84 84
77 72 42 98 71 77 50 33 71 94 74
16 40 53 83 32 32 58 46 54 12 63
86 97 11 26 49 89 59 97 34 24 24
84 30 65 90 32 76 80 95 43 94 93
96 48 80 33 14 52 94 34 67 90 92
86 30 13 35 92 87 86 34 52 11 44
51 44 56 58 29 17 10 53 29 64 95
35 83 78 86 21 61 22 62 90 81 35
85 46 36 27 82 77 59 34 59 37 59
61 69 83 50 16 48 69 23 97 22 56
11 86 35 43 55 68 59 31 54 26 15
99 17 48 30 31 82 28 79 17 81 81
15 24 55 18 59 31 43 85 50 47 68
52 37 79 47 27 90 79 43 22 71 54
58 61 85 20 44 90 71 53 57 35 49
48 79 64 64 10 75 69 42 19 77 17
20 27 11 59 86 12 51 43 37 73 80
27 48 68 88 100 94 62 79 88 84 76
28 37 32 39 93 39 13 12 28 66 32
24 95 75 81 14 58 67 42 45 12 55
65 54 100 26 82 85 33 53 93 10 17
73 22 28 50 71 71 74 46 72 27 70
71 70 20 75 32 57 79 97 47 37 73
84 60 89 33 10 68 76 28 78 89 92
27 70 44 44 60 44 32 68 59 48 49
38 47 66 25 28 77 90 47 18 28 62
11 37 30 27 50 64 54 23 82 21 86
29 57 66 79 83 34 11 31 100 62 49
71 47 53 33 47 59 93 27 93 10 76
13 14 71 37 21 22 21 35 45 23 86
86 37 28 49 11 41 99 70 94 52 92
1.01915
1.42341
1.70033
1.77892
0.804998
0.661395
0.947447
0.974434
1.08106
0.721456
1.90176
0.536357
0.915698
1.3073
0.642421
0.698884
0.599467
1.13677
1.44641
0.886619
1.17269
0.855161
1.44758
0.662817
1.81813
0.684014
0.625076
1.18788
1.58386
1.14368
0.652385
1.67206
1.20895
0.738153
1.66618
1.62513
1.86518
1.92985
0.960296
0.462646
1.02873
0.871468
0.671439
0.610621
1.7532
1.69454
1.1647
1.62197
0.857386
0.574117
1.06753
1.84935
1.48675
1.83637
0.716454
0.792355
1.85209
1.83851
1.84385
0.78351
1.006
1.07153
1.91254
0.512371
1.77273
1.77476
0.879545
0.656557
1.14098
0.960689
313 488
61 135
161 190
307 17
281 233
225 51
45 38
441 395
96 313
157 431
182 156
449 290
403 197
432 95
476 294
322 436
303 139
270 51
141 122
312 451
46 9
94 315
7 68
416 7
450 312
365 122
158 66
47 300
154 474
214 407
76 318
303 172
433 499
387 20
4 306
154 242
234 192
84 52
279 438
327 293
180 369
45 93
161 118
337 353
437 328
411 218
301 446
139 100
479 305
27 209
163 296
67 280
107 446
458 323
359 250
434 36
98 312
283 97
211 406
383 281
377 420
245 292
123 492
297 438
143 231
71 260
486 462
479 183
412 336
120 135
18600
1
