70
9
0 0 0 0 0 0 0 0 0
38 74 78 48 56 95 68 90 68
43 35 56 94 58 85 56 83 30
68 65 66 99 90 12 20 44 92
67 15 68 28 88 34 48 79 55
27 20 33 35 20 17 51 68 42
23 89 35 24 63 71 88 59 14
17 11 24 92 25 69 81 63 94
79 60 21 50 67 54 98 14 74
52 87 52 38 77 30 79 89 65
61 27 91 73 16 44 36 100 83
25 60 67 90 36 65 53 57 40
74 76 39 14 70 96 77 87 33
81 28 53 10 37 28 76 32 100
32 57 32 50 96 33 34 11 95
17 88 27 55 80 51 45 18 78
14 95 13 15 62 60 76 74 80
62 30 14 49 40 35 18 60 57
51 57 64 88 29 19 76 23 14
40 49 82 58 66 45 87 22 45
11 74 86 50 29 29 22 74 31
30 38 54 13 85 95 23 52 16
79 54 26 63 10 49 73 35 74
74 28 71 48 96 39 31 23 56
93 52 54 42 74 63 18 84 10
71 88 18 29 49 64 29 63 62
23 56 88 55 98 18 86 31 18
13 35 26 77 100 49 94 48 75
22 57 50 29 76 20 85 68 80
80 19 97 70 32 61 58 29 46
85 22 52 61 12 57 64 71 72
58 37 27 27 99 40 96 61 19
93 69 65 89 51 54 68 69 78
82 47 100 46 56 66 77 79 73
79 42 89 75 75 97 89 42 63
28 67 72 40 84 69 39 32 48
70 32 59 60 24 48 23 93 40
59 59 23 46 44 31 12 26 91
69 56 29 26 57 82 22 22 57
77 23 20 95 65 34 71 68 70
92 70 61 84 84 42 41 36 22
73 39 17 89 61 29 88 60 81
10 14 22 82 62 91 22 29 96
32 72 63 15 17 77 46 85 47
82 87 55 50 73 84 29 35 94
75 26 19 89 35 58 64 48 24
38 34 83 32 74 94 99 76 65
53 31 11 65 11 43 15 15 87
82 98 75 37 68 77 37 99 12
71 67 25 57 26 29 63 74 24
23 62 32 39 61 65 29 84 64
32 52 27 87 100 11 63 95 21
85 30 93 32 17 52 47 65 48
85 71 40 42 54 65 94 57 23
14 66 30 60 48 50 77 55 41
67 98 39 20 29 47 98 85 36
77 86 66 77 84 35 65 63 31
60 10 54 26 15 72 93 81 21
97 29 73 83 45 80 51 47 28
95 91 77 48 60 60 44 60 81
16 58 84 63 28 72 34 92 84
95 28 94 15 22 55 95 67 39
85 24 86 63 93 45 79 24 98
13 69 39 39 22 30 21 14 45
98 21 52 43 73 51 14 93 34
81 55 20 71 89 31 63 10 30
68 72 30 11 97 89 18 74 78
15 88 38 63 97 92 22 53 14
12 47 39 41 56 82 63 55 69
40 51 64 11 83 58 25 42 60
1.2186
0.591533
0.426227
1.40206
0.969186
0.934078
1.29386
1.26841
0.999134
1.01166
1.08628
1.31524
1.02138
0.636679
0.467659
0.470438
1.11529
0.398471
1.20464
1.48222
1.40769
0.975102
1.09533
1.07116
0.685091
1.32968
1.00799
0.808029
0.730538
1.40324
0.839653
0.573308
0.838665
1.07427
0.880138
0.548392
1.04536
0.96377
1.0762
0.597428
1.16655
0.735626
0.423106
1.02934
0.613003
1.26444
0.377849
1.05037
1.26726
0.375829
0.732101
0.664537
0.499266
0.449487
1.06443
0.830372
1.15747
1.36026
1.44187
0.33379
1.32681
1.22587
1.06118
1.17389
0.352307
0.844322
0.304439
0.751692
1.00232
0.360709
276 452
123 216
96 25
3 92
38 138
240 255
21 150
406 37
290 449
476 418
123 344
463 98
292 329
56 18
199 463
431 255
264 105
150 500
354 230
274 52
164 311
146 281
450 326
0 381
83 180
60 38
114 395
324 497
232 216
253 340
121 335
1 100
348 45
144 231
445 346
419 53
431 260
476 328
53 161
330 72
10 123
197 385
482 162
427 183
383 279
405 2
358 215
229 124
224 120
112 94
76 306
136 269
66 92
491 129
52 398
123 487
11 367
331 492
195 155
300 450
421 485
355 137
46 230
297 285
126 318
300 416
459 28
465 61
138 74
135 317
3757
5
