70
11
0 0 0 0 0 0 0 0 0 0 0
14 36 26 15 87 89 16 20 41 44 80
31 28 89 75 76 80 72 45 98 76 74
59 74 54 100 13 60 45 83 45 24 12
65 33 27 36 48 32 28 47 66 11 72
65 49 16 87 100 65 87 30 87 53 59
73 58 51 97 54 29 35 58 13 17 85
62 73 40 78 92 52 27 72 23 56 44
72 15 67 83 61 31 51 68 23 65 17
21 52 50 30 60 13 70 73 42 31 19
89 54 14 98 28 34 74 38 21 65 56
41 22 39 93 43 59 38 67 63 33 25
63 22 90 24 47 75 49 51 11 75 58
85 86 37 71 82 23 55 16 29 39 35
14 60 18 47 99 29 78 58 68 92 84
59 99 63 25 88 26 40 51 52 56 21
85 12 74 84 71 21 29 22 18 33 52
90 96 69 57 17 48 23 23 87 37 71
84 45 57 75 39 71 65 55 79 80 38
59 17 48 27 94 11 54 56 17 38 81
11 57 100 54 12 34 73 25 36 83 86
61 49 84 60 41 77 26 37 60 15 51
89 83 43 68 84 63 68 32 93 60 71
98 18 68 93 17 34 70 88 76 68 100
13 68 34 28 29 26 29 29 79 83 48
11 15 75 29 86 99 96 88 39 64 55
82 83 100 68 38 38 62 74 23 90 63
61 59 34 13 74 30 34 72 58 60 50
11 12 61 94 48 29 76 29 14 49 97
61 31 60 94 79 27 95 44 91 84 14
55 77 19 50 30 11 77 38 56 68 82
10 35 66 46 70 10 82 57 70 63 69
22 79 18 93 16 23 37 35 35 51 85
61 23 48 73 62 70 16 23 17 32 17
68 33 90 60 67 41 45 38 20 97 19
56 39 18 42 34 39 33 70 84 27 86
72 39 97 39 53 66 40 56 61 16 82
77 23 78 80 85 92 34 57 93 52 20
83 99 97 45 49 56 81 96 87 21 75
21 38 60 29 52 63 31 55 87 88 14
34 14 92 66 48 14 27 18 34 75 67
79 19 15 72 29 90 80 98 11 46 74
43 90 23 29 28 53 62 49 61 30 72
29 75 88 53 90 46 63 31 48 97 76
16 56 57 74 98 80 37 70 43 39 78
53 73 38 51 50 14 13 91 28 37 84
53 42 90 29 91 81 80 95 48 31 28
20 85 86 93 89 50 89 99 65 82 87
77 77 27 77 41 59 96 77 53 51 46
74 36 36 90 42 51 91 71 17 27 60
14 31 64 78 62 90 11 75 23 83 32
93 93 71 35 45 19 36 49 12 72 82
85 63 51 67 47 23 41 48 12 17 17
76 89 87 30 38 68 97 33 85 57 74
73 99 23 31 64 46 98 10 69 24 28
72 53 11 71 66 25 24 85 68 93 37
81 22 40 22 22 20 63 13 71 80 34
69 96 75 46 78 86 54 29 48 25 86
93 78 36 55 88 22 47 38 39 24 84
16 96 80 10 88 51 87 62 73 71 77
10 84 14 36 68 82 69 88 24 75 86
37 84 35 56 89 98 84 50 41 78 48
68 29 22 61 80 19 64 63 29 93 19
19 14 10 34 78 52 47 39 100 47 60
33 39 48 71 25 78 20 98 25 70 38
32 44 24 89 20 61 82 93 78 61 84
89 54 45 20 12 65 84 94 96 93 93
51 75 92 72 60 93 81 29 44 24 50
93 88 37 97 76 14 60 69 84 13 37
22 70 73 41 42 99 11 89 87 38 23
0.446989
0.37382
0.450269
0.172293
0.149268
0.347573
0.490348
0.226285
0.129169
0.118044
0.335415
0.489631
0.367384
0.258383
0.448362
0.325121
0.143173
0.468342
0.269433
0.366283
0.416322
0.394608
0.18993
0.162732
0.457287
0.313023
0.143591
0.406285
0.37377
0.120221
0.352759
0.152392
0.38983
0.436724
0.336467
0.432646
0.244816
0.259704
0.327723
0.298849
0.280293
0.374055
0.369729
0.1854
0.396085
0.398402
0.440659
0.318704
0.236005
0.293924
0.231423
0.150829
0.268891
0.223195
0.486511
0.321239
0.29755
0.108094
0.253321
0.238
0.427937
0.122499
0.219203
0.241507
0.190916
0.251727
0.296503
0.26821
0.178648
0.442076
104 405
226 111
233 434
223 314
405 253
173 405
25 429
246 32
481 360
465 323
16 308
311 449
286 341
441 489
204 324
183 491
259 292
407 282
255 6
371 461
141 481
264 164
459 48
166 109
304 318
279 466
217 215
482 369
234 336
261 89
207 472
355 184
169 412
51 143
224 348
491 242
135 153
456 294
143 450
56 85
108 313
149 168
476 419
343 431
52 394
100 463
49 162
37 100
268 63
416 139
213 299
322 197
285 298
141 326
65 354
313 290
456 351
231 219
452 44
77 308
445 105
433 81
90 244
347 368
172 433
241 331
481 109
306 485
188 325
166 430
6291.67
3
