70
9
0 0 0 0 0 0 0 0 0
57 52 53 18 14 92 80 41 41
100 55 70 71 88 87 28 34 24
85 33 41 21 77 52 90 28 30
85 80 42 10 10 59 74 94 38
69 35 62 48 46 34 48 36 73
99 24 70 32 34 58 28 94 73
91 85 18 89 84 77 100 30 53
22 100 72 97 86 22 99 33 36
54 39 15 33 82 58 21 95 74
95 41 52 36 51 43 20 23 72
10 58 62 29 69 82 68 34 42
26 34 87 46 76 38 89 75 79
23 31 54 49 11 40 30 98 92
42 79 12 25 24 51 51 37 86
18 18 84 88 48 60 70 49 34
31 90 40 82 49 41 31 86 73
91 60 29 55 20 97 38 92 16
75 89 100 58 70 44 17 62 77
36 58 32 62 14 37 53 95 36
54 44 91 78 63 63 100 62 89
74 30 90 20 35 29 32 66 82
99 39 36 40 18 49 37 43 98
61 39 24 77 54 15 98 37 64
52 44 64 73 79 21 73 60 86
81 42 74 15 22 69 88 72 43
42 36 55 23 35 73 83 62 58
16 17 18 29 55 12 77 92 56
84 50 13 75 79 91 97 60 99
89 12 62 69 49 47 46 30 35
45 70 31 57 90 54 51 62 99
68 36 41 78 65 70 15 32 65
36 89 52 44 34 94 94 32 25
25 38 85 42 14 38 80 70 15
29 42 79 79 81 35 79 48 63
87 52 70 28 43 83 44 47 31
14 64 20 32 63 68 82 25 61
50 35 10 28 28 16 94 71 40
85 92 35 18 76 74 90 61 59
28 63 25 61 71 91 13 45 77
13 98 45 63 24 69 89 12 92
50 36 94 64 76 39 70 39 38
92 69 95 89 49 23 23 47 75
90 15 50 30 21 31 94 83 84
41 88 38 65 16 26 57 58 68
69 80 74 96 45 69 19 75 25
47 51 13 60 90 40 50 15 56
64 90 95 77 27 50 12 18 28
49 18 48 72 63 50 69 32 47
54 66 24 18 16 34 65 11 69
41 26 43 83 46 67 96 83 69
36 92 60 74 95 42 39 58 47
21 10 82 61 10 69 53 25 90
12 16 19 80 29 46 37 44 14
64 32 44 88 71 59 32 67 48
87 93 31 13 51 14 60 97 52
71 72 66 55 72 88 72 63 73
35 65 78 15 37 75 48 55 85
96 89 53 69 63 43 50 68 70
44 26 50 46 100 19 94 87 61
35 66 58 81 67 34 52 81 84
71 98 64 89 62 52 87 24 84
48 92 33 71 67 17 86 88 71
97 87 78 78 38 76 50 61 24
85 44 80 28 12 75 74 57 11
29 91 22 19 27 64 44 36 37
12 39 19 53 11 59 89 76 48
67 79 13 58 79 81 84 78 77
65 50 42 25 53 63 13 34 29
25 89 90 84 20 59 17 14 28
2.16169
1.74761
2.26321
2.26985
1.47682
1.42873
1.62386
1.29796
0.686935
1.94267
0.800288
0.619378
0.935308
0.887088
1.59305
1.13732
2.16822
1.39073
1.14135
1.67795
0.970749
2.01754
1.79696
1.95221
0.544146
2.47478
2.3709
1.2949
2.32408
2.31028
2.06227
0.911497
0.762802
1.07922
1.63109
1.88782
0.908166
1.71436
0.895164
0.851229
0.541571
2.00054
0.822256
2.12161
2.05236
0.55252
1.87311
0.908975
1.28667
0.655915
2.0809
1.43577
1.82483
1.00025
2.28868
2.38614
1.6667
0.618667
2.31794
0.97118
1.05482
1.53849
2.21287
0.530792
1.20082
1.36546
1.60537
0.811456
1.12582
1.02856
248 312
190 179
158 386
162 143
110 383
198 112
320 47
407 360
25 239
500 48
447 432
117 215
45 346
99 78
423 416
171 36
49 224
16 18
60 77
474 177
354 351
112 70
166 181
446 459
338 324
261 189
245 438
356 290
249 81
97 278
456 208
216 168
251 144
382 488
162 205
148 324
49 420
309 495
493 433
156 285
316 33
300 247
8 465
109 367
103 172
474 59
324 408
155 62
51 130
197 260
260 97
307 315
397 363
465 199
63 131
146 3
480 394
268 226
454 1
406 110
374 226
496 77
484 24
97 267
224 157
143 232
32 430
257 391
179 253
197 486
18910
1
