70
5
0 0 0 0 0
99 45 54 76 17
25 72 69 96 82
46 81 57 87 23
57 96 15 57 99
95 39 100 67 86
88 16 26 80 70
97 90 18 23 45
95 16 12 67 46
52 50 61 21 98
62 10 74 85 27
69 81 80 76 95
39 60 93 42 18
17 89 86 90 72
43 28 59 19 42
88 94 78 38 79
90 31 44 28 58
47 85 61 23 94
83 73 33 83 77
61 27 99 85 83
16 53 23 76 52
21 27 74 76 47
31 10 99 94 81
12 22 17 28 27
58 21 41 21 41
20 67 34 73 75
26 75 46 22 44
67 99 17 26 99
96 21 83 26 72
57 72 11 19 69
90 43 60 80 26
37 13 42 99 59
97 81 55 14 92
89 94 63 37 33
20 54 33 38 80
81 72 19 85 69
82 75 41 80 36
72 26 70 74 23
38 15 20 63 14
24 42 100 94 65
88 11 18 31 42
94 71 15 48 58
13 58 50 35 74
82 83 13 41 92
65 68 29 32 81
56 93 10 23 54
67 28 87 79 32
17 99 74 71 45
39 92 48 84 54
67 21 75 60 63
58 99 28 22 11
61 31 58 40 99
49 87 96 30 53
88 18 18 28 86
90 26 68 51 51
88 96 87 27 100
21 67 69 57 15
34 81 69 77 42
95 42 16 92 70
34 29 33 27 97
44 74 93 57 34
29 90 36 68 27
61 27 34 70 42
53 71 45 65 35
45 68 70 58 50
78 19 71 92 80
88 52 54 61 76
72 87 34 29 58
10 61 46 41 20
100 69 16 89 91
1.63777
0.490336
0.42973
0.886213
1.51241
1.95042
1.85376
0.678288
1.76874
1.16757
1.3653
1.11876
0.881563
1.22222
1.15707
1.53881
1.06261
1.10904
1.36923
1.04621
1.52965
1.85207
0.60278
1.0717
1.52432
1.82707
1.91935
0.835236
0.561483
0.596795
0.670879
1.06676
1.6679
1.26523
0.902331
1.09261
1.31528
1.1949
0.539725
1.91597
1.65269
1.90024
0.65483
1.37649
1.3167
1.17787
1.08725
0.810583
0.666285
1.94837
0.46266
1.84531
1.7819
1.76886
1.86602
0.841034
1.89311
0.51929
0.64428
1.89394
1.71474
1.67654
0.452765
1.14768
1.68939
1.38412
0.553437
1.3626
1.73468
1.82515
375 373
446 478
253 87
27 364
106 291
133 181
301 300
64 475
292 240
388 97
317 111
163 383
110 291
328 412
62 104
312 487
475 136
236 286
87 29
241 293
473 107
391 261
165 211
432 110
360 366
406 169
402 129
394 288
230 181
142 67
429 112
50 351
111 45
472 359
74 229
82 218
462 443
185 47
378 484
259 133
128 412
243 354
348 246
215 242
393 117
72 455
107 172
137 220
279 465
450 46
181 251
332 456
302 211
193 276
466 28
7 368
385 263
51 20
212 95
59 434
219 410
433 303
272 494
151 356
147 235
310 382
186 212
46 231
399 449
29 424
6460
3
