70
7
0 0 0 0 0 0 0
38 72 43 85 34 39 31
85 11 63 70 28 94 85
84 11 65 10 18 99 28
100 98 32 45 47 62 80
71 89 44 67 100 90 58
53 22 76 86 47 96 35
72 40 26 64 30 36 75
54 33 40 71 99 82 36
21 90 40 67 56 62 47
79 50 80 100 49 15 98
79 82 27 71 82 66 70
66 77 94 86 10 69 34
85 11 25 83 80 20 48
87 89 84 17 45 36 18
53 60 20 99 69 70 22
80 37 81 84 64 14 57
47 21 38 43 46 44 88
75 89 73 28 91 59 70
88 32 68 38 98 46 30
26 81 20 12 68 13 68
37 63 56 63 10 95 58
68 72 17 76 34 53 28
57 18 65 38 86 86 73
94 27 18 100 49 75 26
75 41 98 61 45 86 61
69 61 67 19 70 70 77
61 12 35 23 80 86 15
81 45 83 15 32 100 65
49 93 84 75 51 34 24
25 90 20 19 35 78 45
71 62 39 61 68 52 10
53 89 61 21 78 63 83
67 89 81 56 68 18 11
95 23 94 83 15 91 52
71 22 72 24 88 28 78
62 73 76 56 63 16 87
66 17 55 55 34 21 51
36 15 54 97 36 79 24
40 86 19 53 95 42 13
50 33 31 22 37 82 97
19 33 26 73 43 44 24
45 37 44 53 39 96 52
95 74 69 100 78 49 63
80 77 97 85 98 98 88
77 54 23 84 13 42 58
27 12 19 36 12 53 100
42 13 39 52 32 18 63
35 41 70 47 80 33 86
42 55 86 63 41 83 83
66 52 70 24 73 98 90
42 12 19 66 58 13 49
72 85 44 11 77 31 76
70 78 35 36 28 39 93
17 81 32 93 47 36 29
38 94 56 45 34 78 83
39 93 23 15 27 95 88
69 41 38 23 36 21 31
11 24 24 40 90 83 10
42 63 91 25 86 73 46
82 41 63 30 36 35 34
18 93 85 22 93 78 94
62 85 84 47 12 76 79
62 30 39 79 12 77 90
20 63 96 48 99 28 20
100 75 24 48 12 58 47
69 14 20 71 26 15 55
72 28 15 93 90 59 99
36 73 91 41 18 74 31
54 24 15 99 92 21 68
1.32539
1.27007
1.14849
1.1043
0.928212
1.21691
1.5736
0.423232
1.85864
1.52942
1.82617
1.17443
1.84889
1.45491
0.833104
0.725539
0.79398
1.58973
1.13649
0.769446
0.901826
1.55526
1.6626
0.417922
1.27696
0.789933
1.87626
1.45248
0.413254
1.7773
1.57322
0.805116
0.472324
1.6798
0.899067
0.869476
0.478275
1.54566
1.69582
0.623914
1.69789
1.32757
1.40433
1.25178
1.87098
0.960241
1.4601
1.35864
1.13497
0.501018
0.570716
1.47961
1.77742
0.643353
1.905
0.975878
0.448813
1.14153
1.68743
1.62391
1.52852
0.627967
1.34137
1.28382
0.45117
1.91673
1.076
1.98577
1.46149
0.435498
41 265
391 345
66 478
496 271
222 399
240 233
52 108
402 470
270 74
345 361
71 208
259 444
178 148
104 350
10 267
205 448
174 168
296 385
342 157
134 333
147 50
43 412
337 276
93 234
54 259
375 500
103 95
215 427
109 51
102 147
174 143
263 402
330 333
43 101
425 230
344 11
121 323
448 103
282 405
149 379
183 444
345 337
288 215
381 493
153 95
433 9
218 420
297 493
185 343
77 368
322 483
368 11
120 409
103 108
432 196
124 452
144 234
319 25
0 240
226 49
275 206
133 222
412 259
59 2
174 286
477 41
275 286
177 295
232 480
423 169
9537.5
2
