70
9
0 0 0 0 0 0 0 0 0
54 38 98 50 83 54 11 53 30
99 84 25 36 23 28 90 67 81
61 83 89 56 87 48 49 86 91
30 40 36 37 69 80 38 44 39
92 92 43 38 73 88 88 27 44
76 15 89 48 16 23 72 50 100
34 55 18 77 45 33 50 90 20
81 40 23 46 30 42 35 86 94
24 35 44 78 67 36 35 57 36
70 44 65 76 82 22 57 83 32
26 92 36 31 80 14 69 10 64
83 26 48 26 43 97 56 27 32
10 63 70 91 40 98 55 17 42
29 99 61 98 95 71 37 95 68
31 17 15 68 22 45 91 90 86
53 94 72 51 33 44 12 62 72
74 22 27 61 12 53 79 90 16
55 53 58 21 65 61 69 42 90
56 53 23 60 49 64 32 40 83
50 12 45 88 55 63 29 54 57
38 84 99 80 36 61 60 72 57
33 51 63 50 35 46 95 66 72
13 26 23 98 57 99 65 67 42
14 14 25 95 41 57 18 39 65
32 35 40 47 10 91 62 100 98
35 33 96 72 83 27 20 22 95
73 78 60 37 85 83 77 78 93
84 11 77 71 20 62 43 89 32
44 17 25 22 32 96 65 65 18
46 42 81 34 13 96 67 97 87
65 84 59 89 50 79 72 43 63
31 89 47 47 24 93 40 24 86
93 94 54 44 55 94 28 43 50
81 53 70 89 56 52 47 66 37
52 11 95 57 19 62 99 71 66
20 57 52 88 14 50 61 92 63
73 46 66 34 48 94 90 23 36
54 69 96 67 11 83 26 75 47
26 88 78 80 18 43 82 89 39
95 46 54 61 54 65 78 13 39
46 33 98 24 81 39 13 37 77
93 90 75 26 80 14 16 38 89
13 44 69 95 47 78 87 61 15
47 35 96 34 37 62 49 93 34
16 87 10 31 73 62 39 45 54
13 29 95 40 85 54 94 26 29
69 86 32 89 51 61 83 84 38
74 33 16 84 23 49 18 16 34
45 77 52 97 46 51 91 71 58
93 42 68 91 62 99 86 20 73
98 98 10 80 80 10 57 65 49
31 33 80 34 10 70 31 28 49
46 92 44 90 80 17 55 30 40
76 23 50 92 86 74 36 74 98
52 72 72 65 68 58 32 61 66
46 10 14 96 13 52 72 79 97
17 100 29 37 10 64 71 79 16
39 33 89 32 89 21 25 36 49
28 38 87 16 39 73 88 16 49
20 44 74 90 78 50 81 82 21
30 12 47 88 61 21 75 45 86
73 36 60 34 90 62 85 42 16
40 42 85 81 66 14 89 96 51
19 77 39 49 51 71 68 17 67
65 85 23 25 15 51 88 38 32
85 76 75 10 19 82 41 22 72
63 38 87 43 73 98 67 27 11
15 23 16 37 74 65 21 93 71
33 95 37 21 35 99 68 54 19
1.95893
1.6792
1.05392
2.14129
1.53015
0.540762
1.99784
2.23514
1.76173
0.93036
1.64968
2.14058
0.735776
0.903279
2.31086
1.22859
1.65449
1.76785
1.2145
2.47982
1.3936
0.567174
2.15877
0.803555
1.9281
1.85443
1.32903
1.00808
1.39462
1.27614
2.06496
1.95939
2.31457
0.580481
0.776662
1.20793
2.28896
1.89087
0.815319
2.14721
0.515312
1.12067
1.39629
1.76497
0.646129
1.13434
1.33337
1.06193
2.13283
1.84677
2.42321
1.81511
0.905038
2.24327
0.876152
1.87972
2.33965
0.933732
1.63685
2.12346
0.724049
1.90862
1.84204
0.978784
0.629795
1.72222
0.924842
1.26933
0.58705
1.48952
326 294
120 340
499 310
277 418
103 268
30 146
401 102
208 59
64 463
500 496
453 230
271 190
79 136
381 71
151 271
338 79
206 347
108 426
12 234
224 292
431 128
28 1
327 214
270 244
404 17
398 257
119 413
16 88
314 387
475 262
133 345
420 57
413 87
410 77
310 394
185 445
363 100
52 71
235 7
485 152
54 377
220 148
27 90
287 267
126 188
438 86
249 202
296 476
65 64
306 115
232 52
381 311
85 310
372 276
5 82
184 368
138 58
366 12
124 348
322 115
44 122
441 257
386 270
317 5
61 318
122 203
174 84
466 123
444 303
358 195
19050
1
