70
3
0 0 0
71 66 49
29 50 16
91 30 14
43 67 18
51 80 72
75 68 86
28 18 89
46 87 51
90 69 97
11 77 58
95 82 90
30 46 83
23 25 35
70 10 54
85 65 45
84 47 76
96 78 25
68 61 38
91 90 85
91 100 30
97 12 23
87 18 77
26 60 22
62 76 79
48 68 92
68 84 28
89 62 92
59 45 91
36 39 11
29 11 49
97 56 73
15 11 68
66 83 26
52 84 23
75 81 87
31 39 73
57 100 19
16 79 56
32 31 76
31 46 14
24 48 41
44 98 30
60 71 13
19 20 18
56 28 24
63 94 14
25 100 47
35 60 29
18 27 73
77 56 88
53 59 79
78 59 55
83 85 55
96 28 62
42 45 73
59 57 45
60 80 66
89 26 62
73 35 42
43 20 56
46 20 50
73 89 47
16 50 98
11 23 23
58 96 52
87 64 20
24 18 44
62 79 25
19 82 65
0.717717
0.582251
0.885365
0.233998
0.999787
0.372209
0.275547
0.558768
0.448884
0.782337
0.264618
0.223472
0.254653
0.632102
0.228512
0.761335
0.673876
0.770113
0.652915
0.784989
0.793257
0.790865
0.75374
0.524588
0.560151
0.666725
0.567288
0.279867
0.578904
0.242994
0.240535
0.207435
0.712869
0.861631
0.449194
0.885743
0.988373
0.602666
0.885328
0.484073
0.844264
0.500176
0.245922
0.799093
0.394933
0.71955
0.713176
0.294752
0.402079
0.262584
0.421471
0.74451
0.794649
0.844997
0.993739
0.664587
0.921266
0.995389
0.992325
0.231737
0.498822
0.747024
0.723515
0.775493
0.853865
0.88258
0.433609
0.418686
0.431873
0.630004
452 98
466 214
208 401
32 286
0 258
430 256
335 147
109 477
78 419
500 269
16 173
357 237
386 337
115 298
351 46
20 23
385 222
399 99
218 466
206 498
99 362
27 258
120 298
382 90
137 245
178 95
223 257
309 282
292 424
389 174
35 417
115 412
372 185
365 360
218 234
211 270
410 231
333 115
495 81
304 431
382 218
113 165
208 463
44 394
194 215
270 361
265 72
233 269
163 281
39 7
495 70
13 159
180 479
361 372
128 253
344 10
218 108
51 261
452 1
3 54
305 126
75 133
162 289
34 365
454 253
289 109
34 308
124 251
219 496
126 270
6298.33
3
