70
9
0 0 0 0 0 0 0 0 0
41 44 65 38 94 81 44 71 24
82 31 86 28 34 79 80 32 99
50 90 50 33 66 93 13 28 61
32 55 69 46 70 26 37 30 34
82 46 23 29 23 22 99 69 22
41 47 48 17 61 76 82 51 10
52 31 41 46 59 47 99 72 80
39 49 40 48 36 11 100 41 72
41 79 17 15 100 96 34 90 34
35 62 28 69 22 21 13 23 56
90 76 14 38 82 36 88 97 89
92 95 47 90 37 99 90 100 14
39 14 42 33 14 49 85 68 63
40 27 98 72 33 71 62 89 81
67 29 18 53 21 78 20 85 26
62 62 50 17 90 77 21 100 68
64 19 97 82 59 94 15 68 86
68 87 38 30 81 52 98 39 56
83 66 75 59 55 22 44 60 32
98 85 24 71 14 16 22 29 13
91 79 50 41 97 86 38 100 85
45 59 63 68 99 48 58 14 36
80 70 28 62 98 82 79 87 60
74 92 76 86 30 56 51 47 51
39 57 79 80 71 17 53 39 70
21 91 51 61 22 51 33 73 93
84 42 13 55 19 29 76 50 35
60 74 43 25 83 62 33 48 79
90 62 92 43 29 16 43 59 45
80 84 72 17 43 15 64 25 41
97 85 15 64 34 87 47 92 92
17 40 60 50 57 18 64 48 43
34 60 82 91 62 72 40 30 59
82 56 68 40 75 72 34 86 76
87 36 17 38 78 66 82 63 45
64 91 60 99 40 87 28 37 73
100 63 94 67 55 19 97 39 46
62 76 88 85 27 25 11 84 49
38 57 57 72 52 80 74 45 76
70 65 99 11 17 16 22 36 16
88 10 82 67 44 64 78 87 57
56 49 93 43 75 94 18 43 77
24 68 26 56 72 28 76 33 45
19 79 51 27 24 18 26 62 37
91 67 90 95 38 28 84 24 85
24 52 64 91 76 58 37 82 56
80 41 19 35 51 75 42 60 10
48 54 49 20 66 55 10 83 39
73 56 50 27 58 45 17 71 21
87 71 61 28 43 67 78 13 27
56 49 95 12 97 16 30 25 80
15 88 66 31 35 45 23 19 44
38 85 43 60 38 47 62 93 78
73 87 21 71 79 74 93 77 10
36 96 49 13 49 90 52 30 83
48 55 34 58 73 84 44 75 82
27 24 12 59 39 44 61 13 35
21 46 29 89 86 82 80 61 10
94 22 22 58 29 93 28 74 44
81 66 30 53 87 95 91 20 94
95 29 27 12 56 58 41 36 52
69 26 91 85 25 45 11 67 56
36 30 85 31 38 25 40 42 26
55 73 76 33 84 37 66 12 17
98 63 13 60 22 49 22 46 30
64 89 58 74 52 19 27 32 26
28 12 68 90 51 52 12 53 99
40 45 21 64 95 26 88 10 85
39 78 86 83 82 22 91 40 50
1.3631
0.810412
0.30818
0.746
1.10376
0.448682
1.45565
1.38138
0.906179
0.925703
1.42797
1.43174
1.34807
0.654623
1.38171
1.07082
0.885318
0.739538
0.610687
1.35687
1.21642
0.824399
1.096
0.557589
1.0169
0.482474
0.533751
0.419027
1.23657
0.605159
0.940771
1.24816
1.00499
1.23679
0.634166
0.773389
1.38036
1.32999
1.19475
0.816868
0.993076
1.39819
0.827005
0.463812
0.304592
0.598418
0.651205
0.548231
0.605641
1.48026
0.462256
0.929364
1.20466
1.24326
1.42402
0.529977
0.85918
0.609124
1.15847
0.93769
1.20787
0.495188
1.36662
1.10749
0.720073
0.847872
0.450712
1.27559
0.846886
1.20127
386 129
326 482
387 248
139 275
114 163
146 104
480 25
269 244
403 128
26 72
244 224
65 150
146 469
437 387
231 204
441 487
152 10
57 352
396 155
469 271
402 233
352 171
29 219
444 247
186 86
114 236
143 496
217 138
196 237
266 114
264 19
399 93
319 241
390 469
53 312
445 225
315 237
448 318
212 397
434 215
214 240
1 434
376 308
241 45
392 162
9 335
149 89
393 306
2 130
423 137
154 218
488 326
303 402
219 423
45 257
490 265
238 445
307 223
320 58
471 162
128 187
257 405
206 471
32 212
16 456
280 67
199 205
254 383
454 6
385 256
9415
2
