70
9
0 0 0 0 0 0 0 0 0
56 52 49 100 97 54 28 15 100
11 71 41 70 35 52 100 12 46
30 61 93 34 35 52 61 58 24
38 56 14 93 63 51 19 15 14
94 93 87 24 93 85 75 59 60
35 36 24 98 33 74 34 10 61
61 40 45 76 14 68 53 37 70
24 90 19 21 63 53 48 92 39
100 29 20 59 90 40 68 77 67
88 28 39 11 27 48 87 30 92
33 46 59 30 77 20 73 93 89
76 78 55 90 76 13 36 22 74
83 97 86 67 17 61 100 54 20
12 38 78 38 83 61 10 94 70
28 10 86 16 59 67 14 75 17
95 56 86 45 20 94 72 63 96
65 67 60 67 28 93 19 80 45
66 35 28 57 68 21 56 45 53
42 75 14 28 100 57 15 48 44
55 45 47 63 43 52 28 43 14
90 69 32 36 34 100 75 13 82
73 46 24 14 66 55 63 52 45
84 30 40 33 41 82 70 61 20
86 79 99 23 76 97 23 70 33
76 88 63 51 26 97 23 32 17
30 20 12 91 93 50 100 67 52
75 32 55 28 28 30 41 73 79
84 71 65 31 56 42 44 92 51
44 32 37 54 80 79 78 87 81
34 10 31 45 29 42 92 60 64
42 74 66 35 88 14 17 95 39
77 81 53 21 60 41 28 88 71
35 75 18 47 30 96 46 90 12
69 18 87 16 87 46 39 80 66
33 27 50 31 99 72 25 17 44
22 43 56 71 69 56 68 89 64
11 11 27 92 61 54 67 26 11
56 12 63 74 62 88 77 43 49
85 93 40 56 42 31 25 46 88
91 49 62 87 54 88 23 21 11
66 73 90 16 41 94 54 81 29
60 49 18 19 16 97 80 52 51
49 39 83 27 83 20 14 11 65
58 69 75 60 85 22 82 27 90
80 53 10 38 12 37 100 19 71
85 10 37 46 57 89 41 13 16
39 34 29 51 78 61 40 67 26
54 96 38 50 29 54 34 93 16
43 98 69 99 68 23 18 32 65
12 55 37 38 86 60 64 51 62
86 13 63 32 23 61 51 40 84
73 96 35 83 29 46 66 12 58
81 96 77 27 50 17 63 25 52
62 90 39 83 41 31 51 50 95
91 83 64 32 96 61 41 60 12
41 72 54 37 11 50 66 30 46
21 94 45 77 49 29 50 78 11
29 57 47 63 53 20 87 11 58
95 26 83 76 35 67 59 66 36
39 42 42 81 86 37 11 35 54
33 88 16 91 99 77 51 19 23
35 53 15 47 58 74 39 69 84
27 75 49 93 20 93 70 11 40
68 72 26 73 71 14 54 91 11
83 36 28 13 37 19 33 56 95
39 27 26 80 74 76 18 17 61
47 95 77 28 38 40 83 52 34
72 80 21 10 67 32 21 96 39
92 50 55 67 73 46 100 68 84
0.580672
2.00619
0.577095
2.29242
2.02764
0.881254
1.12494
0.900876
1.68635
1.05581
0.725003
1.40413
1.61586
2.29474
2.28835
1.49744
1.67271
1.28587
1.27119
0.646867
0.692149
1.06669
0.958993
2.00092
0.983978
1.79152
1.90778
2.07317
0.579778
1.10146
0.87321
1.56082
1.35749
1.19441
2.10259
1.59196
1.5457
1.97444
1.65861
1.3113
0.508263
1.26494
1.7317
2.37186
0.639173
1.40019
2.12978
2.06897
1.22516
0.666965
1.48722
0.570766
1.758
2.22374
1.97079
1.17043
2.40661
1.86109
2.09665
1.79267
0.835914
2.1217
0.510922
2.16569
0.79057
2.39991
0.87294
2.47278
1.79779
1.01497
438 229
13 244
167 225
438 286
263 46
276 293
60 25
196 6
205 386
77 114
309 360
306 204
22 124
485 16
391 285
360 246
379 216
361 244
409 162
163 489
192 263
44 187
234 250
477 66
115 323
28 61
297 66
424 63
443 146
114 219
130 403
108 263
343 483
166 320
75 54
432 254
160 345
209 328
76 53
492 323
481 313
101 436
291 380
9 427
169 435
213 389
25 339
271 232
449 60
201 118
124 309
12 324
223 400
90 5
42 219
330 64
28 441
347 448
260 108
460 256
431 359
1 104
109 426
146 177
327 314
95 368
212 40
136 337
79 193
230 488
4596.25
4
