70
3
0 0 0
55 64 41
25 65 100
59 28 60
32 78 89
79 32 58
13 39 38
85 91 28
60 90 74
55 22 19
98 29 25
78 16 98
47 99 75
26 19 100
82 88 58
12 88 54
26 36 60
22 83 21
27 82 49
70 18 35
64 48 92
72 72 32
28 82 85
65 23 90
67 40 59
72 16 25
51 18 81
70 23 30
74 27 16
55 64 79
80 75 27
57 78 88
11 81 35
94 42 17
60 12 49
76 44 99
27 94 58
40 91 91
13 24 15
64 28 69
27 79 46
77 36 66
18 65 64
38 24 18
45 94 35
47 94 55
26 66 51
66 55 30
66 89 13
58 71 35
29 17 90
44 64 21
66 11 56
73 53 11
92 66 85
31 33 69
88 61 93
94 77 32
68 81 91
48 40 68
75 85 77
58 19 58
49 47 78
100 18 40
82 60 69
89 52 27
12 61 90
90 59 62
88 71 60
55 30 71
1.8676
0.721684
1.96588
1.53472
0.751978
1.95667
1.8885
0.864089
1.85007
0.408203
0.733824
0.644109
1.94787
1.09254
1.1485
1.12125
0.895595
1.6995
0.774382
1.71666
1.77085
0.926073
0.921036
0.651956
0.885598
0.594225
1.71744
1.65666
1.86005
1.86508
1.74546
1.15611
0.6171
1.59781
0.88946
1.84551
1.62613
1.65466
0.79273
0.781369
0.448829
1.37588
1.69571
1.17996
1.02915
0.733833
0.969987
0.723996
1.06567
1.17102
1.53645
1.72833
0.784624
1.55792
0.793988
1.39598
0.523204
1.63635
1.92654
1.00026
1.16542
1.89881
0.417683
0.852379
1.43772
0.880475
0.508687
1.60349
1.62269
1.29153
76 96
331 146
337 378
420 171
251 21
74 290
70 268
201 78
416 145
21 121
64 384
224 434
480 100
60 242
103 92
126 341
147 284
486 450
148 211
47 264
467 150
21 449
175 64
199 205
437 407
176 431
159 371
390 6
298 40
385 205
404 13
350 335
441 116
25 29
84 393
171 153
91 104
76 302
330 312
341 158
410 463
237 57
222 396
221 77
375 32
277 401
418 152
332 135
378 108
305 491
216 32
236 130
135 16
313 143
198 196
79 67
259 491
332 289
163 224
171 246
237 58
99 219
119 138
132 454
345 71
125 390
221 406
462 67
115 449
429 4
6386.67
3
