70
7
0 0 0 0 0 0 0
41 79 90 64 43 73 15
30 43 87 74 63 67 55
95 22 44 82 10 24 65
95 69 36 88 81 42 64
35 58 82 94 21 64 57
64 49 77 67 39 77 50
21 67 54 99 43 76 67
28 20 53 69 68 37 95
74 41 56 68 59 51 89
53 15 55 20 61 98 85
71 60 22 73 47 84 69
44 21 48 10 41 33 49
48 74 14 35 69 18 61
76 86 89 23 77 96 48
65 66 31 53 57 87 59
36 78 65 61 35 72 45
68 43 96 69 66 44 33
96 78 92 31 99 46 62
94 93 87 63 11 32 77
92 45 56 49 34 30 85
14 58 42 43 96 95 62
10 59 74 95 24 70 81
70 39 18 24 79 83 14
73 30 42 33 70 16 51
79 87 88 61 12 78 96
57 16 44 70 10 36 10
47 39 83 59 33 89 30
66 86 80 49 29 45 22
65 29 13 29 60 55 21
82 50 49 21 50 34 44
86 77 53 56 16 41 53
32 32 77 80 18 53 39
67 23 64 25 45 89 35
90 91 14 70 81 68 92
61 39 41 37 46 80 68
77 85 18 16 74 30 84
20 72 11 86 70 42 78
57 89 83 83 71 77 18
36 35 77 52 90 78 60
29 70 64 86 88 58 52
71 84 32 52 39 12 19
11 74 38 77 80 29 37
82 42 53 70 39 35 47
66 47 92 89 98 87 93
86 55 99 31 82 55 45
28 84 92 82 13 80 74
64 44 75 18 82 40 70
68 62 12 95 28 89 87
76 69 61 77 41 74 46
85 26 98 73 68 55 37
16 24 38 29 92 42 77
82 10 61 14 68 91 68
96 74 32 31 28 21 91
72 91 48 47 26 57 30
24 37 90 55 42 24 15
44 41 15 60 82 64 43
15 81 59 95 68 61 30
39 35 12 57 57 46 34
84 27 91 29 93 46 100
71 57 82 35 87 83 54
97 12 30 47 65 97 57
27 59 41 57 67 46 91
34 96 20 23 62 41 95
53 55 15 28 22 76 80
83 92 31 59 38 42 90
14 82 66 46 63 67 16
80 23 70 76 98 74 57
90 86 64 67 92 30 26
31 34 14 25 87 82 76
0.682268
0.265081
0.832926
0.433442
0.885225
0.755757
0.874781
0.974704
0.505019
0.848572
0.622701
0.808761
0.813261
0.742977
0.515428
0.626771
0.280393
0.256361
0.290807
0.324862
0.767622
0.660019
0.733941
0.388632
0.623915
0.842526
0.755002
0.531419
0.640442
0.431321
0.269312
0.623257
0.533525
0.895451
0.275256
0.561512
0.986232
0.934111
0.652929
0.684573
0.905724
0.348927
0.731406
0.746732
0.811993
0.85981
0.601629
0.56675
0.294097
0.645868
0.404802
0.855256
0.495202
0.73927
0.656186
0.576291
0.277834
0.213314
0.336518
0.940181
0.438345
0.830513
0.765102
0.892217
0.269508
0.285752
0.512351
0.255526
0.723308
0.442214
195 133
50 391
331 215
327 155
209 241
140 114
290 373
410 267
161 194
333 262
485 94
435 183
452 417
32 361
4 382
402 138
42 364
126 221
126 274
58 131
173 413
192 287
209 379
457 154
343 491
308 169
491 254
382 482
415 10
282 409
98 4
232 181
41 83
40 299
255 295
497 314
470 448
305 243
354 131
410 322
340 356
4 6
244 193
199 316
451 38
181 25
32 0
252 262
351 221
394 244
276 230
294 429
69 109
303 431
45 281
187 318
448 36
17 357
363 476
291 152
410 237
340 429
472 408
427 98
356 478
450 471
439 16
495 49
101 262
469 270
19490
1
