70
5
0 0 0 0 0
51 93 16 84 58
12 27 84 36 86
58 32 83 83 34
54 50 22 37 38
55 79 77 50 68
85 46 91 67 55
69 13 21 37 97
29 37 41 18 93
61 50 47 95 10
40 83 51 14 51
20 21 40 16 88
11 90 77 91 48
53 41 47 82 84
70 77 71 80 95
20 87 45 39 84
82 89 61 77 48
35 40 45 34 35
80 91 47 96 96
62 44 99 87 58
92 20 48 65 97
45 80 51 59 93
77 53 27 85 90
59 25 46 11 30
42 25 18 95 54
24 77 52 56 54
48 27 51 87 50
93 89 82 63 77
90 88 58 72 31
62 64 56 20 27
29 26 78 67 93
64 20 38 92 30
82 20 78 94 82
97 94 10 91 15
73 11 23 35 81
36 50 47 60 30
35 68 62 50 16
31 62 50 42 40
63 81 93 51 21
84 82 96 99 92
92 48 69 99 21
92 84 73 67 68
74 62 20 85 38
76 68 14 15 36
63 94 34 93 92
64 68 38 91 21
55 92 29 65 84
55 84 15 66 34
81 26 46 11 96
79 97 91 74 38
78 83 97 64 58
96 82 84 41 73
11 90 56 94 79
73 61 76 36 35
25 72 18 34 87
47 65 43 56 84
57 44 29 65 83
71 49 52 57 74
68 78 18 27 90
23 97 30 54 55
94 68 30 59 47
77 72 58 39 42
43 41 63 59 37
33 45 86 78 34
68 72 90 50 85
82 28 76 29 82
60 20 26 60 97
79 99 85 50 45
28 55 92 68 58
57 20 92 11 52
1.2888
1.2513
0.856447
1.02851
1.1181
1.53611
0.578649
1.41566
0.880757
1.23396
0.942039
1.87338
1.38276
1.31582
1.85638
0.841961
1.52674
0.728841
1.43543
1.3703
1.38027
0.940044
1.75456
0.885192
1.57516
1.62563
0.932349
0.711709
0.545133
1.51508
1.05758
0.445813
0.4841
1.19255
0.976807
1.72629
1.20025
1.1299
1.7624
0.651653
0.69568
1.17275
1.96988
0.755205
1.15671
1.73265
1.81659
1.4696
0.498818
1.25099
1.72708
1.07985
1.42244
1.04919
0.674731
0.46207
1.05548
0.714014
1.70948
0.705912
1.96888
0.579294
1.89905
0.559291
1.61028
1.93644
0.825376
0.646144
1.1127
0.411439
395 368
381 494
325 441
136 9
383 186
38 252
200 417
302 313
492 227
418 39
38 246
67 381
373 471
293 155
445 161
201 164
170 472
368 378
346 229
238 191
131 208
238 264
345 85
405 329
109 464
383 37
179 61
429 447
157 346
70 9
127 168
122 267
233 125
498 330
343 370
431 478
319 235
8 305
413 19
455 29
157 384
7 484
338 130
361 159
301 200
458 484
130 52
442 77
408 169
344 335
487 328
5 249
391 173
453 317
53 190
374 75
224 233
434 320
297 148
222 477
487 318
220 412
243 213
54 179
13 265
414 228
443 174
465 43
320 156
173 405
5053.75
4
