70
5
0 0 0 0 0
35 15 56 48 58
29 90 99 64 66
14 35 47 59 27
66 80 24 13 17
74 46 50 69 69
48 88 89 22 58
75 15 33 91 77
13 19 74 28 72
61 40 30 55 53
25 43 87 64 91
62 68 29 27 16
11 38 25 23 68
30 100 61 40 17
53 90 73 41 88
33 82 45 51 41
91 58 49 87 91
22 57 60 76 65
83 19 94 78 50
16 100 31 67 26
59 96 61 31 46
93 41 89 74 67
15 26 59 67 87
82 59 59 98 54
87 14 34 45 45
22 76 72 40 91
15 51 93 97 59
35 27 72 26 53
70 44 55 88 63
78 42 45 59 39
39 81 98 43 85
81 75 58 76 39
73 80 26 61 31
59 14 11 94 81
58 15 17 68 71
83 25 33 67 37
87 51 13 88 44
49 62 74 87 62
21 73 64 63 66
96 64 23 65 96
67 80 47 18 25
28 86 77 59 33
97 27 83 50 76
66 47 47 25 77
21 23 43 58 74
85 52 61 40 60
29 46 14 30 21
71 73 51 19 49
24 41 43 55 54
46 65 25 25 12
21 71 69 47 18
61 28 24 95 76
72 68 72 13 21
35 68 10 48 32
39 35 12 100 78
70 26 76 76 59
39 87 21 29 90
25 95 40 58 56
62 32 52 11 47
84 59 24 62 39
44 30 93 19 72
32 70 81 96 79
19 96 95 29 40
77 33 94 36 95
62 24 14 67 42
88 48 60 75 79
46 29 14 63 34
46 28 49 79 30
60 24 94 91 14
25 80 50 95 98
1.47472
1.39992
0.916485
1.08531
0.999014
1.10913
1.03917
0.357377
1.25995
0.358078
0.953222
0.397173
0.995164
0.608778
0.785389
0.516662
0.495884
0.720329
1.31306
0.790196
1.0739
0.457177
1.03073
1.15986
0.49015
0.495274
0.886062
0.360594
0.47925
0.853907
0.786175
1.46681
1.45728
1.05775
1.26135
0.736026
0.636231
1.48486
0.657394
0.461836
0.39574
0.909877
0.992043
0.643681
1.08575
0.547591
1.01453
0.920324
0.957173
0.926352
1.10126
0.315282
0.623702
1.43979
0.610562
0.929962
0.846242
1.28365
1.42894
1.18641
0.955138
0.912658
1.2005
1.24891
0.446039
0.420268
0.60675
0.895032
0.853375
1.04462
484 341
110 151
313 449
165 153
371 250
86 247
334 351
87 214
374 6
253 29
111 180
307 227
300 206
23 493
398 342
48 426
462 30
149 88
364 490
213 65
407 292
434 421
87 246
395 7
210 305
204 42
400 454
342 35
270 274
302 328
255 212
185 53
409 385
198 272
108 92
426 485
152 74
15 194
334 138
278 429
141 128
193 35
269 226
457 178
129 162
20 287
489 398
24 70
222 421
493 233
319 219
408 365
415 203
89 488
157 108
255 419
83 305
403 351
288 137
23 163
453 161
281 89
239 246
481 428
11 298
89 422
164 132
67 406
360 367
93 58
6218.33
3
