70
3
0 0 0
79 74 31
72 11 63
87 82 71
44 29 22
86 39 57
85 89 23
62 50 23
97 20 96
49 86 14
72 38 55
85 95 42
71 81 89
75 28 52
43 84 64
30 78 21
26 98 40
81 75 47
81 44 36
10 81 97
77 47 21
88 56 25
98 16 53
84 63 98
64 44 37
100 84 31
21 34 42
47 88 73
17 72 76
32 91 12
24 71 67
97 59 66
66 68 58
13 95 52
64 15 70
37 20 77
46 81 40
50 76 70
72 92 56
46 89 43
31 92 50
54 16 77
66 23 33
73 63 64
39 22 83
34 69 47
77 27 50
11 89 76
61 67 56
84 82 71
70 49 27
68 63 64
97 58 100
65 73 89
83 44 29
81 18 31
13 27 23
93 54 47
87 69 37
52 19 71
100 65 88
65 49 29
95 92 36
35 86 82
45 37 53
67 47 75
64 61 30
87 85 91
77 91 67
31 47 83
0.387712
0.671042
0.568877
0.551059
0.808963
0.220022
0.23928
0.797956
0.691159
0.259638
0.229165
0.757741
0.76799
0.575773
0.221222
0.252647
0.849523
0.73557
0.92906
0.658672
0.958319
0.527599
0.65977
0.867471
0.917837
0.757014
0.392926
0.404811
0.757479
0.442809
0.213372
0.712962
0.801249
0.908784
0.953883
0.894333
0.67855
0.753215
0.867673
0.777991
0.749678
0.52678
0.64296
0.994611
0.670649
0.330757
0.243397
0.792901
0.922635
0.236628
0.457472
0.436581
0.774667
0.917965
0.316913
0.930716
0.427174
0.596448
0.431069
0.972104
0.990684
0.904021
0.651807
0.893562
0.231489
0.52523
0.996485
0.530082
0.985494
0.613535
297 238
213 379
32 188
373 329
466 199
159 282
211 357
215 104
302 29
34 95
250 28
250 245
196 10
385 124
166 478
308 113
446 306
168 476
466 320
116 363
102 202
431 117
66 172
65 115
152 98
388 187
220 78
319 31
428 439
414 413
499 182
101 266
175 125
196 37
449 287
179 417
137 355
344 407
219 200
70 412
383 472
10 303
169 164
212 249
374 476
250 412
73 131
122 85
5 326
128 203
474 283
322 358
406 315
200 249
472 262
313 362
233 477
46 217
379 297
45 476
232 320
116 64
211 127
14 17
433 493
416 471
310 149
474 29
316 140
69 281
20295
1
