70
7
0 0 0 0 0 0 0
87 45 57 78 31 77 98
86 25 27 44 69 72 83
13 87 47 47 50 72 94
30 79 53 40 54 38 49
57 64 63 74 11 87 20
18 13 39 37 50 72 79
36 99 85 39 54 40 43
84 67 87 64 64 75 16
21 44 64 20 18 31 72
98 71 11 83 38 60 74
21 67 14 77 14 71 28
34 35 30 15 87 40 93
68 73 69 81 71 37 77
59 44 50 22 44 31 25
45 100 28 66 17 91 92
15 70 24 62 28 51 61
45 17 69 10 72 13 91
67 65 44 81 69 73 26
19 52 51 21 60 20 69
44 17 69 77 53 17 100
53 88 21 54 79 52 22
49 59 35 47 99 23 25
39 62 51 60 65 67 15
68 28 54 51 50 80 55
82 52 80 34 39 61 38
38 99 10 52 80 50 55
60 44 64 19 22 10 90
11 47 59 59 100 30 39
65 85 10 12 69 46 47
86 66 58 99 94 43 72
71 53 25 84 61 15 29
36 95 82 71 11 27 75
95 33 47 85 39 85 41
45 58 58 90 81 56 39
39 96 92 44 46 65 95
88 55 96 10 38 27 25
32 83 14 87 77 34 90
69 26 76 82 25 40 31
36 84 12 88 75 85 32
75 68 13 66 29 38 67
52 26 98 71 44 77 96
96 45 21 57 86 33 60
53 19 100 59 94 18 70
81 60 80 43 85 85 85
63 37 95 38 62 90 60
61 65 20 97 51 79 33
30 84 64 76 35 65 57
36 100 84 52 38 32 37
71 55 20 55 33 44 27
30 58 84 21 18 20 32
61 12 36 76 59 19 74
73 27 50 87 48 52 83
25 87 25 46 87 43 46
86 48 96 58 88 93 92
26 12 16 21 78 33 65
38 91 12 27 51 49 26
80 67 89 13 43 25 36
84 36 29 82 55 21 10
43 10 66 12 89 13 42
54 50 42 59 76 81 100
83 97 12 77 46 71 58
55 95 42 59 38 70 28
42 65 78 65 86 74 55
10 59 95 72 33 90 50
40 30 67 11 76 92 27
85 42 36 18 32 33 68
90 11 91 31 32 45 24
12 28 21 81 37 32 10
77 65 48 75 56 40 81
2.45363
1.63704
1.52553
0.583894
2.26919
1.05149
2.43612
1.72624
1.43373
2.34356
1.43678
2.09121
1.1606
1.1895
1.88132
1.37163
1.97349
1.60167
0.892261
1.78057
1.25766
2.05671
1.81488
0.995615
0.591777
1.28124
1.54892
1.61232
1.90604
2.05444
1.6067
1.10164
2.2915
1.15903
2.15959
1.35609
0.568033
0.805662
1.99053
1.92128
2.11375
2.02228
1.61027
2.24114
2.02133
2.27577
2.26073
0.501183
1.62431
2.2714
1.42602
1.85795
1.95091
2.37055
2.00238
1.9035
1.65719
1.94805
1.39748
1.34142
0.88586
2.16207
0.949075
2.26045
0.576235
1.54932
1.23001
1.73885
1.10736
1.5023
97 435
366 3
456 218
168 375
314 110
462 310
294 176
289 121
345 334
336 186
193 144
170 265
11 287
16 151
476 335
308 13
231 299
133 337
318 97
467 131
32 92
126 354
270 52
109 300
360 192
317 451
489 215
196 430
35 391
337 229
282 443
414 375
456 312
476 290
285 209
2 338
407 246
444 45
397 220
115 271
169 188
128 8
166 313
116 186
478 471
27 474
176 418
149 492
94 284
85 419
14 32
229 69
362 92
445 305
235 84
116 89
359 187
61 312
438 139
389 457
133 445
265 92
323 424
330 451
153 294
83 34
461 118
454 29
231 91
159 21
6203.33
3
