70
5
0 0 0 0 0
80 100 23 69 88
46 28 26 19 68
59 91 100 70 85
88 85 85 31 98
24 53 98 85 51
67 43 72 12 14
16 63 83 55 50
98 18 59 75 92
92 84 35 97 76
35 47 66 40 53
48 72 41 63 92
10 18 87 81 91
92 80 68 59 71
71 87 95 93 21
38 72 66 84 70
86 64 99 67 57
33 27 24 79 93
100 28 24 81 36
59 55 43 91 48
52 20 83 93 26
74 65 68 98 99
19 17 15 78 13
44 75 71 81 27
94 37 85 57 39
87 34 45 39 98
76 70 83 59 54
77 96 17 58 52
23 35 83 34 77
42 92 65 98 14
27 55 19 41 29
91 14 50 55 20
95 62 61 96 33
14 71 24 35 79
43 92 45 22 11
70 97 25 17 61
79 37 34 98 84
23 54 44 21 78
22 66 51 21 48
50 71 59 46 18
100 23 82 59 16
25 29 21 43 94
77 24 77 91 63
44 76 69 75 76
54 42 40 50 25
10 92 63 76 100
97 97 40 59 83
88 29 13 81 25
53 29 90 53 91
24 47 67 24 94
94 94 17 27 40
13 40 15 56 64
51 96 39 32 16
100 89 71 43 14
21 86 94 64 26
46 91 64 54 68
32 71 29 40 62
56 22 67 98 28
90 22 15 13 15
67 43 30 38 12
46 94 17 81 96
96 58 29 31 37
20 57 40 50 78
34 64 96 69 47
77 54 11 55 54
15 57 32 60 59
86 84 67 29 55
27 16 60 41 58
95 89 99 94 92
32 39 61 37 62
0.405729
1.01336
1.05646
0.629813
0.556297
1.17611
0.639353
0.697816
1.16697
0.633682
0.518617
0.412604
1.25574
0.900654
0.577665
0.968322
1.02243
1.00328
0.50818
1.14399
0.430234
1.0927
0.816235
1.12632
1.29129
0.772512
1.28645
1.28766
0.629999
1.35545
0.659311
1.48813
0.609859
0.713291
0.650405
0.792888
1.47532
0.591805
0.94012
0.608496
0.647577
0.637162
0.55166
1.37664
0.589239
1.27534
0.62766
0.613364
0.839868
1.05428
1.39311
1.18571
0.706171
0.687634
0.779299
1.03512
0.875866
1.12312
1.31018
1.45426
0.368707
1.32038
0.628728
0.369855
0.437462
1.49001
0.549338
0.645123
0.978532
1.21338
106 462
304 309
238 419
157 463
109 8
126 484
107 283
92 350
161 459
484 363
341 20
490 242
117 20
174 101
392 88
155 199
497 232
56 9
411 150
225 405
451 56
403 297
326 131
79 284
400 22
437 254
445 35
495 156
449 444
254 396
63 140
460 63
165 369
467 187
316 173
228 4
40 447
241 282
208 259
90 212
148 265
273 480
51 453
182 314
123 313
493 155
43 141
411 276
147 392
48 90
20 388
253 433
436 94
255 214
323 69
47 149
347 254
238 400
75 319
469 412
283 472
382 69
335 23
83 78
395 488
438 161
88 299
382 220
93 302
423 437
3912
5
