70
3
0 0 0
45 46 13
59 59 39
93 44 79
46 38 50
65 93 85
45 56 90
26 36 73
17 12 68
59 93 49
55 93 13
41 80 20
11 42 75
32 47 26
89 44 91
89 15 61
88 64 71
85 51 51
99 77 77
46 39 41
13 14 68
84 32 28
64 11 50
51 33 85
61 10 74
55 81 83
33 92 17
50 48 47
63 36 48
97 97 96
46 100 13
43 15 34
72 35 38
16 14 42
34 89 89
99 40 69
80 17 71
58 93 34
57 80 45
74 54 40
38 54 99
47 88 82
81 85 76
41 19 42
74 31 55
11 29 13
64 38 67
37 59 67
69 52 38
93 80 87
71 14 59
96 79 39
31 64 76
36 42 80
19 90 72
12 59 74
27 45 87
99 93 51
27 20 50
89 91 39
28 96 97
49 95 45
60 45 78
11 97 78
98 62 57
60 41 54
20 77 30
38 94 81
48 96 53
13 78 89
0.662594
0.984941
0.609165
0.709192
0.559913
0.396621
0.577142
0.81716
0.622617
0.669275
0.779969
0.971392
0.833561
0.624093
0.380317
0.542376
0.683605
0.374799
0.700517
0.548416
0.293233
0.965527
0.210715
0.263744
0.857151
0.66121
0.591407
0.780665
0.211236
0.863655
0.706157
0.397968
0.87754
0.80747
0.667226
0.581275
0.409917
0.840556
0.381337
0.369026
0.733127
0.416916
0.857556
0.672776
0.627179
0.899728
0.536458
0.648145
0.923188
0.673962
0.247603
0.511366
0.992952
0.236003
0.910346
0.799047
0.231323
0.257441
0.492482
0.709063
0.254562
0.341185
0.306327
0.655127
0.371706
0.940385
0.284642
0.992097
0.726185
0.798392
468 225
271 270
408 396
52 17
414 17
406 439
63 404
76 320
27 25
371 227
41 105
57 275
55 189
213 428
255 309
456 186
432 468
66 417
74 347
366 176
348 172
481 284
449 361
128 358
61 369
286 233
395 136
460 241
3 391
265 387
405 109
175 26
408 222
331 48
64 416
112 321
445 134
206 179
373 8
216 415
440 188
488 124
137 387
133 175
233 346
32 103
137 391
23 270
26 235
53 302
141 68
112 467
319 126
231 351
305 422
253 488
54 8
26 150
193 193
42 226
52 327
359 166
221 398
335 453
438 83
163 60
315 117
436 310
90 345
347 132
19530
1
