70
7
0 0 0 0 0 0 0
44 88 74 87 90 57 72
13 51 69 28 38 99 11
48 18 18 22 32 76 73
13 26 35 73 69 43 64
11 94 97 49 94 76 59
23 83 55 63 97 17 60
50 54 46 81 20 12 11
82 92 41 16 70 60 41
61 43 31 71 39 100 56
76 40 63 71 35 24 52
65 87 47 25 49 28 67
57 29 69 78 57 75 69
48 35 94 29 78 46 12
70 52 24 66 83 59 18
56 17 100 16 67 67 51
20 23 36 10 47 24 82
92 65 25 92 23 46 17
87 41 88 39 23 54 64
26 30 91 28 19 50 59
38 58 64 96 95 54 92
39 43 67 43 42 10 57
72 20 24 75 92 81 89
94 95 94 17 20 13 37
61 63 51 65 97 49 47
13 78 95 89 10 30 78
17 35 91 59 48 37 35
98 10 56 78 63 79 17
36 60 84 70 49 56 78
43 11 53 89 67 98 61
92 91 98 41 59 45 46
71 98 28 64 37 65 12
78 92 56 43 48 46 46
15 87 48 82 20 75 21
79 61 19 75 15 91 19
12 96 78 36 36 33 38
55 50 38 12 34 69 52
71 96 16 82 17 82 70
77 29 27 27 92 57 32
46 24 62 29 90 13 49
17 12 76 53 42 55 86
70 30 93 66 23 57 77
29 85 63 30 34 47 98
30 10 100 17 82 30 41
21 96 100 19 36 31 78
30 63 27 92 53 48 42
28 87 60 89 90 15 78
94 15 55 76 82 29 83
67 93 61 36 49 91 68
36 69 29 83 44 30 46
84 29 69 34 43 80 39
18 52 27 95 46 75 48
34 86 72 37 89 62 57
55 77 25 77 13 24 25
81 54 13 52 21 46 24
53 51 85 63 67 92 43
27 85 92 41 98 19 34
59 64 96 31 87 39 94
17 43 55 78 10 14 34
26 48 33 11 88 26 60
42 88 63 84 84 31 80
32 26 63 47 42 55 38
51 58 87 22 12 47 12
88 63 18 84 53 47 32
29 36 81 39 83 90 83
20 96 37 62 10 91 57
87 54 44 89 83 64 39
14 47 59 87 29 24 23
51 79 11 93 75 84 97
86 42 26 28 65 18 99
1.40879
1.34406
0.310783
1.15117
0.774196
1.47415
1.12877
0.602532
0.974811
0.719599
0.808856
1.34659
0.667798
0.958396
0.344902
0.422133
0.90233
1.45402
1.2044
0.655902
1.05841
0.542006
0.431572
0.9167
1.12417
1.40429
0.992412
1.3185
0.329827
0.980536
0.607255
0.376878
0.316279
1.11704
0.910042
1.16292
0.52391
1.14132
0.969671
0.446738
0.359823
1.19584
1.04684
0.513036
0.787644
0.465532
0.788525
1.36467
1.24278
1.27306
0.944467
1.37224
1.4169
0.602851
1.01383
1.14858
1.15636
0.97815
0.420255
0.323765
0.833481
1.45551
1.4426
0.34459
1.06646
0.912062
1.32057
0.561504
0.383091
0.712759
165 216
114 33
318 256
384 178
173 74
479 206
411 9
159 442
31 397
338 114
277 488
497 174
395 203
35 472
270 209
483 176
418 102
322 109
74 199
24 116
226 390
249 414
280 114
184 393
323 330
492 411
60 120
44 83
435 196
164 6
227 70
168 311
47 233
154 451
479 343
462 466
276 450
326 251
293 308
14 273
267 33
341 475
78 468
239 180
381 99
316 269
125 188
314 465
198 418
315 431
130 256
252 19
485 13
180 333
322 430
126 431
247 300
235 222
360 172
54 195
269 259
383 48
226 38
492 173
26 45
167 158
148 206
72 307
497 395
238 119
9287.5
2
