70
9
0 0 0 0 0 0 0 0 0
69 26 65 88 36 95 23 65 63
32 55 68 69 26 60 60 73 85
95 33 68 20 23 96 51 19 58
12 50 12 98 50 71 35 63 26
71 83 36 62 78 16 33 60 98
28 67 23 47 26 67 14 93 92
60 80 95 76 32 67 64 12 19
40 20 22 32 96 39 78 31 79
64 87 12 59 13 62 67 65 79
41 89 86 77 42 20 60 87 52
96 36 42 44 87 79 70 26 29
48 32 11 25 64 22 22 46 40
25 93 24 36 13 24 78 39 28
82 62 75 82 100 32 91 61 82
29 77 36 64 23 12 41 85 60
59 51 47 53 11 17 61 15 91
49 43 92 15 94 85 47 61 89
79 90 42 48 89 80 44 72 97
85 29 92 29 83 88 14 26 26
46 43 68 79 54 19 44 68 25
17 65 41 86 27 79 10 48 45
25 84 26 10 72 22 60 92 15
30 85 97 55 95 88 76 67 87
14 87 33 76 76 18 37 85 62
100 97 88 38 74 80 23 43 38
26 74 30 42 41 91 65 77 57
72 50 26 51 73 66 14 34 64
72 88 86 14 75 19 16 32 55
86 80 53 91 55 88 77 95 17
39 76 97 72 16 32 96 59 94
60 26 30 35 60 88 79 90 79
18 62 92 40 98 99 65 42 82
34 69 15 92 55 36 95 57 36
57 56 27 85 32 47 18 59 19
49 23 88 43 92 48 95 40 57
38 58 87 42 42 11 81 31 11
91 64 95 28 35 91 93 44 28
48 21 50 30 53 74 28 97 59
62 78 87 49 65 73 47 10 100
19 63 100 23 52 43 49 14 79
58 40 22 91 30 100 54 64 32
43 87 90 64 95 25 31 95 10
57 69 47 41 98 63 10 57 32
30 75 80 68 80 16 73 26 36
80 53 75 26 74 47 69 63 15
57 84 100 69 36 68 25 69 53
10 88 15 76 36 34 27 98 76
27 80 70 53 68 27 48 36 70
32 30 36 73 85 71 71 37 61
26 82 65 61 76 22 47 29 80
63 88 57 37 50 69 25 73 57
18 52 99 21 65 16 89 13 86
17 91 26 67 11 100 99 21 44
10 84 31 90 73 76 78 99 82
13 93 27 17 82 70 25 63 18
34 81 44 57 36 34 83 10 19
49 81 73 94 48 83 90 72 84
37 73 35 36 19 76 87 21 19
50 58 54 96 44 12 60 98 79
34 38 52 30 29 50 25 21 25
71 99 82 14 82 71 62 28 78
76 46 77 69 30 48 12 74 37
51 78 31 14 11 29 33 50 77
23 36 31 55 93 32 84 82 79
66 36 10 42 63 38 34 48 69
46 16 77 13 10 25 16 89 54
12 80 63 72 100 90 89 80 48
83 22 69 63 28 88 62 18 94
96 39 68 26 100 97 44 91 73
0.144474
0.265067
0.278958
0.492665
0.373728
0.220702
0.247129
0.379736
0.179976
0.184095
0.211503
0.156273
0.461945
0.391838
0.28998
0.256164
0.14429
0.284131
0.191698
0.175879
0.476323
0.188351
0.140491
0.282958
0.405406
0.127434
0.492759
0.372693
0.462193
0.261855
0.347225
0.364175
0.110697
0.46124
0.454421
0.333989
0.239846
0.248236
0.171333
0.267479
0.279046
0.293588
0.341996
0.486797
0.30322
0.25233
0.395998
0.184321
0.23548
0.30684
0.248997
0.210972
0.254755
0.273883
0.36793
0.103223
0.216679
0.19095
0.218634
0.280638
0.105034
0.168681
0.458064
0.223604
0.109107
0.40971
0.123708
0.199576
0.33078
0.149092
190 33
492 68
364 367
35 6
354 157
391 242
99 114
349 273
271 331
151 88
156 472
239 337
350 391
428 451
26 273
55 244
390 158
148 308
53 384
228 351
355 413
331 381
40 450
378 98
291 313
68 3
266 113
59 495
335 149
269 166
497 437
257 131
256 284
199 257
174 98
429 219
1 487
157 21
205 23
416 96
267 216
270 389
10 272
339 370
484 298
372 197
29 35
295 121
209 35
319 130
31 401
314 350
449 222
249 288
23 344
1 152
196 35
108 293
109 216
362 221
270 331
141 148
496 77
344 470
214 216
78 338
388 37
77 377
360 390
483 103
9512.5
2
