70
5
0 0 0 0 0
73 50 59 60 27
64 32 79 40 92
20 83 66 43 60
37 10 54 82 68
84 87 15 89 37
71 40 45 37 75
30 13 34 97 28
25 88 81 17 40
45 44 69 36 62
100 34 72 62 38
36 62 78 41 23
52 37 31 68 26
55 63 17 73 91
59 42 47 80 45
40 94 60 29 23
52 18 96 79 62
63 59 42 15 71
39 46 88 79 83
84 26 38 76 17
51 64 42 88 18
42 89 15 80 78
10 12 82 60 42
26 50 70 31 87
27 61 90 84 52
60 26 42 39 28
73 47 35 99 82
89 46 99 41 36
83 70 92 26 90
87 57 70 82 12
20 66 17 61 92
94 82 42 35 24
86 30 47 27 97
75 43 77 14 64
40 47 47 86 45
23 56 13 85 21
46 22 49 18 29
88 57 69 44 73
68 29 95 92 57
25 73 46 41 41
44 30 56 25 73
97 47 90 16 35
19 72 29 58 82
76 63 71 32 82
42 16 48 11 40
59 67 78 94 86
94 80 56 74 41
100 16 74 56 82
21 72 40 88 23
18 65 94 100 54
32 92 69 41 72
53 69 45 15 84
10 15 33 54 69
70 87 86 98 16
25 28 53 12 92
40 21 50 26 93
30 92 81 94 91
77 19 56 33 14
43 40 14 45 66
57 74 67 23 77
35 15 16 24 45
18 79 83 67 84
65 51 27 86 94
47 45 37 91 77
99 78 70 85 28
46 47 49 92 17
53 43 81 49 47
28 10 71 28 39
53 14 47 73 65
20 95 81 93 48
0.584319
0.540476
1.61373
0.934975
1.28309
1.97929
1.04364
1.94946
0.463097
1.27953
1.41197
1.34359
1.74137
0.912702
1.20644
0.532818
0.449803
1.27363
0.630627
0.996275
1.1367
1.28735
0.48215
0.764771
1.02541
0.967976
1.96871
1.75548
0.937035
0.655219
0.983417
0.866443
0.779172
0.566076
1.33285
1.54484
1.58372
1.756
0.601841
0.736117
1.39412
1.70095
1.84053
0.846025
0.437109
1.45971
0.519552
1.0005
1.93171
1.25208
0.675487
1.68073
1.72798
1.24126
1.87032
1.12123
0.565864
1.09833
0.523882
0.684362
0.479142
0.743623
0.691467
1.64617
0.416816
1.50843
0.998668
0.404217
1.30281
1.52567
475 276
6 171
292 227
440 413
21 484
85 33
158 396
100 382
262 430
103 469
168 188
68 134
435 159
330 261
169 295
315 1
267 449
2 460
452 50
362 296
444 175
276 166
392 196
197 420
140 264
70 464
483 297
247 285
198 84
186 201
434 59
411 101
142 124
70 486
121 387
419 103
478 417
296 465
431 120
347 410
363 351
159 90
293 386
258 123
3 117
436 370
216 382
292 146
393 329
317 244
417 192
289 448
326 300
42 367
89 334
447 201
222 341
228 463
482 77
313 205
14 220
160 20
375 400
131 395
162 382
293 197
409 286
365 144
393 96
343 84
6280
3
