70
7
0 0 0 0 0 0 0
80 23 25 95 15 20 72
54 19 18 93 26 70 97
60 75 15 96 24 83 57
43 26 57 86 95 10 32
39 27 75 75 36 100 28
43 93 72 40 12 87 86
10 39 72 96 36 71 75
78 97 83 38 24 25 16
69 72 40 67 72 36 48
42 91 44 24 54 92 24
87 81 83 95 94 43 85
71 53 40 69 11 25 49
70 15 42 85 77 82 51
34 38 40 66 15 65 22
52 94 43 20 78 74 68
54 24 14 79 58 41 54
24 73 50 90 71 47 28
69 46 86 10 33 36 61
92 13 52 76 44 70 92
19 10 24 71 30 39 33
73 20 75 31 16 11 54
81 97 30 92 69 12 52
14 11 88 12 95 95 99
54 67 57 42 75 82 43
33 56 46 32 92 43 26
44 68 18 74 19 37 85
79 62 38 79 24 78 26
19 78 24 78 21 22 91
47 64 99 11 58 14 60
91 14 10 72 55 17 45
92 34 36 51 22 27 16
18 12 45 17 91 81 45
21 77 77 39 36 49 13
25 30 17 34 22 17 52
44 65 92 56 66 54 23
24 66 92 58 24 70 88
21 12 45 94 79 86 39
75 76 97 61 44 84 39
100 40 99 18 92 96 37
13 25 70 75 94 66 46
56 35 51 50 85 50 10
98 35 52 51 88 47 22
38 26 31 57 70 35 39
44 81 71 47 33 63 28
57 89 29 33 91 85 99
52 68 22 98 56 84 69
52 30 36 11 28 51 41
96 57 15 27 93 34 47
25 17 70 77 55 63 31
95 80 29 48 58 25 59
53 22 91 22 27 13 54
30 64 65 59 34 58 16
65 83 31 90 65 64 90
72 82 76 30 98 78 93
50 71 91 34 25 60 70
89 21 23 94 81 63 98
50 50 29 86 67 97 17
41 11 20 81 50 64 34
97 79 92 14 55 43 68
77 58 33 33 27 96 75
69 80 12 13 65 22 43
76 64 65 10 10 96 86
84 11 38 31 70 70 76
37 69 19 20 58 42 59
83 39 55 45 26 34 26
26 10 95 64 21 91 86
32 80 19 97 47 99 41
55 93 60 95 29 68 30
68 68 84 53 48 70 65
0.299142
0.225178
0.136381
0.238569
0.403747
0.262759
0.227424
0.292088
0.156177
0.471674
0.218629
0.25235
0.23252
0.239315
0.406036
0.382873
0.448929
0.180602
0.323916
0.363812
0.26855
0.212505
0.157087
0.123085
0.31531
0.194848
0.258729
0.317622
0.164703
0.230189
0.370009
0.221024
0.115524
0.190536
0.341064
0.327147
0.443587
0.126044
0.408837
0.38515
0.446633
0.355571
0.339645
0.190373
0.192405
0.326003
0.133812
0.237407
0.351021
0.2578
0.117789
0.408871
0.461792
0.452169
0.408149
0.442444
0.489506
0.421118
0.200076
0.429658
0.17816
0.188661
0.153431
0.172845
0.374698
0.344352
0.140714
0.345674
0.197834
0.417645
465 57
396 174
177 256
389 36
89 398
463 379
317 171
76 252
177 368
194 497
265 141
211 329
319 48
448 44
373 436
497 303
279 95
76 187
316 142
146 238
445 13
142 180
355 335
400 265
46 308
60 331
0 75
308 247
149 57
147 436
292 30
269 457
454 13
315 265
261 18
420 185
445 313
58 385
127 39
91 199
468 22
326 256
127 191
243 379
298 409
300 375
498 418
498 432
485 49
390 389
380 114
474 304
100 207
340 101
277 355
435 88
92 350
44 49
404 122
447 184
271 97
56 466
176 175
167 305
125 331
1 235
357 403
56 277
16 51
473 324
9245
2
