70
9
0 0 0 0 0 0 0 0 0
62 72 75 70 81 51 11 92 80
65 54 77 92 52 20 11 27 36
26 87 83 34 36 92 59 59 71
54 10 69 75 69 47 14 30 83
94 59 43 92 41 95 58 77 25
19 72 10 49 17 44 46 41 29
25 15 37 47 33 75 64 59 68
22 12 56 11 100 24 56 100 11
19 53 45 88 58 71 72 75 68
43 67 89 41 93 44 77 39 85
87 96 75 74 14 75 22 29 61
47 88 43 92 10 92 14 96 31
66 70 46 48 55 45 16 54 99
98 71 97 87 16 28 17 69 10
93 45 34 62 32 67 10 91 88
33 87 35 40 18 59 62 55 26
99 37 30 12 52 80 68 29 16
57 26 31 62 95 67 84 96 26
47 24 61 82 12 82 63 54 17
68 77 57 31 44 44 91 22 54
81 59 60 88 41 47 65 33 88
93 44 52 15 46 83 37 50 87
71 10 82 24 70 99 100 54 20
21 94 24 75 89 10 64 95 33
88 45 95 82 67 45 37 14 88
25 30 75 40 55 96 60 95 21
49 29 33 66 78 24 27 20 49
84 54 23 91 42 96 63 69 62
78 65 79 80 88 26 96 20 25
14 63 21 29 66 66 14 64 58
80 60 14 86 86 70 75 28 97
75 58 95 12 63 81 72 45 60
43 63 41 58 55 91 59 88 81
100 57 25 34 61 17 10 15 72
26 41 75 89 23 79 11 23 28
41 25 91 59 84 53 64 66 17
79 44 18 94 60 33 59 17 28
32 21 34 83 69 70 18 44 49
55 76 67 64 64 39 81 20 89
67 25 58 19 28 17 44 18 67
17 38 94 54 36 69 27 40 83
37 27 79 76 73 51 47 65 39
20 20 22 22 24 46 47 18 70
92 79 73 24 18 64 21 16 93
100 25 46 87 87 54 50 38 11
16 100 99 53 44 96 59 40 81
54 46 63 33 83 83 96 51 80
25 77 16 66 46 43 13 88 39
34 83 22 22 92 43 91 92 84
76 42 96 52 60 21 73 89 11
41 87 72 41 18 12 97 17 48
37 37 23 14 79 39 70 32 81
78 87 85 45 64 47 65 77 87
11 82 89 80 51 54 54 98 44
92 60 30 75 38 85 15 36 91
84 98 94 29 19 88 33 77 43
50 42 89 53 60 65 78 73 76
60 16 87 62 54 13 67 16 19
57 96 22 36 49 88 59 64 23
95 76 60 28 39 82 13 30 43
24 72 22 98 19 28 47 33 65
48 62 73 58 92 89 89 62 24
69 94 12 77 60 79 89 37 13
66 48 51 48 23 18 61 71 53
73 30 49 89 96 42 10 77 44
24 15 10 15 73 35 19 47 86
73 56 15 19 83 56 42 21 53
27 97 99 97 97 89 47 67 98
44 59 13 54 31 73 24 73 81
2.27922
1.22898
0.96452
0.723844
2.09834
0.700727
0.9416
2.24698
2.26455
0.624979
2.17201
1.66099
1.18335
1.88108
0.888662
1.83187
1.80858
1.74033
0.801812
2.35526
1.08157
0.535892
0.50279
2.11997
0.95024
1.96556
2.31313
1.65843
1.58404
0.897323
2.23618
1.0895
1.50282
1.73545
1.76959
1.07125
0.829773
1.22849
2.30552
1.92111
0.599869
1.56925
2.35491
2.2436
1.55301
0.573738
0.536698
1.45234
0.871186
2.20147
1.39841
1.30946
1.86061
1.70799
0.834145
0.605257
1.8593
0.875718
1.11346
1.77823
1.68272
1.0598
1.20002
1.7954
0.523568
2.17704
1.38031
0.860049
1.38511
1.01365
478 181
41 400
379 96
250 8
90 74
42 212
20 234
92 256
353 200
15 396
490 72
167 300
28 55
72 69
24 273
484 371
190 452
52 411
402 285
191 314
101 54
394 307
445 314
45 337
10 430
156 239
226 493
434 305
94 486
418 289
478 474
490 287
254 389
110 138
228 422
202 224
14 64
403 50
181 305
112 334
413 487
122 307
478 492
410 344
325 378
193 274
285 313
450 96
129 176
444 164
327 392
92 270
64 331
193 448
482 100
136 136
391 61
363 471
67 458
123 120
226 184
177 111
190 410
472 433
231 80
77 299
57 314
113 412
30 193
259 76
9430
2
