70
11
0 0 0 0 0 0 0 0 0 0 0
34 58 16 75 36 57 58 66 41 95 86
37 97 86 15 76 72 22 89 39 72 33
32 87 43 62 15 34 80 76 36 78 42
34 14 11 48 27 77 15 93 69 22 92
29 77 53 77 95 72 14 22 76 25 25
16 31 49 93 50 49 50 28 85 73 33
79 14 78 49 83 77 91 55 98 30 91
38 69 64 91 29 71 96 12 88 14 37
11 22 69 25 41 33 94 98 56 67 18
25 95 89 54 40 60 85 47 22 34 26
55 94 20 43 29 22 81 62 61 53 43
67 53 33 47 18 20 22 94 93 23 12
15 52 95 60 52 22 52 12 51 14 58
88 63 52 70 68 14 93 60 51 98 56
98 44 94 28 31 76 44 48 43 61 85
97 47 27 15 83 95 31 26 31 33 52
45 66 63 99 36 91 89 30 89 77 42
99 16 97 32 51 18 73 66 63 85 50
60 41 63 56 13 17 54 32 78 39 75
95 96 77 60 45 21 36 57 38 24 49
80 54 27 38 23 84 44 88 24 23 78
12 18 36 86 35 44 16 17 93 89 72
95 63 45 45 25 89 26 91 98 72 26
61 77 34 79 51 67 96 45 57 72 32
35 67 96 13 88 45 76 90 42 100 62
81 27 32 35 80 81 62 29 73 51 88
38 81 79 58 63 94 36 51 19 17 92
100 34 31 18 71 32 82 22 51 96 53
25 84 20 68 45 72 42 96 56 50 27
75 20 49 64 74 30 79 86 37 52 67
90 42 58 35 41 80 82 28 76 27 96
93 30 56 50 64 82 59 75 67 10 60
13 27 56 55 64 87 41 46 51 46 94
22 42 37 88 59 65 12 72 28 26 92
40 21 58 45 17 48 72 45 37 35 14
89 38 36 14 64 89 94 21 51 99 88
50 53 77 20 88 44 85 44 72 37 42
42 47 36 25 26 29 48 94 65 13 52
47 88 79 53 100 33 83 18 50 23 90
70 84 69 53 32 79 45 51 43 58 30
51 32 67 53 91 82 43 30 97 46 29
64 11 45 99 85 54 94 34 79 69 42
38 30 61 59 71 30 59 54 83 14 46
90 62 26 47 91 44 91 76 32 24 56
81 100 81 10 38 55 73 49 44 41 54
32 24 19 33 46 79 25 32 52 35 84
82 24 65 61 93 60 60 63 61 63 85
57 60 58 69 20 36 12 59 36 89 98
78 37 64 13 31 76 28 28 19 79 35
60 36 69 50 39 51 58 79 60 63 47
73 29 47 52 31 54 14 46 32 49 71
57 42 79 65 93 50 45 73 74 55 42
95 71 48 97 13 41 84 57 76 43 75
51 58 52 61 69 16 92 94 57 78 15
49 58 82 67 56 90 14 61 47 29 74
89 49 65 82 84 41 40 18 88 18 97
79 83 23 77 71 24 95 97 53 55 49
35 46 54 64 31 97 12 67 36 83 46
14 29 71 43 47 77 19 46 56 72 81
82 19 27 62 13 92 10 22 55 45 98
71 51 90 100 15 78 54 32 55 13 17
96 43 46 59 74 35 12 70 48 79 31
81 87 98 74 18 41 66 90 30 74 31
92 93 15 32 68 100 75 90 58 23 99
38 67 62 69 49 68 54 81 32 81 64
84 42 87 55 27 74 69 18 30 16 69
34 22 33 92 60 78 35 46 59 66 81
70 74 44 57 14 82 26 69 86 21 94
43 28 10 32 13 57 69 40 57 71 91
0.472098
0.388353
0.322152
0.389827
0.242906
0.459919
0.391005
0.328288
0.295143
0.123027
0.498353
0.213048
0.325335
0.378614
0.38116
0.24959
0.336562
0.283195
0.10432
0.407641
0.498813
0.454997
0.117328
0.256668
0.443053
0.360408
0.384081
0.208486
0.201391
0.423433
0.465602
0.122261
0.422381
0.115686
0.105659
0.102964
0.127476
0.308089
0.22409
0.463289
0.406159
0.297928
0.217434
0.399227
0.499747
0.495379
0.437202
0.300528
0.365753
0.342616
0.210613
0.383847
0.328471
0.15308
0.446316
0.304812
0.151167
0.408321
0.100041
0.181747
0.143839
0.424065
0.421165
0.43136
0.190585
0.112298
0.336864
0.240958
0.266738
0.381105
82 345
254 290
371 360
418 65
410 148
372 456
167 456
80 151
435 282
432 22
353 285
486 158
484 144
362 421
438 48
147 99
150 311
293 387
3 7
288 267
500 174
480 360
291 217
103 167
40 15
352 419
169 191
446 98
323 226
68 283
394 190
117 114
80 358
7 73
51 50
63 445
452 428
142 26
276 405
248 330
131 353
91 297
458 418
311 436
392 446
244 108
340 225
78 183
434 28
53 353
451 138
6 98
300 128
138 152
312 248
169 423
337 185
120 68
42 378
109 123
163 199
99 383
333 387
128 101
396 141
348 95
5 443
368 221
3 78
493 36
18965
1
