70
3
0 0 0
39 33 26
16 60 73
22 72 86
91 88 23
36 74 92
77 16 61
36 84 74
64 46 56
96 15 28
41 30 94
97 70 66
39 43 70
59 52 20
47 23 10
37 63 38
27 66 12
18 54 43
35 81 99
40 60 16
76 48 24
46 95 72
69 32 22
38 53 57
72 58 36
29 91 62
31 47 24
85 20 54
50 70 68
69 89 62
71 53 100
58 50 73
75 96 32
50 22 33
57 79 66
31 50 46
36 94 87
30 98 67
62 56 98
88 88 65
69 52 64
68 84 53
34 72 37
41 77 75
64 26 12
88 80 26
73 77 40
32 68 17
18 42 10
98 50 14
29 36 83
97 82 47
10 44 66
93 94 76
71 74 82
88 67 50
92 59 28
53 49 13
27 74 15
97 34 29
29 76 100
48 59 89
84 40 75
23 33 32
61 54 48
93 64 58
31 50 46
88 14 20
65 76 74
20 70 59
0.489089
0.28146
0.179587
0.222394
0.296046
0.134485
0.350186
0.388711
0.433911
0.280371
0.494172
0.336928
0.284585
0.446668
0.397995
0.471555
0.117526
0.498295
0.278452
0.172126
0.465915
0.396744
0.231491
0.494079
0.104178
0.364972
0.403965
0.325369
0.437831
0.285155
0.261919
0.424131
0.291938
0.481916
0.428756
0.426388
0.405304
0.439276
0.28559
0.361897
0.108083
0.429266
0.205743
0.182707
0.245173
0.168483
0.320843
0.179417
0.320123
0.246776
0.217266
0.456303
0.428585
0.21581
0.177499
0.453182
0.247667
0.394785
0.256997
0.392226
0.344796
0.271533
0.277883
0.252039
0.484636
0.18232
0.4245
0.287517
0.205736
0.458766
382 158
482 395
399 75
228 437
166 112
113 144
50 449
265 139
409 143
444 356
362 45
223 307
191 36
71 293
431 484
270 489
200 316
31 361
272 129
493 174
245 97
24 470
394 306
22 354
378 367
40 338
395 460
6 416
468 445
488 276
203 27
408 485
171 345
265 37
44 221
238 217
294 44
97 332
94 90
214 393
117 180
161 189
182 331
490 235
337 284
42 144
18 129
485 71
433 228
351 132
10 434
432 443
16 230
65 445
261 201
397 131
493 162
290 188
446 221
333 379
461 180
202 259
330 199
66 27
249 306
179 104
471 460
153 298
351 407
124 489
6385
3
