70
3
0 0 0
59 88 52
38 81 43
13 60 68
16 83 69
79 73 69
100 89 65
39 89 45
31 23 65
45 43 94
92 90 75
89 22 17
73 14 36
19 87 90
46 19 21
28 70 97
71 35 37
64 27 34
61 66 16
93 26 12
16 99 44
24 85 60
82 11 66
100 91 90
73 89 13
67 69 26
14 92 86
49 82 38
100 82 95
64 34 66
67 10 46
10 11 72
93 33 42
78 54 27
96 58 60
77 49 50
28 78 43
31 68 40
83 50 97
25 64 70
95 72 17
81 46 34
12 74 69
23 60 54
97 50 76
10 82 74
20 64 94
39 81 34
86 28 41
30 40 87
82 98 47
49 96 66
16 49 21
84 57 69
88 49 95
88 53 33
17 91 12
28 63 42
66 37 61
91 94 54
67 85 20
82 36 50
11 62 12
43 92 65
61 32 98
74 89 90
95 47 86
72 32 45
36 32 87
64 68 93
0.215398
0.203229
0.211289
0.284439
0.489884
0.195703
0.329615
0.333772
0.352903
0.438664
0.391791
0.349546
0.331481
0.202981
0.38014
0.156821
0.362628
0.349971
0.464876
0.284401
0.280537
0.279691
0.171408
0.116485
0.301948
0.118211
0.280513
0.209058
0.411981
0.457842
0.463329
0.275029
0.23807
0.111438
0.37221
0.129173
0.200352
0.362554
0.260027
0.235825
0.375441
0.139819
0.378271
0.33923
0.215551
0.430092
0.374683
0.380579
0.264611
0.405281
0.376299
0.482538
0.219079
0.416434
0.255329
0.484928
0.180146
0.175384
0.474273
0.428649
0.289791
0.257534
0.365648
0.441688
0.383963
0.274337
0.468554
0.172172
0.361072
0.481305
88 225
115 360
40 233
407 368
204 353
332 163
36 63
169 396
54 177
157 310
274 129
40 314
132 482
132 154
370 200
73 47
472 280
196 224
284 39
188 301
175 397
42 82
195 476
381 13
319 398
224 61
252 299
416 391
163 176
21 207
18 145
159 149
398 382
182 28
354 405
430 244
381 293
161 500
131 17
299 95
322 89
447 84
0 230
276 229
384 461
5 227
125 157
155 44
285 421
365 129
133 445
218 297
226 431
183 156
120 130
193 19
457 179
6 443
410 13
325 195
479 306
382 468
292 412
391 48
145 58
329 195
291 426
456 443
483 50
233 63
9962.5
2
