70
9
0 0 0 0 0 0 0 0 0
27 66 70 27 52 74 89 61 31
36 65 58 11 20 81 58 18 65
37 93 76 54 81 37 10 46 98
54 11 17 70 12 22 52 18 39
20 19 76 65 82 85 68 86 67
83 41 76 99 38 100 68 39 30
24 82 11 64 40 14 99 87 71
52 51 80 29 43 100 29 12 95
90 80 96 68 26 53 25 100 51
55 69 67 93 22 18 74 32 44
50 98 99 23 41 60 99 81 82
88 74 90 57 25 54 18 44 81
12 35 95 39 53 80 31 43 44
19 29 100 22 47 24 83 24 29
19 37 60 51 93 29 94 48 23
59 28 11 22 82 86 19 51 64
37 92 71 59 47 25 37 26 74
24 18 14 66 10 38 61 36 34
63 42 26 52 83 67 63 90 58
25 12 87 77 40 21 24 50 88
15 32 67 79 95 47 38 26 36
13 63 15 25 24 27 63 59 70
70 22 45 38 63 13 36 55 100
16 44 70 21 80 50 86 86 83
26 50 47 36 42 84 17 74 93
31 92 32 48 77 16 67 78 24
60 98 39 94 43 21 92 16 100
19 24 79 98 20 64 76 55 82
94 25 27 87 93 59 15 72 52
67 36 58 87 31 72 97 40 12
16 26 47 43 40 78 50 14 81
80 58 94 18 33 57 32 75 47
18 33 66 66 65 18 92 13 10
52 44 21 90 87 54 53 36 27
23 29 62 51 76 79 26 22 15
31 16 63 67 21 47 65 55 84
41 83 25 76 40 69 21 17 58
92 12 45 64 16 81 52 31 65
34 35 12 82 44 69 25 21 27
62 54 41 96 47 68 82 25 32
35 63 97 97 52 31 78 61 96
37 75 31 98 89 61 69 82 55
43 51 20 29 51 42 70 34 36
27 50 66 88 26 60 41 75 69
63 48 87 16 75 40 32 50 69
76 81 11 33 28 92 87 18 26
15 69 11 30 79 22 41 48 32
30 90 14 87 64 28 37 98 62
72 36 46 91 27 12 30 40 20
64 13 10 43 31 56 43 90 32
16 98 80 97 16 40 16 72 12
75 75 69 46 35 46 64 54 35
32 50 66 69 93 68 11 74 56
99 67 36 29 79 24 32 11 15
69 82 96 44 16 48 32 96 20
24 15 95 87 72 40 74 77 63
47 51 22 43 53 68 26 21 95
22 23 46 83 41 99 83 55 99
95 93 33 72 93 50 47 86 44
59 68 68 37 61 16 99 17 80
92 25 97 11 83 30 70 81 92
29 32 65 53 73 39 62 69 87
56 17 30 73 89 90 32 31 74
12 54 95 73 17 21 81 59 16
39 99 60 69 31 22 32 82 77
29 40 77 23 94 87 87 83 51
94 68 56 27 96 63 44 78 69
21 70 96 59 22 71 20 92 96
79 75 64 30 47 57 93 93 56
1.49827
1.15489
0.768804
0.989935
1.21548
0.382634
1.24102
1.42509
1.4351
1.41844
1.1537
1.29266
0.394959
0.840398
0.592896
1.01821
0.357232
1.47587
0.399833
1.18682
0.393722
0.81296
1.2088
0.976594
0.684271
0.638613
0.54828
1.09729
0.500648
1.00171
1.10287
0.431493
0.689336
0.592952
0.716427
0.390096
0.631913
1.19146
0.313014
1.46346
0.836421
1.27853
0.721993
1.15496
1.10245
0.546979
0.860923
0.485692
1.12979
0.498677
0.884874
0.916863
1.23796
1.09946
0.302195
1.2169
1.10849
1.17696
0.706981
0.651376
1.34274
1.02719
0.38183
0.37531
0.511035
0.611417
1.34261
0.683821
1.31887
0.553325
59 394
79 40
50 281
312 212
114 32
94 213
24 116
407 222
255 248
35 490
67 490
384 213
192 256
323 427
219 309
436 9
30 390
327 193
37 204
362 231
193 30
9 11
451 139
325 178
281 78
95 491
86 112
131 364
2 166
103 151
49 448
243 20
390 40
428 17
40 155
275 249
28 53
71 263
168 190
351 331
247 391
160 353
435 51
355 213
376 216
76 400
340 233
149 62
268 59
314 3
92 28
450 62
317 95
352 155
414 139
308 85
369 183
451 103
411 21
153 119
256 255
340 450
408 494
49 491
484 452
89 314
188 221
453 145
202 340
433 64
6126.67
3
