70
7
0 0 0 0 0 0 0
95 36 22 56 62 53 62
15 74 78 44 96 88 36
82 46 41 58 16 38 32
61 26 72 27 53 20 26
52 64 74 38 58 18 25
33 86 86 45 52 81 37
41 65 49 69 38 73 60
70 32 93 98 45 21 21
16 67 75 24 23 70 47
56 80 52 57 25 78 64
20 63 22 30 88 37 80
54 84 78 19 23 43 52
25 12 33 58 69 36 83
78 88 29 62 67 51 45
26 25 19 14 44 63 72
46 34 57 90 11 24 94
74 67 18 32 23 29 85
32 43 45 31 32 92 23
80 78 90 74 88 80 80
95 25 15 30 20 52 93
70 55 86 26 58 40 28
68 69 57 56 33 50 21
90 49 98 65 87 78 33
30 72 25 97 88 43 65
66 44 62 88 30 41 95
91 72 27 73 45 72 75
44 42 19 78 40 89 43
65 85 32 58 85 90 46
32 42 88 56 12 89 14
34 82 32 34 66 68 58
17 21 90 58 60 51 97
65 19 13 51 85 68 12
73 32 66 48 25 37 40
51 15 29 45 14 93 25
36 70 87 12 22 31 74
86 99 84 79 37 28 97
34 37 24 66 63 14 65
16 65 54 34 58 12 58
86 91 32 45 95 36 100
73 76 26 40 49 63 12
50 67 74 41 94 92 84
66 39 25 92 85 19 50
18 27 90 58 100 17 91
74 30 50 64 50 20 16
47 26 82 81 85 51 84
82 21 68 89 41 27 74
37 82 80 66 81 69 23
76 36 14 86 21 35 78
28 67 47 70 72 30 26
20 25 89 85 47 25 47
68 80 44 17 80 68 38
15 80 26 59 10 54 46
64 10 33 21 33 89 46
63 70 85 70 40 90 14
40 83 59 71 24 10 16
24 91 54 70 98 13 36
71 24 30 75 78 11 45
98 44 60 70 78 81 62
45 96 88 42 26 40 90
27 20 37 25 62 35 16
49 70 41 11 16 64 86
100 19 10 53 12 67 11
57 24 21 67 36 83 75
26 54 65 58 52 70 91
20 54 46 85 95 18 96
61 41 44 29 78 64 91
64 98 19 89 50 60 23
27 55 88 27 45 60 27
22 50 42 82 91 38 29
0.577843
0.357803
0.593156
0.453009
0.695954
0.836284
0.60074
0.660901
0.547408
0.284946
0.377093
0.519172
0.545627
0.918662
0.505505
0.451615
0.907763
0.766409
0.596247
0.265058
0.501665
0.39956
0.817003
0.971807
0.297367
0.723027
0.666164
0.568846
0.706729
0.500511
0.428731
0.23768
0.587219
0.648175
0.936427
0.573566
0.503681
0.432256
0.926731
0.756382
0.450856
0.281718
0.228769
0.352792
0.703363
0.425551
0.218019
0.2504
0.315107
0.692311
0.206208
0.250725
0.862028
0.362613
0.903779
0.820397
0.715691
0.426702
0.751173
0.335993
0.993925
0.874695
0.917559
0.47865
0.932248
0.541575
0.247913
0.621322
0.44086
0.346553
302 496
238 361
414 258
55 29
63 385
469 133
362 56
249 353
117 478
449 271
430 427
94 184
301 27
373 259
487 285
482 382
451 494
451 192
121 214
175 85
11 415
468 319
351 319
47 335
465 367
187 135
366 66
407 460
454 246
243 328
405 20
219 387
254 1
195 331
277 388
102 59
413 202
436 195
396 222
34 58
265 454
422 190
221 76
184 412
391 136
284 19
20 220
426 455
52 29
290 178
411 101
434 479
28 18
139 4
450 221
174 259
372 239
106 296
247 177
337 289
450 493
207 413
99 476
230 266
345 296
395 363
387 0
100 105
493 313
123 450
18305
1
