70
3
0 0 0
84 30 60
75 43 91
32 95 23
85 18 27
82 26 78
36 65 92
90 40 90
28 13 35
63 18 99
65 10 41
54 53 81
83 88 32
49 27 92
74 31 88
90 79 20
15 20 15
13 61 75
48 26 30
95 51 33
21 57 97
73 58 73
69 19 35
85 23 97
36 48 94
13 45 95
86 60 45
70 91 27
66 48 90
44 27 43
10 31 81
20 75 51
82 83 14
29 48 25
41 78 61
78 41 40
99 30 80
16 77 24
38 53 52
77 59 23
75 67 72
73 39 75
27 98 48
89 52 98
49 46 11
60 39 96
31 80 29
54 59 40
28 11 74
63 89 58
62 22 59
94 35 12
20 57 96
54 85 12
59 44 92
91 77 24
67 39 37
68 78 68
98 73 80
32 57 50
27 40 60
14 21 45
68 66 69
77 11 39
39 13 14
54 86 19
28 59 43
66 54 14
59 60 88
48 33 44
1.99976
1.70513
0.834272
1.81222
1.21352
1.7283
0.758354
0.672068
0.99263
0.510153
0.789652
1.41441
1.67713
1.43988
1.69173
0.694257
1.62376
1.24747
1.90503
0.754436
0.590136
0.482409
0.702617
0.739656
1.97361
0.671368
0.699552
0.473317
0.929104
0.506686
1.38461
0.411367
1.82919
0.499377
1.8706
1.81466
1.72596
1.10162
0.913969
0.443119
0.627463
1.26734
0.549219
1.30368
0.41961
1.85615
1.67886
0.730051
0.799604
1.85081
1.39546
1.28741
0.91354
1.84066
1.98503
0.954462
0.457389
1.57117
0.582159
1.34019
1.45833
0.488219
1.40339
0.711397
1.82927
1.68962
1.70685
0.556756
1.85042
1.75857
283 249
281 381
193 476
46 172
339 476
221 93
53 81
154 289
338 417
356 293
136 370
497 311
231 12
224 367
341 117
49 250
395 375
302 314
64 112
238 15
471 109
251 398
185 495
303 155
497 104
127 307
302 75
33 73
313 236
34 70
304 136
83 249
140 17
106 304
471 297
183 330
246 485
331 126
44 47
353 22
276 236
400 283
250 437
226 36
387 446
85 47
121 404
239 120
396 22
257 400
144 499
223 453
466 195
293 126
329 320
246 387
445 178
182 165
235 498
246 70
41 186
90 326
70 106
39 224
196 445
176 70
415 359
16 150
379 457
262 106
3712
5
