70
3
0 0 0
59 59 97
40 64 53
17 27 93
90 93 31
39 44 60
73 80 80
77 64 35
77 33 56
36 15 39
47 74 25
45 13 87
22 41 49
51 61 82
44 74 75
31 65 20
35 33 44
39 100 20
68 55 18
73 43 47
25 46 35
69 67 97
83 85 26
25 48 24
34 100 35
18 87 96
32 71 63
37 63 86
46 52 81
25 11 21
29 78 79
24 49 86
81 59 85
12 55 58
53 49 95
100 87 88
24 82 61
60 17 97
56 24 60
92 95 87
31 20 24
58 55 17
23 49 25
68 48 56
19 12 70
16 68 34
73 47 72
92 100 93
30 62 14
70 73 20
13 20 21
33 33 65
93 48 96
71 46 37
16 66 90
65 96 43
16 80 72
40 80 90
57 73 75
27 17 62
16 10 27
91 95 73
27 51 64
20 62 37
38 12 91
73 77 40
53 100 70
41 14 39
20 80 67
98 68 39
0.34063
1.37254
0.99984
0.331613
1.02137
1.36162
0.654775
0.97908
1.1433
0.964467
1.4115
1.23889
0.626602
0.463921
0.733433
1.45205
0.739638
0.641835
1.02394
0.99044
0.311718
1.28984
1.4261
0.504874
0.381831
0.620744
1.0574
0.867636
0.86956
1.43897
1.0544
0.393224
0.615202
0.678138
1.08023
0.979229
0.501499
1.35002
0.980582
1.1126
0.369047
0.484101
0.613573
1.17752
1.48415
1.44268
0.538611
0.576148
0.9827
1.25211
0.32144
0.57284
1.13584
1.32043
0.784294
1.42278
0.421416
1.3885
0.488271
0.369264
0.764231
1.16931
0.93445
0.763325
0.971393
1.39373
0.5078
1.37371
0.626709
0.601058
440 226
23 314
22 233
285 256
446 416
138 292
242 353
279 170
158 362
280 180
210 390
50 220
231 240
98 155
283 188
261 169
305 493
332 407
263 245
52 114
292 270
128 469
69 381
218 324
39 308
335 413
382 187
98 157
141 454
287 278
78 252
27 268
419 190
45 374
438 273
94 411
103 221
290 223
139 28
260 302
294 311
156 346
245 437
357 271
388 400
66 188
64 258
414 450
62 156
451 138
124 46
23 151
334 159
116 48
76 118
362 328
499 471
353 446
375 267
124 246
118 91
59 74
497 4
413 121
343 198
217 216
119 313
141 25
237 164
116 191
3731
5
