70
5
0 0 0 0 0
32 52 81 61 98
20 28 37 74 84
48 31 78 85 70
48 28 36 14 24
14 53 21 23 15
31 83 60 86 18
36 35 20 76 11
57 57 26 36 65
76 44 66 95 26
34 64 98 52 56
99 79 46 89 29
87 37 30 73 78
12 93 19 56 35
26 46 72 98 80
75 15 58 70 34
28 27 49 59 22
19 72 25 99 45
85 42 66 28 93
94 36 89 55 55
78 64 73 35 63
42 76 42 96 24
52 99 18 86 25
50 28 46 100 70
36 17 81 14 89
81 66 54 86 21
48 42 86 13 57
55 69 78 47 20
35 98 22 13 24
16 93 29 97 75
95 49 90 81 10
92 79 88 89 69
61 19 76 49 61
80 35 59 25 38
29 43 85 98 49
32 61 54 48 85
99 44 13 68 21
62 80 68 11 84
51 19 27 62 21
23 30 68 99 29
79 20 94 54 55
81 68 51 76 21
34 78 39 60 61
92 98 85 76 33
66 43 80 52 51
85 12 39 41 16
79 52 52 86 66
68 61 25 14 44
49 58 89 44 84
39 48 18 73 52
80 14 82 36 51
68 50 94 80 20
62 24 65 60 26
15 69 88 99 33
94 41 60 30 26
89 99 93 91 89
68 29 82 98 36
26 57 47 66 73
99 83 17 69 64
26 88 15 82 59
52 89 88 61 50
93 73 76 11 17
34 68 38 42 41
25 93 88 62 76
85 84 76 94 71
37 91 90 76 56
83 99 61 81 34
81 77 42 63 70
33 76 92 12 82
66 54 61 53 90
1.99661
2.38877
1.90541
0.602681
0.937375
0.899858
1.69066
2.14612
1.08838
1.66351
0.772685
0.630541
2.11165
1.05419
1.70479
1.7909
1.12763
0.695186
0.768783
2.25896
0.766514
2.11606
2.19759
1.8046
0.503663
0.976098
0.82748
1.19045
0.813391
0.583322
0.58546
2.24837
1.26259
0.847405
0.536029
2.13727
2.35878
2.13451
0.588616
1.18754
2.33126
0.886321
0.550565
0.752448
1.02408
2.37404
1.53642
2.17675
1.44269
2.24176
1.61854
0.611497
1.11835
1.83732
1.43281
1.51833
1.58163
0.800828
1.32255
2.48232
1.90657
1.38867
0.961352
1.28569
2.44999
1.17716
0.910226
2.20153
0.752079
0.72842
21 490
19 205
201 290
17 418
285 219
480 273
124 405
135 387
71 190
92 23
256 434
442 325
450 294
179 154
401 133
287 405
154 151
157 271
345 291
135 108
466 157
5 497
28 277
143 396
366 361
193 458
427 261
215 357
440 439
232 262
304 288
145 388
235 43
155 45
169 160
426 308
235 235
9 229
296 330
125 91
51 133
77 244
214 262
282 83
416 361
404 247
203 127
128 462
228 143
27 139
245 1
133 91
124 35
492 95
350 13
146 350
218 145
235 410
348 30
363 147
350 251
252 314
244 152
418 476
162 51
77 180
126 240
180 391
410 406
82 270
19620
1
