70
7
0 0 0 0 0 0 0
17 55 60 51 17 95 52
64 48 51 22 74 73 83
83 88 30 39 21 18 50
19 20 23 88 18 69 79
94 98 55 35 49 93 47
58 27 56 46 71 48 54
58 71 99 46 86 68 57
85 17 74 75 12 80 35
55 65 70 72 34 15 30
68 71 20 15 16 26 71
55 93 91 87 99 39 24
37 33 83 69 83 54 18
79 98 75 13 96 99 22
75 65 37 74 70 52 100
12 64 67 84 77 60 47
12 42 45 23 83 91 69
78 45 37 66 31 79 75
52 40 58 15 11 41 20
74 82 55 69 73 21 98
32 27 84 48 92 48 23
58 29 92 48 53 16 70
87 83 71 96 87 39 84
47 26 42 78 56 92 54
19 85 46 16 60 26 26
72 65 84 77 55 85 59
92 77 15 100 48 35 16
94 35 86 28 46 77 50
71 55 51 76 78 67 10
98 65 48 52 54 33 16
35 64 44 89 18 68 63
49 84 66 30 40 33 56
68 58 31 72 61 17 91
81 62 48 50 99 44 63
78 62 19 70 40 16 83
70 12 31 48 74 23 97
84 56 50 93 36 92 32
25 39 52 23 94 49 88
64 74 80 63 59 33 14
89 85 68 42 60 87 90
22 88 35 96 63 81 72
70 12 19 23 87 12 96
39 97 76 60 96 100 50
31 78 98 12 67 67 100
94 65 95 13 81 56 76
67 88 56 58 94 44 26
74 59 48 29 72 24 79
52 100 26 81 24 67 31
96 45 13 21 100 93 46
70 82 100 82 38 92 16
52 96 20 52 58 80 71
69 42 12 14 74 20 66
34 95 34 42 38 33 80
76 21 45 73 95 90 86
84 28 67 19 99 78 16
18 67 76 33 19 74 42
66 47 61 97 88 76 31
64 56 33 98 57 57 35
52 90 59 88 78 23 88
46 32 42 58 19 51 98
93 42 73 27 86 10 83
97 57 77 32 61 22 62
97 77 42 75 26 89 70
61 63 83 38 23 85 53
89 15 45 58 87 25 76
97 51 44 60 40 32 42
69 82 10 43 79 10 18
57 36 40 37 27 93 33
16 89 62 79 25 89 47
100 20 60 72 60 67 88
0.853436
0.718274
0.75556
0.903015
0.822045
0.942075
0.959282
0.853808
0.504301
0.657376
0.430745
0.638821
0.236385
0.625943
0.325048
0.679219
0.897305
0.6542
0.821499
0.86578
0.740266
0.263479
0.940309
0.307329
0.750353
0.559167
0.395015
0.20092
0.454267
0.325747
0.89063
0.322517
0.576923
0.463512
0.405031
0.228685
0.421147
0.639453
0.230683
0.257996
0.969327
0.906651
0.625157
0.582117
0.294374
0.857828
0.86289
0.757214
0.816422
0.693501
0.259769
0.925485
0.738483
0.86061
0.586703
0.507743
0.926724
0.536021
0.644646
0.461997
0.962036
0.488407
0.63764
0.543836
0.654561
0.71031
0.861219
0.751505
0.811851
0.885392
423 187
203 178
49 319
231 390
137 178
104 422
339 204
242 421
327 443
401 68
168 476
53 141
371 404
118 437
142 229
32 286
339 204
139 46
147 487
386 35
184 99
301 340
226 102
261 406
348 24
479 48
378 161
43 332
292 57
377 350
54 69
446 340
118 435
442 255
1 124
400 172
455 314
156 247
410 466
17 441
68 330
367 283
462 37
335 424
498 439
308 226
30 473
406 462
140 359
99 24
189 328
148 255
283 74
499 14
391 466
127 276
208 453
145 310
397 102
176 334
476 88
176 331
312 189
72 123
176 56
84 52
279 230
103 36
281 312
378 187
4955
4
