70
3
0 0 0
70 66 79
74 45 17
29 59 21
83 96 92
90 14 78
53 79 58
48 100 28
49 84 36
78 44 20
89 60 19
72 91 23
25 99 95
21 59 13
92 97 38
59 89 73
57 79 95
71 50 19
38 53 93
56 19 13
97 40 71
62 12 77
21 18 49
25 85 38
55 66 94
93 87 75
48 40 11
41 90 94
36 87 34
36 96 69
24 11 59
79 86 24
87 91 70
32 28 24
47 68 99
54 67 94
98 47 35
15 16 29
25 63 15
31 63 73
23 78 37
89 69 49
68 41 34
76 94 23
51 95 88
86 35 13
74 24 30
79 33 45
38 63 87
35 39 22
46 75 88
57 73 63
17 80 21
73 10 95
16 82 61
50 23 47
10 83 16
19 67 27
41 97 64
49 61 25
31 15 34
53 37 20
60 37 80
46 63 99
15 28 35
58 11 23
79 73 95
46 68 26
74 24 50
17 20 13
1.16817
0.55277
0.423299
1.48213
0.933085
1.49993
0.910032
1.04658
1.30701
1.22741
1.35151
1.23487
1.16767
0.476145
0.700933
1.19644
0.459775
1.42068
0.849412
0.77829
0.357862
0.927759
1.0426
0.311001
1.47341
1.33299
0.453687
0.766835
1.13125
0.984711
0.516106
1.22982
0.7928
1.11029
0.381188
0.550544
0.81826
0.984902
0.387012
1.46517
0.389869
1.18408
0.593662
0.769289
0.31454
1.28301
0.808838
0.527509
0.868215
0.881646
0.66057
0.829288
0.956403
0.891536
0.939922
1.49872
1.12456
1.11705
0.951581
1.33325
1.04221
0.329241
1.24458
0.687193
1.08997
0.661544
1.18534
0.505769
1.25055
1.10341
133 345
294 78
57 159
386 381
68 209
71 488
376 389
327 282
166 469
391 424
387 24
64 412
56 187
212 108
364 40
301 406
100 394
309 239
253 299
239 65
455 396
76 120
52 152
50 188
401 218
251 318
210 64
116 148
163 314
420 74
122 33
393 376
149 45
153 354
288 248
26 385
121 89
248 367
236 276
141 62
225 140
219 500
425 456
418 182
256 54
165 236
432 354
169 321
48 126
101 354
490 391
311 385
398 100
367 133
253 145
29 163
169 15
236 151
247 174
490 157
422 341
385 88
142 142
184 105
458 289
40 144
328 319
466 272
72 305
313 192
9275
2
