70
7
0 0 0 0 0 0 0
54 54 11 35 12 83 40
29 50 53 53 86 68 77
27 93 35 39 45 35 84
57 38 60 78 61 78 66
41 89 62 95 43 20 45
81 42 68 85 68 54 13
96 97 70 29 92 57 97
95 24 70 100 32 80 56
93 34 28 88 59 13 94
15 10 62 73 75 88 45
99 85 80 21 19 11 81
80 58 39 44 88 32 84
58 26 27 55 80 24 100
96 98 92 100 32 42 21
71 37 52 69 56 29 15
76 65 74 38 92 28 36
72 76 84 23 65 66 83
39 97 40 28 45 77 54
46 32 23 60 50 99 75
15 86 83 14 81 47 68
11 87 100 44 60 90 35
98 78 17 14 94 25 10
42 70 71 44 41 100 82
42 64 48 41 39 26 88
75 43 56 90 39 36 39
29 74 54 51 66 84 36
15 89 53 17 59 74 43
87 78 40 25 46 58 80
58 82 42 28 47 73 96
16 85 22 58 77 69 23
16 64 72 58 31 94 55
48 11 89 56 36 47 21
57 38 69 24 35 17 85
68 48 78 74 52 87 72
24 49 25 79 31 22 37
30 23 61 96 56 25 60
77 29 74 47 24 88 23
92 75 41 19 44 56 34
45 87 11 42 37 28 31
97 94 27 11 36 42 34
84 64 28 23 17 45 17
11 27 76 14 21 71 85
57 31 20 25 77 40 64
77 73 21 24 49 86 75
23 58 89 73 35 32 25
74 59 24 33 92 82 49
100 11 15 51 74 80 72
100 77 21 10 34 14 78
29 57 55 98 55 12 28
96 81 98 78 71 74 14
63 68 75 57 36 83 82
14 10 54 87 19 39 46
44 53 70 75 27 88 43
40 35 31 43 46 45 28
53 25 47 85 27 66 25
62 49 27 40 44 39 49
22 96 38 93 67 16 59
92 43 17 90 12 78 60
72 75 21 17 84 50 16
28 53 36 100 59 72 76
69 17 29 62 60 45 91
47 72 44 66 69 10 48
39 10 44 47 97 71 71
19 71 87 65 46 13 81
72 69 62 43 32 44 20
73 36 85 84 17 16 93
92 89 14 42 48 26 11
18 62 68 75 62 35 37
59 22 93 21 33 84 25
1.25865
0.896096
0.326597
1.21025
0.985405
1.36741
0.666031
0.338466
1.2969
1.13751
1.4719
1.00092
1.37866
1.4617
0.445638
0.791058
1.4046
1.34154
0.975622
0.889522
1.11138
0.594852
0.440625
1.25116
0.390598
0.937365
0.599466
1.16436
0.9606
0.483244
0.334344
0.331339
0.970684
1.4829
1.34422
1.23453
1.04189
0.745438
0.940828
1.4687
0.585351
1.02045
1.10284
0.532993
0.873255
0.997492
0.326891
1.35026
1.22726
1.39133
1.37851
0.326193
1.49817
0.706286
1.13683
1.00739
0.641894
0.612306
0.621394
1.39717
0.848258
0.622409
1.40321
0.646424
0.316719
1.42154
0.673018
0.6119
0.563217
1.44982
211 48
109 64
166 297
177 94
333 391
288 321
241 423
448 136
242 390
99 357
1 217
40 51
274 205
394 110
448 81
292 383
455 280
134 41
488 2
270 33
419 58
426 228
412 269
341 133
359 90
39 406
244 129
381 24
50 69
231 83
49 68
108 465
337 293
54 433
461 301
495 124
411 144
152 9
281 365
464 324
308 20
343 51
233 89
218 388
462 479
60 267
103 80
282 47
303 89
122 330
422 58
337 310
339 215
15 363
493 495
11 63
484 21
98 195
324 370
366 286
169 416
162 371
210 117
72 490
420 154
278 26
468 62
14 324
218 83
434 472
6171.67
3
