70
5
0 0 0 0 0
99 58 33 84 35
95 16 66 24 93
94 24 98 88 24
23 14 80 37 42
16 43 44 76 28
61 93 42 60 72
81 39 58 68 35
37 19 68 36 84
18 24 32 71 83
16 41 45 16 67
11 34 64 47 60
87 76 44 82 85
64 42 17 100 49
63 97 82 65 41
80 92 52 64 41
90 76 28 16 88
80 41 38 54 100
16 96 14 54 76
25 99 28 45 43
79 89 13 84 20
19 67 80 68 30
60 63 60 32 19
45 49 77 24 71
47 47 71 94 100
26 72 73 75 94
99 51 47 28 81
45 54 28 95 86
18 30 41 53 68
54 11 80 73 34
52 84 43 96 18
55 68 95 31 26
43 79 53 60 53
38 51 33 18 30
55 50 19 61 47
29 72 95 46 62
21 79 83 38 98
56 72 82 48 29
30 55 94 60 24
30 54 86 83 87
97 47 65 79 32
26 60 54 89 97
26 88 37 98 10
80 69 15 36 73
29 27 80 76 25
48 37 12 19 54
49 93 99 27 31
74 33 93 62 33
29 31 24 56 57
75 72 28 78 51
92 58 73 76 63
44 63 93 33 94
20 61 67 98 98
42 44 94 56 64
54 85 37 10 66
75 92 62 48 85
42 48 88 24 81
97 91 100 23 32
88 84 52 39 70
73 30 89 72 56
13 52 76 87 32
71 54 71 47 48
67 31 67 100 46
63 79 78 78 72
39 59 10 12 68
86 21 27 30 32
16 79 74 54 53
83 59 50 59 14
75 27 68 55 80
20 84 68 13 73
1.36081
1.07325
0.787054
1.28075
0.90214
0.656382
0.587139
1.4318
0.333984
1.11638
1.33132
0.80086
0.930235
0.777415
1.43002
1.12425
1.15419
0.595925
0.405556
0.456367
1.40663
0.450753
0.553426
0.883749
0.431001
1.33694
1.26794
0.452865
0.558636
0.631861
0.59552
0.653548
1.34256
0.895274
0.739245
1.22953
0.855499
0.439806
1.31294
0.609498
0.648624
0.551539
1.24632
0.739698
1.12136
1.05314
1.47176
1.19296
1.48851
0.313823
0.579202
0.689901
1.30701
0.92806
0.378483
0.323691
0.582652
1.46781
1.30272
0.820326
0.586642
0.758291
1.26989
1.01638
1.40329
0.86696
1.08008
1.42988
1.03513
1.37294
107 230
390 279
186 486
302 206
24 477
133 292
251 55
263 78
25 10
58 330
330 262
93 143
327 447
390 8
452 149
156 0
203 151
64 61
385 283
102 460
271 335
128 49
196 410
167 250
471 442
485 15
4 238
344 128
77 316
479 60
423 196
418 39
6 438
313 346
368 378
383 198
374 416
487 461
454 149
159 134
188 442
237 427
50 231
395 325
279 48
416 52
376 277
311 199
102 353
496 411
108 207
245 386
340 442
287 107
404 361
267 203
99 369
52 236
261 98
454 277
396 435
97 20
5 253
323 115
500 174
463 377
118 461
411 414
359 94
251 131
19465
1
