70
7
0 0 0 0 0 0 0
77 56 47 28 94 56 63
99 80 62 26 11 58 47
44 99 16 29 25 18 26
36 70 31 72 72 10 14
49 77 21 16 34 12 71
98 77 73 57 58 35 48
57 91 89 60 55 95 35
44 60 58 35 21 26 40
41 31 56 70 43 92 68
18 60 12 60 33 49 11
79 69 20 46 83 17 35
36 37 39 78 64 90 30
13 63 75 68 80 18 28
62 26 28 100 94 14 94
69 69 88 94 39 99 93
37 18 14 67 65 89 94
46 55 93 95 65 67 83
14 59 74 25 97 50 48
76 59 70 23 26 47 20
49 60 82 71 62 48 14
19 85 11 41 72 86 83
32 99 91 80 10 72 48
48 24 48 78 80 16 78
84 20 67 54 51 53 85
24 64 78 79 93 37 89
10 90 36 76 15 25 63
71 88 19 45 45 63 62
54 82 62 18 67 39 70
50 56 50 73 38 58 27
58 95 39 25 53 84 16
58 37 11 96 80 56 40
44 24 60 78 100 91 93
35 27 19 31 49 10 28
52 97 14 76 75 33 97
37 74 63 46 73 44 88
39 27 19 100 19 79 59
11 96 57 27 57 56 35
58 26 68 98 90 20 28
84 17 30 42 87 14 80
66 46 47 51 32 83 53
18 86 97 10 89 79 28
12 54 76 59 74 67 35
47 53 55 37 27 82 96
70 39 85 84 59 62 14
44 91 96 41 34 95 74
29 53 93 23 78 43 65
70 30 79 62 72 74 97
59 13 89 48 26 98 100
39 12 36 31 74 23 97
17 74 15 74 63 25 12
22 50 70 75 98 60 82
49 12 51 20 72 62 56
62 15 16 63 38 100 75
61 90 64 96 17 78 96
31 79 38 87 18 96 12
61 90 99 13 31 99 78
20 81 16 34 57 94 88
34 60 28 53 34 96 64
58 55 40 87 71 22 54
40 53 57 99 16 40 76
14 41 23 72 29 51 74
11 100 49 23 53 95 16
94 44 61 17 41 68 12
70 93 68 57 84 56 81
10 83 20 69 26 16 61
46 91 41 52 93 52 22
28 42 60 55 15 11 52
30 99 60 48 100 40 72
55 95 57 95 88 46 47
0.453597
0.411018
0.489147
0.146352
0.302744
0.421589
0.407184
0.25729
0.432773
0.286372
0.47852
0.482689
0.119001
0.174325
0.350178
0.169468
0.160602
0.116185
0.173978
0.32105
0.235692
0.318908
0.21465
0.476022
0.240994
0.381307
0.424376
0.331901
0.28273
0.401393
0.146114
0.499159
0.217879
0.263023
0.387928
0.393088
0.388845
0.462795
0.377314
0.124653
0.476402
0.306533
0.371032
0.134323
0.371744
0.338052
0.305768
0.169644
0.448124
0.252496
0.178861
0.32764
0.374503
0.345839
0.197645
0.479942
0.372499
0.14529
0.465877
0.485108
0.184968
0.339365
0.331049
0.447912
0.167673
0.334613
0.162021
0.383812
0.337067
0.147842
165 490
107 489
392 177
24 451
218 309
466 430
340 233
191 374
463 339
52 96
352 324
75 155
257 421
276 275
132 342
388 373
378 220
314 187
335 28
485 419
257 66
176 454
303 470
20 360
218 492
430 459
442 96
217 281
72 360
197 303
304 457
401 306
341 444
373 233
475 238
211 138
178 42
311 251
231 145
77 297
411 337
82 384
327 101
329 378
49 12
170 446
40 450
268 215
128 128
15 396
154 137
113 165
147 18
29 162
447 201
164 116
438 17
475 99
67 93
464 372
37 238
260 153
305 198
105 405
183 315
236 157
251 155
378 139
279 7
181 148
9457.5
2
