70
5
0 0 0 0 0
49 49 37 59 71
60 83 44 12 81
54 43 87 64 60
24 68 77 53 77
46 99 16 19 79
15 89 79 51 32
49 81 92 49 52
85 18 97 12 42
93 57 30 60 45
11 85 63 98 65
96 33 35 13 94
68 69 100 15 75
41 25 24 59 73
76 29 67 36 93
43 27 56 32 61
86 35 42 37 98
53 54 20 37 82
96 86 97 34 84
79 36 34 76 95
74 30 71 66 12
59 25 93 23 46
85 92 93 76 52
39 67 18 37 38
49 65 21 96 87
29 35 64 44 64
32 41 61 73 97
79 64 65 20 93
61 18 70 83 42
28 83 19 31 89
63 17 77 49 88
54 12 28 30 27
16 62 12 81 42
57 26 53 43 71
60 51 100 10 59
61 70 61 44 17
42 10 42 35 34
12 77 79 23 15
33 94 35 91 84
86 26 18 86 36
72 17 50 40 53
13 61 49 90 51
49 20 85 21 100
24 28 98 44 12
20 18 11 48 95
68 51 88 95 45
62 71 44 44 86
25 98 18 26 29
55 74 46 65 72
76 47 35 51 11
17 95 75 47 16
63 35 61 28 89
46 58 31 29 37
63 12 40 72 76
95 63 42 72 62
70 34 18 99 12
22 52 87 20 83
12 26 28 39 74
20 94 71 22 13
11 37 58 34 91
23 41 69 79 91
35 59 27 16 24
88 95 67 89 81
92 73 90 97 33
29 73 23 14 56
71 22 64 26 88
69 65 58 71 42
38 17 61 53 95
50 26 79 89 97
27 15 59 39 91
0.4551
0.365757
0.331392
0.333119
0.203209
0.160696
0.403308
0.108121
0.284135
0.204096
0.274843
0.398901
0.367072
0.256002
0.135015
0.164973
0.368354
0.266541
0.300092
0.130243
0.382985
0.102724
0.26832
0.41985
0.228776
0.12372
0.498341
0.485378
0.393283
0.381151
0.356901
0.26392
0.265523
0.376055
0.174651
0.124307
0.343574
0.267168
0.307648
0.373488
0.446057
0.397658
0.400216
0.366049
0.133108
0.1101
0.378355
0.390809
0.368104
0.240763
0.269293
0.169605
0.113201
0.482834
0.254658
0.106137
0.443374
0.209365
0.285532
0.495634
0.261321
0.1871
0.162776
0.130021
0.321042
0.327245
0.394407
0.241079
0.180607
0.464628
400 201
76 185
398 381
311 167
223 267
439 438
374 204
19 78
467 143
137 94
114 60
247 427
132 52
139 129
92 233
207 64
152 273
114 53
4 311
41 189
356 348
479 81
191 197
311 313
353 359
317 309
327 170
303 190
166 347
23 154
482 161
484 465
413 165
470 77
65 42
464 148
202 437
280 432
426 383
433 196
156 191
407 125
57 188
150 465
301 87
235 348
340 234
169 183
318 92
201 409
37 292
209 227
227 207
410 8
132 19
356 40
284 169
219 211
39 242
236 97
2 270
158 318
253 169
490 344
183 438
426 305
374 375
490 354
355 196
33 54
6178.33
3
