70
11
0 0 0 0 0 0 0 0 0 0 0
51 14 37 56 61 75 21 78 97 79 73
20 90 33 16 43 25 86 34 72 47 76
53 66 36 64 10 81 29 43 96 20 62
88 25 37 60 97 78 85 35 34 24 86
51 22 63 22 82 94 76 12 26 76 41
22 43 65 92 10 34 67 98 86 91 10
93 86 28 44 34 74 85 35 15 64 81
71 64 48 94 76 83 25 22 97 32 97
19 100 24 98 49 21 18 98 84 31 57
30 42 59 95 80 10 36 16 63 45 68
70 44 43 98 65 26 93 99 49 83 97
83 19 60 70 92 93 64 55 90 75 70
41 88 70 93 25 93 63 65 83 62 93
52 31 30 56 23 96 39 29 31 24 80
35 95 51 75 31 67 22 56 84 60 21
67 66 25 99 42 22 79 22 26 96 28
86 81 93 71 58 31 84 40 17 24 98
16 29 91 67 90 50 20 48 28 24 50
62 65 79 82 63 11 76 16 12 80 73
55 96 70 96 61 61 22 61 36 51 67
11 93 28 18 21 11 91 75 80 78 95
60 77 34 72 35 13 52 29 60 61 71
20 98 72 12 82 63 75 45 35 62 71
26 36 48 20 56 51 46 78 15 74 62
29 65 16 28 90 50 98 56 70 55 42
82 73 35 84 35 39 17 53 84 58 40
67 35 10 14 68 61 45 17 91 70 32
83 43 35 25 96 65 64 16 99 68 10
21 77 13 85 57 78 18 31 36 21 94
86 92 29 26 72 41 49 88 98 36 99
70 60 41 95 73 42 93 65 14 47 90
69 84 60 77 31 97 65 39 36 45 42
70 84 31 78 80 63 11 17 11 45 95
67 56 30 87 41 67 22 23 86 51 36
43 40 47 15 92 29 11 97 34 84 66
61 44 34 25 24 99 16 66 23 87 99
23 66 79 35 28 81 45 67 60 63 49
75 33 46 83 75 39 91 21 60 21 40
66 85 41 95 98 55 91 34 60 61 38
29 57 47 93 13 70 81 91 31 74 80
44 58 25 27 11 55 16 74 99 92 31
66 24 42 16 35 14 99 45 98 64 50
73 65 15 46 97 46 18 86 55 19 24
95 29 46 74 92 99 58 100 15 25 86
85 62 100 86 48 12 35 19 86 24 46
32 39 29 24 44 71 90 29 39 18 61
98 19 32 79 88 83 79 43 59 30 80
41 51 79 32 97 53 74 60 66 86 20
16 21 15 26 79 54 40 86 82 38 60
64 74 15 76 21 34 71 94 22 96 29
69 13 56 79 55 79 13 51 42 96 35
45 71 93 27 34 19 22 30 76 67 48
62 33 74 87 65 44 87 44 44 86 23
59 92 47 100 10 60 34 99 83 14 35
10 82 23 34 50 43 18 23 92 41 17
42 46 13 90 80 40 44 45 19 48 37
65 62 79 62 27 14 46 58 52 54 26
72 99 40 18 61 77 55 70 39 90 41
33 30 61 33 100 26 11 96 61 66 11
53 89 66 37 29 63 97 41 92 41 74
92 69 30 66 27 75 63 12 35 60 56
93 53 60 100 50 88 44 68 16 68 62
37 81 77 69 88 82 39 53 26 90 32
50 10 23 39 28 91 37 32 14 25 53
91 45 24 21 14 82 31 47 27 24 52
54 71 89 26 88 57 90 90 63 70 93
22 19 18 68 94 63 81 94 90 86 65
14 30 93 22 98 64 46 67 87 53 64
83 90 77 10 74 88 79 39 50 27 74
2.04835
0.976128
0.993469
1.30007
1.03132
1.20081
2.44565
2.01533
1.41142
1.47752
0.911831
1.03744
1.17398
2.32735
0.723944
0.614776
1.42601
0.75278
0.627414
1.07332
2.49286
1.25468
2.16819
2.35904
0.833198
0.551325
0.966676
1.92492
1.75212
1.43184
0.901261
1.43477
0.944491
1.23129
1.11618
1.47197
1.58632
2.39654
1.4677
1.35014
0.685213
2.16909
1.54525
1.29273
0.768813
1.85853
0.778389
1.74976
2.39629
1.98
2.10657
0.812564
2.47955
1.06409
2.45583
1.46682
1.25571
0.60423
2.13273
0.534385
1.00959
2.39139
2.44551
0.643536
1.13538
2.40449
2.40757
2.27105
1.49935
1.83631
154 347
433 37
491 258
352 472
300 365
28 480
266 311
186 75
374 244
375 140
115 255
113 462
424 476
175 119
304 415
176 311
330 493
61 160
250 63
355 115
474 92
470 58
19 350
168 460
283 84
279 261
376 133
278 431
237 132
283 126
482 357
284 182
58 400
234 236
183 320
125 235
359 132
348 156
78 346
98 31
139 233
488 202
436 236
455 72
81 492
486 315
118 473
143 266
288 92
230 270
267 359
194 379
45 179
339 384
206 275
137 403
497 127
205 151
283 325
491 395
492 398
181 121
140 186
413 326
357 279
56 316
398 280
335 398
364 418
383 64
3807
5
