70
3
0 0 0
100 24 23
11 22 48
84 58 38
67 57 30
22 53 76
88 62 19
43 33 61
89 78 93
43 30 29
10 34 19
41 13 78
78 60 73
32 66 53
54 92 74
26 100 26
85 86 56
99 10 82
45 97 81
57 44 45
76 56 20
78 60 100
32 58 78
75 87 71
16 63 83
52 32 34
97 95 40
36 96 33
94 23 65
37 52 23
79 48 40
10 59 35
45 92 34
88 15 62
16 81 48
28 76 86
57 87 48
92 88 61
32 13 61
22 23 98
53 48 85
30 14 16
21 78 66
22 18 34
80 60 82
82 71 60
76 81 24
74 22 49
21 70 80
13 52 13
77 89 60
98 56 58
68 69 93
27 17 81
29 68 67
75 21 83
79 12 31
70 60 28
71 75 39
91 65 85
72 69 11
87 65 77
34 56 56
70 36 12
71 74 83
55 64 10
56 89 15
33 49 54
85 14 42
65 73 64
1.88911
1.46823
1.89711
2.16818
1.25731
1.50005
2.3821
2.38415
2.49511
1.65784
1.63477
0.805645
0.984832
1.42098
2.46277
2.04693
1.76191
1.27924
1.68083
2.12699
0.994458
2.37383
1.63141
2.3732
1.90366
2.09155
1.41535
1.89138
2.03818
1.65892
1.54558
0.804466
0.503372
0.564222
0.733463
2.09107
1.56856
1.14023
1.03774
1.47378
0.631749
2.48493
2.06609
2.36338
0.666892
2.36002
0.984571
1.80794
1.26324
2.4262
0.823107
2.45913
0.556833
1.63297
1.52476
1.56576
1.67839
0.637263
0.783014
1.41729
1.99681
2.22543
1.31145
2.21739
0.543185
1.49654
2.11015
1.73373
1.08799
0.547518
365 330
90 0
211 315
80 103
269 351
41 182
263 361
152 86
347 289
42 84
159 335
224 480
25 70
174 141
487 343
167 202
248 318
208 422
432 471
262 76
284 307
381 367
379 447
235 358
262 203
376 294
252 183
144 271
390 453
193 323
443 141
485 385
352 291
372 242
262 480
274 26
389 458
72 254
31 482
168 364
151 418
236 224
373 183
125 163
78 414
91 50
223 38
5 494
481 4
356 224
337 476
321 210
403 259
348 357
275 144
97 445
442 122
357 349
93 158
429 338
238 207
224 122
29 8
126 335
273 179
500 437
101 455
17 181
281 475
67 210
3820
5
