70
5
0 0 0 0 0
65 95 93 87 89
22 78 20 88 74
81 32 35 54 51
39 76 83 85 58
90 24 37 31 80
80 41 58 77 72
80 53 72 38 30
48 62 21 84 89
30 39 38 54 96
41 54 15 10 67
18 92 33 71 62
24 100 96 53 19
61 90 94 100 41
49 91 37 62 70
30 92 72 99 35
75 26 11 72 58
82 29 42 79 88
27 77 40 11 26
14 43 59 75 75
88 37 19 92 94
21 82 88 30 52
60 47 43 94 70
38 37 87 76 70
95 99 86 26 74
82 24 96 63 77
88 85 74 72 37
43 51 42 21 21
89 88 29 99 71
70 16 73 94 64
63 79 87 71 69
34 28 38 60 54
97 94 96 45 74
24 40 19 60 53
33 18 19 33 14
54 83 64 40 56
30 70 52 79 73
33 18 45 57 46
49 62 57 55 96
53 53 78 27 24
99 54 63 58 52
14 13 18 31 67
94 42 77 27 45
10 24 32 62 77
62 77 57 48 30
45 13 12 62 23
75 12 45 97 51
71 82 47 99 83
31 11 30 14 41
29 60 29 70 96
23 54 77 78 37
51 40 94 33 10
94 73 19 42 20
52 72 63 34 55
22 25 88 30 28
41 47 58 14 27
70 86 22 55 24
28 18 56 62 42
57 32 62 60 58
54 93 20 69 33
100 81 91 90 23
26 17 89 19 23
81 62 59 17 21
30 89 15 37 87
86 67 84 87 61
28 55 53 35 92
49 85 86 76 17
52 38 49 68 73
84 39 84 38 99
54 86 41 30 80
0.172345
0.16111
0.492818
0.368934
0.400237
0.351111
0.474661
0.199927
0.497825
0.33909
0.105586
0.244246
0.489689
0.494768
0.291517
0.400366
0.404927
0.371365
0.114355
0.444967
0.189913
0.22076
0.497394
0.174759
0.183654
0.268339
0.300119
0.107683
0.267171
0.102649
0.432056
0.181984
0.377426
0.496699
0.337274
0.48411
0.40354
0.499381
0.218603
0.296696
0.486364
0.101358
0.407365
0.110446
0.387252
0.483855
0.409445
0.404413
0.395076
0.420127
0.263357
0.396176
0.418845
0.102478
0.122702
0.418763
0.498263
0.303195
0.411419
0.204695
0.274791
0.118324
0.353015
0.445897
0.435882
0.442255
0.224371
0.147489
0.121493
0.141112
315 208
181 109
1 431
449 235
84 96
318 15
415 351
142 215
57 261
259 126
367 114
208 79
45 173
422 475
304 62
244 396
381 201
55 183
430 21
282 273
425 298
56 368
212 452
446 188
130 214
473 455
390 327
427 139
29 322
1 26
198 479
80 458
371 178
431 449
308 392
231 54
213 280
477 387
27 151
10 318
57 395
178 170
173 82
179 328
460 247
176 486
464 28
29 50
61 370
366 396
14 86
309 142
296 86
427 17
11 274
485 77
276 157
196 154
117 425
332 482
326 202
183 358
473 122
17 16
55 103
453 310
112 208
200 423
23 59
485 216
6380
3
