70
11
0 0 0 0 0 0 0 0 0 0 0
52 96 61 90 35 90 74 30 100 57 89
62 27 47 33 22 78 61 80 67 46 60
87 86 81 70 41 62 86 46 19 64 100
14 56 73 75 90 47 21 28 65 18 96
85 16 64 48 10 79 12 31 66 73 24
91 55 92 83 25 14 50 11 11 90 49
12 76 67 61 71 34 45 39 92 23 22
48 18 46 13 82 98 75 12 42 50 88
96 85 40 96 78 93 94 17 16 91 55
97 76 60 52 54 68 25 11 54 39 36
55 92 56 18 18 53 13 65 35 17 69
69 88 92 90 84 32 74 30 70 34 55
12 53 60 79 39 54 92 65 77 12 96
10 22 55 21 81 87 97 51 39 50 46
74 67 78 59 72 95 61 34 33 66 52
85 99 45 33 28 99 53 51 19 81 45
37 97 17 38 90 24 65 32 11 57 100
89 87 85 57 43 56 24 22 46 81 21
84 19 28 10 82 51 93 59 33 66 31
30 50 36 83 73 30 21 42 98 16 46
97 32 20 29 34 87 91 27 36 57 60
100 59 63 85 25 26 66 25 12 44 74
61 40 98 69 76 11 78 55 38 73 33
94 27 25 49 50 20 27 17 63 39 78
67 58 50 65 31 46 19 43 30 55 35
17 30 68 54 93 14 22 52 43 70 21
21 30 77 84 86 95 93 80 100 29 51
92 29 26 68 66 72 66 98 36 48 73
27 87 45 15 46 50 44 85 65 27 64
59 76 44 54 83 72 11 89 52 35 21
43 70 78 67 38 79 48 47 43 12 99
75 41 37 70 34 77 49 60 94 40 69
79 92 52 62 11 27 20 56 58 59 18
98 51 78 77 25 40 47 52 59 81 71
92 85 21 46 29 30 22 89 57 35 98
51 10 74 46 11 72 63 86 20 57 25
94 26 41 72 14 48 100 90 34 29 78
88 65 94 67 45 17 62 36 16 52 33
81 21 62 32 61 27 69 18 48 99 75
12 69 15 49 50 33 92 38 52 43 45
65 19 34 16 95 78 62 66 50 28 21
38 47 70 82 39 89 42 32 87 63 73
72 82 62 13 55 15 16 98 47 35 38
80 21 39 27 66 91 58 22 72 100 42
62 75 49 16 46 99 16 26 41 99 61
21 99 12 85 77 56 17 86 23 25 96
33 69 81 25 60 34 10 14 70 62 29
22 71 56 94 25 44 53 38 34 88 74
25 15 59 66 47 21 16 60 40 48 26
39 63 80 20 91 18 51 19 85 39 58
61 85 100 27 54 75 67 53 31 32 50
55 77 69 16 56 58 44 95 95 55 70
15 17 14 49 84 98 29 47 99 48 83
63 47 99 46 88 55 40 35 29 47 18
19 51 34 27 44 51 14 29 82 26 56
36 52 38 33 36 15 98 65 52 50 31
81 24 46 66 94 26 92 39 27 56 43
62 22 61 55 30 37 21 43 44 62 29
26 44 53 62 16 48 20 98 51 73 23
35 93 86 39 67 83 36 37 45 99 100
65 59 84 53 90 37 68 46 14 25 88
23 16 47 76 97 88 29 72 56 85 76
68 55 84 96 92 50 87 21 31 41 80
90 58 89 87 78 87 58 95 51 78 10
71 81 11 70 60 26 28 18 10 64 55
14 20 94 59 25 93 36 75 99 13 94
40 36 43 26 28 19 48 97 76 10 81
41 10 30 39 99 53 97 56 80 54 14
81 10 100 85 19 73 93 32 52 80 89
0.529637
0.431974
0.461169
0.736085
0.430238
0.233442
0.872774
0.688995
0.830515
0.320942
0.247829
0.301986
0.588727
0.386641
0.545466
0.537922
0.602172
0.638184
0.318887
0.415794
0.206977
0.583384
0.697894
0.583734
0.911876
0.39696
0.892006
0.727891
0.437802
0.760715
0.927329
0.501917
0.375816
0.780587
0.977645
0.373336
0.933929
0.907592
0.865792
0.248665
0.417917
0.977688
0.766285
0.81699
0.33585
0.30772
0.35506
0.828831
0.319179
0.296446
0.226212
0.799574
0.415628
0.643527
0.285321
0.610077
0.993968
0.96775
0.548185
0.993678
0.278229
0.509886
0.954882
0.361161
0.483458
0.46299
0.384059
0.932282
0.800301
0.888332
174 266
214 445
153 404
143 40
120 177
436 293
159 181
414 51
110 335
314 387
6 374
485 69
31 473
330 265
339 494
318 106
338 328
423 395
267 18
140 498
127 141
204 279
249 60
342 123
216 386
358 121
169 355
273 12
380 469
69 401
14 472
155 486
482 59
222 145
187 210
447 399
12 119
237 448
45 61
453 29
144 410
446 360
319 380
373 5
223 10
355 263
362 211
236 333
110 304
336 422
85 35
87 496
58 246
53 6
29 469
92 161
60 93
447 438
73 344
484 242
385 3
54 374
171 424
349 371
352 398
178 363
286 242
449 191
412 298
383 211
3720
5
