70
9
0 0 0 0 0 0 0 0 0
91 96 23 67 28 32 91 30 90
93 82 92 38 10 91 13 47 19
83 62 66 83 65 52 19 85 67
80 84 40 42 41 36 64 16 65
10 64 51 52 79 87 75 71 81
91 32 45 79 23 38 83 77 31
18 84 12 20 51 51 36 96 96
64 30 55 16 14 16 15 94 29
22 79 87 81 94 59 39 46 60
45 30 78 42 46 34 73 69 39
83 93 86 100 13 52 36 81 98
71 50 75 59 11 60 18 86 85
71 69 63 69 41 33 91 89 27
88 35 83 49 49 16 94 12 77
65 45 39 33 71 64 40 40 94
32 77 57 13 41 56 21 53 18
46 99 15 50 99 21 52 71 86
21 73 44 22 45 16 68 100 49
79 23 61 100 44 23 71 51 61
47 28 87 41 94 14 91 30 47
17 29 70 69 17 61 50 31 72
37 51 36 85 75 54 71 85 71
69 10 55 68 90 99 47 42 62
19 97 23 61 68 47 85 81 66
41 39 79 92 55 97 26 52 17
14 69 87 16 52 37 75 99 88
29 45 58 88 69 69 24 87 41
37 44 88 67 76 21 95 62 10
37 94 64 68 97 13 56 16 36
45 85 41 18 72 17 16 37 67
58 60 28 45 25 17 50 65 87
53 95 29 71 98 63 35 27 22
99 99 43 74 98 14 35 83 20
91 43 69 86 36 31 34 27 20
89 49 59 52 23 66 50 69 79
67 85 86 28 60 31 70 81 55
100 85 62 44 33 22 15 14 53
19 39 81 45 33 65 58 60 58
67 27 49 31 32 12 65 71 20
97 29 49 28 23 45 19 95 72
100 51 55 29 83 48 56 80 46
32 20 59 74 59 85 45 68 55
24 71 23 72 64 32 31 41 60
43 98 10 72 49 79 63 58 62
68 44 53 70 75 81 95 83 26
18 83 14 92 63 50 95 78 66
94 84 10 67 32 85 27 35 44
95 80 29 71 28 42 92 87 24
89 23 85 82 54 49 36 40 32
14 81 86 68 96 58 75 65 43
16 85 60 26 52 89 98 16 44
76 93 53 80 64 19 67 16 96
24 100 63 37 26 69 78 62 95
90 32 23 67 51 52 91 20 73
82 80 64 26 42 59 35 73 72
88 73 10 23 85 14 72 67 63
18 19 29 93 10 19 92 67 63
59 34 24 83 78 51 88 25 48
80 40 16 54 83 90 57 27 29
33 15 19 31 64 63 23 50 43
41 17 11 34 42 90 54 29 49
28 89 35 20 25 62 51 91 96
87 94 51 97 74 98 96 29 97
62 98 65 88 90 88 18 77 48
74 85 14 90 72 89 85 47 30
68 30 89 42 13 33 75 34 70
47 36 98 88 94 98 41 79 28
56 23 31 81 94 64 11 27 35
18 69 98 34 33 72 10 41 59
1.939
1.62822
1.69073
1.24794
2.0991
2.0964
1.01875
1.16386
2.37539
1.75912
2.15107
2.47239
0.716013
1.88913
2.31182
1.95772
0.990775
0.560296
1.44185
0.633024
0.747812
1.96426
0.604708
1.27804
0.6229
1.19921
1.6258
1.43113
0.736974
2.23047
1.22967
0.570441
1.3833
1.53289
1.11076
1.27354
1.64364
1.80401
1.51776
0.802379
2.39822
1.26322
2.1624
1.51536
1.34145
1.16512
2.45245
1.19446
1.35795
0.629288
0.829142
1.26411
2.37268
2.22188
1.80598
2.07013
1.43994
1.35831
0.725003
0.53426
2.39803
1.79259
0.900952
1.55522
2.43187
0.75051
0.936848
1.46888
0.7096
1.23654
354 65
289 161
284 215
243 41
257 97
464 372
56 352
187 498
288 97
149 228
81 145
87 335
333 150
243 249
164 192
2 46
301 332
372 396
268 396
470 300
118 283
47 446
93 202
337 112
334 455
349 311
150 421
284 296
296 84
115 93
105 13
160 129
437 72
95 359
197 116
146 170
127 69
59 321
122 346
452 117
462 215
269 77
260 333
458 172
83 332
159 369
263 477
429 236
467 36
461 56
344 118
381 241
185 422
389 74
146 312
499 175
49 413
415 308
214 485
303 292
344 325
134 476
186 353
211 155
452 435
56 112
453 200
114 44
399 326
386 15
9605
2
