70
11
0 0 0 0 0 0 0 0 0 0 0
24 27 40 49 58 83 80 22 28 33 19
46 39 10 63 89 43 57 19 72 77 18
40 24 35 89 90 97 50 31 19 79 74
95 86 52 91 24 79 58 57 89 88 35
76 16 10 75 80 60 60 13 44 69 23
55 88 17 95 84 55 44 22 37 64 32
40 20 95 35 27 38 37 20 83 51 17
92 92 25 52 35 28 77 77 26 25 75
14 20 84 58 48 91 46 51 94 49 89
83 50 62 61 43 88 36 30 33 63 91
94 92 33 90 36 50 92 76 22 54 41
16 96 72 15 65 81 39 20 57 38 20
19 96 36 49 49 76 88 11 49 85 33
39 52 72 86 18 57 54 48 26 61 87
96 37 11 51 48 68 96 48 15 56 51
21 27 54 13 22 22 46 100 26 94 16
22 20 47 71 42 15 61 38 91 58 52
83 37 74 37 57 30 40 25 66 81 63
78 62 36 55 78 81 17 19 59 57 86
20 68 54 22 53 36 52 31 100 40 14
32 19 59 96 39 52 69 77 32 66 12
28 24 73 12 22 68 36 39 67 51 92
68 10 46 75 44 94 77 93 59 86 35
21 30 89 88 76 35 52 86 74 90 31
41 67 55 69 51 25 81 49 31 26 96
55 36 48 21 77 27 86 97 84 40 59
87 60 77 59 15 19 56 13 17 23 35
91 90 42 94 27 22 89 97 100 21 100
63 41 58 31 29 96 25 51 81 15 18
17 52 49 66 26 28 76 26 82 44 59
46 61 65 19 46 21 37 92 85 57 62
45 16 90 18 55 77 26 53 15 32 22
56 39 70 33 95 59 27 99 41 70 92
81 94 70 97 85 66 65 43 39 28 24
59 47 98 19 79 83 87 65 40 33 84
83 92 14 45 13 87 99 87 63 74 33
76 94 45 68 92 42 39 19 60 52 33
92 93 18 54 41 20 62 46 17 46 45
76 61 48 75 32 60 16 48 20 100 81
48 78 40 29 69 29 35 12 25 17 28
49 61 16 18 94 14 56 79 12 50 90
42 61 43 23 61 61 44 25 90 69 57
20 78 35 72 16 76 17 21 40 85 66
40 75 31 33 81 79 33 85 92 22 85
20 34 10 98 38 42 29 84 96 13 57
59 75 76 64 71 88 27 100 36 42 84
26 75 35 36 76 18 47 39 13 39 72
58 82 17 19 38 72 21 11 10 34 93
13 51 95 69 87 77 47 17 58 15 70
43 93 75 78 91 50 31 71 87 92 64
99 89 58 34 37 43 26 60 14 33 100
50 76 76 11 94 98 80 37 55 94 79
45 12 51 97 44 43 21 47 77 17 82
52 51 13 19 90 69 95 33 31 35 81
53 75 68 53 84 67 83 99 80 79 54
41 54 39 15 82 41 58 17 52 56 96
77 53 14 66 48 59 68 51 81 54 99
91 41 94 92 49 32 100 29 83 63 71
93 99 28 85 15 40 47 18 85 97 58
32 84 85 26 80 61 44 49 80 92 38
82 83 45 88 28 94 58 13 23 80 46
32 32 63 45 91 87 60 78 97 66 31
63 33 42 37 31 53 18 63 85 10 89
75 33 19 66 33 55 60 36 55 51 18
68 28 58 36 93 26 58 17 60 91 65
77 34 38 22 31 42 58 57 61 87 11
60 31 96 36 24 49 18 87 75 90 88
85 82 91 19 88 53 69 33 48 38 42
89 61 93 15 91 27 54 82 60 49 95
0.318936
0.297438
0.128837
0.361702
0.281854
0.281713
0.38783
0.176889
0.333357
0.184656
0.489995
0.416383
0.162761
0.432484
0.372086
0.128379
0.359943
0.144122
0.487921
0.353275
0.478406
0.145906
0.415505
0.218232
0.39521
0.420095
0.430511
0.418485
0.165596
0.137453
0.151509
0.121245
0.238742
0.139705
0.125626
0.494995
0.143604
0.23365
0.34506
0.141786
0.362399
0.161021
0.180078
0.444506
0.101476
0.461511
0.360238
0.139235
0.45782
0.409576
0.167814
0.246558
0.421725
0.128195
0.430855
0.460652
0.478392
0.409801
0.303007
0.151973
0.225671
0.188063
0.122631
0.426066
0.462226
0.22464
0.429873
0.232667
0.465131
0.165743
261 189
82 90
482 106
496 60
237 180
52 386
270 483
208 135
41 151
334 269
477 336
2 364
411 253
421 495
120 235
431 314
124 442
201 303
498 267
97 152
480 355
374 391
157 114
432 354
82 254
226 169
42 136
260 3
28 10
368 81
420 312
188 386
98 499
328 453
500 67
232 155
111 420
36 230
324 338
34 5
198 76
277 296
231 326
63 43
315 85
0 193
277 232
368 466
406 296
403 441
296 202
144 102
366 278
137 41
379 179
63 343
193 267
352 51
103 90
50 146
203 41
9 30
441 492
483 472
179 84
109 352
136 383
464 299
419 448
343 144
3749
5
