70
7
0 0 0 0 0 0 0
56 71 87 46 85 30 30
89 87 60 74 30 20 87
38 37 90 76 81 33 79
83 85 55 95 12 93 79
56 98 55 15 40 57 60
82 84 94 74 95 17 53
47 78 64 99 19 63 43
96 46 90 88 41 19 69
83 22 10 65 61 41 94
57 34 68 11 18 64 86
19 98 55 81 41 58 68
10 80 28 28 63 13 67
36 62 13 55 52 39 32
95 72 29 50 55 42 37
94 20 70 50 60 18 43
17 99 97 100 38 11 45
73 20 56 84 38 59 42
56 43 67 87 26 72 88
91 96 13 52 52 66 18
54 87 76 36 36 56 38
44 80 88 15 83 57 73
98 89 64 88 91 90 100
71 99 53 18 98 89 48
70 98 29 26 15 27 73
33 53 56 22 82 38 89
83 85 52 100 72 13 14
52 59 16 42 56 68 21
74 86 11 67 34 69 14
55 74 95 84 26 51 61
33 80 76 71 35 25 59
86 49 68 75 20 91 49
19 85 47 39 90 33 21
72 29 78 50 46 62 14
32 51 64 15 31 50 64
20 64 67 24 15 35 56
74 27 98 31 63 48 39
73 57 79 86 11 35 95
93 57 40 32 24 89 96
18 24 37 17 98 96 75
10 55 95 74 81 55 34
19 54 78 84 52 79 25
83 39 49 36 56 48 82
87 38 78 82 97 83 64
18 13 72 24 68 19 89
81 14 47 78 56 74 62
65 87 41 93 35 97 38
43 90 31 56 36 97 11
77 73 85 85 89 82 19
87 100 26 11 35 78 96
76 37 28 80 75 63 84
56 54 54 92 100 27 87
99 76 36 80 60 79 46
16 91 53 69 41 11 76
23 89 27 44 30 43 46
91 43 61 20 64 31 47
18 90 87 30 87 92 64
54 49 93 82 96 67 96
88 60 51 47 60 27 96
79 31 82 62 72 71 29
66 91 88 30 35 59 47
100 34 92 78 94 77 81
47 14 79 59 80 48 34
87 76 73 68 39 86 53
25 22 53 55 59 61 77
78 95 33 63 64 67 75
38 45 70 71 32 14 44
49 85 65 28 23 59 13
15 15 18 24 76 30 67
16 75 98 39 39 25 27
0.736357
1.85403
0.934482
1.39484
1.55597
1.28396
1.94567
1.94917
1.42417
0.419122
0.424188
1.45976
0.847465
0.512214
0.648443
1.40174
1.02467
0.876534
1.85328
1.25659
1.45136
1.94252
0.516401
1.6032
1.21153
1.4079
1.00516
0.423559
0.63601
0.859624
1.77393
1.70329
0.58153
1.00005
0.849823
1.81378
0.742168
1.18676
1.98843
1.23237
1.59763
0.951048
0.465407
1.35963
1.07566
0.466661
0.538663
0.514698
1.84792
1.94283
0.4516
1.9535
0.754113
1.83338
0.529359
1.68899
1.63302
1.30827
1.9659
1.04473
0.588222
1.39778
0.62468
1.45875
1.12593
1.06055
0.543321
0.753193
1.71538
0.463708
70 34
150 121
38 423
367 338
468 327
496 382
332 494
383 167
335 480
215 325
391 315
459 199
331 21
494 143
112 139
368 115
383 148
487 264
399 180
112 322
219 481
315 181
486 293
472 298
410 42
173 83
477 245
194 495
302 126
445 306
111 375
244 255
81 205
26 348
449 95
53 381
273 192
424 330
90 395
103 246
211 127
464 424
205 232
122 496
355 264
80 41
256 174
289 419
42 177
93 190
16 416
205 209
164 269
498 7
387 315
70 434
103 451
276 274
88 111
321 183
447 223
451 199
68 364
200 287
384 8
472 132
99 44
36 417
112 54
441 186
4955
4
