70
9
0 0 0 0 0 0 0 0 0
60 94 46 67 100 64 60 47 57
83 66 95 76 44 65 48 14 69
69 16 32 92 36 11 12 83 23
98 79 90 67 13 98 84 93 21
45 31 51 33 47 86 18 82 63
95 66 98 42 70 95 40 69 34
86 100 38 41 91 60 44 92 59
17 47 51 15 75 94 13 26 53
20 85 54 16 99 21 71 29 97
69 32 22 70 21 53 48 43 75
56 56 16 62 26 24 100 77 48
62 77 93 55 33 32 22 67 51
26 85 10 72 72 83 70 93 96
76 43 38 87 83 18 88 91 53
97 30 25 97 17 93 78 62 76
48 74 36 77 64 69 59 18 86
10 38 70 46 79 94 35 74 78
67 37 100 39 18 53 85 52 98
70 23 32 71 76 94 72 47 58
33 12 61 11 83 62 32 54 98
82 70 14 43 97 83 73 44 79
46 78 17 24 80 40 11 80 70
32 16 58 25 83 87 87 42 56
78 63 36 81 41 38 61 78 40
15 91 90 49 59 13 69 39 20
42 77 100 87 89 75 25 34 86
75 47 67 34 28 35 69 42 92
16 76 86 63 51 19 19 49 70
48 65 35 59 81 48 90 59 66
48 20 57 89 32 48 89 90 79
68 22 25 23 14 77 40 19 61
89 18 53 68 78 10 100 60 60
24 80 67 33 75 47 59 14 94
31 66 66 19 100 73 82 11 97
11 100 72 79 34 54 73 56 69
36 72 84 25 86 52 72 11 79
65 72 61 76 45 13 48 28 29
42 11 20 25 62 39 35 100 90
17 19 63 47 23 40 45 68 71
100 59 77 96 18 73 35 98 17
44 66 24 31 13 12 59 28 46
75 30 68 93 45 92 19 10 74
30 23 56 49 96 56 53 97 12
61 76 33 63 68 40 13 86 23
85 36 35 59 97 35 34 98 25
96 65 23 69 82 98 64 60 10
76 48 65 99 84 27 63 17 72
84 87 33 18 41 17 88 86 54
70 16 41 81 18 20 37 14 43
63 28 99 76 20 79 15 29 20
49 90 52 71 98 62 16 60 64
32 16 27 17 51 57 26 65 100
92 34 81 21 48 15 36 97 29
89 37 99 47 83 87 70 46 81
76 56 40 66 63 12 46 24 22
93 97 71 56 96 17 69 43 95
24 93 17 76 36 82 88 78 69
21 62 80 61 12 32 11 64 21
28 84 20 41 93 28 19 87 33
92 64 42 39 62 52 27 16 49
95 82 68 46 24 76 62 22 23
18 18 55 63 58 45 78 41 58
82 32 87 24 23 75 79 96 46
89 23 92 84 67 69 77 23 39
76 16 64 50 40 12 65 67 100
86 25 57 100 84 99 57 47 57
50 15 60 68 94 35 43 86 22
31 96 15 21 82 71 23 69 45
90 80 21 45 15 69 13 84 49
0.205281
0.168628
0.435059
0.283717
0.355443
0.348526
0.175106
0.163042
0.183594
0.375651
0.15517
0.263495
0.196281
0.321683
0.499977
0.141004
0.485271
0.375668
0.280221
0.193676
0.362501
0.236636
0.221501
0.247186
0.40048
0.357816
0.336174
0.168862
0.454302
0.1848
0.317322
0.310413
0.190983
0.313828
0.244578
0.157514
0.371266
0.248428
0.406521
0.204058
0.443436
0.197308
0.402179
0.477844
0.393465
0.411079
0.467167
0.426291
0.43962
0.404824
0.2876
0.291585
0.359983
0.36718
0.408077
0.125151
0.16325
0.163275
0.246485
0.370245
0.14635
0.28385
0.22716
0.22954
0.439919
0.323577
0.350676
0.315229
0.372797
0.276438
319 254
33 102
269 382
241 43
350 199
358 168
343 26
4 321
293 54
234 368
49 204
21 286
415 396
54 123
304 288
88 341
278 222
220 11
211 13
487 471
438 69
20 133
161 216
102 43
197 386
103 373
95 314
389 245
426 186
283 99
493 16
310 216
370 54
148 69
195 177
235 414
19 368
458 134
127 3
76 127
101 479
413 460
418 9
280 127
193 333
120 82
344 267
483 220
309 496
228 475
455 419
419 430
99 106
370 183
66 91
417 190
208 77
254 286
390 89
113 35
227 480
65 421
225 369
220 378
51 428
419 214
294 391
379 338
417 402
416 3
19170
1
