70
7
0 0 0 0 0 0 0
24 41 39 81 82 23 57
66 43 37 37 25 29 64
54 17 70 64 62 91 96
46 41 15 61 59 15 21
96 58 91 25 82 98 12
35 27 51 57 31 20 99
88 46 28 10 21 42 15
99 38 77 24 13 78 49
77 49 30 50 57 22 29
38 22 64 32 81 76 23
32 53 16 86 10 26 13
14 28 12 78 13 93 62
52 86 80 90 69 39 51
46 91 32 65 71 20 78
88 35 66 27 29 41 52
94 45 40 79 28 55 13
77 90 19 97 39 32 50
72 63 41 83 97 100 19
45 99 97 62 24 68 37
33 45 51 67 12 94 60
45 29 46 18 34 71 41
90 87 40 57 40 45 36
92 86 29 52 75 17 38
84 48 95 90 34 94 92
70 31 47 50 36 52 29
80 98 67 34 99 48 94
33 95 83 92 57 51 16
40 33 66 69 93 30 17
12 72 84 70 63 75 81
45 88 49 48 48 18 35
94 97 48 80 63 99 75
42 26 71 74 19 93 76
27 14 14 72 78 12 20
69 94 52 29 76 99 15
67 68 75 59 90 85 31
72 47 93 27 96 100 74
30 95 21 84 80 24 49
94 93 93 24 35 67 95
20 55 50 100 35 69 73
93 63 51 74 99 41 84
97 84 54 80 37 10 48
35 44 97 98 23 44 38
69 35 44 92 20 28 84
31 25 40 100 33 15 29
82 35 24 22 39 58 52
88 72 28 89 27 14 14
79 12 29 98 31 94 99
41 21 88 76 64 90 30
11 28 82 45 83 16 24
71 55 95 78 13 44 90
68 99 52 37 13 50 45
29 97 54 51 25 83 57
36 48 60 99 54 23 74
74 90 88 43 25 48 28
79 25 25 82 66 59 29
97 70 95 63 90 96 17
54 53 75 57 15 52 97
72 51 95 44 17 57 73
78 29 60 86 15 99 12
47 98 72 98 41 57 95
88 65 48 55 57 43 83
43 91 11 81 92 34 31
78 70 57 10 93 96 53
70 32 45 78 35 59 27
86 18 90 93 97 25 81
55 22 50 79 57 90 53
28 12 54 70 30 13 49
38 63 92 26 82 44 18
63 84 62 48 97 74 51
1.01282
1.39965
2.03367
2.03604
1.01325
2.36047
1.04265
1.43465
1.95403
2.09915
2.28068
1.50807
1.17423
1.94443
0.533363
1.22759
0.894621
1.89588
1.81377
2.48813
2.04683
2.12512
2.32148
1.29061
2.37844
0.550909
1.45451
1.36098
0.52465
1.5321
1.73256
1.1269
1.41493
2.16074
0.585479
0.915585
1.26491
0.843456
2.16328
1.56258
2.42422
2.34056
0.894931
1.54766
1.72995
1.02573
0.960496
1.86562
0.516019
1.98223
1.41646
1.99522
2.4107
2.0415
0.967911
0.699013
1.33427
1.8516
1.0379
1.60191
1.90575
1.84067
2.40662
1.02023
0.915273
0.951608
2.47632
2.31511
0.569509
0.547161
402 424
395 254
392 184
401 67
144 363
122 85
46 485
466 24
44 163
459 136
8 3
270 216
359 424
251 155
196 407
468 152
295 284
358 125
24 74
440 76
450 169
206 355
189 231
318 260
200 475
326 225
418 467
150 253
131 325
389 167
467 349
109 409
331 22
395 15
389 12
457 233
293 483
271 409
103 325
453 352
99 260
259 375
267 198
485 55
443 408
444 31
86 444
260 198
175 416
244 363
172 347
410 107
249 495
410 364
263 140
497 380
15 69
407 406
134 30
266 67
319 372
403 479
439 112
317 271
189 153
485 176
223 392
23 223
136 475
306 48
4825
4
