70
11
0 0 0 0 0 0 0 0 0 0 0
12 78 61 84 87 37 48 13 82 29 67
24 15 67 39 13 87 32 99 20 60 57
45 61 70 69 64 29 79 74 39 23 91
75 79 32 82 87 84 93 40 42 10 36
46 98 76 50 10 16 75 88 19 66 55
74 83 96 35 29 99 98 51 20 58 80
45 82 27 55 37 93 39 19 44 46 14
14 29 40 46 89 97 86 26 90 97 93
71 11 39 79 78 69 100 16 17 12 94
27 96 38 22 37 94 44 47 64 91 33
89 20 26 13 88 34 34 31 50 67 16
54 76 61 65 70 82 53 30 96 98 72
21 82 93 21 39 73 59 70 24 20 21
56 89 11 34 79 63 16 31 81 27 80
15 23 87 97 44 47 63 46 21 62 21
28 27 14 28 50 38 22 26 19 66 79
100 87 37 14 78 38 11 13 46 64 100
86 28 95 29 30 72 73 90 37 99 49
22 27 86 100 81 65 30 96 36 62 22
44 84 31 84 35 50 18 63 72 53 46
10 37 78 10 33 82 80 27 16 42 97
43 94 44 31 64 73 53 67 71 90 30
53 82 94 47 36 33 18 93 15 97 46
62 56 92 89 57 50 99 97 38 87 74
33 25 50 80 43 89 87 78 34 16 42
59 25 99 54 37 73 30 11 85 51 84
86 73 22 45 13 80 66 16 48 33 24
34 45 14 71 93 77 14 63 54 69 76
19 21 56 55 78 26 70 61 45 69 51
73 46 24 83 23 43 36 96 14 67 57
92 72 20 95 11 57 49 22 54 84 93
16 97 24 49 10 73 20 100 97 87 17
26 87 18 50 98 55 74 81 97 73 99
47 55 57 79 89 50 17 60 56 77 42
27 25 44 97 33 32 79 45 84 99 69
48 38 83 26 14 74 27 71 35 48 56
45 67 94 94 51 65 85 29 42 20 41
54 52 81 24 99 73 13 19 24 53 16
53 98 26 78 27 75 55 57 20 20 97
78 22 100 17 24 20 38 69 39 26 89
47 28 30 39 77 46 88 48 15 39 33
47 82 76 50 84 88 48 69 90 51 26
68 83 85 92 54 12 51 65 97 80 91
80 23 82 64 91 76 95 54 69 18 30
99 55 34 38 53 50 33 30 27 84 70
26 49 39 97 12 61 38 30 86 65 12
49 76 54 99 75 59 42 96 39 89 63
59 26 30 27 56 50 58 26 57 52 18
89 92 98 65 98 99 43 91 77 62 100
13 29 38 67 58 32 52 34 73 16 100
76 32 78 62 70 100 74 81 65 40 11
53 73 56 13 16 10 15 18 81 100 22
10 71 53 31 80 57 40 61 52 49 83
68 66 45 52 62 100 29 48 38 19 99
76 89 55 33 11 91 61 79 41 50 21
35 63 30 45 63 67 96 51 15 35 61
100 66 28 91 96 68 93 19 40 13 55
23 76 56 51 85 80 13 10 78 90 66
89 40 17 78 92 28 18 44 46 96 66
43 74 12 54 93 81 64 14 41 78 50
44 38 70 44 77 93 74 60 50 75 69
75 53 79 31 21 51 32 10 35 72 96
48 12 11 23 30 37 16 72 46 59 81
44 14 91 73 11 90 55 60 32 56 92
17 80 86 17 12 52 74 39 13 89 69
57 66 77 28 85 39 29 12 22 62 60
42 62 75 63 50 86 66 17 78 94 19
60 56 85 96 61 63 87 31 84 10 61
84 54 95 64 90 64 22 92 47 31 89
0.794582
0.435108
0.27686
0.469853
0.523719
0.391243
0.576917
0.541965
0.775886
0.367297
0.351154
0.422522
0.244791
0.729241
0.971084
0.927696
0.906208
0.698349
0.72159
0.635476
0.940072
0.970493
0.768765
0.926883
0.761084
0.670191
0.832174
0.355194
0.919109
0.59308
0.847496
0.779862
0.277762
0.377376
0.321593
0.414567
0.367522
0.607245
0.872496
0.945891
0.389005
0.717434
0.941066
0.91099
0.2295
0.834199
0.406717
0.540336
0.818424
0.441385
0.268723
0.34062
0.563934
0.723305
0.449553
0.390433
0.747468
0.546348
0.378937
0.891435
0.896723
0.963161
0.567082
0.859266
0.319835
0.859812
0.506148
0.226143
0.58008
0.499718
328 276
248 4
17 215
462 39
492 464
57 449
217 132
282 25
57 127
476 209
466 106
54 381
87 200
79 374
419 268
474 292
37 449
421 175
493 62
270 222
61 109
221 40
224 77
182 313
302 197
321 288
498 318
87 227
469 422
56 199
291 462
245 395
43 104
173 147
389 371
139 295
454 346
133 425
82 89
21 248
153 158
344 186
240 372
227 298
177 470
470 421
284 273
107 429
197 128
149 320
364 288
189 49
264 273
95 103
248 343
343 54
46 38
103 356
34 239
119 78
96 429
332 314
409 232
330 398
274 395
411 23
15 423
416 15
91 298
76 80
6328.33
3
