70
11
0 0 0 0 0 0 0 0 0 0 0
54 37 87 76 76 62 28 99 36 97 63
75 34 22 16 42 17 95 48 81 38 100
91 67 89 60 26 60 50 31 95 55 48
77 19 83 41 10 81 94 32 97 40 79
64 76 74 33 38 34 41 20 79 88 59
93 67 12 26 17 53 89 100 57 16 95
56 53 55 53 85 50 16 35 12 47 19
60 48 83 93 34 77 26 72 14 71 76
60 80 70 76 23 32 31 79 90 71 82
77 89 77 55 14 72 35 55 71 53 76
43 56 76 94 17 28 21 87 10 55 61
94 59 76 98 70 67 13 20 35 56 77
20 51 10 28 50 68 18 63 12 25 41
13 27 84 74 43 69 68 34 38 88 73
55 16 47 80 33 79 23 42 72 61 66
18 63 66 48 26 18 63 87 52 43 45
56 24 21 84 20 54 28 48 32 32 45
47 75 75 16 73 76 30 86 60 66 99
17 70 58 51 81 75 80 16 33 21 15
97 48 28 26 66 28 52 26 21 98 76
48 44 32 59 99 90 30 98 49 26 93
60 54 98 82 90 57 86 20 35 19 37
84 50 75 100 72 94 25 68 59 36 29
13 39 26 41 53 83 25 44 93 65 38
54 15 33 84 54 72 70 74 65 58 19
69 45 90 27 15 35 39 53 45 80 93
83 31 87 69 77 55 11 30 13 89 33
84 51 12 11 49 17 36 65 19 76 63
96 25 73 57 23 68 100 34 72 76 59
90 78 88 11 26 76 45 16 57 51 23
75 58 38 51 12 15 54 36 98 100 68
60 77 92 84 75 98 70 95 93 91 12
94 64 55 69 56 42 20 63 79 76 18
66 70 51 48 89 72 95 57 63 85 66
76 90 30 81 32 74 17 91 66 27 97
10 90 39 98 85 68 14 58 62 74 62
23 49 20 52 63 97 12 62 80 60 88
95 35 32 94 96 55 20 96 80 35 40
28 47 99 12 54 13 49 40 51 35 38
31 22 26 80 100 15 85 90 35 82 75
74 67 45 85 16 24 15 16 12 58 90
39 41 16 74 41 27 28 88 72 69 34
24 94 36 54 73 88 95 53 87 57 54
77 78 98 16 78 58 47 70 31 27 94
63 59 41 34 47 56 68 41 26 84 60
24 40 88 79 76 16 10 46 35 44 45
15 79 66 25 30 93 52 25 100 14 41
50 69 73 81 53 13 25 89 36 87 40
35 56 60 31 94 72 63 64 31 19 87
92 11 73 26 95 37 39 24 99 35 61
38 65 42 81 83 34 54 56 20 11 19
18 74 99 97 62 30 25 76 48 36 63
71 82 70 39 68 22 61 96 88 88 99
92 36 92 12 61 68 47 15 30 43 83
83 89 98 21 89 43 59 48 38 14 43
96 34 65 71 14 41 56 63 20 85 14
35 36 75 52 34 22 44 46 86 91 95
76 18 35 12 54 30 34 96 71 82 30
34 74 17 84 47 11 87 63 64 66 46
13 30 30 56 43 61 60 43 34 67 86
58 19 56 77 86 53 67 81 92 72 34
32 53 100 24 14 37 14 74 44 79 75
58 69 53 33 68 85 16 96 79 34 88
21 54 38 42 52 40 16 92 37 85 15
66 85 50 67 72 24 81 49 67 33 86
51 41 33 53 83 86 90 99 14 53 74
25 36 35 28 90 68 86 80 79 50 59
82 83 27 34 93 21 53 73 100 35 81
13 55 80 31 36 27 95 54 90 28 64
0.351723
0.825651
0.623714
1.03312
0.920968
0.781585
1.28263
1.20476
1.23953
1.1658
1.40686
1.30096
1.18923
0.370632
1.40176
0.34556
0.732368
0.882684
1.07551
0.582746
0.490894
1.31343
0.946713
1.19613
0.926772
0.505935
0.568194
0.85303
0.948846
1.49685
1.06671
0.818268
1.48706
0.571312
1.06158
0.396374
1.09054
1.43894
1.49242
1.34781
0.746102
0.774308
1.4339
0.879691
1.38658
0.608429
0.918198
0.870429
1.01188
0.332238
1.44875
0.392032
1.20781
1.2591
0.839639
1.40239
0.808191
1.21545
1.34129
0.776931
0.872069
0.860899
1.2205
1.19238
1.40329
0.869455
1.40105
1.20836
0.541344
0.724672
8 422
84 302
365 136
247 20
77 46
322 118
170 165
310 85
263 8
217 417
199 304
252 411
473 79
266 338
401 213
219 237
254 497
124 348
184 310
206 79
303 50
494 405
491 335
126 289
268 489
14 235
86 206
1 124
119 270
36 469
295 115
114 68
209 65
254 209
70 76
343 53
280 426
74 199
424 459
150 380
215 107
28 83
122 61
224 165
456 9
319 88
43 66
230 250
366 286
475 45
245 343
199 274
182 217
31 442
447 124
347 245
134 266
443 120
163 204
437 402
342 133
376 432
309 90
430 321
2 467
469 400
178 430
366 353
56 333
471 430
19065
1
