70
3
0 0 0
87 100 58
29 83 10
79 90 89
38 31 52
43 57 63
35 90 100
96 98 64
30 81 41
46 21 95
82 12 77
45 29 10
66 32 62
77 70 38
17 27 83
64 39 99
84 96 74
56 17 33
46 91 63
44 38 77
76 48 14
35 14 37
79 62 18
90 59 35
22 15 79
48 82 13
86 81 25
78 32 51
67 88 89
28 34 92
72 85 71
62 87 47
66 73 45
14 32 91
61 63 50
70 75 31
39 60 45
97 23 40
21 63 95
43 97 39
76 24 63
50 100 25
91 51 25
45 80 98
87 57 50
69 97 28
29 32 41
68 88 20
12 65 75
57 97 26
36 80 92
47 73 33
59 89 62
94 69 81
51 52 83
21 44 58
87 67 65
18 94 87
13 26 64
56 70 12
81 59 30
45 85 78
13 41 55
90 24 29
85 10 57
65 46 58
70 78 29
41 38 53
38 50 34
54 76 62
1.35603
1.79513
2.02901
1.45432
0.581166
1.42609
2.19562
1.82873
0.673811
1.38587
0.827403
2.41488
2.26627
1.17154
0.900162
1.43775
2.36175
1.88743
0.919137
0.906738
1.9701
1.13241
2.07228
1.7772
0.529449
0.811769
0.802067
1.35235
2.33778
1.91242
1.00293
1.64725
1.06401
2.22301
0.799855
1.94532
0.65416
2.13002
1.06563
1.2924
0.830739
1.59391
0.518042
1.78838
2.33487
1.02918
1.37029
0.996357
2.48332
2.31315
0.848245
1.51899
2.2537
1.36663
1.80321
1.72198
0.901594
0.957745
1.90422
0.598331
0.984567
1.35724
2.12066
1.08989
2.17683
2.28832
1.7731
2.42332
1.52649
0.686914
373 66
335 153
387 227
97 329
463 44
1 112
326 398
173 389
415 260
162 190
85 77
187 117
263 45
221 37
48 268
278 256
440 471
36 164
29 169
383 202
13 104
161 286
33 269
404 92
106 202
325 260
458 471
486 343
496 440
271 211
67 52
430 135
386 135
135 297
251 389
70 211
170 334
20 186
149 439
471 161
217 375
293 140
163 480
375 150
424 303
454 310
407 10
18 36
368 62
18 335
77 411
205 277
463 414
324 315
205 189
165 99
0 294
75 380
301 175
136 130
13 399
218 268
310 16
131 94
276 68
77 272
257 194
279 150
356 235
391 214
3923
5
