70
5
0 0 0 0 0
88 18 52 39 90
22 13 35 20 77
83 28 12 53 21
25 84 23 94 67
82 85 25 64 71
18 94 27 51 82
12 42 89 56 90
77 64 83 77 22
46 15 85 89 10
99 29 79 14 69
10 41 93 68 79
81 89 60 52 90
96 32 31 68 40
49 91 83 14 48
57 65 17 26 32
43 15 31 95 62
21 47 89 81 97
56 76 67 59 46
76 55 75 33 47
35 67 82 51 79
15 57 64 88 88
47 68 87 88 41
48 18 51 70 76
33 61 81 66 100
81 28 52 34 91
42 51 67 13 46
89 53 37 54 92
23 40 64 77 36
77 79 86 28 63
39 13 73 20 31
51 51 82 51 84
100 98 85 97 98
89 54 83 55 89
47 31 54 23 19
89 85 38 58 12
28 10 14 84 20
53 83 32 56 56
90 33 14 96 16
26 73 16 60 75
72 83 14 16 93
14 70 66 65 57
56 100 89 89 11
31 26 20 79 81
98 36 73 88 10
49 45 40 83 13
24 55 90 80 96
32 21 16 26 47
10 26 71 34 15
67 12 47 48 53
80 15 91 85 82
93 87 73 25 49
74 29 84 93 21
79 62 33 62 15
13 76 73 28 53
30 32 34 89 39
17 88 65 28 49
69 79 61 34 49
59 44 87 96 50
83 35 14 20 74
34 10 59 75 24
48 61 19 29 27
71 64 36 32 32
70 62 42 77 15
57 33 92 93 42
80 83 74 26 60
29 41 46 69 35
13 19 57 16 28
74 18 18 76 52
16 74 31 51 50
2.38721
0.516491
1.55508
2.08303
0.658528
2.39647
1.38888
1.46611
2.40722
0.732495
1.31841
1.52994
2.28342
2.01467
1.07566
1.2428
0.644918
2.44787
2.24253
0.630352
1.82546
2.27617
1.69224
1.99446
1.39219
0.855838
2.09625
2.21376
1.18096
2.11003
1.00304
1.0392
0.692369
0.67565
2.095
0.946994
0.851713
1.7187
1.08624
0.552177
0.960581
2.09497
2.22596
1.21362
1.70451
0.610005
0.90673
2.14734
0.640599
0.524841
1.36934
2.42533
0.63624
2.24568
1.20949
1.8097
1.47836
2.23128
0.707545
1.69839
1.48437
2.01191
1.55989
0.694895
0.994423
0.842696
0.967141
2.05065
1.96663
0.925125
66 382
362 86
49 383
45 5
166 244
256 105
313 193
275 195
448 369
99 91
287 64
5 116
225 164
411 59
398 348
396 138
231 352
204 6
206 45
83 444
57 392
332 58
493 489
373 187
340 226
265 145
322 187
384 21
293 125
378 148
59 451
203 228
429 436
178 172
148 206
48 385
54 135
274 145
457 171
454 456
68 227
108 498
352 78
391 17
427 486
111 373
303 31
12 34
243 84
371 53
7 265
62 65
102 31
131 453
462 326
156 96
189 488
103 379
275 50
344 107
82 139
215 267
82 447
321 20
155 342
179 467
31 466
264 257
228 268
198 350
18645
1
