70
11
0 0 0 0 0 0 0 0 0 0 0
79 29 45 41 37 41 79 24 38 99 90
85 41 95 78 68 89 95 20 71 64 84
39 80 47 95 15 89 95 19 66 49 50
10 11 37 75 21 50 13 30 55 84 73
44 37 63 84 32 81 94 28 92 56 91
66 70 72 55 72 41 100 34 55 50 42
42 86 67 99 46 24 51 74 76 35 96
32 71 61 85 30 42 32 64 79 72 47
50 67 66 70 77 37 35 64 44 16 28
56 10 28 10 99 10 33 16 24 34 34
42 18 70 80 94 63 43 30 24 36 44
40 42 22 43 55 68 49 51 79 10 64
77 18 23 29 19 92 28 40 98 49 83
15 76 25 90 91 87 56 17 49 19 41
93 94 95 21 40 21 38 60 50 74 54
100 86 70 55 43 83 38 45 60 86 58
95 71 25 90 45 11 67 60 90 20 50
86 11 57 59 71 54 34 80 42 84 41
65 99 25 12 62 31 34 40 60 62 38
29 32 73 48 38 99 44 29 45 20 94
15 36 29 85 32 42 16 54 31 21 26
74 14 36 84 29 88 66 86 13 47 60
39 47 56 68 79 62 81 70 77 18 62
65 40 24 100 17 17 90 100 85 74 74
18 79 75 72 18 72 96 67 37 67 70
11 75 48 15 36 51 45 50 53 63 39
27 89 93 12 22 100 96 68 83 23 45
67 16 12 26 47 39 41 51 77 54 67
35 22 94 23 78 61 95 51 65 99 51
15 40 76 99 97 49 78 37 33 88 14
58 91 74 71 26 71 55 91 32 69 75
35 45 54 55 54 81 10 70 87 78 97
99 42 13 56 60 11 23 31 77 68 39
54 98 37 36 47 51 35 65 30 15 90
74 51 98 92 20 61 12 32 13 42 82
74 39 26 40 23 37 22 100 71 97 29
100 26 20 92 19 15 35 91 76 89 41
46 85 57 62 27 36 41 60 67 61 29
84 53 94 38 50 68 13 32 36 15 36
49 67 87 28 83 28 18 87 39 70 89
61 63 41 92 20 86 32 15 72 18 57
20 11 66 40 60 89 53 56 24 33 99
86 59 76 30 54 52 50 64 71 100 68
52 43 20 97 77 68 48 80 58 57 97
28 87 56 14 22 41 18 13 30 24 28
50 44 89 31 20 36 73 98 75 20 38
63 51 44 53 48 79 80 67 62 70 83
76 22 18 72 28 41 73 11 58 37 100
21 47 87 67 18 29 99 16 24 23 92
73 28 73 35 50 25 32 70 41 89 39
18 37 10 24 52 41 93 12 61 95 89
34 38 13 51 55 87 62 99 57 58 53
100 52 36 90 21 71 78 40 22 75 93
83 57 93 60 13 40 58 42 50 98 74
34 37 20 64 71 69 85 31 38 99 55
45 73 21 18 20 45 36 85 50 67 60
28 87 52 28 40 68 96 30 63 79 19
13 27 30 11 50 57 45 43 58 20 57
16 75 49 18 17 90 24 45 54 76 15
57 79 96 31 89 49 93 96 99 75 21
53 47 18 23 80 43 73 85 77 63 95
46 59 64 86 57 82 34 62 43 79 25
84 28 19 86 81 90 66 89 56 95 92
49 100 100 38 52 21 15 97 20 99 83
43 27 90 96 61 69 35 50 58 58 55
44 40 52 24 31 37 20 67 79 23 10
21 20 90 97 73 19 92 98 52 90 40
82 22 34 23 50 66 11 91 61 88 43
67 23 73 63 76 56 12 66 50 65 60
0.217731
0.96857
0.372612
0.318157
0.399903
0.273454
0.655928
0.514526
0.583106
0.373799
0.777596
0.233738
0.924366
0.861131
0.224305
0.510584
0.493798
0.583299
0.376438
0.924285
0.594189
0.5283
0.508759
0.77512
0.470453
0.995135
0.396664
0.761308
0.720172
0.755763
0.425355
0.337661
0.920213
0.729822
0.319161
0.465616
0.36051
0.225527
0.576526
0.984327
0.438418
0.339553
0.485338
0.617475
0.871069
0.582794
0.233824
0.346001
0.851245
0.230282
0.530873
0.307344
0.865648
0.594891
0.49013
0.460404
0.952363
0.55488
0.562823
0.553695
0.977299
0.68763
0.316477
0.293066
0.514397
0.889245
0.809718
0.773629
0.56307
0.355526
341 257
62 454
42 58
18 419
217 386
151 87
411 110
481 454
458 108
238 211
222 385
287 260
434 180
310 248
178 145
124 439
13 267
327 83
121 338
265 18
311 130
116 355
472 227
494 140
89 277
278 438
36 236
147 34
48 214
135 210
95 457
230 46
163 297
8 87
484 289
179 224
269 404
171 136
412 449
357 351
140 468
286 403
130 343
233 132
334 435
78 79
313 368
156 260
458 151
353 74
161 472
31 217
1 428
483 190
213 109
135 85
465 394
68 295
273 144
185 480
423 468
49 474
480 456
49 439
412 107
119 213
95 168
64 253
311 250
52 170
18705
1
