70
3
0 0 0
66 50 45
15 88 60
97 11 32
89 24 87
64 34 21
20 63 55
54 69 40
97 31 88
37 27 57
76 58 83
44 60 23
22 97 74
44 83 99
21 60 75
17 67 13
81 17 81
15 59 43
20 56 94
83 79 93
69 55 35
58 12 63
54 12 18
11 36 44
56 61 29
74 82 43
18 76 86
24 10 53
91 32 10
11 40 67
11 16 13
75 24 30
21 56 85
72 41 33
55 65 98
87 50 10
80 39 54
80 43 17
47 24 69
11 68 87
79 53 61
19 74 17
52 27 81
34 90 18
42 46 30
53 61 68
69 21 46
27 26 18
28 46 15
84 11 62
70 71 98
90 74 63
62 69 79
34 83 29
67 59 26
33 40 27
39 37 95
27 37 78
68 92 48
97 72 87
43 18 43
25 52 16
89 15 73
95 75 24
51 91 92
12 67 93
46 64 62
11 73 46
21 98 92
15 28 54
0.233877
0.350621
0.400157
0.357282
0.209852
0.263072
0.225559
0.395358
0.337348
0.255212
0.212605
0.479971
0.343695
0.201954
0.150554
0.347302
0.259934
0.299672
0.457235
0.239551
0.173351
0.119869
0.186352
0.165715
0.188615
0.145069
0.278966
0.490795
0.440535
0.290411
0.149114
0.369812
0.148005
0.179341
0.230987
0.33972
0.421515
0.499852
0.250017
0.156627
0.295564
0.328983
0.132958
0.118946
0.223649
0.452027
0.261116
0.304768
0.102591
0.427736
0.263093
0.383072
0.122585
0.258309
0.283861
0.40943
0.268524
0.366655
0.314513
0.355747
0.456784
0.176374
0.267613
0.353495
0.230805
0.302281
0.294712
0.27745
0.389237
0.382758
174 35
342 479
184 355
404 378
193 485
299 303
260 59
322 493
184 18
443 313
254 180
380 336
134 233
490 262
88 402
346 94
316 256
79 405
199 316
255 334
48 355
75 444
439 463
176 475
321 324
287 302
438 376
82 233
332 260
259 497
114 394
154 391
498 456
459 363
107 251
16 254
356 332
223 142
176 284
374 25
332 199
143 460
213 307
319 299
234 487
106 67
432 302
163 366
312 129
387 158
380 449
309 499
14 239
474 262
405 268
294 239
244 380
400 228
231 372
268 469
245 204
105 232
134 165
6 122
391 351
182 188
216 17
305 415
249 64
15 156
8950
2
