70
11
0 0 0 0 0 0 0 0 0 0 0
49 59 23 66 86 64 55 43 46 30 86
77 15 15 82 81 37 34 32 71 61 97
83 29 26 10 65 12 94 79 22 70 70
73 88 15 20 72 48 92 21 52 19 94
20 16 69 84 40 33 59 47 49 91 16
27 59 14 36 35 37 62 36 83 61 68
43 80 29 33 18 79 99 71 33 48 54
44 66 59 94 32 63 48 77 17 78 88
15 51 41 94 62 77 88 86 54 56 98
49 96 22 34 98 29 42 51 54 68 53
54 10 20 88 12 85 54 57 22 20 38
25 75 41 90 34 86 75 30 53 73 71
86 26 42 23 43 40 98 38 42 54 34
80 76 26 94 39 34 32 48 46 30 62
16 15 55 75 78 12 38 24 52 23 25
73 18 45 23 93 38 43 43 52 34 57
32 34 78 58 46 80 44 55 13 27 77
72 38 20 25 60 67 15 82 99 75 20
94 19 52 99 80 78 59 82 82 75 15
11 41 93 21 28 17 46 80 25 38 61
37 37 39 94 76 30 81 50 39 24 82
100 75 56 24 24 67 94 75 98 18 40
84 36 21 36 54 87 15 81 34 78 97
40 60 99 28 60 72 88 36 69 14 49
87 66 95 74 35 15 94 42 57 34 84
18 63 68 60 68 77 80 57 90 83 69
11 100 96 71 100 41 80 36 52 89 87
89 90 47 67 28 57 84 75 53 43 20
96 47 40 51 11 84 59 34 24 56 37
97 40 38 11 36 11 44 89 31 91 25
94 70 82 31 91 68 81 71 33 38 63
28 23 44 71 92 22 51 96 74 43 54
54 22 97 78 31 52 13 65 87 99 45
85 57 33 93 23 45 72 98 71 88 17
100 79 57 42 72 34 54 45 69 14 92
50 45 63 58 44 69 57 20 90 74 79
92 62 51 52 41 27 89 22 60 81 26
42 42 72 43 100 49 33 94 88 100 37
68 22 89 57 40 25 72 38 35 61 89
83 35 86 91 51 41 60 24 81 39 43
82 67 83 47 29 32 79 58 93 87 79
33 11 47 22 36 23 65 31 50 19 64
32 81 78 48 80 41 38 11 89 81 65
67 23 46 23 96 64 22 75 44 87 65
24 12 62 87 38 96 87 78 83 26 23
93 98 64 66 66 70 29 42 100 56 10
11 68 88 96 41 78 68 94 48 27 85
41 22 86 76 91 68 11 58 12 20 22
10 37 81 70 31 62 78 34 21 89 33
30 17 37 13 57 77 27 65 94 71 29
98 14 75 94 55 80 20 62 62 57 15
62 81 73 42 58 70 75 89 54 45 43
40 29 84 30 85 95 95 80 36 40 11
85 88 64 33 22 24 33 75 56 35 26
83 65 33 16 80 48 15 39 69 14 14
28 53 74 70 89 80 30 36 60 81 43
76 82 61 53 72 57 23 33 62 51 16
31 56 82 85 11 77 76 71 81 72 84
44 63 28 41 29 65 31 81 90 98 89
76 100 71 54 78 26 80 99 43 32 42
77 81 38 30 40 43 24 48 81 13 87
16 12 82 69 31 97 19 97 34 89 58
34 48 43 12 63 97 11 18 36 13 32
64 80 78 53 66 73 22 85 82 40 87
77 93 82 68 79 24 15 93 79 92 14
78 57 73 82 78 65 50 83 91 35 28
41 50 96 41 10 60 42 68 71 39 25
43 10 11 62 61 59 17 26 59 87 61
14 49 73 27 40 91 51 80 56 73 18
0.610227
0.380343
0.318394
0.591498
0.610874
0.822394
0.763279
0.884801
0.499167
0.900395
0.928818
0.95668
0.432298
0.261184
0.706924
0.807104
0.429464
0.459877
0.22011
0.55118
0.291502
0.72289
0.575276
0.269865
0.505207
0.452603
0.714655
0.706229
0.817715
0.774024
0.480151
0.319423
0.29301
0.854447
0.805282
0.49122
0.25553
0.255529
0.478055
0.451713
0.575161
0.619937
0.785948
0.604217
0.213659
0.340924
0.86066
0.291967
0.857981
0.533795
0.586344
0.669538
0.416795
0.929844
0.240883
0.904654
0.604999
0.524253
0.950453
0.971553
0.661376
0.225933
0.269173
0.892971
0.968231
0.669863
0.98147
0.538829
0.965965
0.815598
310 464
17 355
188 123
205 145
70 54
471 284
324 391
358 350
364 95
498 480
360 185
470 437
464 10
499 487
187 110
140 400
129 137
372 45
275 91
233 70
85 42
19 250
77 431
324 141
93 426
290 325
46 165
61 17
497 325
58 352
34 414
329 458
114 312
413 443
73 127
216 71
170 231
327 414
148 92
271 406
107 278
418 295
350 186
69 270
361 409
483 131
432 224
498 294
334 475
206 428
212 88
411 373
226 99
223 460
498 432
497 175
76 103
61 263
296 310
280 198
184 371
104 406
103 8
37 128
88 222
286 259
242 71
16 441
103 167
319 23
9522.5
2
