70
3
0 0 0
47 59 53
67 53 46
56 87 26
63 72 49
34 18 81
24 82 91
68 41 36
52 74 62
12 98 91
66 73 83
55 61 42
100 77 81
71 96 100
87 70 38
50 11 49
89 93 16
55 84 40
74 80 17
100 74 55
33 92 26
24 28 57
17 85 47
80 18 55
20 93 58
93 52 47
42 92 77
95 96 11
90 92 66
50 38 57
96 11 31
19 65 31
39 57 90
98 78 20
54 75 98
15 12 41
73 26 15
28 82 11
22 66 98
94 68 55
12 57 82
96 69 12
99 84 84
27 95 97
27 45 45
50 42 11
85 11 71
35 22 65
95 48 98
98 85 48
22 74 48
72 14 71
23 43 71
18 80 94
53 73 75
53 57 55
89 51 67
81 53 39
39 17 33
34 82 81
67 57 10
62 79 46
14 74 88
13 73 20
46 68 83
55 87 10
16 54 82
44 73 94
10 82 31
86 96 76
0.293304
0.829606
0.921236
0.921788
0.782183
0.303308
0.922823
0.873451
0.539898
0.216267
0.987558
0.99877
0.336634
0.83591
0.447764
0.599309
0.4206
0.758993
0.838614
0.541991
0.292047
0.978073
0.912206
0.71342
0.65339
0.410858
0.910131
0.422194
0.614472
0.352374
0.724778
0.622833
0.260874
0.60542
0.372576
0.274313
0.822784
0.722522
0.272094
0.521751
0.434958
0.868243
0.447135
0.954487
0.797752
0.834799
0.228564
0.546982
0.78646
0.895562
0.279381
0.629822
0.4023
0.568285
0.963477
0.856113
0.958386
0.470626
0.526997
0.921036
0.902679
0.906892
0.454538
0.39977
0.672391
0.505967
0.776815
0.608793
0.728183
0.347671
273 69
162 183
239 217
354 395
235 121
225 335
396 266
95 22
430 298
35 326
189 373
265 333
438 309
342 153
184 83
405 6
131 483
82 30
39 362
224 483
207 462
387 46
157 102
329 464
161 415
65 240
9 443
304 411
203 334
244 376
258 50
373 62
288 175
41 271
429 424
307 125
411 81
298 368
76 37
47 131
207 315
186 34
155 68
187 150
387 396
380 323
452 200
431 364
376 21
281 76
159 180
364 302
435 306
163 400
335 87
353 146
235 211
38 338
5 239
100 227
442 192
493 295
0 195
227 395
35 246
322 294
479 385
40 341
250 479
195 177
4991.25
4
