70
3
0 0 0
51 67 41
88 63 63
16 53 22
64 58 99
11 53 77
10 27 58
73 68 19
30 64 77
77 99 52
34 53 39
86 57 86
54 32 85
87 54 74
25 21 91
52 69 57
52 37 83
62 85 58
87 62 30
54 35 100
11 17 83
100 38 75
49 96 78
55 87 71
10 94 53
85 76 49
20 10 100
20 29 79
17 16 77
100 42 58
18 92 53
25 52 56
95 17 39
19 99 22
98 80 69
92 29 38
81 93 62
77 29 75
40 86 87
71 82 53
54 41 14
100 50 64
20 74 67
64 83 32
89 21 15
36 13 47
42 82 43
24 67 16
93 41 94
92 24 55
68 64 73
81 42 68
83 76 47
46 98 94
13 58 99
33 97 52
23 66 94
55 47 73
83 48 44
29 70 95
60 94 97
11 34 14
78 38 60
55 90 39
82 18 53
17 28 88
21 78 93
66 88 42
76 74 48
63 14 38
0.912318
1.9872
1.73721
1.57747
1.38228
1.96182
0.621962
1.70129
1.03501
2.07422
1.78159
0.726232
1.20427
2.40199
0.624622
0.661934
1.44933
1.41226
2.31255
1.71695
1.25429
0.70231
1.04649
2.14715
1.83402
1.10838
0.846878
1.74403
0.727032
1.82166
1.40245
0.943499
0.997726
1.22961
0.771574
1.41407
0.694989
0.931435
1.25481
1.23984
1.42697
1.06162
1.01697
1.71575
0.661959
1.19672
2.43918
0.903862
0.714219
0.639679
1.24661
1.59589
1.35782
1.90996
1.70938
2.35967
1.07034
0.551931
0.839543
0.694723
1.8884
2.39792
2.28846
2.23785
2.14834
1.60145
1.45971
0.539821
2.17603
2.13744
243 285
173 85
401 120
314 405
294 499
11 388
445 7
182 201
409 250
258 161
90 486
151 165
274 117
130 251
232 299
235 313
426 299
138 387
117 465
136 497
354 332
444 280
200 280
199 267
383 154
417 355
369 193
42 309
22 26
313 378
245 400
279 88
206 316
357 483
356 240
363 140
393 142
443 252
359 303
153 464
288 297
344 113
173 128
223 307
353 248
120 228
474 28
20 441
1 251
488 28
13 114
23 422
347 282
482 499
69 437
15 225
294 306
30 138
305 442
451 182
106 345
185 32
51 10
457 277
138 212
277 369
163 170
360 241
237 371
382 163
19895
1
