70
9
0 0 0 0 0 0 0 0 0
13 38 50 47 15 96 52 28 31
84 61 73 94 93 25 79 36 81
68 26 48 64 85 11 50 87 18
40 68 97 21 99 16 31 10 99
29 80 38 75 11 35 75 38 34
53 11 52 24 15 89 53 36 86
47 99 15 43 18 85 29 89 99
58 46 35 87 86 96 94 95 63
97 21 90 97 99 93 19 77 62
14 91 56 100 100 87 49 87 93
47 55 28 63 51 21 98 59 19
20 50 28 60 73 41 96 21 14
59 65 53 99 43 91 68 74 64
47 66 13 89 52 30 86 13 20
68 46 47 20 41 34 41 41 90
51 46 40 78 37 15 91 77 74
21 78 74 58 91 94 99 25 76
77 71 84 56 22 15 97 86 43
83 52 40 49 83 88 52 61 17
50 56 78 62 13 47 96 91 24
70 18 47 91 58 30 53 63 97
44 89 46 62 41 75 89 21 64
97 90 77 63 56 60 93 85 77
28 80 26 41 72 25 21 84 76
78 66 43 51 90 72 73 63 62
67 37 80 54 50 19 55 31 80
81 71 87 10 61 32 44 61 16
41 11 66 15 17 95 22 67 46
97 49 54 67 84 92 96 44 16
22 54 40 92 52 79 43 18 18
64 22 17 87 22 86 65 89 55
68 96 41 99 81 75 80 62 44
31 13 51 70 22 37 87 79 82
53 56 58 61 69 75 95 50 48
86 30 85 64 15 14 15 30 31
80 19 42 10 41 95 46 62 40
66 40 80 80 16 79 65 21 44
38 98 49 34 10 93 76 27 68
42 96 38 14 25 15 82 20 50
91 81 85 69 63 14 52 26 18
91 100 54 29 50 29 95 60 31
94 75 56 86 77 39 54 26 93
19 69 88 45 88 49 90 48 89
56 90 23 64 83 98 67 31 51
17 30 27 84 93 30 78 49 17
61 97 68 90 63 74 31 91 45
73 100 12 45 34 91 32 84 88
66 80 81 81 81 69 100 16 47
52 11 68 65 46 16 47 26 94
31 39 72 62 53 91 76 63 19
97 81 41 84 47 63 69 64 91
81 29 11 64 87 33 20 33 34
13 14 97 48 55 51 29 84 100
38 56 36 70 88 74 94 49 77
10 96 46 44 84 55 86 27 70
36 25 13 22 42 67 37 62 20
86 49 44 51 87 24 64 95 12
46 79 96 42 52 38 19 88 23
67 56 16 89 74 93 85 78 61
56 88 34 97 98 92 14 44 69
75 67 77 75 88 27 37 89 97
63 70 35 65 18 34 96 65 34
79 90 24 38 34 97 61 97 84
68 48 41 63 61 72 92 17 10
42 73 72 63 88 32 25 18 21
84 62 51 72 15 59 20 26 41
10 94 21 49 88 28 28 26 63
100 77 52 92 69 12 25 54 89
72 95 16 38 67 96 88 19 55
0.176147
0.141389
0.23045
0.131768
0.160285
0.163756
0.370824
0.105826
0.454052
0.232732
0.257188
0.295179
0.353575
0.287647
0.28251
0.187621
0.27162
0.480507
0.475035
0.292713
0.413154
0.447279
0.372022
0.225124
0.148233
0.224173
0.435139
0.432196
0.413123
0.281634
0.436055
0.391657
0.305133
0.221682
0.204526
0.348131
0.172906
0.153708
0.401792
0.446259
0.202589
0.432936
0.259015
0.153109
0.304439
0.440855
0.303771
0.383193
0.295423
0.154942
0.16429
0.438547
0.19922
0.44031
0.351954
0.418282
0.215852
0.238947
0.411623
0.45922
0.361378
0.220102
0.171002
0.245251
0.496152
0.439992
0.202237
0.429554
0.401036
0.32508
286 235
475 332
485 233
328 453
158 404
383 279
18 357
442 463
449 269
371 169
157 165
224 178
293 288
212 490
434 44
309 464
455 37
179 166
36 70
234 125
406 159
285 216
176 316
395 21
435 204
409 48
316 52
309 9
490 495
193 415
171 361
237 246
153 458
121 314
453 94
13 424
137 344
412 392
477 326
197 164
170 366
260 147
118 281
301 314
248 493
209 420
418 164
262 93
432 171
150 465
66 280
303 431
336 369
135 267
449 267
344 403
366 83
101 274
189 490
158 166
99 352
395 477
267 437
303 400
460 198
172 33
450 234
55 43
34 134
463 1
6568.33
3
