70
7
0 0 0 0 0 0 0
53 89 30 26 46 60 31
75 46 85 41 29 31 28
24 85 71 38 80 50 20
68 87 97 86 95 31 86
75 85 91 39 31 84 28
62 88 82 24 59 63 99
44 82 65 67 93 50 56
53 92 52 54 81 35 46
81 97 43 93 23 30 69
49 89 33 91 21 72 100
77 78 42 71 16 59 96
53 55 88 26 98 77 16
90 37 69 24 14 47 44
87 34 31 26 90 29 28
92 56 62 17 50 70 79
51 57 25 68 75 93 78
77 70 95 66 77 96 98
99 94 78 11 41 60 83
96 56 84 50 13 26 57
59 51 13 21 82 90 79
82 48 47 40 48 90 13
42 75 51 13 20 80 29
97 22 13 54 44 68 53
74 55 37 99 77 88 98
29 72 17 13 87 88 89
20 96 43 46 39 81 94
56 53 74 44 51 61 10
85 93 68 58 75 12 83
85 57 34 61 92 100 25
81 14 82 19 39 22 17
75 10 33 35 66 39 36
45 59 59 16 83 82 81
40 58 93 29 79 85 82
62 31 55 25 44 79 44
62 98 44 48 74 73 29
66 52 60 23 32 88 91
85 81 46 24 11 38 61
100 81 71 96 90 39 68
45 10 21 10 22 19 62
43 89 38 34 15 33 51
99 35 37 24 90 76 81
78 38 19 29 98 42 73
30 17 12 15 68 53 21
28 28 40 85 61 54 20
84 64 98 38 17 59 26
34 80 94 53 69 59 64
79 20 32 68 78 48 63
23 75 99 83 94 13 24
52 72 41 90 59 83 29
37 39 55 43 78 41 49
66 30 19 77 89 100 90
89 61 26 68 80 48 37
18 29 95 29 80 19 45
41 68 81 28 36 94 32
82 47 46 80 81 67 60
16 85 20 30 54 88 94
21 74 37 81 84 22 55
31 48 93 60 25 20 92
86 73 90 17 71 58 27
18 40 54 10 58 67 62
93 40 22 23 18 84 95
60 59 36 25 10 58 44
74 64 97 10 27 11 78
50 24 94 49 52 26 89
62 72 44 98 60 61 29
100 78 46 47 64 96 14
29 92 87 28 36 46 56
61 79 63 87 93 92 24
79 79 37 91 10 52 35
1.48288
0.772262
1.35924
0.970832
0.760126
0.79987
1.27781
1.78635
0.904605
0.999217
1.05261
0.924524
2.04566
1.26962
0.896609
2.14614
1.80476
2.47706
2.21249
1.0618
1.12181
0.620289
1.94676
2.06072
0.911558
1.50657
1.0316
0.596365
1.25207
1.58674
1.6081
0.992626
1.78057
0.532045
0.863334
1.03073
0.519014
2.20884
1.13353
1.6022
2.3139
1.12232
1.71237
0.931637
1.81461
2.49544
1.77915
1.49426
1.1599
0.712655
1.08581
2.34837
1.75468
1.24473
1.35233
0.935802
1.5603
1.46708
2.28331
1.41442
1.95349
0.84324
0.569281
0.653277
2.07767
0.556424
0.675609
0.91934
2.1787
2.07821
215 370
230 1
268 230
362 199
288 327
184 413
167 389
381 415
405 462
290 133
174 388
255 23
167 296
462 446
276 147
295 258
346 99
192 303
59 256
210 17
339 480
327 314
330 154
417 352
235 154
308 470
434 85
62 374
432 192
195 292
131 288
492 279
325 14
130 384
30 159
90 370
28 49
244 57
290 495
352 233
70 176
297 41
90 219
494 65
50 151
256 99
223 224
412 71
21 107
214 70
210 329
96 422
500 390
153 390
177 315
206 18
87 273
223 158
355 486
54 243
79 33
201 248
482 151
228 413
217 237
490 51
335 401
399 80
100 155
300 290
3903
5
