70
5
0 0 0 0 0
91 81 64 64 39
94 36 10 53 47
57 29 86 41 49
74 66 19 44 66
83 76 62 12 30
57 23 17 68 86
40 57 91 58 20
95 53 89 66 24
70 77 24 33 98
12 68 13 28 69
50 31 38 22 16
93 82 72 97 28
30 53 48 36 37
77 11 76 11 35
65 42 39 30 38
64 88 35 22 63
41 86 63 76 72
66 69 63 52 77
38 87 34 22 37
72 72 56 25 11
62 12 10 34 75
72 94 50 49 57
14 52 15 64 71
59 76 35 85 42
54 70 27 72 60
34 53 94 50 74
11 15 78 11 10
95 87 38 81 22
60 22 99 68 88
84 69 25 54 91
15 80 97 65 46
91 58 17 81 50
30 83 100 53 58
87 57 15 62 73
76 45 12 65 46
99 21 51 75 35
24 29 36 46 10
31 23 35 24 53
57 72 38 67 19
86 33 13 70 63
62 92 60 14 66
16 55 64 16 23
19 16 38 89 10
48 55 75 77 59
68 70 49 13 39
89 30 10 80 54
77 94 28 59 80
14 92 58 84 66
100 19 78 11 43
12 69 34 11 34
38 54 66 72 33
53 65 87 91 47
28 66 11 25 81
100 50 99 79 32
95 70 92 44 24
28 69 33 11 68
99 99 55 32 87
62 49 24 93 98
94 25 38 91 16
77 38 79 85 49
27 32 10 64 73
29 40 80 88 49
42 73 20 98 93
47 83 18 24 45
32 32 51 54 37
69 58 98 35 51
27 37 24 10 78
59 92 95 71 31
78 68 67 72 40
0.371291
0.818153
0.630109
0.617509
0.890069
0.547035
0.850892
0.746499
0.610697
0.650357
0.439334
0.278729
0.310261
0.520312
0.575121
0.76308
0.786046
0.243541
0.290697
0.732656
0.472887
0.216348
0.292787
0.593802
0.923903
0.508038
0.738973
0.249058
0.333621
0.619967
0.394563
0.606201
0.339748
0.981774
0.889115
0.90869
0.899893
0.295413
0.867133
0.302739
0.757723
0.466927
0.507718
0.882549
0.232646
0.463441
0.349181
0.873007
0.891269
0.692184
0.622785
0.856472
0.875858
0.291786
0.27862
0.959386
0.326357
0.925709
0.665657
0.874616
0.282854
0.257219
0.75729
0.956345
0.529647
0.756254
0.803976
0.405977
0.736521
0.287273
295 80
276 477
192 385
249 356
159 363
129 123
240 267
167 40
161 333
126 411
426 499
407 48
421 339
299 443
228 468
465 174
69 111
379 368
247 396
198 170
279 310
122 341
372 274
203 107
0 264
470 17
117 171
23 330
262 473
108 395
57 100
115 459
470 180
378 119
477 23
107 256
384 266
335 102
229 179
200 453
237 71
237 223
167 29
461 410
154 484
36 115
441 430
429 234
367 32
365 298
172 267
396 327
208 63
176 287
140 39
128 218
471 52
376 360
144 371
31 497
460 250
64 92
289 405
402 46
28 3
86 253
94 359
94 31
51 352
28 453
4617.5
4
