70
7
0 0 0 0 0 0 0
55 93 84 29 55 41 26
41 53 14 25 64 40 26
89 39 78 11 54 13 84
72 19 79 94 54 60 87
35 38 13 54 95 52 53
86 54 98 53 73 46 47
11 84 24 48 17 87 56
90 55 85 64 90 46 47
68 34 85 24 82 97 37
71 35 17 47 81 71 18
58 30 41 69 95 10 19
65 62 100 55 90 58 41
27 14 52 70 54 69 52
75 71 92 10 55 49 52
35 24 39 32 81 44 13
95 15 81 13 64 29 80
20 40 73 59 71 86 50
86 69 38 93 16 18 74
55 88 40 84 18 87 75
78 31 71 50 35 97 100
26 42 86 22 80 34 46
46 64 88 45 27 78 54
82 59 54 62 94 32 50
19 56 50 30 91 81 54
81 83 82 52 82 71 13
59 83 65 79 60 56 61
11 100 84 24 86 84 31
89 57 33 49 38 97 73
31 94 28 35 76 50 79
50 73 22 34 91 54 31
63 34 64 19 96 86 56
83 11 55 92 27 33 76
42 57 62 51 93 97 39
14 74 87 96 95 77 14
80 38 29 43 31 30 46
69 73 67 78 72 17 36
22 65 76 12 14 47 97
68 51 14 39 89 11 35
19 98 99 32 31 27 46
82 82 71 80 40 94 88
62 36 94 50 90 66 71
98 11 86 46 95 24 20
69 92 54 54 17 18 56
48 67 14 87 25 30 74
15 99 13 17 29 41 57
52 97 99 84 25 46 64
83 40 82 77 78 19 49
71 47 54 92 83 37 14
99 70 42 95 67 99 94
74 39 32 47 19 76 73
44 29 36 94 52 34 47
79 63 32 54 79 32 45
39 68 75 33 77 70 64
88 34 60 27 32 24 26
87 61 36 45 94 24 39
55 47 32 72 54 22 32
44 11 40 72 19 74 14
30 84 39 98 78 56 49
35 16 31 24 90 46 47
67 20 18 67 13 11 47
53 21 96 47 76 12 49
31 100 78 87 10 37 60
48 98 82 94 69 20 48
60 39 41 92 65 94 82
60 79 86 30 16 18 84
22 40 25 29 77 16 40
10 17 75 90 93 19 50
65 21 65 63 49 93 55
90 50 70 83 63 64 58
1.94788
1.62957
1.1649
1.81094
1.89741
0.676558
1.87811
1.66474
1.756
0.409932
1.72829
1.11691
0.612618
1.74736
0.405987
0.591158
1.68917
1.05016
1.41341
0.69726
1.43664
1.65123
1.86581
1.31868
1.88008
0.691523
1.3397
1.58185
1.58125
1.14266
1.39675
1.18104
0.78705
0.81879
1.80255
0.628745
1.15209
1.55769
1.41456
1.7377
0.917095
1.47662
1.31152
1.22583
0.727598
1.2397
1.94921
0.654733
0.749062
1.29784
0.48604
0.861839
1.15492
0.446933
1.19799
0.442259
1.91682
1.06346
0.51591
1.50472
0.79093
1.54328
0.612274
1.91172
1.26325
0.890197
1.12253
0.43628
0.874062
1.30839
136 446
171 349
256 128
410 374
404 478
349 123
430 204
308 119
68 115
229 189
382 262
323 155
465 100
347 362
362 122
254 291
5 497
498 75
367 34
237 388
362 155
284 271
47 145
197 455
468 239
193 443
121 340
410 127
294 403
341 305
228 105
98 61
69 76
142 46
195 491
68 473
417 91
83 280
380 123
297 265
234 433
336 250
402 143
287 455
50 72
81 456
255 199
356 432
169 480
278 9
202 458
244 289
448 44
137 168
226 155
251 483
480 256
265 446
238 482
354 465
150 49
443 211
235 148
415 204
69 312
16 273
254 134
245 34
175 332
143 285
6360
3
