70
7
0 0 0 0 0 0 0
72 34 89 38 56 11 21
16 29 12 59 34 62 61
88 38 97 34 33 86 94
79 41 46 63 84 38 87
32 96 57 11 55 39 53
41 54 51 24 66 55 73
40 43 76 98 92 74 26
70 24 45 36 29 38 47
18 56 28 14 88 62 58
15 94 60 86 43 88 93
30 93 81 78 92 85 73
63 27 16 71 98 41 50
36 92 67 33 38 55 63
13 22 27 53 63 95 56
29 34 13 79 24 66 60
68 16 97 74 27 99 11
12 17 34 31 56 43 11
78 87 79 62 40 55 68
38 36 77 98 22 85 83
93 30 29 67 85 97 26
82 22 82 45 53 44 72
91 54 22 38 59 18 38
79 64 94 42 80 15 60
29 82 77 30 85 14 63
14 83 22 19 17 33 91
94 46 40 69 13 57 32
81 10 93 89 18 55 93
44 54 54 86 21 57 32
82 90 71 38 70 23 38
59 58 56 91 68 81 20
78 91 32 27 32 42 55
72 64 53 92 11 53 69
85 48 95 64 95 59 75
89 81 86 82 43 58 64
86 76 84 95 69 59 96
67 59 28 28 86 40 65
100 52 63 51 41 54 93
94 67 21 22 62 95 100
100 43 17 54 28 70 22
17 89 28 97 82 44 50
86 86 80 58 25 58 85
79 61 34 83 83 82 35
48 92 47 24 17 22 20
57 51 70 22 55 13 47
92 61 52 14 78 50 66
27 34 36 60 45 68 80
34 29 97 14 80 15 43
47 77 55 84 63 23 81
38 21 70 100 53 48 67
68 21 72 75 66 52 61
28 98 46 55 40 41 43
50 93 26 63 92 37 49
34 27 90 30 13 38 20
18 50 86 59 34 87 55
63 38 56 51 17 80 98
47 63 31 24 95 42 70
57 63 52 11 95 69 31
100 71 75 39 81 22 72
30 64 45 45 44 23 46
19 91 93 62 13 56 57
90 69 47 39 12 98 51
44 15 89 42 59 97 23
63 96 37 69 20 57 50
90 80 66 56 85 16 72
71 62 99 43 14 91 66
44 74 97 86 47 97 93
11 33 62 78 97 34 20
37 74 57 70 14 76 85
85 97 30 41 96 94 36
0.639157
2.48089
1.31813
1.51405
1.81144
1.89287
2.38926
1.86204
0.834277
2.46536
1.61031
0.952633
1.18681
1.77993
2.33104
1.09645
1.11145
1.44542
1.15601
1.30573
1.51192
0.784086
2.22319
1.26036
0.545042
1.09171
2.08781
2.14202
0.883191
1.41379
1.00209
1.33391
1.33183
2.37517
1.54144
0.773668
0.565333
0.573302
1.91329
1.5629
1.33952
1.01794
1.26998
2.13765
1.33768
2.38009
2.48962
2.05559
2.12985
1.45333
1.74466
2.3344
1.90999
1.26454
2.13231
1.19448
0.782799
1.17629
1.79178
1.98704
0.948273
2.46789
2.23202
1.23875
2.11047
2.36489
1.57373
1.33786
0.741823
1.88648
120 275
235 134
150 377
264 299
114 359
211 420
460 401
95 250
293 388
296 140
109 118
146 337
3 382
115 31
8 365
484 76
159 475
472 494
189 80
196 345
199 420
207 419
446 382
489 301
236 344
138 257
266 478
348 182
36 285
25 399
102 127
196 203
403 3
437 496
438 341
447 473
445 188
440 223
131 274
316 75
293 432
56 10
242 467
85 28
471 152
39 315
406 231
74 206
27 108
31 160
24 217
399 276
271 242
348 51
293 188
278 213
12 151
179 471
290 174
231 308
125 208
109 66
499 92
163 276
348 309
358 437
453 481
347 204
174 452
349 311
4850
4
