70
9
0 0 0 0 0 0 0 0 0
47 100 86 52 34 10 77 45 14
60 95 96 72 98 10 55 54 82
58 35 42 41 24 91 62 48 45
27 12 19 42 11 75 90 20 87
41 90 54 93 28 47 73 35 29
12 35 24 28 37 90 52 98 72
36 99 17 95 44 14 15 52 84
12 57 18 40 10 56 82 38 74
58 89 84 48 40 50 59 17 98
35 83 22 70 96 30 16 72 25
29 52 44 91 29 65 79 15 49
27 68 18 36 10 88 98 29 76
74 91 33 56 37 89 99 37 35
61 76 63 89 67 22 21 66 37
91 94 73 33 49 32 52 77 16
73 62 75 71 74 32 19 99 41
40 21 42 94 36 66 50 87 63
11 100 71 46 84 73 16 97 75
39 38 94 67 38 39 52 79 73
59 36 30 75 32 61 24 17 11
26 22 50 25 91 24 64 21 20
67 18 62 34 49 64 84 77 61
34 48 52 87 64 96 80 67 65
22 70 97 24 87 13 74 59 25
26 24 30 14 84 69 84 55 15
26 60 41 68 84 10 22 80 31
93 28 99 20 80 100 79 11 23
83 94 85 91 93 80 72 21 67
69 49 18 55 87 13 63 81 44
11 70 97 96 99 27 31 61 89
33 44 38 20 98 33 40 75 85
11 43 42 53 52 58 75 64 78
65 67 76 55 55 56 52 33 89
26 80 39 39 47 96 91 20 89
90 20 97 36 51 90 56 94 66
94 28 26 80 93 23 72 88 10
76 37 86 43 48 39 49 22 45
18 27 35 36 24 12 49 70 72
44 12 87 24 85 93 28 19 100
13 80 93 29 21 74 68 98 44
89 69 88 11 88 30 89 18 17
17 94 91 26 30 97 86 39 35
32 43 28 83 57 56 88 26 94
49 36 54 77 73 16 27 63 42
49 49 76 24 96 68 33 98 43
91 33 68 15 22 48 67 60 18
14 69 47 59 57 19 44 97 19
68 83 74 67 69 98 41 21 51
15 57 60 58 82 25 84 76 10
74 31 74 91 32 52 44 66 96
15 49 84 10 67 83 62 99 84
94 61 64 67 70 37 83 67 51
50 32 90 47 22 46 99 61 40
66 96 81 68 18 18 56 51 12
56 69 52 69 81 48 71 55 24
47 80 88 46 45 24 99 72 14
57 85 28 38 31 53 78 19 17
86 90 34 45 44 29 76 100 69
90 41 47 57 97 27 89 97 73
61 31 59 75 48 31 86 62 86
89 22 41 80 67 25 82 16 52
44 63 10 73 16 48 50 45 14
44 23 15 100 72 69 85 22 11
94 52 25 90 24 77 45 55 45
90 60 19 21 72 81 35 66 59
79 40 75 61 92 72 36 69 76
17 52 95 56 57 34 20 60 40
57 54 78 51 97 33 100 59 50
97 96 93 79 79 52 23 50 18
0.168425
0.104622
0.31465
0.233937
0.226299
0.443717
0.415241
0.26254
0.4415
0.304004
0.334252
0.253392
0.145291
0.340101
0.375081
0.439577
0.302905
0.241686
0.498996
0.494319
0.127421
0.233502
0.426819
0.286478
0.457699
0.231168
0.300446
0.263829
0.149418
0.43263
0.156993
0.259968
0.229644
0.258321
0.305922
0.268403
0.381864
0.383858
0.220569
0.169937
0.207601
0.144131
0.345208
0.190964
0.16833
0.27204
0.268735
0.456152
0.358553
0.104082
0.377584
0.140197
0.494625
0.377414
0.342984
0.490116
0.176478
0.459359
0.256671
0.393058
0.209359
0.347071
0.47068
0.186478
0.161773
0.131484
0.375175
0.293054
0.457465
0.155968
47 303
438 199
99 48
36 244
499 32
93 454
194 310
31 155
31 397
152 288
443 308
261 428
218 141
457 253
262 455
354 385
74 143
303 348
417 175
389 229
108 80
147 63
287 132
159 157
144 190
484 146
36 339
70 312
204 367
310 161
196 414
487 70
190 447
302 491
469 117
397 391
262 378
121 466
429 8
240 351
52 117
420 10
295 184
298 153
331 48
481 239
479 304
299 416
200 157
274 419
326 207
15 388
197 383
202 32
132 272
24 444
168 200
80 197
360 227
384 129
180 386
88 389
463 263
360 397
378 146
319 125
456 390
52 266
243 93
3 201
19055
1
