70
7
0 0 0 0 0 0 0
10 55 65 69 34 87 91
34 11 47 42 88 24 13
98 12 55 46 93 21 41
71 86 63 30 40 38 35
40 83 46 56 79 92 82
39 98 55 11 45 13 74
45 85 66 71 69 29 50
65 53 22 82 67 18 34
61 65 46 45 66 76 86
30 94 82 52 46 97 16
59 23 50 41 87 82 43
21 85 31 72 16 39 19
58 42 63 78 44 56 23
77 92 16 16 80 18 95
40 59 82 23 18 54 63
71 50 77 16 25 88 27
48 99 78 79 92 42 75
99 45 72 97 55 99 52
63 33 29 43 96 73 29
42 100 30 54 79 83 17
40 25 47 83 96 97 71
58 83 56 28 96 22 83
20 84 29 79 67 48 12
60 46 17 99 23 17 67
82 66 99 81 96 65 58
36 32 88 68 69 99 32
88 45 67 66 32 47 36
19 20 71 32 53 41 22
61 16 79 90 11 74 67
36 97 62 90 38 84 43
74 28 95 98 88 81 71
90 93 64 29 58 41 40
87 96 22 49 20 64 21
68 67 35 36 74 23 77
53 43 38 14 89 10 38
47 61 77 85 45 18 79
87 84 59 47 56 59 92
49 91 26 53 78 90 98
77 47 67 53 82 56 39
77 95 47 93 42 17 84
15 44 30 88 94 18 39
92 43 33 48 39 68 76
13 46 29 84 26 77 95
21 59 21 87 100 18 48
78 58 78 45 38 74 80
10 38 85 77 58 38 61
85 100 68 78 16 74 44
95 25 95 42 83 44 17
29 39 56 17 12 24 69
80 66 46 19 24 94 98
59 80 43 58 63 10 88
38 15 66 80 35 87 36
82 85 21 66 21 75 61
69 42 69 39 84 56 40
20 41 97 84 41 79 33
72 65 97 25 93 20 99
89 48 78 33 59 43 59
75 28 10 91 12 97 45
17 14 68 76 99 45 19
63 45 30 51 48 86 89
81 47 72 25 57 81 13
97 35 85 78 17 12 69
44 20 61 83 14 25 55
63 79 58 22 64 13 55
81 71 62 21 60 93 55
32 12 44 16 79 12 88
98 51 80 76 81 46 77
27 21 34 18 88 19 39
17 70 20 82 30 66 31
1.26785
1.03325
0.826818
0.722989
1.41847
0.465363
0.669041
0.675883
0.341103
1.29824
1.07041
0.905245
0.855153
0.476896
0.845285
0.482338
0.603778
0.996145
1.35464
0.464766
1.45464
1.31005
0.345085
1.11032
1.37239
0.618223
0.736694
1.4662
1.46749
1.36478
0.624514
0.778111
1.39061
1.3032
0.692361
0.6016
1.44413
0.664873
1.24134
1.2364
1.22367
0.674679
1.01264
0.985828
0.559084
1.34067
0.689941
0.526753
0.413354
0.548855
1.46027
0.385599
0.615129
1.47376
0.484569
0.815033
1.42345
0.872216
1.41946
0.447477
0.700832
0.419754
0.320503
1.45219
1.10392
0.911795
1.03343
1.48469
0.882336
0.884759
51 463
295 84
317 175
336 203
498 470
313 306
491 451
43 357
267 313
15 448
330 339
11 49
312 474
198 494
362 111
470 10
316 15
172 20
313 6
11 474
192 399
3 462
453 8
359 407
435 396
343 406
211 261
353 441
73 303
378 359
340 131
458 208
492 151
96 12
150 243
447 150
494 180
22 302
66 354
448 454
27 176
135 92
399 305
330 222
466 421
37 261
405 12
164 59
367 424
479 115
257 187
301 308
354 95
82 0
421 475
56 175
146 470
325 439
16 481
123 417
254 338
143 192
446 430
270 220
432 165
397 264
321 409
369 335
86 208
134 443
6421.67
3
