70
7
0 0 0 0 0 0 0
14 23 44 40 89 97 82
24 96 83 78 79 55 80
94 56 22 41 74 71 34
85 32 99 18 80 45 96
28 47 32 48 57 96 69
95 49 34 91 65 80 64
91 66 98 81 87 85 20
61 69 97 51 86 59 100
37 30 14 60 62 58 44
35 83 66 80 14 40 38
57 75 63 93 78 90 39
44 97 16 69 32 60 49
59 62 22 23 51 26 79
44 17 86 15 98 45 51
28 73 92 29 48 18 54
22 91 59 23 82 28 94
65 47 55 62 42 37 16
11 30 93 97 22 78 72
17 81 72 12 31 32 40
50 100 36 89 93 72 77
34 26 46 68 59 71 46
40 53 53 77 56 18 70
23 90 24 76 61 32 39
27 56 37 43 31 30 65
80 19 62 70 23 28 30
64 40 66 30 90 62 49
69 11 44 71 32 46 73
90 38 25 46 84 11 79
68 37 31 30 68 63 76
16 57 77 12 68 29 77
26 94 70 32 72 64 12
76 13 80 44 46 72 80
25 56 82 76 13 61 11
56 58 49 50 79 28 59
74 53 63 15 33 63 37
60 47 15 24 66 92 26
91 79 34 44 33 91 16
40 12 65 47 43 62 67
44 95 31 27 87 45 15
59 20 21 47 70 66 78
13 58 72 15 23 14 42
31 89 20 38 93 48 56
58 50 74 14 42 62 26
77 85 86 82 62 18 85
59 91 32 96 71 66 77
100 36 44 57 67 17 79
45 28 37 60 47 30 58
68 45 20 21 97 45 12
20 64 26 85 40 34 60
52 66 61 27 44 59 31
59 50 100 27 92 25 60
30 16 52 48 23 54 32
34 78 57 38 79 83 61
48 21 75 70 50 52 99
51 37 70 42 13 34 70
58 88 88 64 45 90 82
40 98 68 69 23 33 67
47 64 30 90 14 13 20
13 87 27 27 21 25 24
99 16 34 35 100 87 84
33 77 56 63 73 72 92
16 80 87 71 22 75 58
97 35 83 67 12 40 38
64 47 87 70 14 63 51
94 100 17 67 46 43 35
30 72 90 67 15 49 35
46 68 49 67 26 33 76
99 38 46 87 90 43 27
95 43 55 57 100 72 41
0.496416
0.46587
0.202806
0.174039
0.26266
0.458194
0.362188
0.159319
0.206827
0.351483
0.177938
0.148667
0.467797
0.193058
0.3377
0.24601
0.420233
0.447855
0.447193
0.297627
0.466159
0.402417
0.228944
0.383032
0.183867
0.185292
0.337781
0.348924
0.478632
0.2967
0.18113
0.356247
0.390638
0.382694
0.321654
0.401557
0.390276
0.41572
0.269261
0.102852
0.345994
0.430794
0.226587
0.202142
0.357138
0.359679
0.306401
0.445652
0.461582
0.249856
0.409378
0.353809
0.114117
0.465881
0.385172
0.10235
0.170699
0.422062
0.487512
0.108938
0.119598
0.488333
0.434095
0.469061
0.347057
0.214631
0.456507
0.208016
0.493597
0.26439
118 106
7 397
5 182
340 478
251 477
267 444
32 158
354 104
384 232
35 341
187 213
236 241
254 128
15 385
108 145
358 162
202 158
214 474
183 193
108 352
264 277
241 486
299 475
76 406
203 447
156 100
161 327
462 30
415 257
356 93
455 332
408 339
230 85
198 270
96 374
85 256
60 282
372 186
329 412
172 268
2 109
484 385
247 225
324 254
58 202
368 199
349 467
436 62
392 295
473 31
238 452
50 329
236 218
191 70
163 327
389 475
299 330
261 452
332 426
232 173
424 83
172 386
498 144
419 372
241 426
113 123
432 299
362 180
247 304
56 341
6225
3
