70
7
0 0 0 0 0 0 0
10 10 97 14 58 84 34
91 94 40 35 29 27 75
10 41 87 62 27 47 45
70 33 95 20 92 14 94
35 92 36 67 21 26 37
63 85 35 24 38 56 90
43 36 21 79 83 21 18
30 95 25 37 55 56 13
42 37 55 34 89 33 58
59 85 39 40 86 67 54
31 59 51 28 46 51 12
52 53 58 93 83 46 30
81 24 40 90 52 59 95
100 90 99 86 33 17 88
25 34 24 54 11 11 50
33 27 70 40 63 37 49
88 40 13 54 67 62 52
17 71 49 57 11 68 88
69 92 11 84 44 84 46
51 67 26 22 82 78 38
74 73 50 82 89 78 57
84 99 60 21 67 88 26
73 81 56 89 93 56 91
19 24 99 10 72 70 95
10 75 22 97 19 72 13
70 96 43 78 31 73 85
71 93 54 29 32 17 56
27 52 96 17 37 89 62
72 69 63 75 15 35 52
89 33 62 90 24 74 64
85 14 52 20 95 30 35
93 74 65 65 77 25 76
27 30 27 84 71 20 42
58 35 35 94 68 18 36
20 23 43 31 32 56 44
58 89 69 62 48 11 83
99 53 49 95 80 68 70
17 49 56 88 12 42 24
84 64 43 17 84 46 88
62 38 73 73 93 90 38
52 39 38 88 57 68 46
100 18 25 58 31 34 19
94 94 11 18 10 43 10
91 22 43 94 84 81 26
39 27 96 88 34 29 43
82 45 23 10 13 84 88
100 59 18 39 18 66 73
28 100 27 44 52 15 80
68 90 80 39 47 77 83
56 95 70 36 26 78 52
30 26 60 43 91 90 12
36 69 21 24 28 34 55
40 26 30 39 55 33 85
64 69 32 15 57 72 12
21 63 92 15 15 61 49
68 15 16 59 57 80 61
65 86 59 42 46 50 89
22 29 100 67 79 83 19
42 86 53 28 43 70 54
63 20 52 52 99 82 56
60 61 30 16 90 36 70
33 17 14 92 49 39 23
82 20 77 44 76 78 42
48 38 74 26 85 82 56
18 85 57 10 58 78 77
11 86 24 62 11 43 77
40 82 96 16 58 71 57
73 72 89 92 29 20 44
58 18 32 73 26 89 60
1.00533
0.57859
1.24846
0.727376
0.781268
1.40833
0.988118
0.734154
1.03988
1.3108
0.664884
1.32932
0.85712
0.682287
1.38249
1.41555
0.888783
0.575539
1.41041
0.364704
1.28017
0.470683
0.905795
0.918468
0.779181
0.426454
0.778812
0.839032
1.13349
0.961972
1.19453
1.44433
1.27772
0.985106
0.876823
0.543346
1.28823
0.766302
0.866347
0.997296
1.1046
0.818829
1.16309
0.690644
1.34473
1.37779
1.09936
1.22571
0.797021
1.39256
0.839444
1.09158
0.578874
0.474951
1.02161
0.952711
1.13023
0.520796
0.61275
0.836596
0.980174
0.42942
1.25939
1.36404
0.393344
1.41256
1.10609
0.891443
0.650401
0.952174
147 192
104 339
11 207
494 424
196 317
178 466
41 48
403 53
450 256
226 205
239 401
227 219
485 307
202 491
251 429
421 71
445 39
405 416
371 148
256 450
41 325
291 464
125 436
80 462
184 278
483 198
240 348
215 222
45 184
40 319
281 178
314 319
126 65
215 467
204 336
183 254
132 156
422 325
272 10
259 347
160 233
13 469
267 484
54 21
406 430
462 214
328 115
471 329
487 219
186 228
272 268
154 73
89 108
177 62
388 467
428 241
439 183
106 44
343 148
25 24
376 83
332 254
381 484
63 229
8 336
353 58
490 38
77 343
393 245
161 87
9240
2
