70
9
0 0 0 0 0 0 0 0 0
58 37 22 20 79 58 33 43 51
86 25 47 72 76 32 65 41 62
25 18 70 78 21 61 75 13 59
80 50 48 37 52 29 74 93 20
44 86 52 11 57 71 36 12 37
62 43 79 100 11 41 58 47 19
13 55 84 22 36 97 82 18 22
78 54 15 14 12 28 48 50 65
90 16 38 76 98 35 73 14 23
64 15 76 43 55 72 12 50 69
47 79 43 51 70 14 18 65 44
28 34 88 67 28 17 33 12 54
34 72 56 67 90 21 21 20 57
70 10 88 70 35 17 43 58 15
79 45 75 93 100 94 92 95 68
26 98 39 17 63 22 79 50 33
94 74 51 76 42 90 52 91 29
49 86 16 20 53 16 28 62 18
61 11 47 10 57 31 87 91 14
54 38 88 65 22 60 43 11 23
79 92 67 22 42 13 67 11 78
60 58 57 24 44 62 50 62 80
33 69 84 40 96 51 45 74 10
46 15 10 17 52 94 13 50 47
34 36 18 42 96 76 50 45 58
57 100 63 79 41 100 93 96 93
96 32 20 16 64 45 26 80 35
39 50 69 34 45 86 69 96 48
18 35 10 51 38 89 26 53 84
13 47 94 84 13 86 59 86 81
21 34 71 10 32 19 29 96 39
53 97 87 29 40 93 50 53 21
78 41 27 44 36 23 12 28 63
27 47 25 71 66 78 37 32 11
80 93 36 52 99 68 49 80 16
31 48 96 10 54 69 20 39 29
64 69 73 57 96 65 82 32 46
68 18 77 64 10 10 61 32 48
56 17 32 70 72 96 48 54 16
72 77 36 60 24 42 76 47 49
62 21 11 67 70 41 75 72 85
84 64 83 67 27 57 86 49 99
90 84 16 14 61 69 37 39 39
80 55 88 59 31 37 35 12 42
58 54 39 16 20 78 44 22 100
55 48 84 99 42 97 46 86 49
80 27 93 67 92 51 84 18 57
100 18 93 28 41 40 54 100 92
28 40 31 38 71 47 84 75 23
82 63 10 27 35 90 26 10 34
77 83 30 46 39 14 41 61 85
100 17 71 23 73 59 46 98 18
19 81 41 95 27 69 100 94 48
43 50 79 66 57 49 67 34 31
33 24 65 34 58 45 78 70 65
52 38 37 86 23 23 56 39 86
17 80 96 86 21 45 46 11 74
55 98 54 48 56 22 20 49 90
78 85 61 64 32 48 54 12 20
94 26 10 96 73 87 26 83 20
28 28 84 41 97 82 21 48 33
30 83 38 61 80 35 95 24 84
17 41 65 23 35 59 18 73 53
87 37 87 57 90 90 32 56 43
75 43 52 79 65 16 94 43 72
51 73 90 43 68 87 19 65 78
24 15 78 13 44 24 75 16 74
35 18 42 74 31 42 48 25 58
34 69 90 35 37 48 54 39 56
0.646137
0.42518
1.3636
1.21136
0.3849
0.354551
0.582076
1.20166
0.881563
0.607691
0.950499
1.31117
1.16362
0.500496
0.783083
1.21974
0.539953
0.984004
0.460895
0.760787
0.7324
0.597791
1.43158
1.43896
1.27613
1.17312
0.96448
0.487412
1.13235
1.11002
1.18223
1.47428
1.15853
0.303212
0.573481
1.29334
1.30381
1.45607
0.800299
1.38209
1.30009
0.474267
1.24072
0.452803
1.01792
0.776051
0.466871
0.544781
1.30473
0.620367
1.15333
0.970408
0.477726
1.45968
1.0506
1.43805
0.906496
1.34851
0.993335
1.04683
0.925211
0.700308
0.668171
0.851182
1.32558
1.43284
1.15411
0.407678
1.18547
0.418686
5 428
220 2
486 138
452 110
97 410
82 112
190 115
311 134
337 102
1 440
20 25
132 6
131 370
170 99
24 70
287 411
277 225
223 218
124 153
105 158
475 85
168 222
255 5
366 475
320 333
291 168
157 239
424 32
361 437
418 233
397 499
154 171
54 112
4 172
290 214
186 122
320 6
249 334
155 48
105 150
203 245
85 161
172 114
13 339
25 360
498 369
46 221
208 324
112 284
484 78
168 274
238 388
105 163
227 228
175 307
445 479
367 409
392 337
475 71
216 354
17 130
10 369
210 20
474 73
112 340
262 368
284 420
487 498
62 217
494 24
6018.33
3
