70
7
0 0 0 0 0 0 0
38 81 38 50 97 74 73
80 23 54 85 64 100 47
77 20 89 49 20 64 27
63 91 82 31 22 98 54
16 30 60 21 39 54 29
73 80 45 87 80 55 54
80 91 16 14 39 10 31
58 25 18 83 30 21 33
13 21 60 52 90 18 80
92 13 64 89 92 30 51
25 76 57 10 96 27 80
15 50 19 47 78 75 30
82 64 93 30 40 20 43
75 39 31 63 89 65 71
83 95 30 98 37 36 24
85 99 99 81 18 81 21
62 85 64 36 53 73 59
29 79 46 22 71 49 79
74 69 45 60 30 43 39
19 73 20 78 92 68 15
97 81 39 36 70 28 56
70 93 73 68 82 55 17
71 46 59 25 75 21 94
77 68 69 50 58 43 47
30 34 57 73 86 28 48
36 86 71 79 53 12 74
31 43 31 72 30 35 64
81 79 99 49 30 94 33
21 33 98 73 11 35 86
56 89 16 83 35 81 49
28 79 29 58 85 96 80
37 75 35 10 80 85 74
100 71 54 36 47 43 39
81 21 58 16 90 71 71
14 47 89 75 97 53 14
35 99 19 22 60 75 35
52 18 65 72 18 71 43
48 25 58 64 52 26 72
71 24 72 83 28 97 23
35 64 70 30 76 72 98
75 40 16 89 35 10 98
83 91 31 69 59 16 19
35 70 22 64 63 27 74
35 32 90 60 83 60 25
94 28 69 98 88 34 52
41 40 26 99 51 64 58
90 61 50 85 13 25 40
39 75 10 70 51 99 95
63 87 89 27 88 36 10
35 27 38 94 17 44 40
44 67 46 57 12 36 94
73 78 27 78 37 42 10
43 98 57 34 46 23 95
30 35 61 98 93 87 94
29 20 75 26 86 11 98
49 78 34 66 55 18 95
35 100 58 52 91 81 38
50 82 75 86 36 41 100
84 82 67 58 21 77 42
41 33 54 11 88 49 31
32 99 75 53 45 79 12
78 78 49 27 49 99 54
83 14 26 31 22 36 52
47 56 44 34 47 88 72
78 44 71 57 12 15 77
84 72 80 60 93 50 33
53 78 35 70 97 41 41
41 73 49 16 68 74 31
18 97 62 87 68 89 68
0.424219
0.469122
0.230659
0.493933
0.251682
0.159031
0.227835
0.158903
0.497161
0.268768
0.156203
0.142154
0.406063
0.249831
0.350419
0.385281
0.184039
0.435711
0.418302
0.156948
0.318382
0.311997
0.36032
0.168133
0.462636
0.308609
0.374339
0.356979
0.103002
0.108565
0.430978
0.368634
0.385826
0.43424
0.183921
0.236638
0.305156
0.152177
0.12249
0.377728
0.255943
0.197505
0.340755
0.168621
0.465496
0.197761
0.318805
0.320425
0.171636
0.297517
0.468438
0.37754
0.149967
0.283442
0.38094
0.408203
0.273683
0.206874
0.277536
0.366845
0.493119
0.174605
0.350205
0.233538
0.489825
0.360291
0.319708
0.312598
0.432157
0.146216
273 90
469 151
461 225
331 129
15 378
326 248
193 35
409 52
345 308
489 450
146 122
46 401
349 275
39 61
125 377
298 352
271 35
42 306
57 129
115 366
411 446
289 382
294 51
424 160
81 64
4 423
482 223
68 136
134 444
314 349
26 262
278 19
371 421
406 171
374 33
114 12
112 376
42 463
59 16
64 67
215 35
262 440
500 448
6 250
93 321
456 429
275 45
135 6
410 217
285 455
105 310
92 5
332 244
36 473
355 204
212 244
267 164
110 142
174 387
140 115
78 80
174 141
155 450
129 185
482 406
280 498
99 38
273 23
252 393
50 242
9602.5
2
