70
7
0 0 0 0 0 0 0
33 76 100 85 31 51 32
90 22 43 14 79 78 55
92 54 17 94 93 84 14
89 16 61 99 87 45 55
10 57 50 66 45 50 53
35 56 36 88 59 39 82
52 60 26 86 13 56 57
28 43 29 59 56 21 21
99 92 97 28 29 44 87
14 11 61 38 94 98 55
100 76 62 54 79 30 80
61 50 64 89 92 25 14
88 40 89 60 15 70 56
44 77 49 34 49 28 56
60 59 65 70 45 84 78
68 79 40 42 59 100 86
32 75 12 18 97 47 10
68 61 30 87 72 65 34
37 95 60 48 57 62 88
15 14 86 19 82 33 77
13 27 17 48 48 84 11
11 36 29 73 54 12 37
76 73 11 24 79 90 20
31 10 73 95 93 96 11
18 56 20 79 15 74 30
95 63 12 11 77 27 41
39 29 67 74 86 36 16
54 25 67 50 42 17 87
16 52 73 100 97 34 17
35 87 21 98 54 97 48
82 57 66 23 36 44 79
49 73 72 50 31 52 73
88 94 33 15 85 47 90
51 70 59 21 77 87 18
26 15 85 56 24 39 16
58 78 31 68 41 35 27
76 73 19 31 72 64 27
49 56 51 73 65 26 40
71 18 78 94 94 27 65
26 45 55 21 84 93 66
95 82 84 63 12 63 69
84 43 46 82 76 58 67
94 67 40 73 25 61 21
61 82 73 38 34 93 32
52 58 37 93 59 58 65
79 71 45 60 55 24 12
68 75 50 65 70 91 39
92 16 48 80 35 52 53
78 45 87 78 18 87 73
65 27 48 83 93 58 52
23 25 60 30 61 65 44
97 90 98 17 79 80 85
100 42 58 93 80 62 42
22 30 74 84 93 10 75
98 71 34 67 98 60 81
67 63 18 22 20 27 94
40 46 34 22 82 73 46
92 47 98 66 80 33 76
76 66 17 82 27 97 67
58 91 46 73 97 62 59
75 90 28 11 99 90 79
54 68 28 75 68 88 61
76 40 58 47 49 43 45
26 28 91 92 28 41 34
100 42 58 69 70 41 82
98 75 71 49 59 26 18
89 97 81 52 59 25 56
91 92 100 65 43 59 32
22 19 85 21 81 84 19
0.333503
0.591529
0.926895
0.66427
0.395243
0.279952
0.845823
0.241368
0.751584
0.760407
0.310382
0.29132
0.264351
0.716517
0.605767
0.781082
0.603394
0.573753
0.371138
0.33004
0.823273
0.270178
0.442422
0.473024
0.264503
0.288072
0.768645
0.817614
0.44143
0.274334
0.935961
0.827416
0.410477
0.263999
0.907447
0.649383
0.894338
0.498065
0.394204
0.72368
0.815006
0.681502
0.935116
0.805098
0.204215
0.871972
0.657042
0.867664
0.90991
0.419094
0.616013
0.750604
0.286923
0.820248
0.906715
0.360156
0.440041
0.389681
0.748757
0.272847
0.804617
0.747443
0.535433
0.72891
0.898696
0.206856
0.702247
0.815984
0.858654
0.859428
24 228
117 431
211 68
164 273
166 170
141 411
375 274
330 12
372 219
83 453
343 87
308 33
172 480
254 45
17 217
352 443
203 317
167 234
445 149
221 5
348 279
178 311
178 177
374 213
71 430
273 208
377 392
268 270
161 181
317 440
299 479
474 442
325 238
237 133
269 165
401 345
428 253
148 32
73 325
449 275
403 408
65 155
171 290
234 216
295 400
142 428
382 140
174 419
490 461
147 398
160 253
410 168
170 135
57 397
200 250
459 102
254 252
282 341
164 316
164 322
110 453
216 372
390 414
139 415
42 449
363 179
91 266
425 234
191 452
202 316
6513.33
3
