70
7
0 0 0 0 0 0 0
20 88 98 29 56 15 15
57 54 38 16 16 52 91
42 65 67 22 84 60 22
87 63 74 82 55 45 37
37 78 91 36 22 20 96
38 64 71 14 45 82 97
24 37 80 21 14 91 61
19 19 45 36 24 77 93
80 41 78 96 40 100 44
10 93 80 12 49 69 38
72 87 62 59 24 34 18
97 92 96 55 83 95 96
78 12 91 69 51 98 48
94 55 68 44 80 51 57
90 17 45 25 45 21 47
71 49 51 84 89 100 54
28 10 67 98 96 90 66
66 81 51 51 50 31 81
34 23 96 51 67 53 90
67 57 10 94 14 44 22
91 68 33 94 58 43 48
88 42 77 82 43 56 43
25 25 47 51 30 63 15
19 19 90 72 19 58 81
21 19 47 27 34 92 69
36 63 86 47 38 67 53
50 12 19 67 46 20 35
26 60 46 94 82 69 95
89 19 48 61 16 82 65
31 30 60 75 91 72 63
35 18 41 12 30 96 81
56 23 47 74 78 83 27
77 24 23 23 50 27 86
36 100 21 70 32 81 71
63 34 30 23 11 60 11
59 41 39 15 91 73 32
50 63 71 11 94 100 98
43 49 36 80 80 11 41
96 40 67 91 36 35 57
36 65 60 70 12 17 23
22 79 49 22 23 94 73
99 43 83 49 97 76 24
31 72 21 14 80 51 29
13 80 81 11 93 88 58
46 36 59 48 26 31 59
70 38 78 21 73 30 61
88 21 36 47 66 15 68
75 16 44 21 44 40 92
46 91 64 38 12 37 99
59 35 100 41 39 40 69
50 18 95 13 23 74 33
40 22 18 83 28 73 74
66 16 28 10 77 28 11
46 92 33 26 41 84 46
89 78 40 88 20 48 30
62 19 47 92 62 56 97
99 46 31 83 53 98 27
62 42 78 19 62 50 36
13 80 27 88 97 62 51
66 90 75 69 72 76 21
49 88 15 25 50 39 66
38 74 86 87 27 23 30
22 21 52 57 23 48 34
10 52 26 59 41 36 27
86 53 94 89 45 65 74
82 81 88 28 73 42 17
92 85 99 40 24 42 73
89 56 12 12 59 75 11
52 30 80 39 94 23 86
2.42314
1.79943
1.59352
2.16232
1.7694
1.53148
1.66526
0.59434
1.64652
1.76829
2.21003
0.961467
2.1083
2.00532
1.37406
0.806496
1.20386
1.83871
2.20074
1.90947
1.99748
1.47057
1.74009
2.09529
1.82562
1.31844
1.01755
1.49242
0.800366
2.38373
0.604334
1.90653
1.30688
1.89376
0.739266
1.60636
2.49304
1.5837
1.3869
2.25439
0.887858
1.12988
0.976255
0.868514
1.17558
1.23892
1.64305
1.69122
0.628318
1.84625
1.9981
2.35876
0.827906
1.69262
1.26719
1.03836
2.42378
1.71413
0.820637
1.03699
0.962604
2.1721
1.81739
1.01521
2.21227
1.47198
1.22832
2.13494
2.1273
0.552871
217 187
403 330
14 89
343 133
415 374
439 372
88 303
54 329
328 277
419 340
290 147
376 115
304 178
34 253
446 189
42 19
460 198
500 354
391 36
275 474
123 361
304 299
454 199
109 343
61 37
120 176
181 356
285 431
338 89
154 183
50 30
222 492
168 397
385 49
432 455
232 415
179 120
291 81
149 239
221 255
80 17
159 375
427 198
286 112
325 422
483 149
468 408
481 373
91 387
247 259
149 260
241 160
182 360
196 428
203 80
480 332
187 311
306 478
129 357
44 3
30 185
467 141
361 79
296 439
462 233
31 292
235 231
363 46
150 238
51 119
18505
1
