70
11
0 0 0 0 0 0 0 0 0 0 0
69 57 18 78 30 63 12 52 72 70 28
84 93 46 16 30 81 12 64 82 24 62
92 42 99 87 26 13 56 59 64 10 97
43 89 86 53 82 92 52 54 60 30 92
62 37 45 12 16 35 23 39 75 48 26
48 55 70 71 27 85 64 78 17 48 72
27 29 79 28 72 61 67 64 10 32 74
66 56 85 70 82 35 65 23 78 77 33
11 22 73 97 73 32 68 85 81 52 84
80 20 63 13 53 61 35 97 52 39 100
40 86 24 50 19 62 65 47 46 40 70
11 11 51 92 89 84 84 78 42 71 91
17 29 81 36 11 99 83 23 75 38 78
55 95 78 29 27 59 28 77 98 29 94
23 39 81 25 39 49 48 51 71 18 74
57 41 38 80 88 19 15 90 60 73 33
80 24 97 32 52 27 13 30 85 31 64
25 76 81 33 13 99 10 97 17 12 99
96 88 14 80 11 24 32 68 79 76 19
83 76 15 49 59 84 38 19 62 79 16
92 46 80 93 37 45 22 85 39 24 40
13 23 76 40 77 81 36 63 45 85 61
69 91 26 84 81 94 78 35 68 56 59
31 78 81 44 56 92 51 22 37 20 58
22 52 90 35 35 22 21 53 90 100 72
82 87 94 49 92 79 62 70 74 97 49
55 90 82 35 36 56 16 49 20 22 40
55 79 32 44 36 44 26 55 35 54 16
32 11 82 35 37 16 70 43 44 35 85
44 36 66 93 58 58 82 97 78 57 100
64 93 99 15 31 57 68 61 82 20 21
69 35 12 56 51 52 72 99 49 73 39
19 42 100 44 64 44 39 93 56 88 99
44 90 58 47 14 16 12 15 91 69 12
80 33 96 95 46 44 81 96 85 71 10
53 95 20 53 18 30 81 90 54 54 68
67 78 38 46 69 47 17 38 50 73 54
12 79 51 39 65 33 20 45 29 31 54
37 100 54 63 96 45 43 20 100 93 97
20 29 88 61 29 80 53 71 81 96 60
66 76 84 22 24 24 94 32 44 61 43
36 18 83 45 87 32 58 71 79 95 64
71 12 98 97 29 51 14 99 62 81 19
10 21 29 73 68 20 57 14 95 89 59
39 43 17 63 58 70 71 97 63 42 95
72 51 86 64 25 78 72 19 91 27 87
55 40 55 11 86 13 18 83 88 16 16
61 73 54 10 81 84 28 44 73 85 60
15 35 26 16 54 10 59 61 22 70 84
86 88 75 37 12 95 86 79 69 10 10
35 13 29 33 57 64 86 91 29 10 37
69 61 23 74 97 14 17 86 81 30 81
50 82 55 31 57 10 36 10 13 87 87
88 99 56 54 94 86 11 98 71 33 26
70 39 43 72 93 29 53 47 27 12 96
52 13 40 30 57 21 21 91 39 46 38
45 34 72 64 65 44 36 66 94 10 61
100 21 66 42 83 21 41 54 82 30 99
100 43 82 21 49 15 66 40 31 68 91
38 54 84 53 75 38 29 20 37 20 31
15 86 77 38 96 85 23 75 81 62 79
58 96 94 82 58 84 100 42 45 40 45
79 82 30 42 50 43 61 62 20 85 29
28 70 81 50 10 25 15 70 47 73 91
49 44 93 61 62 65 64 95 11 90 48
53 68 60 12 62 69 86 20 100 69 22
49 20 11 56 70 44 10 54 17 26 46
69 20 62 40 58 100 100 10 74 16 47
19 71 26 32 41 15 92 84 30 33 34
0.882976
0.536526
0.216085
0.61311
0.33119
0.213222
0.734283
0.242019
0.650699
0.526902
0.971387
0.727201
0.882558
0.767247
0.201703
0.463416
0.728833
0.27353
0.244276
0.593696
0.299767
0.807329
0.973635
0.627795
0.627599
0.891746
0.277821
0.376849
0.404136
0.913902
0.617408
0.341287
0.877843
0.787196
0.722172
0.204746
0.331122
0.457304
0.270856
0.872974
0.83138
0.744023
0.370482
0.343967
0.76267
0.42527
0.392832
0.266804
0.950554
0.67866
0.302901
0.377254
0.712274
0.267863
0.784886
0.371085
0.209733
0.571739
0.48289
0.709762
0.758715
0.411947
0.733099
0.338924
0.671189
0.99138
0.684555
0.875765
0.619357
0.829033
495 287
359 372
98 89
416 439
148 280
242 64
278 370
3 432
396 218
422 290
335 59
249 136
45 356
142 96
456 411
260 12
157 376
171 474
400 143
118 315
122 398
178 459
453 195
408 81
370 17
145 48
213 210
269 229
17 151
487 345
231 305
63 113
473 254
156 76
338 106
80 229
387 57
98 343
171 336
359 59
324 18
245 179
452 308
156 459
52 294
200 395
189 469
285 96
238 337
8 180
467 212
39 235
32 307
480 448
188 18
407 378
267 129
225 216
49 70
492 410
165 53
451 65
196 217
440 166
187 465
142 311
232 382
283 411
24 259
361 67
6263.33
3
