70
7
0 0 0 0 0 0 0
42 56 32 14 50 46 52
61 31 87 83 33 57 69
60 53 45 87 55 33 21
44 61 61 97 30 44 45
41 92 36 60 73 98 95
12 42 40 100 46 98 96
78 67 56 29 64 20 51
78 53 28 45 76 96 23
32 43 38 30 68 97 13
64 51 89 28 62 20 62
88 63 70 94 62 55 97
93 22 37 57 49 76 29
48 11 61 17 60 39 91
65 33 47 43 28 47 99
91 68 20 79 48 21 89
38 33 62 37 85 16 73
87 39 41 33 32 96 21
94 85 89 76 30 42 75
16 15 55 19 32 48 20
94 68 62 72 41 63 23
35 95 100 83 24 100 82
28 15 99 71 58 71 86
40 54 74 86 77 46 100
84 21 87 32 20 14 84
17 32 50 46 11 76 47
74 55 83 90 39 63 65
14 80 89 10 50 66 42
33 50 40 64 60 24 38
69 90 51 19 44 38 23
98 89 34 36 86 42 58
81 14 15 25 63 11 17
72 94 27 23 70 16 55
71 94 38 46 51 39 87
19 31 18 100 91 76 53
88 22 70 29 20 59 47
24 87 36 66 52 31 95
74 20 11 53 53 29 78
33 92 54 53 87 66 54
79 51 80 18 61 22 72
23 28 29 26 81 17 64
56 98 18 63 69 80 24
48 11 99 34 85 70 50
34 43 82 38 18 58 87
42 86 96 45 21 22 33
67 64 42 90 62 85 51
89 55 22 86 84 84 43
59 20 36 15 24 63 36
19 78 58 60 82 33 22
12 38 69 59 49 65 10
12 38 76 75 28 41 82
65 16 45 66 76 76 30
84 88 48 68 78 48 99
96 20 54 18 82 18 56
93 94 88 59 73 12 61
88 27 78 59 95 10 46
18 42 85 100 14 41 94
64 57 46 43 73 35 68
96 53 11 67 98 47 98
20 54 56 36 58 95 74
18 29 65 35 34 85 94
93 61 54 98 63 31 19
40 67 42 76 21 81 50
79 87 93 28 73 51 82
99 33 73 95 91 95 63
60 95 54 30 42 99 94
81 89 76 48 14 92 46
26 96 33 19 16 48 25
50 42 91 34 90 67 51
65 59 98 54 63 84 27
0.219822
0.405335
0.486686
0.287311
0.432348
0.30787
0.109413
0.282154
0.191719
0.26635
0.185561
0.491735
0.20392
0.240986
0.47356
0.105289
0.199986
0.331507
0.138525
0.382736
0.478571
0.470954
0.436241
0.35594
0.313613
0.154099
0.254613
0.445885
0.377033
0.158522
0.181371
0.413923
0.126283
0.139715
0.320074
0.420522
0.418351
0.463612
0.325379
0.411611
0.417111
0.115927
0.23884
0.146366
0.145429
0.395789
0.326231
0.231642
0.224166
0.227678
0.124486
0.37496
0.437224
0.431064
0.153581
0.277078
0.237808
0.162498
0.188431
0.306272
0.188575
0.161268
0.148783
0.468524
0.403842
0.353071
0.458096
0.472817
0.21356
0.469987
83 323
312 430
212 327
453 173
386 25
334 93
180 303
124 257
280 231
246 229
345 148
116 37
468 192
171 411
368 374
429 207
222 12
274 277
291 438
326 186
219 176
169 472
264 344
79 383
198 131
209 468
479 396
213 6
183 288
146 56
41 118
376 348
496 344
268 62
327 23
390 350
64 277
461 42
245 427
26 36
439 223
204 228
242 162
112 194
236 45
331 444
195 13
393 332
306 369
309 309
254 177
243 351
284 418
346 81
308 187
329 281
131 21
33 349
477 474
422 98
421 250
426 441
78 94
237 447
233 372
323 35
458 425
241 17
67 483
70 395
6388.33
3
