70
9
0 0 0 0 0 0 0 0 0
62 33 15 76 58 63 61 68 37
99 17 15 80 95 26 62 79 84
32 74 70 44 30 29 81 60 83
54 88 60 48 83 94 72 100 26
47 60 47 41 11 44 46 91 27
86 13 93 86 87 52 46 43 74
16 39 72 71 34 16 75 23 52
28 53 75 77 16 16 33 87 68
98 81 45 78 26 61 80 60 47
42 36 78 73 60 25 88 54 29
29 40 78 11 76 99 56 73 63
46 44 14 97 66 98 39 57 49
96 14 81 21 94 15 52 59 23
30 42 83 64 60 91 43 92 30
37 99 31 65 56 77 46 88 72
28 51 56 99 31 71 63 43 62
87 83 55 81 81 26 81 52 77
47 12 30 18 99 46 78 64 61
18 43 42 54 54 63 66 51 24
80 71 98 74 66 82 47 65 99
10 41 62 15 97 79 44 18 30
22 59 75 72 10 32 74 86 99
26 43 10 57 12 32 86 70 11
47 22 98 37 62 70 84 83 31
95 21 37 21 39 13 100 81 96
11 52 35 42 37 54 48 80 13
27 68 23 86 10 52 87 97 46
84 51 87 96 36 35 67 80 45
98 93 62 20 37 98 96 42 81
95 32 61 47 34 12 96 75 39
56 29 44 62 44 62 45 78 82
71 58 54 30 63 25 96 90 16
24 57 16 41 47 71 76 58 98
56 68 40 56 89 75 66 15 48
96 45 61 70 63 81 42 36 94
36 57 78 35 57 73 85 44 84
62 54 11 23 47 86 95 93 79
52 47 43 76 99 21 28 25 11
18 51 13 32 69 85 34 11 77
28 55 94 80 39 66 67 42 13
68 53 25 77 26 77 19 71 24
15 23 86 66 65 44 14 79 36
30 30 48 87 21 36 53 45 89
19 41 65 31 100 72 98 89 92
95 100 45 65 70 29 69 10 80
96 70 31 58 37 93 87 26 37
59 77 91 68 54 21 79 35 40
69 49 49 10 84 89 97 34 81
10 89 80 96 66 71 22 35 54
24 100 85 87 86 100 10 22 83
80 14 11 81 71 70 58 11 38
87 12 37 42 18 84 69 24 65
45 54 36 93 62 89 49 95 97
82 72 16 57 92 76 46 54 35
58 59 53 55 65 12 73 56 93
42 62 94 29 61 82 86 47 67
20 67 57 65 47 93 48 78 25
50 19 73 15 55 73 22 59 40
80 74 97 34 60 35 61 48 65
82 52 32 82 13 33 30 29 85
79 22 44 24 70 83 87 12 81
41 35 64 83 61 40 84 54 77
20 21 66 47 43 43 73 50 59
100 37 45 64 72 100 65 85 66
54 52 76 31 41 37 76 57 87
97 46 99 92 97 60 17 49 19
29 41 59 87 10 40 69 96 91
56 47 77 38 49 68 35 84 66
51 71 76 40 93 43 60 98 14
2.15929
2.31745
0.953474
1.66837
1.79808
1.79974
0.572912
0.777439
1.82486
2.39969
1.7763
1.08088
1.31598
2.20952
0.733121
0.816144
2.40473
1.98826
1.56015
1.73862
0.636351
0.730271
2.2995
0.940841
1.1157
1.85463
0.647674
0.733599
1.63489
1.48197
2.07132
0.932534
0.939018
1.09791
0.897762
1.08262
1.23407
1.04383
1.39934
1.33916
2.18919
1.48709
2.29902
1.02112
2.1289
1.06346
2.02231
2.12192
1.68127
0.93258
2.14567
1.85211
1.33569
1.79521
0.847618
1.00597
2.11295
2.20326
1.49678
1.47713
2.05262
0.916898
2.08609
2.10625
1.38195
1.28196
2.21423
1.68389
0.978957
1.93929
268 468
386 415
307 340
75 195
429 159
188 309
224 143
161 379
196 119
480 344
180 6
294 28
241 92
426 347
293 100
479 424
118 388
161 50
350 463
117 366
158 200
283 224
76 389
418 390
471 146
335 194
91 467
228 102
193 468
376 241
437 353
147 75
172 124
36 175
370 115
346 36
236 40
227 111
125 130
87 299
281 491
254 231
201 171
281 412
207 201
468 90
167 352
144 451
142 329
396 259
137 339
128 130
291 51
145 426
261 336
145 166
322 330
68 451
458 442
164 31
427 353
59 313
16 244
146 196
334 36
479 268
2 346
332 10
93 78
455 119
19545
1
