70
5
0 0 0 0 0
74 57 61 72 33
19 61 45 63 66
73 86 36 69 89
44 30 76 72 31
70 46 17 32 67
60 50 56 16 53
58 53 45 72 52
10 99 52 42 40
38 55 99 21 65
89 71 48 32 66
70 63 25 66 10
73 97 24 30 96
85 24 75 64 77
77 23 24 62 34
69 63 38 100 88
10 38 15 22 82
61 67 77 12 63
35 47 26 55 61
77 65 75 92 67
16 38 24 11 87
93 14 86 52 41
33 71 92 58 33
43 99 77 27 60
35 12 84 99 38
52 58 29 18 18
83 74 99 21 10
67 27 43 29 85
21 72 70 49 50
89 11 39 30 79
14 18 59 73 40
77 82 59 33 18
30 75 66 27 23
70 81 79 96 38
12 83 90 18 61
45 100 70 43 31
35 67 85 53 26
23 99 47 68 92
18 63 32 83 63
72 57 29 65 12
19 80 33 20 83
57 97 69 91 22
71 53 60 52 68
99 80 51 75 52
64 73 88 43 29
18 82 95 41 18
83 46 85 29 62
89 90 72 23 81
99 76 88 30 69
73 39 94 16 90
98 91 28 100 89
27 37 25 97 80
99 31 64 98 45
47 39 50 22 23
73 94 29 11 58
82 68 62 35 10
43 15 25 10 70
21 95 45 100 31
34 28 68 47 24
29 11 39 71 56
74 10 91 77 85
52 56 35 33 71
70 47 27 55 100
38 66 97 68 49
12 44 36 17 50
88 42 66 10 69
69 32 89 78 47
96 91 28 62 87
14 53 36 98 81
89 75 30 17 47
0.364191
1.35909
0.984481
0.634702
1.20689
0.390495
0.701658
1.18107
0.6072
1.36884
1.05562
1.23425
0.552202
1.30055
0.806998
0.799671
0.973447
0.50348
1.34614
1.06786
0.366397
0.930324
1.35326
0.711256
1.3059
0.810495
0.526538
1.14049
0.96397
0.586887
0.679605
0.616178
0.924648
1.0082
1.16372
1.12346
1.05632
1.40652
1.2238
1.07107
1.28205
0.936476
0.551773
0.520441
1.12024
1.00577
1.31912
0.774386
0.8693
0.371633
0.514237
1.16761
0.724211
1.33601
1.06817
0.408222
0.594976
0.660322
0.722893
0.371194
1.22114
0.314539
0.585497
1.09816
0.539344
1.08372
1.39412
1.38787
0.518166
0.870701
490 345
393 22
285 190
43 210
287 262
114 279
436 147
422 319
123 439
166 243
136 368
184 87
157 486
274 236
92 414
421 430
93 232
479 135
426 62
141 400
273 19
69 252
350 60
288 418
357 379
39 324
41 202
441 78
381 310
469 141
59 343
342 452
127 473
138 165
25 186
410 111
5 417
228 271
432 392
32 111
39 236
368 18
260 457
280 178
201 402
434 222
413 278
363 476
411 469
229 73
129 119
33 226
205 120
42 6
156 408
332 333
101 435
109 344
38 119
326 109
75 241
237 249
257 4
457 436
147 181
82 381
145 433
94 335
171 149
397 214
4756.25
4
