70
11
0 0 0 0 0 0 0 0 0 0 0
37 63 39 61 78 99 78 17 34 52 34
61 81 98 60 16 38 32 99 68 41 51
63 80 81 47 91 21 64 36 28 63 20
46 85 91 33 45 84 28 17 43 22 25
84 71 31 51 52 61 96 20 99 55 14
79 33 60 71 43 80 73 35 28 41 75
81 71 83 28 74 64 14 57 66 56 29
64 24 50 11 87 28 25 100 91 12 53
35 41 18 58 61 55 95 58 64 72 50
37 92 19 23 30 43 81 87 30 18 77
12 85 63 18 81 53 42 63 23 34 14
80 79 42 99 65 72 90 25 19 11 55
85 29 17 63 49 26 99 57 84 85 41
27 63 17 96 17 65 55 36 68 55 56
77 20 36 57 59 29 43 28 51 17 54
23 41 37 65 70 14 95 94 22 95 31
16 72 79 60 17 87 74 24 66 75 65
56 98 45 38 80 49 23 87 25 49 65
19 88 30 24 35 25 39 97 93 70 24
20 56 63 58 67 40 30 64 80 99 42
48 94 86 16 70 66 84 92 11 60 81
64 37 73 96 39 94 66 56 90 85 68
55 22 67 58 23 80 92 58 90 42 18
21 28 50 62 18 42 62 82 57 37 62
10 87 99 51 34 57 97 84 32 86 91
58 30 37 59 97 56 88 59 10 81 80
60 20 36 90 36 64 85 67 77 99 45
65 66 45 84 50 62 78 84 42 100 45
75 46 57 16 49 100 48 90 51 31 68
25 81 13 20 45 88 69 17 43 11 74
77 12 21 37 78 16 87 63 49 32 53
69 15 82 23 92 77 77 78 30 43 66
44 90 54 88 95 31 65 21 62 96 51
71 29 17 25 54 14 58 50 30 37 54
98 19 96 23 53 93 80 88 92 45 26
37 55 35 93 99 88 49 98 37 27 18
81 84 87 63 94 80 61 29 49 88 20
16 28 85 47 78 71 76 92 13 80 91
56 86 22 22 49 11 11 59 73 67 55
19 31 93 26 88 33 47 83 84 32 40
72 99 58 17 60 83 40 74 42 51 92
36 74 71 91 18 42 85 88 33 91 63
16 42 62 23 14 37 83 90 76 93 71
50 64 59 57 69 49 94 84 23 58 62
24 68 25 41 93 49 68 16 62 33 29
27 44 27 96 94 82 15 82 65 85 64
19 10 43 17 31 74 23 100 71 96 96
37 49 18 46 57 26 19 69 72 73 65
52 51 61 53 37 94 60 74 47 58 77
29 44 49 50 70 77 48 84 60 52 78
100 23 21 29 40 95 16 95 11 59 98
47 66 52 37 85 67 57 68 59 90 14
70 18 91 24 12 16 43 66 11 87 56
95 12 24 56 61 47 13 35 13 27 60
93 26 76 94 47 95 27 26 57 11 27
77 45 22 20 57 79 90 78 52 77 47
89 80 32 45 18 24 25 48 52 63 32
63 44 15 74 100 100 67 86 26 87 98
43 60 77 77 15 52 50 73 91 66 46
26 75 36 52 100 27 52 56 84 45 78
29 82 76 10 76 88 18 13 20 10 51
48 30 82 75 30 11 37 30 75 20 42
30 14 44 58 35 49 58 43 66 55 36
91 89 29 92 17 58 43 70 90 22 71
96 43 11 52 63 68 72 41 40 99 88
37 24 40 18 61 11 92 51 36 64 96
42 30 99 14 78 44 54 37 61 41 12
59 74 41 11 15 99 38 35 62 86 65
12 24 85 78 94 74 47 64 52 67 20
0.462055
0.522743
0.714861
0.8719
0.692345
0.766414
0.64137
0.458004
0.523579
0.384183
0.837359
0.547027
0.446008
0.602745
0.44816
0.578859
0.473886
0.580061
0.824171
0.617353
0.365964
0.948793
0.85913
0.636888
0.975844
0.972437
0.678149
0.250316
0.366823
0.276617
0.81451
0.309129
0.806778
0.77544
0.200608
0.934049
0.347772
0.993121
0.754037
0.307222
0.22957
0.476054
0.280256
0.724962
0.458889
0.601819
0.705256
0.417949
0.254647
0.307674
0.728773
0.893996
0.507844
0.204094
0.713242
0.50243
0.524321
0.794181
0.462341
0.23047
0.328391
0.456049
0.494712
0.761009
0.746678
0.216392
0.525576
0.906738
0.433253
0.529014
253 400
180 383
189 49
70 188
279 170
439 395
56 218
437 155
55 37
496 85
83 319
450 164
149 425
135 242
94 15
238 85
63 456
108 70
371 374
125 164
368 104
60 317
51 460
160 61
3 477
331 447
203 492
365 364
133 393
454 291
170 111
467 343
478 53
436 426
383 420
140 76
402 135
478 96
272 45
254 74
384 290
347 450
341 10
481 239
161 45
108 337
242 179
292 384
327 198
232 334
394 470
335 48
252 347
1 223
442 30
81 75
297 258
180 88
464 350
90 350
162 415
84 407
126 87
163 385
395 33
180 494
370 290
232 242
453 229
49 177
3781
5
