70
5
0 0 0 0 0
44 51 42 53 99
33 36 43 36 24
40 63 36 53 45
97 89 41 38 28
18 75 44 36 93
31 61 61 21 72
37 30 80 27 53
60 17 15 18 87
37 88 88 16 28
61 55 88 22 30
86 42 12 91 56
41 21 49 90 62
31 81 44 24 47
79 77 22 87 83
64 36 24 35 62
58 20 52 25 47
28 22 40 83 79
19 56 39 85 85
19 43 80 53 94
68 96 70 50 13
97 74 20 20 45
45 87 47 87 35
73 27 94 25 30
85 77 39 61 83
23 16 37 92 59
91 57 45 99 41
61 27 84 91 78
17 21 40 30 12
60 65 52 18 28
48 68 54 25 95
70 21 17 25 41
16 39 44 71 90
15 76 97 75 71
90 24 70 78 66
55 15 60 100 35
56 94 23 83 85
73 98 37 14 69
90 51 56 38 82
80 93 85 23 72
20 96 25 43 61
68 72 25 73 15
72 64 85 45 30
96 39 98 95 47
27 87 18 38 11
28 33 37 29 88
56 91 40 96 25
75 77 10 62 87
77 93 93 53 75
36 93 15 14 24
64 24 67 93 61
46 50 53 66 59
65 74 74 16 67
37 94 36 51 75
69 34 97 45 39
65 11 51 92 44
74 81 81 60 62
75 95 60 29 97
45 78 55 60 17
40 70 23 23 19
99 17 49 53 72
53 10 26 12 27
96 46 51 30 42
62 49 73 19 82
34 25 83 83 73
20 72 73 21 93
33 79 54 42 73
48 59 48 41 27
47 55 37 43 84
18 99 47 91 27
1.03675
1.61609
2.31172
0.982018
1.22343
0.817155
1.36705
2.33714
1.72604
2.17158
1.82137
1.3423
0.577005
1.14072
2.20408
2.43111
1.03271
1.60071
0.890866
0.622631
1.61644
0.711449
2.00582
0.753753
2.49822
1.69176
0.619748
1.90434
1.56669
1.36149
1.11178
1.74768
1.2926
1.7277
1.9252
1.01032
1.09782
1.9601
1.81204
1.29195
1.649
0.530687
2.32534
2.23967
1.15947
0.9268
0.608042
0.95061
0.652431
1.4448
2.16696
1.81018
1.59757
1.92639
0.913752
1.13276
1.76333
1.4504
2.19403
1.54902
0.72135
0.999952
0.550361
1.16984
0.91273
2.16278
0.665807
1.37718
1.47014
0.732078
422 118
69 46
170 119
428 358
238 391
122 124
110 239
221 339
168 118
28 228
64 392
477 467
121 441
500 199
259 8
252 257
139 490
189 474
113 152
457 447
397 74
85 483
426 425
291 418
168 45
387 100
215 214
44 154
134 63
382 112
444 481
396 174
476 270
16 485
255 101
487 37
209 288
203 372
165 53
154 184
482 37
84 297
284 380
144 494
412 356
270 316
392 283
430 30
374 65
255 345
21 63
97 337
117 445
132 408
444 296
137 115
141 52
465 240
38 356
320 399
137 301
199 259
65 446
412 174
450 49
291 301
366 401
200 483
355 264
282 475
4668.75
4
