70
9
0 0 0 0 0 0 0 0 0
96 58 10 13 60 75 85 60 33
18 30 70 46 32 51 93 99 82
78 59 77 25 10 14 13 10 59
21 92 39 24 59 89 62 38 55
84 80 42 83 24 72 24 15 24
38 54 77 89 32 37 78 49 47
38 14 97 76 89 81 37 51 74
18 12 40 98 68 10 30 43 61
17 27 37 71 12 30 92 35 28
32 15 67 61 50 12 25 36 63
95 88 54 51 93 79 14 68 70
71 11 48 87 75 31 79 90 48
78 44 56 99 73 54 23 95 88
91 63 42 33 21 29 91 14 52
83 15 14 84 50 31 21 42 75
52 21 10 81 93 72 48 74 95
43 20 82 55 55 79 13 27 22
40 88 34 71 83 34 33 38 87
87 80 77 75 23 89 44 84 16
81 86 13 36 51 82 49 35 83
46 96 15 80 23 82 61 42 62
40 25 59 18 36 93 94 97 71
67 66 78 91 17 61 49 22 49
31 97 66 86 58 26 73 78 91
46 89 68 30 29 13 31 36 74
38 33 16 36 57 51 12 53 56
52 82 12 36 69 73 34 87 41
93 100 16 10 57 95 27 34 92
26 73 17 36 91 22 54 93 40
76 40 62 11 94 29 58 97 21
35 51 61 52 34 19 23 72 48
85 29 89 52 21 92 61 92 59
18 61 80 79 72 68 42 97 56
99 23 60 52 23 40 13 46 24
52 22 52 28 98 80 38 95 27
10 33 19 86 65 96 10 45 56
18 95 10 96 61 56 39 47 98
30 62 64 87 23 42 56 52 69
80 20 21 100 51 41 31 82 53
18 28 21 71 82 78 34 75 40
63 87 88 85 56 98 81 93 56
35 36 39 29 51 55 13 70 72
60 63 92 58 15 87 83 95 83
68 21 100 99 26 34 58 85 22
65 22 16 99 23 34 34 53 39
94 54 56 51 28 91 86 79 32
37 91 57 85 38 90 10 69 21
24 74 67 92 99 72 62 46 74
88 75 25 86 27 38 61 22 17
56 73 77 97 24 54 25 38 58
67 88 22 66 16 58 90 100 41
23 66 71 29 59 26 23 64 27
15 90 98 40 50 41 28 49 21
24 96 92 96 67 67 37 66 74
96 89 16 53 93 26 13 45 18
46 98 66 95 14 48 91 28 84
95 58 65 32 70 57 34 92 87
56 60 75 97 31 37 43 17 80
52 69 62 33 93 35 65 29 50
91 20 73 31 61 56 19 26 66
67 63 58 56 98 100 100 69 74
45 36 27 67 72 99 37 79 40
16 14 95 17 57 42 16 10 79
22 62 83 81 42 70 30 36 93
37 56 80 71 95 21 31 37 41
16 29 43 100 23 54 74 29 65
96 78 59 14 59 73 10 96 11
24 51 88 84 88 97 19 99 38
24 48 20 72 39 53 28 51 26
1.42529
0.55608
0.897525
0.749616
0.658041
1.09048
0.665325
0.667186
0.781836
0.873469
1.35794
0.343958
0.410464
1.19912
0.443771
0.754169
1.31127
0.940096
0.919852
1.01951
1.3875
1.06758
1.41495
0.629466
0.592695
0.819136
1.1279
1.02091
0.534606
1.49437
1.42442
1.4017
0.416
0.981978
1.25735
0.969069
1.14086
0.531695
0.821032
1.22652
0.771022
0.363895
0.605463
0.495461
1.09232
0.528126
0.571337
1.19403
0.491704
1.30754
0.842563
1.0992
0.503096
1.14133
1.31692
0.492046
1.38277
0.365912
0.946715
0.457718
1.46829
1.16678
0.999715
1.19139
0.549003
0.980927
0.535654
1.11137
0.634391
1.15649
254 362
449 172
51 193
282 13
352 50
295 444
264 285
256 424
13 85
379 364
365 240
160 420
112 15
155 65
396 28
237 200
272 464
204 220
426 414
141 476
291 379
146 423
283 207
333 500
66 82
176 291
431 254
490 200
391 19
143 8
338 470
143 98
330 155
461 61
64 132
453 279
29 59
67 211
297 429
494 137
11 199
453 474
363 209
365 88
96 296
144 321
394 51
34 112
2 7
470 58
128 251
284 92
155 33
358 323
108 492
90 274
437 466
212 319
127 158
120 31
484 252
150 428
350 388
500 231
436 341
411 498
296 441
423 144
181 213
257 401
6278.33
3
