70
9
0 0 0 0 0 0 0 0 0
33 59 11 64 46 97 45 48 12
51 89 48 98 11 38 44 99 80
36 98 95 15 96 79 73 22 86
31 13 46 36 75 88 87 26 54
28 32 25 34 47 29 96 36 67
75 93 45 22 11 79 28 99 21
21 40 69 13 34 23 70 50 62
74 29 46 15 45 14 68 62 11
62 63 41 58 25 61 37 40 73
31 43 12 49 61 94 56 19 62
75 16 36 36 34 86 65 58 34
36 77 55 56 85 14 28 67 11
100 92 86 20 99 62 44 85 49
44 57 17 63 50 69 50 35 39
84 33 78 35 52 12 67 53 43
25 56 19 53 48 89 25 16 27
72 39 68 19 43 25 98 17 75
82 43 38 43 90 15 66 87 21
51 30 63 85 79 29 94 87 67
75 71 26 18 71 35 39 72 52
17 60 78 56 77 68 76 14 27
76 64 21 56 54 87 53 18 47
47 81 88 16 88 40 84 50 52
47 50 36 82 88 47 23 91 24
52 46 36 87 22 89 71 63 80
52 60 56 70 17 13 37 72 74
78 40 39 65 87 94 26 80 72
89 18 69 62 63 36 77 26 26
54 13 24 25 81 84 71 39 76
77 73 43 35 16 98 89 24 69
32 91 96 70 52 79 97 39 71
32 73 40 87 38 33 58 95 76
16 68 78 81 49 75 100 44 68
39 85 64 38 97 36 92 17 30
30 20 24 57 97 71 33 45 97
74 77 49 56 84 93 35 70 27
65 85 70 77 98 74 46 87 38
24 64 92 29 50 15 93 66 31
79 34 56 66 68 55 88 22 81
13 69 98 37 36 13 38 55 29
75 90 74 41 90 24 46 32 20
48 45 97 11 61 53 41 74 68
78 88 54 26 82 22 93 23 56
16 95 68 95 41 18 73 32 76
31 96 25 43 11 37 27 81 82
37 48 56 75 71 41 48 59 28
45 18 19 33 15 84 90 43 93
52 49 33 11 95 41 41 99 58
52 81 32 15 74 13 78 81 43
50 13 63 68 41 47 17 33 79
27 94 55 51 37 24 100 89 60
14 72 63 51 57 82 11 51 93
42 34 22 18 51 54 96 50 98
36 61 48 68 94 59 28 46 72
94 49 44 38 86 52 84 25 65
73 68 96 51 30 91 23 91 32
52 25 15 38 27 46 23 55 80
99 19 15 36 39 91 46 75 91
15 35 39 71 72 50 61 98 94
57 85 66 10 88 39 33 56 97
34 47 49 48 31 56 82 63 39
10 64 52 41 48 38 41 18 54
69 98 39 73 14 49 91 42 30
50 27 20 79 38 30 90 32 62
40 29 44 45 21 83 98 16 89
10 96 51 50 38 69 36 48 41
54 70 98 47 41 73 72 46 28
81 63 91 13 64 68 83 43 35
31 59 51 68 37 21 65 76 47
1.03347
2.39915
1.37666
1.62377
1.97109
0.637018
0.732743
0.905717
1.88062
2.33118
1.88119
0.615544
0.845525
0.800679
2.25953
1.80911
0.753166
1.12379
0.752242
1.11757
1.61311
2.05571
1.07332
2.28024
2.29575
1.43665
1.41607
1.71756
0.958843
1.17393
1.23308
1.8292
1.08553
2.42706
2.46398
1.93455
1.95974
2.05569
1.28171
1.68372
1.545
2.0451
0.784512
1.09696
2.02116
0.864133
0.860709
0.942671
1.95573
1.68245
1.11271
2.30898
1.15913
1.07312
1.33101
1.823
2.1489
1.87644
2.17141
1.87552
0.645389
2.20226
1.60052
1.02635
0.595937
2.19279
1.42697
2.01278
1.8209
2.02039
238 488
196 435
35 96
206 155
107 123
150 132
185 79
415 308
416 87
357 225
381 350
24 90
102 136
23 177
346 377
144 358
182 109
487 357
119 292
360 171
204 435
455 240
442 160
53 469
500 34
445 18
213 462
453 257
415 165
130 447
91 208
189 45
357 222
230 163
70 488
166 453
375 218
136 301
464 163
484 248
0 344
76 465
357 225
185 14
254 145
148 431
434 418
97 452
116 215
50 385
107 491
443 340
51 446
318 75
6 272
59 344
337 467
471 470
178 143
196 342
49 386
364 250
435 128
134 289
245 101
426 383
381 330
298 207
141 143
315 254
18625
1
