70
3
0 0 0
92 48 35
81 65 73
99 59 89
76 50 56
57 96 86
23 90 20
20 34 21
39 22 72
39 80 14
92 65 89
15 76 75
96 94 47
56 78 41
43 90 46
15 17 95
45 55 72
72 18 27
53 16 90
24 10 66
21 28 67
29 74 77
63 90 51
38 15 57
60 27 93
22 21 33
12 95 97
50 97 71
61 34 17
46 73 100
87 21 20
36 91 23
52 26 62
81 59 93
61 93 19
87 25 69
17 62 22
80 65 98
34 77 68
94 12 23
49 64 22
50 37 33
53 63 18
96 12 46
61 23 54
43 33 82
24 74 27
29 82 93
98 42 81
25 100 16
23 16 93
60 16 10
10 81 32
69 94 45
61 58 22
53 14 99
76 96 98
92 70 15
43 71 61
64 69 88
67 56 78
24 45 45
63 20 20
34 52 68
32 85 18
65 33 18
61 24 87
95 35 11
28 80 82
52 94 50
1.11953
1.17898
0.750288
1.2582
0.30124
0.937732
0.697099
0.75655
1.1516
0.590541
1.41806
0.901386
0.353559
0.890109
0.602054
1.04753
0.913013
1.30416
0.554266
1.14983
0.655733
0.502463
0.872233
1.41733
1.34716
0.98725
1.46398
1.03269
0.954067
0.68352
1.02798
1.25769
0.919675
1.44075
0.957105
1.36934
1.27168
0.647405
1.42599
0.567046
1.25977
0.388722
1.0695
1.36932
1.23067
1.00062
0.891496
1.01692
0.809106
0.706626
0.459437
1.05895
0.643555
0.711583
0.791692
0.377542
1.38621
1.288
0.42871
1.04747
0.451783
0.989101
0.60711
0.390301
1.16159
0.716489
0.326025
1.37611
1.23125
1.46988
210 429
15 386
342 443
399 80
267 255
254 154
454 490
283 279
321 24
191 412
423 164
354 228
165 173
463 94
373 345
279 202
286 111
173 321
247 467
194 470
414 210
101 101
299 157
412 132
340 350
295 325
9 292
203 229
448 244
480 440
306 394
196 402
162 475
89 214
166 320
30 439
242 452
65 62
150 293
245 248
124 411
206 363
328 278
254 145
357 119
182 34
205 298
453 423
319 15
444 88
499 66
27 427
276 409
476 146
454 484
283 338
143 139
499 22
384 469
250 494
142 206
422 81
427 93
402 383
0 322
179 363
12 363
180 456
75 427
53 28
6245
3
