70
5
0 0 0 0 0
37 31 79 26 62
39 35 55 32 91
40 68 86 91 73
62 70 95 60 45
11 22 83 19 36
82 22 68 45 20
71 15 52 11 36
74 39 20 51 23
49 84 100 13 70
97 93 70 42 38
100 10 12 97 26
16 10 42 56 41
33 53 49 94 92
83 67 35 46 94
66 88 69 52 35
18 35 58 62 41
87 60 30 43 35
41 48 12 65 84
98 16 98 59 20
58 36 27 35 77
42 63 53 41 21
14 40 40 86 41
94 87 33 90 24
71 99 97 36 12
100 54 86 63 21
94 71 45 94 30
72 76 63 56 60
27 15 78 75 97
74 47 31 27 58
36 75 96 64 80
23 75 87 95 90
21 32 34 18 76
66 78 49 99 61
89 97 16 82 55
46 35 86 69 81
88 15 84 76 61
49 63 94 28 87
11 34 74 24 27
13 88 39 37 20
20 20 38 79 38
80 97 22 30 87
94 94 38 30 46
65 81 53 23 65
50 19 66 13 88
86 15 91 11 35
17 67 80 79 52
70 33 35 35 60
46 46 95 68 44
57 30 84 86 67
20 88 45 81 32
35 61 71 82 42
82 18 21 59 20
13 11 71 15 18
74 49 10 27 100
21 14 11 32 29
81 79 10 96 60
54 76 81 25 32
10 51 27 14 14
43 79 62 98 53
41 39 34 20 78
56 53 37 10 18
14 78 49 73 73
73 60 49 56 76
76 71 94 16 13
66 27 91 67 44
100 10 85 97 82
82 78 47 96 30
88 50 51 34 22
20 36 87 61 78
0.945236
0.993293
0.993819
1.73832
1.51774
1.57448
0.915098
1.02457
1.64972
1.42791
0.53987
0.892378
1.0641
0.641503
1.18121
0.962936
0.892416
1.50274
0.858601
1.45278
0.835745
1.95313
1.95087
0.630952
1.72992
1.90348
1.71813
1.18346
0.870727
0.967089
0.94479
1.54098
1.17526
1.74529
1.04259
0.44906
0.634632
1.366
1.1449
1.24212
1.53344
1.93432
1.3415
0.589321
0.864927
1.42281
1.6684
1.6053
0.490936
1.5729
1.13676
1.16467
1.76728
1.49546
1.60484
1.88465
1.33653
1.28364
0.989756
1.32932
1.75207
1.78922
1.0825
1.4796
1.49991
1.22074
1.91941
0.558079
0.652641
1.81773
73 228
488 253
432 372
342 329
411 204
201 78
194 219
163 219
444 476
42 459
191 72
11 256
494 338
264 498
182 118
446 331
390 393
52 150
88 35
449 360
339 80
379 148
352 280
490 318
95 495
166 187
321 14
380 30
97 130
151 163
96 296
3 395
141 332
459 481
322 335
15 194
274 442
128 245
65 62
240 237
269 480
212 298
223 350
273 303
451 106
352 62
136 316
351 496
406 417
146 259
405 247
352 120
423 425
87 262
243 225
399 148
157 90
389 465
346 308
497 185
351 460
61 271
473 17
396 445
208 150
164 405
252 219
432 420
154 273
128 286
6190
3
