70
5
0 0 0 0 0
98 13 38 18 52
61 95 13 36 33
59 25 83 78 35
12 33 47 30 32
81 82 89 73 79
60 18 71 50 36
42 18 42 47 18
30 33 39 45 58
21 86 21 59 21
40 98 58 93 63
71 63 13 31 94
87 72 56 92 80
68 33 41 34 43
46 61 20 60 69
13 90 12 61 22
69 68 47 58 35
61 32 67 73 85
99 89 93 83 87
49 58 85 16 53
51 59 64 89 66
48 95 100 93 20
58 15 31 27 74
37 14 30 45 93
42 65 98 40 27
71 14 78 43 91
43 87 18 39 65
90 49 37 40 52
86 48 38 70 82
39 44 10 85 38
22 26 16 32 23
20 14 76 17 99
83 15 38 66 75
75 34 34 68 65
60 69 71 42 21
66 98 21 95 95
96 45 98 74 89
40 70 77 46 98
65 45 80 35 70
44 36 22 65 41
56 91 67 55 33
77 50 18 87 84
93 59 91 31 51
45 59 51 45 99
93 60 24 89 40
57 78 15 63 26
74 15 69 69 70
54 76 14 78 89
81 84 94 71 44
91 39 91 76 63
81 68 96 92 81
39 21 45 44 95
78 99 36 71 76
60 100 74 60 52
73 44 97 28 62
88 36 50 99 56
70 63 92 78 78
29 76 90 88 74
36 66 16 47 93
100 62 24 29 31
14 19 86 38 16
52 14 64 77 90
31 36 56 64 69
98 53 12 16 35
35 51 47 76 63
89 32 35 88 13
76 18 86 55 69
39 67 59 34 74
22 66 62 68 89
45 69 73 59 10
0.178507
0.430622
0.329567
0.406685
0.295207
0.275255
0.165811
0.285742
0.19262
0.310832
0.188989
0.198984
0.445978
0.42104
0.457616
0.499112
0.337575
0.118753
0.497662
0.135241
0.329177
0.22689
0.467541
0.424279
0.172327
0.266893
0.395557
0.142365
0.113703
0.484827
0.149664
0.130107
0.268296
0.308463
0.469451
0.238373
0.408568
0.33308
0.353207
0.167983
0.161352
0.165502
0.309001
0.309992
0.158272
0.18202
0.319652
0.124758
0.334822
0.186789
0.184664
0.129633
0.389957
0.116451
0.21457
0.175218
0.337909
0.440203
0.310459
0.284265
0.322072
0.245324
0.321996
0.400749
0.455417
0.252996
0.230818
0.396418
0.29887
0.149427
432 418
142 27
489 345
113 386
200 266
389 386
192 389
463 76
328 280
16 321
37 62
154 296
92 375
159 393
225 67
300 350
345 131
229 61
489 3
206 393
480 206
226 409
196 169
465 284
47 96
9 219
116 184
123 316
320 440
478 155
178 269
115 246
100 67
290 436
199 332
276 422
360 477
156 384
287 6
116 21
457 297
47 70
23 65
384 274
51 164
455 64
349 180
293 191
171 184
285 300
329 281
265 438
140 52
434 240
109 83
98 410
10 197
66 344
258 345
343 317
432 300
240 467
299 424
312 203
103 53
163 3
370 350
291 5
350 353
263 455
6530
3
