70
11
0 0 0 0 0 0 0 0 0 0 0
58 40 72 19 50 25 56 57 11 66 79
88 65 82 31 47 98 41 22 24 89 18
50 22 97 90 39 40 92 21 12 45 65
63 92 39 33 83 54 39 31 52 11 78
14 86 16 26 47 71 73 29 64 81 30
17 77 85 18 19 45 91 17 63 70 84
85 18 16 48 82 15 77 87 17 16 34
85 45 100 62 45 17 55 36 38 14 36
45 24 20 95 46 96 86 81 48 27 67
70 47 75 62 64 25 12 69 71 81 15
61 99 17 66 11 75 96 17 56 12 41
49 43 97 62 31 92 82 35 54 22 39
65 58 74 17 12 43 80 84 55 40 30
84 72 56 85 17 79 23 12 51 16 55
86 66 99 64 50 66 39 84 36 51 39
45 79 19 44 87 66 98 88 96 64 58
78 98 64 28 42 68 95 100 28 56 18
100 74 22 36 69 50 43 31 51 72 16
32 23 13 38 89 73 51 68 47 97 31
81 33 66 31 50 63 31 16 68 71 97
99 17 45 52 65 51 27 26 79 83 54
18 40 66 53 30 10 58 16 100 26 79
52 23 72 74 91 13 24 71 98 86 61
14 50 99 81 27 16 98 42 81 35 65
25 41 22 86 20 35 62 87 46 46 78
69 41 31 63 12 22 63 31 32 70 92
96 18 46 42 74 25 97 26 40 26 22
57 91 12 67 40 72 41 99 87 58 84
80 31 35 88 55 57 41 96 88 69 12
52 91 24 60 81 25 54 59 51 68 43
62 56 44 19 22 70 12 27 74 19 29
11 49 77 71 94 23 69 23 51 29 44
46 98 25 96 73 50 29 53 100 17 85
95 78 41 23 24 94 89 20 50 89 22
86 95 56 49 47 90 87 47 77 91 97
82 88 43 70 86 63 67 61 95 81 87
74 16 90 72 63 24 49 96 16 11 53
46 59 45 32 59 99 69 32 55 91 98
60 77 22 53 92 76 14 59 14 44 40
23 74 99 33 64 19 37 80 39 49 88
22 51 83 44 68 88 81 11 54 44 85
32 38 100 92 68 91 40 71 36 23 28
78 36 85 68 27 76 77 41 74 35 80
60 56 72 82 44 69 97 91 16 25 92
14 28 87 57 59 32 26 55 94 58 42
50 61 25 19 18 76 56 96 29 68 42
34 59 81 44 15 53 22 63 49 53 42
51 17 45 62 30 78 71 34 41 97 49
93 11 38 35 26 45 71 88 39 34 67
47 42 84 98 79 13 85 97 14 76 79
97 51 59 77 69 76 89 87 70 83 87
81 12 62 49 81 83 20 82 43 82 34
60 17 70 50 58 60 53 100 90 60 21
71 57 51 24 94 38 40 12 88 18 18
26 86 69 51 81 51 76 80 44 16 69
41 70 15 18 41 14 47 14 26 93 12
64 64 62 37 90 72 51 79 74 53 73
27 89 93 92 44 66 27 47 65 22 64
89 71 31 31 88 93 94 22 81 68 20
75 75 91 62 65 10 15 69 29 60 58
46 87 27 25 100 86 38 92 29 46 17
31 51 39 32 40 78 47 100 74 82 61
36 60 78 52 65 52 44 74 23 99 60
95 39 65 73 42 95 37 82 86 68 53
17 13 58 15 46 69 82 20 54 69 62
54 83 100 53 78 12 45 48 100 19 55
61 41 39 46 91 51 97 53 61 74 66
45 82 97 86 73 55 29 59 71 49 46
49 31 32 76 65 95 32 52 14 17 65
0.282476
0.318856
0.853361
0.670184
0.794034
0.916059
0.810513
0.319289
0.608795
0.842857
0.618454
0.55027
0.519208
0.356923
0.601555
0.314462
0.600585
0.703195
0.826147
0.333056
0.809219
0.928223
0.350913
0.914394
0.744649
0.353572
0.274017
0.616462
0.615452
0.655988
0.841554
0.622183
0.300715
0.796688
0.620528
0.505403
0.285991
0.273515
0.553269
0.923734
0.748426
0.517588
0.979101
0.972079
0.515694
0.682797
0.767104
0.427726
0.72963
0.396443
0.688356
0.3363
0.766985
0.912397
0.563052
0.638139
0.558609
0.936008
0.818649
0.577002
0.468821
0.603431
0.906338
0.492001
0.584447
0.974338
0.605906
0.61469
0.474582
0.847241
298 107
252 482
438 176
303 408
314 309
58 325
235 113
352 460
141 110
461 236
3 338
231 364
444 492
424 140
168 256
271 303
305 43
52 79
375 88
326 191
457 39
110 54
24 388
78 174
37 458
473 9
50 108
420 477
442 310
231 209
34 337
98 149
311 256
168 6
489 497
341 499
194 132
55 472
476 70
402 351
385 460
432 95
325 209
301 482
429 66
406 358
461 132
4 265
229 55
132 297
460 224
331 253
323 117
231 499
280 444
79 458
301 290
217 0
171 166
479 372
425 234
231 96
232 321
79 255
116 357
472 252
251 243
444 381
5 109
431 180
6370
3
