70
3
0 0 0
86 23 91
62 48 41
53 65 50
78 75 63
11 52 80
33 93 97
28 26 96
29 38 55
13 95 18
32 50 67
70 17 41
18 84 18
91 93 23
18 74 10
37 91 100
39 95 16
65 88 98
54 25 38
17 33 94
50 20 89
77 44 61
62 57 26
28 25 25
97 83 74
32 70 85
72 41 100
46 99 85
98 16 92
40 55 88
100 36 65
24 96 65
35 34 28
62 27 89
13 61 38
33 11 86
60 16 85
89 66 99
34 13 98
32 89 15
30 75 27
65 98 71
66 64 56
46 34 25
82 53 76
72 64 47
28 26 12
66 14 14
95 18 40
35 42 88
26 76 37
26 64 30
77 48 51
78 60 95
65 80 79
52 89 72
64 48 60
44 58 64
31 78 52
55 17 70
42 18 87
95 64 26
11 43 27
95 77 92
12 30 46
42 76 73
20 32 10
13 12 13
54 43 75
77 57 39
1.87406
1.22293
0.479513
1.20507
0.57542
1.87207
0.482916
0.471291
1.02956
1.51192
1.02001
1.75473
0.6257
1.60473
1.7689
1.7012
1.79753
1.55885
0.602636
0.510955
1.51674
1.94667
1.41847
1.83231
1.16595
1.54462
0.89132
1.71209
0.941622
0.839749
1.75014
0.63126
1.90799
0.41063
0.514118
0.907257
1.71762
1.17247
1.80259
1.30023
0.67538
0.562861
0.730943
0.710092
1.19774
1.54722
1.99018
1.46832
1.93
0.748195
1.72418
1.89964
0.821775
0.802863
1.6542
0.553709
0.747105
1.07247
1.87662
0.773547
1.68041
1.09795
0.903442
1.84815
0.647467
1.21399
1.89413
1.47155
1.36512
1.12741
115 392
140 90
211 497
29 225
117 245
211 280
231 4
102 341
80 72
412 306
340 265
340 25
252 421
197 61
418 264
327 347
350 60
256 266
313 400
339 485
351 196
76 220
286 341
55 182
136 0
411 264
58 475
141 270
379 472
281 440
493 455
287 269
342 449
26 178
192 340
233 209
265 367
119 341
243 463
38 32
262 415
98 229
472 11
304 376
279 24
397 429
193 46
120 213
59 143
293 468
346 464
437 128
76 217
303 227
156 162
130 336
197 177
67 99
406 99
472 263
387 236
69 190
266 172
373 32
103 474
143 229
104 410
419 489
173 380
381 425
6225
3
