70
3
0 0 0
44 39 63
56 25 12
31 41 53
51 39 68
95 33 75
58 44 92
28 39 65
22 34 90
15 15 19
75 68 35
78 49 87
59 61 18
84 17 31
13 61 32
12 42 92
57 31 32
49 34 58
39 21 77
47 83 41
59 77 26
72 85 86
58 36 44
82 60 88
55 27 12
10 36 82
59 58 60
18 38 80
55 87 41
80 81 78
94 99 35
14 90 59
24 36 28
31 41 33
43 38 92
55 68 62
34 19 81
65 17 77
53 27 66
14 56 76
42 23 79
19 37 27
93 32 14
23 12 95
84 56 20
26 81 54
33 47 10
53 33 16
53 63 22
42 13 72
24 19 88
60 17 20
95 41 31
40 69 32
41 52 35
31 62 82
40 81 54
33 58 57
24 71 86
64 70 54
96 12 37
62 92 39
39 36 14
56 15 74
19 13 89
72 78 55
35 28 43
57 12 94
89 60 93
21 27 68
2.37081
1.56172
0.94192
1.25708
0.907628
1.48496
0.97704
0.77587
1.5313
1.91697
1.46562
1.82766
2.29543
1.41526
1.35247
1.49666
1.8677
2.15007
1.88742
1.18626
1.54286
2.40007
1.67065
2.33708
2.44996
2.21659
2.4822
1.77408
1.32762
1.37871
1.08053
2.18361
1.87315
0.998683
0.926869
0.803707
2.35126
1.07007
1.94971
1.62387
1.89276
1.69713
2.40364
1.86875
1.43593
1.55579
1.95259
2.33128
0.798976
1.45212
1.48098
0.82428
1.64387
2.19015
1.10806
1.59063
2.40013
1.05298
1.41527
0.793446
1.77603
2.48734
2.32449
1.2712
2.49964
1.23605
2.45934
0.517716
1.90486
1.92806
464 310
43 12
244 177
108 78
489 269
313 330
318 472
229 203
231 160
251 320
83 354
79 108
438 73
431 233
11 245
124 337
191 171
488 172
271 424
63 277
442 244
152 267
81 303
368 336
418 488
390 321
225 367
429 142
430 485
273 226
246 88
110 322
104 142
296 198
96 65
171 464
75 289
362 407
474 426
260 409
80 434
233 68
159 399
359 473
391 226
116 156
80 261
257 45
297 101
329 359
331 141
99 2
138 254
50 481
436 266
387 361
390 201
64 87
214 198
240 250
317 133
65 83
393 383
462 197
319 25
460 227
37 275
494 8
71 194
317 308
5730
3
