70
3
0 0 0
59 39 65
40 37 12
85 32 24
83 19 65
98 81 77
42 26 69
22 55 11
47 10 22
32 63 70
28 20 67
47 74 20
63 71 85
71 71 23
10 75 43
78 42 94
75 30 16
29 46 36
80 63 84
83 17 62
28 43 96
56 66 95
50 83 80
15 58 11
48 58 68
83 34 32
55 73 47
91 73 60
97 42 81
18 94 84
57 98 85
81 46 74
48 70 12
98 39 58
78 42 50
100 56 35
96 22 68
22 33 50
52 43 67
76 46 44
81 57 17
48 39 89
26 49 68
76 56 93
40 88 50
57 19 65
87 24 23
52 77 79
73 82 54
76 33 97
42 61 36
96 66 100
57 65 77
84 92 36
36 27 74
68 60 74
98 62 68
46 37 61
34 87 73
82 85 54
27 34 18
25 20 76
38 61 58
22 40 62
11 65 63
96 63 19
47 39 42
61 18 80
91 95 16
21 92 54
1.96322
0.934569
1.96367
1.23016
1.62751
0.489337
0.488404
1.17891
1.71083
0.96355
0.598565
1.08421
1.34271
0.719784
1.41628
0.809524
1.74314
1.30067
1.44103
1.72826
0.63622
0.870545
1.28902
1.66698
1.89155
1.90122
0.488946
1.05676
0.667929
1.62784
1.75708
1.32473
0.869175
0.460053
1.73709
0.840224
1.61568
0.608911
1.21916
0.563234
1.87069
1.40604
0.961504
1.25083
1.47025
1.37465
0.893368
1.4926
1.87513
0.773904
1.14241
0.710655
0.845295
1.93241
1.89777
1.23929
0.731214
1.21928
1.93878
1.66356
1.07318
1.74798
1.45344
1.99163
1.72871
1.22614
1.05524
1.10751
0.850384
1.53035
446 257
494 382
360 420
87 45
318 412
317 85
200 306
402 459
354 78
305 433
4 208
111 31
288 93
366 152
37 222
493 416
498 378
420 450
268 4
447 487
258 304
137 392
218 471
299 167
185 81
224 440
213 48
169 447
470 163
470 335
5 418
464 392
46 499
185 128
67 283
85 246
338 5
171 269
359 11
421 358
300 392
307 163
118 367
111 218
70 490
256 121
292 233
270 62
223 12
141 150
82 218
377 133
124 387
350 229
46 14
154 412
241 85
359 138
398 99
497 37
479 74
281 182
450 206
446 29
367 88
342 286
489 149
363 216
366 350
162 67
9682.5
2
