70
7
0 0 0 0 0 0 0
34 86 89 63 57 17 51
59 83 16 35 23 53 30
100 45 38 62 16 92 90
29 77 43 18 81 43 93
78 12 39 16 60 78 35
16 36 48 49 99 51 57
25 10 25 87 31 65 19
48 25 21 33 18 77 45
21 38 20 13 65 10 15
18 37 60 55 10 18 25
66 71 59 20 49 14 95
27 84 96 95 49 78 37
51 12 12 56 78 62 22
83 79 14 10 93 75 61
70 50 34 100 73 33 71
57 87 91 19 93 23 47
55 43 57 43 38 66 51
45 88 69 90 80 11 90
38 51 54 100 35 67 76
49 94 92 67 19 51 42
58 87 64 39 28 17 85
54 51 99 45 49 82 25
84 41 64 66 34 16 48
96 86 24 66 94 10 26
56 23 27 77 12 90 25
36 42 79 80 49 92 69
50 80 70 55 31 49 11
14 36 15 32 31 51 43
25 87 54 45 42 96 21
17 40 38 39 11 95 67
65 49 13 19 34 41 55
12 65 68 21 19 58 72
37 16 59 40 70 15 99
99 63 74 28 74 81 42
21 62 35 26 53 63 21
59 88 69 18 44 95 29
65 42 79 91 27 81 65
100 50 69 50 34 93 100
13 82 15 37 90 68 41
53 15 24 44 62 88 87
34 63 85 85 76 43 82
86 87 98 77 84 64 85
15 95 58 53 93 14 94
47 43 44 26 33 97 97
87 49 94 43 83 60 63
74 36 57 49 72 99 64
32 81 21 77 50 22 31
76 81 79 16 37 14 82
48 39 95 18 50 46 50
78 70 43 45 25 71 25
35 51 60 77 85 62 74
54 79 73 98 26 13 70
32 74 31 71 43 41 80
13 23 63 73 97 92 37
30 10 76 52 38 96 24
24 60 95 66 88 13 28
37 67 44 61 68 72 53
39 10 28 71 40 93 100
63 72 96 22 18 60 34
79 26 80 81 15 50 33
70 31 51 40 29 87 10
54 78 61 20 55 11 14
38 88 71 43 54 70 39
29 11 89 81 35 86 76
18 19 91 75 76 35 91
86 11 29 43 20 74 55
47 56 20 61 17 56 24
25 16 22 15 96 28 78
97 53 43 74 28 32 83
0.744461
1.078
0.559539
1.4275
1.41824
1.45714
0.783313
0.415324
1.13837
0.572085
0.812828
0.419229
0.666661
0.912716
1.45848
1.28567
1.08908
1.27258
1.31674
0.689475
0.500702
0.753401
1.1406
0.893215
1.10139
1.31618
1.34291
0.924664
0.351477
0.980887
0.814582
0.439196
0.52151
1.38102
0.568698
0.837376
0.507201
0.556246
1.00603
1.15309
0.457436
0.637019
1.19157
1.25124
1.14601
0.958032
0.322303
0.664173
1.38162
0.436138
0.632679
1.37608
1.40739
0.679412
0.634486
1.05269
1.01243
1.46236
1.46539
1.28733
0.316518
0.479043
0.63095
1.32786
0.593292
0.668919
0.895015
0.828814
0.715851
0.53159
395 320
398 220
287 171
195 474
217 445
309 151
238 308
65 14
361 2
86 135
442 164
287 399
408 296
65 194
257 1
351 372
464 83
461 289
306 146
313 324
290 45
95 204
368 354
331 31
71 317
470 92
87 22
362 196
228 142
468 321
470 167
139 400
45 288
413 62
385 291
315 236
6 185
247 249
137 331
484 101
491 186
484 486
136 225
394 209
292 62
105 351
319 378
157 211
40 76
83 447
39 133
226 359
223 112
353 477
392 111
305 17
218 140
322 323
30 413
224 336
70 33
215 27
376 250
418 280
391 131
447 481
306 331
417 172
68 47
145 465
4572.5
4
