70
9
0 0 0 0 0 0 0 0 0
41 70 62 15 97 48 34 11 22
42 26 98 77 99 69 43 76 87
24 99 94 94 60 65 88 23 47
71 76 47 78 75 22 85 45 36
21 22 86 95 17 89 65 65 16
61 35 63 66 54 72 97 11 56
28 63 25 29 82 43 72 45 73
66 98 35 78 12 32 18 52 66
89 40 70 70 88 11 73 44 27
33 84 67 48 24 63 67 59 38
58 58 38 65 65 92 58 90 67
86 10 59 20 26 21 57 25 89
51 93 55 73 62 95 62 46 60
92 80 18 98 82 36 31 15 17
94 35 77 99 25 95 54 94 19
46 93 95 32 53 42 21 16 65
26 19 84 74 38 62 44 38 50
10 18 29 76 36 81 47 19 45
63 93 96 98 18 17 75 94 92
99 33 70 91 46 98 71 36 51
22 31 12 73 99 43 26 40 82
15 87 88 96 58 29 78 57 35
18 99 25 95 49 41 28 52 30
41 21 70 69 41 93 68 62 67
23 22 71 35 38 46 92 37 46
51 44 78 95 90 68 63 13 40
57 10 54 72 60 84 56 58 26
12 78 92 61 46 52 20 86 88
28 52 50 70 42 41 97 40 79
71 72 86 88 25 89 15 40 64
53 20 72 78 81 23 21 52 85
19 99 63 83 75 92 43 89 49
18 69 19 74 55 27 58 14 63
74 39 74 58 87 78 11 94 85
63 48 46 10 93 35 91 100 57
39 57 75 33 30 56 81 96 87
73 59 73 62 46 46 13 31 87
56 29 88 47 41 19 45 41 38
59 30 17 96 17 23 47 27 93
85 78 50 80 10 82 38 57 32
20 23 76 70 88 58 52 63 84
42 87 47 73 23 24 16 83 38
45 39 47 54 83 95 68 11 36
72 89 12 94 54 63 21 51 32
82 88 17 62 28 27 51 65 28
58 52 82 82 47 44 31 17 27
71 98 45 28 79 89 91 89 81
88 60 55 14 54 85 82 58 77
34 77 31 51 13 39 27 26 100
60 16 90 77 88 74 70 82 96
42 53 21 64 79 89 61 71 77
20 64 14 51 18 48 56 59 54
86 21 97 52 32 12 77 67 54
22 27 84 11 43 86 94 22 34
95 47 30 89 36 87 38 65 32
95 20 38 74 97 54 12 23 13
58 47 45 16 17 92 82 30 37
68 81 65 74 55 19 84 87 38
24 21 67 48 84 94 27 39 92
49 67 43 58 45 55 26 30 75
13 37 10 28 25 88 85 17 24
79 90 67 76 23 66 60 84 70
94 81 22 84 74 36 73 64 49
91 41 31 39 72 14 53 40 39
80 100 30 70 85 41 15 71 79
65 28 78 72 57 32 30 75 61
50 68 31 36 81 25 83 62 69
67 50 90 87 50 18 91 64 55
46 19 35 98 66 41 13 85 34
0.791548
2.43255
1.86139
0.929669
2.15331
2.31496
0.77076
1.27769
1.49628
1.58474
1.87677
0.684906
0.941579
0.603758
2.49025
1.75158
0.919232
1.73388
1.26569
1.98763
1.54596
2.29503
0.920559
1.58976
1.42183
2.46734
0.896174
1.59034
0.616611
0.811544
0.524105
0.796994
1.30736
0.953694
1.3385
0.953553
0.935457
0.845472
1.1043
2.27259
0.845716
1.81064
1.22135
1.04356
0.85291
1.1652
2.30554
1.79201
1.90623
2.42786
0.764535
2.40392
1.74777
0.854579
1.40502
0.615733
0.764078
1.39972
0.878111
0.855039
2.45075
1.8485
0.500168
1.66498
0.971275
1.67235
0.894681
1.16025
1.41018
0.92431
478 473
16 391
253 86
310 107
452 105
388 113
358 427
302 370
16 256
301 26
87 499
376 484
124 64
167 385
148 271
389 144
101 257
106 288
59 14
298 74
111 480
365 127
92 112
37 406
83 42
16 441
166 165
279 142
177 208
451 358
181 334
72 296
461 457
341 79
230 140
448 297
104 16
221 364
409 4
103 379
409 471
182 239
201 198
205 191
381 17
144 474
79 416
79 162
41 457
247 256
71 64
436 2
392 6
480 359
237 482
74 12
122 435
242 316
422 197
139 400
229 386
109 103
352 201
7 392
381 416
162 300
2 421
19 299
107 150
109 6
4796.25
4
