70
3
0 0 0
87 67 15
45 24 96
25 49 41
40 41 21
64 92 97
93 15 48
92 26 51
37 61 66
97 64 56
86 30 55
45 71 32
76 15 55
94 45 12
28 77 24
61 56 59
23 52 26
75 37 95
23 30 79
50 73 82
44 93 83
54 31 28
85 91 77
78 40 14
40 81 95
85 65 32
86 27 81
30 69 84
76 42 79
59 74 76
95 35 43
35 62 71
41 14 86
76 47 19
76 93 80
39 31 65
29 94 49
64 78 71
95 43 26
27 50 67
17 59 98
16 93 43
74 11 56
25 64 44
93 36 42
65 41 29
33 55 90
39 43 91
23 56 54
56 68 68
48 48 83
38 65 69
66 35 86
45 18 41
74 73 59
83 48 25
27 62 65
87 85 16
27 86 44
26 72 84
65 14 95
34 47 49
51 67 15
44 32 37
59 75 74
23 48 78
15 20 68
57 72 76
20 96 41
37 34 10
0.120958
0.130124
0.206073
0.235334
0.303256
0.124769
0.484043
0.406023
0.433184
0.417554
0.102025
0.16949
0.287284
0.190417
0.273223
0.290945
0.35246
0.239571
0.189616
0.211999
0.432289
0.33033
0.16104
0.484531
0.116759
0.452232
0.305676
0.258703
0.201371
0.392786
0.188081
0.440179
0.100022
0.494262
0.144681
0.328313
0.306885
0.14942
0.441795
0.204937
0.118344
0.1536
0.497445
0.377544
0.38976
0.175838
0.159403
0.154837
0.227671
0.466559
0.480767
0.325719
0.341946
0.453082
0.315196
0.414605
0.499058
0.147648
0.179027
0.475584
0.203534
0.131677
0.125871
0.165574
0.254644
0.413741
0.420033
0.16282
0.159903
0.166253
92 106
74 179
477 204
309 269
459 111
359 145
222 116
483 350
26 176
373 23
291 385
324 272
126 260
500 158
42 418
64 420
111 372
15 310
31 342
66 153
268 462
59 77
201 84
189 239
223 212
62 413
137 46
131 203
436 417
111 62
66 103
99 88
336 184
320 370
389 297
43 193
182 412
437 106
50 371
10 282
275 452
100 82
412 189
9 275
59 181
147 371
351 480
28 144
327 350
269 139
424 116
398 311
154 427
110 141
256 290
482 226
296 273
197 241
322 108
66 271
83 263
15 175
164 269
398 294
279 473
499 323
262 481
422 17
499 223
61 341
4747.5
4
