70
3
0 0 0
89 93 67
88 55 68
97 60 50
55 82 20
66 90 19
26 90 47
92 78 91
16 28 37
95 78 16
27 40 10
87 79 77
98 76 68
65 57 44
35 16 67
63 28 68
53 17 34
65 47 71
14 23 19
12 60 17
65 68 32
88 34 25
20 86 77
51 29 43
14 49 47
43 52 25
15 25 51
35 52 29
32 92 84
29 38 65
53 19 16
70 72 89
27 49 53
38 88 16
35 37 14
67 75 13
56 16 35
21 58 21
21 93 50
80 78 23
99 76 97
28 41 78
83 54 38
79 37 77
73 53 26
62 40 18
66 43 73
98 46 17
18 16 78
52 43 52
46 82 86
68 68 11
24 97 46
100 83 51
91 50 25
85 15 54
53 75 29
87 35 73
74 33 75
85 62 48
52 61 42
99 72 82
68 97 48
55 46 96
98 14 45
31 28 63
80 34 45
74 83 94
54 51 90
72 18 71
0.365786
0.284893
0.223755
0.2084
0.462324
0.45181
0.249602
0.183394
0.43417
0.415804
0.164956
0.259163
0.31793
0.447163
0.234271
0.151363
0.207064
0.101545
0.365616
0.142587
0.313417
0.29891
0.208195
0.339438
0.351882
0.326504
0.271342
0.446421
0.389147
0.189211
0.187223
0.310211
0.227024
0.172335
0.398413
0.360165
0.421228
0.432059
0.431885
0.409565
0.361745
0.126656
0.105792
0.244235
0.171599
0.180474
0.30661
0.428485
0.331464
0.115392
0.168908
0.282388
0.456562
0.418904
0.287828
0.144259
0.212048
0.27397
0.116745
0.25414
0.460963
0.15458
0.154565
0.432376
0.191757
0.156525
0.109456
0.253146
0.236213
0.412059
68 196
177 440
248 338
187 63
171 424
179 191
372 17
163 65
57 169
187 281
254 489
251 160
145 458
412 340
194 260
392 206
212 337
107 290
397 23
305 213
200 464
124 465
268 216
377 215
396 62
24 468
307 461
468 216
302 62
106 26
125 281
140 91
269 425
263 440
43 82
150 482
160 5
284 217
223 327
317 154
58 107
142 271
128 119
78 157
35 438
431 427
335 373
371 291
13 9
141 265
366 139
142 51
481 337
488 189
471 367
357 115
289 440
486 492
232 298
90 143
359 400
153 72
398 461
321 197
46 436
203 314
406 460
122 415
200 351
45 359
3747
5
