70
11
0 0 0 0 0 0 0 0 0 0 0
100 17 45 79 65 86 63 44 30 38 10
26 71 50 76 15 79 78 16 73 29 58
78 63 25 14 92 66 15 97 62 83 67
93 78 50 78 48 97 14 42 89 90 94
49 28 99 88 72 57 81 80 47 38 51
13 54 43 22 29 64 100 12 39 85 71
62 29 39 82 61 10 95 23 37 51 97
59 16 10 30 56 96 53 85 14 90 89
28 11 66 85 59 55 44 93 68 92 33
30 41 73 18 97 36 91 78 47 54 23
18 74 97 100 80 43 41 36 67 51 59
31 90 80 96 42 46 89 51 57 37 77
84 86 37 15 68 17 38 50 19 42 24
13 18 22 33 85 98 100 35 22 52 20
34 78 34 24 76 69 41 38 19 12 23
56 100 50 52 31 15 66 93 14 69 52
91 68 60 99 20 81 69 59 43 37 61
42 74 17 66 14 61 36 41 56 82 59
49 23 33 97 27 26 41 59 74 35 22
87 69 12 26 78 84 79 76 35 43 28
68 15 28 93 47 49 81 76 28 73 78
26 76 54 71 76 76 47 77 74 83 12
20 40 72 60 58 54 66 18 49 29 84
59 63 61 97 32 15 28 85 90 38 56
25 54 35 44 82 16 87 55 50 53 78
64 42 62 81 78 88 64 94 64 48 17
15 87 45 94 32 45 33 56 81 11 59
11 11 52 54 90 35 16 85 54 50 81
73 55 79 83 59 40 14 21 61 51 58
12 76 62 98 21 91 53 39 39 52 37
92 67 20 83 29 56 63 65 95 72 92
79 92 68 60 45 44 89 29 35 55 58
12 62 15 55 33 59 95 32 50 46 71
19 81 39 89 58 19 41 27 60 37 30
46 78 35 76 44 90 24 79 79 60 83
84 28 16 48 42 48 98 35 92 96 81
36 27 42 66 92 88 88 36 31 76 22
40 81 87 78 70 95 65 26 54 82 60
29 80 36 66 54 20 55 30 58 56 17
99 71 26 11 18 99 19 58 60 30 84
70 80 65 37 92 87 90 13 28 57 62
91 79 67 14 71 84 29 78 79 98 42
96 33 20 46 13 21 42 10 91 82 57
63 39 96 11 12 45 52 79 40 29 54
28 83 99 91 34 18 74 60 70 69 99
95 68 19 30 83 35 76 11 52 32 75
49 80 21 20 72 55 75 95 83 18 78
11 60 64 35 45 78 36 59 82 21 52
98 33 43 27 88 100 36 89 51 95 45
66 70 41 40 95 35 99 78 36 52 18
84 13 13 77 41 12 93 98 100 79 50
67 29 99 20 12 84 99 39 17 77 33
58 42 50 20 73 19 62 71 72 65 34
48 13 61 85 27 28 37 43 75 91 54
27 14 25 92 39 38 86 72 81 80 22
98 43 30 88 40 17 29 51 95 83 19
34 66 38 41 100 46 34 51 38 28 87
28 62 26 96 83 40 25 37 74 61 71
67 19 50 66 53 88 82 56 68 96 79
19 15 94 73 31 32 55 87 29 38 57
54 73 71 21 88 100 13 80 38 76 58
62 83 52 65 42 79 100 63 73 45 34
12 40 92 83 14 80 93 17 82 11 11
33 69 75 14 17 70 41 42 95 99 84
17 25 22 61 43 55 58 100 95 67 19
95 45 37 96 49 35 46 72 25 83 13
10 28 94 16 37 55 35 85 90 83 73
73 20 18 36 57 68 13 23 33 82 35
52 85 68 72 91 29 12 17 22 78 60
0.868997
0.223166
0.491456
0.201666
0.512637
0.691127
0.56
0.761817
0.996977
0.568235
0.390424
0.808919
0.24395
0.22416
0.396409
0.772645
0.754961
0.59421
0.304333
0.581702
0.820518
0.452366
0.84859
0.661618
0.586741
0.260632
0.616908
0.731957
0.999422
0.659193
0.804929
0.256425
0.847613
0.703214
0.947616
0.956837
0.477264
0.57668
0.54657
0.399071
0.863454
0.503591
0.933694
0.355736
0.679432
0.96027
0.998921
0.334694
0.251985
0.759061
0.686371
0.557915
0.720939
0.317203
0.57122
0.887974
0.373773
0.812289
0.624466
0.723412
0.64762
0.543456
0.994762
0.92609
0.538141
0.686097
0.883574
0.224099
0.404211
0.578385
135 272
43 325
274 279
155 418
50 252
485 293
409 248
76 253
493 481
384 2
363 261
7 22
359 75
320 439
60 178
440 153
349 90
324 77
340 202
43 338
493 284
207 308
356 199
422 401
108 38
222 50
234 316
350 257
132 333
165 134
55 159
226 20
345 364
121 395
362 267
309 177
78 476
13 323
54 26
31 295
318 193
38 29
418 192
284 104
417 474
469 381
482 215
247 108
374 42
85 80
278 432
150 438
452 229
419 227
185 151
402 395
19 202
354 231
4 469
340 346
338 484
332 218
493 280
120 317
171 213
188 494
240 62
16 140
317 491
386 387
18970
1
