70
7
0 0 0 0 0 0 0
50 16 82 60 62 99 18
87 94 12 25 96 43 66
17 20 77 47 15 41 21
14 60 76 47 42 48 47
47 51 46 17 33 50 14
93 33 75 27 86 97 94
28 38 49 89 40 56 63
100 67 15 36 36 44 50
43 14 70 100 48 72 53
71 67 51 68 17 12 91
40 45 21 84 58 47 29
37 92 70 26 41 44 65
36 73 20 91 79 56 79
48 91 91 56 12 15 58
29 51 47 99 31 51 73
69 68 77 87 36 83 56
55 88 19 52 36 92 74
88 96 58 19 38 26 35
88 60 19 19 29 32 56
33 50 96 35 82 36 28
70 58 64 59 44 56 93
25 88 10 11 59 19 76
61 34 44 35 13 69 44
12 68 10 88 43 59 13
69 20 17 98 95 75 94
49 14 51 24 77 14 21
67 43 95 65 65 76 61
12 80 15 28 42 30 72
59 68 41 80 84 76 10
56 50 81 49 53 24 25
33 80 40 99 86 45 89
33 27 84 33 43 19 51
45 56 25 87 76 27 53
81 83 17 80 79 23 27
99 79 96 29 76 42 78
73 81 27 23 98 69 99
23 30 91 98 95 81 76
54 95 32 74 83 95 64
85 86 12 32 51 29 82
21 95 67 95 89 43 34
23 78 78 84 26 10 66
99 37 86 57 23 27 77
47 13 73 81 47 76 41
48 40 14 34 47 24 42
89 94 89 45 70 75 48
26 78 70 76 66 53 15
19 46 67 59 94 71 32
69 68 24 65 67 41 60
77 75 39 59 16 94 62
14 20 36 63 33 75 92
41 13 12 63 62 88 95
91 16 37 85 26 87 39
64 34 80 73 56 38 37
48 61 85 66 33 97 54
18 55 51 83 62 72 92
83 27 41 60 78 77 28
93 87 38 34 26 93 81
70 13 85 60 25 62 24
53 71 73 42 93 63 25
90 53 87 65 44 80 87
56 42 43 34 20 40 84
55 60 79 28 82 77 63
92 25 37 46 68 86 21
13 29 50 39 80 13 85
64 86 18 40 35 41 93
82 20 55 76 19 85 24
19 94 41 31 32 19 37
61 32 19 74 64 45 39
48 14 19 44 74 41 32
1.63666
1.99743
1.2406
0.462531
0.545018
1.64485
1.54201
1.67178
0.656188
1.34909
1.79751
1.17705
0.774079
1.49704
0.670841
0.71342
0.611301
1.05824
0.930669
0.945927
1.09004
0.85393
0.635352
0.547913
1.34263
1.40901
0.763288
1.68017
1.06192
0.982248
1.26951
0.570083
1.50657
1.63444
1.65702
1.24032
1.28105
1.62637
1.11079
1.52297
1.23247
1.91044
1.68032
1.59305
1.90946
0.464781
0.918171
0.409576
1.43541
1.77261
1.51286
0.538836
0.927014
0.626283
1.46757
1.50131
0.75843
1.1692
1.82443
1.90543
0.806049
0.41887
1.33157
0.997741
1.90522
0.649317
0.568564
0.566752
1.94797
1.93712
58 177
298 14
328 26
234 193
184 352
464 134
45 49
457 18
164 440
64 166
367 430
246 468
176 186
17 206
434 194
457 233
119 484
452 153
196 460
191 32
11 359
189 326
236 129
157 441
92 20
203 357
150 141
403 12
381 491
370 192
65 248
449 423
487 464
28 236
358 5
193 158
334 385
489 133
72 457
442 209
331 398
256 207
160 137
479 35
58 341
471 18
409 184
475 426
214 367
352 472
80 141
76 86
200 198
253 87
9 230
432 103
218 139
260 91
70 7
129 326
26 305
238 439
259 375
128 233
20 488
406 450
359 184
458 191
92 411
4 314
3757
5
