70
11
0 0 0 0 0 0 0 0 0 0 0
13 36 34 41 91 75 29 47 97 19 91
43 38 33 64 71 65 98 59 47 34 67
100 88 32 36 56 81 11 88 52 64 37
71 24 95 23 97 49 25 84 87 27 76
88 65 59 75 79 57 100 59 26 77 94
49 40 41 83 90 37 40 46 15 39 99
15 62 33 55 49 29 37 89 11 44 57
10 29 36 95 22 60 69 62 94 70 31
96 57 41 28 87 59 50 53 57 24 66
38 38 74 34 96 55 34 22 89 27 12
76 20 41 43 91 70 17 77 34 81 12
76 20 90 60 55 32 49 88 23 71 53
57 86 22 33 86 27 91 45 29 45 37
49 53 34 87 42 94 50 98 91 98 87
17 49 60 81 29 90 99 66 71 57 42
10 84 50 58 76 41 87 65 14 23 65
10 55 22 88 38 38 82 61 86 10 60
65 57 11 80 28 49 79 72 36 29 83
59 48 13 59 39 45 11 15 30 26 37
92 95 42 35 96 54 87 15 75 90 36
22 47 12 58 26 57 17 71 41 86 80
12 89 67 87 31 60 87 97 25 10 26
100 55 66 100 59 81 82 92 18 55 37
44 13 47 88 22 29 53 98 48 61 62
14 72 53 67 91 94 31 98 65 21 68
64 41 49 69 87 95 80 48 43 94 96
38 35 48 74 86 43 98 92 70 54 44
53 40 68 57 93 42 84 57 67 44 38
17 61 69 90 61 91 70 49 60 69 88
85 77 52 22 71 14 63 51 74 95 88
70 19 73 70 60 47 32 38 57 25 75
91 82 100 14 65 37 40 79 41 31 26
60 92 49 20 50 21 97 97 52 53 35
95 40 44 69 96 59 42 20 73 98 70
24 45 34 92 82 98 73 22 12 45 54
15 36 19 71 93 76 42 79 97 55 13
30 29 57 58 87 94 92 96 45 10 68
46 100 52 97 84 95 46 69 86 96 11
15 77 83 11 81 89 80 74 70 24 10
74 59 31 62 46 28 47 40 19 64 32
64 66 48 89 53 19 62 95 75 54 62
96 55 47 84 46 61 12 42 86 45 58
94 100 54 37 74 98 17 23 35 64 40
92 44 33 81 46 33 60 25 25 17 45
83 99 48 94 92 55 68 53 70 49 46
27 18 31 62 79 43 32 88 59 18 25
72 71 90 40 74 30 48 42 42 44 69
70 57 38 77 15 99 54 20 63 35 34
17 25 45 61 98 35 85 39 21 40 28
20 64 33 96 28 86 64 86 56 92 96
26 78 35 58 63 18 45 44 54 25 13
33 37 28 23 48 92 76 14 40 63 90
84 74 98 24 53 44 80 26 76 56 24
29 91 91 79 10 49 79 29 83 36 65
96 87 76 71 67 71 76 20 24 76 60
36 46 23 95 93 75 37 29 43 45 63
81 41 47 73 27 13 84 18 79 39 14
38 48 71 89 26 75 13 29 27 54 21
73 19 77 52 55 73 42 31 100 45 35
79 94 20 79 29 44 68 10 65 52 56
54 12 79 93 16 10 19 24 69 22 82
45 92 62 81 39 92 37 48 47 12 95
79 37 95 79 59 80 36 83 68 39 95
27 55 11 38 89 97 12 27 60 26 78
99 61 29 38 23 97 11 43 43 92 67
64 29 93 76 12 88 66 86 79 59 88
47 37 29 86 18 19 35 72 41 48 75
34 68 43 95 27 57 89 25 44 65 95
74 98 35 82 34 71 87 56 73 63 71
0.968099
0.838885
0.911605
0.769937
0.443882
0.359436
0.886342
0.32923
0.751615
0.814987
0.998589
0.899391
0.902108
0.996539
0.55503
0.683641
0.510743
0.551957
0.344943
0.978961
0.700486
0.263795
0.502391
0.971767
0.261669
0.217713
0.896049
0.510059
0.718924
0.269737
0.634465
0.302429
0.446725
0.445231
0.917355
0.870297
0.783314
0.52058
0.938803
0.50627
0.996166
0.541546
0.412506
0.666174
0.481609
0.251641
0.317877
0.424546
0.25108
0.59324
0.624359
0.610066
0.724211
0.475684
0.43531
0.58133
0.935545
0.609907
0.43867
0.872802
0.627922
0.346686
0.239845
0.573482
0.301254
0.383722
0.367643
0.325202
0.921428
0.470439
494 60
225 309
246 241
419 127
453 344
368 198
470 135
132 397
3 348
34 435
242 475
416 403
144 284
252 15
479 416
311 126
402 199
334 208
160 6
435 154
79 474
136 426
60 354
157 402
86 61
124 144
348 151
156 136
209 256
487 287
222 367
392 57
5 202
415 462
492 111
169 207
281 219
268 275
167 374
278 487
232 196
5 212
19 407
14 430
135 127
451 172
68 71
162 284
109 31
3 43
345 112
323 479
467 407
25 231
397 444
229 258
341 499
446 304
55 496
174 117
3 14
498 458
188 185
341 440
387 437
456 62
243 350
7 414
306 311
226 321
19275
1
