70
11
0 0 0 0 0 0 0 0 0 0 0
63 68 52 15 61 60 20 56 68 17 12
26 58 11 66 98 19 91 100 77 68 59
51 39 41 15 58 96 37 80 87 47 91
93 79 16 56 59 16 90 83 48 99 78
47 99 66 29 25 10 28 78 55 38 62
39 56 87 90 81 18 49 98 96 13 91
72 33 80 19 88 59 37 79 57 93 64
19 59 14 53 79 59 48 99 13 30 54
49 35 23 36 100 27 58 19 18 65 62
42 73 39 67 32 70 49 88 84 73 16
17 63 94 100 49 96 61 13 12 53 45
18 21 15 83 47 43 12 41 16 67 77
39 51 38 27 17 18 74 24 15 64 81
36 66 55 83 66 68 60 20 45 85 35
31 22 12 47 55 48 62 85 28 35 28
15 60 91 14 46 41 50 18 59 63 41
42 23 97 47 31 81 15 98 28 82 63
11 71 84 19 88 43 88 14 11 59 91
66 57 74 45 71 19 79 70 74 21 99
17 60 19 69 60 53 37 85 78 14 63
91 26 84 25 41 61 41 50 57 69 96
67 15 61 84 81 35 47 70 62 97 39
57 54 90 83 58 16 22 21 61 71 66
92 61 23 36 48 11 46 11 35 39 59
48 70 71 97 85 35 77 40 86 61 60
80 59 64 61 72 17 96 30 65 25 35
71 89 86 92 77 13 67 34 38 77 24
87 18 89 29 30 46 78 41 92 53 28
68 20 58 70 87 96 70 14 52 82 76
74 66 60 80 39 83 58 43 44 12 81
30 84 14 35 37 41 70 34 41 58 75
30 87 41 82 68 36 90 42 48 80 94
82 98 57 78 23 70 26 52 47 35 10
56 85 19 32 17 43 93 20 33 13 42
89 57 99 74 32 48 21 33 41 41 41
48 17 64 91 28 33 73 98 32 28 66
50 60 32 70 56 26 82 27 79 31 20
92 87 72 60 83 26 38 49 83 58 72
58 11 19 84 43 83 32 72 96 14 62
56 29 93 20 48 48 24 48 53 32 58
54 40 51 19 75 84 49 99 64 69 33
88 51 64 13 34 14 95 94 68 39 22
51 63 75 57 90 61 70 52 53 11 88
28 60 53 69 47 62 55 95 38 41 49
49 66 14 14 60 37 29 75 71 66 90
91 39 95 40 78 69 49 11 17 27 66
77 61 57 92 44 13 58 35 30 60 36
43 48 53 82 48 64 61 12 90 17 99
29 71 17 65 12 15 22 98 73 74 62
56 42 17 59 80 29 46 62 47 34 49
75 86 48 98 44 72 54 51 78 41 30
10 30 88 22 79 16 85 21 66 75 67
39 52 53 42 57 93 44 17 38 85 79
74 36 76 24 69 29 94 86 100 83 26
83 92 44 30 27 16 26 42 78 66 81
14 86 97 87 85 43 81 51 90 60 31
28 17 32 75 55 36 39 10 52 72 26
68 73 35 10 64 30 14 21 34 18 42
23 67 88 52 78 78 45 50 40 77 30
63 23 42 23 59 59 77 63 74 26 23
84 41 38 47 86 65 48 25 91 70 82
13 24 70 15 54 70 89 23 72 80 58
82 41 90 50 36 99 57 45 49 93 72
98 59 97 77 58 53 40 37 15 92 17
62 57 42 46 64 63 17 20 65 49 25
41 65 22 28 35 49 100 49 27 75 31
30 69 81 92 67 58 99 98 58 69 48
11 16 30 79 56 39 28 12 69 47 61
71 41 17 87 18 93 63 85 65 100 83
1.25204
1.41081
0.429417
1.28502
0.520251
1.26772
0.417419
0.306109
1.05933
0.865342
1.46985
0.544109
1.4333
0.846635
1.00504
0.382091
1.00507
1.33274
0.746901
0.339757
0.66536
1.01252
0.390489
0.632087
1.07883
0.360245
1.03613
0.968387
0.66272
1.03463
0.955382
1.03151
0.36584
0.358207
0.872597
0.456685
0.505232
0.46635
0.549591
0.479002
1.05503
1.22747
1.4897
0.403005
0.413421
1.166
0.798933
1.12857
0.956114
0.426604
1.19789
1.31442
1.09198
0.581011
0.668911
1.02783
0.441052
0.593703
1.45147
0.896353
0.413573
1.0446
0.879217
1.25908
0.879329
0.753636
1.4175
1.05307
1.01034
0.431032
167 142
156 95
168 338
213 337
487 8
21 416
60 486
47 351
119 38
175 56
408 75
258 199
281 121
159 229
461 482
440 476
346 379
165 51
127 226
419 303
331 267
460 391
390 274
494 108
240 9
212 438
52 34
45 253
385 180
351 25
397 87
461 429
74 493
372 253
141 65
244 361
117 456
185 215
20 79
273 87
194 402
159 384
20 497
5 245
326 127
400 95
200 130
383 436
275 204
355 478
46 245
154 134
340 109
226 37
56 128
322 402
357 283
40 78
78 486
209 179
97 391
256 292
359 408
237 231
401 217
459 344
282 497
105 120
135 460
457 125
9297.5
2
