70
7
0 0 0 0 0 0 0
72 73 59 63 80 39 83
55 14 84 81 16 25 20
77 44 79 35 51 79 76
51 20 37 22 15 68 12
70 71 90 38 11 30 15
38 96 17 87 21 25 66
18 96 73 54 26 14 74
53 83 45 93 50 91 60
44 24 76 77 80 37 78
55 36 36 71 55 10 99
81 35 35 67 60 54 45
71 73 17 25 27 89 68
16 49 25 12 33 94 77
50 73 18 68 89 71 79
52 91 38 49 16 42 70
62 24 23 16 15 67 23
47 30 78 99 65 13 36
49 45 47 81 41 48 57
44 78 56 47 100 25 99
96 39 24 29 43 37 99
60 79 28 64 100 46 21
76 42 99 10 45 53 88
26 78 27 72 69 39 15
44 28 25 76 59 66 17
64 10 25 63 85 27 64
55 32 19 78 48 77 80
79 71 98 77 87 45 97
93 61 38 89 71 63 43
75 60 15 80 96 71 34
40 15 77 99 19 32 97
15 47 82 73 10 78 83
39 82 89 91 49 75 51
54 56 18 97 10 64 21
59 87 12 32 40 50 98
74 11 86 20 78 93 41
93 29 56 80 19 94 22
71 67 10 76 88 52 93
71 82 55 30 68 43 32
42 49 91 49 37 27 80
75 14 95 71 100 70 89
30 26 82 65 30 60 88
54 10 30 47 72 97 37
34 41 36 40 23 39 78
92 10 44 93 59 17 28
95 18 65 77 87 62 45
61 85 36 52 99 51 65
23 11 77 35 63 74 63
31 57 30 46 39 10 59
39 44 41 62 75 15 35
45 55 38 59 66 36 26
35 54 81 85 88 72 62
95 40 90 20 11 11 35
89 68 48 30 42 56 50
90 64 68 54 83 99 60
11 49 16 96 76 22 33
23 45 76 54 84 78 53
67 23 72 24 63 83 91
79 33 14 51 83 79 22
98 35 39 93 16 99 91
76 74 64 56 38 75 51
37 27 84 21 68 70 64
97 83 29 38 29 29 45
91 90 89 69 23 20 11
66 16 33 51 74 51 69
36 40 38 14 98 41 92
76 30 56 72 52 41 30
29 47 58 81 20 50 34
47 71 15 36 22 38 70
80 87 97 63 26 64 49
1.12669
1.07282
0.969661
0.485763
0.422251
0.625842
1.014
1.45861
0.903068
1.22367
1.07876
1.49617
1.40774
1.48241
0.836359
1.42543
1.30387
0.758446
1.25108
0.386588
1.12427
0.46857
1.42315
1.48646
0.305312
1.2657
1.44793
0.841223
0.895989
1.2205
0.720823
1.41002
1.11632
0.773933
1.22762
0.67788
0.318509
0.724982
1.41402
0.757674
1.1838
1.39915
0.44792
1.13999
0.321986
1.35129
1.4629
0.461099
0.517348
1.26103
0.868156
0.467737
0.345147
1.21145
0.400473
1.16269
1.47917
0.439236
0.440413
0.994103
1.36394
1.37342
1.45129
1.45859
1.4308
0.772753
1.33357
0.331178
0.503023
1.25674
48 287
91 446
245 30
409 181
103 425
348 279
343 193
231 129
24 316
449 442
371 89
460 220
459 405
133 419
216 383
365 61
72 331
500 129
238 229
272 411
333 52
39 68
464 71
74 218
57 277
274 82
323 438
182 274
102 324
88 194
371 59
285 420
100 281
146 430
404 277
460 54
445 8
248 235
275 390
376 363
429 484
311 479
405 235
345 497
97 165
11 235
240 50
28 227
477 145
368 175
460 193
349 395
274 83
493 199
35 220
201 24
53 473
253 374
409 494
88 415
408 240
287 138
296 149
464 53
120 162
36 122
418 13
431 72
189 484
327 319
18795
1
