70
11
0 0 0 0 0 0 0 0 0 0 0
61 80 36 19 28 47 51 21 24 69 44
88 84 82 98 19 24 99 47 75 68 65
34 65 12 60 16 84 21 84 14 14 83
20 72 87 42 76 30 14 99 75 40 73
95 50 100 98 87 38 15 45 94 98 34
81 21 62 47 14 25 71 14 29 27 64
13 58 91 52 55 58 12 84 64 53 54
95 88 16 78 98 49 50 92 92 70 64
55 30 39 89 51 93 20 47 34 29 62
48 69 59 55 80 72 47 17 46 69 73
55 27 94 80 11 69 78 97 56 79 100
91 36 66 12 13 83 91 27 94 64 53
18 47 21 29 79 86 25 95 47 49 57
92 99 58 49 47 97 26 85 27 21 99
76 69 60 27 54 46 46 23 70 69 29
79 84 95 90 96 16 74 14 60 55 16
75 70 38 14 14 25 16 37 84 27 47
94 52 27 93 18 67 70 29 12 11 28
33 17 16 69 91 66 94 14 69 22 80
23 27 34 39 12 35 87 72 99 51 96
78 97 30 38 72 12 39 43 99 25 84
97 15 79 44 72 64 79 39 38 92 69
91 12 17 36 53 94 86 12 31 97 73
27 71 68 87 27 31 100 85 30 38 60
87 80 100 62 63 30 48 84 18 87 19
39 44 51 30 85 30 88 94 46 78 91
87 42 51 90 20 41 85 89 73 33 25
92 22 100 16 22 16 20 36 96 71 60
88 88 88 64 89 58 59 64 82 43 62
31 74 73 87 88 58 27 40 69 77 51
38 88 42 20 33 12 70 76 99 27 18
21 83 27 55 81 42 34 72 54 19 34
48 41 57 30 12 99 23 34 65 49 68
81 67 51 62 30 66 100 21 89 67 42
63 45 27 38 67 15 86 93 95 75 60
50 11 95 39 94 83 77 27 10 95 43
67 57 66 68 58 16 87 49 38 18 62
20 46 58 38 43 99 88 23 67 33 88
36 33 55 39 45 21 35 85 26 44 73
57 66 37 17 62 61 91 85 24 48 49
10 18 41 16 100 72 19 85 38 20 100
93 17 60 45 87 54 69 82 94 56 39
48 100 48 30 42 58 85 62 89 58 39
39 32 15 65 69 77 50 41 19 55 39
47 63 84 17 95 14 100 45 100 98 80
26 53 37 68 67 37 67 43 81 84 23
88 82 99 50 41 88 78 94 99 15 78
52 67 98 91 96 10 81 39 38 65 97
54 70 64 21 91 38 92 77 87 30 79
52 93 91 26 14 99 12 63 54 54 57
18 68 87 34 34 61 75 39 46 52 81
69 94 74 16 47 11 89 99 55 48 66
57 37 87 78 39 48 66 18 34 100 54
43 36 58 42 32 41 53 10 27 23 44
81 21 85 81 87 46 61 10 93 26 23
19 72 38 97 12 72 54 89 22 25 100
94 72 36 62 96 55 72 11 70 24 14
58 75 18 33 52 80 87 13 94 26 21
90 36 73 95 52 20 39 71 19 89 86
97 76 12 74 10 77 100 25 69 74 35
47 64 33 65 63 41 23 83 45 20 39
77 59 95 17 100 67 59 45 64 80 50
85 81 58 65 83 71 64 23 49 25 58
47 52 80 33 27 83 41 53 75 52 99
75 40 87 99 32 25 41 10 59 40 51
80 48 78 83 79 74 60 88 12 64 61
86 17 87 77 91 96 56 97 75 45 11
85 25 60 16 69 52 72 12 70 71 99
71 51 23 95 77 63 11 97 12 28 34
0.363596
0.289727
0.27223
0.200521
0.466521
0.393447
0.165902
0.199015
0.144405
0.433559
0.41999
0.290828
0.334147
0.441342
0.208291
0.150207
0.231273
0.242883
0.427509
0.135932
0.171937
0.152471
0.478756
0.276665
0.326045
0.309033
0.361703
0.425158
0.351207
0.133237
0.44837
0.279502
0.211274
0.180126
0.351048
0.134423
0.151517
0.46317
0.358124
0.399902
0.459178
0.298673
0.425271
0.409928
0.479873
0.183985
0.173943
0.241881
0.428236
0.145799
0.112331
0.408681
0.230218
0.382936
0.159091
0.259085
0.275865
0.42274
0.122066
0.457786
0.457422
0.242352
0.302661
0.290547
0.121439
0.482097
0.333723
0.347561
0.167775
0.49212
154 209
349 424
198 498
277 361
64 39
179 57
485 409
304 3
121 11
489 246
23 442
453 293
138 44
9 424
85 390
303 339
472 180
441 455
241 485
191 394
167 445
170 119
497 334
482 48
489 196
60 367
113 133
131 436
9 495
190 220
340 330
45 393
83 374
1 242
418 230
108 12
290 201
24 147
458 212
391 11
498 490
396 292
220 436
281 428
104 121
426 348
14 281
496 195
126 357
410 112
14 217
110 34
174 184
315 404
197 111
389 45
225 291
398 249
115 328
329 8
162 387
309 6
34 290
184 219
77 84
207 209
169 107
388 274
460 470
457 365
9715
2
