70
7
0 0 0 0 0 0 0
91 40 100 57 53 41 61
34 78 56 22 44 26 14
57 26 39 29 16 37 55
70 38 57 90 27 79 44
61 36 90 23 35 12 45
39 89 34 37 100 34 83
46 53 30 39 33 65 90
81 31 87 86 49 77 50
68 25 80 39 51 44 37
81 95 51 36 78 37 64
42 77 35 92 24 49 90
49 92 55 53 73 26 91
28 42 84 31 26 59 80
10 34 77 50 67 78 15
20 71 93 67 85 81 97
96 76 78 59 89 79 70
42 45 23 12 64 26 56
82 29 66 43 19 38 77
43 99 23 90 19 76 25
79 78 59 66 87 34 67
33 21 95 20 19 30 28
12 86 82 80 38 36 78
79 75 10 52 65 94 10
69 76 42 19 21 91 67
43 80 96 38 45 71 35
75 33 42 39 86 73 51
57 63 25 87 32 96 48
71 71 99 16 63 56 46
55 12 56 57 48 81 48
56 95 40 49 53 12 22
39 65 17 56 67 68 59
79 26 98 100 75 58 12
54 65 100 97 79 46 67
22 43 95 24 68 50 97
90 81 56 24 46 44 58
44 69 99 10 33 55 37
22 48 56 14 80 16 60
90 95 98 36 57 68 32
66 24 72 51 39 85 98
56 21 56 30 25 91 100
21 20 46 78 13 62 36
56 46 25 42 23 42 90
73 90 93 35 60 92 22
22 78 98 25 14 93 94
76 39 40 93 26 30 63
53 78 23 76 84 95 72
66 62 83 86 70 50 79
82 49 58 63 41 53 74
33 53 71 38 40 47 55
93 87 64 94 82 65 35
89 64 25 69 15 34 50
60 57 89 34 17 63 54
46 98 24 85 18 52 50
94 49 77 72 12 56 54
23 75 84 44 13 34 81
67 22 28 53 50 64 92
100 96 44 90 71 39 69
81 89 23 98 61 81 93
59 69 99 45 99 94 44
92 84 42 69 59 53 92
72 37 93 82 40 15 95
78 48 23 23 55 44 85
58 62 69 35 68 40 38
69 83 23 93 51 53 59
30 82 55 60 93 81 52
27 96 75 41 90 56 36
36 30 40 93 76 37 91
46 63 63 38 20 14 62
14 72 98 79 63 16 64
0.443558
0.971006
0.467374
0.602331
0.849849
0.464518
0.28922
0.548912
0.291317
0.969965
0.35009
0.853707
0.760912
0.761981
0.217788
0.766816
0.987657
0.621544
0.94306
0.90255
0.226906
0.930157
0.534228
0.923289
0.600035
0.670932
0.688959
0.297887
0.242958
0.6887
0.63164
0.846108
0.634004
0.360997
0.492833
0.885832
0.413122
0.872875
0.958146
0.74901
0.695653
0.596463
0.747262
0.336097
0.685097
0.271018
0.530357
0.595489
0.899069
0.934429
0.495346
0.960722
0.87917
0.989635
0.809814
0.631584
0.907537
0.49268
0.370024
0.415104
0.505358
0.300507
0.240753
0.582218
0.601573
0.226372
0.639436
0.50148
0.921322
0.964509
54 455
135 296
44 270
31 363
357 326
184 275
12 479
490 191
198 295
96 51
73 472
228 71
162 379
392 164
187 463
306 346
478 499
438 197
115 400
328 183
398 116
175 230
310 124
194 104
258 307
374 409
489 150
209 294
155 132
447 124
288 443
254 477
255 17
238 248
499 39
207 391
185 324
469 409
386 110
483 46
56 248
381 348
263 422
195 431
112 154
67 221
298 233
70 395
445 336
338 296
205 295
243 362
239 131
6 38
136 15
483 187
151 12
455 331
400 336
326 6
478 441
135 161
225 390
313 441
182 341
194 220
181 98
279 357
209 472
483 122
9830
2
