70
11
0 0 0 0 0 0 0 0 0 0 0
59 13 28 29 27 89 51 68 47 98 86
68 16 93 96 67 27 77 34 34 23 64
51 95 96 34 50 64 60 43 14 87 67
28 65 79 60 71 78 30 53 74 46 84
26 27 48 56 73 47 13 30 65 97 26
42 13 11 100 91 51 37 80 21 85 19
91 67 46 15 29 88 42 98 12 63 99
87 30 41 99 69 27 11 54 95 18 94
30 20 91 54 69 70 55 60 10 26 83
53 84 10 87 90 42 33 84 54 42 83
21 98 35 26 95 53 93 46 85 67 18
60 99 34 54 93 13 70 62 41 55 57
13 40 69 85 62 91 37 19 12 47 27
64 89 44 58 74 41 73 51 27 26 76
73 52 84 21 79 81 45 42 25 23 69
93 54 32 31 74 79 97 96 78 52 30
31 75 80 40 65 93 99 54 60 71 18
90 12 56 14 14 98 42 53 60 48 47
31 50 96 88 72 65 12 54 51 40 79
89 56 49 94 76 72 77 34 36 18 33
19 92 74 80 82 12 70 34 60 25 65
37 81 72 27 78 35 39 27 43 89 77
88 18 22 65 14 49 75 14 73 12 22
19 12 88 84 35 21 97 60 66 96 67
95 55 55 88 46 40 20 11 60 96 31
20 83 93 61 33 28 15 78 88 35 72
68 57 80 42 34 89 46 65 12 51 21
10 22 30 90 36 12 54 51 62 37 13
19 94 78 80 84 29 42 68 68 23 20
55 11 97 60 100 41 58 38 31 13 61
23 85 37 43 34 24 26 69 30 33 84
22 58 31 76 98 56 87 82 31 85 30
100 57 37 73 93 73 94 85 88 38 57
44 17 84 69 95 34 60 56 86 61 62
92 81 28 37 26 66 93 95 100 22 90
31 55 47 63 40 92 38 98 43 54 57
24 97 81 88 33 11 89 57 59 45 88
20 92 86 57 92 24 92 20 71 40 37
98 11 94 91 33 51 87 74 49 87 31
36 62 39 62 92 89 42 37 94 14 14
54 40 36 37 30 30 30 18 51 32 25
45 20 51 93 91 57 20 61 44 91 48
63 22 73 44 90 47 99 68 84 33 48
84 57 89 27 23 45 51 39 28 29 46
92 92 43 90 59 21 80 58 45 97 32
20 44 36 16 88 28 34 66 52 75 47
92 13 32 74 45 83 79 61 55 94 99
80 79 76 67 34 32 20 14 51 22 92
21 89 17 15 39 27 83 83 80 41 25
75 85 31 43 25 45 23 17 87 39 88
42 89 17 91 94 51 37 28 59 95 96
14 83 48 96 45 67 62 33 91 98 49
99 45 73 73 75 41 83 67 40 54 92
72 86 100 30 91 40 89 36 43 46 16
43 61 96 46 14 72 98 36 85 43 43
97 43 49 48 21 80 99 74 61 37 69
19 93 60 41 15 29 87 84 23 94 24
55 37 60 97 34 90 71 24 41 33 58
85 29 52 22 80 60 50 85 73 58 52
14 68 48 81 17 32 40 22 50 21 84
14 40 83 89 68 99 25 26 80 98 79
79 42 46 50 89 95 72 98 39 89 70
98 85 94 44 80 48 82 33 49 72 45
86 99 67 39 79 67 39 83 77 32 47
24 97 98 25 37 56 49 23 27 12 51
52 35 58 80 64 69 14 29 99 45 54
41 57 21 87 75 29 19 41 60 24 94
82 61 43 18 21 18 33 42 68 15 91
30 44 72 78 50 11 62 16 50 43 63
0.211485
0.178343
0.259466
0.185831
0.242493
0.399977
0.456139
0.303642
0.172225
0.421842
0.172759
0.320146
0.241188
0.479334
0.287063
0.370669
0.333002
0.117399
0.162037
0.386513
0.22782
0.237234
0.11769
0.459704
0.10268
0.416487
0.313689
0.438201
0.437861
0.407467
0.459833
0.425719
0.357283
0.274408
0.132405
0.435757
0.293125
0.231559
0.2753
0.38508
0.385908
0.178739
0.114068
0.486335
0.200734
0.414127
0.255266
0.446924
0.336357
0.292499
0.106324
0.299319
0.361666
0.225154
0.148776
0.461536
0.430792
0.431943
0.296027
0.346403
0.127645
0.202044
0.14009
0.150115
0.248402
0.261619
0.350283
0.121895
0.141412
0.498564
165 411
248 356
387 306
465 410
407 428
100 302
157 197
411 390
121 442
351 442
360 155
344 429
78 185
138 396
234 407
381 482
284 334
453 54
73 375
297 115
300 451
449 129
265 467
429 311
434 343
175 424
209 149
44 226
345 98
217 248
344 7
243 115
391 472
61 26
144 146
441 24
88 430
290 372
115 201
269 217
265 200
444 138
220 263
348 67
486 386
60 372
27 95
349 471
437 141
58 255
324 416
176 385
324 18
160 195
406 495
447 276
108 254
420 379
215 320
51 395
30 66
453 221
397 412
231 144
91 170
118 452
278 253
97 190
116 41
412 194
6398.33
3
