70
3
0 0 0
70 60 11
27 44 49
92 90 41
23 54 19
99 23 66
64 71 88
36 19 68
16 10 56
99 37 77
84 39 30
53 31 85
59 98 88
96 72 19
57 78 14
36 94 83
26 32 87
92 78 75
50 99 89
75 83 23
72 56 51
54 87 53
73 19 63
39 44 37
79 38 41
28 50 96
88 88 25
27 29 78
94 20 95
13 94 95
60 85 82
66 30 100
20 26 83
86 50 66
35 21 91
17 78 94
50 70 86
20 51 10
42 24 70
42 49 28
24 32 60
39 77 48
84 87 97
65 71 75
28 79 18
55 38 77
60 16 37
71 28 51
54 61 34
45 34 95
53 63 96
81 28 96
63 87 67
41 58 81
26 57 69
73 10 84
11 70 46
32 68 64
43 15 100
16 33 13
75 55 11
83 10 84
49 49 42
77 33 72
95 35 67
78 39 31
82 72 55
53 52 49
21 94 95
76 81 41
0.120474
0.170519
0.174586
0.469969
0.178907
0.381402
0.279301
0.100386
0.204602
0.377329
0.493683
0.410252
0.444229
0.422711
0.333375
0.456732
0.49437
0.108999
0.413644
0.379409
0.248501
0.414127
0.265123
0.302654
0.272503
0.449482
0.317122
0.321486
0.405663
0.434539
0.326726
0.330793
0.492421
0.451111
0.261533
0.135344
0.490672
0.316177
0.127579
0.166992
0.287393
0.395281
0.492954
0.220164
0.493473
0.404524
0.257103
0.17464
0.386322
0.192043
0.25463
0.105661
0.377762
0.402947
0.165381
0.313283
0.245567
0.385036
0.428508
0.468328
0.109287
0.101849
0.107525
0.155858
0.153657
0.218701
0.110957
0.336295
0.191118
0.476998
249 169
377 374
49 229
433 123
61 51
140 311
283 370
214 380
416 208
453 368
375 200
33 242
65 245
422 469
175 24
20 411
209 62
239 143
489 319
405 97
242 489
3 304
173 352
234 230
178 270
411 96
9 132
57 372
475 343
470 341
373 352
281 123
275 280
351 135
152 297
316 354
169 217
175 223
225 22
267 471
427 469
233 179
424 160
401 469
139 390
70 38
150 191
405 111
316 28
71 232
56 68
341 154
204 308
224 397
70 232
11 306
190 59
426 40
2 497
416 238
492 350
260 391
154 271
289 89
423 410
464 102
423 100
493 290
437 362
212 442
9775
2
