70
3
0 0 0
44 67 91
63 60 94
57 89 52
72 91 28
94 94 25
52 85 83
24 70 95
63 45 15
100 62 42
77 33 34
97 58 83
45 24 98
49 61 73
27 73 90
66 76 84
73 42 68
95 52 53
85 20 14
80 19 15
53 75 72
16 41 39
96 15 78
59 22 79
50 33 67
42 81 51
68 22 93
72 100 86
71 91 81
44 66 19
64 71 34
69 44 83
32 13 72
88 60 12
83 70 24
63 25 49
30 71 34
83 75 96
70 37 28
49 13 83
88 10 16
87 90 32
88 19 29
59 34 66
29 84 36
53 55 97
82 56 92
42 47 100
13 87 59
54 69 18
77 81 86
38 17 69
40 17 58
44 54 46
12 12 65
57 17 23
100 48 44
19 43 88
25 23 87
57 90 18
72 41 61
10 37 30
33 72 78
68 47 24
55 44 19
94 80 67
96 29 24
56 75 57
42 39 68
85 96 90
1.40653
1.01449
1.35925
0.853239
0.691144
0.818892
1.36114
0.437494
1.42033
1.3221
1.46077
0.714189
1.04428
1.4411
0.378962
0.942724
1.14552
0.374106
0.930508
0.669176
0.318348
1.15078
0.654499
1.33507
0.931472
0.579717
1.13652
1.15519
0.748592
0.505933
1.30643
1.19334
1.44241
1.40016
1.00514
0.893965
1.17667
1.21491
1.24488
0.506306
1.46112
1.33477
1.189
0.561753
1.28303
0.909861
0.396026
1.28856
0.369094
0.951814
1.33407
1.38032
1.43508
0.618269
0.640219
0.616795
1.31522
1.35194
1.26495
1.29895
0.807845
1.31677
0.772094
0.96844
1.25465
0.347826
1.10265
1.33993
0.3462
0.860652
408 113
393 44
488 16
343 184
118 291
368 342
297 144
86 278
24 493
295 0
332 318
196 355
164 373
96 269
175 193
232 39
445 426
234 351
190 418
98 92
4 95
304 314
1 166
173 465
20 370
1 222
302 297
321 434
437 78
78 132
257 107
58 262
378 466
394 309
454 372
343 294
118 282
184 156
89 377
378 166
230 195
172 238
423 315
226 256
66 207
260 218
204 259
316 185
412 250
433 374
479 247
439 35
134 257
86 418
30 442
379 452
488 408
462 371
105 139
132 491
237 398
253 247
439 249
407 40
281 324
399 91
408 458
440 36
253 57
73 266
4901.25
4
