70
7
0 0 0 0 0 0 0
82 20 55 100 74 16 61
100 94 19 81 45 21 100
50 42 66 33 75 78 66
59 97 33 17 100 65 41
81 76 18 60 34 45 29
35 40 13 42 47 86 60
65 31 92 11 85 70 69
80 69 91 54 63 53 44
93 25 54 64 20 14 10
48 54 87 10 50 73 13
66 30 34 75 69 51 68
26 61 49 11 77 14 51
90 87 33 90 41 18 18
80 85 88 37 39 41 39
43 30 72 72 100 74 41
34 57 91 90 63 31 38
98 50 82 97 19 46 46
32 31 23 53 17 31 58
20 83 97 94 86 39 19
15 42 92 95 45 88 56
45 17 65 62 68 49 95
98 64 37 61 99 24 47
33 54 60 34 77 50 47
49 57 39 14 37 79 55
48 44 66 43 65 47 20
69 100 80 85 86 17 11
77 65 66 69 13 35 41
81 33 22 15 60 98 24
78 87 36 33 31 40 78
62 13 47 92 13 45 54
18 28 25 68 93 32 54
45 15 43 82 57 34 41
80 61 56 63 29 55 14
59 23 44 99 28 19 97
86 27 74 63 92 83 46
96 87 80 83 78 16 12
98 13 79 55 41 27 55
26 73 79 24 58 59 33
89 63 26 89 93 58 95
60 32 66 38 60 94 39
77 77 83 26 50 15 66
13 27 10 19 28 40 92
70 46 96 35 67 20 28
80 29 39 10 66 98 76
21 29 86 93 87 74 76
48 22 34 41 17 48 16
70 14 90 98 72 68 45
81 97 61 36 70 70 20
86 66 18 40 16 21 35
56 65 49 56 76 47 24
37 13 55 10 61 43 15
83 22 70 90 27 39 71
65 32 36 10 14 68 12
35 91 76 48 82 17 47
76 13 33 10 43 61 19
75 92 34 46 50 19 24
11 77 74 34 44 45 60
84 25 78 56 41 56 64
19 22 52 26 46 30 65
49 17 63 89 93 86 90
79 42 71 24 62 91 43
76 14 24 21 88 19 44
67 36 38 64 18 13 60
48 46 36 72 35 28 15
70 33 42 11 24 25 78
43 82 98 71 72 57 20
63 86 58 73 18 65 96
20 23 23 15 57 87 68
60 56 48 45 84 55 80
0.369536
0.990175
0.579533
0.461425
0.59938
0.422573
0.424447
1.31309
1.18819
0.643628
0.956957
1.41389
0.625746
1.25696
0.932972
1.00303
0.971585
0.416753
0.327271
0.675341
0.71836
0.980917
0.707392
0.398575
1.37071
0.873819
0.646063
0.883007
0.924942
0.915453
0.478909
1.01889
1.31319
0.529847
0.759002
1.35131
0.990112
0.406825
0.400796
1.49793
0.446598
1.16507
1.23662
1.33573
1.10116
0.599241
0.416827
0.910773
1.25141
0.543239
0.539567
0.324745
1.26884
0.537355
1.26949
0.723631
1.22383
1.32196
0.880092
0.343766
0.369626
1.46103
1.35292
1.21318
0.859986
1.08434
1.45688
0.917825
1.45051
0.776941
107 294
500 488
340 181
21 2
324 418
327 115
371 480
76 117
25 127
407 65
358 19
430 471
245 472
70 249
433 223
316 148
42 277
198 154
330 70
421 226
443 144
393 195
279 298
40 138
8 251
30 95
87 409
283 68
4 395
441 270
80 342
97 314
157 86
407 265
484 341
183 417
246 94
338 122
2 89
18 459
284 162
371 55
248 419
262 252
102 232
168 19
74 180
460 424
498 301
248 458
239 470
278 362
198 373
438 494
294 147
404 402
254 287
210 413
2 198
51 377
341 40
6 202
242 266
351 481
378 445
288 307
315 182
144 189
67 0
327 43
4550
4
