70
5
0 0 0 0 0
95 93 34 68 59
28 72 39 88 28
87 20 72 47 39
73 46 55 61 74
44 42 86 43 83
17 86 20 18 32
91 33 61 81 27
71 41 48 42 66
64 99 100 49 67
80 73 36 72 42
65 66 33 34 19
28 87 44 11 89
65 56 87 85 94
26 13 54 99 86
79 86 39 84 32
66 57 33 16 80
30 74 91 73 100
75 51 11 91 85
55 85 50 77 75
98 59 92 96 21
31 30 56 37 65
18 94 16 21 90
34 90 55 46 38
45 16 45 60 55
52 100 94 55 58
45 34 82 78 13
100 33 54 39 26
99 27 65 80 90
48 83 80 83 76
78 21 29 70 59
23 99 96 74 97
50 66 58 86 77
57 68 74 29 93
64 34 73 44 19
48 73 73 100 84
27 27 69 86 97
66 21 36 22 18
45 43 95 67 44
31 94 82 42 22
89 32 50 89 98
88 57 38 16 44
13 43 21 14 31
100 59 94 79 33
10 26 94 67 44
61 36 42 82 52
55 84 39 41 79
19 23 37 39 27
66 86 42 65 83
11 12 45 78 88
66 59 13 70 10
21 52 71 60 90
67 79 37 67 19
47 70 17 18 16
52 25 93 70 82
48 23 98 36 41
98 70 17 36 57
91 38 87 96 85
23 66 41 60 99
41 95 21 16 91
20 11 70 27 82
90 17 47 82 60
78 77 59 58 18
87 25 78 12 83
18 68 40 80 54
60 97 58 64 40
54 67 78 46 37
80 43 81 64 44
19 57 18 48 49
95 54 26 79 29
0.831659
2.0451
0.674643
1.17959
1.99039
0.748412
1.94239
2.15985
1.09211
1.22455
0.616076
0.629995
2.03168
0.910308
2.39957
0.803882
0.714514
2.48439
2.36552
1.01722
2.39853
1.41449
0.91535
2.09423
1.63363
0.587219
0.628454
2.2029
1.76564
1.57226
1.52865
0.728228
0.979207
1.85914
1.94596
1.17177
1.37566
1.03153
0.764747
0.56208
1.07823
1.40554
1.43201
1.5253
1.59701
1.48824
0.503038
1.7812
1.43046
0.958922
1.92831
1.45702
1.7424
0.69173
2.14835
2.19055
1.61407
2.01571
2.47196
2.21209
1.55232
0.669574
0.960801
1.1024
1.96525
1.83857
1.4169
0.623734
0.511316
0.673761
414 267
373 93
381 198
14 133
24 402
57 351
260 62
101 237
55 299
452 270
225 326
477 215
340 204
451 204
129 75
472 180
11 477
68 99
72 305
199 345
204 396
456 30
201 492
347 236
406 27
117 407
169 195
77 52
319 16
58 337
455 394
275 390
56 161
279 389
70 90
40 497
21 48
215 10
194 225
272 57
55 354
379 88
292 419
276 8
117 432
344 399
143 420
226 230
471 222
201 48
219 414
50 72
190 402
103 74
319 160
211 227
86 243
9 174
126 17
256 200
286 84
167 404
483 225
401 262
95 166
457 5
419 277
471 463
454 289
110 118
6523.33
3
