70
9
0 0 0 0 0 0 0 0 0
66 77 45 46 51 45 61 43 20
14 48 48 15 26 20 65 17 76
44 18 39 36 52 37 54 65 37
26 74 92 57 41 91 88 34 74
56 82 89 70 92 26 34 39 68
60 62 88 46 49 20 88 63 30
89 25 26 97 80 26 36 51 44
73 46 41 19 68 16 32 64 75
100 35 78 30 62 12 85 37 55
31 44 35 45 75 68 63 84 36
83 100 53 79 62 90 11 83 58
87 96 92 85 91 54 57 93 45
10 14 80 16 12 44 38 49 65
80 39 48 69 33 25 63 37 32
96 54 93 10 18 66 16 80 60
92 97 13 15 53 16 73 98 65
26 24 45 45 51 49 67 91 31
16 86 57 80 38 97 49 69 39
60 59 70 100 68 13 26 84 80
57 48 66 12 96 50 83 92 34
23 91 60 41 76 100 29 79 22
74 53 38 43 66 68 45 41 94
73 70 96 27 19 78 39 31 64
40 33 84 29 62 57 61 58 73
51 38 70 77 42 96 30 23 38
57 16 87 72 64 57 72 76 91
96 49 98 90 45 84 35 87 100
78 89 62 40 50 31 75 47 57
52 15 82 35 72 48 70 79 67
50 73 61 42 63 68 90 15 10
34 99 75 46 59 29 91 73 90
87 41 95 86 62 36 52 97 85
69 80 52 41 31 88 61 11 22
50 77 74 56 60 37 67 78 98
76 56 37 41 72 58 49 54 34
45 11 34 43 86 19 62 95 51
13 75 57 63 99 15 32 20 38
89 23 33 49 66 98 68 43 25
80 22 80 22 56 63 100 77 66
16 22 42 84 63 47 45 51 94
65 27 19 32 18 32 46 61 61
25 91 30 85 52 25 22 45 92
89 35 81 46 31 11 24 62 69
10 50 77 22 96 64 21 61 50
79 64 42 42 80 63 39 36 43
64 90 34 21 93 52 98 72 43
92 37 65 95 96 41 56 85 48
64 62 75 81 37 89 56 81 56
58 59 88 92 37 20 58 53 65
66 45 96 89 12 24 13 47 32
18 31 64 42 77 63 98 65 59
90 50 11 52 53 30 66 10 12
76 53 71 52 65 97 77 53 22
57 51 76 69 31 81 28 55 90
92 54 47 19 78 13 85 38 76
38 20 52 82 44 100 30 13 58
58 25 74 29 92 67 31 85 23
78 37 18 45 48 29 29 95 58
17 70 51 11 29 39 59 62 57
81 18 69 70 32 78 13 62 52
48 60 49 85 60 27 45 31 63
99 19 86 83 60 59 64 65 31
39 39 57 79 58 75 82 35 48
42 34 16 34 15 79 24 74 72
81 45 95 32 55 19 48 38 54
65 87 69 27 86 49 54 53 54
54 89 81 29 71 65 48 27 33
60 68 36 84 15 63 71 41 68
36 31 52 87 92 52 70 14 73
1.75169
2.43111
0.948849
0.666169
0.784794
0.827826
0.530212
1.04462
2.47404
1.57086
1.00878
0.931032
1.97199
1.44029
2.01836
1.14729
1.8845
2.02003
2.06701
2.16052
1.38986
1.07134
1.86683
2.2391
2.31351
2.27427
1.36574
2.34867
1.31877
0.531508
2.13757
0.558417
1.97918
2.22668
1.47962
1.68067
0.971089
2.45974
0.99042
2.08699
0.975189
1.00815
0.797816
1.95134
2.09715
2.37005
1.46064
0.660082
1.35854
1.80969
0.595262
2.06266
1.31836
1.08778
0.788688
0.537156
0.946928
2.35902
0.699941
1.12164
1.24118
0.760483
0.665994
0.916109
0.60782
1.2843
0.88327
2.19517
2.21571
0.733408
159 234
115 219
431 468
444 398
402 105
410 473
356 304
223 67
186 267
280 186
164 122
112 39
66 279
253 165
127 24
382 46
173 65
179 376
90 132
496 458
100 302
256 35
393 373
172 142
186 183
288 241
88 106
438 364
68 424
479 486
349 413
184 28
143 21
244 271
256 127
240 224
228 483
59 326
275 373
385 478
103 384
59 490
226 383
481 455
85 1
22 93
310 53
130 277
76 252
288 18
28 53
304 190
225 235
193 398
136 95
278 415
5 435
302 371
459 287
320 405
457 249
221 354
271 340
76 74
217 67
28 284
114 163
61 46
8 356
216 329
6371.67
3
