70
5
0 0 0 0 0
55 30 91 24 44
45 37 87 70 83
77 67 82 61 92
97 85 19 100 94
23 94 78 63 84
30 84 48 18 97
13 38 99 32 31
74 30 60 89 38
20 40 93 21 95
63 80 52 10 93
80 92 96 40 13
87 62 93 79 64
10 32 23 57 77
85 96 82 97 63
52 45 45 68 26
11 84 32 91 37
94 77 66 16 80
32 64 92 74 67
81 63 62 47 44
12 38 68 76 72
60 39 90 58 94
74 44 51 29 76
28 93 36 59 57
19 49 87 32 98
79 55 62 22 38
31 79 69 94 71
45 30 94 17 93
44 72 91 13 29
35 13 20 37 67
81 58 48 71 54
93 91 20 96 70
34 23 90 37 16
68 21 60 23 41
64 21 41 22 35
19 22 94 25 28
33 92 63 81 59
49 24 56 57 92
42 30 29 99 82
46 55 63 59 33
41 61 72 55 26
70 49 76 11 63
63 62 60 96 43
91 19 28 24 16
96 85 46 84 89
95 72 41 34 66
66 26 76 98 73
63 73 12 58 50
33 41 92 40 41
38 40 45 50 43
79 83 38 20 69
21 76 98 71 29
22 69 48 41 28
57 88 27 16 12
77 87 62 68 62
69 82 24 11 54
94 85 27 32 64
80 12 46 67 80
53 77 95 19 21
66 37 75 18 19
42 88 28 41 95
37 45 70 47 44
24 46 36 51 23
28 38 76 23 93
62 34 39 50 12
95 21 58 61 98
13 73 54 42 69
28 84 93 66 64
27 82 96 100 36
86 24 93 67 63
0.935353
0.900813
0.980663
0.347908
0.753215
0.514092
0.711104
0.515954
0.316422
0.245608
0.986347
0.650915
0.382345
0.367863
0.829371
0.375401
0.696986
0.220539
0.568779
0.908443
0.394689
0.703773
0.512792
0.44941
0.578988
0.436844
0.395844
0.474978
0.829646
0.705106
0.618205
0.918572
0.775013
0.87859
0.633717
0.328111
0.992332
0.828076
0.94151
0.395145
0.682913
0.889329
0.651166
0.585103
0.469034
0.928692
0.28254
0.492818
0.838725
0.832523
0.448241
0.384723
0.474667
0.803496
0.735382
0.721124
0.525338
0.229704
0.636726
0.569528
0.445239
0.889445
0.741811
0.252518
0.622777
0.250731
0.298583
0.801512
0.932515
0.750424
65 278
406 476
109 383
63 189
70 93
158 494
251 425
457 471
186 38
461 445
228 325
186 169
19 197
272 267
412 13
221 185
233 225
24 394
395 205
346 153
90 433
387 303
73 328
408 352
341 244
263 241
208 11
176 399
215 273
333 124
475 199
392 380
108 199
337 258
441 183
161 199
41 316
428 455
335 90
225 491
490 463
47 144
467 486
86 175
336 352
57 97
375 371
228 59
322 60
58 314
262 485
138 47
465 319
215 46
59 475
190 460
197 28
140 137
332 232
224 231
314 478
467 497
425 203
64 121
340 233
406 227
109 462
85 84
275 99
217 76
6455
3
