70
11
0 0 0 0 0 0 0 0 0 0 0
48 78 100 88 94 89 21 41 91 48 90
81 37 43 21 42 59 92 41 56 23 46
75 22 66 31 60 97 99 94 77 43 26
84 90 18 93 73 43 85 66 27 37 54
65 41 94 42 45 23 18 80 40 57 15
75 42 22 42 90 86 94 61 40 61 72
97 64 85 40 99 63 53 32 88 44 62
90 16 23 18 63 89 22 76 39 83 59
58 66 67 97 40 48 20 30 97 38 18
37 15 21 35 55 12 46 66 25 93 79
88 47 52 78 39 96 67 59 17 66 57
75 73 50 81 80 15 65 14 55 43 55
91 78 54 59 85 99 25 99 32 40 56
79 58 31 36 41 30 83 23 11 31 98
66 69 31 16 57 46 12 98 24 25 73
72 42 40 20 69 58 12 33 45 92 59
96 58 85 54 98 17 14 12 42 78 56
12 31 80 61 92 14 52 67 37 60 75
47 43 22 98 57 54 13 89 59 95 100
63 34 26 66 37 18 78 72 79 47 93
30 45 45 30 28 80 23 14 34 24 80
88 70 59 85 80 26 51 42 31 15 65
25 61 32 57 61 41 20 99 57 17 14
61 18 42 82 16 16 41 80 28 21 89
11 94 70 28 31 31 69 20 84 49 83
75 35 44 56 91 54 71 87 11 99 91
22 56 98 22 88 45 20 38 45 84 26
19 94 91 20 99 17 63 43 82 97 30
76 84 87 20 81 32 28 64 27 64 48
93 79 28 31 30 23 90 21 82 62 75
38 27 55 50 53 18 41 85 91 36 27
71 91 100 62 63 97 70 88 29 84 15
25 46 68 74 94 19 13 49 90 78 47
79 19 71 10 84 92 64 57 38 99 68
62 81 66 82 36 62 86 29 20 66 72
22 38 66 66 77 77 47 66 29 70 46
100 88 21 100 90 20 53 65 48 90 85
86 45 84 69 16 14 48 89 65 69 45
10 30 23 60 92 41 78 89 72 45 23
22 48 90 59 29 75 86 91 59 100 52
61 28 74 72 26 35 58 21 37 10 82
21 25 71 52 28 52 27 97 67 65 12
63 10 85 40 57 94 33 99 42 49 20
81 46 76 44 38 80 54 17 16 68 21
58 41 58 78 58 76 71 15 97 27 38
74 14 70 89 85 21 42 51 45 76 32
99 99 42 32 63 52 89 46 43 100 38
22 37 40 81 82 59 21 47 52 93 37
92 86 79 25 47 54 20 25 77 90 32
26 29 98 82 51 35 46 91 92 71 33
17 24 95 84 37 79 76 100 70 60 55
50 32 30 27 45 98 34 61 95 38 81
45 95 95 73 19 43 78 41 100 46 55
72 87 29 77 25 87 29 74 73 26 40
75 36 89 41 86 43 13 20 92 64 15
52 87 44 54 100 44 36 10 60 56 38
21 15 30 22 75 34 56 17 95 41 12
13 28 30 64 45 91 52 80 63 35 91
99 28 59 31 56 50 73 96 95 28 19
64 72 25 82 54 63 91 38 68 44 10
40 21 99 87 23 73 98 45 96 57 72
39 35 46 82 59 46 86 46 10 28 79
68 55 33 53 49 87 68 82 28 72 100
64 38 98 63 19 19 53 41 63 59 31
78 71 25 26 18 95 33 88 13 95 48
21 18 58 65 92 70 84 97 64 60 32
34 79 40 59 70 55 53 74 15 34 43
28 68 94 45 97 72 56 56 88 51 11
62 100 87 36 56 94 84 66 69 24 30
0.585607
0.836397
0.498217
1.00757
1.45108
1.104
1.42373
0.556012
1.47897
0.964488
0.95504
0.45617
0.552066
0.455078
0.798735
0.590546
0.335845
0.747769
0.410663
0.745438
1.3816
0.401804
0.847888
0.529958
0.318547
0.497272
1.47745
0.998032
1.32225
1.07682
0.843822
0.952693
1.05377
1.36969
0.337254
0.665365
0.554559
1.09406
0.858438
1.34432
0.811433
0.550412
1.28774
0.897404
1.16993
1.48444
0.432777
0.413412
0.685981
0.820999
1.47666
1.23865
1.46998
0.469742
0.539749
0.951063
0.336608
0.364965
0.768863
1.40989
0.808589
0.561951
0.526471
0.729968
1.18242
0.766606
0.548949
1.42363
0.430448
1.05836
325 417
483 436
308 277
313 72
475 330
40 158
252 210
497 288
351 495
242 362
27 426
211 72
195 426
137 342
231 340
340 247
390 439
19 242
414 337
442 46
186 14
419 387
252 422
459 338
291 116
307 262
194 5
97 21
118 132
290 418
167 180
87 250
131 6
36 343
238 69
405 169
260 86
217 424
412 111
81 437
7 369
176 479
29 274
272 402
15 449
368 35
89 251
470 379
328 483
167 253
160 63
206 150
139 100
48 75
401 290
77 247
218 141
2 14
73 338
262 302
427 227
493 338
258 173
451 46
90 349
7 409
238 408
455 319
117 208
373 321
3833
5
