70
11
0 0 0 0 0 0 0 0 0 0 0
79 20 27 80 55 39 41 39 97 55 11
63 12 90 73 63 89 17 84 60 56 61
79 10 58 19 71 46 50 92 92 81 10
39 23 87 28 70 97 95 35 47 32 55
93 89 74 41 39 75 66 71 54 39 24
42 53 82 45 66 26 86 74 54 59 23
55 20 76 24 79 82 26 61 89 95 66
24 94 45 90 88 52 64 15 31 85 35
83 68 60 23 36 81 19 12 77 78 34
59 56 66 19 36 95 64 37 45 98 64
27 31 20 39 42 37 58 48 47 91 41
79 80 90 83 49 91 64 42 23 27 86
90 32 29 82 24 13 66 51 53 61 61
31 57 38 22 77 15 15 33 41 19 82
48 92 28 50 32 99 62 83 35 51 55
23 37 98 68 93 72 61 16 85 88 95
33 92 75 31 77 50 37 30 28 97 20
92 100 18 20 43 56 35 71 73 20 36
20 58 94 60 13 36 22 82 86 97 32
32 30 44 70 91 60 74 37 54 98 79
61 91 38 35 79 59 65 97 21 36 25
57 20 76 45 63 92 14 97 25 54 27
10 11 12 45 22 35 23 53 71 97 62
49 70 68 27 61 53 82 79 38 99 12
43 35 77 19 49 44 12 87 42 11 28
70 16 31 76 85 65 83 76 51 97 37
33 59 23 100 97 32 96 100 83 52 53
89 91 64 45 55 92 56 41 73 84 58
88 76 81 12 81 43 68 24 17 82 36
28 57 31 25 65 13 78 24 22 75 86
11 50 57 47 61 26 94 14 87 93 100
39 52 26 96 92 84 62 51 38 94 45
88 83 31 99 77 64 98 55 71 80 43
25 37 73 89 68 41 23 64 76 33 79
36 90 77 44 92 10 42 18 78 25 54
44 74 98 10 16 37 79 48 40 50 94
23 66 98 70 79 42 39 21 40 14 89
89 30 81 65 39 90 54 62 20 71 76
93 87 44 52 75 100 24 68 41 36 43
37 24 45 69 96 18 67 37 24 93 11
26 18 40 35 68 47 44 61 57 26 25
18 54 83 35 31 26 98 99 48 39 20
49 26 22 28 27 53 72 21 100 16 99
59 42 66 75 33 90 21 23 43 11 14
19 23 51 63 75 17 66 27 25 84 87
91 85 26 53 100 50 37 33 65 75 40
83 94 45 30 65 30 43 98 63 70 76
62 66 48 96 90 89 57 84 30 13 60
84 45 46 41 44 25 67 39 45 83 76
66 60 76 93 41 22 57 45 99 70 51
75 65 54 76 26 10 11 47 43 48 38
37 76 84 14 99 33 24 91 99 82 90
24 62 42 25 72 87 72 70 90 65 57
96 58 58 13 79 30 82 95 75 41 19
29 93 79 69 30 19 85 22 55 47 59
96 21 39 26 45 49 71 98 10 95 29
29 38 58 86 79 37 89 49 89 86 53
46 73 15 86 80 99 37 90 56 10 71
60 61 54 26 40 99 17 36 75 61 25
65 20 61 30 30 79 16 94 70 91 68
52 83 73 93 65 12 56 39 67 69 74
75 51 95 23 75 88 24 95 89 83 29
37 47 29 61 21 13 39 11 24 72 90
45 67 47 91 17 34 52 89 10 80 65
30 57 12 79 76 68 18 77 51 26 94
79 81 76 21 42 98 31 70 16 79 74
95 100 78 13 54 52 88 40 62 37 31
28 97 10 30 14 32 26 52 42 31 46
77 48 64 56 29 83 84 99 86 96 79
0.341853
0.462664
0.487691
0.133769
0.305276
0.421589
0.204956
0.250475
0.220693
0.274861
0.314243
0.132056
0.24444
0.216878
0.181634
0.450897
0.427461
0.183288
0.301067
0.206985
0.475959
0.416185
0.262476
0.210894
0.210077
0.144988
0.437399
0.435472
0.171407
0.468226
0.141309
0.267808
0.363893
0.285988
0.311632
0.302974
0.278957
0.359129
0.275334
0.244661
0.334059
0.253647
0.324607
0.207599
0.421088
0.328099
0.24501
0.357053
0.154339
0.470748
0.20017
0.181426
0.235701
0.237656
0.178572
0.149393
0.434678
0.428891
0.457776
0.32633
0.176343
0.408989
0.419681
0.127185
0.381008
0.176428
0.477527
0.129087
0.235086
0.234317
54 103
496 31
408 455
142 12
171 161
304 304
118 63
233 147
244 478
314 259
381 273
197 343
400 178
49 427
93 103
32 38
198 308
291 413
214 460
25 116
360 339
138 318
435 101
291 42
287 275
367 189
446 107
280 54
265 354
95 235
28 430
444 293
90 129
449 33
318 201
299 43
266 182
279 15
104 214
179 42
217 4
40 147
475 482
23 78
382 133
97 423
444 142
496 36
18 25
7 477
377 214
13 442
493 267
74 144
27 270
499 223
119 477
311 475
189 313
262 285
334 75
20 39
468 360
435 56
349 109
333 417
111 148
388 486
212 379
404 270
4783.75
4
