70
11
0 0 0 0 0 0 0 0 0 0 0
90 31 62 33 74 99 32 68 29 55 34
29 33 95 85 69 61 93 12 25 10 53
62 97 94 70 27 92 69 66 38 97 82
27 28 14 16 25 16 79 100 86 52 97
35 52 32 76 67 100 14 78 20 15 78
87 99 86 65 59 38 76 11 87 50 94
97 83 28 25 32 82 95 44 15 22 68
75 28 22 81 44 54 74 27 84 45 18
63 36 54 82 56 99 72 95 15 29 65
18 99 24 51 25 44 37 98 34 11 47
81 30 58 14 62 41 27 21 97 43 25
54 49 85 45 95 48 43 42 100 76 66
57 56 50 38 84 97 47 30 86 80 30
33 91 33 51 85 96 49 59 83 15 22
84 15 29 77 92 77 10 93 18 49 72
16 33 38 12 17 78 34 87 55 25 57
33 38 47 90 42 11 27 10 89 23 75
40 36 95 48 66 19 54 44 86 59 71
19 91 36 88 60 99 23 84 83 51 75
38 92 82 25 60 16 24 39 30 56 86
62 76 10 98 69 62 46 25 48 50 60
30 39 69 36 47 72 95 62 70 71 96
95 14 32 97 15 42 73 61 35 39 84
73 32 16 37 50 35 54 70 70 85 48
40 35 35 49 12 21 56 80 34 31 100
30 23 77 12 96 57 12 69 29 46 73
98 65 87 78 69 44 16 93 17 17 100
28 50 26 74 60 65 23 91 33 20 65
52 44 80 81 99 21 31 95 88 100 22
67 96 67 27 25 89 16 42 28 82 70
47 24 71 48 39 30 71 44 34 31 70
95 57 17 75 63 38 17 77 17 64 90
28 62 61 51 52 74 51 95 83 53 22
71 47 85 36 99 70 53 26 96 56 25
59 33 57 53 99 40 62 52 68 63 82
22 11 22 89 33 14 59 99 18 79 13
13 51 32 19 26 46 31 49 96 38 29
36 19 86 64 77 22 95 32 67 32 22
18 10 92 88 92 91 42 85 82 69 92
48 96 70 80 28 16 27 34 99 62 55
78 17 16 28 10 35 50 38 96 34 43
52 63 89 11 99 88 22 57 16 71 66
96 35 85 12 75 10 98 83 31 45 24
35 99 16 58 81 30 81 77 10 86 20
31 46 10 51 19 54 66 28 89 65 16
90 59 96 99 87 75 30 77 98 59 36
19 88 57 41 74 46 69 78 89 66 64
74 41 37 48 74 38 48 47 71 86 99
32 42 63 66 96 74 22 54 86 89 82
54 71 82 50 91 45 86 37 89 95 24
46 30 25 36 88 98 79 80 95 89 64
48 55 37 30 93 35 61 35 95 35 27
79 96 28 75 91 93 23 62 38 20 46
34 88 81 94 55 34 63 87 52 65 40
82 29 28 82 90 41 62 29 95 38 18
40 28 28 58 60 65 33 11 68 83 92
11 24 65 10 89 13 56 51 86 92 52
84 87 93 47 12 15 79 52 66 75 10
11 11 66 53 96 47 43 41 72 22 42
77 16 21 97 78 60 64 10 53 74 33
75 46 97 41 90 28 89 58 69 16 99
20 92 10 65 29 97 63 85 88 19 54
77 93 16 91 36 61 61 93 37 19 31
77 68 92 46 96 57 91 35 37 14 83
74 65 51 100 68 27 89 47 97 87 21
43 51 89 96 40 64 93 45 19 59 49
42 82 73 74 60 98 95 53 55 94 57
73 57 72 28 68 15 16 84 14 49 84
63 81 42 30 85 100 63 94 12 28 52
0.531074
1.1967
2.21772
2.2748
1.71612
2.24946
2.33587
1.15771
0.986527
1.00314
1.12219
0.951648
1.6031
2.4513
2.07521
1.42433
1.98919
2.42168
2.0518
1.70496
1.73245
1.84171
2.39696
1.33626
0.842368
0.508918
1.40873
2.07846
0.940191
1.6582
1.74039
1.81825
2.08433
1.71363
1.49619
1.2124
0.650213
1.7501
1.28031
0.691967
1.29418
1.83288
1.71192
0.608167
1.32148
2.27589
2.23599
1.07222
1.43177
2.47349
1.92031
1.38551
1.04078
2.30865
0.869997
1.74916
0.561231
2.30229
1.56977
1.86671
2.23156
0.569127
0.608835
0.688587
1.5816
0.572014
1.48621
1.42148
0.931658
1.92417
31 361
191 48
427 15
194 96
406 353
404 165
278 420
67 383
378 154
353 378
334 223
198 1
394 164
390 144
338 490
193 35
455 235
99 413
113 124
178 478
346 466
353 316
197 31
81 499
118 234
54 221
439 112
376 39
481 191
7 489
463 300
249 9
231 51
166 199
391 4
54 380
55 332
185 106
320 86
72 251
346 184
434 348
348 222
125 368
141 346
34 58
124 214
412 229
435 188
187 443
37 213
386 118
195 108
2 419
247 341
497 4
476 97
11 335
298 292
429 174
394 48
274 397
136 48
198 24
80 390
326 275
334 335
158 283
386 480
435 309
9615
2
