70
7
0 0 0 0 0 0 0
60 56 51 26 16 57 74
89 82 38 54 76 85 13
13 41 43 82 99 27 17
71 86 36 90 83 32 97
63 24 66 50 68 25 25
25 58 31 57 58 100 81
84 12 64 59 88 33 30
60 29 92 75 97 37 81
45 93 34 85 70 92 90
58 83 47 40 42 35 90
84 100 87 47 11 33 77
31 41 59 26 19 99 57
81 10 52 53 57 89 55
78 33 78 20 38 49 95
86 27 80 72 89 60 77
59 74 26 95 39 67 88
61 54 92 58 26 18 88
67 31 94 32 99 49 67
92 71 11 18 46 60 96
82 82 21 15 34 75 26
42 13 28 62 82 63 70
47 61 15 52 27 30 60
45 78 21 29 12 32 89
35 26 32 13 34 30 56
98 37 34 96 94 77 31
74 31 49 23 57 79 40
96 11 30 80 64 26 58
45 12 100 54 58 77 98
43 12 72 55 92 21 38
71 41 83 27 50 53 42
100 29 40 42 31 13 27
19 27 88 55 22 27 60
42 61 95 94 72 21 85
84 75 38 50 69 72 68
43 70 54 18 48 83 16
90 33 87 39 40 62 66
31 70 79 38 75 75 48
78 99 13 68 37 19 49
21 96 80 34 48 43 13
92 24 45 93 18 88 50
85 66 96 36 53 69 42
50 26 62 78 64 56 17
37 88 58 57 66 38 84
47 29 96 13 93 83 71
100 28 46 22 85 10 79
54 29 28 32 78 58 93
24 17 64 33 97 60 98
67 25 24 90 71 19 21
71 79 49 61 37 58 23
33 92 92 13 25 28 16
59 34 31 27 94 27 21
24 59 82 30 76 96 27
10 54 30 36 69 11 26
12 23 70 78 56 40 45
62 30 53 43 94 47 91
40 56 59 89 98 90 43
16 12 12 29 93 28 71
40 54 34 86 80 48 10
99 10 84 93 48 79 59
10 97 96 52 56 42 29
20 60 74 26 58 28 48
62 53 63 33 53 32 40
63 93 64 69 26 54 61
78 58 23 81 96 52 27
92 10 51 55 84 65 16
62 46 71 47 47 19 73
40 48 55 83 75 68 90
38 12 74 44 36 36 28
39 54 34 25 15 87 25
1.10472
1.33485
0.424641
0.817944
0.424239
0.807898
1.48479
1.07843
0.641836
1.29702
1.34612
1.14003
0.688213
1.35665
1.34555
0.832616
0.738929
1.33146
1.17115
1.18029
1.4976
1.2788
0.75742
0.995131
0.403088
1.3902
1.35278
1.32944
1.24488
0.915542
0.698148
0.337149
1.37341
0.991823
1.15282
1.41252
0.594616
1.23817
1.02123
0.678917
0.553456
0.587947
0.782493
0.416353
1.41078
0.505033
0.411419
1.13074
0.431329
0.974174
1.3803
1.08542
0.924447
0.667567
1.06075
0.562292
1.39044
0.653858
0.90516
0.753438
0.4244
0.859782
1.06444
0.767917
0.337012
1.33462
0.429456
0.489219
1.39413
1.36067
365 263
433 198
188 136
339 239
469 438
37 290
87 304
414 317
13 297
433 149
335 272
127 88
402 76
235 457
427 234
61 212
200 161
311 145
0 318
390 199
237 427
210 489
142 154
414 364
441 397
153 27
262 304
395 421
462 59
244 25
52 20
439 63
332 27
234 365
294 96
91 119
374 218
179 40
439 307
36 429
431 482
251 74
168 321
333 148
499 134
448 262
225 27
425 141
431 57
149 351
412 289
42 217
426 218
148 0
433 336
245 126
440 353
434 158
109 67
430 403
164 381
193 288
423 258
245 241
169 314
148 397
46 446
128 18
316 492
195 361
3723
5
