70
9
0 0 0 0 0 0 0 0 0
52 61 92 66 45 96 73 70 31
64 61 51 23 27 53 10 100 41
83 100 64 36 69 79 34 96 99
31 100 74 96 79 73 74 13 93
30 74 70 24 60 28 32 42 18
19 46 60 67 25 48 15 30 89
68 79 80 93 16 89 99 68 33
19 41 19 22 68 65 26 41 35
90 35 62 48 24 53 40 47 66
93 51 69 12 99 55 57 97 95
19 84 41 70 29 12 15 62 56
88 41 32 73 77 10 90 85 52
25 80 68 37 75 95 48 52 34
28 54 81 64 48 54 21 28 43
51 17 94 19 19 46 54 47 17
46 51 58 10 17 62 26 45 87
43 56 49 93 99 61 33 54 29
50 61 88 86 86 93 60 27 75
75 35 48 53 40 69 96 42 30
69 38 85 31 96 85 94 27 98
26 16 76 27 44 42 55 10 43
45 19 23 25 45 21 28 61 98
33 43 59 99 25 65 27 21 34
72 52 34 49 35 24 59 65 56
95 31 60 100 52 50 38 20 43
44 38 93 58 88 42 85 74 96
46 49 46 100 71 82 29 58 38
86 13 35 62 76 12 85 80 15
96 72 86 66 84 14 17 59 83
52 60 44 42 92 44 98 84 26
48 96 31 33 49 60 94 41 30
15 49 74 50 92 38 72 66 81
64 83 47 62 41 92 28 62 41
67 66 65 99 10 55 46 76 31
68 59 82 59 91 60 76 38 35
17 69 69 95 21 14 29 81 100
29 47 31 88 37 61 17 31 24
100 63 29 39 96 46 77 34 95
84 98 18 37 64 67 84 20 55
100 20 23 97 91 38 49 53 70
92 70 47 47 20 43 56 29 27
82 40 21 51 32 69 39 43 12
58 26 77 10 73 34 32 12 61
21 27 92 83 81 75 49 13 85
78 77 39 97 18 51 62 44 54
30 40 65 44 27 52 88 96 82
100 58 48 78 33 49 12 85 85
54 79 64 70 19 76 58 43 73
62 20 51 27 66 19 81 10 47
64 18 77 62 82 65 42 44 41
74 65 61 23 46 80 48 85 14
91 27 80 16 51 36 50 84 90
22 93 33 72 95 71 81 66 67
10 80 57 46 61 82 25 75 81
99 45 42 90 63 36 60 70 49
37 51 91 29 39 42 54 89 22
86 11 40 52 82 46 60 22 38
42 41 26 84 18 61 35 58 53
15 66 81 72 61 27 50 73 80
70 73 40 36 89 50 92 44 80
89 33 61 72 19 94 30 18 70
23 90 71 48 79 78 37 45 53
80 94 13 29 24 94 12 99 14
10 83 38 13 77 63 13 16 33
14 73 66 14 51 82 33 71 56
68 91 98 97 79 90 91 41 32
91 57 79 89 67 44 52 28 69
22 39 56 22 26 30 90 25 24
49 65 94 78 83 40 81 74 22
1.01404
0.801348
1.47497
0.412154
0.668149
0.406535
0.652673
1.42903
0.368033
0.345061
1.4297
1.40056
1.09132
1.02364
1.16935
0.477622
0.53903
0.395454
0.481655
1.03379
1.25253
1.25944
1.23267
1.43929
0.503049
1.39761
1.31745
1.15746
0.929421
0.674806
0.804999
0.637735
0.868364
0.8531
1.42321
0.760196
1.33357
0.731952
0.476387
1.09664
0.633153
1.42412
0.703804
1.32089
0.452343
0.52094
0.50149
0.645138
1.12932
1.19356
0.627193
1.32715
1.48001
0.920328
0.563499
0.384851
0.601099
0.852699
0.750437
0.980149
1.12858
0.781887
0.774799
1.35956
1.0469
0.583003
0.838128
1.26743
0.831358
0.686184
193 316
36 182
231 87
259 407
489 215
256 292
188 235
182 445
1 242
325 18
379 410
215 297
226 475
49 40
471 76
228 463
266 246
342 22
53 406
168 200
10 414
97 186
419 245
445 259
141 481
397 59
141 284
115 251
299 441
64 439
260 314
81 477
114 209
368 324
214 9
404 329
131 292
212 198
275 4
116 288
19 3
9 451
416 28
292 390
466 60
184 434
448 97
203 193
367 131
55 457
136 324
475 204
461 120
471 472
62 395
412 435
369 395
184 481
331 267
90 139
164 474
229 124
473 48
300 93
422 441
294 2
388 404
138 9
147 396
436 436
4752.5
4
