70
7
0 0 0 0 0 0 0
31 32 43 57 91 17 31
31 10 55 43 14 88 61
79 61 99 35 44 77 93
22 85 70 86 10 59 29
65 45 57 27 47 54 33
71 74 18 93 95 16 60
21 29 76 75 43 89 11
11 83 34 88 90 39 17
42 95 55 39 47 17 90
28 53 62 67 73 20 43
20 30 29 21 88 81 42
68 45 95 60 26 17 57
65 77 49 13 78 28 20
16 41 33 81 11 40 85
66 50 14 15 14 77 25
55 92 32 62 60 36 56
35 61 59 98 76 41 57
83 87 72 19 97 85 75
37 86 51 23 94 99 47
21 39 14 59 54 68 81
83 73 29 89 55 33 71
14 91 98 15 91 49 39
22 69 29 21 61 97 79
78 90 87 24 45 95 63
97 28 85 54 20 27 77
39 100 10 91 93 14 83
40 80 76 58 50 51 22
48 16 38 82 40 95 69
39 94 52 80 30 24 64
43 16 26 81 22 82 12
58 17 82 92 86 91 58
84 26 62 41 20 46 90
70 95 96 12 84 53 87
74 33 40 11 22 18 39
60 54 17 23 75 89 28
27 19 44 50 13 16 97
45 90 19 40 27 74 37
72 93 69 81 67 10 47
92 28 26 77 77 12 83
20 68 92 48 94 24 52
89 85 77 95 38 93 71
43 45 55 58 10 97 29
45 53 49 94 25 45 15
53 26 53 87 87 94 16
91 20 33 44 21 47 40
38 37 78 60 39 35 44
86 45 42 17 84 20 32
14 48 87 84 94 32 98
22 91 23 63 14 67 98
59 54 53 37 78 21 59
94 90 96 17 10 83 38
29 49 17 55 61 77 47
56 42 65 34 47 68 92
50 69 98 34 60 30 54
49 17 51 72 35 40 41
80 40 91 28 61 19 98
74 32 62 72 97 46 51
78 87 25 11 19 25 74
90 66 78 23 15 81 14
36 82 92 37 16 16 45
57 14 65 54 47 25 83
23 30 50 71 40 42 78
89 15 48 34 46 20 23
49 11 68 23 27 90 17
29 89 16 67 13 80 86
59 80 73 47 15 98 47
40 90 24 25 33 71 20
28 52 83 13 61 95 90
21 89 41 11 78 17 80
0.573256
1.15371
1.14982
0.909538
0.524304
1.8512
2.03995
1.73611
1.56725
1.84377
0.666021
0.837897
0.773474
1.70635
0.773464
1.38027
1.37788
1.53155
0.531985
1.97638
1.43774
0.616887
1.25395
0.993772
2.20674
1.97805
1.81795
0.788253
0.843597
1.20722
1.45815
2.05909
0.806609
1.45332
0.869687
2.45162
1.35763
1.51553
1.44513
1.24121
1.6776
1.87732
0.769552
1.05018
1.51915
0.521272
0.505643
1.26162
0.522171
0.586819
1.63379
0.937829
2.48306
1.19674
1.57146
2.14092
0.938196
0.994515
2.32091
1.83814
0.745044
1.61651
1.93462
0.603137
2.10498
0.920661
0.857033
2.40015
1.59844
2.42954
165 56
21 36
221 259
358 432
296 312
499 88
41 315
332 288
491 244
224 86
82 217
2 478
150 404
408 399
242 295
351 339
48 99
415 282
159 135
407 251
179 151
112 459
150 180
479 260
461 213
457 265
433 451
256 369
438 288
424 117
86 452
120 312
103 134
290 473
285 124
272 49
244 375
67 465
408 150
137 46
214 267
189 309
261 106
353 336
463 320
470 442
225 426
458 491
36 4
275 127
0 218
87 403
489 378
469 481
112 386
309 126
184 223
263 391
327 86
188 266
75 123
394 185
452 274
258 50
203 365
199 309
168 443
268 484
178 457
111 50
6103.33
3
