70
9
0 0 0 0 0 0 0 0 0
52 38 87 34 15 72 92 47 83
77 21 25 87 68 10 51 16 27
28 97 40 40 47 95 43 22 75
61 72 31 16 11 21 67 50 79
67 28 28 43 34 47 41 87 53
48 33 17 87 90 79 89 95 73
93 51 11 42 45 56 10 74 17
61 50 25 81 76 94 88 15 43
57 43 19 17 97 65 77 54 52
52 80 41 32 41 87 87 53 70
12 19 76 66 46 18 36 64 65
71 69 27 36 34 21 58 15 38
48 56 51 30 90 40 79 89 50
61 78 66 59 16 21 46 44 84
16 99 20 81 39 21 46 20 73
93 80 90 71 35 55 60 40 42
22 22 93 89 24 96 25 61 71
54 94 70 43 31 90 15 30 81
50 61 12 22 53 18 34 17 45
52 11 35 42 96 19 96 92 40
53 20 14 69 47 67 41 13 65
12 78 83 14 11 49 15 45 99
78 25 19 62 86 72 34 79 52
70 76 23 28 18 53 27 79 80
90 32 96 98 35 35 46 63 19
62 64 35 62 15 49 23 68 26
77 37 59 18 85 57 72 28 13
60 61 84 62 97 33 55 82 53
84 91 22 27 94 49 47 73 35
74 42 82 45 91 93 19 90 43
75 18 75 49 75 26 14 92 65
28 52 28 94 27 89 97 63 19
89 61 75 27 10 86 48 26 72
45 96 81 73 94 31 70 18 24
77 57 51 65 74 98 100 98 43
77 78 55 38 45 56 83 80 58
34 82 80 81 61 50 80 66 76
78 32 23 82 10 73 29 84 51
42 17 97 34 35 72 15 97 89
55 77 15 47 64 73 27 35 79
27 40 70 59 68 25 12 56 64
73 14 46 99 53 33 79 28 56
75 88 61 28 29 59 31 94 46
42 30 53 17 48 10 39 54 98
28 37 91 54 55 75 74 36 27
25 74 85 72 92 32 66 84 41
37 53 80 34 71 51 40 64 79
51 85 60 39 64 20 76 41 35
78 27 35 46 47 16 17 49 61
30 99 75 71 60 91 93 92 43
80 67 67 26 99 57 22 91 77
37 86 53 87 77 39 97 29 93
21 65 48 14 81 63 21 15 22
61 13 86 100 89 89 76 96 29
37 34 51 44 84 81 24 72 90
10 60 98 60 59 68 89 25 25
12 10 74 82 83 92 69 51 11
69 70 16 76 79 96 66 37 24
52 24 90 74 93 86 55 47 63
25 81 81 34 33 16 11 41 13
85 100 62 46 99 66 88 67 15
83 20 94 13 15 82 32 81 74
48 89 87 34 86 12 98 81 84
72 77 10 62 51 53 90 61 96
37 76 25 57 36 15 30 52 95
41 62 76 62 24 21 71 57 11
75 58 38 22 38 56 93 98 58
43 88 48 10 72 55 91 27 88
93 28 57 99 61 90 85 34 52
0.25721
0.919577
0.757497
0.957884
0.773667
0.428779
0.561739
0.67643
0.348414
0.607625
0.702016
0.404519
0.697438
0.391914
0.990973
0.541838
0.954383
0.536535
0.332994
0.522475
0.601796
0.37686
0.796502
0.412073
0.943696
0.403625
0.877197
0.562837
0.928092
0.257863
0.717423
0.9263
0.244904
0.371519
0.224247
0.743162
0.431343
0.521993
0.231542
0.775871
0.436432
0.509347
0.896647
0.454615
0.515773
0.907524
0.660116
0.673753
0.327544
0.833158
0.766178
0.813676
0.899434
0.202919
0.327347
0.611996
0.916786
0.562081
0.65543
0.941438
0.506244
0.906001
0.749799
0.926293
0.3492
0.490961
0.821126
0.346115
0.857991
0.741601
95 137
303 109
148 154
216 469
325 408
339 426
52 236
142 351
262 34
262 200
188 69
43 456
473 20
365 234
65 2
78 390
92 181
48 374
16 239
468 233
125 12
239 464
355 372
310 123
151 217
437 128
142 99
233 243
351 317
267 7
58 435
375 38
500 238
301 46
156 485
333 75
138 437
144 106
498 266
42 212
151 138
359 298
70 248
90 484
62 67
249 430
440 152
79 436
5 190
293 239
296 473
215 310
465 248
453 410
337 290
58 79
136 268
355 492
410 140
89 170
451 393
291 234
75 163
194 354
241 258
73 152
490 240
70 296
465 75
7 499
6341.67
3
