70
11
0 0 0 0 0 0 0 0 0 0 0
73 48 87 57 80 53 22 97 59 44 91
64 73 31 33 95 76 38 82 70 84 18
56 46 11 58 95 76 41 13 52 42 69
65 13 52 79 76 56 56 45 10 65 14
11 87 10 87 77 99 15 35 64 62 20
30 20 23 91 83 58 57 38 91 66 28
72 99 47 41 82 41 25 39 42 95 100
16 57 53 87 77 52 70 69 14 50 31
97 12 46 59 26 22 15 15 88 41 30
75 65 41 34 69 91 15 78 47 64 45
24 72 70 28 98 22 17 58 47 10 30
77 27 81 20 35 36 89 33 30 41 20
77 25 37 57 29 54 10 77 16 39 40
90 80 90 38 90 64 21 31 65 32 56
65 93 54 80 54 85 64 98 20 42 90
17 49 35 92 99 71 45 62 58 75 95
49 30 18 78 68 28 70 13 51 42 29
88 68 41 19 49 57 68 37 98 96 63
15 73 40 60 67 20 20 32 65 78 29
22 97 21 56 35 85 61 70 87 91 24
16 68 51 50 55 65 91 60 75 78 42
23 99 47 99 63 96 96 30 73 40 81
81 64 38 78 32 30 63 39 47 20 96
18 48 87 16 55 76 50 93 36 43 30
80 29 22 17 35 24 52 71 75 41 17
70 30 59 24 16 24 51 64 32 81 63
65 95 25 73 59 78 31 43 86 49 19
100 38 62 47 96 70 38 31 74 58 89
92 15 43 52 71 62 50 17 47 97 54
33 68 94 95 77 47 22 13 91 96 91
12 32 23 34 12 98 14 59 99 89 78
55 52 12 90 20 86 26 51 96 96 44
91 61 67 71 97 79 90 24 48 60 84
41 38 92 35 49 36 82 38 74 19 44
89 41 67 25 30 14 22 12 28 58 12
17 56 98 59 61 88 44 43 40 63 15
100 25 74 24 21 13 43 67 98 57 66
87 89 23 94 96 68 78 73 10 91 78
99 58 63 26 22 36 71 74 63 48 35
61 52 84 44 64 33 74 40 91 41 64
36 36 31 42 84 29 74 12 79 28 20
49 73 31 17 96 24 59 86 83 87 79
91 25 48 21 62 48 68 68 23 79 15
23 77 98 52 76 35 33 13 33 65 47
83 77 55 17 54 35 41 36 97 16 56
92 87 100 41 26 74 64 25 64 44 92
88 87 35 15 40 79 32 64 50 27 83
45 89 39 79 85 45 96 42 68 91 91
12 62 40 57 14 17 11 63 34 33 75
86 92 89 44 11 81 11 40 15 72 36
74 50 28 68 58 28 18 69 13 89 40
16 49 36 29 38 58 31 29 83 11 52
96 93 62 44 84 82 36 34 34 25 91
73 21 49 29 19 40 80 94 47 24 91
46 50 74 37 14 64 43 57 13 28 14
82 86 91 74 100 62 53 86 94 52 31
59 95 30 21 74 83 80 23 98 56 50
90 63 68 88 37 92 85 39 84 99 89
79 18 19 54 33 80 33 47 32 99 42
91 29 64 49 52 34 62 93 60 30 63
48 15 93 84 13 38 62 47 60 10 79
30 15 95 87 68 94 13 17 32 26 16
35 25 83 70 34 80 57 86 33 41 20
29 57 58 21 76 44 57 59 16 97 79
12 78 85 93 67 83 59 51 63 90 92
38 29 98 22 25 16 80 82 27 85 17
14 14 70 36 73 100 67 14 52 88 49
69 29 48 65 13 33 10 81 35 49 18
34 36 30 75 97 75 11 60 60 45 29
0.426728
1.32319
1.32027
0.751362
1.07681
0.773058
0.737711
0.421713
1.1142
0.998967
0.524912
0.752352
1.23022
0.791177
0.736696
1.14316
0.898926
0.301389
0.979981
1.00942
1.25556
0.867668
1.48407
0.913826
0.901703
0.386512
0.332507
0.978753
0.897412
0.603221
1.09135
1.34997
0.387494
0.63688
1.37599
1.36294
0.449348
0.443097
1.28596
1.10752
1.49894
0.670678
1.44125
1.36452
1.30522
1.06407
1.40315
1.37784
0.592471
0.96945
0.665931
1.31494
1.41451
0.586857
1.16519
1.14217
1.19939
0.539108
0.678627
0.930089
0.378907
0.799638
0.746171
0.474611
1.12752
0.457057
0.915359
1.08906
0.916176
1.17387
305 419
135 461
258 180
97 237
68 234
157 144
72 259
66 355
417 451
345 10
200 328
339 332
388 243
381 379
292 344
105 26
36 14
452 83
15 17
238 69
394 462
65 387
435 458
275 11
396 444
334 397
347 146
12 408
358 83
306 492
474 385
230 71
434 478
222 448
143 0
450 389
456 277
123 169
74 88
167 200
149 347
30 481
231 420
350 285
254 260
125 319
0 330
245 75
166 474
209 288
252 265
218 449
288 241
293 287
192 479
149 422
468 362
129 283
290 497
448 422
493 406
230 10
378 460
369 186
269 399
84 379
409 89
200 49
12 120
16 98
18700
1
