70
5
0 0 0 0 0
85 34 48 98 87
21 40 97 89 78
51 61 27 74 67
56 70 99 32 36
48 43 89 77 54
80 15 38 96 38
86 82 89 96 98
31 50 65 31 78
10 91 54 97 100
47 39 30 68 30
10 67 26 94 87
29 98 29 46 36
12 11 23 54 68
20 53 24 85 36
72 59 30 65 10
11 89 11 57 99
75 23 70 17 94
82 76 11 73 53
57 18 30 72 77
94 90 26 89 21
67 37 93 28 78
10 47 48 91 19
89 65 69 64 19
49 30 100 85 83
61 80 27 17 53
95 24 97 13 80
46 78 83 31 89
80 52 86 45 46
92 25 44 61 92
44 20 41 75 41
30 75 54 37 53
84 99 51 48 60
90 36 60 11 35
54 74 68 71 55
100 59 32 70 83
28 40 65 98 50
88 60 81 82 76
49 86 72 30 27
24 23 86 11 66
69 27 45 62 81
75 47 93 20 34
81 98 80 100 55
16 48 98 53 36
89 34 75 26 99
86 77 75 48 24
26 58 70 69 77
35 68 98 82 25
81 14 18 72 41
64 51 77 71 34
98 96 76 50 18
16 16 31 61 74
69 88 82 70 31
88 94 25 96 81
18 33 34 80 84
98 90 49 63 29
58 91 63 90 83
25 32 19 89 27
14 21 12 21 85
60 25 47 77 75
37 83 80 72 79
74 36 71 34 17
34 81 16 83 11
87 90 71 67 67
67 73 24 10 55
24 80 16 100 32
32 76 75 21 40
39 91 46 56 17
27 97 79 71 24
14 23 20 66 87
1.02723
1.8248
1.10162
1.23435
1.73968
0.801701
1.38824
1.09706
1.68938
0.599789
0.835514
1.83855
1.31713
0.608417
1.064
1.31999
0.851448
1.72021
1.9477
1.32997
1.86179
1.42129
1.66574
1.89762
1.81126
0.731514
1.64833
1.6321
0.473677
1.16951
1.2508
1.06726
0.553617
0.647906
1.10165
1.32
0.59254
1.66272
1.53435
1.19936
0.776624
1.33625
1.96641
0.578173
1.36119
0.928762
1.03782
1.23527
1.97877
1.5878
0.677895
0.454366
0.86886
1.52473
1.95402
1.15644
0.792639
1.84198
1.21748
1.19151
0.858363
1.33094
1.6471
0.766904
1.64576
0.995783
0.838194
1.72153
0.804746
1.1375
286 345
451 436
202 159
261 327
345 256
270 23
242 18
301 489
387 120
348 22
364 43
226 16
404 425
77 89
126 104
261 396
251 421
7 48
348 489
260 20
288 421
415 434
70 332
49 183
101 116
338 287
312 52
71 219
118 201
239 415
467 317
345 238
166 412
398 86
109 50
417 341
56 47
253 459
47 364
207 91
311 181
175 197
203 438
341 344
235 255
108 146
364 57
414 50
226 445
167 189
43 49
248 266
463 271
1 251
252 195
428 382
9 435
31 207
184 91
19 444
179 465
492 188
373 460
241 193
356 156
51 449
83 346
396 475
176 397
276 239
6561.67
3
