70
3
0 0 0
78 92 48
43 67 66
98 19 73
80 15 62
24 33 83
18 41 92
44 36 26
10 99 96
58 79 85
11 80 75
35 15 60
62 72 70
78 42 89
93 47 64
82 89 99
16 92 67
45 53 55
37 18 48
82 77 31
28 86 96
44 60 44
37 92 83
83 79 13
87 66 15
55 90 93
23 99 61
64 31 14
15 47 52
16 75 49
27 52 41
48 19 75
84 67 82
68 62 52
85 13 12
15 91 100
29 73 24
77 87 17
27 30 73
14 35 64
59 24 22
33 52 74
70 24 71
40 52 89
79 23 23
48 67 14
66 11 80
48 72 17
83 83 96
51 12 99
51 54 56
97 32 12
34 63 86
96 45 50
87 56 11
50 87 33
66 59 79
71 54 30
77 63 87
92 72 83
93 42 88
89 81 58
77 47 84
97 79 93
53 66 58
17 29 68
25 27 94
97 92 33
22 94 91
57 95 82
0.464538
0.399456
1.40717
1.33434
1.09256
1.0291
0.653128
0.950608
0.940442
0.715262
0.361698
1.35491
1.10926
0.97225
0.514927
1.17771
1.19345
0.891036
0.739044
0.825003
0.321412
1.11189
0.706225
0.793121
1.28955
1.17872
1.07122
0.815054
0.39095
0.966825
0.698476
0.730334
0.878874
1.47151
0.802604
1.0879
0.325803
1.04315
1.40056
0.903694
0.5632
0.314073
0.512339
1.30845
0.708013
1.30237
0.323496
0.396629
1.08447
0.382815
1.16901
1.12601
0.442499
1.15579
1.46457
0.65317
0.528489
0.891799
1.04878
0.742872
1.44356
1.11083
0.666877
1.19853
0.652317
1.05735
1.09731
0.966314
0.595131
0.490662
117 184
412 405
262 78
66 263
24 212
64 241
442 365
191 455
479 348
485 272
298 192
264 88
362 74
447 170
206 173
277 437
259 260
251 249
294 213
478 47
199 128
494 448
2 33
432 481
209 408
106 485
476 225
160 150
174 281
198 131
359 171
339 324
83 255
205 215
116 78
322 404
387 399
284 241
106 27
463 290
347 401
286 258
114 131
308 335
240 225
14 313
297 457
481 209
296 191
473 12
41 493
233 372
362 251
412 447
69 160
70 370
172 354
209 374
92 182
373 449
373 405
452 454
496 135
336 69
421 453
472 422
364 432
339 435
88 97
226 381
5012.5
4
