70
11
0 0 0 0 0 0 0 0 0 0 0
33 35 63 23 79 52 53 14 55 55 40
40 88 34 21 56 52 26 31 43 42 76
20 67 73 35 13 20 32 70 12 10 53
69 31 95 94 48 23 18 13 85 84 52
75 33 68 78 20 66 88 40 76 53 69
54 34 64 97 87 82 57 100 93 24 73
43 90 21 84 65 19 53 74 45 52 74
32 17 84 81 76 48 53 41 53 64 20
100 88 17 17 12 92 21 30 99 85 12
99 87 59 88 29 64 65 87 82 62 25
78 10 47 70 88 62 81 93 57 95 59
36 28 53 33 46 96 36 67 35 64 22
43 23 17 52 34 34 47 91 80 68 76
84 10 12 89 92 94 32 66 74 69 41
92 22 13 25 78 72 78 82 74 60 55
10 39 96 65 71 52 32 23 96 60 60
76 30 40 80 59 61 73 76 40 58 36
77 14 89 60 36 81 68 85 75 21 81
86 36 55 80 32 30 99 55 32 65 79
100 65 92 72 46 38 84 69 49 94 42
88 58 64 29 72 84 10 21 39 32 64
48 21 46 22 67 20 57 87 38 35 67
72 66 74 98 14 93 14 81 52 74 51
33 88 33 81 94 82 47 39 51 66 27
22 41 40 42 32 49 64 87 51 30 90
85 76 41 15 26 74 73 77 37 79 62
16 59 78 28 22 12 49 54 27 35 49
62 33 39 97 72 84 81 54 65 41 20
69 79 42 75 50 52 20 54 30 48 77
55 52 30 40 73 99 57 34 14 95 90
61 40 54 15 11 44 54 40 75 26 20
82 74 78 73 74 100 19 70 13 69 63
15 18 63 76 52 23 11 14 89 44 34
80 50 64 61 53 41 59 81 69 36 50
71 88 55 69 96 62 43 76 83 90 66
39 66 70 43 63 27 53 33 72 71 91
31 65 88 14 52 84 97 45 59 25 12
16 82 65 68 97 93 84 68 68 95 25
77 29 66 13 30 94 47 22 13 36 89
41 18 28 37 52 64 34 56 79 16 66
70 56 21 83 72 86 77 61 19 91 43
88 100 11 79 19 63 63 78 86 16 82
69 44 76 43 41 13 98 83 43 52 93
16 36 94 75 64 27 17 95 43 13 73
66 76 13 58 62 26 94 65 56 39 83
59 36 99 98 32 68 15 94 42 70 67
89 28 31 91 85 57 55 43 56 43 13
49 84 36 10 71 75 97 82 80 67 88
84 49 31 31 96 38 97 50 41 23 50
77 86 72 38 95 71 39 68 45 36 100
57 88 96 83 92 87 77 39 90 63 97
79 84 71 63 81 92 27 58 71 91 92
73 84 45 13 22 86 50 35 56 10 59
94 46 24 46 42 81 31 96 19 32 62
25 60 64 87 13 24 90 29 23 26 55
21 31 28 97 39 36 57 51 29 57 96
93 46 19 59 53 32 84 98 99 50 24
59 69 29 53 19 82 82 50 64 35 10
65 19 18 79 73 56 13 61 37 47 100
96 83 34 33 91 31 35 16 58 38 98
39 10 68 61 50 21 18 68 88 47 40
24 69 26 63 98 22 41 10 41 90 78
84 12 67 38 48 24 47 34 100 33 76
11 59 16 22 16 73 15 95 78 52 65
41 76 90 84 24 78 54 32 12 60 96
29 29 92 71 19 14 56 18 16 14 15
51 58 97 95 38 61 66 92 56 17 46
18 70 28 12 37 72 68 20 87 82 31
84 83 71 10 44 20 67 73 57 87 10
0.684807
0.960087
0.724431
0.602296
0.219066
0.811361
0.270726
0.612708
0.492712
0.996645
0.538936
0.850369
0.256754
0.512136
0.405857
0.324922
0.555347
0.948216
0.742355
0.404538
0.696162
0.749995
0.947745
0.887532
0.728238
0.716322
0.368378
0.724223
0.615075
0.354127
0.258147
0.440297
0.924056
0.376966
0.732938
0.685985
0.728653
0.732844
0.283109
0.621086
0.244753
0.536952
0.974815
0.904309
0.74788
0.496054
0.468765
0.456964
0.960247
0.360315
0.309522
0.5401
0.759816
0.266315
0.95388
0.804743
0.500515
0.726179
0.902305
0.761269
0.203794
0.983532
0.326113
0.244475
0.635183
0.517904
0.578881
0.409505
0.92815
0.46933
470 276
426 487
7 268
232 82
57 361
370 216
15 457
15 91
138 162
171 256
442 154
65 36
379 53
299 445
399 300
219 337
180 420
299 262
132 343
373 29
176 84
330 170
122 36
426 249
142 1
136 403
438 360
467 461
263 64
137 13
50 123
110 460
492 225
164 253
168 466
389 257
483 271
354 225
140 70
257 36
10 399
162 105
370 168
329 33
167 366
352 339
359 8
306 466
272 197
194 428
121 134
153 378
337 115
435 297
29 309
4 451
188 320
129 63
50 116
273 24
162 470
377 240
161 63
14 58
173 428
25 307
56 441
324 317
301 307
209 52
9555
2
