70
5
0 0 0 0 0
57 46 18 70 22
71 77 50 60 72
58 27 93 54 11
32 83 17 28 21
66 45 71 49 43
10 70 42 41 84
57 69 36 34 50
67 53 81 56 24
11 48 67 22 42
80 13 93 60 79
29 22 45 30 95
66 26 57 42 36
88 98 32 48 59
47 69 71 19 53
63 44 53 83 36
77 51 82 98 64
29 12 15 20 61
66 21 79 98 84
88 12 63 88 31
74 60 97 53 49
10 72 95 23 81
67 26 17 65 62
41 41 67 22 39
85 44 25 31 14
75 61 90 60 78
27 87 21 92 85
55 29 40 28 19
39 23 43 70 28
13 30 100 58 15
80 82 88 76 61
36 44 54 15 74
19 37 32 88 72
77 76 38 14 69
35 83 98 28 46
65 46 59 16 39
33 91 52 26 17
45 35 32 12 77
50 66 99 60 30
58 64 71 22 18
51 14 64 11 20
72 94 64 65 62
56 63 46 43 16
46 25 54 22 13
64 29 39 69 86
98 64 67 83 100
28 81 51 35 92
62 15 10 45 73
47 35 85 81 12
88 21 94 43 81
89 71 51 96 60
15 79 91 34 87
34 85 70 87 35
40 94 29 34 18
17 47 24 59 69
47 88 57 86 92
11 57 97 100 74
21 24 60 19 20
65 17 45 79 92
43 21 42 72 48
26 76 62 18 19
22 22 88 14 27
20 36 90 24 54
84 65 32 26 59
56 46 63 88 29
74 90 48 16 10
54 29 100 96 71
92 29 41 19 33
57 54 73 67 64
19 37 22 25 83
1.69778
0.502324
0.68742
0.950698
0.668575
0.510707
0.429954
0.620478
0.792241
1.28514
0.813274
1.2366
1.80386
1.61863
1.78738
0.482205
1.92876
1.48308
0.622573
1.36561
1.45716
0.493732
1.78101
0.68531
1.38782
1.48206
1.91316
1.22331
0.794347
1.26804
1.3596
0.943228
1.31811
1.16485
0.747629
0.636789
0.796509
0.550954
0.932943
1.11972
1.93013
1.4984
0.896296
1.56464
1.87185
1.2652
0.980539
1.48966
0.542216
0.890993
0.600147
1.37051
0.626978
1.19806
1.06672
0.793041
1.77748
1.79811
1.64566
0.474552
1.79125
1.52339
1.44341
1.04424
1.96336
0.766938
1.34471
0.457769
0.868231
1.69272
341 155
94 446
259 301
16 23
368 340
179 398
416 334
297 6
424 100
153 428
452 135
416 143
262 102
97 404
391 455
214 159
361 368
370 214
206 100
181 162
364 216
461 247
300 378
95 248
360 431
474 12
221 395
350 463
159 172
158 44
398 118
91 446
389 167
42 359
265 47
36 291
223 482
396 285
40 46
498 50
459 364
409 326
252 426
437 62
40 64
337 255
488 323
391 259
93 220
29 195
156 301
403 68
493 352
312 324
335 50
122 93
66 344
366 444
359 305
491 259
43 423
222 57
171 95
285 306
128 162
181 461
190 46
317 424
99 418
57 204
18030
1
