70
7
0 0 0 0 0 0 0
78 62 27 78 44 38 68
38 52 20 68 11 99 33
24 79 58 76 68 21 94
11 58 38 42 60 62 40
18 82 29 23 65 94 25
60 29 90 69 29 54 47
47 21 94 20 64 43 96
81 21 47 45 76 100 16
71 73 49 67 84 35 99
34 13 54 47 31 21 97
30 22 92 59 71 77 29
13 61 90 17 83 18 24
60 40 52 84 76 65 54
91 75 77 56 84 49 21
30 58 39 51 75 60 78
93 56 78 62 93 40 38
84 68 38 12 28 21 92
83 89 33 10 50 88 85
63 12 13 98 93 77 57
76 80 76 27 58 37 29
40 13 79 45 41 42 41
66 88 28 50 79 66 83
71 96 88 65 52 11 94
37 32 88 89 98 85 83
87 22 86 77 78 75 40
89 100 12 25 10 100 68
89 83 87 62 83 37 35
63 18 35 55 87 98 57
37 69 47 18 12 50 82
49 89 38 63 48 67 43
50 91 43 28 84 25 29
82 69 85 15 24 21 17
16 22 76 21 31 94 35
26 36 30 74 32 93 83
91 61 52 94 69 73 31
27 10 67 30 21 15 100
78 76 16 35 23 45 76
74 11 37 43 32 41 75
20 64 43 73 57 58 79
62 52 50 52 89 54 54
89 44 35 95 47 29 54
27 64 62 11 61 26 38
27 68 86 51 67 91 56
70 57 89 12 44 46 23
65 72 67 30 46 56 71
37 64 90 81 80 97 26
94 84 71 67 66 80 51
75 86 29 13 96 72 48
84 67 27 95 74 85 42
15 24 33 85 86 14 43
86 68 27 12 90 15 36
80 70 99 56 87 90 32
59 50 71 10 71 76 50
56 80 28 22 36 34 54
39 26 38 16 27 95 39
28 65 53 62 61 68 73
27 87 63 74 73 68 65
96 41 16 63 44 47 58
40 78 11 12 61 56 26
84 61 27 24 59 26 23
77 82 55 85 29 59 20
29 82 91 26 94 55 54
50 74 20 90 45 45 79
15 68 99 13 44 29 44
88 29 98 77 51 61 20
59 57 20 36 44 78 35
65 34 79 87 67 16 41
90 65 80 20 79 90 53
51 67 24 71 17 48 55
0.186858
0.447497
0.114382
0.228023
0.222173
0.202585
0.297386
0.349079
0.488003
0.181405
0.239069
0.115045
0.108333
0.286186
0.235745
0.276755
0.384733
0.143399
0.350934
0.215251
0.308054
0.268262
0.312426
0.29334
0.486311
0.492075
0.456829
0.48933
0.227024
0.481008
0.290798
0.283451
0.107133
0.120038
0.318493
0.462567
0.134238
0.314688
0.441083
0.354538
0.166425
0.284513
0.109308
0.154042
0.416936
0.137096
0.316099
0.211015
0.324339
0.108081
0.158241
0.371605
0.239508
0.390634
0.443905
0.253095
0.49043
0.381682
0.280864
0.497866
0.388597
0.322567
0.452368
0.178726
0.111773
0.289526
0.300205
0.312771
0.343618
0.216596
150 86
201 428
436 141
108 212
419 53
299 451
92 483
135 82
149 216
431 483
47 225
465 496
483 204
210 388
48 449
457 90
411 57
190 252
14 32
180 368
333 202
203 232
154 201
156 214
401 352
109 249
188 224
317 410
79 481
273 205
304 465
207 358
129 282
7 8
334 371
308 499
256 62
472 52
106 45
79 490
481 13
157 179
366 467
354 369
141 285
262 259
100 416
9 129
387 156
263 456
121 364
195 301
78 197
142 445
205 146
183 482
461 211
230 363
446 107
143 393
271 221
66 78
419 86
195 251
228 93
150 478
197 282
359 355
66 330
489 400
9525
2
