70
9
0 0 0 0 0 0 0 0 0
87 72 47 57 60 66 58 64 80
39 81 69 31 91 49 44 71 59
33 83 93 10 47 27 11 11 57
24 56 75 42 38 38 36 74 49
40 77 73 88 14 48 17 12 21
39 50 63 49 29 71 90 56 46
29 17 40 62 30 57 11 53 64
52 80 22 100 35 10 96 30 21
12 21 84 16 88 91 63 38 53
44 15 76 54 53 26 49 17 45
96 50 48 18 44 27 79 75 100
73 68 16 100 77 41 78 73 50
85 12 10 55 84 76 75 62 95
75 16 59 97 22 16 36 14 50
12 93 79 52 65 53 43 51 64
37 14 43 81 22 53 30 35 98
64 65 42 10 16 19 75 49 73
68 58 22 24 57 31 46 35 36
30 33 71 75 91 54 64 16 61
66 19 76 13 41 28 13 87 23
23 50 15 12 81 21 87 26 29
32 60 37 22 14 41 58 46 21
43 97 62 90 60 95 99 43 36
33 86 34 20 16 35 38 72 32
77 12 69 85 30 54 57 91 50
99 57 16 77 43 98 100 84 42
77 18 34 57 48 49 24 53 50
23 35 39 45 65 16 49 75 43
37 68 83 18 81 54 12 84 59
70 39 35 29 14 92 43 63 47
89 56 11 26 84 35 15 99 88
70 71 22 12 81 12 18 93 53
98 14 67 60 36 65 13 28 26
45 53 62 15 70 85 91 35 76
31 93 48 50 87 57 100 28 56
48 84 33 93 98 69 37 31 90
11 10 61 16 53 54 44 67 61
11 89 19 74 66 100 38 95 84
95 93 44 16 80 81 95 85 37
83 89 74 96 27 35 76 85 47
84 50 93 78 78 47 31 16 27
48 35 14 78 74 53 88 33 97
35 83 31 84 75 39 100 86 39
55 55 82 16 88 89 82 62 80
81 45 100 28 69 23 39 19 15
73 55 89 65 19 33 86 97 71
84 61 31 70 16 95 23 74 79
27 16 84 79 34 21 78 60 49
66 55 74 44 82 66 74 15 60
12 42 58 96 35 51 21 20 37
32 25 14 65 93 49 25 87 87
28 44 84 44 46 30 61 96 54
76 20 72 54 22 26 85 49 47
57 68 62 45 22 62 53 86 87
68 62 54 78 56 43 66 38 41
47 57 53 20 52 100 64 94 91
34 19 24 60 51 16 29 19 70
70 77 48 71 68 10 87 99 21
49 55 75 14 13 38 28 57 27
57 15 84 32 69 32 48 60 27
39 40 97 11 60 95 50 82 32
78 90 78 92 43 19 23 62 77
37 87 24 45 72 39 17 23 78
94 50 70 99 13 63 13 100 16
10 59 65 91 63 37 76 31 41
57 52 69 26 60 71 50 39 26
62 40 43 47 53 17 78 20 63
10 94 83 13 37 53 14 16 45
48 28 53 74 23 95 86 94 58
0.578782
0.889829
0.787093
0.713505
0.4805
0.883561
0.902016
1.74711
1.42418
1.33356
0.735871
1.56331
1.01242
1.43803
1.14086
1.88017
1.62678
1.26212
1.96271
0.891844
1.02997
0.93381
1.66512
0.815493
1.15249
1.679
0.897548
1.23653
1.47141
1.75231
0.679048
1.76467
0.787379
0.810977
1.05098
0.924912
0.576541
1.01803
1.52699
1.7266
1.62413
0.873242
1.75988
0.478249
1.17985
1.74079
0.736304
1.20137
1.65283
0.817277
1.93785
1.47927
0.536329
1.25331
1.62615
1.67173
1.14723
1.0746
0.716653
0.679895
1.62362
0.789096
1.86568
0.526213
1.2697
1.04584
1.58397
1.83044
1.66069
0.519174
415 78
430 277
342 252
188 151
338 175
181 75
380 201
224 96
454 359
19 364
398 242
61 353
75 135
276 339
322 256
278 112
247 200
63 20
388 411
402 302
52 307
74 11
5 370
0 408
295 478
418 298
152 199
459 393
222 230
335 101
242 489
300 146
274 314
361 12
485 194
172 275
347 242
484 4
77 222
101 282
59 204
70 422
130 318
94 250
363 341
286 180
298 265
478 445
466 243
182 13
124 345
409 371
141 170
398 418
303 221
86 454
488 361
81 160
382 466
108 103
467 165
267 170
287 402
487 313
462 192
52 380
363 209
217 292
351 131
74 299
3655
5
