70
5
0 0 0 0 0
68 76 17 17 26
68 54 46 74 19
40 52 36 42 56
84 13 83 91 62
39 48 42 70 34
54 54 16 63 71
98 18 15 15 30
93 56 47 84 51
33 94 83 29 87
19 15 77 13 50
76 34 83 55 94
51 56 18 62 73
20 99 51 73 55
89 78 92 77 10
43 45 60 35 51
67 16 70 99 68
30 69 76 32 27
39 59 57 56 36
36 10 16 70 74
20 15 86 51 79
48 51 11 34 67
67 10 77 85 89
92 58 53 91 82
39 23 41 80 94
87 97 79 30 31
70 57 77 95 16
30 64 78 92 77
80 57 28 61 67
45 70 81 97 40
93 40 92 58 100
58 65 46 90 74
62 39 87 91 92
61 60 73 100 61
42 61 27 82 74
67 55 74 99 72
47 92 27 13 80
28 56 34 36 67
72 60 39 49 35
98 94 70 62 29
76 70 18 30 27
69 38 94 52 63
89 18 94 82 68
27 71 19 20 80
100 84 66 86 84
37 18 40 75 68
100 70 34 67 20
26 47 71 81 63
58 27 73 15 55
31 75 100 89 85
36 71 18 66 30
92 82 37 24 48
82 32 79 25 73
60 89 54 100 17
59 82 51 69 39
33 54 78 19 90
82 65 54 24 26
54 18 32 10 37
30 48 69 20 57
10 53 10 100 72
20 97 80 84 19
74 45 22 23 52
17 71 24 47 100
66 57 89 17 43
42 23 85 45 23
73 67 92 14 52
48 88 81 54 48
48 69 66 31 41
58 27 55 63 58
71 88 23 92 86
1.13428
0.559118
1.45945
0.44024
1.38726
1.35335
0.836915
0.862214
0.918443
0.321133
1.14748
0.563924
1.33285
1.49821
1.26428
1.07407
1.17015
0.709625
1.44295
0.785981
0.717986
0.979079
0.867357
0.754511
0.495504
0.656697
1.41545
0.637759
1.39068
0.340663
1.12333
1.06865
0.591486
0.454651
0.609607
1.19694
1.20797
1.21221
0.850937
0.404268
1.26278
0.487172
1.22235
0.677762
0.852209
0.477907
1.35295
1.37164
0.961274
1.4058
1.35548
1.25139
1.16556
1.45928
0.921417
0.5309
0.610462
0.980121
0.81831
0.77515
0.753632
0.479901
1.25948
1.4094
0.551703
1.37777
1.04091
0.786199
1.03077
1.39363
249 488
299 90
120 480
55 298
268 476
280 168
451 188
256 411
291 145
283 183
331 281
428 177
487 34
350 327
404 418
166 273
64 410
478 415
459 414
129 499
263 403
402 421
9 465
112 385
248 337
297 245
321 341
403 385
248 39
100 366
200 57
194 120
256 431
97 447
363 374
447 294
214 334
292 442
283 269
369 142
215 301
256 183
405 440
44 198
87 309
170 216
296 330
466 81
274 439
155 385
336 475
14 300
382 135
397 301
371 99
466 354
273 148
499 290
185 125
157 270
404 163
407 87
362 344
162 36
373 308
464 78
422 81
73 40
355 173
459 70
6501.67
3
