70
3
0 0 0
14 31 15
80 64 89
34 40 100
87 21 13
25 68 92
45 35 80
55 42 69
38 13 30
91 93 53
22 76 61
65 18 12
72 30 74
88 70 87
78 69 82
55 57 44
60 86 75
81 61 31
40 28 68
91 92 51
28 57 40
84 70 83
75 70 89
46 59 19
76 28 23
61 43 66
74 75 27
13 47 60
10 93 65
97 26 48
95 57 29
60 44 76
51 28 99
69 77 41
89 18 98
15 24 47
22 55 19
20 73 87
25 99 22
35 37 49
59 17 71
98 29 81
47 44 94
60 93 31
91 96 94
16 76 52
69 47 94
100 42 75
84 71 46
76 37 27
50 72 57
73 55 100
69 21 63
33 36 88
95 31 46
97 35 67
11 76 27
39 60 91
71 20 40
27 58 95
37 79 53
54 65 18
99 84 73
85 49 27
88 96 71
35 47 35
55 97 83
42 20 70
14 63 35
50 46 44
1.18199
1.24938
1.50913
0.860875
1.35368
1.59934
0.829938
1.37253
1.45228
0.621091
1.17025
0.962017
1.142
0.955423
1.82734
0.449617
1.88988
0.823896
1.65006
0.968056
1.89457
0.801707
1.09965
1.4536
0.476952
1.11935
1.55229
0.73605
0.431763
1.81392
1.21497
0.794912
1.53016
1.84245
1.09597
1.71561
1.58055
1.20315
1.06314
0.91155
0.992041
0.68979
1.80418
0.899838
1.97885
0.961172
0.610716
1.96469
0.442721
0.916735
0.512723
0.841589
0.479004
1.61107
1.97857
1.59346
0.904463
0.751864
0.73327
1.46425
1.50346
1.00913
1.60938
1.21745
1.2521
0.640945
0.869025
1.53123
1.12635
1.50521
336 178
248 35
340 474
275 372
319 152
10 356
240 305
329 357
135 59
340 118
194 451
283 208
420 154
393 56
347 490
298 305
205 193
347 323
90 380
164 381
0 436
484 66
35 175
432 65
280 39
465 392
348 64
399 261
440 418
227 392
441 165
343 442
178 254
365 249
288 415
305 137
318 86
130 186
278 49
199 248
493 199
190 168
45 408
7 149
317 394
5 116
160 282
146 285
399 452
259 362
282 125
4 29
225 256
368 400
371 215
202 171
122 251
270 44
170 11
6 5
272 249
129 183
52 76
187 46
18 201
164 256
279 307
496 127
304 324
10 251
3929
5
