70
7
0 0 0 0 0 0 0
29 30 91 87 42 15 94
24 20 83 75 58 49 14
90 40 80 69 68 85 87
34 88 97 65 81 36 87
70 18 67 14 50 35 27
50 63 69 100 88 24 26
58 56 71 64 98 13 36
76 63 14 14 75 68 23
98 86 51 17 65 95 59
10 23 87 17 65 35 33
94 56 43 93 47 32 10
17 52 75 14 57 96 63
34 36 79 64 90 73 20
49 44 57 30 17 53 86
92 11 42 22 67 100 97
49 50 38 71 82 50 68
34 91 56 46 64 15 74
45 31 37 19 99 45 15
83 38 64 56 90 39 54
86 20 97 61 22 95 36
41 84 98 89 86 12 83
27 64 77 20 94 50 24
21 81 23 100 90 71 96
88 18 93 29 98 49 27
63 54 95 15 50 92 95
33 30 76 14 54 10 94
25 91 40 98 60 75 22
41 61 95 82 84 92 20
55 30 54 42 92 82 72
75 79 77 38 91 93 54
12 14 79 29 79 30 84
81 83 92 10 68 98 83
59 47 36 17 56 32 16
70 93 38 67 69 32 77
17 18 48 13 96 47 57
59 26 32 54 48 69 73
46 59 81 65 94 36 32
63 47 53 51 13 49 74
51 46 51 100 81 95 82
100 73 67 45 89 14 13
69 51 91 96 76 35 16
83 96 73 71 37 62 31
48 49 69 34 21 14 33
47 41 22 77 11 29 46
27 96 38 49 35 22 59
79 75 86 38 19 97 57
30 39 26 52 93 81 35
95 73 99 78 42 35 36
96 82 51 46 41 83 43
56 28 12 92 58 33 89
74 66 36 27 70 18 52
43 79 37 81 86 27 48
29 64 40 11 47 73 35
53 85 27 94 41 11 56
76 87 68 74 86 88 46
10 62 60 28 40 60 10
16 29 55 14 46 47 58
18 58 98 96 78 61 38
99 11 26 56 88 83 82
51 20 85 51 60 16 45
94 96 57 58 14 89 13
39 16 37 41 89 67 34
19 36 99 11 57 78 59
63 15 99 90 96 72 32
85 45 56 63 75 76 84
84 13 38 41 14 84 39
84 68 52 16 90 62 82
40 82 87 38 66 50 68
90 46 13 28 42 73 77
0.69049
0.956701
0.797495
0.587319
0.600604
0.211042
0.613036
0.874182
0.463785
0.393594
0.268836
0.668631
0.399322
0.728012
0.807536
0.856455
0.30917
0.741508
0.955665
0.671761
0.331236
0.999641
0.833667
0.98359
0.516726
0.66425
0.242079
0.83439
0.56388
0.675803
0.673946
0.307532
0.363303
0.85799
0.251009
0.376572
0.496427
0.716199
0.75371
0.354947
0.637115
0.612139
0.871808
0.424505
0.729684
0.797822
0.892645
0.808101
0.79132
0.830661
0.755597
0.277016
0.8722
0.977404
0.316407
0.526626
0.311268
0.845529
0.687578
0.706893
0.30939
0.85369
0.980534
0.568251
0.67017
0.242694
0.959354
0.658023
0.401497
0.479296
402 158
473 13
321 388
84 111
32 103
382 42
145 250
213 437
392 39
72 171
115 118
312 244
454 477
232 500
186 430
72 117
445 147
318 293
281 11
379 394
356 197
330 184
90 157
91 45
380 260
243 489
307 451
367 174
153 280
174 265
449 154
317 49
165 59
152 428
235 406
269 372
448 73
418 422
366 89
360 219
421 433
42 442
261 345
141 36
262 99
69 74
103 142
85 280
383 196
313 432
211 367
37 445
477 350
135 454
148 5
269 0
348 213
372 221
192 440
484 156
23 413
359 145
148 458
205 435
317 360
332 397
476 15
349 411
68 93
228 50
9665
2
