70
11
0 0 0 0 0 0 0 0 0 0 0
44 33 38 99 80 93 30 96 94 59 52
49 14 25 97 51 58 99 19 20 45 60
89 85 65 61 92 98 40 40 60 51 72
13 37 41 86 50 36 76 44 75 74 42
20 36 33 20 13 66 10 95 65 83 86
97 23 53 94 60 66 82 49 15 99 52
89 68 40 15 31 16 61 73 59 70 55
69 96 44 29 89 89 96 84 84 88 84
87 96 75 70 74 11 80 85 99 65 97
34 48 31 44 98 29 19 36 34 49 81
71 85 79 41 17 17 61 14 26 75 98
13 40 44 20 92 30 60 23 21 59 24
80 93 12 76 89 79 88 28 12 91 83
17 46 34 75 26 29 49 73 39 15 84
96 23 15 17 35 74 90 62 93 71 38
70 57 91 94 69 68 82 59 31 44 37
74 89 70 58 69 98 93 76 46 74 100
59 77 90 14 88 57 65 73 41 64 15
85 22 63 23 87 26 23 87 39 23 49
34 26 51 50 42 45 77 90 40 35 90
92 53 68 46 82 88 85 79 33 56 26
52 60 65 39 20 97 48 21 36 74 47
95 40 52 12 56 28 98 26 85 67 60
53 42 84 40 12 95 78 46 42 22 55
84 76 92 82 81 36 80 85 57 86 45
76 91 71 40 62 46 28 71 55 74 86
95 15 94 98 26 59 66 82 36 46 74
63 93 23 27 95 50 77 100 38 44 27
41 100 26 44 51 66 81 55 28 34 12
19 76 83 71 13 23 35 22 100 91 92
26 50 58 83 87 16 24 10 28 25 17
18 87 56 16 44 24 38 77 64 91 34
64 32 45 73 60 32 30 84 42 93 19
17 77 78 35 74 72 76 70 13 26 96
15 70 23 91 99 49 58 15 95 56 99
78 64 75 12 47 96 70 90 86 56 11
45 21 38 91 21 95 43 31 61 73 16
22 77 88 71 98 82 92 48 91 74 23
52 49 87 21 28 66 10 85 42 82 92
80 10 73 91 19 66 61 13 28 61 44
100 29 17 82 20 22 59 20 31 24 43
58 33 67 61 33 64 93 70 71 49 89
87 27 96 11 11 97 91 82 32 70 91
86 73 80 82 34 26 97 24 94 75 31
22 66 22 49 89 74 82 31 66 18 96
41 58 28 16 74 63 41 91 94 81 90
10 16 78 29 20 19 59 66 70 21 70
76 78 100 63 11 82 16 86 100 86 33
31 99 73 24 43 57 58 89 27 90 21
70 16 71 49 77 47 11 88 23 85 37
74 13 73 93 61 41 61 22 12 73 55
69 36 73 22 19 99 22 77 79 87 74
76 83 24 12 43 73 36 45 97 21 34
78 77 81 39 93 20 35 96 90 49 14
23 47 49 29 46 11 51 36 83 86 76
64 71 75 89 91 49 42 20 35 74 88
17 88 28 18 33 78 66 18 71 51 56
65 82 80 99 77 72 57 21 53 39 74
83 90 25 55 12 46 33 59 68 17 44
83 48 64 18 12 35 77 82 52 46 61
45 36 76 49 78 23 82 67 49 81 48
50 51 75 28 30 52 28 77 17 91 48
41 46 41 55 72 82 60 69 73 21 99
23 93 36 47 89 89 37 69 35 86 87
71 12 52 98 20 74 40 66 85 92 90
14 18 66 54 75 73 48 13 85 91 55
89 74 65 98 33 25 80 48 94 44 42
68 57 82 59 34 70 10 28 32 26 39
77 83 50 84 72 10 22 40 61 44 49
1.05439
0.704525
1.07086
0.872178
1.02239
1.35669
1.83895
1.20455
1.21254
1.29894
1.35789
1.89254
1.53552
1.76878
0.853521
1.55371
1.07699
1.27475
1.24342
0.419672
0.80008
0.781872
1.72511
1.84338
0.573404
1.70633
0.774483
1.27702
1.69431
1.32489
0.84259
0.517501
1.28303
1.72411
0.852699
0.677268
1.73314
1.69985
1.93478
0.405406
0.798836
1.56903
0.841341
1.91673
1.88202
0.932583
1.039
0.77859
0.989302
0.709415
0.71213
0.895888
1.38367
1.61465
1.98887
1.91684
0.514244
1.78118
0.430259
0.613909
1.9384
1.05808
1.02548
0.889883
1.14289
1.7704
0.97955
0.705796
1.06427
0.839791
392 178
37 369
107 149
144 179
405 205
382 215
319 422
282 342
275 19
355 468
23 453
212 443
93 280
445 252
420 415
226 467
181 490
39 250
487 64
43 282
290 210
120 340
16 436
241 84
270 303
22 245
146 437
286 184
91 478
299 281
330 362
272 57
435 370
85 282
265 376
394 217
419 269
21 251
7 242
421 150
254 107
358 440
320 99
382 293
102 316
144 450
160 325
72 23
167 469
325 400
339 122
446 30
343 377
244 136
3 210
318 199
177 82
54 476
123 190
12 220
127 459
31 153
129 341
109 335
188 10
49 89
396 186
91 219
290 476
271 352
3909
5
