70
9
0 0 0 0 0 0 0 0 0
85 94 85 17 13 93 95 57 24
24 17 56 93 48 93 58 68 51
47 31 53 27 17 48 46 72 44
13 27 55 28 49 90 57 30 28
61 100 15 77 37 74 47 71 66
93 17 57 53 98 93 25 72 64
100 24 38 71 10 42 56 88 33
70 78 19 98 57 30 43 92 55
99 57 60 84 81 99 98 82 89
66 39 12 15 55 47 59 11 52
11 57 14 17 47 58 60 82 81
83 25 36 64 82 17 45 74 37
66 99 12 43 28 47 28 82 14
88 76 96 51 12 93 15 73 81
75 68 25 82 20 88 56 37 72
21 93 71 55 33 18 38 67 100
18 89 36 75 35 97 65 37 61
14 47 15 97 37 56 87 14 93
55 26 96 44 62 53 58 13 24
27 29 94 81 84 21 40 29 100
46 14 12 75 89 93 79 90 32
68 68 28 32 63 31 64 89 17
38 66 30 12 94 85 68 78 16
50 15 18 47 66 37 31 54 68
79 69 37 27 52 48 88 41 67
18 61 67 81 34 73 18 68 56
33 49 92 52 39 46 45 78 56
29 90 85 46 78 23 66 11 65
10 94 82 49 41 22 66 40 49
56 35 36 11 76 96 60 72 98
82 28 34 60 61 17 49 77 41
51 79 60 37 16 69 90 39 35
61 53 52 68 24 41 59 19 53
44 16 68 46 53 64 68 19 22
83 60 12 87 23 35 48 83 63
34 31 86 50 52 59 59 93 58
94 85 29 68 49 21 84 93 12
18 33 78 88 42 43 60 71 41
64 87 43 50 66 20 44 26 13
78 72 52 39 22 43 81 35 88
46 16 63 59 54 76 10 66 45
32 45 15 46 56 47 25 45 75
93 14 32 10 87 85 19 98 49
50 80 85 25 65 33 59 30 59
78 55 82 86 19 29 16 60 64
23 12 52 39 44 47 54 64 97
45 62 11 31 59 99 39 27 15
68 98 11 33 57 93 98 53 77
92 96 98 44 92 86 65 78 16
44 25 11 74 48 84 66 21 23
92 85 96 96 61 83 17 35 97
71 70 20 79 31 52 52 63 26
23 73 28 76 15 36 19 65 92
21 60 31 17 29 70 75 47 89
39 91 95 83 77 68 23 69 83
20 52 38 23 13 98 20 63 31
98 59 25 38 98 43 83 77 16
26 70 50 88 25 78 25 69 70
64 71 61 94 39 60 95 18 90
21 13 17 62 62 40 16 68 68
40 35 79 22 56 50 77 51 46
83 77 42 41 56 28 32 98 21
33 90 21 76 15 95 56 90 79
35 72 19 95 18 57 47 60 20
80 12 49 11 37 21 74 31 55
84 15 48 43 31 49 70 52 87
10 80 33 89 92 10 87 82 60
55 91 28 69 24 57 97 79 62
56 75 43 97 69 70 95 93 75
1.88604
1.29182
1.73888
1.05042
0.700177
2.19859
1.55928
1.70782
2.15497
1.59056
0.905816
1.77602
1.5627
0.638219
0.926271
0.676797
1.28344
0.511212
1.17002
1.50985
2.08785
1.3155
0.789325
1.55515
1.88515
1.99123
0.540704
0.784772
0.997972
0.67827
0.645823
2.11037
1.63856
1.28554
2.28169
0.91991
0.56862
2.3668
0.572045
2.07055
2.03912
1.91893
1.31627
1.40262
1.60626
2.21048
2.32433
1.01958
1.01308
2.38018
0.76303
2.18524
1.09946
2.34799
1.78992
1.72473
2.05148
1.94706
0.77132
0.769938
1.17227
1.35595
0.841797
1.74941
2.17137
2.10871
2.24001
0.641501
2.49769
1.22445
227 312
2 80
264 295
207 62
33 157
63 278
210 206
331 408
472 3
413 352
56 283
398 225
264 28
38 189
346 78
218 402
214 474
206 28
197 308
197 477
296 443
462 143
418 491
241 375
222 186
214 73
167 135
147 248
447 500
232 444
225 195
418 57
302 199
15 353
416 466
17 142
499 118
214 268
145 495
319 2
270 138
339 127
286 430
162 108
247 346
243 485
445 413
461 34
94 100
298 316
20 436
87 378
287 5
285 164
278 34
422 285
86 262
252 46
270 153
487 311
328 123
330 89
234 72
50 194
241 425
282 451
247 110
233 152
112 290
488 182
4677.5
4
