70
3
0 0 0
12 44 36
68 15 60
62 23 72
88 84 93
41 21 60
76 89 64
82 74 22
47 40 31
100 60 53
36 48 29
94 60 18
14 48 33
70 79 20
78 79 20
15 87 86
27 61 65
57 93 53
72 88 98
80 50 83
43 91 69
37 38 46
17 38 31
91 53 67
88 55 53
95 73 35
85 81 40
48 51 21
71 20 46
28 80 71
86 53 86
84 93 28
63 51 79
66 50 36
22 70 71
51 70 75
64 88 83
60 38 21
45 99 96
21 10 73
44 81 13
15 62 66
92 83 68
63 68 48
87 36 85
78 80 71
79 87 27
10 80 35
32 52 65
63 35 58
89 42 61
27 22 88
42 70 53
84 26 43
39 70 77
12 99 38
49 58 46
76 42 96
23 54 70
89 98 99
18 84 54
45 18 17
40 12 80
88 58 37
54 41 76
34 73 83
36 15 53
78 88 85
74 100 62
46 61 49
2.24307
1.18749
0.904683
0.790362
2.45071
2.46382
0.721272
2.18358
1.49242
1.63692
2.27167
0.646928
2.00673
2.26221
1.23675
1.9117
0.744932
1.30942
1.539
1.00329
2.30449
2.24504
1.93261
2.49331
1.39995
1.96414
1.21723
1.57078
0.514356
2.29729
2.49008
1.04032
1.49514
1.11158
0.592454
1.05337
0.761396
0.544444
1.1043
1.99476
1.45703
0.943681
1.47085
0.759116
1.21332
0.988266
1.24345
1.78719
1.71281
1.27653
2.37134
0.883531
1.29353
1.02947
0.552527
1.35532
2.40479
2.20095
0.562077
1.321
2.3323
1.13796
1.92915
1.21819
1.20832
2.17913
0.754547
0.744899
1.23559
2.17303
460 345
334 422
446 204
425 24
166 196
416 224
290 187
85 36
9 22
139 68
378 30
292 259
469 460
362 418
463 130
414 268
384 448
107 280
241 362
99 115
332 495
452 120
226 247
472 225
14 339
279 379
5 251
213 76
103 52
124 492
242 404
317 427
424 39
93 371
285 66
458 372
432 138
419 173
190 7
412 58
76 17
455 388
289 394
142 20
135 120
123 248
55 401
374 172
55 202
198 91
62 99
471 482
116 424
498 197
157 172
98 11
264 243
70 249
51 3
161 429
34 308
184 359
219 450
310 74
103 408
19 181
281 56
2 346
311 115
283 366
4981.25
4
