70
9
0 0 0 0 0 0 0 0 0
60 62 34 96 69 83 45 11 50
98 35 77 95 47 23 99 22 12
82 49 86 35 71 92 13 95 34
56 39 49 52 77 69 40 51 42
36 39 74 51 25 98 19 52 35
38 66 19 87 90 45 98 98 100
64 92 28 24 30 43 30 97 40
91 33 58 33 58 53 95 98 57
28 60 17 85 88 81 75 48 26
76 17 43 28 12 51 20 86 50
80 21 23 31 51 90 51 35 20
10 97 94 74 100 25 84 89 80
75 49 77 36 27 37 90 79 46
59 21 33 67 41 12 40 42 10
57 41 77 13 46 70 12 64 98
36 69 22 55 76 92 25 20 79
93 53 34 20 50 90 74 68 96
13 29 78 75 39 79 94 66 57
85 44 45 35 42 47 38 49 53
54 69 85 53 55 52 76 41 63
68 84 69 96 31 59 14 69 91
76 40 95 14 26 89 69 57 63
76 52 43 72 61 16 74 78 51
76 42 84 76 47 47 97 86 56
53 57 28 73 99 54 38 36 90
11 53 64 41 17 44 39 19 18
84 94 58 85 60 38 10 63 55
69 64 33 57 49 69 41 39 66
64 22 30 48 93 47 74 81 43
95 88 85 77 12 62 51 93 85
90 35 96 36 72 99 27 88 66
98 12 10 80 71 59 58 51 63
44 51 82 38 29 99 17 41 58
13 68 44 60 27 40 86 27 61
80 30 88 37 59 64 84 50 29
84 59 71 32 22 53 93 27 58
18 11 94 41 89 21 88 88 45
62 15 75 58 68 65 83 11 24
18 80 39 77 61 41 31 52 88
31 12 41 26 92 22 95 67 87
86 98 75 65 73 77 75 37 48
52 42 93 11 55 56 46 68 38
38 22 100 55 88 89 26 41 58
50 32 71 38 35 10 80 86 62
95 62 74 35 10 95 21 91 13
64 90 16 29 12 34 57 85 94
28 10 57 78 18 61 35 93 51
72 67 40 57 68 58 25 51 45
18 89 36 30 20 62 46 47 54
68 79 83 84 34 11 62 60 33
21 79 68 99 83 38 76 89 55
32 10 45 78 13 95 30 31 74
67 32 58 79 62 18 21 93 92
36 59 45 23 20 21 33 58 49
26 71 47 81 62 32 16 57 43
45 82 67 88 82 81 99 35 20
56 12 12 24 85 90 55 81 38
70 58 75 80 24 18 42 22 59
27 61 34 71 48 82 63 28 55
27 29 52 89 75 17 91 84 52
41 79 63 76 70 93 20 81 53
89 42 90 48 90 32 34 11 12
64 67 72 11 45 66 100 76 67
46 81 69 95 73 34 59 99 44
59 53 66 81 24 23 19 82 72
43 73 32 78 73 83 25 43 69
71 87 76 14 77 20 50 93 36
67 93 21 94 92 99 19 30 20
13 62 16 35 51 63 23 87 93
0.985598
0.569248
0.602814
0.230025
0.46063
0.543976
0.457025
0.263322
0.404632
0.480114
0.706701
0.578397
0.560509
0.234621
0.689608
0.777183
0.960584
0.489415
0.54374
0.705794
0.370659
0.595618
0.306675
0.977532
0.877752
0.746624
0.980764
0.767791
0.947305
0.344587
0.974177
0.21276
0.730273
0.444929
0.490622
0.509075
0.388844
0.945148
0.532333
0.60224
0.52906
0.74867
0.830911
0.976361
0.315839
0.40338
0.706622
0.907363
0.874842
0.366796
0.773094
0.760082
0.318185
0.509231
0.924406
0.780268
0.949697
0.687281
0.77222
0.311035
0.551528
0.633246
0.875404
0.928729
0.534966
0.414147
0.36045
0.626416
0.24512
0.497263
181 38
254 108
212 437
360 63
308 68
97 238
140 101
172 122
228 119
162 413
156 167
295 471
337 16
187 429
355 393
285 257
277 401
293 156
128 130
202 152
96 455
384 294
86 116
425 313
79 124
71 356
266 8
280 399
207 480
306 96
280 496
20 483
437 3
431 474
173 223
281 368
88 290
216 411
444 162
199 492
86 259
347 336
42 77
263 468
40 341
255 255
387 273
107 268
458 26
118 42
202 465
174 136
362 356
381 377
276 110
213 112
260 465
315 348
98 445
430 282
313 167
328 204
339 119
68 34
450 310
272 157
9 493
191 419
279 238
8 63
9595
2
