70
5
0 0 0 0 0
50 51 11 36 91
43 93 57 25 63
92 19 13 19 100
100 46 31 77 11
49 64 36 89 82
60 79 51 56 75
32 20 32 78 10
67 49 94 32 35
60 76 59 20 28
40 42 72 56 37
24 13 23 74 90
93 72 49 36 10
43 28 55 21 95
72 23 88 69 60
36 12 95 91 10
48 12 11 18 83
18 76 49 61 10
58 55 32 73 33
54 35 68 10 85
34 71 53 68 25
85 84 87 37 44
41 23 99 100 36
16 65 50 86 96
48 10 51 51 33
40 87 91 93 60
40 50 95 12 80
62 65 51 78 45
67 40 45 10 81
21 93 94 77 51
94 29 65 54 32
86 49 38 97 24
66 39 78 82 69
73 95 40 31 90
77 79 16 43 43
21 24 81 85 22
15 53 36 46 41
33 67 63 67 23
86 58 19 89 68
59 26 60 99 53
91 50 25 84 60
30 13 68 20 58
49 29 47 54 17
84 73 99 62 52
58 17 99 69 75
54 27 83 84 75
56 15 23 65 66
78 36 95 30 41
62 31 27 11 96
72 27 37 23 65
89 54 58 18 33
63 38 80 81 26
38 45 62 81 30
60 51 66 15 68
56 17 51 44 20
35 98 57 11 57
98 68 81 52 100
53 40 77 89 56
69 77 94 80 66
62 32 49 17 58
39 83 50 84 19
13 30 19 94 33
79 29 47 24 37
23 73 56 24 37
10 57 33 83 85
51 80 67 58 53
41 16 49 30 88
29 14 43 66 51
67 13 18 30 37
53 55 93 52 29
0.552889
1.48479
1.2071
0.526841
1.3478
1.38111
1.27637
1.27656
1.60121
1.83948
1.34051
1.91029
1.18707
1.80477
2.35974
1.93371
2.12815
1.16197
1.51515
0.727794
0.836659
1.58682
0.550933
1.75938
2.39955
1.23403
1.51728
1.55818
1.61843
1.53713
1.5758
0.826491
1.8947
1.47969
0.575837
1.43485
2.31105
0.581804
1.89145
2.20741
1.56883
0.871957
1.67235
1.88226
1.4231
1.84477
0.53357
1.3891
1.10263
1.48065
2.16777
0.673966
1.13994
2.29754
2.23518
2.04424
1.06625
1.45883
1.95641
0.75569
2.18538
0.605156
0.549129
1.60273
0.632023
2.40055
1.11867
0.814385
0.88572
1.91478
207 12
447 466
356 260
247 421
93 51
109 349
461 326
264 167
427 204
390 322
493 496
440 375
460 344
171 332
130 483
24 211
363 179
19 258
114 199
360 277
162 469
268 20
121 256
172 335
132 26
366 209
310 498
328 254
377 237
328 31
271 215
396 224
228 231
40 11
39 476
216 476
393 254
321 500
233 369
45 355
160 361
470 238
25 364
221 204
60 134
277 323
157 1
435 479
140 490
146 442
250 91
135 281
199 192
387 87
365 229
75 2
198 313
20 455
380 367
23 186
282 175
439 394
254 362
350 220
170 28
179 165
13 265
227 148
41 439
466 259
3661
5
