70
11
0 0 0 0 0 0 0 0 0 0 0
76 68 76 69 19 87 36 85 100 57 45
35 64 95 27 20 89 60 47 93 72 98
54 48 59 55 60 82 23 66 77 39 80
99 47 66 81 98 93 55 58 99 88 88
81 36 76 20 84 69 68 82 49 34 19
87 41 42 97 90 35 97 37 30 88 64
66 24 95 64 83 62 69 67 95 20 56
24 41 40 67 78 64 54 70 99 55 92
69 90 94 37 82 21 64 19 12 18 21
61 58 87 26 23 88 100 76 78 20 90
96 12 54 50 24 68 43 34 87 46 28
95 32 99 24 80 78 21 35 54 48 53
40 80 74 19 31 55 100 93 86 91 48
19 57 82 32 13 98 43 71 12 59 43
16 100 92 26 74 50 98 49 37 53 39
78 93 52 22 100 12 28 84 53 72 17
79 47 16 64 95 80 63 32 74 64 23
80 59 94 10 10 71 79 60 83 23 47
50 30 77 68 84 42 14 59 71 70 83
93 69 53 29 84 82 25 34 59 17 11
42 70 13 97 30 80 14 74 85 59 37
87 96 91 29 29 67 49 64 16 16 21
52 76 51 54 94 57 27 67 88 40 84
35 96 75 26 11 26 26 60 51 14 67
92 91 49 23 79 15 35 61 94 33 63
59 63 87 75 10 19 13 92 85 55 100
74 24 78 85 34 14 68 75 72 61 90
66 35 12 70 74 91 23 36 84 50 11
76 56 27 90 50 97 11 33 82 51 12
29 93 62 61 93 88 98 57 20 43 24
28 99 99 67 74 47 51 64 90 65 35
19 86 21 47 68 56 76 45 65 86 93
27 13 53 17 20 25 61 58 23 71 19
53 25 45 65 80 25 26 41 77 22 23
44 83 57 38 46 36 92 18 96 79 35
72 37 70 91 15 81 70 42 15 60 30
14 32 48 16 25 10 66 91 69 60 16
49 91 31 83 71 33 32 73 39 73 87
29 21 83 48 71 26 58 29 11 67 31
97 81 63 90 76 43 51 48 61 79 36
54 89 58 67 29 18 97 20 36 75 91
80 31 63 63 23 92 92 64 47 14 36
40 22 87 17 34 34 38 54 33 39 71
73 75 60 21 62 62 69 27 17 17 85
94 31 23 41 58 36 73 99 87 11 54
83 37 95 88 56 60 63 88 13 98 34
11 70 99 97 42 75 47 12 96 42 41
45 79 58 38 31 23 34 25 97 88 30
56 87 33 59 94 12 53 49 42 32 68
90 21 24 40 69 94 22 54 29 17 66
93 60 64 33 72 40 95 50 85 32 11
54 96 50 64 30 94 93 23 45 93 22
50 61 35 57 51 95 85 11 10 30 14
59 75 17 12 16 70 21 69 75 48 18
74 77 99 96 76 77 74 18 51 82 47
50 57 93 38 55 30 34 87 85 89 60
17 92 64 28 50 22 98 77 27 40 52
51 34 74 96 75 39 70 79 67 50 24
47 21 56 54 87 47 93 40 10 31 28
17 92 98 52 86 89 56 78 18 38 37
55 43 100 50 83 85 55 92 70 34 39
89 32 73 16 26 62 89 88 39 76 81
25 30 16 98 23 25 49 15 51 43 71
70 56 40 88 30 14 60 78 49 50 83
39 17 25 52 97 32 67 37 43 52 58
86 49 83 11 13 23 12 74 86 24 90
56 44 72 77 73 62 61 80 81 90 60
89 52 37 49 26 95 73 35 60 88 96
14 30 32 28 42 26 76 41 20 36 64
0.593912
0.435116
0.579184
1.16292
1.26812
1.30861
0.894231
1.42674
1.07765
1.33569
0.556773
0.45329
0.8754
0.362711
0.783222
1.20931
1.38824
0.34884
1.17551
0.800977
1.11503
0.440335
0.636717
0.611674
0.655917
1.37592
0.670965
1.35249
0.924748
1.4362
0.534294
0.677834
0.726989
0.507959
0.495732
0.317008
0.914016
1.35228
0.460223
0.311302
0.890152
0.965264
1.06323
0.53022
1.13838
0.390433
1.38754
1.46815
0.505972
0.407056
0.847951
0.651712
0.73665
1.06411
0.354008
0.801139
0.68592
0.435497
0.532186
1.1841
0.768092
0.777726
1.32368
1.22409
1.33524
1.02484
1.06052
1.16541
1.38626
0.916853
75 49
456 438
339 448
279 466
47 126
470 369
109 127
118 301
102 187
270 358
165 128
108 384
358 497
199 449
316 42
343 65
275 160
216 428
387 194
205 118
399 38
446 260
76 295
219 347
89 332
251 450
219 30
196 435
46 428
373 137
191 434
461 147
288 401
385 413
205 358
348 258
328 496
61 50
456 23
413 489
454 213
17 211
468 365
324 74
23 47
182 13
411 34
254 366
371 55
488 198
239 131
226 179
443 495
45 459
80 139
63 481
315 217
338 341
71 234
447 52
95 117
243 479
223 250
216 123
119 281
150 35
192 193
362 446
1 96
233 385
9602.5
2
