70
9
0 0 0 0 0 0 0 0 0
14 77 75 31 59 81 42 17 88
78 60 70 22 65 66 36 39 68
36 21 12 30 90 40 33 57 90
69 96 76 41 79 100 20 60 41
28 89 70 62 37 10 86 47 41
43 56 58 62 86 47 68 96 23
81 58 87 90 98 75 67 91 65
75 37 10 35 66 29 78 80 67
64 18 89 67 68 34 35 99 65
80 19 84 83 26 48 38 54 74
96 72 23 76 40 60 25 79 63
10 26 65 11 39 66 79 41 39
97 21 80 98 62 84 85 62 79
100 37 39 45 22 54 42 35 50
18 35 85 84 84 73 29 50 53
76 65 20 60 31 26 19 84 93
27 77 34 71 50 25 89 92 78
78 44 52 66 17 37 29 78 47
82 34 79 58 29 74 31 63 83
21 98 19 11 38 88 29 33 50
17 80 87 31 10 84 36 50 38
90 15 89 56 96 61 67 47 43
35 10 58 82 21 61 69 83 46
73 57 94 100 73 10 51 79 59
39 83 12 45 67 75 22 40 12
59 85 25 50 71 38 71 72 62
38 26 21 55 56 28 82 46 74
32 42 50 38 100 95 66 28 42
26 42 52 89 11 12 45 98 56
13 75 93 16 82 88 91 48 75
24 55 47 22 49 48 88 64 33
68 54 43 90 80 36 26 98 52
40 14 15 64 77 35 81 89 65
18 86 20 34 47 18 64 98 96
79 82 21 53 58 84 88 14 67
99 68 57 13 41 92 30 10 46
62 82 31 85 20 72 66 32 48
57 60 19 73 59 88 51 46 38
84 96 51 45 83 76 82 12 10
92 79 83 100 23 53 14 89 74
73 77 64 64 41 71 74 11 19
69 76 90 87 43 37 90 59 47
79 83 67 18 43 70 78 12 96
18 11 82 21 80 35 85 46 94
80 56 23 67 98 19 82 78 81
91 81 96 57 76 46 55 29 84
95 74 15 40 92 67 79 10 28
31 60 15 36 53 46 35 14 76
51 74 13 65 81 12 20 97 29
61 68 17 31 36 66 30 37 100
85 52 73 52 36 45 42 47 38
88 20 43 75 22 55 44 41 95
98 85 64 72 69 71 76 100 79
15 20 13 88 73 88 87 35 32
22 52 89 62 66 42 24 30 56
31 56 49 64 14 93 24 44 37
31 77 64 88 66 82 82 67 88
57 17 44 49 99 98 49 55 88
95 91 88 45 23 88 12 13 58
69 28 64 59 10 23 65 16 43
89 68 45 15 32 70 67 69 50
44 26 12 93 53 93 78 38 37
100 81 86 44 54 55 72 46 80
94 74 12 77 99 45 26 40 61
75 81 64 85 60 23 72 67 74
41 28 73 62 78 70 53 64 36
74 36 84 26 35 68 94 56 71
49 40 57 43 91 82 43 12 56
94 71 98 75 54 50 58 17 75
1.69885
1.42371
2.45047
0.522469
1.98818
2.40164
2.26546
1.84781
0.764312
1.7945
1.24768
1.8654
1.53105
0.587002
1.4286
0.748732
0.715771
1.91251
0.814071
0.678953
1.14385
1.2129
0.77567
1.10781
2.133
0.781877
2.30893
0.625005
2.48297
0.73027
0.914213
2.29025
2.01059
0.603444
2.46718
0.503224
1.77459
2.40417
2.29096
0.596463
2.11789
1.01057
1.29779
2.17505
2.14252
1.76188
1.60746
1.38252
1.10008
1.50713
1.13165
2.47722
2.06184
2.41539
2.10697
1.21415
1.53924
0.536038
2.48611
1.43218
1.85399
2.21954
0.910599
1.0188
1.18448
0.679995
2.18596
0.845239
2.22212
1.87536
147 394
164 95
219 24
83 353
415 264
40 405
241 8
356 225
242 19
166 316
252 70
33 62
138 150
104 302
373 285
141 187
118 436
345 193
490 275
381 188
347 141
312 208
320 377
233 354
224 317
30 307
208 118
382 415
459 258
144 272
41 297
43 232
409 334
50 282
350 215
265 147
402 221
231 304
305 397
235 275
368 407
137 19
500 130
60 254
123 413
210 235
245 267
465 192
189 382
203 305
497 20
439 266
370 254
168 13
25 251
194 171
391 60
188 57
483 44
45 284
127 211
222 223
15 59
445 443
215 175
125 208
453 461
112 30
372 338
481 440
19485
1
