70
7
0 0 0 0 0 0 0
74 56 37 29 50 55 74
72 83 98 29 87 91 16
72 48 72 96 36 47 88
64 89 70 99 66 88 91
47 59 28 82 24 61 26
35 43 98 75 77 29 81
41 81 44 71 96 56 85
58 59 23 69 16 44 63
65 73 74 68 87 83 76
87 25 81 47 45 74 59
24 61 58 84 61 52 30
47 81 40 28 29 55 49
48 24 74 36 82 54 87
66 75 52 47 96 84 29
87 91 36 46 81 61 13
49 89 48 23 21 76 31
59 25 61 19 66 91 22
46 30 16 98 72 39 11
40 84 53 63 93 36 78
82 39 36 24 92 77 92
13 72 47 40 36 38 80
72 38 76 96 36 63 82
21 57 31 56 61 68 82
64 16 80 100 18 44 37
62 30 62 91 65 32 38
74 33 61 86 32 72 87
76 53 91 40 44 28 100
95 80 88 96 30 63 65
92 42 68 78 19 49 77
89 81 17 76 89 91 70
34 98 15 89 71 43 38
41 26 67 41 42 43 90
62 61 48 14 44 23 87
38 93 38 77 55 97 89
98 14 73 44 95 78 40
89 89 69 52 99 46 85
50 12 39 74 82 23 84
26 29 90 54 49 72 74
54 32 75 96 44 69 91
35 26 58 92 60 87 22
28 98 62 81 31 70 15
70 56 65 51 10 46 46
70 18 20 31 19 55 59
76 51 19 11 77 79 70
38 44 94 29 56 67 48
40 15 66 73 62 26 68
89 80 31 15 23 14 47
85 94 52 68 90 28 73
96 82 59 23 94 66 11
32 98 77 83 68 79 98
18 47 78 76 98 57 93
32 94 82 61 100 20 75
82 53 30 84 98 17 24
18 15 34 92 48 24 77
23 96 98 65 71 98 78
68 76 45 19 61 47 39
89 88 77 19 96 73 20
37 27 80 28 36 98 50
69 73 20 30 45 38 93
96 34 71 19 29 19 26
33 36 96 25 99 12 24
30 86 59 49 50 27 32
88 12 56 84 78 20 87
45 68 98 11 61 52 24
55 82 98 11 68 10 10
57 76 56 88 33 59 71
64 74 58 85 92 65 45
63 57 52 60 53 10 30
91 91 50 65 81 83 82
0.357748
0.338731
0.482542
0.161526
0.28171
0.454023
0.404906
0.27817
0.261079
0.102075
0.168414
0.211024
0.167021
0.485894
0.372211
0.433967
0.477962
0.434123
0.257075
0.243523
0.248187
0.491832
0.249095
0.212011
0.277798
0.41226
0.312558
0.237267
0.303318
0.113305
0.498568
0.490588
0.138321
0.265467
0.253354
0.214567
0.309024
0.152255
0.197983
0.460033
0.306762
0.32582
0.279107
0.220907
0.37775
0.389204
0.321676
0.367236
0.143602
0.235594
0.194267
0.356521
0.2516
0.413293
0.114126
0.458179
0.207962
0.194213
0.316306
0.19259
0.195484
0.402743
0.138295
0.262547
0.297964
0.269659
0.151666
0.28479
0.163111
0.120949
195 485
13 393
434 327
333 86
26 456
1 212
163 326
191 380
41 387
319 16
453 136
167 480
113 388
38 138
222 9
104 245
402 232
186 52
165 453
491 69
292 256
244 447
110 111
113 205
44 121
8 499
21 232
273 139
41 291
172 362
43 443
283 316
30 161
175 443
41 52
218 279
40 264
36 72
316 278
227 499
439 121
412 336
155 212
376 422
441 332
157 151
25 45
373 139
302 79
70 10
414 308
16 432
8 464
328 444
410 256
221 216
411 201
207 268
321 383
191 307
284 39
215 422
354 220
33 310
440 303
142 360
120 478
448 165
339 254
76 276
20020
1
