70
3
0 0 0
48 23 13
24 76 82
71 42 98
60 25 40
58 27 61
28 55 37
36 52 95
17 52 45
89 46 81
88 57 96
61 33 89
63 58 81
93 92 90
88 100 59
96 55 92
99 90 64
64 21 16
93 70 42
52 54 86
66 87 85
13 40 69
60 84 50
42 61 65
28 71 46
82 57 12
98 49 50
50 98 58
30 76 94
92 40 50
97 34 30
51 26 11
16 94 52
52 81 58
92 15 69
100 42 71
73 61 32
28 31 45
94 16 52
30 84 20
67 16 80
10 70 75
91 68 51
29 33 40
16 34 71
28 55 92
84 91 22
97 53 29
21 20 69
10 44 97
68 86 86
84 69 64
26 93 68
43 14 90
91 29 56
61 66 83
16 29 56
36 72 60
91 49 75
99 60 22
29 29 48
34 95 70
99 35 66
98 51 10
41 85 95
58 22 81
28 45 90
87 97 40
58 10 56
21 24 14
0.138043
0.370667
0.453404
0.105659
0.41824
0.333808
0.134036
0.426618
0.171112
0.48475
0.461438
0.403021
0.281351
0.213693
0.479085
0.213197
0.334785
0.218121
0.279782
0.245936
0.262391
0.479071
0.43264
0.178809
0.473916
0.250458
0.456366
0.432934
0.234299
0.367631
0.246183
0.128377
0.34799
0.243199
0.334272
0.329648
0.434782
0.330545
0.349983
0.230484
0.411128
0.262081
0.161951
0.148249
0.478816
0.496857
0.102102
0.412158
0.120655
0.381927
0.471449
0.479113
0.398149
0.428449
0.200905
0.192536
0.308402
0.155008
0.232561
0.430245
0.175395
0.499544
0.246303
0.326573
0.387539
0.22306
0.387402
0.430044
0.477886
0.113015
160 9
7 56
50 286
350 103
395 354
212 102
165 327
16 422
270 28
306 36
122 297
96 449
453 413
72 310
316 188
419 450
64 248
450 304
1 287
488 489
224 278
302 396
139 219
426 179
299 411
477 450
298 416
118 478
421 40
237 51
385 288
456 469
485 263
61 34
143 16
91 50
394 289
230 319
426 79
404 83
78 202
180 184
209 360
150 206
42 182
134 220
459 489
53 377
355 222
64 95
414 435
375 480
281 112
281 303
36 317
377 386
23 196
348 322
12 132
22 355
349 136
403 245
430 347
216 429
127 113
342 66
263 30
89 470
14 64
484 248
6613.33
3
