70
5
0 0 0 0 0
84 30 94 66 16
67 67 76 12 31
29 28 68 20 50
91 19 70 17 10
40 90 89 98 56
47 28 41 59 65
73 81 47 62 45
27 87 88 96 38
18 69 30 24 71
96 85 13 95 50
42 50 65 76 84
37 28 23 20 23
79 74 25 45 81
24 62 37 49 26
19 59 90 36 68
30 53 18 10 65
33 80 62 64 40
45 98 12 13 47
28 68 59 46 76
71 79 86 75 70
41 36 31 54 80
16 65 73 34 97
100 38 68 17 45
42 20 100 69 20
20 94 32 67 10
60 29 53 85 98
24 42 89 59 39
96 44 34 84 60
33 17 47 27 95
100 35 57 80 38
63 52 26 42 13
95 76 26 27 14
15 63 76 51 26
90 11 15 17 36
94 37 24 79 46
36 56 81 33 35
48 66 80 91 20
48 34 89 42 22
11 63 62 100 81
33 60 61 96 33
99 63 76 53 18
35 58 53 49 31
86 17 44 93 28
13 91 94 39 96
99 70 81 82 14
80 46 21 34 54
14 79 100 34 51
87 94 25 24 58
62 32 36 62 59
62 64 49 37 92
56 89 45 74 57
58 29 83 74 55
72 99 39 72 72
94 51 67 61 55
72 85 45 75 73
24 13 83 52 87
76 77 72 84 65
49 23 20 78 75
18 39 47 52 33
43 14 82 50 16
34 71 96 65 49
92 42 92 90 71
85 18 37 88 14
38 69 19 73 75
80 76 25 18 89
48 26 14 52 21
73 10 96 53 13
35 57 55 21 32
83 47 16 34 32
0.272122
0.17108
0.290227
0.378525
0.213438
0.282035
0.37213
0.129794
0.254494
0.357831
0.298803
0.235658
0.322645
0.497047
0.31427
0.227568
0.234471
0.126407
0.279751
0.412837
0.265242
0.484164
0.170919
0.416795
0.214976
0.163087
0.346265
0.327484
0.147583
0.428956
0.254373
0.415941
0.102301
0.370382
0.285476
0.33889
0.394626
0.234022
0.428393
0.130353
0.412346
0.249806
0.339985
0.320657
0.343254
0.232909
0.358949
0.219796
0.270326
0.193495
0.308117
0.360052
0.184188
0.476341
0.443331
0.144136
0.237008
0.18751
0.214308
0.347258
0.21069
0.337705
0.215775
0.416909
0.346108
0.495556
0.430189
0.368133
0.378857
0.374835
261 16
88 220
62 423
253 474
409 262
426 75
148 4
289 424
28 121
430 253
411 497
102 131
16 272
4 286
223 282
415 493
441 415
241 228
86 222
245 243
452 228
227 67
449 100
26 159
6 119
406 348
213 11
498 298
354 23
177 303
376 162
497 304
213 477
287 165
296 17
216 81
325 175
286 307
384 418
474 219
277 90
249 171
6 75
337 131
115 234
343 107
298 364
140 232
14 131
401 157
367 14
270 5
407 431
143 294
95 82
446 392
32 282
191 422
191 370
158 246
270 251
250 471
15 444
388 55
149 44
166 77
44 380
500 90
269 48
219 12
3715
5
