70
7
0 0 0 0 0 0 0
46 46 43 26 95 72 53
42 68 78 17 97 65 74
53 100 16 44 44 34 69
98 28 41 85 41 57 20
65 41 24 39 36 71 38
42 27 51 19 100 58 50
91 42 49 60 73 88 11
100 33 53 97 37 80 64
90 47 62 67 73 96 68
92 48 83 93 82 56 88
56 80 95 59 67 64 23
17 52 64 82 42 56 50
81 36 23 93 57 78 49
98 11 94 29 95 80 35
76 28 83 28 24 38 41
25 25 48 41 41 72 17
12 73 96 66 78 85 73
15 30 58 58 48 49 25
29 61 26 98 57 100 94
86 62 77 29 59 85 13
89 62 59 49 59 10 69
66 32 56 85 24 18 82
64 66 46 26 83 13 50
87 95 51 31 41 18 12
82 44 85 98 79 32 35
47 65 99 77 40 11 10
51 88 93 65 66 81 74
48 60 65 31 25 89 38
14 88 55 19 46 38 39
28 82 83 55 46 77 58
66 54 72 45 47 100 30
27 19 58 26 20 53 80
27 39 86 64 36 63 11
15 15 50 73 46 79 73
42 13 77 30 94 27 86
42 35 51 17 98 23 43
80 20 38 96 48 55 30
71 75 55 69 39 84 79
68 82 24 64 96 24 84
72 89 20 15 26 53 56
65 17 31 82 94 90 56
84 83 88 14 58 26 11
69 57 61 84 89 86 44
70 20 81 52 84 82 99
63 79 97 58 29 50 92
19 28 91 87 52 36 32
83 100 34 83 39 72 59
82 61 86 37 56 77 11
48 16 84 32 58 72 43
100 62 18 55 81 43 79
71 79 56 56 34 66 75
100 24 99 56 44 100 47
39 20 86 37 82 26 42
82 67 67 17 35 87 84
74 49 95 39 73 79 89
33 17 54 71 16 67 26
35 59 89 68 96 80 27
82 18 58 66 78 96 53
57 96 41 46 50 76 86
22 17 97 83 62 53 14
72 42 67 90 29 63 23
88 10 86 38 87 98 90
95 89 90 81 42 46 88
32 33 49 52 78 87 82
20 62 43 24 71 16 97
78 60 19 48 48 84 90
32 78 96 83 97 53 14
59 96 63 20 82 34 83
69 94 38 79 44 86 23
0.10217
0.264564
0.376497
0.261731
0.428147
0.431689
0.273838
0.394066
0.138843
0.324399
0.281129
0.282748
0.484272
0.233281
0.457317
0.302125
0.209424
0.33241
0.221934
0.309992
0.281843
0.140658
0.196575
0.224885
0.400858
0.334082
0.167273
0.260816
0.342215
0.300608
0.128361
0.408946
0.397612
0.481127
0.443539
0.272454
0.402981
0.37937
0.348929
0.271287
0.303778
0.341129
0.211309
0.325019
0.252263
0.498317
0.424763
0.478477
0.196135
0.384742
0.322763
0.468777
0.183056
0.372713
0.118295
0.410698
0.4109
0.451421
0.460389
0.259756
0.156018
0.384628
0.237722
0.459579
0.240422
0.264606
0.314622
0.440265
0.311339
0.289557
326 62
279 421
227 140
242 219
22 346
77 329
272 239
51 222
441 447
84 116
212 472
137 122
127 349
431 478
390 3
214 148
486 15
6 451
201 423
384 3
352 474
479 208
223 385
308 75
50 324
405 457
338 89
486 56
196 382
2 187
193 18
193 164
30 397
353 329
259 30
52 460
165 294
260 452
50 69
319 381
65 85
19 171
24 185
40 123
170 5
166 391
2 432
93 178
71 32
354 241
232 244
74 11
314 365
487 178
324 460
356 266
90 398
230 349
406 352
417 32
210 298
329 258
325 27
476 480
198 447
19 238
59 500
159 41
402 418
390 476
4977.5
4
