70
11
0 0 0 0 0 0 0 0 0 0 0
38 21 12 91 97 96 28 96 32 48 36
40 68 94 22 98 68 44 25 57 17 37
63 41 42 80 41 12 56 86 53 91 25
71 55 91 76 53 53 76 31 11 19 70
24 46 63 68 31 57 85 73 67 10 10
52 47 25 81 75 30 59 71 74 63 90
40 19 54 24 17 82 52 61 53 69 82
12 30 66 53 65 50 55 73 92 46 46
59 94 40 100 46 67 73 12 70 45 70
43 55 51 14 35 29 26 58 55 17 99
32 63 61 77 40 17 85 98 39 11 26
88 16 42 40 41 56 89 46 13 11 18
37 24 47 70 100 25 33 61 56 16 53
54 39 84 74 50 32 61 48 91 22 21
76 26 31 52 20 57 78 86 26 16 11
15 78 70 55 13 72 99 82 90 31 78
55 56 24 13 17 35 99 79 93 11 37
45 53 82 25 91 56 52 56 25 91 66
75 51 80 65 13 54 86 58 68 45 18
39 58 22 29 66 38 39 81 37 32 96
76 33 36 75 33 97 22 35 84 96 33
21 27 61 30 25 19 45 12 69 33 81
76 14 26 80 92 46 90 14 93 93 76
24 97 81 12 83 99 51 34 72 73 58
84 70 50 88 31 73 60 82 79 43 23
68 95 51 81 73 76 23 43 10 72 18
81 33 93 43 94 94 10 18 34 41 58
16 94 84 39 13 39 50 17 73 62 27
90 51 54 34 11 20 33 77 19 100 12
54 63 54 90 28 22 43 100 20 36 42
21 86 49 46 65 70 95 38 69 92 14
11 27 99 94 45 31 16 17 35 58 98
25 20 48 76 40 61 73 19 14 48 71
75 30 70 69 69 49 25 25 57 15 56
97 37 20 94 21 30 75 66 74 98 95
100 77 88 58 41 58 59 54 28 17 67
68 92 34 82 65 23 55 84 93 96 53
89 70 88 99 49 83 91 53 40 50 100
91 72 21 62 40 63 45 17 74 58 87
72 62 67 27 78 39 70 78 17 82 16
89 87 79 78 48 54 27 23 53 47 62
75 87 52 39 100 33 92 68 32 62 88
79 41 13 30 89 41 71 95 37 63 47
75 71 63 49 78 72 85 84 98 71 16
72 72 78 52 61 60 78 76 79 91 51
75 40 89 40 91 100 77 91 39 85 57
30 47 25 17 97 82 96 43 22 74 10
49 67 69 21 61 83 49 82 21 33 83
63 65 24 78 32 35 36 48 76 85 37
58 36 57 91 12 42 63 61 44 25 14
62 10 90 20 80 43 21 12 90 16 81
75 81 18 96 71 82 90 90 76 73 89
68 72 95 13 60 11 61 44 72 95 19
52 67 100 69 73 38 89 35 70 95 77
28 31 33 44 64 90 23 64 33 22 75
95 38 73 49 22 85 65 71 75 100 11
90 61 41 91 94 45 57 46 31 94 35
43 57 43 34 34 66 56 34 66 86 71
30 28 34 30 56 85 29 45 55 58 49
24 73 10 74 85 62 99 39 19 97 94
90 65 55 58 93 64 78 69 95 99 60
93 34 93 28 69 60 10 36 37 81 96
68 94 33 92 31 75 18 16 13 19 54
68 35 74 88 26 73 100 57 82 94 78
61 37 11 72 80 12 68 29 58 25 27
41 28 75 89 97 40 54 20 78 46 62
41 70 59 95 12 49 28 52 74 52 26
14 83 64 10 36 47 56 88 68 90 39
49 43 52 14 50 31 84 10 50 96 80
1.15707
0.966706
0.603595
1.19631
1.813
0.93783
1.33478
0.903177
1.53027
1.88073
1.98458
0.478102
0.933991
0.572801
1.02849
1.17393
0.789656
1.12743
1.58495
0.661241
1.74616
0.496359
1.74783
1.26103
1.07903
1.84545
0.618279
1.59157
0.738258
1.08637
0.41425
1.18276
1.87777
1.91307
1.87642
1.41498
1.56566
1.20446
1.07343
1.34919
1.77004
0.912784
1.98415
0.997257
1.47774
1.34513
0.492343
0.740019
1.97519
0.746397
0.85977
1.12021
0.705269
1.79862
1.61328
1.51229
1.17707
0.843478
0.722397
1.90354
1.15005
1.99097
0.517841
1.90433
0.421462
1.04375
0.974323
0.683327
1.28947
1.63119
407 71
462 143
374 180
16 270
347 411
58 355
80 291
294 333
302 71
139 157
165 483
64 140
259 264
31 42
195 130
434 13
233 100
20 24
107 94
34 311
139 72
303 492
307 89
230 305
15 242
123 113
174 384
27 49
3 429
296 260
224 112
408 53
245 165
22 49
268 283
428 167
85 433
293 487
143 478
493 499
135 117
87 484
22 192
486 421
367 51
226 125
300 328
168 168
101 244
467 232
329 450
214 381
468 400
154 334
56 295
354 107
157 222
4 386
131 15
83 253
318 99
367 305
301 121
214 456
202 299
394 316
29 391
193 300
2 418
428 355
19170
1
