70
7
0 0 0 0 0 0 0
94 94 60 47 37 91 58
57 39 70 67 68 59 35
36 97 95 41 90 84 88
85 72 57 78 62 73 42
99 74 32 87 67 73 28
77 83 63 46 42 90 25
87 10 36 95 96 66 55
47 67 86 44 50 21 86
72 59 30 44 97 10 33
74 60 97 79 18 34 55
15 14 93 36 79 59 77
30 37 48 24 46 58 85
80 11 75 33 58 56 40
23 36 75 43 12 34 41
94 58 32 47 26 76 22
55 33 43 99 74 100 92
69 72 10 28 93 75 33
24 72 57 37 53 79 72
100 54 50 39 51 75 65
91 21 49 88 26 90 94
65 63 39 97 99 45 60
22 85 11 71 72 94 17
14 46 38 19 24 91 59
95 82 62 98 71 75 95
66 68 80 36 71 72 97
97 27 67 29 96 65 37
19 62 17 69 12 92 60
20 33 81 59 32 57 37
23 37 86 52 78 74 14
93 87 39 35 100 23 84
80 68 76 73 21 66 31
17 45 72 55 64 98 99
66 25 86 12 96 32 40
26 81 88 59 57 43 30
93 60 53 16 83 78 14
38 20 100 54 51 96 70
39 99 19 91 56 93 96
29 31 71 41 29 87 65
42 23 53 86 28 63 32
67 11 87 99 100 60 43
40 54 30 10 92 53 78
38 59 14 97 13 93 40
44 12 94 13 45 20 74
51 50 38 13 16 53 60
22 40 17 80 86 90 93
75 33 22 88 37 29 34
91 90 37 86 72 13 96
40 97 85 97 63 93 53
55 31 63 92 20 62 12
35 42 26 52 87 79 29
20 18 36 41 61 52 87
55 51 73 11 70 41 72
12 35 30 40 31 75 71
68 23 45 35 48 59 34
38 22 40 50 76 43 90
38 34 40 39 33 47 40
76 56 47 21 72 31 100
33 28 15 25 60 16 91
85 24 31 83 94 37 29
56 90 42 66 71 87 90
31 29 72 92 25 31 22
70 39 93 82 34 70 88
35 53 89 84 90 74 73
25 22 50 84 67 88 49
74 66 22 35 85 25 16
83 65 29 54 29 91 71
98 78 49 79 43 95 96
39 14 21 67 40 84 22
69 25 61 70 88 85 71
0.403343
0.37478
0.303763
0.426513
0.39919
0.157222
0.494805
0.130619
0.203782
0.40435
0.28372
0.106488
0.488651
0.468841
0.241019
0.486176
0.144763
0.152761
0.285926
0.484656
0.354362
0.481324
0.106954
0.332834
0.212011
0.455692
0.257941
0.125912
0.116324
0.411247
0.378212
0.429998
0.447083
0.365927
0.304579
0.225289
0.487687
0.419726
0.114536
0.184129
0.450703
0.203421
0.288895
0.463496
0.13826
0.155928
0.167786
0.261336
0.349755
0.102368
0.232315
0.157644
0.126015
0.154197
0.270394
0.244729
0.167053
0.134774
0.305853
0.283125
0.10333
0.405685
0.466867
0.392911
0.284008
0.37019
0.117399
0.16619
0.309543
0.118116
103 365
338 480
470 452
444 121
460 213
419 216
232 427
483 122
116 270
411 473
256 111
397 245
135 106
279 280
427 323
350 57
331 23
500 283
460 104
326 345
446 56
452 140
494 112
294 454
495 288
343 0
266 132
355 491
207 97
27 476
424 413
239 496
402 424
311 105
320 272
484 6
87 492
177 431
483 384
240 379
189 148
177 97
367 462
77 83
297 10
253 403
212 160
271 372
429 59
358 462
365 135
221 140
13 42
298 262
396 23
256 130
452 4
266 108
500 77
393 173
22 189
142 137
444 262
119 398
278 228
9 125
189 439
85 435
32 175
195 294
6496.67
3
