70
5
0 0 0 0 0
71 11 100 11 27
92 26 84 74 92
40 19 64 68 66
96 69 53 60 25
91 21 74 27 32
19 56 94 86 47
55 50 41 88 91
73 89 78 34 74
29 91 53 84 79
21 74 15 23 78
44 78 90 19 46
39 36 31 50 11
12 33 29 42 73
64 43 72 53 92
37 14 72 58 17
26 97 12 63 26
76 48 91 33 82
100 15 48 34 58
37 41 70 58 64
56 65 79 59 62
75 11 64 25 54
96 100 71 23 51
93 83 13 65 97
56 93 24 55 39
11 80 65 13 24
93 62 14 83 24
18 83 93 12 11
28 91 65 14 10
50 75 83 67 15
77 36 85 14 98
20 22 85 22 10
12 47 39 22 78
40 60 91 56 72
93 64 64 53 80
88 96 30 17 36
11 55 62 98 56
16 83 22 71 90
54 88 14 67 89
35 54 66 63 18
63 36 90 62 35
99 88 100 56 77
68 36 50 22 55
55 56 32 98 91
94 26 15 17 92
11 27 29 33 53
55 38 84 14 14
50 97 19 39 10
80 38 74 16 40
64 22 62 71 28
45 49 53 79 45
20 64 89 70 75
53 75 79 44 54
30 73 12 35 99
62 21 85 73 30
21 22 29 85 50
94 87 73 39 43
37 72 86 92 68
10 76 81 43 48
41 46 58 27 81
50 79 97 73 53
74 57 78 17 45
72 81 69 42 50
63 61 49 66 26
93 56 36 28 36
55 28 84 94 31
30 99 20 70 56
64 10 50 79 76
87 50 36 96 33
87 79 24 31 58
0.122766
0.371366
0.331558
0.366125
0.14055
0.206242
0.120719
0.455243
0.234191
0.304564
0.490972
0.225425
0.229345
0.471282
0.153025
0.3608
0.130755
0.439364
0.284444
0.351781
0.499712
0.270575
0.278037
0.32036
0.426304
0.35436
0.403378
0.260287
0.308239
0.215811
0.221449
0.335398
0.1591
0.170045
0.432401
0.196468
0.278289
0.188728
0.368478
0.283686
0.365278
0.128548
0.37435
0.366081
0.415327
0.298472
0.478683
0.246479
0.215839
0.419149
0.371934
0.371502
0.178212
0.207381
0.416326
0.362279
0.108891
0.353118
0.273894
0.401597
0.443629
0.418158
0.347785
0.264613
0.327895
0.468081
0.468206
0.497049
0.182207
0.374562
141 360
443 74
370 444
318 142
400 408
485 465
331 96
442 248
300 434
476 435
386 175
384 457
470 412
241 304
436 310
146 193
109 280
207 174
383 162
351 315
231 189
404 300
15 34
450 491
443 216
195 234
328 247
86 461
29 82
398 189
272 16
398 256
78 50
307 103
171 456
391 389
469 373
404 499
375 356
266 241
106 434
334 455
267 50
467 4
17 404
408 428
38 83
2 480
408 435
328 50
259 448
479 125
349 487
39 380
116 151
448 142
47 21
163 298
149 279
123 484
131 31
377 406
203 299
96 88
66 14
448 113
166 462
144 26
24 155
425 163
9420
2
