70
5
0 0 0 0 0
98 98 100 91 51
61 20 75 46 73
91 62 41 82 40
63 75 37 97 13
94 19 60 52 38
54 80 52 84 46
15 32 80 53 48
26 89 47 13 99
59 90 100 75 15
65 63 50 68 62
17 46 25 37 94
79 42 76 46 97
29 34 89 80 33
87 33 97 48 58
38 23 97 59 78
56 69 83 48 73
67 73 57 50 65
91 60 22 53 71
91 43 49 92 21
74 95 69 78 31
46 19 71 44 52
74 39 65 56 51
70 25 73 55 16
82 15 94 63 30
18 97 48 17 29
70 32 73 25 100
43 90 92 32 32
88 21 91 93 40
94 11 35 17 11
25 100 33 33 65
53 67 72 70 90
17 97 75 53 37
55 13 41 41 43
47 62 29 99 91
51 29 94 66 48
29 24 50 95 68
63 65 77 15 98
81 39 94 25 62
27 91 37 44 100
65 44 66 89 94
68 60 27 38 87
86 19 60 25 45
45 43 85 96 76
38 91 40 43 81
29 82 69 63 20
62 83 13 58 55
19 55 79 93 92
39 82 40 75 60
100 50 67 45 45
90 37 41 53 94
65 90 61 78 78
78 22 97 100 84
39 26 96 80 51
17 69 28 60 96
97 43 59 64 47
42 27 13 85 34
39 61 34 80 51
52 20 52 56 19
85 75 84 23 75
34 100 31 82 76
15 24 28 31 60
18 88 29 14 89
36 29 77 40 57
62 88 38 39 10
36 75 84 58 95
59 58 28 78 75
14 96 90 33 20
33 69 32 26 64
61 80 35 71 12
1.29499
0.680176
1.91444
1.42637
1.61829
1.20034
1.66723
0.586331
1.56309
0.585705
0.462975
1.55767
0.525173
0.938397
1.62266
1.68912
1.80661
1.0381
1.7835
0.676152
0.680276
1.21217
0.918171
1.14664
1.15959
0.674417
1.59565
1.40001
0.795335
1.47459
1.1071
1.68205
1.93218
1.59728
0.742967
0.76976
1.04527
0.728087
0.776452
0.89235
1.87751
1.20462
1.88107
0.496403
0.819938
0.639168
0.804232
1.83691
1.43184
0.882353
0.764108
0.763653
0.51167
1.85685
0.834149
0.605929
1.94399
1.63789
1.22798
0.906495
1.53729
1.67899
1.7653
1.00517
1.05756
1.61641
1.59412
0.651761
1.6746
1.7725
477 495
487 129
125 228
479 329
291 348
122 80
312 24
39 119
489 130
195 294
270 266
465 206
202 466
320 432
76 328
323 384
104 463
26 124
241 136
352 366
38 463
234 396
329 311
75 30
283 145
230 91
8 146
169 190
488 415
392 14
65 119
19 339
41 471
330 439
238 230
55 24
449 390
318 320
182 84
284 192
242 154
209 308
24 238
71 28
228 490
364 34
499 238
322 359
262 324
148 23
212 231
272 22
418 308
302 331
250 35
105 92
330 399
438 375
493 18
448 151
480 293
186 258
411 233
210 337
290 375
221 406
155 177
343 79
319 474
13 233
9895
2
