70
7
0 0 0 0 0 0 0
33 80 15 42 82 54 31
16 80 46 78 62 47 37
42 92 61 64 13 29 27
12 43 27 23 25 86 69
68 51 45 64 46 73 60
61 13 54 58 49 40 65
79 50 99 65 32 44 45
97 79 86 58 66 99 96
99 37 21 19 51 35 32
55 77 88 95 63 41 21
83 93 33 29 79 24 84
26 96 71 94 55 36 35
42 99 21 42 79 63 87
15 21 95 65 36 15 21
44 73 94 89 77 64 14
77 28 51 96 56 49 27
94 52 18 80 14 66 49
74 72 43 96 43 52 20
63 15 95 67 77 65 52
18 70 84 74 94 48 38
53 75 57 71 88 93 90
78 10 13 43 16 32 59
63 20 53 40 58 51 97
71 24 19 77 57 80 46
90 71 15 58 80 54 80
93 12 59 22 30 20 82
40 53 84 27 13 27 24
45 97 37 76 18 29 40
71 99 58 19 56 18 30
80 71 66 24 13 12 26
37 47 20 19 64 62 22
48 52 58 92 62 88 86
84 76 87 92 54 40 61
84 24 56 92 86 40 50
28 79 13 30 62 14 21
99 89 18 55 61 68 44
29 39 85 35 64 92 97
19 93 74 71 25 45 68
49 20 36 38 85 12 18
49 82 98 24 64 93 77
43 52 15 11 58 13 48
29 30 67 25 29 87 55
98 99 33 84 84 83 51
93 98 73 77 93 54 22
96 96 87 30 52 96 78
18 64 19 49 52 81 85
24 25 67 74 29 40 25
46 34 77 77 18 37 88
65 66 93 41 78 59 80
26 89 48 57 100 63 38
100 32 45 36 59 55 74
58 85 45 95 74 82 69
58 22 76 86 19 18 93
55 43 98 76 16 58 63
98 17 12 50 45 99 60
84 95 87 27 61 61 79
29 94 33 28 80 88 21
61 28 34 33 32 43 17
33 35 49 46 70 33 32
12 81 88 93 56 92 97
50 50 94 100 14 12 36
63 53 86 42 93 17 76
98 62 74 17 46 11 64
49 23 65 40 77 68 44
86 92 80 42 39 24 56
66 57 60 87 91 25 92
30 37 95 41 97 84 95
67 15 29 21 52 32 97
83 76 41 16 34 66 53
1.87518
0.723495
1.6897
1.39522
1.59816
1.14722
0.734888
1.84317
0.722358
1.47706
0.672529
0.422685
0.537805
1.31583
1.36579
1.45377
0.720372
0.419741
1.46639
1.56574
0.623531
0.46654
0.944638
0.548913
1.08981
0.423398
0.624406
1.26785
1.85205
1.76557
0.444731
0.9495
1.44795
0.463952
1.49486
1.85866
0.910184
0.974274
1.21388
1.88791
1.03735
0.743891
1.43978
1.6835
1.36771
1.58151
1.06276
1.83921
0.81742
1.19393
0.656399
1.9082
1.65415
1.49342
1.60715
1.17263
0.780673
0.606242
0.43391
0.826034
1.94936
1.43238
1.56568
1.84683
0.466378
1.16138
1.85404
0.580026
1.86444
1.32532
90 126
88 437
164 29
309 139
99 251
155 54
308 66
7 389
103 177
252 381
8 57
396 383
377 486
184 488
61 459
16 347
306 279
465 416
360 425
426 66
102 176
442 461
406 217
171 114
420 177
471 307
494 487
42 120
405 401
479 393
287 425
43 245
435 87
135 22
226 395
427 278
253 98
472 215
371 481
183 426
2 43
147 9
390 441
350 180
287 449
216 123
347 72
343 423
428 120
73 148
145 436
183 431
384 64
388 192
321 376
256 264
362 403
29 258
432 258
448 338
143 399
116 387
214 0
26 402
287 192
226 410
187 228
342 247
60 106
53 454
6418.33
3
