70
7
0 0 0 0 0 0 0
98 72 43 74 49 53 82
27 75 29 52 20 24 58
96 93 11 35 36 85 39
35 92 42 28 62 64 16
67 86 52 33 61 53 70
32 14 88 18 71 60 58
25 14 73 89 10 89 23
19 48 94 55 51 84 29
67 79 81 13 45 83 52
81 31 27 75 94 82 71
74 84 50 78 91 80 83
28 42 70 43 79 45 82
57 36 59 61 79 89 43
68 74 68 91 41 57 78
84 45 35 91 20 46 56
39 51 55 31 64 48 80
75 94 78 41 87 64 21
73 83 51 48 15 38 69
65 55 85 37 87 27 82
54 46 66 40 11 10 69
19 17 89 71 19 79 27
50 21 49 15 24 71 11
96 98 84 23 81 84 96
59 73 54 86 45 53 31
99 35 64 23 71 99 82
21 42 46 38 40 77 10
13 82 93 34 26 90 69
32 37 71 20 94 68 31
69 28 59 75 81 33 51
85 27 83 83 73 39 25
18 29 73 54 60 46 13
89 94 11 51 52 23 46
94 39 23 39 84 79 74
55 90 43 33 25 42 57
82 36 24 43 59 55 100
93 88 47 61 97 31 53
34 36 87 63 29 15 16
48 68 83 32 83 28 73
25 79 72 39 94 24 41
80 64 52 41 22 56 19
16 55 54 19 13 44 15
41 84 78 13 27 27 88
54 88 61 88 52 10 40
17 54 68 64 50 94 80
64 96 88 64 48 34 16
60 80 68 63 80 95 96
60 33 65 20 85 11 75
22 90 66 76 16 71 77
34 89 42 15 100 79 78
81 93 21 90 47 18 88
61 73 53 29 45 53 46
63 65 93 80 10 94 54
23 97 80 35 24 100 23
15 52 53 76 35 63 50
34 30 50 48 73 34 27
18 92 43 32 49 83 56
49 98 50 40 18 24 74
23 50 93 43 11 67 30
24 52 75 80 38 65 48
91 54 70 14 92 42 27
23 11 73 62 25 22 10
17 91 22 57 34 31 57
93 36 53 55 86 52 65
31 57 54 75 97 24 88
88 52 72 75 66 62 22
42 51 55 14 26 22 82
43 90 48 52 81 34 67
96 64 22 84 82 48 93
30 38 71 94 27 98 42
0.324999
0.104953
0.148832
0.487861
0.473158
0.484003
0.112744
0.159398
0.4684
0.417341
0.212661
0.197133
0.467202
0.390175
0.343567
0.493968
0.227176
0.49874
0.411983
0.187664
0.445292
0.198675
0.282023
0.325461
0.165013
0.406127
0.347737
0.407403
0.311481
0.210375
0.432555
0.423036
0.498475
0.463656
0.379544
0.483721
0.20835
0.272632
0.264544
0.428448
0.459719
0.482738
0.44594
0.44886
0.360867
0.47656
0.249909
0.148653
0.314086
0.298268
0.195975
0.155062
0.297248
0.194543
0.350298
0.200155
0.449683
0.318652
0.240254
0.265743
0.107526
0.464775
0.3438
0.106974
0.344735
0.187133
0.148619
0.169963
0.284976
0.121848
14 55
498 435
402 252
177 339
380 490
98 95
316 493
350 117
342 426
437 386
244 264
5 18
55 373
341 483
233 312
51 202
269 114
375 34
66 359
467 479
322 186
108 141
63 317
104 443
430 242
291 111
159 204
225 404
288 469
116 38
73 16
299 425
465 104
57 263
308 161
277 54
128 306
56 358
153 339
289 260
40 121
486 269
215 52
178 151
311 416
310 430
205 132
146 12
149 334
224 323
106 355
422 419
146 418
260 322
9 314
294 67
300 260
276 400
401 28
457 129
460 139
373 275
469 212
472 5
118 106
448 298
167 126
66 363
136 378
288 95
3801
5
