70
11
0 0 0 0 0 0 0 0 0 0 0
90 22 31 82 41 33 60 50 24 73 55
82 74 69 36 84 35 64 22 100 97 22
41 41 37 21 99 57 23 10 29 66 96
97 34 34 56 85 57 12 17 63 10 85
14 87 65 50 72 36 47 83 89 87 41
14 93 53 45 43 54 20 100 97 92 30
10 63 45 78 28 83 26 69 74 55 90
82 35 67 82 13 63 53 63 60 22 10
26 34 50 28 71 91 82 66 58 65 45
44 69 93 77 71 66 96 49 94 61 74
21 19 40 88 57 78 11 55 95 91 76
67 60 82 31 19 71 95 78 17 26 14
15 42 39 79 25 60 61 37 77 52 33
74 64 95 54 30 55 73 32 60 44 12
72 100 46 91 95 45 18 19 51 68 93
50 93 39 92 73 21 36 48 72 45 53
63 10 42 86 11 32 62 27 71 50 45
99 23 68 42 62 95 48 65 45 93 84
75 15 33 100 99 26 61 26 83 40 70
82 19 100 54 12 62 97 81 64 45 83
79 29 49 69 81 100 27 81 84 59 18
57 70 18 34 43 68 19 10 59 97 58
24 55 88 54 73 57 99 30 51 28 56
96 19 84 67 12 51 46 72 18 85 66
83 43 58 55 64 12 80 74 43 29 64
90 76 17 23 20 76 45 54 78 14 20
72 80 45 80 72 22 16 55 18 98 43
22 37 34 13 96 34 89 11 49 91 44
36 23 61 70 39 74 76 35 79 80 63
45 43 87 98 40 59 15 46 90 46 42
15 91 75 32 64 83 16 80 56 36 49
30 10 52 72 83 21 47 19 89 47 46
22 97 31 66 77 23 98 71 21 45 50
74 78 100 95 19 70 22 28 42 18 12
11 15 46 44 95 49 81 14 96 93 95
55 98 80 90 60 34 48 44 85 49 76
77 86 59 23 68 89 42 59 61 32 93
23 66 87 59 85 35 46 70 30 87 79
61 61 12 38 44 50 50 44 38 71 21
32 80 92 60 15 69 62 53 63 49 47
72 42 85 18 99 62 61 23 14 93 33
58 22 36 71 82 86 45 38 83 91 20
78 27 57 31 61 58 23 58 81 17 69
65 42 79 43 24 52 36 31 87 38 47
16 67 59 59 48 70 82 23 24 37 22
51 38 45 30 66 72 94 98 84 23 53
89 35 80 10 60 36 41 64 62 57 26
69 51 16 82 46 85 57 97 63 80 30
71 12 51 17 30 18 37 27 60 12 62
62 93 43 81 59 19 39 58 30 83 91
35 57 23 99 52 88 24 39 84 40 58
37 92 81 57 45 28 68 34 79 43 54
80 39 10 87 38 41 64 65 63 44 34
77 93 86 55 63 27 38 27 36 31 76
31 62 68 97 54 67 73 89 84 20 56
74 19 38 18 48 28 20 89 97 56 49
57 10 22 77 83 85 82 28 19 27 54
42 93 48 23 62 84 94 41 91 79 65
71 61 35 54 32 62 27 68 100 55 15
100 92 45 43 49 22 95 62 14 90 37
48 27 15 28 83 57 65 23 18 74 43
41 60 16 79 70 47 17 41 65 53 32
84 81 57 57 60 22 43 87 18 87 69
46 33 38 50 71 33 18 21 20 90 53
89 36 84 64 28 77 30 28 75 46 76
100 62 50 40 48 22 97 47 93 78 24
97 93 17 60 59 18 36 50 51 88 91
70 13 13 21 37 16 78 80 13 32 28
36 10 79 90 75 47 74 15 38 77 94
2.07413
0.610515
1.45242
1.47288
0.534417
2.37974
2.41402
1.41412
2.38606
1.94002
2.04387
2.105
1.84421
0.791069
1.89731
2.09073
1.51754
2.06543
1.33184
1.80617
2.11724
0.501547
1.67951
0.714806
1.2321
1.56434
2.04367
2.20325
1.06646
0.886157
1.07317
1.98822
1.29069
1.35509
2.00439
1.14066
1.73793
2.35901
0.878296
0.891691
2.32233
2.49906
0.767686
1.83961
1.04258
1.8721
0.57353
1.53456
2.13889
1.8397
2.05157
2.33672
2.2845
2.38475
1.33202
2.34174
1.1935
1.08285
1.37819
2.25471
1.05876
1.82257
1.71411
1.66326
2.30955
1.44396
1.78882
2.28501
1.97969
1.49067
30 313
186 341
294 115
231 1
460 331
419 118
198 235
162 299
191 69
315 304
280 236
257 154
43 177
48 464
448 323
143 113
282 153
398 339
394 178
384 56
327 47
28 456
233 349
30 247
268 309
210 96
83 384
222 288
482 116
173 253
157 11
43 199
226 332
474 173
250 77
293 58
31 32
151 300
412 471
128 56
362 112
461 338
472 10
77 185
314 149
382 239
176 285
327 414
210 397
255 434
218 70
53 334
415 486
315 107
228 315
490 297
14 494
475 316
450 7
438 486
289 238
211 101
186 210
52 0
90 233
253 188
367 89
31 113
380 315
199 401
4710
4
