70
9
0 0 0 0 0 0 0 0 0
83 45 35 54 90 87 85 66 74
73 11 43 17 97 89 52 86 62
44 20 28 92 39 16 36 36 56
74 54 87 37 61 56 90 57 88
78 50 16 65 93 79 92 48 97
59 56 89 48 80 91 51 46 65
72 38 37 20 100 22 80 79 40
14 68 86 29 61 34 90 19 32
96 78 94 45 72 41 37 45 98
22 79 77 21 92 17 24 42 100
38 31 82 52 19 10 23 64 87
37 92 57 52 35 18 57 32 49
33 21 52 12 85 82 59 52 30
30 29 18 35 54 54 46 19 87
58 86 14 54 25 98 63 88 14
26 95 59 59 21 52 74 14 25
25 47 35 17 33 74 14 45 31
89 67 74 34 17 84 21 26 95
41 63 19 40 71 99 80 61 45
45 83 33 87 85 45 20 80 37
92 22 54 56 99 40 53 86 22
43 73 39 84 30 47 35 29 88
53 99 35 59 47 100 60 97 94
37 66 37 97 52 96 71 11 11
34 62 20 12 64 35 47 54 76
52 27 86 95 87 75 42 31 26
91 41 35 60 87 11 88 86 50
48 78 81 57 53 67 56 40 100
15 88 29 18 64 71 32 31 60
60 67 54 67 62 80 90 46 22
14 86 30 71 96 55 51 100 84
17 49 84 20 92 41 77 37 82
17 15 91 84 63 43 87 98 75
59 29 11 13 68 98 96 83 22
64 68 57 85 80 96 46 87 71
65 82 57 26 15 46 88 16 78
63 53 76 11 95 74 62 14 47
61 78 76 62 81 80 57 67 72
86 34 20 99 81 86 67 54 86
62 17 67 20 100 64 44 10 20
32 93 82 41 42 24 29 22 51
86 15 91 50 16 51 77 31 96
74 10 78 33 60 75 48 50 78
70 34 57 85 39 96 86 100 47
19 87 27 42 26 78 70 45 14
85 40 49 90 62 65 76 19 82
72 42 98 19 71 37 94 63 90
28 32 95 97 81 51 84 79 84
97 84 32 31 22 58 51 32 24
49 61 80 70 41 65 20 42 43
83 60 60 63 10 31 88 95 21
36 72 62 66 50 51 28 69 20
43 91 32 42 89 58 45 38 28
47 16 78 12 26 49 44 36 57
54 42 12 26 78 63 32 75 37
51 90 42 54 61 12 67 94 44
29 63 56 61 18 23 33 63 63
23 66 96 99 12 63 16 45 82
49 32 23 66 78 98 48 61 66
77 49 25 97 63 89 36 52 98
10 90 96 98 89 26 99 43 40
71 10 33 15 37 85 84 83 77
81 52 64 33 66 30 56 85 86
11 56 58 49 30 98 87 44 10
29 18 95 40 92 81 23 67 38
42 40 23 23 99 72 83 31 42
57 91 30 16 94 20 81 82 76
61 72 33 26 98 100 80 68 30
92 13 59 31 86 41 54 57 60
0.317259
0.464154
0.268328
0.394342
0.123799
0.227653
0.135748
0.490277
0.427602
0.135609
0.100101
0.120369
0.233335
0.325974
0.179228
0.2325
0.426223
0.289399
0.292886
0.441499
0.487718
0.134185
0.292126
0.394549
0.28419
0.199901
0.146
0.359674
0.404099
0.367678
0.176475
0.247649
0.46644
0.131142
0.3961
0.211429
0.181348
0.201843
0.256054
0.117128
0.322869
0.169064
0.202445
0.326296
0.377183
0.301725
0.2979
0.389078
0.333531
0.205086
0.3932
0.289425
0.271995
0.441437
0.283343
0.295735
0.176725
0.369907
0.14584
0.208595
0.339427
0.320516
0.242688
0.459019
0.148574
0.336139
0.302471
0.44013
0.15168
0.172455
436 293
233 220
395 279
105 306
243 109
216 4
37 428
155 287
232 107
418 211
242 231
288 500
177 53
163 345
326 12
128 24
477 487
52 34
51 432
500 182
331 499
241 412
391 40
452 238
26 230
375 477
307 253
318 79
142 260
336 252
192 252
452 208
463 261
403 280
63 225
52 172
108 146
448 180
363 277
268 480
268 45
236 4
495 272
57 379
447 455
471 88
371 326
430 406
474 186
107 354
385 161
493 346
404 283
216 100
66 486
202 55
233 90
21 29
444 284
404 386
113 341
97 301
134 468
228 227
430 392
116 446
239 196
192 328
498 340
199 229
3866
5
