70
7
0 0 0 0 0 0 0
50 61 38 92 37 71 26
77 98 40 30 78 39 20
95 78 48 58 26 80 18
35 53 75 52 77 15 37
96 69 84 68 13 30 49
52 54 50 28 97 50 13
33 72 96 58 38 25 76
86 71 67 60 29 88 100
86 58 62 82 12 30 100
69 47 30 20 24 62 49
48 18 39 91 50 11 71
61 50 77 34 73 96 85
25 11 18 41 36 26 82
72 79 26 55 92 22 88
12 86 47 14 92 36 100
80 46 62 48 66 36 98
87 94 69 56 16 23 89
96 70 88 34 43 30 79
66 79 55 77 92 15 28
75 42 63 65 51 77 50
37 71 52 86 49 99 85
35 90 67 33 53 66 56
11 94 20 58 48 45 18
24 83 83 39 14 27 88
10 32 46 18 31 79 44
11 78 46 18 10 16 66
59 45 27 62 30 19 14
29 93 51 17 86 72 84
98 54 86 26 70 80 77
95 30 81 78 23 91 44
76 97 72 25 29 70 11
58 77 55 62 49 16 13
31 77 96 31 88 14 68
31 24 28 71 13 62 41
54 73 31 73 10 91 48
52 32 99 85 64 45 90
92 22 35 44 49 28 43
96 35 22 30 19 47 64
98 84 69 80 48 87 39
53 33 85 42 31 64 95
26 35 56 25 63 42 27
22 49 64 26 81 34 79
19 62 31 11 30 91 50
81 66 44 44 84 36 11
50 16 41 87 85 32 64
32 31 40 38 52 15 16
100 98 13 91 84 22 26
36 20 17 87 85 38 58
95 91 18 34 27 53 15
53 42 86 16 30 38 86
64 46 36 78 93 88 12
13 59 77 99 38 63 99
12 42 78 30 32 12 60
87 77 34 32 10 63 80
28 41 43 45 35 92 90
90 88 17 29 60 21 73
12 83 88 83 29 64 93
77 85 41 32 29 14 91
35 63 37 73 76 35 68
55 77 80 75 31 90 91
45 55 44 75 30 50 87
11 99 60 52 100 74 89
46 33 72 70 63 63 17
65 63 33 94 61 13 63
71 84 38 59 57 47 87
35 46 65 66 91 37 84
86 73 45 72 66 19 83
24 59 14 94 62 97 51
48 60 54 85 57 16 25
0.749366
0.289717
0.530363
0.505954
0.923514
0.511584
0.787834
0.388309
0.544334
0.808656
0.644031
0.941465
0.970257
0.834953
0.365136
0.489673
0.708992
0.223073
0.323236
0.768248
0.457368
0.213999
0.751536
0.229231
0.872048
0.770441
0.80645
0.570478
0.428239
0.358449
0.897947
0.515063
0.979607
0.834182
0.873701
0.569376
0.710837
0.233505
0.342584
0.642443
0.557701
0.791938
0.34826
0.203138
0.570608
0.857428
0.726547
0.559117
0.755318
0.800263
0.754418
0.403855
0.37788
0.573754
0.393378
0.627031
0.890248
0.45507
0.825477
0.390655
0.711282
0.371292
0.364661
0.575882
0.241633
0.275143
0.674594
0.267302
0.203865
0.416105
385 323
87 358
369 430
356 320
285 73
4 442
254 183
425 55
160 14
60 224
130 134
32 185
450 309
191 249
281 302
404 191
489 22
277 266
386 51
135 290
307 440
301 60
294 485
174 171
88 6
34 132
56 465
287 46
10 452
158 401
190 482
485 86
436 43
17 209
116 444
15 298
447 342
417 44
104 94
185 213
131 371
258 399
91 317
297 240
444 63
265 310
139 48
201 229
428 368
103 318
172 303
466 247
201 431
252 201
357 26
390 392
281 212
48 77
204 93
379 460
296 7
97 457
334 357
464 384
460 160
66 35
60 151
288 225
40 271
342 465
9400
2
