70
11
0 0 0 0 0 0 0 0 0 0 0
36 67 24 66 68 58 80 55 57 57 53
75 96 76 53 84 58 16 33 43 48 64
93 64 15 81 89 43 43 20 16 69 79
28 57 33 52 16 84 61 58 18 28 21
54 97 26 36 16 57 87 42 28 18 72
78 55 24 22 75 17 27 56 12 53 25
17 10 12 82 60 47 70 39 61 11 61
35 78 92 30 88 69 28 12 78 48 21
29 55 43 79 27 43 94 10 33 22 47
52 97 38 93 96 68 23 16 76 91 68
64 86 53 48 15 92 60 31 52 41 28
91 51 23 78 12 94 56 30 96 81 16
65 39 65 46 100 80 18 27 17 38 80
86 50 46 15 17 88 27 70 75 52 18
88 48 42 30 52 97 32 85 29 26 25
87 54 97 46 71 26 64 85 22 12 51
33 56 11 100 61 59 88 60 57 26 61
44 72 48 48 85 90 49 95 80 88 66
86 95 74 74 46 93 66 49 38 14 76
92 60 32 90 96 25 12 80 19 57 23
16 81 29 48 15 24 100 56 15 67 59
36 86 89 29 21 31 89 52 42 67 93
39 90 50 93 10 20 22 80 66 36 28
59 43 51 14 92 16 10 75 76 50 52
91 28 72 72 53 24 11 26 54 65 38
47 21 100 56 15 19 34 72 60 71 12
58 13 41 67 27 36 95 100 81 100 11
19 99 16 55 65 71 94 82 10 71 53
97 41 32 56 25 38 30 36 63 31 72
89 40 27 20 100 18 53 62 28 55 38
84 64 11 63 10 10 50 75 48 89 67
34 90 75 28 84 57 70 100 74 64 18
19 18 69 23 25 31 53 21 22 67 48
56 64 91 41 68 34 56 57 94 61 67
78 22 22 74 65 50 34 55 96 64 89
15 50 23 55 26 45 80 86 27 38 19
62 87 25 33 100 42 63 50 94 29 49
52 12 98 63 89 77 44 40 42 69 71
55 84 87 79 25 55 20 49 32 13 38
12 100 99 73 33 96 83 85 93 63 42
85 85 76 45 31 33 79 96 60 31 27
49 40 98 93 11 18 88 17 94 47 62
90 14 87 51 45 32 58 86 60 40 95
17 83 38 53 83 44 19 11 46 50 66
71 12 68 92 47 57 63 85 47 12 10
72 28 75 27 81 84 37 59 38 85 58
43 67 43 49 64 93 35 58 82 10 17
49 38 80 33 83 77 93 66 22 36 76
49 41 99 56 61 47 83 32 19 66 23
75 23 43 76 38 80 35 56 10 26 89
99 23 91 19 14 36 68 43 21 31 53
41 71 40 85 72 50 59 95 100 72 42
22 72 98 86 90 23 71 95 95 52 57
17 22 89 27 22 59 79 37 76 71 86
11 47 15 66 19 99 63 39 56 36 71
79 83 87 59 76 99 11 71 66 94 82
89 79 20 87 57 20 40 28 32 87 88
12 51 100 48 83 81 76 51 72 13 51
89 91 80 54 95 45 44 20 52 38 72
71 38 57 47 33 28 84 23 40 99 95
59 51 41 74 20 16 47 46 88 34 26
26 58 32 91 18 70 15 68 94 47 75
20 14 85 10 43 76 49 21 48 68 73
23 98 43 52 42 29 27 27 88 69 14
36 84 47 94 33 23 98 88 99 50 22
93 38 87 80 91 96 67 56 46 56 95
88 39 45 24 96 83 88 97 26 69 34
95 60 48 92 10 97 38 28 14 78 63
69 29 28 36 24 49 71 42 75 90 86
0.623377
0.593848
0.595974
0.461205
0.495205
0.617281
0.796735
0.266761
0.623773
0.406065
0.200005
0.506818
0.30652
0.739371
0.392521
0.32663
0.258086
0.566098
0.512784
0.689663
0.319603
0.649292
0.478706
0.276558
0.84617
0.553234
0.959333
0.695869
0.566743
0.984459
0.543653
0.39737
0.337267
0.951355
0.568023
0.463806
0.59616
0.341144
0.694506
0.562219
0.764537
0.413106
0.713201
0.310487
0.207086
0.615267
0.903069
0.499195
0.588996
0.392443
0.676874
0.295843
0.596765
0.465935
0.265023
0.619268
0.84527
0.269299
0.643043
0.706698
0.244745
0.912017
0.683035
0.326115
0.637313
0.492504
0.849908
0.955937
0.61231
0.554863
387 170
102 442
202 95
434 234
363 227
426 395
197 383
449 117
231 279
386 473
169 394
450 229
446 344
300 53
398 444
276 262
493 245
183 53
294 58
328 146
419 93
232 138
110 422
402 485
89 194
312 369
114 340
84 316
477 231
405 375
177 306
362 120
149 197
462 170
140 128
418 209
126 358
268 278
486 213
213 263
294 253
13 496
396 440
136 190
56 68
16 72
341 415
328 487
250 359
421 386
138 328
368 57
439 419
140 54
300 7
233 169
420 176
49 314
391 374
86 296
188 198
254 163
110 233
365 187
5 182
457 234
461 385
99 487
71 330
359 15
4693.75
4
