70
11
0 0 0 0 0 0 0 0 0 0 0
46 32 23 44 91 37 72 89 40 80 67
99 97 47 99 60 65 28 18 65 74 72
56 18 20 56 19 12 23 51 10 34 47
29 51 97 67 70 91 47 97 47 35 67
28 20 87 63 96 59 69 57 26 45 33
23 29 12 47 28 98 98 43 57 30 22
99 94 41 41 57 11 23 95 85 17 69
46 16 77 89 73 81 55 33 17 59 58
15 24 15 98 99 95 65 61 92 81 16
40 23 89 47 19 33 14 80 97 30 99
31 70 43 82 12 100 89 76 66 31 18
97 79 56 74 76 61 86 27 81 64 72
14 76 62 80 54 45 69 92 96 87 100
69 18 13 42 59 78 94 41 36 34 65
38 30 35 49 81 13 66 42 50 18 87
13 86 18 10 32 54 79 22 90 19 51
60 22 26 50 97 46 82 87 40 55 13
36 49 68 35 10 50 48 55 25 71 27
28 51 78 62 90 47 76 25 73 35 77
44 60 77 38 34 59 23 15 79 26 13
58 59 69 32 18 52 99 66 58 34 99
25 68 52 27 33 33 56 27 66 13 21
74 57 25 73 13 92 51 52 46 94 36
97 39 17 75 97 24 70 84 34 52 94
93 46 42 35 44 76 58 34 63 37 87
59 90 39 56 10 10 54 76 59 79 41
79 41 47 15 18 13 91 55 24 70 28
49 69 14 21 77 86 17 72 93 70 34
84 10 74 63 12 74 80 69 88 99 64
55 65 25 13 99 11 90 15 80 84 63
17 87 85 79 48 91 85 74 39 30 50
63 69 56 98 45 67 31 76 38 85 71
39 20 62 56 21 74 79 44 59 95 33
72 36 79 90 88 33 81 46 46 98 77
89 97 11 99 70 11 92 57 47 64 84
62 80 98 98 70 95 46 45 26 35 21
31 31 96 77 42 60 79 35 92 29 41
62 67 43 90 24 70 22 18 27 85 77
89 78 17 77 98 62 83 80 72 99 45
60 83 11 31 38 32 11 38 92 16 27
93 31 60 69 10 31 82 85 84 43 67
94 45 19 11 34 59 40 78 100 98 21
74 24 28 24 65 28 30 36 52 68 98
85 90 79 60 21 21 12 77 52 100 53
78 86 30 13 59 19 69 26 27 14 61
30 83 19 57 63 41 78 95 40 76 100
77 33 58 33 62 49 99 69 31 54 92
46 91 49 80 67 49 13 36 40 11 93
21 81 34 84 63 79 54 70 89 98 92
33 17 48 62 84 51 76 26 14 54 28
94 37 30 69 79 69 87 11 27 100 100
71 73 73 50 87 80 49 14 60 28 21
37 44 38 97 59 13 64 86 86 26 22
30 18 50 100 85 98 36 44 72 51 72
65 17 25 14 68 37 28 68 38 93 71
97 58 36 81 65 37 97 44 71 84 33
60 29 13 89 66 18 52 29 61 34 41
23 80 24 79 71 81 11 23 66 68 53
33 26 57 56 58 47 94 34 93 47 14
24 64 34 37 37 39 47 66 36 54 74
36 35 100 22 65 85 27 57 31 74 52
35 93 48 81 60 14 80 71 100 44 47
13 79 36 98 74 83 65 66 67 13 50
68 87 92 54 37 75 99 50 89 89 43
51 19 54 26 38 58 88 10 37 54 64
63 97 33 73 13 42 56 90 51 87 23
25 46 12 37 72 81 45 33 78 95 39
52 39 87 69 84 21 86 49 88 89 73
19 58 38 92 39 89 97 78 76 84 39
2.26959
0.794245
1.66457
2.36855
1.47104
1.07493
1.47809
1.62481
1.24697
0.72559
1.43224
0.797514
1.67078
1.52476
0.607543
1.3522
0.598449
1.59322
0.954523
1.8506
2.22255
2.15165
1.14041
0.63273
2.23329
1.07639
1.79895
1.80113
2.45701
0.898209
1.47157
0.939438
0.934627
2.37056
2.40997
1.34851
0.87637
0.897529
2.00039
0.902027
2.43318
2.26203
2.25623
1.40236
0.724615
1.97214
1.7077
2.17556
1.96815
2.38174
2.45541
0.721894
0.780751
0.529426
1.29148
1.58192
2.23228
1.83852
0.723512
1.09603
1.83707
2.1076
1.96581
0.623066
1.78246
0.562933
2.2832
1.60765
1.97438
1.27879
225 0
148 414
392 168
446 102
121 452
265 49
240 23
36 16
23 413
212 152
171 445
395 194
360 464
299 88
378 325
406 420
489 31
242 459
319 78
221 291
18 64
208 342
55 426
400 100
65 212
272 462
299 9
345 263
467 325
458 31
37 36
232 240
245 388
212 71
51 45
104 17
465 305
147 281
287 265
98 169
95 414
192 459
171 269
292 26
384 191
451 378
266 441
173 359
94 432
418 163
71 300
245 244
442 150
26 60
442 410
479 213
440 461
362 290
423 241
273 10
1 141
104 173
248 375
349 201
197 262
7 1
397 180
410 433
437 20
224 106
9565
2
