70
7
0 0 0 0 0 0 0
29 11 72 22 88 27 70
20 52 53 17 91 45 27
48 95 44 31 44 66 96
76 69 91 95 71 76 50
94 34 30 44 100 46 81
82 36 44 39 69 46 82
72 10 77 21 41 66 21
35 30 95 79 92 44 22
77 34 59 91 36 36 24
47 41 16 53 40 83 41
66 36 84 58 30 93 62
18 35 15 81 90 81 89
55 18 10 62 18 57 58
45 42 63 34 20 32 76
76 44 32 38 16 22 73
50 40 66 86 12 81 81
15 56 71 69 27 78 66
90 26 48 70 31 19 29
97 66 91 50 88 44 85
61 39 98 83 34 65 94
78 70 36 98 90 64 57
77 91 94 36 28 39 22
64 27 24 98 58 84 85
36 68 52 48 86 72 98
42 25 57 59 87 28 75
37 18 27 55 100 73 25
95 39 87 76 72 63 85
86 25 61 24 93 63 55
97 20 14 40 45 38 95
87 89 25 45 64 77 61
85 17 91 87 36 95 85
92 69 71 22 76 29 83
81 19 48 30 62 46 47
39 15 28 61 24 97 65
78 75 88 66 37 73 12
35 30 100 48 97 71 56
67 50 60 87 36 68 46
22 90 73 89 97 59 44
61 54 90 83 37 28 95
51 74 93 70 91 23 22
84 90 79 74 25 45 34
41 16 83 38 96 15 20
83 17 70 63 13 59 39
66 55 17 34 86 16 53
53 17 42 79 19 63 25
68 59 56 72 17 19 75
30 99 11 99 65 49 88
43 43 78 14 25 67 85
15 74 34 46 55 57 36
24 19 38 84 65 53 50
100 71 66 76 82 61 39
65 66 22 56 61 71 81
70 68 16 77 76 50 44
54 91 20 18 25 33 10
21 46 64 55 29 69 98
71 20 76 58 91 22 84
14 34 98 32 65 66 70
95 69 91 50 82 72 61
48 97 44 93 40 24 13
65 18 43 14 57 61 68
18 59 29 61 57 81 94
54 71 97 55 71 45 60
21 27 52 54 73 87 90
64 25 41 93 39 64 12
97 39 92 65 81 58 60
19 42 48 95 19 60 76
95 82 86 89 59 50 35
95 24 26 41 14 90 42
43 35 24 30 72 50 64
1.56431
0.95624
0.95651
1.3224
1.93414
1.06112
0.718341
1.75753
1.43757
0.449233
0.905225
0.868741
1.46036
1.81615
0.528858
1.30136
1.27056
0.742605
1.05515
0.772047
0.496542
1.37284
1.30776
1.00457
1.79446
1.58723
1.24859
1.1441
0.424187
1.72203
0.46748
1.41398
0.940164
1.07685
0.456509
0.571315
1.11397
1.28798
1.61934
1.2294
1.34218
1.37863
1.64557
1.24618
0.533056
1.09393
0.402464
1.97884
1.93154
0.626046
1.69591
1.83439
0.720082
0.563914
1.0213
0.572465
0.858036
1.56425
1.03559
1.41662
0.763534
1.60537
1.13181
0.631532
1.4861
0.786375
0.48676
1.3293
1.35904
1.67052
131 499
23 109
68 385
405 29
476 410
413 289
180 239
35 448
129 90
26 183
493 347
31 183
476 6
200 121
364 6
386 44
394 488
177 168
53 157
130 432
138 487
324 42
366 46
418 251
129 203
66 7
495 134
467 22
49 245
322 12
79 466
246 327
23 469
210 38
399 85
144 371
301 178
228 254
333 225
491 496
19 336
297 412
185 70
17 147
45 11
290 305
498 493
46 482
399 296
250 257
64 56
401 274
461 5
403 104
419 243
333 185
301 369
225 49
20 348
6 277
255 391
392 134
222 163
331 349
292 431
23 187
88 265
69 71
442 161
241 299
19375
1
