70
5
0 0 0 0 0
82 59 33 57 40
12 89 63 68 19
56 59 67 31 32
48 69 69 12 77
27 76 79 62 50
90 16 66 79 63
47 68 28 77 98
63 16 61 63 69
70 42 30 81 22
67 80 87 43 28
27 20 52 21 63
76 99 62 87 94
40 50 44 60 64
85 13 90 41 48
51 12 36 10 24
73 94 67 86 12
42 86 94 39 54
67 88 67 71 13
12 20 34 59 52
75 14 96 82 20
59 18 90 46 26
72 29 48 93 47
23 100 21 35 18
75 35 42 34 51
19 82 89 95 92
100 51 48 26 45
93 95 67 21 51
76 90 10 19 51
80 71 42 71 86
57 42 36 75 62
100 77 73 13 46
50 56 96 38 75
19 85 81 63 73
89 92 89 49 12
43 23 38 31 16
52 72 82 69 85
13 82 76 100 65
30 81 30 18 59
35 84 51 97 59
82 67 23 79 66
26 49 57 32 75
97 96 79 97 55
21 22 21 26 51
45 87 22 64 48
25 83 95 41 65
14 37 14 72 44
44 52 29 35 50
87 24 20 86 13
94 10 88 37 86
76 55 72 64 91
51 24 45 79 14
28 57 64 69 48
51 57 43 92 36
19 89 37 22 38
70 71 28 80 57
24 19 74 36 86
36 57 30 32 89
25 29 25 69 75
54 35 84 60 71
24 47 75 83 25
28 26 56 36 92
64 26 16 63 46
50 55 19 76 51
14 73 31 74 96
78 96 11 12 54
73 43 87 61 53
23 85 33 11 11
54 83 26 43 80
10 40 88 30 16
0.480059
0.228754
0.42652
0.26107
0.647749
0.775692
0.733032
0.425113
0.97277
0.601192
0.425016
0.916543
0.980904
0.340037
0.557475
0.747101
0.70006
0.2676
0.946645
0.54736
0.23812
0.833518
0.998331
0.38928
0.870313
0.767241
0.429972
0.845132
0.2384
0.879201
0.988922
0.719332
0.862142
0.247159
0.947254
0.83364
0.776494
0.930871
0.207365
0.564934
0.531959
0.90286
0.442704
0.859238
0.870646
0.597375
0.571623
0.597513
0.256116
0.326707
0.30505
0.544791
0.772844
0.99508
0.274028
0.844664
0.350889
0.775673
0.977038
0.964103
0.879901
0.443075
0.393126
0.801738
0.870261
0.409572
0.201579
0.636648
0.504823
0.61375
455 62
393 105
379 404
485 271
453 241
386 319
19 450
172 13
265 301
305 214
264 205
496 272
347 330
22 91
303 206
335 473
368 396
342 383
218 211
61 42
434 125
401 42
215 230
199 455
411 279
361 274
406 104
87 490
37 25
70 27
2 190
322 274
250 209
271 156
61 75
440 149
48 104
192 280
174 184
291 47
471 431
406 367
404 7
278 60
133 111
404 70
421 388
485 485
477 328
190 38
329 49
0 72
126 19
391 98
377 496
244 274
2 214
320 333
228 215
75 227
32 233
273 371
72 481
206 130
306 110
87 162
314 500
367 410
338 464
347 180
4665
4
