70
9
0 0 0 0 0 0 0 0 0
75 86 10 61 32 90 30 89 77
71 78 93 96 34 56 33 50 92
45 13 43 62 93 78 83 99 75
67 52 27 44 25 78 54 55 86
99 10 69 65 38 61 74 12 86
82 27 83 90 53 99 57 89 14
100 25 16 11 92 37 92 44 87
79 32 18 52 18 60 63 14 33
40 34 84 73 29 61 47 95 29
19 18 41 81 20 18 77 62 53
95 18 54 96 51 33 45 82 88
83 73 51 32 24 79 81 49 54
98 10 49 74 34 44 23 13 82
83 29 21 74 42 14 64 90 29
96 79 77 94 59 78 11 81 95
95 25 39 69 51 90 21 61 19
22 45 68 42 50 42 92 81 18
31 46 23 48 17 67 26 37 43
83 38 92 12 19 77 64 50 86
19 63 50 84 52 85 74 20 45
54 21 70 66 53 40 51 71 75
58 35 11 50 89 82 80 41 24
46 22 66 71 65 43 83 32 48
15 63 11 14 99 88 47 69 10
84 13 83 73 86 88 78 72 46
99 34 54 39 97 51 85 85 26
81 93 73 24 61 66 83 99 49
88 34 10 69 89 33 91 40 97
38 24 99 74 77 34 21 62 41
59 47 88 88 60 38 68 60 30
10 85 32 87 86 77 53 96 60
13 19 61 46 64 65 11 75 57
98 85 53 78 22 60 25 87 93
70 87 72 62 78 94 39 37 97
25 66 21 15 59 51 85 16 20
64 67 14 42 97 96 10 80 72
63 78 58 46 89 55 79 36 26
24 12 26 77 70 98 78 13 26
88 50 71 94 82 99 23 21 25
48 21 77 58 91 25 13 94 22
57 29 94 71 88 97 22 92 77
64 57 93 35 71 58 15 28 33
12 50 97 75 66 11 56 52 95
36 21 46 15 57 39 54 16 30
73 80 47 77 35 87 41 10 82
24 23 87 51 83 64 57 50 69
37 19 13 28 59 90 47 69 27
33 28 56 46 52 99 48 46 56
29 86 20 77 59 73 52 83 55
61 98 40 61 83 28 78 92 45
27 95 59 64 49 10 85 84 96
91 53 51 77 14 43 68 57 88
51 61 91 46 94 40 73 28 17
54 10 77 82 50 53 89 97 13
64 41 41 72 94 17 19 34 75
51 21 90 10 21 97 14 34 94
82 50 83 55 29 53 23 80 24
32 38 99 68 77 31 64 70 23
72 10 84 32 86 58 83 100 80
83 70 95 99 66 22 65 92 93
94 73 64 73 70 33 85 49 57
11 37 64 31 29 23 42 96 48
59 37 58 48 49 21 73 92 93
48 22 17 82 90 86 49 80 96
66 36 52 66 91 54 78 98 94
66 48 62 37 36 27 11 59 36
86 58 27 96 40 46 14 91 51
51 58 64 12 79 82 70 65 37
63 54 95 80 81 50 22 95 77
2.12019
0.792314
1.60296
1.16596
1.33805
1.39116
1.17891
1.75074
0.521863
2.009
0.581294
2.31617
1.21347
1.37614
0.651665
1.53396
2.00434
1.88997
1.56922
1.11509
0.625432
1.88065
2.3031
1.91032
1.6303
1.46148
1.53138
0.879011
1.40993
2.15896
0.764055
0.690776
1.04341
1.85147
1.27899
1.36036
1.69798
1.20734
1.30074
1.12649
2.06182
2.0152
1.30146
1.70802
1.26341
2.49096
1.53994
1.93145
0.512044
0.56426
0.840126
0.582856
2.26109
1.43692
1.05432
2.13935
1.17421
1.39918
1.54964
2.01782
2.33589
0.563372
1.88438
0.681518
1.85787
2.08817
1.03259
1.02239
2.02313
2.31314
129 50
488 471
66 144
55 472
104 164
118 289
92 186
498 84
303 62
155 217
398 304
6 408
288 90
249 311
441 431
340 52
142 63
335 194
131 466
165 302
33 277
145 119
192 438
6 399
330 260
241 470
151 2
459 144
434 306
82 121
290 51
287 37
278 113
486 311
119 152
137 125
201 137
212 287
261 133
204 148
200 444
471 33
63 396
247 328
472 405
464 105
350 205
279 272
424 298
314 272
41 20
36 494
299 131
71 445
466 145
97 12
160 177
370 334
25 208
426 221
470 40
318 287
128 329
184 229
335 385
146 146
60 255
83 278
410 209
28 219
9805
2
