70
5
0 0 0 0 0
75 94 87 68 68
97 10 94 97 38
87 72 20 49 69
57 38 56 77 98
64 72 76 79 12
100 93 20 62 12
76 30 13 23 94
11 48 19 91 18
90 57 69 91 10
30 52 86 44 33
20 30 60 64 53
63 32 88 22 68
23 24 12 67 93
83 87 91 37 11
100 33 16 25 36
12 97 68 77 91
93 18 12 74 76
23 47 68 24 40
83 37 41 37 89
29 17 23 87 67
65 24 99 75 21
41 21 84 86 59
11 31 75 88 23
71 81 28 95 96
92 27 64 29 100
73 48 63 58 44
69 58 31 94 79
47 37 17 97 74
32 32 54 59 52
97 51 74 81 29
33 12 96 100 68
95 83 40 18 42
79 50 17 33 12
45 96 88 15 74
75 75 50 55 60
98 74 60 19 93
77 37 12 84 59
16 42 47 23 38
52 45 15 48 34
28 43 34 76 19
44 91 40 94 68
20 15 35 60 71
49 54 82 15 68
82 74 22 26 33
92 79 80 65 61
70 42 64 79 17
92 84 38 10 79
46 44 28 96 70
44 65 61 39 39
96 15 63 17 88
32 44 79 76 27
86 57 43 19 91
84 33 50 85 14
63 74 48 21 42
56 35 81 50 28
28 48 68 90 64
59 29 10 40 47
68 87 65 11 13
59 44 15 25 89
51 82 53 79 15
83 31 28 29 91
54 28 96 70 74
79 10 97 14 25
68 55 93 63 22
50 79 62 73 47
34 64 12 21 16
12 45 74 38 33
56 41 68 75 64
75 36 86 16 78
0.62018
0.20857
0.637949
0.375106
0.2948
0.271847
0.704109
0.598319
0.534305
0.519573
0.803386
0.682757
0.62889
0.731153
0.524834
0.708907
0.866346
0.577401
0.59811
0.806224
0.587635
0.436019
0.623264
0.76138
0.487307
0.565631
0.542132
0.293898
0.804107
0.756793
0.339171
0.445729
0.239224
0.781119
0.2519
0.262006
0.405676
0.38809
0.701408
0.237727
0.553084
0.958528
0.473882
0.586793
0.241639
0.652841
0.267857
0.291063
0.57536
0.381419
0.61998
0.910053
0.407423
0.690192
0.340662
0.66084
0.973555
0.339019
0.83532
0.219465
0.266239
0.450064
0.871908
0.605498
0.860792
0.579894
0.869448
0.488111
0.866032
0.863328
204 313
111 249
45 183
263 349
66 101
315 421
106 399
106 454
449 358
472 337
267 119
48 171
79 301
278 476
19 25
21 173
77 59
115 177
214 157
232 252
40 419
470 335
474 248
488 205
158 222
478 116
443 351
24 310
273 412
402 459
314 322
97 15
462 214
40 320
467 94
476 178
493 396
329 81
500 330
238 401
8 156
25 207
54 329
119 441
395 87
477 141
140 344
384 165
6 271
127 298
147 194
160 169
26 130
312 310
473 14
389 456
251 286
137 412
494 7
343 117
265 371
151 436
450 474
80 178
255 157
121 92
260 20
129 296
222 461
460 111
4685
4
