70
9
0 0 0 0 0 0 0 0 0
71 24 70 17 10 17 61 19 40
74 69 18 76 26 87 40 24 70
100 13 15 51 87 32 86 47 74
14 88 29 37 72 54 45 60 12
74 74 65 92 76 17 45 44 32
41 48 69 41 26 81 83 12 93
82 64 49 97 63 82 23 96 99
81 78 80 36 22 90 15 27 91
67 36 100 42 44 45 65 18 100
69 76 19 20 100 56 53 42 43
85 71 67 34 38 39 24 89 23
63 51 33 22 98 61 92 73 27
39 81 67 74 41 15 60 73 71
18 29 26 22 93 83 80 39 25
51 13 18 81 21 60 45 33 16
79 14 77 98 67 69 96 20 72
70 84 56 43 34 55 48 26 10
88 49 55 32 72 83 72 75 25
57 98 44 22 27 36 52 97 42
53 92 22 83 59 94 89 99 52
30 23 48 34 60 82 31 23 34
15 31 83 19 94 10 71 99 16
73 48 71 39 69 30 19 32 60
60 65 12 94 86 64 37 67 58
76 47 90 35 74 85 96 56 61
18 72 71 37 18 38 78 62 24
64 56 84 43 68 13 73 86 29
84 99 71 26 96 15 18 50 67
13 43 17 97 68 49 55 80 37
70 12 12 77 63 33 92 72 78
16 31 95 65 18 69 99 81 96
87 90 59 82 81 30 83 76 96
72 39 82 17 79 60 68 55 71
66 65 47 43 41 97 22 36 52
61 22 20 19 50 82 70 53 35
77 10 67 60 44 12 33 51 20
14 58 52 29 26 64 78 41 91
86 66 66 56 68 12 45 17 15
70 32 74 82 69 85 100 40 88
10 62 78 75 77 10 57 81 58
92 12 67 14 52 36 73 77 35
50 17 65 65 27 60 24 100 92
71 55 49 60 15 50 10 19 26
73 65 29 15 79 60 70 52 32
56 67 77 37 61 65 14 94 44
51 62 83 97 84 67 92 14 89
78 51 13 65 38 85 90 79 51
51 45 34 11 39 59 82 76 39
99 21 46 52 73 73 29 42 84
12 83 94 31 13 27 58 90 66
94 57 21 27 68 38 65 48 72
42 62 40 46 51 71 34 51 94
62 29 76 36 61 36 49 18 87
55 89 32 84 45 45 28 74 41
67 16 32 38 22 13 72 38 23
60 15 33 67 80 71 27 19 27
31 56 94 51 34 74 65 62 93
43 38 56 52 67 92 24 69 51
45 88 61 21 67 43 90 15 51
97 54 52 49 75 63 26 95 50
38 40 40 55 34 30 85 81 42
35 35 17 70 54 29 21 40 15
81 65 66 53 64 74 35 71 50
28 40 13 21 79 26 26 25 36
91 36 12 79 38 83 14 51 55
33 20 42 69 67 59 40 52 72
68 69 52 33 96 34 90 90 32
21 44 98 11 34 98 98 95 24
100 99 37 93 85 38 59 90 43
0.552402
0.916014
1.13811
1.64324
1.82055
0.417942
0.588512
1.72059
1.06024
0.827858
1.03502
0.895767
1.87515
0.488587
0.642709
1.52067
1.87642
1.75521
1.93726
1.64844
1.30766
0.866379
0.672015
0.956941
0.953734
1.89498
1.29639
1.31673
1.41813
1.20854
0.516843
1.60184
1.03136
1.71072
1.16518
1.83196
1.07726
0.884131
1.20593
0.633269
1.52858
1.34169
1.57297
0.458319
1.85735
1.4759
1.02236
0.903018
1.429
0.567663
0.432131
1.52816
0.79971
0.703579
1.33527
1.78742
1.79681
1.32624
0.936763
1.1354
0.747406
0.753794
1.59027
1.42398
0.731169
1.33617
0.929417
0.74901
0.674868
1.92616
162 236
266 391
318 476
56 340
130 263
495 298
31 325
141 46
214 61
146 261
376 137
318 456
288 313
347 256
444 342
393 330
299 383
226 184
91 470
9 430
48 477
359 221
110 116
47 236
469 292
314 435
72 230
435 376
466 229
230 209
499 499
21 406
68 216
300 332
76 283
185 215
172 212
11 51
329 264
295 415
155 336
481 116
467 224
204 409
119 461
254 317
296 8
5 221
262 342
43 322
80 407
212 192
427 191
263 135
76 277
255 23
50 251
47 140
330 340
116 174
391 195
109 336
80 188
159 338
372 396
256 139
183 309
357 108
334 90
343 412
4680
4
