70
5
0 0 0 0 0
22 21 38 96 72
42 26 50 56 91
81 18 59 43 60
69 78 97 87 50
48 26 23 86 64
60 31 85 79 89
80 41 79 92 24
78 46 81 75 98
26 100 18 56 97
89 16 100 37 16
15 81 47 55 55
35 39 72 37 14
91 79 56 54 84
78 61 39 37 38
68 73 83 56 78
11 32 77 55 86
52 34 95 16 39
73 64 90 74 95
64 66 60 97 74
59 52 49 59 38
42 95 60 63 82
96 52 23 12 95
22 93 82 48 68
64 69 81 63 92
57 95 55 11 27
56 38 10 77 47
35 63 30 82 74
81 20 40 80 46
54 54 91 28 94
42 89 83 22 80
16 66 87 21 25
12 15 78 56 91
82 97 19 73 51
83 46 18 63 15
25 83 45 97 99
50 95 17 43 58
64 50 35 71 19
34 77 95 47 46
31 11 73 19 83
94 83 56 61 46
87 81 68 98 88
86 93 93 71 64
90 87 47 51 65
77 50 49 33 48
21 39 48 47 96
81 17 52 49 70
64 16 53 31 88
60 76 66 44 18
50 10 79 38 99
26 43 68 18 63
14 93 21 47 61
40 64 29 48 75
88 53 60 83 90
20 27 14 96 89
74 89 12 24 86
26 17 36 66 41
97 32 71 46 45
28 53 33 11 92
27 82 100 35 59
65 63 15 45 48
92 33 92 25 87
60 73 73 34 14
74 19 31 70 73
70 74 48 84 82
100 88 67 75 86
53 48 75 80 29
31 71 59 89 58
60 96 91 46 34
14 84 44 31 77
0.455735
0.20778
0.452277
0.238521
0.952907
0.28637
0.375389
0.678199
0.83349
0.524644
0.410904
0.792433
0.639442
0.662737
0.242404
0.411266
0.648099
0.226322
0.42847
0.24044
0.511175
0.816316
0.288683
0.604191
0.348641
0.341327
0.265805
0.998696
0.714714
0.381156
0.315806
0.89839
0.749819
0.892116
0.901782
0.449289
0.307883
0.341756
0.33334
0.745277
0.476836
0.666694
0.303595
0.758423
0.7819
0.837602
0.928778
0.752383
0.230359
0.274215
0.560278
0.854359
0.854531
0.89237
0.796826
0.741995
0.555134
0.641283
0.699238
0.667262
0.69344
0.500232
0.795263
0.453362
0.673797
0.814001
0.73315
0.3878
0.563836
0.810956
439 258
47 78
16 311
63 371
151 391
2 263
334 104
307 66
389 190
419 345
211 22
129 106
136 123
468 284
393 424
241 161
40 380
466 14
74 329
481 86
153 54
259 265
355 36
149 390
317 64
369 410
226 458
20 24
4 20
117 147
48 411
186 65
414 155
2 18
110 430
490 112
495 386
148 220
377 42
471 178
108 231
165 414
312 193
479 410
433 327
190 13
334 277
491 170
200 484
215 187
418 415
428 293
312 62
209 293
330 202
305 42
487 192
254 25
59 406
424 121
400 431
195 10
333 348
404 427
362 136
144 23
189 22
162 408
213 428
402 311
19995
1
