70
5
0 0 0 0 0
79 42 19 68 88
81 38 56 12 95
85 51 52 29 42
94 91 54 14 52
50 18 18 79 55
12 95 19 89 52
41 41 98 23 74
75 26 72 63 65
79 23 71 64 52
75 64 63 45 56
35 29 91 64 75
42 22 49 50 26
75 32 89 88 42
71 96 22 15 50
36 41 24 38 51
32 89 27 25 43
41 89 80 14 70
68 71 66 15 31
54 90 56 26 99
60 44 33 94 12
51 70 18 94 41
56 94 69 30 48
70 22 81 10 37
61 14 78 11 78
80 86 10 50 23
94 75 34 27 24
29 95 30 22 64
47 54 56 85 97
14 31 50 73 48
99 37 10 22 72
87 18 69 66 87
68 86 80 26 100
89 87 23 44 57
11 62 45 73 91
75 23 20 50 10
17 91 90 77 59
86 48 71 100 28
15 66 66 97 77
40 82 27 74 29
55 33 81 12 38
57 84 16 58 55
82 96 100 26 76
86 39 11 79 81
15 26 21 79 29
100 73 54 80 42
22 40 55 64 51
29 49 87 79 28
33 90 68 61 55
42 17 37 97 95
70 41 11 53 24
82 33 87 27 28
54 31 19 76 70
22 36 96 22 92
50 55 69 22 82
22 77 41 30 40
32 35 73 84 65
35 64 68 78 11
40 56 74 96 71
79 46 21 45 76
59 91 62 39 39
48 32 35 40 48
74 57 21 57 13
83 95 93 51 58
60 35 55 15 29
35 32 43 29 77
76 61 22 67 39
85 81 97 83 87
96 71 43 40 81
70 12 75 10 20
0.632399
0.757779
1.22446
0.516118
0.980486
1.09026
0.781336
0.933286
0.992671
1.42406
1.43552
1.34897
1.39
0.555161
1.16485
0.633833
1.12132
0.504982
1.27686
0.451969
0.954933
0.604655
0.758919
1.44153
0.309216
1.05049
0.451345
0.743315
0.628561
0.302875
0.806277
1.06224
0.4786
0.316997
0.756529
0.650809
1.10173
0.953591
1.33966
1.08709
1.47839
0.31914
1.4368
0.531733
0.500566
1.0029
0.507369
1.18871
0.577738
0.307454
1.32727
1.15134
0.48296
0.3561
0.873564
0.722028
0.762767
0.494804
0.480314
0.51134
1.24877
0.48835
0.718711
1.49376
1.0276
1.32007
0.499993
1.0508
0.337863
0.858044
262 335
244 311
393 16
112 172
0 228
425 243
271 125
234 395
478 198
223 66
500 329
497 135
415 457
375 151
82 77
370 99
149 271
36 50
394 500
289 246
270 427
421 448
79 228
492 479
277 9
234 493
221 490
493 282
157 260
500 297
26 486
482 57
261 157
92 369
200 196
174 398
293 385
213 362
409 31
472 500
252 13
499 314
299 329
275 394
369 74
75 75
216 112
352 173
414 189
404 413
164 53
330 27
395 300
315 368
240 363
237 350
358 339
77 53
406 145
387 461
23 243
428 169
498 242
414 198
138 47
288 44
309 256
215 278
93 407
431 133
4687.5
4
