70
9
0 0 0 0 0 0 0 0 0
52 13 78 94 88 20 13 86 48
94 63 82 41 80 74 42 59 29
12 33 83 52 39 62 73 62 35
98 23 50 44 20 73 61 33 21
82 100 22 72 62 33 31 85 59
67 23 55 95 54 72 65 11 93
20 66 57 78 40 74 12 85 99
47 76 40 52 88 24 50 20 70
57 26 55 31 44 84 85 29 94
74 86 76 53 67 18 86 17 19
43 48 35 92 65 20 28 21 30
47 84 25 19 21 19 93 21 69
72 70 14 95 44 52 76 46 19
38 18 30 74 54 93 56 56 36
33 17 87 26 88 84 12 62 91
100 79 69 73 74 40 49 52 73
49 91 50 16 77 95 43 99 57
40 15 59 30 97 82 95 42 60
85 37 23 75 24 49 22 46 47
12 10 42 40 79 96 83 19 99
33 33 10 25 14 99 97 25 98
12 72 72 98 64 51 55 68 21
77 35 97 70 55 36 71 72 14
72 77 92 93 73 63 49 46 48
81 10 27 68 78 28 15 73 67
18 94 31 31 25 68 59 83 34
73 88 67 96 92 91 28 67 44
70 91 75 23 88 18 24 43 12
28 42 19 16 70 79 86 30 39
51 40 37 42 65 45 15 30 63
80 56 83 92 10 92 25 57 56
15 34 66 78 65 61 48 23 63
91 91 79 71 86 61 37 54 46
88 53 78 27 31 17 76 69 78
28 75 52 86 22 67 36 89 75
72 12 80 47 12 85 20 82 75
51 33 29 89 29 64 39 17 13
53 88 21 18 27 68 91 82 44
24 89 43 98 85 94 20 80 26
71 50 22 94 87 49 94 43 66
28 99 94 11 71 93 100 43 23
69 21 38 97 69 71 79 14 83
69 27 29 13 91 59 93 84 54
52 38 61 25 33 96 68 50 68
76 41 46 27 74 11 63 94 64
59 55 38 20 20 26 14 47 57
11 50 28 38 36 45 45 88 67
60 19 68 37 56 39 97 89 100
48 43 45 97 40 69 81 98 32
29 13 52 31 90 44 69 68 27
34 84 22 50 23 41 58 68 10
47 51 93 99 33 74 70 58 30
39 25 90 67 32 31 53 24 96
67 73 75 21 17 72 20 26 61
62 46 23 60 92 48 10 49 36
57 63 21 97 77 90 28 96 46
69 64 60 63 65 14 24 74 84
100 43 96 45 97 17 27 38 44
55 24 62 45 13 30 52 46 92
37 38 38 92 62 89 24 95 64
13 37 71 39 74 44 48 39 77
30 51 31 86 44 33 65 33 12
77 65 22 64 49 84 28 100 43
17 85 64 58 65 61 67 45 45
57 99 93 64 25 69 51 58 15
65 72 41 15 56 27 28 45 54
33 98 93 86 86 71 74 61 46
74 99 56 99 91 96 42 52 100
68 100 82 63 22 41 61 40 12
1.55946
1.23048
0.706647
0.560313
0.742305
0.479779
1.44866
1.42565
0.52648
0.713632
0.648915
1.18389
1.25194
0.774341
0.609568
0.738181
1.74124
0.437481
0.69489
1.19754
1.76893
1.06996
0.428151
1.99334
0.463616
0.667175
1.21821
1.35206
1.33781
0.733049
1.68403
0.648657
1.83866
1.35143
1.03759
1.45435
1.63551
0.893951
0.811835
1.98107
1.56026
1.23465
0.640395
1.14428
0.756122
0.479895
0.767508
1.08102
1.04403
1.22196
1.53593
1.49465
1.03888
0.560793
1.86994
0.722298
1.98136
1.71314
1.95732
1.31575
1.91581
0.50704
1.19548
0.471697
0.573755
1.59762
1.5596
1.67597
0.96405
1.98233
475 236
143 96
325 125
52 419
388 304
236 221
88 270
360 327
399 431
208 224
407 386
203 244
36 325
266 151
4 201
95 347
263 176
467 377
386 10
305 100
193 445
47 475
255 68
475 389
342 306
320 215
16 150
494 447
28 90
289 222
10 454
62 215
8 25
254 262
133 105
426 397
17 288
452 428
41 38
111 161
497 121
248 404
199 222
419 235
120 193
346 1
434 144
192 442
367 13
389 292
47 318
94 418
274 266
51 481
156 46
264 382
488 225
268 232
415 113
88 481
330 3
398 32
452 186
204 132
200 43
315 273
242 380
109 227
36 493
148 49
18995
1
