70
5
0 0 0 0 0
28 28 83 96 53
36 90 22 18 39
14 16 27 52 70
74 79 74 23 82
67 71 96 99 89
27 42 92 18 67
13 37 94 89 14
77 53 83 45 77
82 77 28 81 24
31 22 79 73 79
77 53 17 84 99
43 18 64 69 70
58 96 35 46 15
45 73 42 16 48
55 87 77 18 77
58 60 21 17 60
79 57 66 97 10
17 73 21 31 41
40 59 47 54 38
72 44 78 89 55
51 87 77 14 20
41 75 12 38 81
49 81 11 19 68
84 91 12 96 81
29 33 76 37 86
41 32 88 100 28
44 35 33 60 56
39 25 37 28 57
24 90 49 59 78
91 88 97 14 77
90 11 73 35 36
89 28 81 99 12
32 82 51 34 14
58 32 77 94 100
59 100 11 53 83
81 72 97 87 81
30 11 68 55 38
42 82 61 55 79
58 19 43 30 21
99 74 97 16 84
94 77 23 73 86
85 23 58 10 48
76 86 88 83 14
19 98 87 63 27
51 59 99 55 71
51 80 30 92 64
30 95 90 70 39
59 89 89 35 85
49 83 82 89 86
42 25 36 29 13
55 59 94 70 84
11 12 43 40 45
97 13 33 50 61
67 30 88 99 41
40 84 10 49 47
60 94 40 12 91
43 12 11 39 19
23 56 75 16 31
89 27 67 20 42
74 89 44 70 65
82 10 33 25 24
83 18 95 27 79
79 42 40 54 75
16 58 43 64 47
58 68 52 39 26
87 38 75 79 71
53 19 44 98 15
19 95 46 95 80
99 70 30 76 41
0.812798
0.529912
0.673409
0.594699
0.321352
0.974742
0.955479
0.630263
0.279287
0.487959
0.438979
0.863664
0.227341
0.24092
0.608057
0.533446
0.819504
0.538971
0.262995
0.766014
0.419021
0.375195
0.632263
0.227977
0.336664
0.995829
0.706879
0.867105
0.282678
0.432398
0.963964
0.645906
0.603302
0.444744
0.961753
0.91354
0.910982
0.604245
0.370553
0.436617
0.632428
0.357383
0.84721
0.628527
0.244855
0.627505
0.514221
0.914506
0.351423
0.848605
0.371667
0.846353
0.666065
0.7685
0.257131
0.418689
0.714346
0.365614
0.350161
0.726751
0.922385
0.311204
0.638579
0.700424
0.528566
0.591361
0.214191
0.90617
0.211888
0.734101
457 128
311 305
272 206
102 407
407 349
40 27
311 430
256 125
29 360
225 242
200 21
448 157
431 128
106 343
324 475
399 362
77 401
210 11
199 402
96 178
175 170
227 417
324 376
451 415
278 330
257 4
84 141
26 115
381 170
409 245
49 267
16 460
79 287
386 0
10 129
291 285
306 288
227 378
393 498
41 281
9 435
145 275
89 402
346 192
243 189
129 365
63 232
173 60
151 175
28 317
16 218
488 393
159 346
381 101
477 106
372 444
356 343
80 430
381 156
22 495
123 153
217 135
282 132
357 309
12 143
392 271
317 131
346 100
309 405
284 68
3842
5
