70
3
0 0 0
86 68 57
24 27 61
13 37 38
64 12 65
44 80 62
54 10 12
24 42 13
86 18 23
19 60 75
87 34 74
19 44 44
33 98 13
26 94 67
84 17 52
72 61 44
56 75 73
46 25 40
96 57 52
27 83 96
97 49 47
44 100 86
97 89 49
69 80 96
71 48 73
63 78 31
84 80 40
56 29 38
13 35 80
29 46 41
16 28 65
29 89 54
27 84 32
90 20 68
83 98 13
27 91 44
60 11 78
90 80 78
40 11 62
40 72 48
94 44 78
91 82 27
39 46 85
38 47 99
15 64 59
86 62 95
27 78 30
100 63 27
49 61 54
49 55 81
55 12 63
64 69 26
86 98 99
72 93 90
75 28 92
29 79 92
12 17 67
97 21 82
82 20 61
97 58 35
50 82 86
53 78 56
46 66 87
71 57 62
93 35 16
69 87 75
76 66 33
97 94 70
19 93 98
34 41 22
0.17239
0.435076
0.346355
0.124694
0.260195
0.213406
0.499953
0.286363
0.230131
0.401831
0.492304
0.24289
0.276267
0.354271
0.437798
0.133003
0.333526
0.167886
0.381159
0.285637
0.204789
0.341565
0.331998
0.131216
0.227503
0.234243
0.292446
0.490304
0.48135
0.368394
0.363927
0.239242
0.334547
0.336499
0.102577
0.207863
0.118878
0.12872
0.129549
0.467491
0.168771
0.237809
0.222906
0.42371
0.397106
0.215318
0.483743
0.309412
0.398979
0.18344
0.331605
0.201633
0.403206
0.143506
0.44443
0.130278
0.31496
0.201918
0.36401
0.34756
0.369835
0.270795
0.281267
0.34653
0.265225
0.37605
0.434981
0.152225
0.43528
0.164963
295 482
41 227
265 175
492 432
169 255
199 267
443 306
144 186
111 255
67 326
397 107
202 3
332 81
306 127
162 358
124 414
250 100
306 7
45 58
160 345
451 262
267 390
106 117
322 405
207 459
450 2
474 401
265 409
172 252
284 83
195 346
295 122
286 181
97 382
411 26
366 260
493 49
239 223
206 62
7 304
77 63
296 12
106 61
254 312
19 262
123 272
64 496
383 481
333 348
51 385
113 309
480 236
483 241
263 2
470 386
148 107
116 163
124 52
196 276
248 118
500 148
82 159
11 46
422 285
248 467
236 424
177 260
458 287
168 348
201 356
4973.75
4
