70
9
0 0 0 0 0 0 0 0 0
14 54 69 65 57 25 79 57 94
64 98 54 16 90 41 19 49 70
18 97 99 24 32 78 83 36 71
84 72 11 27 36 44 45 44 33
60 39 56 10 79 21 74 50 71
36 33 80 96 84 92 80 73 85
92 90 75 94 20 82 18 56 94
98 84 20 81 69 96 24 12 79
64 30 67 86 15 19 100 44 93
91 46 83 17 76 81 44 48 75
21 44 89 30 53 19 55 44 36
16 100 34 18 62 90 70 80 23
75 77 44 31 11 19 82 12 17
51 40 25 41 56 23 90 66 97
61 61 46 43 61 47 87 46 85
67 44 87 24 54 46 93 62 94
31 84 79 17 14 15 46 81 99
83 37 16 14 59 26 43 64 28
34 80 47 82 75 33 68 22 85
13 22 52 32 66 45 22 69 91
73 82 74 53 71 77 57 22 61
35 36 24 54 46 62 28 15 92
40 39 98 74 38 75 19 89 51
11 11 42 19 42 48 84 88 91
82 27 45 36 45 99 74 72 37
89 78 65 40 53 80 94 73 33
78 68 58 76 88 81 92 29 97
78 28 61 48 35 86 36 31 100
95 96 68 96 100 81 75 26 13
49 39 60 48 85 91 45 73 90
27 92 37 24 64 15 36 59 39
39 75 32 63 61 20 16 22 79
30 48 81 21 51 48 92 27 35
38 92 37 71 13 62 34 42 21
92 67 47 88 70 58 22 24 66
91 72 13 75 59 69 22 13 79
88 25 32 100 88 84 42 46 77
89 30 78 85 24 43 94 93 84
68 38 27 22 37 90 67 19 13
45 75 33 48 59 75 57 59 40
94 95 70 66 49 87 36 48 63
21 100 29 48 40 51 90 68 58
47 26 67 45 24 97 48 58 21
32 83 19 17 45 98 56 51 11
47 39 77 12 95 81 63 14 22
25 44 57 57 22 46 91 52 80
43 24 78 64 50 39 56 83 29
81 47 12 79 17 100 12 57 25
72 32 29 57 51 58 63 16 76
39 31 89 71 65 42 71 23 60
34 57 78 75 59 37 88 93 30
74 29 66 62 58 27 78 99 57
69 33 64 76 65 10 89 28 54
54 30 11 40 21 11 14 77 56
22 10 98 53 64 77 14 89 37
40 34 44 52 99 27 16 74 43
19 13 48 43 16 34 41 10 64
62 70 29 39 81 24 37 47 19
12 55 96 27 62 63 67 100 71
84 79 78 20 12 41 11 62 17
47 48 82 77 18 58 11 89 89
81 55 65 48 31 52 31 76 60
26 48 38 18 70 34 31 26 60
41 31 75 22 73 42 77 11 52
65 29 31 66 12 38 17 20 20
16 74 57 30 65 79 33 17 38
46 68 62 52 25 50 27 90 12
65 46 81 60 52 57 39 82 59
31 89 32 43 48 16 21 50 45
1.23117
0.774507
1.16842
0.451776
0.356812
0.514894
0.385416
0.787975
0.931115
0.828637
0.922732
1.43495
1.17328
1.1621
1.18969
1.46126
1.00312
1.22497
0.576397
1.49672
0.511849
1.02448
0.372604
0.453071
0.635844
0.514448
1.41621
1.24051
1.36681
1.30876
1.32855
1.30865
0.522733
1.02185
1.38819
1.13683
1.3988
1.15157
0.927481
0.383694
0.418666
0.745108
0.844363
0.336471
0.840702
1.38568
1.28012
0.603686
0.628716
1.45807
0.428829
0.708163
0.667492
0.722355
0.603052
0.615697
0.304611
1.22374
0.759582
0.811417
0.976275
0.858255
1.48798
1.32749
1.21753
1.12565
0.420068
0.799534
0.562946
1.0431
217 290
438 33
228 125
52 120
328 270
488 280
344 317
369 68
84 380
253 211
119 49
62 285
326 255
146 195
330 29
325 499
295 479
309 143
440 235
98 406
175 58
61 226
177 17
180 312
209 433
462 136
171 71
138 236
457 80
274 330
312 387
471 182
354 141
29 385
188 340
355 305
349 256
122 413
78 464
39 261
184 322
32 218
436 305
469 129
493 0
165 272
74 42
297 18
285 399
243 117
254 259
385 470
433 226
315 181
23 206
43 471
329 41
394 192
284 309
224 455
484 46
420 461
144 401
421 223
291 238
71 22
430 428
161 352
436 281
305 215
3684
5
