70
3
0 0 0
70 37 81
100 75 42
64 87 70
31 52 72
27 80 99
83 25 56
26 92 55
96 27 23
91 40 42
60 19 13
19 24 67
99 49 29
48 23 26
76 44 13
88 47 84
36 100 36
13 28 12
85 71 95
52 40 15
48 67 18
55 32 33
63 76 52
62 97 69
86 74 32
90 33 71
57 79 19
24 38 70
78 62 43
38 43 18
34 95 54
97 12 76
37 53 81
13 92 67
76 59 39
36 20 22
12 72 67
99 66 28
91 100 10
12 77 37
46 10 94
13 64 56
35 44 79
23 54 10
20 77 15
53 45 64
35 19 60
23 21 78
66 27 42
27 91 98
58 98 75
81 34 57
84 93 82
49 67 70
25 95 58
14 82 29
53 86 77
38 52 34
14 84 77
67 18 89
60 63 62
46 76 13
88 92 21
31 79 90
72 67 26
66 90 48
34 93 70
79 66 90
64 13 68
92 15 26
0.433356
0.263452
0.309519
0.160416
0.118779
0.416546
0.317993
0.184044
0.379005
0.34071
0.315037
0.354141
0.174918
0.378493
0.205757
0.258375
0.242122
0.465711
0.454646
0.460805
0.270746
0.167876
0.226
0.224509
0.298487
0.293226
0.382837
0.294629
0.202574
0.285966
0.466554
0.466181
0.404047
0.306323
0.343006
0.469694
0.489335
0.125357
0.124878
0.142182
0.456942
0.403129
0.152602
0.270869
0.259713
0.48341
0.23796
0.465346
0.384893
0.358183
0.241984
0.317027
0.147184
0.152018
0.315587
0.262097
0.479534
0.488094
0.261188
0.449128
0.426408
0.406636
0.174431
0.318739
0.483779
0.339862
0.417095
0.157355
0.191279
0.216622
58 499
429 200
427 350
473 81
86 388
220 341
476 87
219 319
471 141
444 244
255 288
87 308
260 111
384 96
85 246
150 378
438 118
166 209
339 94
94 271
292 84
476 494
324 114
178 486
224 263
488 409
31 207
368 336
269 53
145 461
41 465
360 317
201 79
104 263
327 256
480 254
87 164
394 166
358 317
149 208
382 325
285 256
111 277
442 16
209 93
154 338
184 313
164 326
383 173
472 452
54 246
172 164
339 25
65 181
480 274
477 240
308 252
241 40
316 171
452 265
382 42
358 290
144 254
355 337
118 445
244 61
261 442
104 138
423 441
355 92
4726.25
4
