70
3
0 0 0
70 97 98
78 17 46
69 93 55
73 21 44
79 45 54
62 74 17
19 82 81
26 12 97
22 13 38
54 48 80
99 18 34
58 33 15
11 37 62
43 70 17
49 42 76
24 18 13
57 97 44
10 81 83
51 85 15
79 95 29
97 90 31
83 49 50
53 97 35
29 12 60
24 68 90
28 91 23
91 23 14
27 48 19
17 82 53
78 57 25
95 70 61
26 80 64
15 92 10
61 31 19
61 98 78
62 52 49
32 62 16
27 13 49
39 58 41
41 23 30
27 85 15
77 82 11
34 62 61
11 84 46
32 66 82
71 21 57
86 74 35
85 67 11
29 33 74
90 82 86
69 61 89
82 79 57
57 64 36
76 61 37
42 10 34
100 44 76
70 37 65
46 25 14
45 17 86
95 71 16
68 69 31
77 74 86
49 86 65
50 43 100
52 80 85
94 54 37
34 54 65
42 77 82
29 80 70
0.948388
0.432816
0.437447
1.04849
0.670977
0.439476
0.678665
0.514805
1.2289
1.80509
1.03732
1.72664
0.885925
1.08404
0.709085
1.87353
0.994122
1.97769
1.63112
1.85421
0.436197
0.675527
0.583926
1.38782
0.743422
1.94603
1.90842
1.28517
1.1532
1.41326
0.873887
1.66597
1.79955
1.94688
0.442052
1.12591
1.93358
1.94757
1.29081
1.01514
1.18156
1.1611
1.99549
1.70944
1.05063
1.55605
1.85406
1.08821
1.83581
0.910529
1.16762
1.54944
1.1859
0.871035
1.63506
0.43037
0.723807
1.5787
1.57993
0.816297
1.54478
0.587188
0.65875
1.18619
0.528108
1.93303
1.0902
1.10774
0.835137
0.489261
448 88
288 472
342 298
182 492
250 78
294 67
306 57
277 42
415 447
15 85
485 47
185 453
195 136
104 8
307 258
376 154
270 13
304 454
133 317
366 119
139 102
89 139
481 253
159 98
474 278
75 492
292 49
9 103
278 456
310 292
485 344
341 294
209 24
436 204
413 417
320 446
364 78
66 30
6 188
219 304
443 92
481 222
392 258
0 208
80 167
143 435
339 354
232 56
474 131
224 140
9 315
298 103
482 177
295 299
236 104
19 382
220 24
383 117
38 243
263 331
228 356
230 229
220 6
161 471
155 399
174 129
266 149
170 220
269 60
103 96
4657.5
4
