70
5
0 0 0 0 0
76 94 58 75 70
21 56 72 58 14
86 69 76 100 68
74 75 91 89 46
22 40 70 30 24
22 16 91 57 88
92 19 16 62 100
86 45 63 48 89
12 71 62 29 63
85 42 97 72 91
87 53 95 68 66
83 52 68 57 38
37 84 38 79 75
71 59 51 65 94
78 57 31 38 60
85 100 73 22 27
37 17 87 78 72
62 73 24 15 95
17 27 10 87 42
81 53 65 15 36
46 93 43 88 19
15 72 41 78 16
79 72 31 25 67
83 80 74 60 10
33 18 94 41 67
96 10 19 35 97
55 63 80 26 75
81 20 38 86 26
64 77 45 19 87
12 81 75 62 35
98 38 76 42 26
11 58 50 83 25
10 76 84 33 41
32 37 70 30 35
58 20 48 64 80
69 57 40 69 90
94 49 55 52 79
12 23 59 32 97
31 99 54 25 30
67 98 54 25 16
71 27 50 26 34
25 93 48 60 98
85 52 89 66 89
45 62 65 27 30
79 79 75 89 88
100 93 13 42 21
25 65 22 62 92
26 92 39 10 59
57 71 83 20 80
35 50 16 45 50
83 56 77 22 26
56 87 31 52 24
64 20 60 86 59
73 86 32 67 37
11 23 33 10 51
65 69 54 47 54
35 43 89 45 33
62 72 86 79 88
78 15 98 57 81
16 93 53 13 67
89 76 77 38 53
68 46 95 54 33
42 74 68 58 43
21 25 25 25 31
99 50 49 35 20
78 21 67 14 24
29 46 57 10 54
84 83 28 16 29
73 77 56 90 73
1.92942
0.730945
1.5015
1.60772
1.98924
1.84106
1.041
1.02088
1.19222
1.24598
1.7046
1.85984
1.87062
1.43712
0.820214
1.4791
1.20761
1.08424
0.458851
1.1054
0.619732
0.54617
0.716286
1.20809
1.43603
1.60695
0.977109
0.849461
1.61369
1.01239
0.910132
0.464262
1.29894
0.402172
1.85758
1.65861
1.93303
1.66955
1.62892
0.849392
1.71373
1.39109
1.84526
0.687146
1.19584
0.541923
1.29482
1.25796
1.95428
1.50525
1.92545
1.55945
1.72071
1.07499
0.79099
1.79088
0.820229
1.67492
1.5447
0.472241
1.7028
0.400572
1.51888
1.29067
1.83707
0.799337
1.50137
0.931887
1.88907
0.640988
236 421
344 254
344 278
304 98
428 250
161 179
156 247
211 337
126 420
279 243
124 81
254 282
491 31
388 138
130 3
448 159
93 485
371 134
26 155
241 242
214 344
113 158
263 369
133 60
425 15
196 255
247 413
97 374
377 287
33 314
54 155
103 192
13 345
206 318
441 477
384 60
230 81
221 141
491 461
378 127
433 405
188 208
125 458
315 480
282 456
479 92
196 94
105 373
37 172
452 480
437 145
467 201
316 348
388 281
433 166
193 211
376 210
88 250
177 15
205 68
82 113
29 7
440 171
288 293
173 430
484 314
448 244
17 353
233 434
304 475
9552.5
2
