70
9
0 0 0 0 0 0 0 0 0
74 25 40 79 87 73 55 57 94
10 99 42 89 19 91 18 19 46
74 35 59 35 41 83 34 91 47
49 92 40 82 30 58 33 98 78
58 53 12 27 39 96 67 14 77
66 15 47 74 82 84 45 71 65
48 43 74 88 66 14 27 64 19
60 48 65 28 41 66 48 82 83
53 37 66 35 100 73 17 28 94
66 98 68 52 22 30 85 53 68
75 12 93 40 66 14 58 45 94
70 32 85 14 93 32 21 38 20
90 89 42 98 38 75 80 75 72
93 16 57 16 91 40 14 65 71
22 26 17 85 12 85 20 70 86
64 90 97 60 49 19 30 100 39
96 19 83 29 50 84 78 63 33
61 81 75 91 48 90 12 93 18
72 27 56 71 83 48 63 88 94
57 43 100 87 81 53 41 74 17
31 22 42 90 95 48 54 95 33
22 59 85 15 25 86 65 11 88
49 15 96 46 18 35 24 70 77
87 65 12 60 57 15 45 56 89
50 38 87 13 73 66 21 63 52
58 42 45 35 84 70 47 25 55
27 41 19 45 61 30 95 24 60
18 79 48 70 18 71 64 52 70
99 22 64 74 43 39 51 82 42
37 57 81 61 95 98 55 16 55
78 13 71 75 94 23 26 34 37
38 46 67 44 52 98 16 42 38
61 84 20 74 99 94 79 59 77
59 14 22 48 73 62 53 79 37
49 82 65 88 94 25 54 88 22
86 73 58 85 44 56 65 86 92
50 88 15 41 64 88 77 60 39
29 77 91 95 89 61 75 25 29
60 39 93 14 25 70 36 66 85
13 81 88 47 26 41 67 11 70
78 12 51 82 31 10 53 76 34
95 22 36 18 52 54 56 21 10
88 55 19 41 48 88 81 20 75
34 43 87 64 77 23 32 23 49
78 37 33 24 61 58 46 45 18
53 33 17 10 79 95 92 34 63
63 98 13 17 70 11 88 65 65
53 67 57 18 87 46 98 87 56
18 36 48 79 94 64 29 95 47
97 78 89 66 12 90 46 90 95
12 94 96 46 12 23 25 42 84
11 41 75 26 38 75 43 17 52
96 31 96 57 27 83 16 95 80
84 29 53 70 40 76 61 59 65
25 24 17 43 36 46 13 22 20
12 69 98 72 83 93 47 88 33
21 98 61 53 60 45 92 17 25
56 22 44 60 85 98 28 60 48
57 92 14 68 16 11 76 92 48
53 15 64 81 90 41 53 33 34
51 70 54 48 45 33 79 80 51
57 45 44 76 27 75 10 58 99
66 75 48 86 73 17 34 62 20
85 27 21 36 50 87 75 86 86
16 99 20 13 74 74 34 64 25
24 32 30 52 76 71 100 19 28
51 70 22 78 30 82 65 64 85
81 52 47 13 68 27 27 18 14
91 32 74 11 70 93 55 52 68
0.286977
0.128133
0.284699
0.273557
0.463475
0.480475
0.277625
0.169393
0.37809
0.369039
0.194563
0.482138
0.289728
0.25396
0.334401
0.289935
0.254654
0.340204
0.476779
0.352692
0.456976
0.227673
0.192122
0.443129
0.447405
0.112007
0.375352
0.114577
0.417097
0.236084
0.390857
0.306277
0.181769
0.226324
0.38537
0.362476
0.363883
0.201884
0.332927
0.39693
0.212038
0.443097
0.440266
0.135596
0.416795
0.419398
0.465659
0.449425
0.126773
0.198794
0.362036
0.230773
0.172618
0.202038
0.496879
0.498373
0.358471
0.462983
0.263802
0.101324
0.41539
0.310128
0.132825
0.256861
0.458216
0.322475
0.156675
0.26456
0.337559
0.473461
103 58
341 125
409 331
44 203
132 134
478 28
390 346
1 211
144 385
469 195
483 94
267 240
208 478
289 426
372 328
0 202
366 254
438 299
370 489
290 413
484 42
291 101
337 494
400 484
352 424
6 192
490 97
484 182
58 319
484 73
431 281
213 235
112 303
162 188
185 178
451 196
229 332
16 148
204 217
396 194
241 172
105 472
147 499
148 341
359 180
106 215
203 158
44 308
149 44
465 143
124 130
294 370
296 462
58 386
289 420
262 16
229 347
407 245
311 303
195 105
175 315
120 483
456 356
435 425
471 311
254 127
312 232
57 191
94 414
19 435
9492.5
2
