70
5
0 0 0 0 0
81 19 31 25 100
91 87 53 86 93
26 96 33 50 59
71 64 80 63 92
99 34 61 40 15
41 72 26 73 56
72 96 80 58 12
85 39 75 35 82
58 51 66 21 20
50 67 22 80 36
80 94 21 79 40
44 26 61 91 73
82 49 32 81 19
35 52 62 71 16
62 78 53 27 38
56 73 28 92 45
36 22 82 99 68
52 44 21 70 88
96 24 95 48 67
95 78 50 29 60
49 36 12 19 42
94 39 38 71 96
79 98 25 16 41
89 39 18 44 41
28 64 48 72 13
84 48 35 88 95
77 90 65 49 43
61 33 68 37 73
80 91 56 16 91
65 38 90 38 97
62 39 78 71 75
74 17 44 39 68
63 79 27 89 37
29 87 51 34 56
84 94 16 31 21
61 62 80 28 86
69 50 43 53 78
74 61 96 44 63
91 32 85 47 83
50 56 53 60 29
85 46 30 48 88
92 27 80 32 55
41 12 20 63 65
43 71 24 97 68
96 27 25 50 53
27 67 47 84 51
42 45 34 69 53
24 91 76 33 54
40 100 59 17 42
33 48 32 38 76
49 19 66 48 16
68 67 74 97 62
38 49 24 81 55
99 89 64 38 28
65 24 43 16 35
30 54 91 34 39
30 26 29 26 69
46 43 73 85 54
59 66 25 10 77
22 92 54 46 17
70 82 69 97 55
19 94 68 42 66
64 68 89 52 16
58 81 96 87 19
33 45 13 21 72
19 19 50 27 92
29 84 39 55 24
18 41 33 93 17
29 17 79 16 88
0.750304
0.612569
0.784039
0.778037
0.764833
0.858668
0.640932
0.766548
0.253051
0.985891
0.853828
0.993032
0.998029
0.381248
0.535253
0.766461
0.761694
0.795844
0.909107
0.796548
0.258044
0.799965
0.30694
0.615429
0.995863
0.261478
0.603298
0.943106
0.331872
0.935714
0.824844
0.571697
0.229511
0.926971
0.245872
0.875006
0.857485
0.612033
0.411511
0.784239
0.899627
0.213662
0.28898
0.735865
0.22871
0.56663
0.368992
0.885621
0.717614
0.560523
0.30069
0.979633
0.818972
0.430351
0.263155
0.56883
0.461757
0.947354
0.519635
0.445024
0.608708
0.444021
0.891324
0.646736
0.982805
0.389655
0.252177
0.550207
0.992269
0.768542
477 480
146 433
230 209
180 382
201 15
400 9
356 487
381 50
269 187
179 482
345 5
80 394
415 482
489 494
370 428
148 443
169 131
299 46
447 181
87 363
187 475
459 51
338 274
368 372
426 487
107 138
348 157
486 254
33 179
291 346
371 131
42 75
446 383
137 315
361 186
249 204
361 218
138 204
354 183
406 110
145 214
347 142
471 212
282 380
283 102
318 73
37 252
178 34
458 439
491 326
142 388
426 497
59 322
462 13
379 160
405 446
460 10
368 392
450 195
98 491
7 475
31 208
135 32
323 277
116 460
452 290
348 380
324 29
381 384
419 136
6333.33
3
