70
7
0 0 0 0 0 0 0
74 53 55 61 47 25 25
45 60 95 10 88 37 27
77 75 13 45 72 51 75
62 46 10 51 14 37 76
20 10 24 73 62 97 100
10 73 100 68 10 29 67
89 83 45 22 19 44 32
100 31 12 32 72 52 13
70 17 43 35 99 47 34
41 29 77 40 54 42 80
36 35 30 65 17 59 84
34 42 21 24 49 91 47
13 86 45 19 10 39 14
86 62 12 43 79 30 37
28 18 26 49 36 75 31
87 87 84 10 71 54 35
43 13 65 74 97 23 96
71 69 36 62 51 70 82
76 62 32 82 63 46 94
32 91 59 14 97 43 78
45 54 20 11 64 12 68
48 12 51 39 32 88 62
16 55 54 86 57 33 60
43 18 26 60 42 10 58
40 63 47 79 73 86 27
100 27 35 84 51 41 47
98 85 76 36 90 74 10
30 30 61 95 91 57 54
34 73 85 30 25 82 18
47 87 80 51 54 48 73
57 41 75 27 98 72 53
91 30 65 62 69 34 55
36 14 15 11 65 15 48
49 62 31 40 42 33 69
51 77 85 67 79 61 87
77 22 65 53 28 42 73
100 94 69 76 91 34 21
81 10 60 45 43 55 25
19 11 39 80 99 36 85
98 49 55 88 73 52 72
25 66 42 30 37 45 34
82 12 11 94 56 33 20
45 76 60 78 45 91 59
98 71 27 87 97 25 26
73 77 35 100 13 58 58
27 35 82 67 61 44 18
54 73 37 92 39 61 46
76 29 57 16 69 64 52
20 18 63 50 41 34 82
96 29 17 58 88 41 76
59 70 60 63 47 16 77
53 41 90 29 57 51 67
59 97 43 90 73 56 72
43 96 19 42 76 58 33
64 81 47 50 61 82 46
74 33 22 84 92 22 65
98 71 22 45 11 38 41
94 86 12 20 14 78 43
19 87 67 20 56 53 69
66 46 77 96 25 59 40
25 35 48 49 13 89 83
55 56 33 26 83 90 51
39 45 39 26 38 46 31
19 35 14 65 27 27 34
51 96 58 69 21 17 51
64 22 66 62 51 16 97
46 58 16 65 49 17 39
29 15 47 61 25 99 27
98 52 12 57 49 14 16
1.65079
1.55972
0.691506
1.28519
0.655974
1.11165
1.03657
2.13928
1.19198
1.18391
1.64202
1.7893
1.24995
2.31422
1.00144
1.1208
2.08515
2.39775
1.48122
1.07324
1.82888
1.00807
2.06115
1.4568
0.552856
1.06173
1.39952
0.617495
1.91226
0.897942
0.862564
1.95902
1.69243
0.578184
0.625795
2.37719
1.76572
0.546745
2.35398
0.894815
1.73143
1.97218
1.38403
1.10874
1.414
1.60287
0.718979
0.972002
0.849757
0.68952
1.13316
1.28456
1.61217
2.42794
1.53629
0.966968
1.47908
0.879281
1.8573
2.49987
2.12599
1.05491
2.41953
1.66279
1.82302
2.31055
0.997975
2.02673
0.909578
1.09928
82 223
43 445
114 75
445 458
243 149
187 17
256 53
175 471
165 488
104 209
247 71
466 229
167 318
3 58
136 316
222 367
420 356
452 1
171 15
323 499
108 467
398 30
314 114
283 201
266 41
486 160
293 471
186 231
480 48
181 367
62 371
12 261
301 42
334 439
146 292
255 258
190 154
102 114
272 483
80 474
356 351
174 406
169 374
109 86
302 331
425 404
131 68
435 215
453 477
243 494
63 453
162 18
499 346
96 494
135 178
33 23
198 444
81 451
498 157
42 362
318 13
344 313
386 345
42 41
10 396
486 202
27 317
212 284
400 237
356 316
8990
2
