70
7
0 0 0 0 0 0 0
47 20 78 11 17 65 81
100 86 23 100 65 50 43
61 83 89 38 70 75 96
45 96 48 82 89 46 98
69 69 49 31 23 74 81
36 40 83 72 87 95 74
21 70 57 52 50 51 80
74 80 68 85 32 27 56
89 87 66 54 89 37 74
21 96 79 99 83 48 55
78 82 83 23 14 74 80
81 76 12 36 26 59 29
36 61 60 15 33 99 14
25 27 88 67 60 85 57
86 75 44 67 63 53 60
61 43 59 35 75 18 57
41 22 56 63 92 23 67
12 57 33 26 56 68 10
27 38 98 78 14 20 89
15 97 68 92 69 51 70
63 50 78 68 35 82 41
68 98 51 47 54 87 45
77 17 74 11 61 70 10
91 39 68 51 83 94 68
92 65 86 92 13 37 90
77 58 88 32 10 87 61
70 15 86 36 24 52 56
82 65 54 26 92 23 80
93 33 74 57 69 52 44
79 61 20 11 97 18 12
53 41 42 73 39 45 90
80 86 59 43 97 23 77
63 66 63 55 73 48 39
98 26 22 23 14 17 99
62 25 69 100 79 39 11
94 76 56 65 47 37 37
52 70 92 25 27 81 17
61 70 40 46 75 67 75
81 74 23 80 82 89 99
75 97 84 42 24 61 99
35 19 57 82 50 51 47
31 52 80 13 25 49 54
85 60 86 11 46 83 21
11 12 97 44 76 41 82
25 50 31 86 53 66 31
18 38 44 75 21 35 74
63 95 25 67 62 25 89
17 75 65 29 72 75 55
34 54 31 53 32 22 44
35 34 54 60 20 89 72
67 34 68 13 65 28 23
15 69 58 41 88 25 13
82 44 50 89 46 52 50
69 93 71 14 33 28 28
38 43 42 92 38 71 52
61 92 18 40 42 71 62
47 78 80 66 89 36 32
26 68 67 94 85 33 10
46 35 89 58 100 94 53
12 59 53 34 31 24 53
29 73 62 76 48 51 100
16 91 33 61 52 94 17
83 96 93 52 82 93 51
16 11 71 85 66 45 93
56 14 57 66 94 55 78
23 37 22 54 65 86 67
58 37 28 71 78 21 49
39 98 74 64 35 25 31
49 93 13 59 72 50 74
0.116148
0.258452
0.47693
0.22847
0.330334
0.126358
0.301827
0.261032
0.130734
0.115026
0.488575
0.239856
0.252859
0.177359
0.137226
0.336152
0.499283
0.481933
0.383261
0.337365
0.378855
0.191069
0.29526
0.223323
0.223264
0.281592
0.284003
0.403485
0.136815
0.344858
0.456255
0.424039
0.184446
0.498095
0.242731
0.285951
0.120901
0.355179
0.343311
0.494085
0.117301
0.140505
0.237157
0.478238
0.119662
0.116656
0.354482
0.146261
0.433211
0.226401
0.195421
0.128568
0.12286
0.20385
0.128179
0.491219
0.474204
0.408542
0.261713
0.396104
0.400519
0.372287
0.135619
0.189772
0.397591
0.34326
0.217406
0.125346
0.490842
0.458048
39 374
94 493
393 376
170 16
288 261
343 239
183 189
192 388
294 379
209 396
38 401
152 430
210 201
334 145
310 12
414 34
315 171
364 432
179 4
153 319
456 106
372 278
251 400
140 399
418 379
323 181
394 430
459 227
166 235
319 476
192 70
107 74
138 145
87 12
106 463
490 64
330 209
155 477
225 189
318 96
177 87
30 284
192 471
268 169
195 452
327 491
384 240
394 162
100 485
137 325
366 300
201 426
389 467
162 61
17 450
65 418
26 228
222 312
129 381
205 188
464 382
34 183
219 82
114 261
53 255
380 92
474 354
32 419
464 449
146 408
19425
1
