70
7
0 0 0 0 0 0 0
80 30 36 93 82 63 87
85 14 38 23 98 22 81
89 76 55 54 27 26 92
43 78 20 43 65 57 90
19 85 76 93 14 63 49
33 45 56 68 45 42 60
11 75 48 65 77 77 13
86 72 37 58 90 11 50
17 93 88 73 53 62 78
33 38 81 50 26 57 83
56 79 60 98 25 37 71
90 26 40 43 36 18 84
31 44 83 66 58 23 67
58 61 41 33 14 49 69
46 33 68 34 99 48 20
85 33 45 14 18 79 95
38 10 93 33 89 86 77
83 32 74 78 13 46 75
45 91 91 60 60 29 70
24 30 86 73 28 76 34
46 21 81 26 74 41 60
90 29 22 24 73 29 52
11 76 49 91 50 40 64
22 22 92 44 56 42 73
96 73 38 85 19 46 27
81 68 29 25 69 24 97
16 73 68 68 56 99 75
49 71 31 24 34 39 34
95 79 34 22 83 63 13
24 26 50 45 34 89 69
86 10 23 91 87 32 68
36 79 78 75 47 24 66
78 97 45 90 21 54 99
54 100 100 10 92 25 81
27 30 88 12 42 71 17
89 41 58 39 91 71 33
91 61 62 74 66 22 15
19 91 90 44 93 24 59
50 83 29 61 70 83 55
20 78 66 14 72 20 96
14 28 40 29 90 45 35
32 41 24 49 38 88 93
14 43 19 68 56 74 42
19 27 34 43 12 77 24
32 91 52 95 44 86 71
52 76 71 47 43 90 24
100 90 20 27 20 63 74
80 79 61 83 62 11 44
55 23 46 10 77 66 44
56 33 89 36 53 17 32
99 23 16 86 58 74 51
92 10 40 21 88 20 11
71 91 37 10 40 91 80
46 56 21 99 59 50 19
74 44 20 66 79 69 44
23 74 54 28 50 96 41
77 25 88 44 76 78 56
78 88 22 60 15 12 39
10 18 30 10 12 55 99
51 37 92 74 14 44 17
43 34 43 58 83 40 82
61 56 21 65 64 66 48
40 70 27 54 99 70 23
29 86 57 89 66 21 34
70 86 40 56 46 19 96
15 49 70 79 65 20 29
42 14 39 24 12 68 55
26 14 51 27 76 56 66
26 67 80 36 100 29 16
0.378617
0.77496
0.856204
0.676712
0.224121
0.429722
0.567969
0.977982
0.987896
0.906519
0.75615
0.55162
0.760559
0.968902
0.7412
0.828912
0.310826
0.354265
0.948033
0.834614
0.224136
0.225511
0.77041
0.708243
0.888738
0.489029
0.414074
0.786794
0.902219
0.72659
0.363022
0.394883
0.312531
0.955379
0.236465
0.205703
0.689868
0.989572
0.401594
0.617678
0.942204
0.66067
0.688074
0.513711
0.89626
0.412818
0.556802
0.301111
0.236431
0.345855
0.401223
0.392469
0.504351
0.809283
0.322597
0.470643
0.348092
0.735343
0.47439
0.256542
0.534876
0.98663
0.243219
0.311466
0.904445
0.915788
0.561191
0.749811
0.809196
0.649221
206 86
353 25
487 42
242 157
399 293
200 94
114 252
144 52
298 25
152 53
347 156
83 105
367 166
59 404
431 498
75 348
197 170
480 253
50 442
16 426
100 173
4 155
461 414
498 420
338 368
366 388
207 351
126 479
80 102
251 458
474 390
419 242
162 402
247 123
308 250
28 336
464 186
43 268
361 102
244 438
75 46
385 298
239 12
361 77
177 29
491 305
287 449
140 453
241 426
34 63
493 400
87 20
346 113
324 47
313 480
88 56
183 203
9 408
325 237
107 130
9 81
65 449
86 325
73 476
359 110
22 457
280 233
421 305
62 209
175 253
6133.33
3
