70
9
0 0 0 0 0 0 0 0 0
32 45 79 78 73 42 32 65 43
88 40 46 82 33 25 67 10 90
43 87 27 78 52 89 73 28 43
52 60 68 62 100 48 100 35 88
57 69 45 43 11 17 71 26 30
53 65 48 80 98 53 87 70 69
94 84 39 81 13 75 28 28 44
60 87 63 14 41 40 36 94 87
29 37 39 60 85 32 40 49 92
54 88 38 96 31 73 38 34 91
20 32 35 28 96 10 64 55 81
56 47 16 74 24 57 80 11 86
99 39 93 79 27 24 86 51 54
20 94 16 92 79 11 38 20 90
45 42 36 25 23 19 43 69 36
87 19 80 26 81 96 23 16 26
46 32 53 95 59 47 18 28 76
98 61 32 85 56 91 87 13 19
41 34 36 37 37 53 28 55 61
47 99 35 28 82 37 81 14 29
77 12 21 91 27 64 34 23 70
60 98 81 23 39 39 18 21 43
95 77 39 97 44 53 81 32 39
36 52 42 10 11 34 26 81 31
29 90 53 69 74 77 67 26 18
69 83 21 66 30 42 98 31 73
94 84 64 86 29 89 31 18 44
91 80 20 72 68 78 84 70 95
21 29 91 63 25 37 13 23 59
21 27 42 48 78 20 69 21 65
47 31 79 16 100 61 99 20 66
37 45 29 88 73 97 98 45 32
85 60 49 51 99 10 29 43 87
12 84 31 10 72 66 19 91 79
61 32 14 22 86 81 47 83 96
91 18 61 13 37 100 66 75 48
62 11 20 34 97 55 92 27 70
31 68 72 65 32 80 89 93 98
69 65 42 44 80 53 66 12 26
63 23 55 78 92 42 20 88 63
43 95 35 30 48 85 24 31 50
63 88 75 52 27 53 90 27 37
81 15 82 68 20 91 88 92 32
70 65 27 25 15 28 40 98 34
19 12 28 67 96 24 74 97 78
47 40 32 23 12 73 96 75 39
98 33 61 22 87 39 76 42 96
46 89 73 79 89 32 47 84 39
76 36 91 48 98 95 34 39 54
90 76 20 63 94 61 31 50 61
89 58 29 15 79 71 62 95 29
78 30 88 18 38 28 17 78 95
86 25 77 84 23 80 89 81 44
95 100 14 66 94 67 27 85 64
72 76 39 34 93 30 37 65 34
51 68 57 66 70 18 46 49 29
38 66 11 94 61 64 64 96 38
10 41 45 75 93 17 39 47 42
88 70 19 63 83 48 59 97 77
80 82 63 80 76 99 36 41 38
85 41 56 60 63 28 51 64 64
68 37 31 36 66 87 67 39 61
16 46 65 63 24 47 71 49 77
70 55 85 16 56 27 69 77 39
96 48 26 57 58 86 22 50 50
49 38 11 25 83 34 98 29 88
97 41 19 88 53 53 52 43 66
94 56 49 86 78 42 90 60 41
98 42 80 79 94 98 25 17 72
1.79489
2.28509
1.27496
2.31541
0.762475
1.02594
1.86441
1.16331
0.990282
1.75904
1.45041
0.804577
1.07771
1.5619
0.565574
2.18404
1.33537
1.70345
1.90679
1.02904
2.23761
1.59448
1.04498
1.49337
2.02675
2.32202
1.78691
1.3901
0.979458
2.01267
0.976796
0.698015
1.8165
2.04199
0.75761
1.75824
1.63114
1.42659
1.06249
2.36167
0.872059
2.43199
1.9535
0.565553
1.54322
1.45566
0.695933
0.94316
0.625576
0.517076
0.809407
2.13084
2.02386
1.18886
0.618914
1.5673
1.7861
1.32423
0.731095
1.46513
1.43326
2.04086
1.28666
1.83948
1.99952
1.82329
2.27644
2.40675
2.37953
1.32413
336 311
200 416
276 287
343 479
244 390
241 459
263 261
161 401
385 312
434 254
485 96
420 147
267 116
463 203
322 246
311 467
358 6
438 465
239 371
271 125
441 143
210 130
320 62
63 392
251 234
495 164
66 219
403 348
95 143
404 42
142 100
207 384
199 447
33 206
359 252
409 33
315 467
481 69
263 178
375 326
50 406
82 118
169 65
185 219
464 250
262 460
293 414
140 277
67 231
20 435
318 207
54 193
455 92
288 209
385 56
419 396
465 189
434 204
246 52
464 70
71 367
486 309
490 484
134 344
153 111
496 414
3 435
438 204
202 351
149 297
6378.33
3
