70
11
0 0 0 0 0 0 0 0 0 0 0
11 18 55 97 70 86 44 79 32 54 65
63 72 37 53 48 54 17 18 45 57 73
41 29 80 29 47 60 26 44 93 18 18
92 76 61 99 45 72 47 89 47 60 90
49 65 27 31 89 99 15 73 21 57 93
99 56 19 60 40 66 95 34 37 80 51
95 33 39 20 80 94 24 55 81 70 54
29 32 99 21 63 21 95 86 76 92 10
16 19 86 57 66 92 10 31 98 84 82
46 27 55 87 88 14 98 19 72 78 57
62 95 97 15 93 85 33 85 77 68 89
15 92 37 37 41 42 33 78 43 46 69
70 96 20 43 50 95 70 53 38 59 67
68 67 82 32 73 83 59 75 28 36 34
45 63 75 35 32 57 89 57 43 49 84
31 100 70 70 83 93 15 18 46 68 55
28 88 96 61 89 54 77 80 97 71 39
96 56 24 65 92 43 35 82 22 71 69
52 42 74 34 12 66 14 35 46 84 56
47 32 73 100 57 60 15 77 40 27 71
26 81 27 42 39 93 33 63 24 76 44
33 62 99 15 23 53 83 68 80 61 30
89 60 10 71 75 38 81 43 41 69 88
94 25 89 81 14 22 53 49 50 24 16
58 62 66 99 58 46 37 43 37 62 32
72 83 38 21 51 31 42 57 17 22 77
84 40 49 24 59 19 82 54 53 64 88
58 60 60 95 72 51 17 45 45 66 99
13 33 55 24 69 46 42 83 40 99 48
41 89 56 90 63 61 11 41 43 11 46
59 35 20 38 77 12 30 80 97 70 70
34 22 41 41 11 42 69 20 40 13 49
11 37 63 29 84 30 65 15 12 19 31
61 98 56 100 86 38 58 20 86 16 93
91 20 46 84 100 48 93 44 43 40 56
97 67 54 100 24 100 90 72 47 65 71
13 84 80 42 32 14 12 76 35 17 72
56 99 91 60 28 81 32 38 14 81 91
46 36 36 83 55 24 28 85 23 19 47
63 83 82 45 59 88 88 54 61 32 91
48 95 73 72 19 71 95 31 66 76 78
99 66 38 87 24 97 31 77 95 83 38
43 67 98 16 64 13 45 62 22 50 77
58 90 28 33 61 31 40 93 97 51 66
74 13 14 16 79 61 54 37 100 40 22
72 84 94 56 27 68 65 64 61 25 72
55 24 43 12 79 98 25 24 66 94 53
94 79 19 81 54 88 20 60 16 41 77
27 62 97 78 41 39 50 22 90 27 96
86 14 36 95 75 29 52 46 42 78 55
97 68 99 35 78 62 68 19 70 98 68
57 79 84 52 77 23 68 17 79 49 76
81 10 87 60 39 36 66 68 63 87 10
85 71 45 32 26 21 21 65 12 100 98
68 72 88 64 34 16 54 28 68 67 71
47 24 30 70 66 22 84 17 51 86 79
74 64 42 86 70 66 64 94 31 64 22
44 26 92 74 27 16 43 84 91 31 52
14 88 72 43 91 54 17 36 38 73 33
49 26 87 66 38 15 92 64 23 28 27
69 55 48 96 61 16 37 11 62 87 14
48 65 34 22 97 44 72 54 56 10 24
54 97 60 38 76 88 58 89 79 24 50
91 74 42 97 26 62 30 88 36 14 35
86 97 54 73 47 57 47 100 29 91 21
63 15 16 28 100 78 32 29 34 87 100
34 93 52 32 100 85 91 47 87 43 79
20 54 86 80 37 70 63 56 24 36 29
98 63 20 62 18 10 100 87 64 21 26
0.462693
0.145514
0.360065
0.201186
0.148246
0.216007
0.277654
0.317781
0.435954
0.379577
0.411263
0.286649
0.317224
0.446397
0.382554
0.49817
0.470881
0.404326
0.453365
0.459018
0.402402
0.253948
0.203528
0.227502
0.256941
0.295918
0.134112
0.428054
0.251288
0.299079
0.332956
0.109234
0.355544
0.135698
0.157695
0.206847
0.2876
0.46995
0.301569
0.227646
0.243978
0.374905
0.490774
0.254417
0.24167
0.320645
0.404444
0.488286
0.151448
0.331992
0.283294
0.166125
0.478683
0.438084
0.449072
0.326675
0.122081
0.171416
0.24132
0.19076
0.230177
0.227416
0.468592
0.16638
0.36978
0.484512
0.230485
0.16519
0.389933
0.398146
457 312
406 179
121 438
24 133
266 163
46 279
35 463
311 355
78 5
148 332
449 359
306 356
225 271
33 413
284 197
257 458
282 99
44 483
307 194
197 248
311 47
484 1
363 454
310 204
235 35
173 315
450 222
336 104
148 78
18 60
324 213
116 83
169 46
482 361
164 402
70 452
343 107
190 259
251 258
184 472
277 344
339 138
152 162
442 112
48 220
315 379
413 182
331 72
220 400
405 273
275 52
337 452
391 240
315 128
84 380
192 95
304 372
309 120
431 482
234 27
103 430
453 407
260 321
244 376
267 473
286 340
168 415
368 242
285 13
62 445
6423.33
3
