70
11
0 0 0 0 0 0 0 0 0 0 0
85 52 55 22 39 53 72 100 44 18 89
54 52 50 27 41 89 11 61 62 91 65
37 28 30 100 56 47 55 34 99 15 86
15 66 66 91 38 87 79 59 14 78 90
25 86 95 69 16 91 22 25 38 87 80
84 76 46 23 97 56 44 31 94 83 59
14 12 53 88 54 86 35 25 49 45 18
38 53 93 27 34 19 90 29 92 92 66
98 10 48 78 10 33 68 87 66 11 35
21 85 22 21 71 98 24 23 15 27 16
10 58 50 57 56 11 58 60 94 89 40
32 40 31 50 13 98 25 67 22 43 14
83 97 52 75 94 68 91 87 99 71 51
92 55 24 28 75 80 71 32 65 49 63
28 29 40 73 70 35 70 49 25 50 20
23 48 27 28 50 22 14 17 72 45 28
20 61 26 99 65 34 71 43 52 36 38
43 66 10 17 86 96 95 80 93 43 91
84 39 21 34 86 34 27 52 91 77 51
80 82 31 74 54 51 33 73 76 63 96
81 39 91 70 29 18 91 18 62 57 46
75 20 96 39 58 19 37 77 11 38 29
79 91 39 32 45 80 31 81 92 51 10
76 48 100 10 46 65 40 35 43 61 63
24 53 52 44 32 84 66 87 82 81 92
91 75 96 81 19 91 82 42 83 63 98
91 62 49 40 50 32 93 80 27 51 55
92 16 41 99 52 67 45 68 75 11 75
42 89 78 67 67 61 18 88 74 76 10
65 100 90 24 98 26 71 97 61 65 36
99 81 77 43 63 85 30 57 95 28 34
95 14 49 100 13 29 59 94 39 18 20
55 34 76 23 81 59 58 24 54 38 45
36 28 11 50 100 91 86 11 60 77 81
53 44 94 34 38 100 55 60 48 55 96
70 40 48 97 21 37 35 26 38 34 74
25 10 46 61 52 63 84 27 46 44 16
20 60 95 27 44 57 61 67 14 60 95
22 100 70 57 26 12 57 95 54 11 56
22 45 95 40 23 30 48 55 48 95 53
37 64 50 79 73 67 10 61 25 57 59
54 66 34 28 66 18 55 34 10 15 97
22 68 79 30 75 84 10 25 37 42 19
100 28 22 97 78 51 42 39 61 62 79
57 46 32 68 60 95 93 92 61 28 77
84 98 38 56 94 75 56 54 24 42 95
11 13 40 27 37 69 13 45 47 33 24
19 17 26 66 46 76 26 10 35 12 26
88 75 20 38 13 45 95 20 96 53 26
35 86 13 80 79 13 92 39 79 30 23
92 66 43 62 95 39 36 95 17 11 74
85 86 36 31 93 41 18 74 60 60 21
78 74 20 12 58 59 23 43 89 74 29
77 89 42 87 96 59 12 11 47 69 95
23 37 28 77 18 87 92 13 51 22 48
84 98 84 87 57 80 72 61 65 76 96
79 85 92 18 82 92 52 30 38 65 12
99 66 85 12 47 86 53 17 89 28 90
85 95 81 23 31 31 59 19 89 47 97
19 30 18 81 84 21 15 95 36 47 31
67 45 88 11 89 100 85 13 10 26 16
90 82 97 49 100 93 32 72 64 83 44
59 32 43 29 10 27 62 51 64 88 51
17 26 23 86 51 26 38 98 34 92 21
66 31 98 19 57 50 74 64 98 39 21
77 39 74 95 40 14 83 25 87 77 35
96 99 30 100 30 29 99 42 56 80 24
91 83 88 50 26 39 63 11 93 16 86
95 44 81 17 96 86 20 16 56 99 88
1.92112
1.29631
1.37724
0.4197
1.60448
1.35673
0.735864
0.529904
0.701298
1.25621
0.475417
0.838924
1.41512
0.48007
1.04893
0.564019
1.15796
0.821699
1.79995
1.89756
0.745869
0.496735
0.446835
1.21811
1.2702
1.12869
1.00599
0.883001
1.68249
0.724923
0.962631
0.572196
1.22952
0.740067
0.772896
1.2332
1.18453
1.22681
0.992047
1.75667
1.82054
0.866791
1.15233
1.97941
0.933034
0.596533
1.82424
1.47421
0.768278
0.655368
1.32706
1.17914
0.413808
1.25414
1.70723
1.8403
0.736574
1.12744
1.66388
1.70315
1.08899
1.00445
1.93029
0.639382
1.00454
0.739142
1.54572
0.458389
0.847659
1.15035
9 10
391 126
140 339
226 244
360 49
16 134
100 73
95 437
106 241
143 48
366 346
177 190
396 60
195 132
139 369
337 20
9 432
258 355
308 481
416 96
291 114
326 369
426 123
337 50
171 106
126 202
469 273
99 179
419 133
218 337
82 392
383 346
259 396
173 277
362 261
352 241
480 110
32 81
206 450
326 52
250 277
495 358
439 316
226 347
81 219
317 324
22 296
262 456
179 328
131 24
331 410
373 312
348 304
123 92
456 349
462 388
47 289
298 18
262 450
456 2
423 318
35 197
349 262
322 419
188 171
371 486
190 245
320 469
272 453
357 360
9455
2
