70
9
0 0 0 0 0 0 0 0 0
100 53 34 88 47 74 66 66 38
46 66 35 39 22 39 69 64 63
82 97 36 22 13 51 70 76 44
55 59 70 14 65 13 66 19 13
50 67 51 98 51 97 75 22 92
94 65 75 10 51 48 15 75 26
50 70 81 11 84 90 50 65 11
19 42 63 11 68 11 18 93 38
38 38 23 57 21 98 30 99 19
25 65 36 62 92 14 49 55 33
11 90 13 55 33 89 11 96 44
62 37 54 81 48 18 65 79 40
73 64 85 20 35 26 87 48 24
56 41 14 58 23 17 99 80 29
52 20 95 45 70 78 20 45 21
95 82 94 18 86 13 95 84 81
31 98 21 25 19 79 93 31 95
16 46 99 41 78 49 58 64 30
45 21 70 66 94 80 58 26 37
10 56 59 42 30 51 85 43 53
42 13 51 73 23 59 92 97 72
13 93 45 78 100 10 11 25 70
34 16 23 53 79 98 42 51 63
36 21 97 23 78 21 68 67 74
18 97 22 73 90 32 41 75 16
23 72 66 37 72 50 84 45 38
42 29 69 69 57 42 11 85 46
10 27 64 66 53 53 93 74 14
49 47 51 25 79 86 12 96 45
99 20 72 85 16 45 14 78 52
11 25 39 49 53 70 86 35 46
32 53 48 56 57 61 84 71 55
54 16 93 64 69 15 67 97 63
72 82 33 26 76 92 41 46 50
10 62 82 85 62 68 16 87 85
46 55 14 56 66 38 83 100 38
55 97 66 61 81 42 47 13 83
62 22 16 52 79 49 50 71 83
32 90 59 16 28 18 95 32 39
66 14 57 60 43 56 59 80 93
11 36 18 43 62 54 85 32 74
90 27 78 17 77 38 34 62 34
43 90 63 23 54 82 76 65 63
31 98 32 55 27 93 61 62 89
20 25 86 46 71 30 15 98 80
40 92 35 36 55 99 25 75 58
35 42 69 87 83 70 63 89 15
65 74 50 92 97 75 69 65 26
91 30 45 22 66 71 47 85 71
26 56 45 96 44 60 53 98 43
71 52 34 33 99 56 59 64 93
12 42 70 18 56 57 85 24 35
21 42 17 46 84 26 69 63 30
68 37 80 13 19 42 66 37 100
29 41 93 55 20 43 27 96 57
90 99 51 94 88 93 99 97 36
51 58 80 100 21 69 39 56 94
50 16 52 50 45 75 93 30 37
36 10 73 61 64 28 25 85 99
42 48 44 71 62 40 49 46 17
68 84 90 48 30 89 44 11 85
92 96 18 92 99 98 91 50 35
76 20 66 10 99 10 27 34 50
31 22 25 75 92 82 80 75 30
75 48 24 35 99 29 80 48 34
11 100 68 24 20 88 64 14 66
86 39 36 80 66 74 25 45 98
30 33 42 80 90 81 21 45 74
61 98 48 67 84 44 27 75 48
1.94504
1.48858
1.83871
1.89564
2.28607
0.563231
1.90095
0.707194
2.3257
1.60757
0.657441
2.05203
2.05045
1.95967
0.920396
2.32743
0.794364
2.28301
1.40984
0.919399
1.42724
0.921674
1.26711
0.629127
1.60626
0.545265
2.26512
1.18986
2.42662
2.42395
0.589592
1.54095
1.65108
2.202
2.45205
0.596623
2.4176
1.14072
2.37281
2.31084
2.35796
1.3651
2.27614
1.73865
1.23092
1.22187
1.49006
2.22865
0.868906
0.851163
2.13467
1.46567
2.25688
2.03265
2.1775
1.23122
0.985539
1.64814
1.98815
2.37065
0.545095
2.32406
1.53069
1.91067
1.338
2.15438
2.21647
1.41584
0.555748
0.882883
33 462
140 241
38 87
92 212
118 493
412 37
189 308
118 122
342 47
123 343
395 394
269 170
395 274
109 422
342 475
203 65
143 144
312 221
79 277
407 405
224 252
72 205
233 95
190 483
239 433
420 167
79 244
200 397
458 304
398 349
468 444
17 318
450 77
230 175
115 66
66 457
336 109
494 244
114 81
31 201
358 455
423 385
411 252
325 328
296 45
364 66
247 450
4 150
343 362
223 276
277 209
152 348
315 392
64 283
473 27
134 233
165 353
135 49
9 48
98 337
498 291
226 386
365 338
0 96
408 348
97 123
417 366
66 168
461 176
252 175
6291.67
3
