70
3
0 0 0
32 70 19
89 31 22
53 18 63
46 52 62
34 63 39
95 94 57
60 45 53
32 69 43
38 88 49
41 47 51
77 74 27
61 11 71
88 61 47
77 20 90
30 37 59
93 72 45
91 97 94
16 61 26
81 31 11
29 26 52
70 17 33
67 47 95
84 100 22
84 83 83
38 96 40
23 39 82
38 76 19
72 52 65
36 44 56
86 43 52
77 65 97
35 97 70
38 15 42
89 72 10
78 46 49
96 65 53
99 86 52
76 15 73
22 70 24
80 66 38
64 61 23
68 49 96
15 19 16
84 73 85
88 69 99
43 17 89
20 40 25
84 28 36
93 66 79
21 69 24
29 19 63
96 27 16
17 42 52
29 68 97
98 28 38
61 67 25
61 38 82
32 90 17
13 96 96
27 21 15
13 23 56
76 61 21
91 45 97
24 87 92
72 30 56
79 25 16
63 78 16
91 46 21
22 98 29
2.02509
1.16995
1.49898
2.09659
1.21895
1.46097
0.828374
1.33751
1.60361
1.91254
0.86285
0.721306
0.626836
1.68253
2.35807
2.28231
0.500127
1.14432
2.10426
1.45049
1.5609
1.01933
1.74571
1.6304
1.422
2.48351
0.997129
1.90681
1.79354
1.66327
1.17704
0.808765
2.35123
2.42767
1.92819
2.29932
2.33823
2.26803
0.805865
1.64194
2.17203
1.78784
1.20594
1.4823
1.60574
1.00295
1.87744
1.71789
0.505949
1.94779
0.785057
0.773958
1.75795
0.618633
1.08715
2.30861
1.05229
2.02532
1.31244
1.22614
2.25543
2.239
0.65227
2.19193
0.733368
1.74638
2.04247
1.26179
2.20452
2.21687
23 256
271 198
303 205
326 388
370 155
195 139
409 268
253 491
48 349
206 147
265 386
237 131
118 398
302 104
14 321
254 363
270 441
88 110
240 292
70 143
210 261
470 144
432 128
389 350
287 94
311 137
97 77
271 427
58 340
23 170
417 23
262 442
426 213
334 395
98 203
385 64
399 262
81 14
122 381
251 374
159 228
486 457
269 121
153 46
425 211
136 203
310 372
291 394
148 337
446 191
81 483
440 15
303 267
420 439
332 68
26 83
262 133
336 481
226 148
395 316
312 212
210 383
222 309
83 133
167 71
168 292
41 90
68 424
239 272
42 115
3759
5
