70
3
0 0 0
69 49 21
75 62 36
26 41 58
84 19 85
62 91 31
46 88 84
61 32 40
28 86 59
82 87 85
14 19 27
51 81 78
63 47 17
13 65 31
55 27 60
22 96 25
61 53 66
92 31 60
73 83 27
32 69 13
25 35 15
28 63 27
42 22 44
95 43 91
97 99 17
60 68 89
32 59 89
64 38 77
89 52 98
15 25 86
21 42 11
45 95 49
81 73 32
77 10 14
64 89 49
56 11 100
59 19 32
33 13 77
85 78 14
99 90 88
95 56 35
12 51 54
60 90 78
95 58 28
42 10 59
82 64 43
34 59 67
83 88 61
37 27 100
33 15 97
20 34 28
33 50 10
53 57 32
89 43 100
98 17 53
90 12 95
62 20 81
47 57 41
91 15 60
28 81 31
40 81 92
75 82 77
68 34 38
39 23 80
90 89 94
61 45 86
82 16 83
86 25 65
23 34 47
20 59 34
1.31608
0.667074
0.609614
1.48076
0.340372
1.354
0.65315
1.45632
0.662442
0.956762
1.35055
1.35553
0.874136
0.342702
0.804915
0.617223
0.93174
1.32874
0.83914
1.06978
1.17426
1.49038
0.371257
0.942777
0.316411
1.36605
1.05731
1.27709
0.739021
0.909225
0.573781
1.29014
0.448763
0.422658
0.812858
0.72385
0.513427
1.38324
1.03968
1.35009
1.39121
1.33913
0.314733
0.758749
0.847634
0.705374
1.46294
0.516579
1.03697
1.21964
0.914878
0.845308
0.737928
1.4929
1.42303
1.33269
0.643583
0.938772
1.04987
1.2452
0.906193
1.48767
0.817253
1.10601
0.446127
1.0365
0.985272
0.707623
0.74699
0.911409
162 452
144 298
77 452
395 237
137 232
293 411
447 386
74 402
8 422
209 323
472 380
173 135
297 296
478 91
80 134
220 307
24 230
160 2
416 88
418 106
416 439
305 358
283 379
285 436
490 191
393 445
387 459
469 358
462 206
62 13
214 280
365 427
429 409
123 61
219 462
36 299
364 391
251 187
185 439
195 73
249 230
217 245
493 86
483 161
254 131
175 316
61 29
385 491
277 433
47 67
349 146
383 183
419 403
368 333
77 160
66 422
149 192
96 36
208 344
118 154
21 37
178 148
268 40
264 73
52 23
457 474
334 61
341 189
441 489
265 460
3779
5
