70
3
0 0 0
94 80 65
97 29 63
34 40 89
64 89 54
34 17 70
17 100 78
94 90 96
80 86 30
33 62 86
39 52 75
95 90 29
54 56 99
21 16 37
83 57 15
36 40 84
49 45 47
66 72 28
92 86 41
19 66 89
71 86 51
88 26 43
52 95 51
81 50 28
36 21 26
77 24 65
18 54 100
54 17 53
20 82 96
60 36 21
77 38 52
46 93 73
36 21 93
21 12 72
52 30 54
90 54 50
28 11 74
79 12 69
96 100 96
62 69 50
96 12 40
45 24 30
50 98 69
100 91 48
19 66 46
11 39 40
16 66 30
64 78 88
63 10 35
22 47 46
63 21 45
36 31 47
100 82 26
92 69 36
56 57 61
94 84 91
53 92 59
78 37 95
10 82 79
95 15 29
82 52 18
12 53 92
73 49 97
40 25 62
85 53 39
62 57 63
39 70 62
11 56 77
99 62 98
52 33 37
1.00097
1.23361
1.36127
1.33053
0.67097
1.47333
1.44417
0.502679
1.27376
0.581065
0.895532
1.3508
0.997786
0.975562
1.01477
0.435721
0.941161
0.985934
0.606104
0.398837
0.868141
0.606679
0.742574
0.867108
0.421059
0.661562
0.785534
0.742071
0.798345
1.29095
1.31237
1.2559
0.615022
0.715288
0.826939
1.18021
0.383838
1.49666
1.34137
0.698716
1.27911
1.26998
0.915001
0.85983
1.14556
1.03234
1.17056
1.35502
1.04668
0.722213
1.08453
0.702972
0.311459
1.0669
0.390557
1.09426
0.675901
0.724255
0.491769
1.19951
0.524941
0.349839
0.335919
0.965394
1.49025
0.47849
1.40233
1.07945
0.318696
0.445426
146 241
161 394
166 303
399 455
121 310
240 477
419 372
21 94
195 348
150 121
429 282
331 138
220 393
362 245
121 460
65 256
437 291
272 268
40 134
275 221
213 415
305 237
16 386
196 487
379 70
370 316
469 211
292 312
65 314
134 415
459 191
168 282
56 298
348 10
364 336
204 150
452 470
38 354
314 129
366 233
337 62
221 171
254 427
50 42
334 273
349 448
186 363
499 197
346 411
242 106
489 319
239 303
297 463
480 292
92 59
266 443
360 410
271 162
124 25
388 324
54 475
12 181
296 244
78 215
336 350
266 379
198 329
29 24
157 479
371 462
4897.5
4
