70
5
0 0 0 0 0
46 39 83 36 14
97 88 81 39 75
59 95 18 76 56
16 56 37 93 73
86 29 27 32 34
96 68 53 36 28
21 46 31 45 70
90 31 70 57 85
14 41 48 45 51
15 91 74 89 41
95 20 51 44 27
11 30 39 21 86
98 57 31 98 57
83 32 82 73 42
18 99 39 47 31
61 25 10 97 79
16 42 25 13 95
93 87 55 32 86
10 77 86 52 59
98 62 55 36 13
41 81 99 54 52
10 19 40 77 34
86 80 47 83 58
21 99 69 31 59
26 47 77 41 33
48 33 29 14 84
87 86 71 26 66
81 50 81 90 88
89 52 32 66 17
66 44 75 21 42
15 34 32 13 40
38 31 60 48 35
41 15 81 92 76
28 67 85 41 33
90 36 66 54 10
51 86 90 52 19
83 17 15 67 32
54 45 99 94 37
31 95 57 70 38
45 26 29 35 37
74 76 27 27 97
13 98 67 56 21
64 23 94 33 15
64 22 13 73 89
65 48 77 72 34
16 62 34 11 18
87 35 49 30 81
28 11 28 36 28
65 25 18 73 72
35 87 12 19 57
83 95 24 18 75
50 48 59 32 67
15 41 77 73 68
14 66 26 72 67
40 29 70 63 35
96 77 17 79 80
16 58 36 43 76
58 11 62 52 92
39 33 68 94 99
59 23 44 31 80
52 79 93 95 42
91 67 44 14 14
71 64 72 71 75
71 18 14 41 60
96 81 87 10 59
44 79 94 77 22
30 14 28 76 92
19 17 56 58 20
35 65 81 87 94
0.845483
0.301328
1.08591
0.644044
0.674859
1.23089
0.854718
0.894933
0.951198
1.1067
1.05884
1.10493
1.20643
0.507451
0.345381
0.779395
1.02394
0.98649
0.301441
1.20678
1.26139
1.28049
0.453425
1.16011
0.805794
1.12166
1.38266
0.895694
1.33651
1.29908
0.797916
0.933177
0.377309
0.873902
0.962607
0.664951
0.871774
0.86657
0.649824
0.640187
0.417589
0.51406
0.890335
0.919157
1.43176
0.365365
1.27714
0.592512
1.05143
0.893349
0.708313
0.963551
0.554275
1.28765
0.828297
0.681704
0.496576
0.502187
0.70289
0.559214
1.03026
1.47053
1.30946
1.1429
1.36281
0.399816
0.738351
1.13591
0.587614
1.03949
367 9
360 478
175 126
219 225
287 369
378 245
123 199
390 145
264 235
51 390
191 348
255 195
165 77
338 411
225 310
267 488
253 89
490 26
300 117
373 485
139 486
196 115
204 117
236 210
319 318
232 416
1 463
296 190
14 107
265 383
353 494
443 155
442 406
461 242
382 295
81 291
208 495
329 353
279 412
255 498
251 26
474 146
194 120
332 417
17 125
220 483
441 332
292 137
248 269
479 157
265 258
485 481
160 160
28 117
338 366
249 197
307 187
111 223
473 463
171 495
212 398
333 463
332 108
307 32
364 165
50 202
474 157
478 278
294 328
230 52
3664
5
