70
9
0 0 0 0 0 0 0 0 0
93 28 43 30 85 85 45 92 31
66 14 40 81 41 100 53 20 45
17 53 26 67 55 36 26 37 68
83 36 82 91 68 21 83 16 94
99 88 61 57 85 50 100 12 44
87 58 42 19 14 45 60 57 27
30 90 94 73 86 14 94 80 74
81 94 51 34 79 16 21 72 72
96 58 95 50 48 35 74 23 92
56 43 84 17 69 95 37 60 10
77 12 64 61 19 14 82 78 40
59 83 77 22 74 22 88 32 62
61 97 43 69 45 47 19 25 22
45 11 56 66 93 64 32 84 33
82 95 81 42 69 19 62 50 80
53 25 24 86 99 66 37 54 57
67 82 45 69 62 28 28 57 87
11 79 45 50 57 24 89 98 15
21 75 36 46 100 32 15 21 30
81 68 49 53 36 92 87 14 25
50 92 31 20 88 89 32 10 33
42 19 62 90 61 76 88 15 49
48 63 84 74 93 44 79 86 48
16 65 64 54 15 72 53 37 46
98 21 60 21 14 42 63 13 71
84 40 72 18 43 54 88 77 79
78 59 58 23 68 92 94 81 43
25 58 83 98 80 58 83 91 31
43 99 66 10 82 80 85 84 63
85 82 14 48 65 78 90 82 62
30 73 69 97 34 98 47 45 34
15 45 59 44 97 12 16 59 84
58 26 61 22 36 62 72 72 99
38 63 52 100 78 85 91 65 10
44 95 43 24 45 29 75 18 68
60 88 20 23 29 44 92 88 100
21 48 80 42 74 78 73 62 75
67 45 26 59 59 35 28 32 57
30 83 46 82 60 19 58 68 23
81 54 47 53 18 82 25 44 84
63 30 66 14 55 36 64 72 29
29 80 38 73 69 64 44 58 88
52 97 67 26 21 87 69 19 89
97 72 35 31 81 98 77 91 100
57 27 30 40 96 66 37 97 39
79 81 84 11 35 56 53 97 38
63 36 28 29 72 64 82 51 41
59 28 32 78 48 31 87 73 11
22 64 39 91 29 97 83 18 31
69 83 62 54 90 93 90 95 32
43 81 24 38 66 98 18 62 24
34 42 99 72 20 45 53 86 84
68 48 22 16 16 20 25 99 15
83 72 75 56 93 31 23 52 65
92 72 25 86 24 64 42 85 10
46 56 11 38 73 55 80 70 41
87 54 75 38 66 86 91 63 59
21 49 83 71 97 77 97 88 87
60 39 28 28 28 93 29 60 55
19 62 46 85 27 42 56 57 12
77 54 64 89 66 33 46 61 97
35 50 25 60 31 52 18 92 81
100 22 25 43 37 41 81 75 85
53 42 74 88 25 70 72 93 77
19 52 66 49 27 73 21 50 36
17 84 36 38 30 64 65 100 55
47 15 26 81 54 11 94 60 98
21 62 99 56 57 43 64 53 39
66 74 39 23 45 36 15 42 93
1.07159
1.60405
0.404168
0.816687
0.906132
1.33694
1.57617
0.83055
1.40593
1.87895
1.76426
0.523188
0.688459
0.420974
1.5667
0.617602
1.80262
1.11781
1.41732
1.79071
1.26274
0.440378
1.60433
1.6965
1.59258
0.649723
1.97358
1.12606
1.92018
1.96282
1.16148
1.04313
1.24428
1.82568
1.60667
0.925019
1.20132
1.96624
1.20727
0.440855
1.17105
0.47315
0.990054
1.63845
1.77633
1.04902
0.888996
1.17782
0.685243
0.893828
1.23074
1.17161
1.58451
0.52701
1.61477
1.37929
1.1292
0.55299
1.44033
1.3158
1.02311
1.35456
1.85175
1.12171
0.844205
0.908528
0.552377
0.40673
0.896965
1.53329
373 31
247 290
76 230
26 104
404 175
324 467
142 45
439 185
368 15
294 181
204 198
56 62
86 450
448 54
65 311
199 117
458 6
490 225
308 413
153 481
296 392
403 107
100 244
286 2
149 76
371 338
415 297
140 289
242 486
184 244
111 10
60 422
257 470
277 184
49 350
140 494
309 434
432 117
80 475
57 361
473 236
43 481
229 272
449 209
278 26
290 364
422 395
52 276
14 471
76 85
269 400
267 454
16 262
482 135
331 294
407 474
234 122
196 299
381 76
59 58
87 87
186 421
495 121
310 111
99 435
363 201
480 63
330 67
238 133
122 467
6470
3
