70
3
0 0 0
74 95 33
93 62 78
99 57 67
59 47 11
62 80 89
79 64 59
68 82 91
21 74 42
33 19 73
16 73 24
53 33 99
36 73 41
54 15 97
21 77 13
35 97 39
15 72 78
14 56 64
57 74 79
58 49 100
70 30 86
86 40 40
70 15 43
10 50 78
43 12 26
70 48 56
44 28 85
47 93 35
98 35 59
33 89 14
79 70 20
86 28 98
91 40 46
28 80 33
52 47 34
75 97 70
48 20 38
13 74 53
95 72 93
21 77 68
23 76 11
16 56 14
99 85 31
23 21 22
79 50 89
44 67 75
11 84 100
83 50 10
38 30 61
63 13 80
29 25 86
22 11 82
57 92 28
51 83 30
95 89 75
57 13 29
88 93 71
42 40 50
43 82 76
83 71 78
49 67 11
14 86 86
33 31 92
43 81 67
40 47 16
96 38 75
85 29 42
38 14 73
57 97 83
29 31 23
1.03344
1.3319
2.30966
1.9359
2.40909
1.9756
1.40883
2.41072
0.654956
0.818495
1.94418
2.13419
2.05246
1.31651
0.611729
2.42897
2.05923
1.91126
1.20488
0.625527
1.40683
2.11644
0.666749
2.20204
0.885366
0.795977
2.22073
0.563745
0.949829
1.05628
1.10774
1.80801
1.63061
2.48474
2.24284
0.813992
0.769762
1.82567
1.72639
0.784368
0.962012
1.02926
0.537675
0.945902
0.882924
1.20123
1.88067
2.0407
2.26878
2.49476
1.80779
1.68687
0.772003
2.47213
1.89381
1.0991
1.84107
1.29764
1.95703
0.77217
2.19098
1.91751
1.87004
1.22025
1.3906
0.871503
1.79602
1.42029
0.600152
0.648927
318 465
4 135
344 216
474 92
254 464
408 377
388 57
185 168
466 54
75 123
133 271
114 343
285 24
424 404
440 438
484 283
418 317
489 218
186 307
126 370
434 43
410 263
155 459
332 113
364 147
420 359
378 305
380 303
201 13
258 313
473 82
229 254
442 330
300 449
459 351
258 187
122 165
338 138
334 330
454 493
304 14
193 494
467 413
24 423
146 27
267 387
182 494
92 427
454 83
403 44
105 438
205 393
65 218
364 376
169 377
101 210
460 138
407 73
26 161
360 103
61 70
495 109
385 375
413 321
366 428
41 198
10 294
297 53
359 42
252 34
4770
4
