70
5
0 0 0 0 0
32 49 16 18 60
35 35 49 32 11
82 56 32 45 51
99 97 92 70 44
98 13 92 81 90
27 37 19 10 26
33 12 88 58 14
75 16 15 19 24
28 95 59 31 74
74 90 94 18 37
51 53 12 81 75
11 39 53 100 21
47 11 39 64 86
91 83 75 56 18
15 38 63 80 31
69 40 48 57 71
24 63 65 23 13
26 89 94 15 43
82 95 52 97 40
72 42 72 41 94
39 91 58 12 55
44 18 73 40 25
18 43 25 16 27
93 37 19 12 47
88 69 45 95 92
80 10 26 66 77
98 24 78 63 10
49 61 59 91 80
69 12 28 44 59
24 17 83 62 74
45 15 45 93 34
65 24 79 38 50
78 97 37 71 77
86 49 78 72 70
92 92 50 29 81
47 85 50 59 53
43 10 54 23 76
58 47 51 76 62
69 43 24 61 100
43 29 64 39 25
32 66 56 94 39
15 55 88 63 83
46 13 96 84 88
30 91 60 97 37
83 19 72 98 33
70 29 22 55 78
84 45 26 98 95
14 45 29 84 78
73 52 60 20 65
86 72 29 85 28
39 45 63 16 25
32 67 94 55 93
97 10 81 49 85
70 19 64 22 15
81 40 76 99 79
42 39 36 35 87
10 84 37 47 61
69 22 87 95 83
27 26 82 68 19
64 83 99 63 78
36 41 93 40 99
91 14 84 79 63
35 95 10 49 45
88 96 58 82 10
86 78 21 55 19
68 15 84 41 93
42 24 26 18 57
30 36 36 15 92
46 97 58 22 96
0.512549
0.939525
0.718124
1.23864
1.43551
0.990866
0.618288
1.18904
0.966158
1.4534
0.473113
0.40678
1.06776
0.435951
0.630909
0.623763
1.24748
0.486087
1.45971
1.07559
1.22605
0.780352
1.26761
0.707912
0.492403
0.852086
1.12017
1.04065
1.15317
0.975978
0.432116
0.347658
0.793929
1.25227
0.843962
1.43139
1.30111
0.378914
0.87025
0.507117
1.00274
0.501255
0.795119
1.01121
1.02501
0.44722
1.37937
1.47415
1.44317
0.410526
0.548551
0.926729
1.352
1.26674
0.454671
1.08153
1.19381
1.10583
0.494262
0.448705
0.611117
0.642131
0.69611
0.553866
1.33274
0.544536
1.20971
0.498314
1.48516
0.45987
407 408
467 176
99 486
490 58
81 250
153 82
170 57
447 491
393 363
111 71
116 277
75 216
413 317
468 408
154 449
383 272
242 268
378 327
108 221
483 293
254 189
243 13
116 348
484 24
490 255
219 393
435 485
72 126
437 188
97 43
466 235
371 230
404 32
499 480
487 263
230 429
189 277
414 387
343 343
455 8
92 272
120 122
193 60
237 111
87 47
496 382
225 214
422 370
55 126
64 493
301 152
500 87
79 253
391 315
120 420
289 293
411 56
309 104
251 301
156 304
372 365
346 46
7 31
132 306
479 34
276 49
210 346
286 460
382 309
492 233
9407.5
2
