70
5
0 0 0 0 0
34 100 39 10 34
44 94 65 60 10
29 33 27 42 25
10 61 21 54 91
93 81 33 99 76
35 32 91 92 47
90 79 24 89 44
71 61 77 72 75
38 90 93 98 65
36 32 69 21 88
53 28 81 100 99
46 29 95 41 78
36 28 33 82 75
90 91 17 19 92
87 54 70 48 34
99 15 19 58 20
79 80 59 44 51
16 13 99 86 88
94 50 38 94 26
63 53 74 47 70
22 18 65 69 66
18 14 29 76 18
14 45 85 59 21
23 61 56 96 75
77 14 28 43 86
39 66 37 17 48
50 68 94 14 26
27 46 28 47 46
32 67 19 52 26
81 37 86 18 92
22 97 56 56 77
38 61 44 100 98
46 70 94 99 43
35 94 28 20 28
97 15 82 48 97
80 29 76 33 32
75 16 78 66 95
47 26 75 26 46
19 61 53 58 97
60 69 74 78 49
75 42 90 21 44
99 65 67 53 19
15 14 89 23 32
77 31 31 100 98
12 84 76 60 12
18 35 27 87 98
87 52 80 21 12
82 73 47 39 68
46 64 88 48 24
99 71 17 58 21
83 92 35 25 12
32 64 50 43 20
45 10 84 66 91
60 50 70 73 51
63 73 45 90 75
82 16 65 34 30
35 82 91 35 97
71 70 22 16 85
31 54 74 40 18
34 67 19 70 32
50 66 81 79 68
37 75 23 99 51
63 83 86 71 57
37 61 68 88 73
80 37 96 45 33
43 16 10 76 34
16 87 51 18 64
78 42 81 37 10
38 36 60 21 52
0.720374
1.24908
0.757796
1.20791
1.33861
0.849449
0.852165
1.34465
0.519369
1.09016
0.694683
0.300094
0.980494
0.620826
0.925794
0.756422
0.895878
0.363417
0.996044
0.472591
0.376874
1.30475
1.42606
1.3574
1.13975
0.947715
1.45728
0.321972
0.509891
0.436546
1.40957
1.04295
0.973254
0.346827
0.774389
1.0362
0.458695
0.41923
1.48198
0.633571
1.0025
1.08384
0.606271
0.646042
0.692325
1.47773
0.639896
1.27846
1.17371
0.32795
1.19408
0.55151
0.717801
1.16712
1.32123
0.941998
1.30082
0.566335
0.463796
0.85999
1.24468
0.329902
0.961848
0.442534
0.304464
1.28287
0.815724
1.26973
0.329367
0.470567
166 305
354 77
185 426
267 177
18 354
54 405
350 73
424 469
252 270
299 37
50 26
316 92
404 296
481 67
279 307
383 89
417 147
344 420
6 313
328 69
348 124
47 128
385 369
192 29
289 149
120 234
243 266
460 316
26 392
453 437
258 250
245 452
28 448
121 457
305 111
147 300
17 466
488 40
231 331
424 275
213 330
279 375
116 63
365 440
497 178
327 94
442 371
119 486
179 445
122 417
197 62
290 146
244 352
50 128
292 346
104 482
252 272
195 58
383 436
0 365
217 291
94 377
340 59
407 118
216 274
326 261
438 285
236 2
328 345
294 427
18955
1
