70
3
0 0 0
50 100 20
50 99 24
45 71 68
59 30 39
73 11 73
69 14 30
79 10 93
33 42 35
46 38 30
23 14 83
41 50 28
94 16 34
56 46 73
15 48 68
11 22 12
40 88 83
91 77 47
83 74 81
93 15 80
33 53 19
33 37 37
50 59 43
73 74 10
61 31 97
28 36 18
51 62 30
70 23 90
14 66 68
18 65 12
37 74 79
25 42 38
79 54 73
30 40 18
23 17 81
76 100 95
58 88 33
78 47 73
78 51 17
22 87 97
77 16 13
47 32 13
29 15 90
69 77 72
78 32 95
91 52 46
51 86 41
10 18 42
28 35 80
26 95 49
17 80 86
21 85 20
23 48 41
49 64 22
72 60 86
52 21 29
37 69 74
76 91 61
30 30 50
19 78 45
48 86 71
62 32 19
28 32 90
67 92 75
71 86 85
33 33 72
19 33 87
54 64 41
65 50 37
29 35 61
0.27562
0.387871
0.419569
0.387499
0.470518
0.101883
0.254004
0.156481
0.486819
0.11565
0.242084
0.348189
0.262766
0.321394
0.479221
0.419022
0.388905
0.129583
0.383354
0.372777
0.176778
0.366623
0.227863
0.446234
0.362966
0.464962
0.400894
0.255406
0.288663
0.452396
0.223829
0.442578
0.241916
0.329136
0.126656
0.428105
0.479442
0.313027
0.346639
0.262085
0.366109
0.169447
0.237195
0.348965
0.441062
0.300863
0.373304
0.232001
0.423047
0.195219
0.103687
0.182217
0.108087
0.257251
0.262504
0.10949
0.348578
0.205878
0.410275
0.308519
0.368374
0.449597
0.30137
0.472996
0.237988
0.198236
0.3727
0.365148
0.103472
0.49941
465 65
333 230
353 167
380 82
289 370
110 14
385 378
393 475
25 188
78 433
57 10
29 229
243 197
89 397
198 428
476 200
21 221
270 7
97 394
95 427
9 259
322 201
21 436
26 401
60 195
277 205
308 132
300 43
206 492
62 80
3 272
318 230
242 154
357 108
227 473
387 479
91 15
171 324
163 140
461 345
393 248
300 499
429 344
97 93
247 431
230 431
231 99
467 172
26 214
171 294
34 413
204 283
50 232
249 142
492 372
500 441
326 26
263 362
236 411
30 266
264 36
421 225
88 356
227 331
13 441
274 408
228 326
217 432
83 366
477 284
8905
2
