70
11
0 0 0 0 0 0 0 0 0 0 0
33 44 87 21 82 55 15 96 93 90 52
59 62 23 40 47 79 26 74 12 10 22
87 64 99 82 82 38 18 45 15 42 59
25 53 50 24 44 75 29 66 14 39 96
38 35 38 43 15 39 64 56 61 56 13
55 94 23 18 52 42 58 14 46 89 29
83 51 10 85 78 71 28 28 30 46 99
43 95 50 18 71 64 66 40 17 74 19
57 57 85 94 22 99 28 21 29 38 81
21 23 74 19 64 71 39 81 100 93 37
33 87 73 12 68 14 65 80 42 92 94
53 74 18 64 77 70 57 42 84 56 74
48 59 42 92 43 14 46 78 29 69 87
82 10 60 25 44 92 72 89 60 20 13
64 58 81 40 59 99 72 93 22 76 63
61 28 16 71 57 17 100 85 90 28 91
77 65 66 21 44 43 34 32 53 97 19
83 30 12 46 99 45 86 58 86 40 97
68 54 43 50 29 72 21 84 63 64 81
13 43 40 31 89 11 35 70 78 34 19
98 100 89 59 82 26 21 49 40 73 20
37 53 97 59 50 86 86 13 60 39 44
28 93 78 23 30 30 25 84 79 60 27
95 83 71 75 59 99 69 45 33 23 50
75 97 24 64 10 40 40 16 69 87 68
46 37 44 72 42 42 72 37 74 62 53
61 17 82 73 24 93 74 45 63 22 19
32 47 45 70 74 89 13 10 12 34 52
67 39 73 22 65 83 38 71 79 17 97
52 100 40 71 35 55 78 78 28 51 19
10 43 98 27 28 27 87 37 93 77 93
39 42 93 94 74 95 38 97 35 36 20
25 37 17 100 73 12 83 13 63 83 10
99 100 97 53 17 51 62 100 24 68 15
90 21 73 27 39 48 49 61 62 76 58
28 85 75 29 27 28 19 11 76 56 94
55 69 61 29 51 10 75 97 33 97 36
21 96 71 56 18 82 19 80 53 76 15
46 72 74 98 94 64 15 22 14 81 14
90 40 35 78 66 90 41 93 31 50 23
54 35 30 36 39 60 33 83 81 28 18
67 58 76 39 94 43 93 66 66 40 89
57 41 83 29 28 82 71 74 67 30 37
89 86 47 56 27 92 73 98 86 19 93
74 93 46 43 24 27 89 30 58 80 27
12 99 58 11 69 68 32 99 90 67 70
24 86 23 63 16 87 83 11 96 58 99
34 35 51 50 27 48 45 31 94 25 27
45 15 89 37 47 86 30 26 53 10 77
86 67 19 52 95 20 85 15 51 65 99
27 85 33 28 43 75 29 86 25 87 31
57 90 75 55 66 36 53 37 53 96 56
31 94 35 27 19 21 56 41 67 41 53
77 51 42 77 40 81 72 53 78 95 18
32 97 99 33 100 35 97 77 20 72 67
90 43 78 54 55 22 26 38 78 30 22
40 81 58 16 64 42 17 67 88 29 30
95 99 97 94 33 56 40 32 62 17 93
26 11 89 88 94 50 76 61 74 26 45
87 31 62 68 58 19 53 61 99 43 27
25 74 22 36 82 11 77 65 88 13 47
94 76 83 55 11 91 12 95 97 85 27
89 29 78 66 99 50 29 40 42 57 28
21 13 38 28 48 13 63 68 94 68 85
68 94 82 69 92 13 30 37 56 14 37
18 60 89 28 58 34 60 10 58 86 64
99 97 13 95 44 44 62 43 61 84 73
74 49 93 41 26 32 72 46 37 32 76
63 75 87 66 71 99 46 32 96 53 98
1.41973
1.83049
0.908083
0.705723
0.621583
0.523956
1.66338
0.630799
1.72008
1.40368
1.96172
1.02023
1.16181
1.08461
1.53338
1.66034
0.662617
1.70784
0.538662
0.892192
1.52732
1.86285
1.28064
1.98757
0.559422
0.842505
1.88822
1.19307
1.52849
0.802659
1.56724
1.5688
1.28445
1.27747
0.471395
1.13511
1.39799
0.727872
0.491711
0.774606
0.678914
1.23598
1.45842
0.882291
1.27653
1.03487
0.784264
0.463297
0.906699
0.893278
1.34776
1.03197
1.33224
1.49379
1.70385
0.846664
1.09833
1.04213
0.439321
0.587618
1.41565
1.10622
1.17645
1.67157
0.583658
1.02175
1.24952
1.8653
1.82317
0.520888
485 178
138 459
67 162
12 233
402 308
25 136
462 237
70 172
272 87
48 391
251 38
75 87
272 138
45 67
24 455
81 395
371 245
78 419
145 488
25 20
311 374
360 311
205 260
331 463
19 441
427 427
479 134
299 37
487 310
123 152
404 241
304 312
403 127
370 358
402 436
288 211
302 425
89 127
100 172
492 97
404 434
343 313
112 58
147 249
79 208
99 309
466 174
12 406
83 197
266 254
322 211
93 360
155 57
276 400
232 143
430 131
75 440
261 124
181 460
202 73
122 20
122 93
85 185
171 232
175 135
262 386
477 389
365 214
156 427
226 362
3805
5
