70
11
0 0 0 0 0 0 0 0 0 0 0
76 36 14 62 79 36 58 80 20 51 83
64 18 95 67 67 100 46 44 24 69 50
73 11 96 86 95 52 63 74 62 84 59
76 63 41 17 26 100 81 11 84 30 48
21 58 30 10 75 12 36 81 15 76 96
28 26 34 62 56 76 43 99 65 88 100
62 73 20 100 78 86 12 13 96 74 95
15 46 14 74 41 45 56 99 26 85 33
44 66 22 58 58 90 54 40 69 16 54
16 15 84 13 85 27 77 70 17 49 97
69 12 47 48 16 28 70 67 71 99 15
54 63 16 18 14 24 14 20 44 20 82
54 26 67 39 96 39 49 52 83 29 41
94 23 15 49 30 70 58 63 30 31 38
90 60 85 35 44 48 85 38 41 25 26
66 33 59 54 14 49 50 79 43 29 18
91 15 70 55 95 26 57 39 78 22 70
26 75 89 68 37 51 59 59 38 51 32
51 74 43 76 86 16 96 28 37 54 24
55 13 81 89 39 24 58 81 98 95 67
27 11 38 51 68 98 63 82 22 75 42
31 17 76 40 83 23 100 68 46 53 48
44 45 83 49 42 69 71 77 34 67 28
86 31 26 14 39 55 34 49 51 13 25
28 83 81 14 50 23 73 60 66 71 20
49 79 90 28 55 39 54 91 82 15 55
68 23 25 52 55 15 96 18 34 93 57
13 62 53 40 64 76 58 88 12 32 34
63 75 99 45 85 57 16 96 45 26 98
94 60 61 11 86 91 14 74 87 85 23
12 76 73 17 82 36 56 22 70 30 80
81 63 61 51 100 19 31 86 65 72 87
45 19 85 88 73 25 24 97 50 62 26
69 75 51 46 65 77 49 49 100 41 52
89 65 26 57 72 12 14 28 47 57 41
43 38 41 67 83 45 25 83 17 32 40
68 54 82 58 60 82 58 22 40 93 79
42 36 86 12 69 16 86 36 40 14 47
38 15 60 94 19 97 48 25 45 70 92
45 63 41 46 68 28 32 71 28 38 74
100 20 28 54 99 33 79 51 29 46 20
31 82 32 70 97 99 53 37 11 38 17
34 72 93 38 59 35 34 36 23 97 40
94 100 63 86 30 27 84 20 84 43 59
20 69 19 99 70 30 71 74 76 29 54
64 23 69 96 78 66 41 35 72 10 35
54 77 22 35 68 59 63 39 100 97 13
73 27 81 19 94 73 11 22 59 90 32
24 62 54 33 27 57 49 93 73 71 81
10 20 33 59 15 76 92 81 80 32 83
51 95 42 14 50 15 97 98 42 70 80
62 11 76 61 39 78 42 29 96 42 23
70 11 85 43 24 54 92 45 12 82 63
12 87 97 35 39 51 83 97 12 32 67
54 37 79 96 95 76 73 50 38 61 100
93 38 100 51 17 89 59 89 41 50 83
53 29 54 10 67 18 19 83 22 63 12
94 51 90 34 38 86 69 37 95 28 33
17 99 70 95 84 79 45 73 82 32 75
27 99 34 84 33 83 92 78 68 82 54
42 59 41 60 70 53 73 78 70 73 88
90 79 46 29 29 58 61 52 84 98 85
50 47 71 14 44 14 34 50 55 71 85
51 22 18 69 22 15 59 72 67 31 93
60 70 10 84 73 54 46 34 60 80 53
38 48 49 12 35 18 95 19 15 11 34
81 17 54 77 46 38 85 89 70 36 58
23 46 80 97 54 34 21 43 33 63 64
74 14 44 39 39 69 83 99 48 34 52
1.31176
1.48011
0.436354
0.524309
0.725305
1.21039
0.622698
1.35282
0.674967
0.977944
0.805776
1.34373
1.32887
0.547454
0.435804
1.15935
0.431652
0.738282
0.622035
1.01904
0.333735
1.23515
1.26918
1.28023
0.961056
1.14392
1.33343
1.16254
0.74019
0.903721
0.988347
0.996531
0.324937
0.724207
0.36832
1.09111
0.333595
1.1144
1.1071
0.865937
0.952414
0.896343
1.11872
0.715907
0.715551
1.48904
1.2741
0.604051
1.37818
1.39859
1.38545
1.09642
1.3671
0.591634
0.659842
1.38882
0.615291
1.19241
1.43465
0.759845
0.742913
0.381146
0.92419
0.325419
0.982741
0.842904
0.56631
1.33664
0.433273
1.00084
341 352
119 499
8 22
470 320
472 398
327 295
61 222
391 7
59 433
100 439
79 471
92 235
332 305
234 352
385 279
487 280
111 315
292 356
35 34
99 274
177 51
473 274
123 187
396 429
286 500
174 10
136 121
89 300
76 151
182 258
66 347
414 494
432 284
258 402
43 116
200 50
339 25
155 304
470 420
214 367
300 371
320 302
26 168
195 498
173 10
138 54
75 49
30 148
184 497
230 475
310 232
305 81
348 359
210 476
399 459
463 111
171 232
45 227
118 438
50 430
244 208
132 272
486 245
160 191
359 290
303 73
373 274
49 314
254 297
293 335
18685
1
