70
5
0 0 0 0 0
49 27 54 10 86
22 77 12 22 57
75 93 23 63 13
26 16 76 37 23
100 80 81 58 18
65 88 88 73 37
54 33 96 73 10
38 96 67 19 45
21 99 62 76 34
71 46 25 19 82
89 54 96 61 59
54 44 24 12 98
60 23 29 79 47
94 37 68 87 66
56 41 51 79 24
61 39 35 28 11
59 85 29 96 28
10 92 40 64 95
39 55 70 86 84
73 99 20 22 87
43 61 83 35 36
44 24 88 71 57
88 74 74 12 92
28 32 45 20 73
50 89 80 74 18
41 18 98 50 20
10 29 14 75 11
24 100 42 12 23
85 89 14 68 27
26 93 17 92 18
78 16 54 92 47
56 40 41 91 83
30 81 58 15 26
27 48 28 80 79
25 10 21 35 32
54 92 86 51 98
28 65 95 14 61
72 93 49 27 98
20 93 42 37 36
75 94 36 76 16
77 34 38 21 87
92 55 89 43 42
66 22 64 47 92
93 82 20 83 59
68 25 65 53 35
84 98 27 87 98
49 52 54 100 77
28 96 14 42 80
85 43 49 58 48
45 88 36 23 24
17 97 28 40 95
69 27 44 77 99
36 20 50 34 33
71 65 65 50 42
13 69 77 27 69
31 10 33 76 69
60 57 73 21 46
40 54 43 17 25
54 75 27 24 92
43 40 16 29 64
16 12 70 64 72
92 79 62 43 82
45 71 10 80 23
70 84 100 62 11
66 71 59 15 69
34 86 80 41 69
26 87 76 91 99
45 45 83 72 89
47 35 95 79 53
1.90244
2.4639
1.0266
1.16341
1.33223
1.19371
2.24489
0.775639
0.800787
2.42785
1.66021
1.2238
1.88499
1.61717
2.03912
1.16527
0.65381
1.44033
1.82324
2.18574
0.794348
0.960753
0.653988
2.24955
0.854936
1.11808
0.661056
1.91496
2.01498
0.889302
1.98571
0.615081
1.46565
1.00914
1.33274
1.34968
1.09725
1.2537
1.09844
1.96823
0.72001
1.48241
2.23615
0.765968
1.58903
2.20814
0.949314
1.66733
0.60026
1.88744
1.28391
0.853396
1.37307
2.09862
0.608938
1.45051
1.56108
1.23926
2.41788
2.38754
1.85161
2.42542
1.93448
1.5169
1.36555
1.88812
1.65388
1.48165
1.38926
2.08055
69 310
257 182
326 136
40 129
355 345
376 218
449 164
260 73
59 383
411 114
187 362
172 165
60 439
352 433
257 260
485 89
128 385
320 260
378 388
216 17
268 229
498 309
75 189
333 175
16 170
137 140
85 481
145 68
228 264
266 130
55 434
224 355
55 416
477 251
195 301
190 495
269 437
121 430
116 466
393 61
61 389
153 51
413 476
100 84
447 283
118 4
270 188
125 142
44 335
423 348
57 420
478 285
334 377
116 325
54 478
164 345
312 118
188 300
148 122
121 113
167 92
101 438
75 7
432 163
298 309
131 255
382 273
257 411
388 363
96 47
4692.5
4
