70
3
0 0 0
49 99 18
52 33 81
36 93 32
72 91 42
62 91 69
13 39 74
70 58 39
58 86 74
25 38 14
47 14 72
57 83 64
75 47 87
57 90 69
83 11 36
88 41 79
41 52 64
30 88 30
62 16 41
68 39 61
41 25 68
27 58 14
80 87 62
84 69 28
100 27 81
27 93 37
12 92 21
45 16 50
30 10 100
95 82 90
44 17 20
24 56 95
38 12 62
89 57 15
31 68 81
87 71 70
73 17 92
67 87 52
53 90 41
11 93 66
71 13 18
94 61 74
85 48 44
88 91 23
64 69 30
12 47 10
85 93 79
91 55 42
12 67 81
61 91 50
88 54 57
70 49 65
24 45 75
11 22 96
81 72 13
100 90 14
42 94 29
61 11 49
10 67 82
23 64 22
13 97 76
16 72 84
24 59 57
82 94 25
35 12 95
20 73 49
22 65 29
79 81 81
33 54 69
21 38 98
0.590241
0.99933
0.259436
0.416946
0.832062
0.585282
0.86712
0.926998
0.717741
0.65893
0.589172
0.356398
0.685971
0.330342
0.402434
0.832237
0.295839
0.689543
0.268368
0.431528
0.264019
0.976286
0.69325
0.954081
0.59583
0.834313
0.807573
0.845242
0.761621
0.404206
0.571392
0.678216
0.669885
0.487631
0.687286
0.640659
0.968437
0.227693
0.468723
0.934747
0.501829
0.738504
0.780705
0.896474
0.99854
0.97043
0.447615
0.761265
0.747983
0.370745
0.955858
0.704029
0.420408
0.482117
0.503125
0.51829
0.866965
0.514922
0.237139
0.625923
0.328841
0.289968
0.760318
0.340479
0.66031
0.244162
0.577517
0.842854
0.347805
0.503589
31 375
446 144
285 300
456 469
464 300
66 191
444 205
328 50
358 377
398 401
224 139
345 134
62 354
423 450
405 326
480 233
248 65
54 372
328 143
483 406
134 51
398 320
53 221
220 85
494 405
440 309
150 379
95 477
414 143
182 12
477 127
435 257
253 351
247 181
3 208
91 480
410 146
199 359
80 153
239 456
235 3
486 130
292 493
165 334
312 205
304 102
324 33
41 144
336 27
221 389
6 199
214 158
203 151
367 427
18 88
314 457
159 289
441 453
45 491
424 195
292 409
76 286
404 215
220 455
155 379
19 214
450 6
129 487
345 327
51 480
9592.5
2
