70
11
0 0 0 0 0 0 0 0 0 0 0
96 52 43 76 77 50 83 45 18 10 87
25 10 88 80 77 86 50 20 88 92 73
16 33 20 59 43 82 10 94 79 55 65
40 52 30 76 14 23 30 30 65 82 84
81 10 19 60 97 72 90 42 18 73 91
63 26 36 13 89 50 56 65 94 65 95
31 87 23 86 77 31 82 42 85 49 91
63 84 77 84 97 41 66 58 21 81 85
49 19 17 43 95 33 92 65 13 81 81
74 72 31 32 94 44 47 69 60 89 83
26 66 47 39 88 100 65 99 10 61 35
65 10 29 39 15 34 66 98 94 21 84
31 18 82 11 81 69 46 22 86 14 47
21 39 76 22 72 79 29 46 62 80 93
68 67 90 69 100 11 34 82 33 56 23
51 21 95 37 46 12 97 24 41 24 40
36 93 43 39 10 18 10 27 45 100 85
20 38 72 81 58 45 33 36 80 46 97
33 34 24 38 20 23 63 51 71 64 44
58 88 79 11 27 44 50 94 73 56 27
24 92 14 68 16 66 100 75 85 39 34
16 34 55 61 30 68 57 31 21 77 33
85 86 16 20 52 43 11 38 63 12 65
76 90 80 46 69 53 82 28 76 42 42
77 26 80 25 76 63 100 47 28 40 47
85 34 48 91 84 62 95 88 21 79 82
31 55 54 55 98 72 52 86 72 33 94
38 69 21 30 63 16 26 30 83 65 98
38 63 25 82 70 98 63 36 91 32 64
31 72 58 41 20 68 23 87 72 24 29
72 100 11 19 41 35 69 21 48 56 91
88 68 16 77 33 74 80 64 69 29 58
99 30 98 26 34 14 73 34 95 59 25
68 16 84 79 73 72 98 16 73 53 52
90 74 76 86 23 13 56 59 65 73 86
48 65 13 81 94 81 20 48 30 42 72
12 52 91 51 63 57 13 55 93 74 42
34 57 26 79 25 33 13 80 60 22 58
84 48 99 19 49 45 25 68 47 90 64
97 49 82 97 24 96 98 40 10 78 52
10 13 43 70 80 62 74 34 87 28 75
58 11 36 85 37 54 32 33 100 68 37
52 10 47 89 85 100 80 76 58 88 56
33 34 84 30 55 96 86 36 100 44 28
12 19 43 51 64 65 99 88 69 75 57
17 40 18 56 52 48 91 40 46 59 36
52 57 20 79 91 61 51 62 99 45 81
13 62 88 48 69 41 82 97 16 100 49
41 85 82 95 20 94 80 30 31 47 58
81 54 55 75 82 94 20 41 49 81 89
85 71 21 19 16 69 22 83 96 11 71
45 16 29 87 93 74 84 68 93 99 97
10 44 30 15 80 63 66 67 39 64 86
86 28 10 87 31 44 90 37 27 60 48
43 83 15 66 53 68 89 88 11 76 87
77 72 36 63 74 68 76 39 23 97 18
55 27 33 31 79 52 46 19 61 59 18
45 83 15 66 88 20 64 67 65 31 81
26 38 94 93 46 19 19 60 34 12 38
74 60 51 53 70 82 52 72 98 62 46
89 99 44 56 87 69 44 74 39 45 100
50 43 69 30 50 37 66 80 39 56 52
23 85 65 16 25 11 100 13 65 33 50
25 26 31 84 19 40 72 92 78 19 100
67 53 27 98 74 17 71 80 34 18 35
28 51 37 25 56 54 82 22 51 61 39
99 40 66 77 53 16 33 100 70 32 66
58 45 10 80 97 32 69 42 84 16 75
79 97 90 63 22 17 57 36 10 23 26
1.34832
1.96391
1.63509
0.670459
1.80015
1.17999
0.805309
1.63214
0.513363
0.436708
1.76492
1.30791
1.69114
0.461609
1.27893
1.46493
1.03247
1.6229
1.29829
1.25003
1.31627
1.96908
1.39083
1.72928
0.935951
1.84561
0.929933
0.969595
1.75296
1.53385
1.63364
1.52559
1.80635
1.80595
0.68376
1.08666
1.58454
1.96328
1.12945
0.918017
0.965283
1.33343
1.58983
1.17353
1.34115
1.26598
1.61483
0.495435
1.01818
1.67823
0.668767
0.807291
0.650603
0.811739
1.51692
1.17
0.681588
0.486137
1.54114
1.35445
1.52772
0.503502
1.85124
0.668816
0.678238
1.1542
1.97145
1.84292
0.776762
0.532771
380 119
106 410
24 208
224 435
14 178
130 436
55 66
293 236
170 155
469 490
193 57
311 106
271 483
273 481
179 217
44 179
342 184
164 293
499 331
497 48
22 248
424 358
197 489
380 491
482 29
239 396
375 326
456 398
297 451
190 17
499 52
278 70
79 82
496 433
443 394
441 378
79 143
104 263
388 185
189 75
79 219
67 396
83 306
149 75
324 237
467 416
430 323
306 258
352 359
261 400
256 117
228 460
111 258
272 426
356 49
140 184
449 347
183 246
280 21
288 213
391 336
482 126
389 98
207 32
191 42
105 354
37 94
239 118
103 327
20 352
19130
1
