70
11
0 0 0 0 0 0 0 0 0 0 0
48 94 30 31 34 51 19 14 48 96 71
29 47 41 31 96 14 22 52 48 14 64
52 100 60 70 43 83 34 58 34 40 58
54 94 73 84 63 96 49 38 10 53 65
77 68 96 58 85 30 82 81 14 72 69
98 82 56 43 33 21 69 92 41 26 71
26 97 19 31 34 47 95 17 86 33 92
67 25 61 22 36 59 39 76 26 20 100
80 73 12 37 14 25 47 87 94 27 66
83 49 51 91 42 65 43 30 69 90 27
93 39 86 74 25 51 22 30 53 62 54
77 20 46 86 68 63 76 25 68 24 23
37 93 82 100 59 78 55 45 75 25 62
32 44 82 11 50 83 11 70 45 68 76
39 82 21 42 84 94 62 18 50 55 68
74 41 59 60 33 44 92 37 15 58 27
64 23 29 13 33 65 15 56 86 88 35
41 52 29 16 84 61 49 41 39 17 51
82 18 55 94 95 13 49 76 91 25 98
93 61 70 47 80 42 92 55 78 78 65
22 12 58 56 37 51 37 56 75 78 40
87 73 32 29 62 77 33 27 45 54 76
100 77 48 93 10 87 84 20 79 89 10
14 24 29 94 73 40 41 73 99 68 82
99 94 68 54 89 59 27 77 18 19 78
76 40 62 14 41 81 24 27 17 36 97
13 58 76 60 94 26 10 56 85 97 97
34 18 48 97 12 36 41 88 18 64 51
100 97 39 73 70 21 56 47 75 77 95
55 48 56 34 17 14 98 76 71 78 26
16 72 56 41 15 67 30 25 94 82 45
71 17 22 92 55 32 37 66 23 29 23
76 42 75 74 11 89 54 83 83 86 100
93 83 64 74 91 31 81 66 52 63 79
58 42 11 73 73 22 48 87 99 63 74
18 80 27 57 34 11 68 89 27 17 26
35 30 25 25 52 50 56 71 19 94 79
59 67 35 55 71 71 55 49 85 86 38
35 10 68 95 54 19 79 95 28 91 45
44 20 90 35 64 43 41 37 12 56 35
53 61 79 74 93 16 29 20 44 58 72
83 34 31 84 63 59 44 84 84 14 32
46 14 84 89 57 51 59 28 53 76 13
76 72 46 93 73 86 37 58 34 37 53
27 13 10 64 62 30 31 91 55 15 84
51 78 76 62 26 72 68 28 88 13 22
44 40 73 19 42 99 99 47 18 89 83
72 15 52 71 55 94 90 39 27 60 33
68 76 23 85 94 85 86 37 61 78 82
54 96 77 20 90 78 24 74 30 30 43
90 15 40 21 26 12 74 15 94 65 87
56 66 36 80 54 82 26 16 32 49 45
62 75 43 10 91 61 95 45 64 53 50
50 81 29 97 67 14 85 25 46 16 29
17 40 45 44 72 33 32 78 32 69 44
35 42 91 88 42 54 93 95 55 69 39
59 53 48 88 94 24 64 73 95 87 53
50 21 86 24 52 51 98 82 84 10 100
68 59 10 40 46 58 37 68 42 77 19
70 53 95 72 44 17 41 72 98 33 93
23 80 33 67 80 86 18 20 86 97 49
48 10 61 18 75 11 44 96 16 78 68
78 37 45 14 82 65 48 12 96 41 58
88 20 20 54 64 36 87 45 24 83 39
57 69 43 97 93 93 81 11 26 73 90
35 35 84 63 15 61 99 17 98 32 37
17 10 43 14 80 38 48 94 10 17 10
100 88 100 98 56 94 26 97 83 79 92
29 50 54 37 41 97 67 58 65 47 34
1.46072
0.819644
1.12456
1.05457
1.12204
0.506333
1.41981
1.07517
0.785298
0.75691
0.807424
1.21216
0.74784
1.28354
0.711323
1.39972
0.379482
1.05169
0.615881
0.314542
1.40469
1.11766
1.4721
0.512277
1.42238
1.29042
1.06152
1.39237
0.706773
1.46156
1.39697
1.392
0.996129
1.21291
0.965385
0.959304
0.440574
0.891171
0.970763
0.968512
1.29568
0.451178
0.881374
0.47541
1.21096
1.2013
1.16696
0.85912
0.61252
0.307337
0.689178
0.91135
1.26645
1.03966
0.519038
1.27521
0.887158
1.47988
0.98887
1.31446
0.783462
0.431288
1.3583
1.33632
0.40676
0.837295
1.12218
1.22977
1.22377
1.07213
384 265
125 214
220 286
45 417
356 264
76 355
159 390
105 299
328 163
74 158
471 87
452 226
366 234
133 323
376 108
292 168
59 15
4 69
480 242
208 99
143 179
11 430
356 55
417 393
220 344
158 218
496 188
444 185
458 474
409 151
256 412
427 318
388 358
388 464
223 110
360 94
478 75
278 197
488 57
82 192
444 337
475 455
324 52
371 235
268 76
11 370
23 139
282 9
449 461
99 138
336 102
223 351
486 467
29 289
21 21
23 228
171 99
63 181
469 88
245 347
209 314
439 285
398 343
242 151
30 87
326 224
32 176
257 130
75 173
213 33
3806
5
