70
11
0 0 0 0 0 0 0 0 0 0 0
12 90 27 70 68 66 98 10 78 43 44
100 16 87 17 87 50 63 51 95 31 79
14 88 69 96 79 83 22 71 78 56 83
26 80 83 65 66 53 68 79 33 85 86
10 82 78 49 83 91 12 64 93 45 64
80 25 50 60 90 52 58 71 32 68 23
43 70 30 69 31 79 43 82 65 100 14
49 48 24 72 60 86 43 100 51 77 31
79 10 65 46 23 85 68 99 10 30 16
45 95 97 31 52 57 28 97 40 56 19
43 12 59 39 97 37 88 10 53 69 21
77 94 22 96 84 69 92 50 89 80 94
61 32 37 58 21 66 17 72 45 99 30
44 52 58 66 98 54 25 53 96 57 94
84 78 28 39 29 13 26 68 68 54 12
74 17 56 86 76 63 81 97 94 92 82
12 17 95 86 91 29 36 91 13 65 26
57 40 51 74 83 15 74 10 86 84 19
85 75 27 73 23 58 78 37 30 46 29
88 65 66 24 36 91 49 57 31 53 39
98 78 43 20 93 55 84 100 18 63 45
37 22 18 45 44 10 25 24 10 73 37
42 60 38 95 80 34 67 46 76 50 51
35 88 14 27 97 89 70 81 61 79 42
26 56 50 78 69 25 24 80 60 66 98
40 72 10 76 64 51 10 71 77 52 92
77 29 50 62 63 94 82 15 32 13 37
50 11 90 55 57 39 98 73 57 99 49
48 64 42 17 100 38 49 74 90 46 45
85 89 97 63 12 58 45 64 35 78 71
23 36 74 74 81 74 43 87 29 54 93
38 77 69 17 45 46 57 63 99 24 93
88 97 51 70 49 59 27 66 68 84 71
63 34 29 77 87 87 39 61 32 93 31
60 32 37 31 16 55 56 48 77 74 78
31 39 16 70 25 24 19 18 41 48 75
94 62 63 77 11 57 36 64 67 36 80
75 19 14 13 16 28 71 75 54 19 69
86 14 72 83 93 93 66 76 29 65 46
87 99 67 26 33 21 64 71 34 95 18
20 32 66 87 75 19 93 25 59 90 91
74 30 18 17 95 27 48 25 80 85 73
55 47 28 70 69 91 32 90 59 41 14
58 91 83 82 92 65 20 67 96 84 36
80 67 73 42 28 17 49 98 84 18 16
35 90 65 29 98 90 93 27 54 40 91
74 47 31 21 39 14 54 61 15 73 49
89 30 83 59 94 61 71 32 40 57 16
44 93 16 28 83 94 11 53 66 54 92
12 91 93 94 94 50 17 75 99 55 28
38 91 63 84 96 90 67 22 40 81 69
53 62 77 12 59 18 41 38 33 64 54
47 59 20 13 100 85 39 17 36 30 37
19 30 97 72 27 72 71 46 85 96 99
15 67 66 58 31 87 46 34 67 26 55
46 59 65 59 90 36 72 32 50 83 71
70 17 78 27 29 11 65 82 28 25 29
72 25 81 59 21 90 74 71 28 41 28
36 38 20 43 56 30 69 40 60 44 79
27 30 63 16 52 24 34 20 45 94 79
80 62 85 70 68 19 68 100 62 39 75
84 14 54 66 81 74 15 91 58 33 93
43 87 87 78 96 77 38 84 81 48 25
11 26 23 34 85 16 26 58 81 68 51
78 18 81 55 33 15 72 86 44 83 14
10 97 91 58 27 75 10 77 20 63 53
67 43 73 88 88 22 96 68 14 32 97
46 21 68 76 77 44 66 89 43 18 96
84 16 79 47 50 100 15 25 52 92 93
1.75883
1.69882
0.925916
0.670083
1.11384
0.540855
1.79097
1.70317
0.541013
2.23273
1.17871
1.37938
2.38384
2.28708
2.28958
1.22768
2.04451
1.29668
0.686305
0.958232
1.22108
0.550038
1.81007
0.82661
2.09796
1.16451
0.52229
1.8906
0.939789
2.33162
0.738439
0.546479
2.30347
1.75422
1.8322
1.03602
1.91417
2.05625
2.40656
1.35005
1.0865
1.07652
1.08942
0.882065
1.29132
2.36786
0.835573
1.19846
1.23732
1.47498
1.08688
0.831371
1.3323
0.637211
1.58736
0.888385
1.06414
2.40633
0.582216
2.04958
1.08463
2.37441
1.75789
0.718052
2.00265
1.08547
1.66818
2.30786
2.20078
1.30332
176 256
13 112
182 178
40 303
5 134
229 287
40 491
494 394
486 355
289 284
22 346
256 46
85 302
188 91
265 492
134 444
281 120
383 70
432 484
225 116
475 468
276 355
43 491
394 498
233 291
481 75
240 363
332 326
472 207
435 500
151 44
124 149
430 247
253 258
153 273
500 0
185 490
435 460
306 112
170 483
374 335
204 354
196 63
140 61
340 67
267 169
390 413
127 480
108 303
351 185
253 36
478 17
225 385
83 220
113 161
351 157
182 434
439 135
60 109
495 324
493 202
412 359
338 229
120 232
320 33
357 218
408 463
129 74
394 46
182 455
6470
3
