70
9
0 0 0 0 0 0 0 0 0
20 37 91 87 82 97 22 60 11
64 28 59 73 92 12 79 71 50
62 34 60 25 30 63 34 62 64
97 41 100 19 74 92 94 37 97
77 45 17 97 90 24 86 58 38
71 67 52 25 13 26 93 11 15
60 91 34 48 40 26 14 51 31
74 83 72 21 15 50 86 62 89
40 91 15 86 29 62 63 61 14
80 57 12 82 48 59 31 26 23
65 40 63 77 97 71 98 41 100
75 45 20 18 12 48 33 18 61
71 18 34 21 50 10 52 30 90
99 45 100 28 50 46 84 54 11
94 63 50 30 46 75 49 11 36
55 92 12 16 73 48 10 39 84
58 37 11 38 90 75 14 98 99
47 10 44 99 64 52 72 12 29
18 81 82 55 14 70 52 49 57
52 78 14 81 14 32 35 27 86
22 82 49 10 98 50 36 15 43
19 21 67 51 58 34 18 37 75
34 63 32 17 81 22 36 74 66
52 23 14 99 59 21 83 64 92
33 88 68 45 36 82 87 78 28
30 80 28 42 27 96 41 88 40
82 34 21 35 66 61 11 74 63
11 86 49 67 88 52 31 93 39
23 79 53 72 79 48 28 98 87
19 14 11 18 27 74 76 65 93
46 62 38 65 71 87 61 46 98
15 72 89 60 72 73 41 61 66
84 86 15 61 29 42 16 88 40
54 38 63 45 49 100 79 56 83
61 53 51 56 79 16 74 97 30
55 51 51 98 41 72 34 41 25
45 92 22 100 69 29 46 79 76
68 79 83 95 88 65 55 26 80
89 24 58 89 65 19 93 15 17
16 14 37 34 34 91 74 82 80
76 69 98 48 14 54 11 29 73
97 68 71 82 88 100 97 43 71
10 59 39 21 56 38 93 94 64
65 79 10 47 20 81 77 81 92
65 31 85 22 92 88 78 86 81
97 51 58 54 30 18 21 52 49
75 96 28 73 15 28 59 65 37
52 28 88 14 75 64 57 20 40
62 24 90 25 67 43 47 25 86
55 83 42 54 49 72 83 24 33
65 10 93 75 17 95 22 32 96
42 47 64 91 72 59 65 55 13
62 77 19 58 16 15 49 46 83
71 20 86 15 18 44 42 47 43
15 95 98 62 20 14 62 22 14
57 10 78 96 40 81 37 28 88
56 11 72 22 84 11 64 83 100
89 69 44 60 30 13 49 36 34
25 38 29 20 87 69 43 92 32
59 84 87 20 36 69 85 56 30
87 70 39 79 90 64 46 31 55
86 47 90 81 10 58 90 49 98
46 86 18 44 49 80 31 38 50
61 56 25 61 70 21 10 39 45
27 18 54 98 78 62 74 27 86
22 61 36 56 63 50 56 26 19
51 13 83 54 53 81 97 38 76
65 99 80 78 12 38 61 71 78
71 52 39 76 97 18 16 54 33
2.458
1.21053
2.01775
0.942878
0.724364
1.65526
1.0955
2.09296
0.986686
1.17834
1.53044
1.50164
0.901388
1.07104
2.26437
1.03093
1.84505
2.14466
1.37667
0.907407
0.775335
1.80825
0.941932
0.532354
0.727125
2.36612
1.74618
1.95062
1.00291
0.921978
2.44485
1.60448
1.44157
1.15461
0.514535
0.922991
0.887102
0.723074
0.953273
1.61852
2.00669
1.0335
1.34905
1.24642
1.58173
1.22885
2.32956
1.97367
2.30085
0.888497
1.19114
2.48987
1.69226
0.596819
1.86391
1.6246
0.807036
1.56283
1.27112
0.68586
2.18475
1.59265
1.38476
0.912102
1.26157
1.86384
1.10908
1.76446
2.33319
1.4264
178 237
75 83
4 169
87 495
25 282
277 75
74 379
422 9
305 39
177 490
230 169
379 401
371 483
123 494
120 366
23 474
440 388
180 98
432 136
201 147
83 351
46 390
424 17
250 222
388 185
400 394
313 483
113 447
218 282
481 359
198 92
331 235
33 256
238 188
113 483
412 243
478 155
60 321
61 358
68 95
251 426
441 348
419 25
31 282
9 307
36 113
372 399
458 291
64 329
251 363
195 30
377 486
186 412
169 26
484 392
125 452
403 189
407 111
263 243
310 77
91 80
163 422
112 412
2 249
35 178
458 105
254 56
90 317
312 266
429 56
4673.75
4
