70
11
0 0 0 0 0 0 0 0 0 0 0
15 65 57 86 31 60 57 69 88 74 76
35 62 29 31 82 35 50 23 83 38 74
10 29 44 98 37 88 65 64 20 10 26
53 42 64 97 51 15 68 45 37 60 12
86 79 57 81 74 21 90 73 68 21 20
15 42 27 19 11 46 94 62 25 38 69
77 25 14 87 57 71 24 59 16 59 66
36 18 31 50 84 66 79 75 24 77 19
20 25 42 40 76 88 61 27 89 63 53
78 11 85 45 49 100 35 72 20 98 54
14 43 44 38 29 90 40 75 67 89 79
25 40 86 51 38 22 73 76 45 17 56
51 74 90 55 91 47 98 48 50 64 30
40 87 44 14 35 95 35 56 53 90 75
80 24 71 43 44 61 96 44 59 71 61
71 23 21 79 80 23 49 87 61 60 76
83 56 17 91 88 65 30 74 87 94 48
30 12 94 66 75 43 20 45 16 91 65
62 97 46 47 89 19 66 71 63 85 63
28 30 80 14 99 21 56 23 89 70 88
19 74 30 16 98 36 50 27 62 57 63
41 70 33 95 37 23 30 79 66 84 87
89 53 14 81 55 25 23 86 32 15 79
98 23 72 49 86 76 27 78 15 48 85
51 94 50 100 84 54 44 62 30 70 51
82 41 56 86 15 37 23 45 83 71 71
79 59 67 34 64 54 96 32 68 71 33
15 36 74 73 95 94 82 86 72 15 25
90 38 90 58 61 17 32 74 99 29 32
52 61 62 85 90 98 79 39 70 98 40
98 24 77 59 93 85 46 72 16 94 38
44 40 44 54 65 26 40 66 44 26 77
91 35 56 11 26 11 93 45 62 34 89
93 12 20 21 66 51 21 39 76 72 34
85 65 69 80 16 68 97 80 35 79 80
85 40 54 45 28 78 75 53 98 80 14
36 53 80 46 56 81 42 66 96 62 57
52 78 85 97 10 77 56 10 80 59 56
59 28 16 68 31 77 48 85 78 14 94
100 30 51 60 52 16 90 32 22 10 59
40 27 97 55 98 88 11 52 90 88 70
93 77 91 95 92 55 64 90 67 52 72
50 57 91 43 78 23 77 47 57 23 68
28 56 48 75 84 28 73 79 64 86 29
56 22 85 14 100 37 12 89 66 37 71
63 48 84 69 92 73 38 98 66 56 61
18 12 25 73 43 22 36 87 87 77 67
95 35 62 31 22 26 95 83 54 26 79
68 24 74 98 13 35 15 22 87 46 52
12 38 49 36 28 48 59 77 81 84 82
75 31 85 69 89 23 75 23 76 97 43
80 35 52 45 100 28 69 61 89 40 77
62 67 65 55 49 34 71 74 88 31 87
37 93 30 51 41 47 63 12 12 13 51
24 73 66 93 41 97 95 97 51 86 21
59 12 22 61 63 78 24 12 71 45 14
62 48 83 47 54 47 97 75 75 45 42
61 45 25 46 36 28 15 63 40 48 78
77 57 21 66 76 33 60 16 77 79 16
42 62 48 64 36 35 42 26 48 34 95
55 97 33 73 26 95 74 84 87 55 58
14 27 97 63 21 99 83 58 17 14 32
49 20 54 66 11 24 84 28 100 15 64
15 21 17 97 63 73 39 95 13 61 88
71 42 46 35 75 33 32 77 44 17 78
17 55 53 63 95 48 46 91 24 11 10
57 51 37 67 33 58 42 56 28 21 48
89 25 56 16 90 50 16 28 43 95 68
60 10 61 42 37 75 13 82 50 33 94
0.205085
0.338643
0.588911
0.863048
0.429817
0.766065
0.683993
0.563264
0.452117
0.346429
0.824081
0.592491
0.429263
0.246006
0.563037
0.750793
0.883427
0.237797
0.319294
0.232144
0.887773
0.907972
0.355721
0.53961
0.709104
0.882925
0.455407
0.347757
0.715128
0.272442
0.388576
0.902508
0.207164
0.266624
0.792985
0.724617
0.230503
0.282727
0.963023
0.283605
0.975056
0.449432
0.545805
0.618985
0.629238
0.632203
0.630399
0.434882
0.712242
0.74109
0.822917
0.587078
0.883947
0.208595
0.72329
0.762635
0.874311
0.493076
0.973576
0.687314
0.469025
0.436108
0.730917
0.979681
0.416911
0.442042
0.703025
0.964168
0.908035
0.478614
198 197
406 417
290 281
232 22
250 419
348 269
271 64
178 23
155 376
319 340
168 194
119 342
28 310
163 330
229 127
317 120
450 338
40 116
259 452
247 325
394 96
117 12
222 178
422 75
99 255
23 410
354 5
80 46
312 75
41 458
398 59
163 269
354 171
347 414
47 71
113 134
289 130
257 285
132 88
10 410
296 107
399 389
226 370
398 468
311 319
437 105
112 452
356 221
338 308
394 434
86 429
495 472
365 259
160 310
189 1
376 292
500 365
87 395
230 192
153 175
74 446
386 350
65 108
474 463
350 440
404 215
405 288
353 69
441 239
315 183
19125
1
