70
7
0 0 0 0 0 0 0
65 39 66 28 58 100 92
15 82 51 91 35 100 13
46 18 10 17 38 40 24
41 73 43 99 96 69 35
93 56 10 37 71 41 44
40 10 92 32 23 88 82
89 95 94 42 78 21 71
27 30 80 29 28 36 45
44 79 39 37 50 76 87
43 42 73 16 74 83 44
46 81 17 87 50 16 20
27 21 47 57 28 86 57
68 90 23 50 54 100 83
10 13 80 93 42 35 62
91 42 52 96 43 99 86
35 70 11 37 39 13 53
41 67 64 53 39 12 94
69 47 95 87 55 87 89
47 30 56 86 41 42 92
34 28 50 18 33 40 38
10 13 76 98 69 95 43
63 51 13 46 97 55 48
49 24 88 82 62 95 45
20 32 51 28 20 73 51
13 49 85 72 67 35 79
44 80 54 85 18 51 23
94 55 35 51 77 79 62
95 11 26 89 36 89 55
18 71 19 74 50 24 74
84 20 80 14 64 46 11
20 41 73 46 74 96 49
83 25 66 27 44 74 67
78 37 89 83 24 36 47
98 46 67 17 99 61 13
17 98 70 66 97 46 26
68 35 23 89 70 35 40
62 35 26 83 42 16 41
38 93 26 55 20 83 69
28 31 98 40 59 53 95
68 72 17 91 54 37 47
38 58 21 34 17 26 62
94 50 78 84 98 60 11
69 32 79 37 23 30 16
10 96 51 32 66 39 87
28 85 51 21 42 61 50
14 76 87 17 13 17 79
12 30 93 12 68 38 21
29 45 47 13 54 81 81
74 68 80 98 26 38 49
66 66 47 38 78 19 71
93 85 32 82 39 49 91
18 89 27 86 16 54 30
50 42 20 70 96 17 59
79 78 13 93 70 33 36
98 26 22 40 96 26 45
28 28 25 95 80 72 61
59 75 36 46 70 81 35
69 39 98 49 70 68 90
16 84 67 99 78 15 79
38 54 43 92 100 88 94
64 54 24 46 13 88 52
36 67 81 98 64 33 12
98 72 99 61 66 43 15
91 80 45 63 26 32 77
48 30 93 90 44 33 52
93 100 59 45 86 29 54
76 91 38 95 32 18 61
79 96 66 77 52 48 89
54 83 65 23 28 15 83
0.391985
0.448574
0.597992
0.249892
0.33655
0.340082
0.837961
0.668031
0.424245
0.571638
0.790239
0.590025
0.285925
0.667102
0.768096
0.93095
0.457709
0.266953
0.745703
0.356477
0.739007
0.387131
0.391906
0.792239
0.573943
0.638624
0.393215
0.492636
0.68838
0.53551
0.819504
0.401095
0.341995
0.611373
0.432131
0.995635
0.505151
0.760615
0.233423
0.502683
0.770401
0.210352
0.467238
0.775642
0.466946
0.943127
0.595265
0.868933
0.923682
0.862269
0.589773
0.686557
0.479965
0.693056
0.329502
0.749137
0.62412
0.222908
0.914231
0.281518
0.5017
0.882476
0.828754
0.823522
0.31716
0.294021
0.640141
0.244625
0.550946
0.249804
200 35
245 474
65 248
394 452
295 70
343 123
90 243
231 417
156 246
318 241
471 346
192 243
404 220
103 340
282 155
418 125
277 213
454 33
100 139
433 316
285 439
340 196
88 415
78 130
6 341
166 187
180 206
162 323
452 251
258 96
48 353
494 154
273 415
93 48
109 436
3 65
375 411
152 324
115 309
81 447
194 105
458 401
197 422
448 488
376 496
311 469
201 498
259 52
241 283
307 325
344 489
13 200
411 21
278 424
1 492
240 219
4 170
192 64
458 226
452 278
244 304
329 57
182 383
281 95
201 376
52 142
393 360
393 205
338 172
81 370
9435
2
