70
5
0 0 0 0 0
71 56 100 18 22
41 14 12 38 85
17 48 98 70 83
39 91 71 27 62
36 66 56 86 68
72 13 40 30 41
36 78 27 48 45
21 87 22 20 51
58 59 79 55 71
89 90 58 55 82
36 46 79 86 95
42 61 57 27 86
98 95 83 97 90
38 18 15 53 99
71 30 13 84 79
31 36 34 94 32
47 97 70 17 34
75 10 27 17 40
31 24 91 68 72
31 29 70 21 81
72 76 60 21 44
65 10 73 14 82
27 15 58 50 54
68 23 41 89 97
93 31 75 74 66
12 90 94 71 90
69 70 25 93 89
63 96 12 79 40
30 26 81 86 24
42 35 82 48 65
33 15 14 89 60
35 62 57 49 17
91 91 21 43 55
36 93 69 12 46
80 26 25 43 69
99 10 22 47 81
27 62 12 90 58
52 29 27 50 77
87 86 24 27 43
77 57 89 54 37
98 24 82 86 79
92 19 20 97 90
27 77 56 58 83
24 36 60 24 96
61 80 100 48 83
50 17 70 31 41
39 28 66 61 50
69 39 89 96 36
61 85 71 21 52
12 46 79 56 67
65 84 48 73 48
30 60 67 19 22
95 83 68 81 62
29 27 34 70 66
16 93 76 93 33
24 43 30 77 13
19 85 73 56 96
16 48 71 34 65
74 53 20 86 41
58 23 15 18 50
49 64 72 76 69
28 55 88 73 92
60 39 21 52 36
60 63 47 49 96
29 54 65 25 82
75 98 87 73 47
29 80 50 67 24
35 17 76 54 28
81 42 77 58 33
0.881866
0.975968
0.600391
2.32892
0.832843
2.28541
1.7219
1.02258
0.750722
2.41577
0.60466
0.771633
2.01629
0.700969
1.25622
1.98666
0.958385
0.805673
1.92412
2.2841
2.49915
2.40629
1.95095
0.906643
1.78525
2.1013
1.44523
1.32471
1.69367
1.52495
2.17888
0.811747
0.937137
2.14962
1.24846
1.21689
1.53076
1.12724
1.52715
1.08655
1.07572
1.56781
2.16517
0.519431
1.53215
0.991684
2.22268
0.688525
2.00184
1.70377
2.04913
0.714362
1.44348
2.27793
1.98384
1.21083
1.87936
1.6102
1.24078
0.986157
1.19649
0.78526
0.926565
2.41735
0.950316
1.93899
1.04042
1.40189
2.21427
1.89615
54 206
389 410
145 204
280 391
231 29
441 26
196 223
469 220
7 316
390 216
221 77
168 244
36 307
207 20
329 223
12 413
206 84
353 435
353 231
234 29
173 347
45 69
431 102
357 201
312 142
323 456
354 27
41 361
24 185
400 80
31 37
400 4
314 377
378 97
45 481
6 153
377 116
68 178
51 154
95 321
97 113
268 344
49 28
382 251
33 90
454 275
117 274
483 411
346 362
40 69
457 87
95 228
79 210
420 423
249 138
339 441
243 406
38 85
382 148
85 472
463 228
145 345
94 64
474 9
49 84
167 489
323 302
189 419
240 92
99 489
6346.67
3
