70
9
0 0 0 0 0 0 0 0 0
29 57 49 75 82 19 76 45 67
33 76 59 28 76 71 91 73 38
11 39 19 82 74 53 74 46 82
33 52 25 56 59 44 13 83 61
18 39 97 49 25 62 73 73 100
54 87 92 95 97 84 80 88 35
32 45 63 28 20 33 67 48 95
97 95 18 93 13 78 50 34 96
26 72 76 24 51 71 10 54 25
37 44 54 82 33 81 32 47 36
55 93 60 37 78 64 71 57 40
26 88 47 48 41 49 37 86 86
46 34 23 12 60 34 66 55 32
15 85 28 31 99 31 67 36 100
98 39 71 77 77 35 69 38 29
20 48 48 61 59 39 90 60 43
56 64 98 42 83 39 86 78 62
96 52 42 22 81 70 19 34 86
32 65 78 66 33 23 15 26 52
94 33 10 85 80 18 14 45 51
37 62 25 52 43 31 78 86 100
35 29 92 17 15 40 94 61 78
95 69 36 15 96 15 14 89 65
77 60 21 14 67 29 86 67 77
29 70 90 88 87 70 54 12 34
28 16 59 19 70 31 20 40 85
16 11 11 22 93 12 32 29 69
21 91 28 42 77 17 88 53 71
16 41 44 83 29 47 84 56 83
92 64 89 78 10 82 96 91 88
82 94 54 76 21 46 48 39 44
58 62 47 20 64 29 70 49 36
30 46 55 32 29 34 74 92 12
35 100 65 15 59 57 49 22 42
27 26 29 83 44 31 85 73 40
58 44 24 32 39 84 10 98 77
34 48 75 73 96 93 39 93 93
50 34 33 35 59 33 43 53 76
40 12 74 22 29 48 37 81 99
54 73 77 73 43 75 48 26 60
13 56 28 72 14 25 28 92 31
25 81 95 83 45 54 65 89 76
26 87 55 61 74 66 72 86 33
53 52 37 60 44 35 33 48 86
98 18 66 20 22 30 81 91 72
88 88 10 95 11 25 85 47 54
11 31 96 18 11 72 26 85 60
15 18 10 91 62 34 66 41 93
25 26 16 93 100 55 64 57 27
100 60 13 62 87 35 79 33 67
66 60 72 60 28 84 67 70 68
83 90 18 55 11 75 89 27 13
54 17 85 27 90 44 10 19 11
51 56 18 19 40 79 42 85 60
79 14 69 37 49 53 70 72 72
88 69 68 67 49 58 45 20 54
48 96 37 72 27 38 13 84 82
72 74 77 76 59 11 84 89 99
28 46 45 47 49 18 76 98 66
24 26 52 62 58 68 68 65 72
58 33 56 24 39 44 67 14 35
43 57 83 28 60 94 33 35 93
63 93 75 32 49 73 98 31 52
34 82 60 49 43 25 40 37 65
73 93 67 44 42 76 21 87 89
78 84 39 85 76 85 87 62 41
49 97 16 14 21 86 65 76 66
25 50 53 80 100 39 95 71 49
38 51 22 42 54 51 47 96 84
1.17191
0.670492
0.647576
1.45748
1.42745
0.415049
1.87183
1.89394
1.09715
1.15721
1.21351
1.45556
1.22362
0.735441
1.27474
1.40671
0.953627
1.36206
0.796627
1.69707
1.4448
0.914239
0.50397
1.70672
0.461839
1.54042
0.840384
1.49472
1.57727
0.601862
1.3101
1.51071
0.523491
1.41208
0.778498
1.61063
0.829965
1.32273
1.10554
1.37639
1.40793
1.16345
1.00037
1.93294
0.531723
0.514235
0.6325
0.832091
0.689681
1.08684
0.671575
0.417572
0.993708
0.795326
1.68429
1.16763
1.58523
0.718673
0.786923
1.89082
1.09575
1.18726
1.82216
1.52671
0.651302
1.8615
1.83711
0.871044
1.95337
1.53223
431 345
186 440
183 85
424 310
236 258
333 245
325 1
380 322
32 45
115 145
191 332
348 369
475 153
402 350
446 178
185 225
433 261
46 94
303 471
433 296
81 384
59 63
222 251
167 134
217 227
296 230
151 281
177 379
276 168
18 284
59 212
253 48
360 120
340 283
397 157
166 241
199 275
372 351
475 442
426 58
169 169
209 153
256 405
411 418
307 226
360 466
327 258
351 192
266 42
424 146
498 333
9 496
7 79
368 93
118 122
226 311
45 32
413 121
40 161
128 42
497 61
385 88
486 341
272 51
490 268
308 156
100 348
167 40
373 22
30 351
6280
3
