70
9
0 0 0 0 0 0 0 0 0
23 52 50 32 65 68 88 58 91
24 29 15 42 64 85 45 25 63
45 26 80 63 61 42 54 33 85
57 84 50 47 26 96 25 88 58
60 48 48 100 42 72 42 94 32
41 78 95 65 76 22 78 40 67
60 49 66 20 94 59 31 73 20
11 54 64 68 83 32 57 28 93
95 51 54 64 54 85 17 84 23
17 72 87 94 65 93 24 57 57
40 96 59 82 20 13 29 53 51
29 32 67 49 17 58 62 40 100
35 66 16 10 61 92 84 25 56
19 82 72 86 71 47 88 50 33
22 70 80 41 93 78 61 85 72
75 25 30 10 62 13 10 71 23
25 83 10 47 64 50 80 37 74
81 93 27 40 78 52 74 54 87
52 92 92 78 15 83 13 66 48
30 22 27 76 25 97 67 90 30
27 55 32 55 59 64 56 89 65
69 14 30 39 64 80 67 76 48
71 37 55 64 76 43 61 20 87
12 13 82 46 86 54 100 76 25
31 19 48 72 13 29 49 68 10
54 22 34 73 67 14 63 79 37
34 66 60 53 65 48 90 55 93
11 96 79 92 51 38 51 16 35
71 38 48 27 28 33 61 86 33
56 64 26 10 28 43 51 82 74
49 71 76 90 19 70 96 43 41
60 30 52 33 22 68 62 84 82
43 49 87 38 36 18 100 17 73
88 74 89 34 15 12 65 38 46
84 96 82 92 36 14 83 26 90
14 69 26 24 53 19 60 14 26
87 36 25 97 75 15 94 63 67
25 41 30 75 82 28 45 57 48
93 97 39 73 37 54 90 51 23
15 60 30 37 66 70 68 52 77
83 24 90 79 29 59 51 56 20
82 91 49 20 61 33 66 28 83
78 56 60 39 100 100 31 67 14
99 16 100 76 65 67 32 52 46
56 60 12 90 55 33 49 10 95
58 30 18 46 93 63 95 13 79
11 51 37 99 34 12 83 38 28
45 11 54 88 89 97 60 15 14
23 86 96 59 20 60 53 61 57
75 98 21 57 37 20 14 100 35
23 50 39 48 71 54 65 92 35
69 76 28 99 78 85 77 25 46
36 82 35 92 27 71 73 44 34
49 84 15 92 73 15 98 70 49
75 73 11 12 12 79 17 36 91
47 86 59 33 10 85 21 100 93
27 60 88 84 21 90 36 97 46
76 92 32 21 49 79 66 79 56
78 69 74 80 22 79 32 46 84
26 65 86 21 84 25 84 67 31
13 88 66 42 62 87 96 96 60
48 85 34 34 30 11 86 92 20
49 97 98 12 100 10 58 87 50
56 85 60 25 88 92 78 71 29
62 82 44 99 78 54 88 21 49
34 97 12 10 25 59 49 44 65
40 37 57 38 58 52 59 67 36
75 83 49 61 28 65 55 54 70
58 43 62 15 71 80 77 40 56
1.37035
0.513451
0.572349
0.657836
0.401396
1.26632
0.876306
1.05582
1.40234
0.528496
0.432987
0.612599
0.382692
1.06506
0.981015
1.09198
1.12911
0.396951
1.22385
1.34137
0.681117
0.56256
1.39355
0.362289
0.588589
0.496055
0.499718
0.339629
1.49545
1.38003
0.389996
1.15014
1.20692
0.719949
0.350708
0.583157
0.999926
1.14262
1.22096
0.662439
1.21638
1.17046
1.19509
1.34469
0.657037
1.48241
1.44406
0.88786
1.04997
0.367385
1.44806
0.897096
0.618047
1.36143
0.933496
1.20613
1.28206
0.309758
0.544002
1.13632
0.873468
0.300184
1.10362
1.30259
1.37036
1.33719
0.754279
0.874164
0.934648
1.35741
354 132
266 185
158 460
299 128
28 254
437 288
306 380
480 444
293 323
108 360
213 140
293 62
343 204
346 121
190 481
442 36
248 229
278 106
367 110
110 229
54 498
97 322
221 102
466 109
315 273
335 261
276 308
175 338
175 26
59 172
71 277
186 194
299 496
358 463
326 32
497 219
490 357
395 190
238 102
453 159
20 113
88 162
410 497
9 5
337 20
466 20
481 173
403 127
62 172
27 472
103 167
161 350
444 367
294 22
212 426
153 431
285 357
204 178
374 57
165 237
401 285
18 324
91 290
318 314
295 331
361 44
18 5
280 114
500 118
172 86
19040
1
