70
5
0 0 0 0 0
74 88 93 100 51
88 91 47 10 81
63 31 14 87 15
81 95 76 75 76
27 33 87 12 65
75 22 21 25 100
84 89 28 37 23
52 39 93 28 41
63 73 91 81 21
84 27 78 44 41
90 95 87 45 80
82 14 86 60 32
48 18 30 40 50
69 65 92 71 58
12 74 61 44 43
21 49 39 58 83
56 61 29 66 49
34 97 72 81 29
68 15 91 32 49
19 83 25 69 52
64 20 61 42 30
98 72 14 35 42
89 48 11 68 43
21 90 77 93 45
48 34 100 12 89
82 26 46 29 80
69 43 33 26 46
94 58 92 28 20
54 35 71 73 40
15 79 58 86 38
82 81 37 75 70
87 59 94 21 59
48 26 93 55 23
61 52 14 94 59
33 67 27 90 45
26 28 68 52 75
23 45 54 82 51
64 18 25 96 37
52 99 94 88 84
97 12 65 43 20
72 83 52 30 66
86 26 25 15 95
94 69 64 88 92
20 52 65 63 44
16 28 59 58 72
95 11 10 61 68
29 21 25 12 61
71 100 75 28 68
24 11 43 74 86
62 83 36 93 23
88 35 49 42 34
79 33 24 61 82
32 92 39 63 76
11 77 63 20 93
43 12 53 33 11
45 96 91 78 11
77 40 67 52 23
75 47 34 17 89
19 29 99 45 19
98 96 36 91 94
40 89 41 88 29
16 74 81 88 71
89 68 52 68 72
48 45 73 94 11
67 70 14 36 89
64 92 43 33 39
72 53 35 99 20
58 13 33 49 85
72 15 49 98 46
2.08303
1.61961
2.11381
1.20801
1.42778
1.85767
1.92735
1.09937
2.11983
0.688129
1.07342
0.585814
0.786658
2.2613
0.634706
0.999295
1.35976
1.53941
0.504034
2.35439
0.995615
1.63266
2.27888
1.31932
1.45625
1.5622
0.650191
2.12731
1.09006
1.07398
2.28397
0.730057
1.29574
1.21668
1.68732
2.12185
1.18288
1.4005
1.40353
2.40277
1.03061
1.68883
2.0888
1.34321
1.23596
2.46171
2.16014
0.782561
1.69316
1.86906
1.10384
2.30507
1.90533
0.83409
2.46416
1.27636
0.903812
2.33284
1.28355
2.39096
0.893625
0.584252
2.17763
1.50953
0.958072
1.6245
2.29503
2.22532
1.17537
1.48331
399 77
396 128
467 170
146 438
334 185
378 376
99 476
458 348
220 25
421 413
272 109
252 343
486 175
2 23
290 4
186 321
375 299
107 76
356 342
483 137
471 500
319 96
129 468
415 267
352 64
494 250
474 86
146 213
69 456
164 11
211 159
70 70
397 233
360 101
104 154
52 68
444 368
43 198
284 437
11 383
46 185
68 423
349 84
452 486
422 150
496 278
54 425
75 34
287 305
24 38
2 6
205 427
447 11
116 38
60 387
107 283
109 269
152 170
203 283
27 68
138 153
54 392
19 140
329 373
70 409
204 394
35 33
36 188
116 173
15 267
3841
5
