70
9
0 0 0 0 0 0 0 0 0
47 39 67 99 61 15 50 48 94
68 100 23 83 16 29 37 23 91
45 60 34 27 89 48 58 79 17
67 96 51 30 11 72 89 39 16
64 31 79 41 100 62 18 93 42
51 29 95 15 90 31 52 15 57
74 66 94 50 57 39 92 89 21
10 22 37 76 95 96 77 67 79
39 65 32 90 95 75 93 43 43
79 54 39 14 67 50 68 100 80
46 40 78 31 35 73 89 70 47
61 11 33 14 15 98 89 51 58
85 56 39 79 13 11 48 31 78
34 71 16 26 100 56 97 58 22
76 92 93 67 98 64 75 20 99
96 77 90 40 89 51 76 24 28
81 78 84 58 42 73 24 97 85
86 51 11 13 57 41 33 18 42
26 92 98 87 68 28 57 31 24
68 99 82 54 55 44 72 40 64
85 82 16 33 30 82 49 54 30
60 57 69 55 87 55 36 46 45
96 66 78 50 53 10 60 20 37
91 11 15 95 81 18 22 50 67
18 50 54 40 62 82 25 36 52
47 29 80 17 24 72 60 86 54
35 50 78 98 83 53 29 97 74
49 49 66 10 16 27 64 21 96
36 95 82 19 32 56 11 26 53
30 12 92 51 98 81 29 82 69
55 87 87 86 31 66 26 92 50
47 86 74 36 14 32 57 87 97
15 86 96 22 58 40 63 92 80
59 49 99 62 56 50 72 41 24
23 17 23 89 13 37 55 23 56
14 58 36 55 96 75 43 73 90
41 17 79 57 23 58 69 12 58
12 21 47 67 82 24 42 54 35
61 11 11 25 19 48 42 46 49
31 23 31 83 74 60 70 100 25
42 37 77 47 91 66 13 22 62
85 58 72 56 11 64 50 66 29
25 36 29 56 44 99 33 31 61
46 94 57 22 50 54 10 95 40
95 79 15 52 70 41 88 96 36
79 19 88 64 74 70 39 51 92
61 52 45 88 12 20 82 54 68
69 23 13 16 87 11 13 83 22
29 70 94 46 80 64 80 47 16
37 31 58 45 61 76 47 57 32
47 12 48 41 56 10 33 46 56
65 12 64 17 19 97 62 41 58
91 99 93 98 57 92 94 85 36
85 24 12 50 93 26 74 59 89
14 45 65 58 84 48 86 10 88
57 13 71 22 60 78 53 63 66
22 99 22 28 89 100 82 43 68
25 97 25 84 22 34 44 10 49
88 18 35 61 87 54 71 49 24
34 95 29 33 66 31 68 39 26
61 61 58 96 40 50 82 85 99
52 51 19 25 68 29 16 100 64
72 66 14 76 37 52 81 99 36
68 79 36 19 100 52 70 65 52
17 93 71 97 61 51 26 42 24
93 32 29 88 37 23 68 88 27
68 32 56 92 56 20 17 69 69
20 42 46 13 74 12 47 84 49
64 85 63 61 89 64 72 42 21
0.487657
0.416923
0.446051
0.16788
0.304296
0.309592
0.120001
0.200704
0.390289
0.256075
0.247599
0.305237
0.180025
0.140398
0.288418
0.386576
0.326067
0.466459
0.17266
0.335781
0.190785
0.222485
0.353986
0.4354
0.300879
0.180093
0.16
0.221172
0.373008
0.32663
0.136683
0.381282
0.123128
0.151769
0.109244
0.405541
0.346309
0.189796
0.128947
0.310157
0.111667
0.410105
0.240792
0.381803
0.392376
0.436577
0.455662
0.400729
0.35406
0.370076
0.300436
0.16173
0.132942
0.294907
0.381209
0.397307
0.380182
0.401729
0.412359
0.128057
0.281074
0.410182
0.114229
0.202113
0.32891
0.438446
0.155994
0.162587
0.458782
0.204891
392 265
386 83
41 3
480 6
360 221
34 90
429 381
150 74
180 464
496 200
173 86
215 407
48 209
457 419
185 250
188 357
402 414
111 220
498 18
46 478
436 315
21 127
323 51
498 121
378 435
184 165
198 101
74 38
81 237
246 234
363 313
223 458
258 148
62 2
226 293
338 490
359 33
99 429
128 10
35 439
114 381
36 201
59 203
217 302
279 98
161 344
304 24
499 98
302 333
207 14
54 99
470 56
251 342
65 330
453 156
204 123
319 445
266 374
95 138
115 384
86 462
143 497
114 463
81 338
270 129
462 275
383 394
383 419
108 168
448 382
18820
1
