70
3
0 0 0
67 21 89
20 86 44
70 94 22
66 46 36
18 83 92
57 17 72
33 75 89
38 17 14
26 36 20
19 16 34
39 65 60
69 95 98
69 99 34
31 38 53
94 39 33
46 89 48
21 53 27
39 66 41
69 70 93
50 16 11
52 86 88
81 40 64
79 75 18
76 46 56
29 98 12
60 77 31
83 89 34
53 61 54
18 98 23
48 60 85
73 19 11
54 26 51
41 38 10
95 80 60
19 45 25
53 72 47
76 70 12
37 46 36
69 63 80
32 77 28
10 68 67
31 88 10
99 87 22
15 24 39
13 77 75
40 31 92
46 38 89
45 17 83
22 56 13
59 96 84
92 83 98
79 20 15
69 77 19
68 15 89
36 38 55
45 21 51
86 18 65
28 27 55
73 67 41
38 37 29
96 61 65
69 48 52
75 38 99
28 99 100
31 57 17
34 32 32
12 22 65
95 45 52
15 63 45
1.23547
1.93195
2.22332
2.0818
2.37863
1.35397
1.66666
1.98665
0.572924
1.5229
1.45767
2.21147
1.28299
1.10886
1.11053
1.3876
0.998914
0.704797
2.31305
2.08106
1.04687
1.65967
1.42913
2.42723
1.15956
1.29437
1.41406
1.89106
1.09272
1.7758
1.54872
1.72285
1.86546
1.42693
1.92043
1.34641
1.57919
1.89193
0.873076
1.91039
1.33013
0.755013
0.695318
0.826429
1.33633
2.00401
1.57241
2.46153
0.883656
2.32246
1.16717
2.48364
1.05581
1.53648
2.26044
1.64658
1.7076
0.642904
2.21838
2.24544
0.598202
1.50186
0.859646
1.34033
1.7658
1.63508
0.615289
0.902679
1.32408
2.3536
241 282
265 413
119 300
114 481
405 231
12 4
41 2
500 188
374 287
399 232
97 280
189 6
135 86
52 278
151 452
137 448
278 15
4 90
358 336
397 83
385 144
485 181
456 84
477 196
392 279
300 203
200 470
201 349
218 94
465 400
181 70
266 17
476 288
239 325
74 423
497 483
251 352
486 116
91 140
181 194
87 235
163 381
241 275
187 296
180 270
239 443
303 172
405 82
329 162
297 130
422 305
474 16
468 475
437 206
12 170
241 352
389 285
46 147
23 58
234 240
61 171
207 478
86 382
154 485
62 312
474 404
401 41
69 1
451 381
161 412
9005
2
