70
7
0 0 0 0 0 0 0
36 29 97 53 14 89 60
12 66 19 35 17 62 19
53 72 50 82 55 36 30
61 91 20 44 17 58 68
21 40 39 31 51 96 76
42 55 31 96 59 78 67
27 96 16 33 38 70 55
97 53 43 95 96 54 98
52 80 100 42 51 76 40
25 13 83 91 97 51 84
26 66 84 44 24 19 91
89 82 60 31 57 38 22
85 72 89 34 39 40 31
88 28 90 49 82 16 76
41 11 83 51 16 36 62
16 75 41 65 94 91 57
17 91 56 22 22 85 77
63 93 65 34 44 84 47
15 75 54 70 65 18 47
15 30 83 18 23 45 31
23 96 91 34 84 89 67
63 20 12 18 93 66 94
80 29 13 64 76 90 22
59 13 72 37 89 67 100
100 81 94 35 38 33 81
71 22 90 21 13 97 40
13 68 20 54 21 58 96
44 78 23 62 78 55 65
22 13 38 57 86 74 43
13 46 17 69 85 71 30
17 68 72 97 68 13 64
50 72 82 78 99 36 100
17 89 27 30 20 40 19
29 66 13 75 34 31 55
45 64 34 41 74 90 72
72 79 78 98 62 88 83
16 56 100 61 90 52 49
65 52 100 30 35 69 15
69 22 84 33 50 11 74
62 50 38 80 22 50 52
23 82 57 82 74 68 82
96 69 26 65 52 10 17
75 11 67 95 34 80 48
30 46 57 88 12 91 10
94 91 83 72 97 30 44
87 70 58 11 27 26 76
46 63 28 64 77 12 80
54 87 93 24 58 62 60
78 36 11 18 29 41 27
77 30 89 11 59 94 43
67 17 20 85 53 60 16
27 26 52 19 38 18 17
93 30 71 51 33 12 75
20 79 98 12 83 13 62
22 65 24 37 20 25 43
51 87 70 78 62 45 68
51 42 36 61 35 40 23
82 38 38 29 83 36 63
64 98 14 85 41 78 26
100 91 65 67 61 28 48
10 68 93 23 27 45 98
98 94 30 16 26 99 41
46 14 64 83 32 51 38
71 94 17 79 49 63 77
99 55 58 94 40 50 20
26 32 59 55 37 49 13
14 89 45 33 82 91 11
91 39 87 74 92 26 48
95 80 16 33 46 51 29
0.835939
0.677726
1.01233
1.34888
0.784722
0.396084
1.00815
0.514228
0.946232
1.20219
0.666395
0.670978
0.662327
1.1198
0.552895
1.08169
1.01001
0.683884
0.561857
0.490098
1.25819
0.452028
1.02453
1.19036
0.535444
0.590855
0.552436
0.984071
1.12139
0.934906
1.32288
0.845286
0.866991
1.46704
0.575538
0.903878
1.38653
0.768869
0.506787
1.17296
0.816809
1.10672
0.684194
0.852151
1.36754
1.07226
0.547704
1.04012
1.07763
0.983776
1.43191
0.579205
0.635732
1.11739
0.427525
0.793243
0.343409
0.548421
1.4947
1.12198
0.724032
0.986353
0.972329
1.27359
0.620586
1.02079
1.0814
0.935064
1.47583
0.37567
368 435
362 397
244 416
13 69
104 108
339 185
421 119
459 280
365 376
330 345
305 362
113 211
250 269
216 372
197 65
248 9
498 257
368 393
371 238
87 374
64 298
79 153
278 186
397 500
180 350
25 251
419 9
134 133
210 335
216 23
44 327
278 240
426 390
116 67
56 224
182 11
171 442
352 161
21 161
380 306
67 463
163 429
303 398
460 308
399 338
470 438
472 342
117 441
427 31
433 335
375 333
490 333
486 271
238 337
418 320
354 210
227 476
204 288
145 59
24 176
196 135
88 356
104 353
418 146
118 226
427 287
50 227
3 322
4 390
483 205
9322.5
2
