70
5
0 0 0 0 0
87 71 38 55 28
62 61 97 72 52
32 58 30 48 90
19 84 31 66 61
34 62 77 98 66
67 33 44 24 81
46 75 73 34 92
16 66 38 16 100
80 82 62 82 99
86 73 32 52 47
55 81 26 40 46
13 96 64 90 32
87 15 43 45 24
53 13 16 71 92
26 14 31 29 87
52 81 19 79 20
40 60 46 54 68
56 66 13 98 25
67 35 38 91 42
95 96 58 76 88
97 86 90 70 16
95 48 94 94 56
94 93 40 82 12
22 83 17 30 25
60 56 86 35 19
40 59 86 98 99
97 34 94 23 36
97 69 44 55 47
90 31 12 50 83
18 47 11 69 73
82 36 50 10 100
55 41 51 30 77
72 62 36 70 45
19 62 85 28 47
95 100 55 71 48
61 82 41 78 32
30 28 64 64 87
41 28 10 55 22
47 56 46 75 80
13 68 66 10 87
89 59 27 37 34
90 16 75 56 49
11 77 13 97 45
79 40 10 90 79
29 57 88 55 41
11 54 70 22 31
11 31 59 31 97
25 46 22 84 24
77 74 33 45 90
95 19 54 90 64
95 43 93 51 99
79 88 94 79 88
51 84 61 35 39
32 34 50 67 86
14 28 25 27 22
62 66 36 53 57
18 65 42 30 12
73 20 30 87 51
29 17 33 69 74
58 44 38 88 34
84 99 98 82 52
38 42 50 89 87
57 50 61 61 52
23 27 45 62 89
53 95 76 81 25
36 73 32 94 27
43 78 52 27 84
37 35 49 23 98
49 92 26 10 13
1.73825
1.22434
1.02279
1.49752
0.555853
1.20479
1.94023
0.570789
0.531076
1.40953
0.753637
1.12383
0.641001
1.54447
1.64393
1.36818
0.787264
1.55998
1.20799
0.587113
0.823173
0.758811
1.89286
1.43932
0.797246
1.16254
0.522408
0.946892
0.652801
1.19042
1.4938
1.33054
1.89501
1.86194
1.26579
0.844952
0.616961
0.836567
1.10568
1.46589
0.986078
1.97077
0.539463
1.73422
1.65275
0.821622
1.22223
0.427246
0.433438
0.53382
0.846058
1.0913
1.5537
1.37911
1.29113
1.95715
1.45717
1.21689
0.661604
1.36808
1.46813
1.78187
1.79401
1.60467
0.412901
1.34666
1.5616
1.22801
1.70765
1.55228
70 160
265 437
310 387
39 495
362 83
181 263
499 283
216 278
183 197
244 145
294 420
74 411
492 393
418 29
226 429
55 176
81 18
64 130
203 106
24 68
414 321
311 23
289 382
466 488
287 141
50 237
43 57
478 261
79 153
128 408
279 382
121 188
131 277
426 462
119 413
457 410
144 413
197 294
134 245
324 34
104 72
148 18
453 198
316 500
108 206
152 416
135 443
398 329
133 486
106 359
194 24
266 84
125 184
197 472
54 368
444 280
173 135
90 6
273 217
168 236
465 466
281 42
238 392
361 303
212 230
483 493
101 277
301 493
371 100
53 442
19095
1
