70
11
0 0 0 0 0 0 0 0 0 0 0
35 78 56 93 14 13 92 59 65 81 16
42 26 50 95 76 70 70 69 53 15 41
53 65 33 96 94 14 36 97 26 11 46
35 44 90 63 67 83 45 60 65 59 12
69 50 28 46 87 57 24 79 62 63 91
39 24 70 58 56 58 57 47 39 37 19
29 76 79 20 50 64 79 76 47 67 15
51 19 66 13 88 31 15 27 52 47 55
94 14 22 60 72 100 49 66 64 97 51
48 51 51 70 88 60 18 40 68 99 74
83 29 71 19 65 13 87 91 11 16 77
61 36 54 19 97 79 69 45 49 41 48
72 45 41 42 39 36 91 55 31 87 57
22 96 18 32 40 16 79 43 54 25 85
12 65 59 24 79 72 64 97 57 81 96
52 73 20 83 18 39 51 66 78 32 31
53 57 11 26 19 61 26 61 48 35 64
82 83 50 14 81 100 90 37 77 76 46
70 40 63 84 70 72 20 77 31 74 33
84 80 50 96 80 89 90 95 54 12 75
42 83 92 93 93 31 87 68 24 56 64
63 26 86 42 30 34 98 52 64 63 26
50 68 83 28 14 45 58 84 74 20 67
49 62 24 19 31 96 42 55 96 92 40
16 94 84 43 76 11 63 33 65 69 37
46 83 95 73 77 91 37 38 11 81 24
77 28 95 69 74 17 59 46 42 83 24
16 89 30 23 75 60 78 68 17 24 57
60 19 60 15 30 68 30 64 92 88 34
98 55 49 56 71 10 86 27 57 100 85
79 91 81 81 16 85 68 99 60 54 20
51 54 94 51 61 100 34 70 72 100 35
91 12 32 15 32 16 91 18 94 55 56
11 22 74 44 98 48 34 28 44 77 36
36 92 99 10 50 23 41 37 15 20 30
87 49 87 91 74 30 84 88 20 40 18
78 36 67 99 11 51 100 21 71 15 25
75 77 34 42 48 14 39 69 67 80 68
92 69 28 48 72 34 35 82 38 21 84
66 30 62 36 44 51 68 76 28 11 76
49 97 12 21 15 36 94 96 33 77 22
98 53 59 31 66 86 61 34 100 42 100
57 17 63 70 100 45 32 17 45 91 25
60 66 22 57 24 49 97 60 77 75 33
32 34 25 14 65 38 32 100 70 98 23
26 53 58 43 68 17 80 67 40 20 18
24 65 68 50 21 18 95 69 10 100 85
21 55 54 87 78 99 85 36 63 98 69
85 58 63 23 82 56 78 42 76 81 62
28 88 91 50 91 61 38 93 11 85 82
13 81 25 19 51 75 48 53 61 41 60
31 33 66 93 95 95 45 58 65 98 57
49 54 81 100 82 16 96 28 16 42 47
15 87 92 100 70 26 20 81 85 62 18
59 18 96 68 98 74 67 59 23 49 39
72 48 13 18 66 18 52 75 73 10 53
70 45 21 58 78 34 90 19 39 22 54
30 83 43 51 83 43 30 41 81 80 93
40 76 53 12 22 87 75 10 32 36 22
43 96 25 66 26 64 22 40 23 28 46
74 96 81 58 96 28 69 49 60 96 79
91 73 93 95 74 18 97 10 55 17 26
77 97 69 41 96 97 71 33 10 11 29
76 100 13 100 27 36 99 44 52 41 28
18 43 87 58 50 50 43 66 100 31 53
39 91 80 13 36 63 12 64 55 24 43
23 75 80 53 14 86 69 84 86 34 50
64 16 43 73 31 20 19 35 38 36 82
51 11 86 91 60 76 31 57 73 80 67
1.23759
2.26425
1.93792
2.08895
2.14096
1.62235
0.918284
0.686548
0.728543
0.721039
0.881539
2.26539
2.11737
0.619142
1.23952
0.504432
1.90385
2.02584
2.12303
1.92105
2.2383
1.03684
1.80986
2.39781
1.67551
2.37286
2.17111
1.48927
1.91808
1.48926
2.26573
1.66373
1.92537
1.76466
2.16408
1.96872
2.21318
0.554508
0.956744
1.95335
1.82789
1.67349
1.74819
1.63474
0.558398
1.72253
1.75673
1.33274
0.714571
2.11541
1.67447
1.53416
1.10042
1.66028
2.21087
0.585728
2.19433
1.85766
1.86451
1.45109
0.518801
2.32063
2.351
1.1504
2.42595
1.52609
1.83769
0.751747
1.82547
1.07099
26 347
399 362
470 491
46 157
32 124
129 459
411 52
460 43
483 49
296 79
244 379
352 292
51 478
273 226
305 315
328 173
196 311
280 473
58 43
378 258
302 239
142 2
108 247
39 258
465 211
39 164
487 414
304 34
97 374
314 62
449 148
259 227
308 176
218 470
474 375
250 412
13 84
229 19
211 32
342 460
235 221
39 242
294 372
355 264
338 246
169 131
304 24
386 74
286 449
7 381
385 342
22 380
322 78
157 351
334 455
247 73
272 186
426 401
461 87
323 437
160 333
215 223
143 306
191 330
146 412
378 125
114 248
94 478
486 91
8 472
19045
1
