70
5
0 0 0 0 0
89 24 83 54 75
84 57 16 57 95
86 42 43 45 24
78 87 20 25 94
61 30 88 81 66
21 60 18 15 20
58 15 44 35 61
97 29 75 89 29
98 92 21 72 23
68 57 94 41 96
54 74 57 75 75
59 51 52 76 83
62 31 90 53 79
67 12 31 92 45
100 27 57 77 12
21 59 71 76 90
65 78 11 30 38
100 20 92 66 37
18 33 63 100 55
63 50 57 64 74
52 10 37 36 99
16 72 10 53 85
13 50 67 27 53
62 76 37 98 46
19 48 33 15 38
52 93 20 78 91
21 93 66 70 53
53 12 46 29 67
82 32 83 55 61
25 53 87 35 14
50 17 63 46 34
27 15 47 48 71
15 53 68 39 95
31 22 28 47 74
14 73 44 32 37
53 32 75 10 18
30 41 51 79 73
79 44 29 45 20
17 81 87 11 80
68 38 86 28 57
55 100 57 59 23
59 94 38 27 58
56 94 81 36 86
10 77 44 60 79
13 26 30 69 36
97 88 16 23 29
79 55 91 52 70
22 64 48 18 44
84 32 50 73 60
15 91 75 95 69
58 57 32 74 67
69 41 76 43 16
96 57 31 28 80
55 24 67 61 34
41 48 93 42 70
45 65 20 76 35
86 16 91 19 68
54 68 96 11 61
39 55 63 29 83
62 14 31 26 75
68 22 95 59 87
100 23 60 52 79
46 80 89 45 37
16 70 20 24 25
57 65 61 37 99
64 35 11 13 14
57 15 71 100 90
29 18 27 73 61
37 35 88 29 95
1.15261
0.456814
1.06504
0.852749
0.69324
1.13046
1.10344
0.409951
1.03647
0.701167
0.843157
1.02837
0.910554
1.48556
0.355107
0.376146
0.666407
0.487399
1.26916
1.19403
1.26506
1.46901
0.838812
1.14589
0.372231
1.42654
0.434502
0.980598
0.3768
0.710557
1.40451
0.795955
1.26315
0.498488
0.562087
0.770547
1.12262
1.13839
0.340133
0.408441
0.702261
0.714889
0.692119
0.553267
1.44587
0.748749
0.804334
0.838677
0.463418
1.17564
1.4616
0.499206
0.829605
1.26477
1.36901
1.05048
1.19559
0.833152
1.41805
1.28337
1.42758
1.22557
1.31404
1.07722
0.526936
1.38489
0.990049
0.629638
0.89877
1.02483
41 304
204 226
329 479
234 425
435 25
95 321
441 117
400 92
69 441
188 316
119 457
129 465
428 483
28 200
443 105
90 386
302 484
285 133
230 45
486 155
489 198
364 482
91 26
107 486
362 189
440 104
71 112
320 5
229 351
479 197
260 199
63 478
424 158
201 134
119 23
461 213
52 173
165 228
101 8
68 60
250 34
94 369
170 431
166 473
277 67
226 235
294 392
201 127
194 177
491 489
111 285
446 311
353 387
50 136
23 311
345 333
352 46
46 440
350 296
352 36
261 259
494 120
291 438
80 316
33 486
124 307
95 268
262 343
432 441
11 265
18430
1
