70
9
0 0 0 0 0 0 0 0 0
52 48 91 87 46 93 41 35 47
17 12 44 96 32 88 17 45 23
65 60 67 43 25 97 99 97 44
17 70 36 31 42 17 95 42 48
24 17 53 71 63 76 95 16 37
46 47 28 80 46 92 72 55 69
92 71 69 61 91 61 18 69 17
93 63 98 64 49 100 45 90 25
80 47 30 64 73 60 59 42 17
41 17 18 99 10 82 59 73 59
57 45 33 15 95 50 100 98 50
72 46 20 93 88 57 86 91 33
40 77 64 15 68 51 84 30 19
75 70 37 68 13 16 68 61 40
20 96 48 13 39 88 50 99 44
27 89 44 39 64 96 37 89 75
80 38 44 65 59 38 30 98 13
21 44 44 21 75 21 34 84 97
50 31 92 88 68 89 24 74 50
55 77 93 57 46 21 64 75 89
85 17 30 11 78 12 86 75 21
22 57 96 32 10 53 28 72 75
46 66 48 15 68 11 93 41 12
92 37 63 70 81 66 33 52 63
41 36 23 64 18 68 46 54 57
30 89 75 81 39 47 83 31 55
52 91 63 15 32 83 92 79 98
36 62 83 79 91 70 65 25 97
79 55 91 68 10 65 53 71 21
81 25 95 79 24 58 40 99 80
47 72 68 96 80 21 40 98 29
87 88 82 80 96 96 10 75 68
71 86 26 14 84 92 61 49 11
100 49 75 40 93 19 69 83 92
58 42 64 48 25 50 35 39 67
36 49 31 46 97 18 86 42 62
49 68 48 47 46 17 63 37 32
13 66 54 56 66 21 44 11 75
75 28 16 56 49 14 56 16 97
92 22 25 68 32 68 32 88 36
72 99 64 18 97 97 62 11 44
51 58 45 37 22 80 33 67 75
73 22 63 91 93 22 70 24 56
41 25 80 10 77 46 22 95 98
91 48 98 59 22 75 51 84 53
87 37 54 36 18 10 19 42 24
13 56 68 65 67 61 22 34 82
42 78 79 80 11 84 93 34 45
63 30 83 83 39 13 83 53 18
94 99 84 58 62 65 95 42 13
27 11 78 23 94 97 11 75 46
29 76 87 66 85 77 12 73 83
78 56 44 59 46 99 14 45 56
55 29 81 98 60 44 28 96 20
36 90 62 32 81 11 52 91 28
48 25 84 98 34 32 32 69 17
72 18 32 88 12 73 30 51 91
85 65 31 88 78 52 13 23 19
46 94 93 58 17 40 57 75 19
83 74 46 12 77 80 79 53 37
32 50 59 25 14 71 38 66 13
76 52 64 27 45 13 78 63 69
12 99 73 27 81 82 12 47 12
37 66 94 58 12 89 13 37 75
42 95 68 69 89 76 34 15 75
20 15 38 24 57 72 17 59 17
92 82 22 27 93 89 16 39 74
92 37 22 37 75 53 60 68 93
29 56 86 38 59 28 60 75 11
0.660528
2.30577
0.592667
1.60458
0.803068
1.77214
0.652738
0.842545
1.04686
2.03321
2.17854
1.84742
1.78319
0.503227
2.03398
1.54069
0.811758
1.20837
1.19349
1.76457
1.7732
1.05681
2.16827
1.39023
0.625867
1.27968
1.18765
2.20746
0.857423
0.748133
0.859677
0.665149
1.75999
0.888244
2.37362
0.955729
2.31112
1.14504
1.88102
1.50165
1.84358
1.34031
1.89356
0.798249
2.35026
0.584415
2.09822
0.914531
2.42541
2.32266
1.77529
1.3289
1.43625
0.652719
1.92853
1.17655
2.36816
2.1513
1.66694
1.41762
0.75203
1.48907
1.55368
1.17112
2.21362
1.6083
1.71607
1.82816
0.809099
0.612209
499 46
115 130
252 348
423 220
481 420
0 30
99 36
274 491
287 270
295 108
230 216
252 482
411 109
81 239
387 283
477 496
377 464
190 98
497 239
347 212
179 306
158 76
104 436
6 33
208 7
421 399
242 347
101 459
385 129
224 234
411 387
41 393
183 184
354 216
232 398
360 117
52 46
486 491
417 214
447 437
135 214
339 113
63 169
304 239
212 225
358 64
443 315
378 329
322 319
432 286
10 122
381 153
471 463
112 451
210 216
474 451
170 270
65 353
201 412
439 11
413 249
330 365
425 369
464 63
349 32
493 195
199 117
55 35
122 138
368 173
9520
2
