70
3
0 0 0
50 90 87
25 31 85
83 24 12
99 19 91
77 88 44
17 61 95
19 42 86
73 52 27
17 85 82
85 11 71
70 26 36
54 43 89
64 80 89
19 89 13
74 14 50
81 67 30
11 29 95
54 76 33
54 41 18
65 92 29
14 12 38
66 19 28
82 71 33
61 87 96
73 57 45
81 26 10
46 86 61
32 52 98
48 76 26
79 57 94
36 25 73
85 76 31
85 84 80
49 90 84
40 40 89
76 22 82
31 77 40
17 78 70
56 41 46
96 37 59
63 21 96
49 83 92
88 93 33
11 23 84
85 51 100
59 35 63
42 62 57
58 45 79
21 62 81
57 61 36
32 96 69
58 21 57
74 46 94
99 65 82
45 70 35
95 38 12
54 83 56
64 19 12
74 62 43
73 65 41
32 72 63
35 97 68
54 39 57
12 26 37
19 56 47
95 37 38
82 58 46
83 60 71
79 61 32
1.52671
0.623485
1.5798
0.88378
1.17214
0.665734
1.70434
1.84928
0.848047
1.92017
0.799992
1.06055
1.49068
1.20386
0.854559
0.863676
1.71123
1.90289
0.874896
0.693931
1.67245
0.821995
1.60896
0.779685
0.566711
1.97507
1.61011
0.401221
1.34115
0.684744
1.11446
0.84214
0.942062
0.869522
1.49766
1.69589
1.3188
1.62259
0.696779
0.690515
1.80051
1.85105
1.97455
0.985523
0.446654
0.67444
0.792066
1.06165
1.86653
0.542105
1.08635
0.88434
1.7835
0.861722
1.34698
1.08055
1.19678
0.802601
1.94327
1.30588
1.17293
1.30673
1.31835
0.980594
0.646753
1.56566
1.56889
0.680989
1.98186
1.41112
40 39
431 272
139 51
80 427
394 494
339 78
223 303
71 49
193 438
442 61
443 435
50 178
81 121
286 299
80 371
362 71
378 19
305 376
445 364
410 175
298 454
153 427
206 17
78 112
478 38
375 196
300 85
2 137
304 88
146 203
170 332
417 247
459 359
10 274
374 327
321 237
336 316
463 302
213 133
297 90
120 185
65 407
58 389
108 456
91 330
382 259
130 0
203 318
51 281
434 41
433 107
360 243
68 355
390 449
149 351
448 153
402 355
10 44
302 362
112 77
418 450
164 208
349 129
342 150
247 230
262 378
204 239
192 338
351 56
292 148
19570
1
