70
11
0 0 0 0 0 0 0 0 0 0 0
42 45 100 46 19 66 44 36 19 30 86
68 58 40 30 64 28 57 60 38 75 74
55 35 24 26 43 88 96 33 35 80 14
75 51 38 91 78 12 46 92 98 26 21
72 94 71 77 98 12 44 28 36 39 75
91 84 21 98 46 56 92 32 24 100 32
52 11 16 29 40 93 73 27 27 39 13
54 36 80 70 47 29 91 28 21 70 91
13 30 51 20 35 49 15 44 99 63 38
50 83 37 67 25 90 38 80 29 91 89
87 90 57 12 41 98 28 69 45 41 31
78 22 100 90 33 81 90 30 91 22 82
50 50 53 14 51 62 82 95 20 28 45
54 37 28 81 40 59 25 36 97 13 12
66 95 17 33 21 36 68 96 21 23 61
63 37 36 21 20 94 66 55 62 86 93
65 10 59 62 73 55 39 87 78 99 100
84 56 87 100 67 37 70 26 84 66 36
97 11 58 68 81 12 80 25 32 14 92
12 63 97 29 19 59 57 74 28 74 33
95 75 74 50 25 14 89 16 89 14 49
81 92 73 87 25 81 41 55 16 19 18
80 21 54 38 73 92 40 75 82 75 93
42 32 17 37 66 22 28 74 55 25 14
97 26 76 63 85 99 43 95 93 77 67
41 18 92 26 22 88 80 97 55 58 65
71 11 25 61 36 10 43 62 26 79 75
89 78 79 30 55 86 27 38 93 49 57
87 28 88 68 54 97 81 18 36 80 14
18 94 100 69 86 39 79 56 49 66 49
66 13 65 53 53 24 100 44 98 52 73
34 88 84 50 66 97 27 62 93 62 28
71 72 55 19 27 95 94 24 58 30 49
96 48 44 48 34 27 21 78 86 88 29
68 45 41 40 94 95 72 43 47 73 58
85 79 79 61 26 72 23 47 45 41 27
40 63 31 11 82 91 52 100 23 32 10
49 75 50 79 100 16 48 53 29 71 75
45 98 62 74 96 45 50 13 96 62 36
17 74 81 74 14 83 77 84 75 53 65
27 77 44 73 44 24 56 45 16 62 50
88 52 22 51 74 100 98 66 97 98 36
19 26 83 58 20 15 55 42 56 60 85
35 32 49 36 39 70 86 43 80 56 77
42 80 68 80 36 88 100 58 65 70 11
60 92 50 82 77 76 29 32 68 45 31
50 67 93 60 59 23 47 42 65 44 81
18 18 61 41 74 97 19 49 34 35 56
22 90 88 13 14 44 80 24 95 51 86
30 13 54 25 53 72 23 57 25 96 56
30 94 22 62 26 22 58 79 64 76 42
23 18 38 76 61 35 35 70 38 58 60
42 22 23 60 14 73 19 15 85 60 39
16 67 76 75 90 93 60 94 35 40 67
57 39 58 32 79 36 23 40 95 54 12
87 93 87 37 89 42 37 10 47 84 54
19 78 33 60 51 51 73 96 45 48 74
17 80 11 23 89 86 28 43 73 61 25
49 50 31 15 62 55 95 45 45 41 26
10 96 83 25 96 41 76 37 44 48 56
66 76 26 64 60 61 27 56 72 90 22
57 61 32 60 63 32 84 64 86 54 86
75 92 99 93 48 87 69 29 51 26 45
71 67 47 94 76 99 30 61 83 51 33
87 39 39 66 62 95 66 29 37 100 80
88 52 86 82 73 61 47 97 98 13 35
49 27 67 64 36 33 31 88 75 13 79
60 42 35 79 79 42 58 82 69 71 40
62 93 80 10 77 54 35 63 92 93 84
0.362159
0.99493
0.560373
0.284963
0.922969
0.880923
0.715366
0.487401
0.890886
0.83344
0.954533
0.51748
0.694598
0.771601
0.660806
0.465719
0.890083
0.874665
0.542002
0.588682
0.783555
0.677668
0.730955
0.22113
0.665122
0.356717
0.613952
0.541394
0.318001
0.390138
0.758927
0.88003
0.75852
0.803458
0.319575
0.419698
0.983089
0.392083
0.542586
0.458844
0.297923
0.444289
0.209516
0.344783
0.608362
0.224469
0.623306
0.717908
0.620257
0.759051
0.867948
0.8214
0.589954
0.888652
0.325366
0.875968
0.440996
0.783212
0.657624
0.370367
0.920818
0.973099
0.448858
0.506685
0.220009
0.446562
0.289542
0.813611
0.622901
0.556035
302 243
0 263
394 340
165 270
431 491
98 67
78 69
232 350
25 74
193 325
330 433
445 358
112 143
486 73
58 12
205 12
337 481
320 499
307 435
263 291
391 213
408 453
358 12
50 412
487 449
307 262
158 226
211 30
235 201
278 285
482 16
372 465
237 149
253 102
359 187
327 488
268 80
273 55
189 244
444 277
12 60
249 88
245 107
22 179
426 165
110 185
358 120
222 310
243 82
468 190
92 27
229 334
415 80
439 2
455 245
488 454
32 54
137 345
194 495
207 432
205 227
274 319
357 102
443 12
280 288
155 378
119 262
473 36
115 267
422 386
4813.75
4
