70
5
0 0 0 0 0
58 17 93 67 32
93 28 56 38 48
23 85 69 15 60
27 91 58 22 91
33 16 68 72 26
56 36 18 33 81
29 49 37 56 47
100 60 35 60 69
88 86 92 93 31
65 27 63 59 66
99 27 87 74 37
62 93 87 15 77
44 39 31 86 96
66 44 40 43 54
58 38 66 80 25
68 37 86 52 22
84 24 95 29 82
47 41 53 61 55
65 54 21 40 80
55 12 34 30 71
78 87 45 92 58
69 85 81 62 58
73 45 56 89 49
75 21 50 34 84
47 29 37 58 39
11 51 81 34 42
47 49 61 72 14
20 24 32 29 98
73 37 44 20 42
46 17 86 28 94
56 16 65 78 32
63 90 38 96 18
19 12 30 61 45
52 47 73 14 16
82 98 14 53 92
40 75 61 32 60
95 51 20 32 17
27 87 62 24 28
92 39 32 43 30
63 11 28 100 43
41 27 80 87 89
65 26 91 87 78
37 24 39 57 13
82 52 64 46 90
33 41 18 13 48
10 45 76 23 93
93 96 47 84 67
55 94 70 45 64
25 30 76 61 29
77 30 35 42 12
73 47 91 29 98
71 89 55 98 87
46 31 52 26 51
50 53 78 44 60
33 86 42 68 23
74 95 50 50 10
28 45 35 74 73
30 64 36 83 95
18 48 34 50 59
66 79 46 12 68
76 80 74 45 67
51 21 44 84 14
42 13 28 51 60
72 87 16 30 50
82 97 20 49 99
94 95 18 68 85
68 28 89 37 83
58 69 19 74 19
47 62 45 13 11
1.90686
0.415228
0.635643
1.55564
0.572556
0.742454
1.92095
1.69815
1.52342
1.92348
0.853791
0.895358
0.939139
1.14156
1.60923
1.89549
1.67788
1.5192
1.38788
1.16956
0.590587
0.527626
1.0976
1.52653
1.45254
0.578676
0.739007
0.931392
0.404751
0.703481
0.643884
1.00215
1.34146
1.38939
1.50982
1.58394
1.6864
1.88636
1.06475
1.7499
1.75273
0.89297
1.75138
0.986322
1.71661
1.52116
0.700424
1.10012
1.91859
1.67598
0.649743
0.770978
1.22331
1.99113
1.56565
1.24533
1.16757
1.52991
1.4385
1.70853
1.58755
1.69517
1.96749
0.548212
0.621358
0.743646
1.51257
0.676728
1.66123
1.27709
451 347
21 27
275 455
37 10
280 40
401 456
71 283
131 300
82 218
249 232
72 72
279 138
181 186
388 84
4 454
30 130
270 260
457 431
86 23
385 109
489 316
171 290
91 247
8 115
352 27
495 196
376 226
246 115
333 8
491 56
429 170
136 178
213 79
431 248
146 243
467 330
33 320
201 297
118 84
344 418
386 298
40 204
304 146
412 277
259 385
331 109
304 361
495 47
308 5
422 154
30 96
354 44
110 248
108 32
336 37
18 97
252 243
242 293
345 399
127 100
80 254
300 300
400 193
346 453
91 226
289 260
461 405
257 378
284 229
31 85
18535
1
