70
11
0 0 0 0 0 0 0 0 0 0 0
59 81 83 47 58 34 14 93 29 15 65
55 87 11 33 59 77 89 64 20 81 41
22 70 88 77 28 96 52 75 50 79 18
44 91 74 19 55 87 58 78 67 81 31
24 87 63 46 63 92 76 56 50 52 13
18 89 95 84 80 84 27 32 81 56 27
46 25 42 38 21 70 22 76 52 61 93
77 96 99 58 21 75 57 58 53 17 77
52 69 89 36 40 23 48 74 89 42 59
20 65 33 42 49 58 60 83 78 63 11
47 96 72 69 64 98 39 76 21 50 81
23 11 35 99 80 65 48 66 70 28 34
30 48 72 97 61 95 10 70 18 22 95
94 49 87 98 22 78 94 27 13 90 63
15 42 99 82 84 30 34 95 43 12 54
36 42 93 71 99 27 36 87 95 68 46
83 64 29 63 99 13 78 22 63 64 46
68 97 67 19 11 52 48 34 44 21 56
26 51 77 100 23 99 63 28 50 62 10
68 79 40 93 43 85 42 80 48 98 53
99 18 44 49 53 95 41 28 20 98 15
88 66 65 18 72 17 60 62 79 73 95
82 88 22 58 23 90 88 95 62 41 44
28 16 13 40 60 99 89 20 56 38 86
87 79 95 50 57 56 57 25 82 68 72
98 12 66 25 42 36 54 56 13 96 42
27 91 14 68 49 91 80 38 64 21 51
11 86 20 35 99 77 91 42 94 85 50
32 95 85 87 68 77 55 85 31 69 82
69 66 11 18 21 35 59 44 79 95 29
90 92 46 46 20 38 24 40 25 68 39
13 96 59 71 72 29 91 64 48 89 78
79 42 68 41 87 80 12 94 14 27 69
44 88 48 50 82 100 11 88 29 31 10
94 32 82 23 88 81 57 16 46 75 68
45 23 85 84 12 61 15 42 51 28 56
49 76 44 32 69 96 20 20 23 36 68
61 31 88 89 65 13 54 41 61 42 20
98 90 93 44 30 13 98 23 40 68 48
41 66 19 18 29 10 13 51 27 100 88
14 97 19 84 76 36 64 50 84 96 95
36 99 41 70 44 61 49 61 21 96 16
50 17 27 69 30 97 15 64 62 73 84
10 31 63 41 33 62 73 67 25 92 99
69 93 40 92 89 50 12 94 61 66 80
100 55 86 98 17 53 90 41 27 42 86
40 96 100 71 38 96 85 88 38 75 83
52 51 77 47 98 95 36 80 93 13 53
98 52 19 43 51 16 64 29 87 22 24
99 84 45 12 96 69 37 61 59 62 50
32 14 33 51 58 66 22 64 59 27 85
68 44 33 49 54 41 11 84 57 64 79
35 44 35 37 17 84 43 65 27 96 79
36 20 89 42 45 43 86 73 97 100 25
45 39 29 42 29 94 35 72 34 87 84
14 97 44 68 53 19 48 32 20 57 87
32 87 32 71 57 59 63 70 31 11 54
47 84 21 44 49 84 99 53 34 85 52
81 33 84 13 37 47 30 43 53 36 68
68 89 48 95 77 11 95 32 80 49 37
15 29 37 96 72 83 24 32 75 64 47
49 29 91 12 96 46 99 38 63 67 47
64 75 84 78 59 59 87 73 31 28 66
68 32 98 30 98 20 33 78 46 38 15
79 52 70 12 93 15 37 13 63 16 59
66 45 89 99 85 37 89 26 46 64 60
76 33 42 97 20 52 84 88 44 95 61
94 11 58 52 51 72 37 97 42 53 90
40 94 74 52 70 50 89 12 62 40 22
0.555354
1.0499
0.89146
0.571783
1.29915
0.334988
0.643673
0.50749
0.439737
0.491756
0.725768
1.18972
1.19879
1.08452
1.08919
1.48311
0.877355
1.12422
0.536166
0.628223
0.516777
1.49434
1.41184
1.38905
0.932123
1.22016
1.43432
0.755945
0.431484
1.00954
0.759714
0.63951
1.03938
1.16781
1.30897
0.478182
0.346285
1.15739
1.2451
1.30908
0.608456
1.43643
1.16534
1.24047
1.19955
0.379226
0.847848
1.26831
1.38406
1.44956
1.14307
1.35219
1.26015
0.79435
0.42803
0.806257
0.67751
0.703305
0.333536
0.989586
0.378388
0.392452
1.06219
0.949971
1.12728
0.452309
0.494264
0.637178
0.653426
0.515396
108 125
198 168
351 470
115 328
355 445
227 415
51 63
112 127
34 3
421 364
292 319
167 449
314 7
154 158
196 109
219 401
42 163
113 176
406 484
213 493
378 267
222 414
369 373
119 125
450 421
42 47
206 137
446 366
320 196
306 209
300 266
442 265
278 260
269 153
346 339
105 25
184 205
436 294
469 389
311 423
257 476
172 77
130 396
269 486
292 367
272 29
16 331
162 326
82 288
411 41
383 171
93 26
135 153
423 35
297 240
322 136
213 105
95 402
128 217
250 227
309 67
300 492
481 11
351 475
405 448
262 457
267 155
34 500
472 100
206 355
19480
1
