70
3
0 0 0
35 67 54
47 38 93
67 99 77
26 61 91
46 20 40
14 33 35
29 96 26
61 28 93
26 42 64
34 61 34
17 35 90
50 41 89
29 78 96
87 46 22
81 55 75
82 84 65
12 30 39
31 36 56
35 72 76
26 91 43
52 69 76
20 59 15
77 96 18
23 54 32
100 32 92
65 60 25
32 91 14
17 57 15
38 42 51
45 23 11
76 100 45
74 52 96
84 14 75
81 60 24
98 52 45
64 96 63
11 22 69
76 74 49
39 91 24
21 95 96
64 51 79
56 38 52
23 18 25
33 38 81
45 63 51
12 10 89
29 53 19
46 81 44
92 37 100
24 67 18
32 43 22
15 71 74
21 88 94
86 95 71
54 62 60
31 53 32
66 73 57
48 86 75
60 61 27
48 19 63
38 19 25
63 34 89
32 30 68
13 52 55
92 84 94
50 30 83
91 68 65
87 30 67
94 74 98
0.770876
0.907138
0.518294
1.59853
1.44121
0.685505
1.6708
1.00458
0.970562
1.59709
2.39499
1.84697
0.758094
1.15367
0.984304
1.14533
0.893205
0.614622
0.740274
1.33721
1.41576
1.53073
0.967365
0.552162
2.08311
0.538458
1.7095
2.081
1.18244
1.60683
0.879225
0.796968
1.61445
2.29353
2.10513
1.31946
1.34873
2.18856
0.596135
2.30102
1.08679
2.43535
1.85292
1.40041
1.05707
1.24088
2.31082
1.50754
0.635627
0.71221
1.32615
2.20702
1.27119
1.78941
1.88984
1.15736
1.97517
1.36793
0.556643
1.79609
1.25684
1.9551
1.11789
1.87051
0.801621
1.12347
2.34488
0.79321
1.6942
2.27804
69 239
490 276
251 184
307 61
151 442
464 256
34 268
228 377
165 282
247 190
131 330
3 439
300 224
36 439
471 456
52 224
431 343
355 128
499 255
292 419
186 280
98 487
231 131
346 448
395 51
111 248
358 6
18 69
349 318
287 229
200 107
437 494
155 246
242 363
434 240
22 478
153 287
40 82
368 446
291 151
306 113
12 83
449 85
286 76
401 346
178 308
5 415
290 57
42 309
394 269
356 170
172 113
492 38
196 236
429 78
460 410
62 67
20 466
499 476
483 189
313 123
403 335
230 325
363 377
236 206
319 284
457 15
137 448
253 53
335 451
3741
5
