70
3
0 0 0
14 19 19
68 53 63
19 53 92
71 10 46
37 93 67
83 71 70
47 62 77
22 54 83
39 87 84
81 65 73
88 99 66
23 95 74
41 51 60
98 89 67
56 53 17
62 68 47
22 24 39
21 13 85
25 79 41
40 32 76
12 47 27
22 62 17
75 92 77
93 94 62
36 49 38
31 89 71
19 22 41
50 66 24
40 17 72
15 38 40
88 11 94
22 11 40
76 90 39
60 19 67
58 32 60
13 50 86
48 78 39
42 22 22
91 35 14
20 83 54
11 64 88
88 58 58
99 38 72
21 21 48
25 31 13
77 88 97
85 67 62
70 19 14
58 29 17
50 11 97
41 46 88
20 94 42
37 65 29
11 48 97
59 78 12
26 29 12
61 58 61
46 99 15
63 81 64
70 55 55
18 50 12
68 15 56
75 48 53
20 95 14
27 42 82
64 59 93
57 91 89
60 65 64
10 99 98
0.848441
0.365933
0.345188
1.48398
1.41327
1.06067
1.30441
0.789258
1.19248
0.803483
1.31095
0.49843
0.683707
0.99118
0.536804
1.49786
0.967651
0.936567
0.413352
0.438784
0.935349
0.796152
0.962441
1.17312
0.545774
0.435461
1.47705
0.436408
1.04093
0.967999
0.653464
0.393348
1.49795
1.39733
1.33141
0.771742
0.844711
1.34041
1.20727
1.02482
0.942881
1.07208
1.08096
0.47665
0.499846
1.25873
0.790403
1.19081
0.83656
1.24704
1.30693
1.01384
1.36679
1.15951
1.01592
0.696292
0.319967
1.25748
0.972395
1.37439
1.39799
0.572605
0.415473
0.319015
0.465701
0.893992
1.24257
0.443426
0.662365
0.371991
292 167
263 431
450 250
154 148
40 464
311 345
479 154
131 480
223 457
141 176
166 359
104 423
8 291
36 59
118 442
115 361
176 343
162 328
424 14
330 108
117 231
2 239
23 493
354 3
5 235
302 250
447 245
253 472
83 122
188 352
383 86
184 355
306 1
491 311
112 349
405 296
299 201
255 289
189 326
102 241
346 83
458 296
388 73
135 143
311 309
5 318
291 330
196 44
16 33
9 292
99 147
284 44
494 191
107 274
97 122
426 288
175 58
208 112
68 437
236 73
454 214
283 178
17 291
192 105
204 479
62 173
79 224
128 126
480 491
245 216
18225
1
