70
3
0 0 0
74 33 18
66 47 68
84 34 25
24 13 19
91 57 44
86 48 94
81 27 33
55 32 17
19 52 49
65 19 85
50 83 25
72 40 48
43 39 97
87 74 61
63 45 32
83 31 96
27 46 80
47 29 75
55 66 56
85 58 69
35 93 76
12 27 28
30 83 77
53 68 69
46 39 66
60 88 70
54 17 62
67 27 42
67 23 30
16 38 11
10 66 23
86 42 75
22 62 51
66 15 97
66 56 90
84 69 49
13 72 81
17 46 97
85 49 62
18 33 27
59 37 67
66 95 90
33 77 46
91 73 66
39 98 16
44 95 97
81 21 65
16 94 33
50 20 67
15 31 49
85 35 81
55 91 41
43 13 58
87 70 90
50 77 70
61 61 17
83 55 55
85 38 92
54 48 74
30 62 15
97 25 96
95 89 29
99 79 52
89 29 67
70 89 58
92 70 92
48 97 59
54 62 51
40 90 26
0.465117
1.84878
1.2233
0.970688
1.83087
0.685177
1.08806
1.31622
1.93015
0.607289
1.59209
0.437973
1.53346
0.707718
0.859878
1.70553
0.871758
0.706222
1.43074
1.87248
1.37261
1.00177
1.2911
1.29991
0.673243
1.05148
1.46305
0.706366
1.32672
1.53333
1.7684
1.27515
0.538756
0.915951
0.42902
1.15689
1.64665
1.03733
0.634262
1.07476
1.51924
0.990194
1.91213
1.08776
1.73095
0.525704
1.48835
1.42887
0.808507
1.56799
0.950663
1.74043
0.807915
1.13505
1.17196
1.57675
1.47195
0.531065
1.0104
1.87234
1.07693
0.737979
1.96541
1.00987
0.63899
0.593287
0.564845
0.885913
0.432031
0.459233
271 391
179 109
52 296
120 329
214 219
416 159
262 170
481 144
294 473
202 5
193 473
417 195
216 196
412 330
448 225
33 250
219 23
166 416
212 281
486 46
139 446
252 405
423 388
431 52
305 22
93 263
153 457
382 238
219 393
385 308
145 473
58 234
103 189
318 63
368 383
430 179
4 430
431 274
399 483
146 459
216 253
12 0
195 170
290 211
271 169
240 259
284 431
204 104
77 130
466 463
264 359
467 258
438 326
217 399
259 207
495 101
77 55
279 388
304 238
101 385
255 95
389 375
95 44
461 40
231 221
311 410
204 340
484 119
197 136
215 190
9727.5
2
