70
3
0 0 0
40 18 22
47 72 85
37 68 52
87 79 88
56 91 53
63 75 23
40 96 34
78 25 78
99 55 52
23 39 99
22 27 51
15 93 72
83 49 91
73 56 47
23 13 92
50 22 36
67 100 52
41 12 88
64 78 67
28 96 53
33 27 60
42 88 58
81 57 47
11 55 76
44 71 76
67 46 24
14 28 87
17 23 70
22 65 75
97 78 87
80 43 28
65 59 34
15 45 23
25 47 30
41 85 70
73 31 89
10 16 57
76 68 75
24 25 45
91 12 19
64 67 30
29 37 57
16 96 66
39 80 66
17 38 22
30 38 44
88 87 74
81 20 90
65 54 27
83 21 89
41 88 33
43 21 71
10 92 97
21 75 75
55 48 63
61 25 12
83 74 81
56 40 48
84 44 26
79 35 83
98 23 83
38 23 11
13 61 62
38 61 20
45 51 88
13 51 86
32 54 31
80 13 11
69 35 99
0.421989
0.997238
0.671233
0.890982
0.738849
0.335559
1.38267
0.425653
1.3632
1.13618
0.824357
0.53308
0.502506
1.25923
0.724513
1.0958
0.493607
0.781332
0.729375
0.697769
1.30885
0.763777
0.463272
0.425064
1.11191
0.712697
0.801528
0.762481
0.332251
1.3512
0.430285
0.331215
1.36708
0.706075
1.36251
0.770812
1.12116
0.531668
0.463634
0.421324
0.395542
1.38783
1.01634
1.42233
0.427231
0.761077
1.08379
0.853924
1.19874
0.63001
1.42043
1.33492
0.853478
0.679999
0.306838
0.776065
0.319012
0.947695
1.09554
0.856524
1.06507
1.43283
0.921609
0.74657
0.325836
0.329163
0.407297
0.818732
0.324288
0.672545
279 15
88 485
442 187
348 234
341 13
137 173
34 357
401 208
459 182
420 24
84 336
402 31
236 233
24 225
384 326
229 34
446 16
320 453
171 386
440 374
329 386
197 120
438 419
480 77
448 421
323 155
86 73
366 440
279 136
191 410
18 241
486 289
8 96
434 382
22 14
98 112
28 21
340 161
482 451
225 2
494 253
301 408
76 112
339 402
156 187
246 350
252 270
113 409
148 268
410 199
443 396
196 36
150 77
19 74
363 39
324 16
113 202
27 366
437 139
237 38
153 145
56 70
295 486
268 400
75 412
230 133
10 326
181 407
187 297
268 60
18380
1
