70
3
0 0 0
34 63 10
37 78 71
46 74 93
80 84 16
14 57 27
27 66 30
73 22 61
14 60 58
83 59 65
13 51 100
48 52 44
20 89 12
92 55 42
82 61 31
50 47 63
80 75 35
71 37 39
54 28 42
54 99 65
78 24 75
83 62 10
80 34 85
60 35 17
64 13 97
23 96 93
31 32 14
70 98 88
91 21 64
76 32 14
98 17 33
67 82 18
44 76 59
52 12 95
24 97 14
66 45 47
87 92 70
80 98 80
60 50 13
12 79 33
68 82 15
80 37 93
26 95 10
82 60 88
25 97 39
92 100 77
94 80 15
26 30 16
26 28 21
58 45 36
17 47 63
34 33 44
43 58 75
43 11 89
47 44 81
74 91 21
80 70 99
56 11 17
66 52 22
40 55 44
16 98 37
45 67 10
88 63 82
72 41 27
83 33 83
43 42 31
37 41 74
48 23 66
92 67 51
74 60 73
0.307271
0.132249
0.207149
0.127764
0.178467
0.163744
0.222883
0.40135
0.496604
0.146894
0.112099
0.232651
0.409205
0.240366
0.31128
0.461081
0.112393
0.163051
0.307165
0.201403
0.4274
0.417852
0.136005
0.268747
0.128602
0.349594
0.213698
0.476713
0.215922
0.100517
0.432522
0.300024
0.203543
0.375288
0.1547
0.387411
0.38557
0.269401
0.208935
0.200084
0.291898
0.193454
0.374558
0.125886
0.347454
0.302343
0.241597
0.179739
0.182998
0.456148
0.452733
0.255922
0.439032
0.476721
0.34744
0.367037
0.447134
0.413357
0.469239
0.135577
0.334206
0.464795
0.329784
0.46232
0.459086
0.338813
0.170512
0.38303
0.400724
0.159549
452 300
284 67
482 205
405 442
405 39
74 243
246 11
269 267
86 494
353 178
196 158
221 93
486 383
376 345
379 195
82 486
431 413
262 380
295 376
487 431
495 150
44 284
452 117
249 199
448 211
65 311
322 210
239 98
101 275
175 373
330 437
36 412
115 144
1 161
10 496
431 95
10 18
373 38
4 414
397 494
67 367
241 424
313 444
145 82
136 427
359 385
120 199
245 499
31 5
440 488
474 36
124 84
472 481
60 4
77 399
78 408
283 387
169 221
463 164
443 90
14 421
52 337
148 349
171 80
297 378
18 261
41 115
248 333
55 320
323 473
4677.5
4
