70
5
0 0 0 0 0
63 87 52 65 64
34 70 19 61 40
83 100 19 50 57
91 64 79 50 17
12 34 31 58 84
77 80 80 27 54
43 52 42 84 57
43 66 43 12 94
72 82 13 70 74
24 53 41 73 68
11 42 30 15 95
81 62 32 70 84
48 81 28 98 98
50 49 84 71 32
49 75 29 31 26
32 16 17 36 74
31 62 44 51 24
40 19 82 17 53
56 50 76 57 70
65 32 46 27 35
26 43 76 18 85
21 79 56 36 75
94 84 80 22 24
38 53 91 25 30
25 100 44 58 21
96 39 58 35 15
23 45 37 76 100
33 39 86 58 49
87 82 33 60 98
25 36 35 73 80
74 82 75 96 97
15 70 65 39 51
15 41 26 84 58
78 72 98 30 69
82 21 82 54 56
50 39 44 30 78
57 28 56 82 31
85 95 59 78 22
24 47 30 40 22
12 68 99 35 45
72 17 35 50 35
83 59 68 27 97
37 58 36 70 30
63 42 20 10 75
33 34 88 65 10
43 90 50 12 46
52 45 42 37 13
30 93 52 77 33
54 46 24 46 71
39 58 60 15 89
58 78 51 11 64
31 10 40 96 63
48 67 57 87 30
48 57 17 56 45
84 27 40 59 83
42 91 28 27 25
23 86 29 98 54
88 25 59 78 15
94 77 28 100 74
13 27 18 44 100
67 20 64 22 70
90 42 17 31 86
33 23 95 99 89
58 12 31 32 51
85 70 43 67 15
66 79 71 51 13
33 78 28 69 80
64 36 38 40 83
73 32 75 84 55
1.08739
0.578262
0.728143
1.19854
0.833366
0.81024
1.4899
0.543786
1.09864
0.760773
1.28277
0.556109
0.833924
1.05828
1.11458
0.44305
0.879607
0.486561
1.03444
1.23568
0.564393
1.2021
0.572468
0.579341
1.38996
1.19536
1.05499
1.46538
1.22431
0.957592
1.23455
1.4158
1.31505
0.39674
1.16633
0.644544
0.854691
0.881124
1.3225
0.43742
0.539687
1.06222
0.809825
0.896496
1.36204
1.3503
1.28398
0.367565
0.83959
0.360261
0.483961
1.10604
0.648029
0.409463
0.878065
0.377386
1.42953
0.617792
0.424142
0.841523
0.710267
0.561903
1.06489
1.01112
0.303629
1.17279
1.39924
0.396903
0.424273
1.44886
484 324
257 421
456 340
369 281
243 120
208 435
236 353
490 229
157 308
56 352
457 7
88 36
374 218
108 259
381 437
451 260
410 227
155 297
383 298
25 44
330 370
4 339
356 459
41 433
66 481
441 500
125 372
46 375
333 16
22 453
441 126
69 352
79 154
293 142
424 267
60 490
117 449
371 198
14 364
435 32
321 381
324 40
417 197
381 24
474 9
476 142
338 315
42 243
448 265
58 4
232 269
306 264
110 375
72 221
494 292
131 35
447 225
278 167
112 329
384 110
307 349
86 270
125 155
407 495
304 93
358 433
137 458
253 13
426 131
205 372
18320
1
