70
5
0 0 0 0 0
79 39 84 11 47
75 16 22 19 11
78 94 63 87 37
29 55 37 28 67
17 51 22 82 37
61 37 74 15 66
93 89 45 25 32
27 63 97 19 90
11 32 38 84 47
29 11 76 80 85
79 18 59 69 34
73 79 47 55 46
73 90 45 70 91
43 93 11 45 23
62 18 38 11 47
59 18 36 60 22
35 12 82 92 36
54 99 69 93 11
72 78 21 82 79
92 91 22 94 88
10 86 74 62 86
67 44 66 27 18
16 29 56 42 78
78 40 39 65 84
23 76 48 62 98
32 79 70 83 75
29 50 74 81 56
17 47 42 24 13
66 20 87 67 56
90 68 96 85 18
63 68 48 47 98
76 58 46 86 95
21 40 61 26 14
59 16 20 83 23
10 57 62 37 73
87 77 37 82 41
89 17 91 30 87
17 35 37 29 40
59 80 78 81 96
96 22 44 87 95
22 55 18 34 20
44 70 92 32 54
78 95 22 32 95
50 68 34 35 80
29 70 10 48 23
29 60 27 62 75
53 92 65 72 86
37 27 93 17 81
11 55 26 46 94
99 41 85 49 51
23 91 99 53 81
13 94 61 77 85
97 21 98 38 88
61 48 23 82 89
21 65 38 41 65
12 40 21 57 32
94 48 44 54 80
11 76 53 58 46
19 17 36 72 92
12 38 32 22 14
71 94 23 61 46
34 95 90 86 25
95 55 35 59 37
56 25 96 19 43
28 13 32 16 37
74 16 54 26 15
79 72 94 57 85
96 85 28 100 28
26 48 10 30 42
0.911062
1.48553
1.30775
1.06006
1.40554
0.815438
1.1179
1.10992
1.32944
1.47056
1.0627
1.19874
0.351021
1.08896
0.303907
0.425495
1.16237
1.13048
1.05182
0.750769
1.44215
0.486206
1.07851
1.08461
1.02719
0.535775
0.50276
0.573343
0.987817
1.05307
0.448874
0.675953
1.05672
0.311612
0.815381
0.960943
1.04426
0.344625
0.594837
0.547055
1.16643
0.908438
1.28059
1.18845
1.48572
1.2794
0.763482
0.959363
1.46203
1.23695
0.692251
0.573046
0.892965
0.326203
0.785412
0.845551
0.882868
0.34359
0.63996
1.45293
0.459981
0.750785
1.33338
1.39734
1.36374
0.851252
1.04973
1.36535
1.27268
1.24366
272 84
321 406
94 465
0 405
406 228
80 29
225 77
371 151
29 257
61 177
296 91
360 499
245 225
59 37
5 487
240 191
449 21
288 140
24 305
20 346
152 111
78 169
450 161
93 47
431 28
349 393
438 216
330 275
435 171
188 260
204 353
166 378
229 14
92 407
456 323
376 226
416 341
485 4
19 61
396 286
270 366
198 271
218 471
191 0
443 151
332 133
348 0
493 116
33 312
272 43
351 174
137 30
196 149
328 476
258 286
61 324
491 390
293 44
319 58
112 219
471 263
174 71
19 179
319 448
469 356
200 201
251 297
270 275
432 271
441 448
9280
2
