70
7
0 0 0 0 0 0 0
11 17 60 80 68 47 46
42 85 37 16 17 81 14
66 40 25 52 76 73 94
54 79 54 56 43 68 99
98 43 53 68 70 83 74
30 19 85 76 29 15 82
98 69 74 76 72 33 57
53 58 93 57 33 95 100
77 41 61 57 57 73 71
43 67 47 50 32 24 21
50 10 12 55 98 79 34
41 91 20 42 29 58 18
95 19 90 50 20 68 12
23 66 81 50 10 81 93
13 46 79 96 87 74 96
56 100 84 37 36 68 71
57 77 14 16 87 94 41
24 34 65 96 74 42 69
61 60 94 93 19 13 33
46 43 93 37 76 10 82
20 60 14 19 93 27 53
73 32 35 78 61 22 53
15 95 53 34 41 20 27
28 55 33 46 29 22 65
43 51 80 29 51 92 13
77 47 77 38 94 58 50
64 61 41 73 31 36 11
87 82 20 37 43 44 10
41 16 87 62 18 10 10
38 94 11 83 53 29 22
60 84 21 57 45 82 88
63 79 89 69 48 63 40
15 70 62 64 40 100 49
41 49 64 38 50 84 95
27 100 67 55 16 96 50
40 47 88 96 51 87 92
20 87 76 28 61 99 27
58 25 65 53 57 49 85
66 75 41 11 27 31 55
27 60 94 31 39 97 87
99 51 15 24 68 86 54
25 48 62 78 42 33 39
93 55 55 54 67 65 71
46 16 25 80 50 31 47
69 58 22 26 37 48 10
99 87 93 14 25 93 73
17 69 34 67 51 25 22
49 84 80 97 11 16 61
42 30 56 39 18 10 56
31 70 11 85 61 80 15
77 60 92 71 49 63 38
20 14 51 31 95 67 96
98 43 22 86 83 90 86
41 65 28 40 29 29 31
57 46 68 88 90 59 38
61 91 52 36 16 86 27
41 80 95 100 71 85 47
83 74 90 41 15 62 81
36 71 40 38 56 44 36
14 30 14 22 36 77 46
98 93 50 74 21 90 34
41 12 66 49 87 48 15
78 95 80 94 70 68 18
33 37 98 97 88 43 68
73 99 14 55 34 27 48
76 33 34 17 52 95 70
41 81 53 87 94 51 41
57 42 90 31 13 59 64
57 76 22 19 32 99 93
0.257972
0.441756
0.358136
0.345378
0.343405
0.279149
0.147286
0.457457
0.229099
0.495869
0.2294
0.369132
0.255824
0.322794
0.122932
0.101614
0.295418
0.33824
0.238235
0.400751
0.377447
0.459465
0.116761
0.315544
0.388604
0.199782
0.42901
0.444445
0.148485
0.323535
0.353787
0.107376
0.361145
0.210125
0.481892
0.471163
0.218205
0.289112
0.286604
0.278511
0.181832
0.370574
0.270298
0.488306
0.452933
0.48457
0.465646
0.427557
0.215525
0.171919
0.431539
0.489726
0.226754
0.173837
0.363402
0.363147
0.385897
0.432931
0.108331
0.40167
0.131663
0.32938
0.405764
0.403429
0.457915
0.444324
0.214297
0.203025
0.103444
0.142134
495 27
114 423
252 303
155 310
200 23
188 44
175 11
119 258
491 234
288 146
13 223
1 169
136 329
72 288
394 487
445 207
213 446
159 270
159 269
247 275
454 82
152 492
493 480
216 193
81 90
222 452
258 320
203 210
1 297
225 499
94 305
109 8
290 344
458 24
414 59
57 366
9 324
66 298
134 422
458 359
286 335
162 41
297 48
231 32
197 349
336 106
128 209
317 160
105 374
442 106
272 174
424 133
392 93
199 150
304 332
155 202
66 64
34 140
318 194
239 306
456 150
185 454
137 37
121 439
319 341
29 490
22 451
284 185
272 138
260 111
4713.75
4
