70
9
0 0 0 0 0 0 0 0 0
43 94 24 76 95 72 21 68 46
16 99 55 32 98 87 70 72 18
23 76 81 47 82 86 17 56 61
47 52 51 48 49 29 30 53 14
21 77 40 91 32 34 85 21 23
51 79 94 94 20 23 64 74 69
88 80 73 34 10 68 100 18 34
97 53 56 91 46 22 48 46 43
99 80 65 15 81 71 100 69 70
45 98 83 33 16 11 40 100 84
82 21 42 56 51 88 37 73 64
72 33 48 73 52 72 35 100 65
23 11 40 90 79 62 24 52 22
64 11 40 63 58 67 59 80 84
70 72 60 78 41 76 35 44 44
19 15 57 33 56 28 68 21 38
56 13 42 48 52 89 92 67 27
74 23 62 16 26 96 66 12 98
27 94 28 73 32 62 97 74 90
32 69 85 45 17 11 39 74 96
30 17 71 11 25 54 23 57 68
87 88 74 40 40 10 39 56 97
82 36 19 36 76 20 75 47 66
92 39 39 89 56 23 22 17 74
10 21 68 91 33 96 59 75 15
10 52 86 72 80 87 76 19 57
86 18 71 95 90 13 53 30 81
76 98 37 59 48 16 41 48 16
94 61 19 50 91 23 14 92 56
66 76 51 97 90 86 54 45 81
94 42 66 24 44 35 44 13 79
34 35 25 44 63 40 83 69 19
79 43 40 94 55 93 96 49 23
66 50 14 68 48 49 18 44 67
79 44 50 78 34 39 17 76 59
32 93 35 77 49 97 17 69 89
21 62 49 19 51 66 30 80 68
100 72 73 37 18 63 83 53 73
12 35 66 46 93 29 84 29 40
18 54 10 54 26 26 82 75 88
79 28 83 24 45 65 43 79 66
47 58 82 40 94 98 85 18 59
98 71 59 89 92 36 60 91 31
84 73 83 70 84 86 30 75 67
89 87 80 57 85 81 95 100 29
80 46 63 43 77 40 30 14 14
82 98 58 96 26 35 12 21 24
28 92 60 55 61 98 92 48 94
50 29 37 46 29 79 36 43 92
92 94 39 55 37 80 34 10 60
24 72 38 46 98 63 89 52 59
59 46 55 69 48 47 22 11 13
17 84 93 95 72 22 77 82 72
56 96 79 99 43 32 35 33 64
75 40 51 80 36 60 42 43 84
56 12 62 17 77 33 78 55 99
55 71 58 11 95 56 43 56 55
25 10 47 73 66 30 35 98 71
30 18 88 49 80 59 52 20 95
19 95 31 93 24 57 47 65 18
44 76 88 39 53 99 32 14 50
91 70 30 20 51 68 82 53 32
43 56 10 60 39 13 56 98 33
88 17 55 10 25 81 21 88 21
21 22 42 91 43 24 61 89 95
39 33 67 77 39 47 63 79 94
66 56 81 18 39 93 84 35 99
44 64 10 49 86 100 14 22 60
69 63 32 47 24 11 47 88 45
1.45334
1.26302
0.346429
0.704874
0.667774
1.49295
1.00235
1.0689
0.737391
1.08632
1.38908
0.690976
0.34634
0.828928
1.09839
1.11421
1.40446
0.38413
0.349267
0.815699
1.38683
0.929114
0.608553
0.383872
1.49348
1.00478
0.34626
0.425037
0.873402
1.48823
1.36383
1.31427
0.555264
1.11054
1.30127
1.4017
1.17365
0.950599
1.38903
0.483694
0.463079
1.26202
0.911208
0.434404
0.524313
1.31816
0.801291
1.04184
1.02357
1.04977
0.770845
0.41064
1.09785
1.46793
0.335228
1.48184
0.780493
0.349283
1.3227
0.658352
0.929765
0.639091
1.03513
0.613376
1.14371
1.28423
1.04181
1.11531
0.850368
1.39374
97 285
359 36
58 272
391 405
291 153
456 434
437 164
294 299
306 37
468 343
127 426
334 26
69 130
349 441
56 306
480 298
447 440
407 325
489 287
349 274
453 100
101 375
446 395
473 124
495 370
30 344
418 85
137 340
371 476
226 206
142 238
163 18
34 205
370 240
483 224
336 322
378 123
38 281
334 81
381 169
493 174
441 314
369 322
317 276
365 258
93 194
248 341
403 49
3 426
201 490
107 215
245 165
299 217
407 350
294 48
498 425
7 130
29 236
411 333
78 166
453 263
12 379
267 324
81 483
43 260
190 276
321 24
298 285
88 417
375 488
19125
1
