70
11
0 0 0 0 0 0 0 0 0 0 0
52 71 87 65 84 58 93 49 68 20 16
11 31 87 63 48 90 63 37 75 58 12
79 72 28 66 70 56 62 85 65 65 33
32 41 12 86 54 100 28 54 36 22 72
12 26 51 98 89 82 36 75 58 69 48
48 35 85 43 91 59 84 44 96 86 57
74 43 100 51 36 58 22 90 25 89 40
100 56 97 88 74 81 14 27 11 31 14
19 23 15 90 47 62 62 98 96 25 37
12 37 48 84 97 27 56 56 25 82 73
74 90 25 65 69 57 100 67 77 28 12
38 15 66 38 74 31 85 42 82 14 59
52 76 91 68 72 17 52 47 78 91 22
52 66 66 41 56 30 34 24 81 46 17
92 79 66 66 93 69 14 81 94 67 65
29 88 30 41 88 14 54 81 20 74 56
28 65 78 59 38 60 70 97 60 49 60
80 72 36 98 86 69 85 20 48 19 91
99 55 47 26 24 17 38 59 59 71 48
86 12 17 16 37 28 45 66 18 26 100
74 46 66 98 60 95 16 27 28 79 57
43 57 10 71 60 12 68 84 64 24 43
62 28 69 67 20 59 31 81 19 71 95
76 55 97 86 70 62 60 52 90 66 100
75 62 81 32 92 91 66 20 85 14 37
85 51 84 76 51 51 65 63 26 70 49
18 51 83 100 27 73 100 38 10 86 48
33 55 25 32 50 64 84 93 88 14 13
64 34 10 14 56 36 34 38 34 19 10
51 49 98 62 69 55 98 14 24 74 71
87 91 97 15 94 73 94 68 46 21 96
40 65 61 12 32 26 92 50 44 90 34
12 61 34 58 75 66 60 96 17 76 90
61 11 98 78 25 62 10 94 65 38 42
22 66 26 33 88 24 25 22 41 70 46
40 44 20 88 16 25 93 85 84 15 19
97 79 88 75 99 65 42 60 85 34 99
89 29 14 63 51 98 18 82 72 16 64
29 37 23 36 61 100 40 49 16 12 67
29 63 22 47 39 83 92 38 100 30 47
95 86 44 81 12 35 99 45 83 51 90
88 18 20 21 76 55 43 83 75 78 59
22 71 66 88 99 54 20 89 61 45 70
82 96 69 67 31 27 39 44 86 71 82
100 36 76 20 41 31 65 50 21 49 60
61 31 67 75 33 43 78 54 70 79 82
26 17 68 62 94 79 85 15 26 77 95
59 69 18 88 31 34 25 93 50 66 34
64 60 85 58 68 33 20 63 90 99 58
21 71 99 22 80 47 64 89 99 63 68
63 26 14 75 30 74 92 94 64 81 80
44 100 64 80 59 78 98 39 67 35 85
77 75 42 96 53 10 91 94 82 84 12
29 94 68 59 45 73 24 52 66 47 33
37 81 22 20 25 76 76 27 48 81 35
56 70 48 14 32 48 21 10 33 38 24
32 94 63 25 80 84 89 44 36 25 38
46 41 30 100 74 43 100 32 35 81 57
41 87 22 33 23 65 90 41 29 21 66
90 63 23 59 27 96 63 96 26 49 96
70 35 61 61 64 77 49 35 37 36 38
26 42 69 43 18 27 11 96 91 16 85
62 87 62 62 39 37 46 56 10 65 97
62 12 54 11 84 30 21 49 76 69 38
17 67 89 67 69 12 57 22 59 45 51
80 65 35 76 11 14 17 45 44 80 57
77 86 16 87 64 98 16 13 21 49 78
74 47 77 64 77 95 16 95 20 66 68
46 100 17 73 89 11 74 61 44 35 76
0.870107
1.28386
0.370312
1.3598
0.795895
1.36214
0.995764
1.24452
0.563844
0.658892
0.58561
0.525144
0.328128
0.949556
1.3507
0.755188
1.18263
0.657582
1.10407
1.10083
1.02093
0.960786
1.09892
0.800573
0.507655
1.09461
0.846162
1.46873
0.64388
0.34886
1.30562
1.02727
0.966583
1.06271
1.24037
0.696324
1.29365
0.61647
0.475129
0.918312
0.375324
0.442968
0.99342
0.682532
0.688646
0.985726
0.791167
0.305603
0.699591
1.26625
0.719516
1.34361
1.0298
1.00034
0.474382
0.65387
0.615132
0.92759
1.08533
0.390389
1.0374
1.27614
0.928584
1.38052
0.595901
1.15381
1.25503
0.358359
1.04802
0.726557
35 315
227 356
295 144
200 171
269 459
404 271
103 0
289 167
421 298
86 349
315 315
298 320
489 243
275 401
213 112
359 486
367 41
358 244
28 312
207 98
425 403
475 0
181 326
284 127
466 182
295 260
72 353
100 265
485 382
484 55
176 53
21 236
164 184
350 248
397 68
162 386
159 72
14 8
388 386
292 22
342 367
495 490
153 357
41 432
472 223
113 336
105 237
439 146
125 331
52 367
292 294
179 32
347 341
252 41
476 392
307 162
84 345
223 2
486 344
110 278
165 328
245 406
252 21
318 243
248 397
148 189
479 299
150 263
34 240
5 169
6423.33
3
