70
9
0 0 0 0 0 0 0 0 0
73 57 75 16 49 100 35 63 78
77 64 37 14 20 93 19 50 12
17 92 87 76 100 24 42 94 64
17 30 81 29 77 42 73 39 61
29 85 28 17 66 81 96 45 86
78 62 27 24 72 88 76 40 88
83 25 43 67 23 47 29 33 42
95 76 96 51 49 87 98 80 73
37 88 84 61 51 42 26 75 20
12 54 99 33 65 85 66 100 32
65 17 74 39 48 78 65 100 55
27 28 22 22 65 61 74 100 82
20 24 54 34 93 65 13 95 80
26 10 81 38 95 89 28 47 100
88 40 46 28 83 97 70 40 87
98 62 92 62 58 23 19 28 36
85 23 63 84 90 44 46 20 28
61 79 14 27 83 55 35 72 66
62 47 93 48 76 32 30 67 73
29 80 77 85 14 54 53 33 33
19 32 20 82 65 33 65 46 15
73 69 42 66 77 75 73 94 67
40 58 69 21 62 19 88 30 97
84 39 50 30 74 35 46 60 75
26 50 29 42 75 44 31 24 20
35 42 12 33 27 73 11 31 44
58 56 87 74 85 46 29 87 34
56 38 45 89 33 93 34 47 47
91 28 48 86 98 46 17 75 38
64 96 97 29 12 81 91 32 98
44 27 21 68 83 25 85 82 33
88 48 17 72 28 86 13 37 35
45 63 32 84 43 58 83 10 77
37 69 28 96 10 40 77 99 96
19 59 89 42 36 62 43 93 30
94 97 11 58 87 74 15 22 61
67 87 17 77 83 76 13 19 62
44 15 29 68 27 70 84 90 39
55 100 28 34 34 37 51 71 69
63 86 53 19 85 41 15 20 73
98 68 55 66 39 20 15 40 30
46 94 41 50 23 95 57 44 80
65 100 12 67 48 60 47 85 53
49 87 58 90 65 12 25 92 78
44 33 80 29 93 70 96 72 95
97 37 40 74 53 93 29 65 65
72 26 60 33 91 27 18 59 55
37 67 53 32 83 11 42 85 86
100 61 47 29 81 41 54 76 63
19 30 83 44 50 86 23 100 50
42 44 24 21 65 57 51 19 63
39 70 12 92 11 12 65 54 70
30 27 61 49 49 70 60 11 17
49 55 18 69 53 78 36 61 44
84 75 79 55 86 50 10 46 41
25 42 99 88 100 19 56 16 63
75 37 27 76 66 66 54 11 83
50 49 92 96 43 19 71 87 39
52 27 55 33 65 59 88 33 74
37 73 53 61 96 31 45 39 50
82 76 70 17 27 84 34 84 38
57 44 50 55 75 68 90 10 86
47 46 46 72 72 71 62 67 25
16 60 12 56 18 80 23 35 68
48 92 82 36 98 14 96 65 14
53 41 100 54 48 58 34 17 56
53 59 78 54 61 64 26 94 100
95 12 97 73 55 55 10 73 29
10 76 49 62 52 83 59 43 58
1.14245
1.08759
1.54706
0.720813
0.543855
1.33458
1.5767
1.97542
0.898526
0.773224
0.603482
1.07448
0.623604
1.65286
0.982683
1.13125
1.69618
0.556556
0.83118
0.530708
1.58796
0.495236
1.42356
1.92846
1.55994
1.6818
1.18044
1.67647
1.25316
1.85821
0.660613
1.90257
0.459142
0.658076
1.45016
1.13003
0.784259
0.40335
1.21141
1.64577
1.21157
1.56095
0.609184
0.806358
0.748288
1.60613
0.545848
1.09792
1.34044
1.14137
1.97292
0.78596
0.726674
0.945987
1.87601
1.59197
1.66141
1.77316
0.815307
0.749965
1.92465
1.78299
1.18556
0.649317
1.45703
1.70081
1.06567
1.96743
0.469835
1.61773
6 125
266 303
0 322
281 184
312 149
66 108
276 254
443 195
145 495
441 22
266 440
464 44
233 393
330 91
312 419
121 153
72 209
350 209
283 88
384 130
414 379
429 168
269 21
369 69
118 193
149 146
182 55
351 463
213 101
199 436
85 431
42 403
292 284
259 421
290 466
163 412
85 423
406 432
155 13
480 306
201 187
66 102
139 489
299 80
212 192
107 427
197 450
279 301
443 172
330 390
241 78
58 185
136 8
4 196
143 161
268 435
139 368
487 188
490 500
32 197
267 492
253 349
83 313
248 132
173 360
102 336
107 433
351 64
121 147
307 5
4757.5
4
