70
3
0 0 0
78 61 28
52 69 95
71 27 82
32 27 94
75 20 83
16 49 53
59 11 30
73 61 36
48 10 40
84 35 17
38 99 63
23 58 59
56 13 48
80 16 95
10 24 45
94 90 64
46 99 91
22 41 27
48 57 42
53 32 36
10 82 25
27 41 55
35 57 24
39 37 77
91 34 26
28 25 26
71 67 13
48 54 12
90 20 28
94 82 53
29 81 75
20 45 56
88 46 42
92 61 90
13 30 73
19 22 19
54 24 50
52 11 42
48 90 46
69 66 41
43 44 40
91 68 51
61 82 71
62 78 85
100 45 85
76 29 80
47 39 82
63 38 20
75 56 83
61 28 71
45 39 20
50 96 51
68 73 67
55 100 17
13 70 43
97 25 98
72 41 71
27 16 90
38 57 47
93 42 30
64 80 25
90 55 17
79 92 53
53 16 59
74 24 32
57 58 52
44 35 66
24 76 41
53 68 24
0.526757
0.863646
0.602113
1.83892
0.400045
1.00575
1.02407
0.77505
1.99679
0.607058
1.20656
0.899157
1.68204
1.05206
1.96068
0.525911
0.635456
0.627965
1.00318
0.997729
1.26561
1.65556
1.20545
0.793573
1.29444
0.710125
1.6759
0.573059
1.15493
1.94421
1.01835
1.18341
1.18808
1.45338
0.999744
0.862013
1.44566
0.761331
1.41631
1.1735
1.69311
1.38368
0.584604
1.56568
1.34301
1.42761
1.01353
1.13126
1.74457
1.55492
0.430261
0.87326
0.459008
0.615176
1.93647
0.878008
0.916005
0.798967
0.773396
1.50074
0.554814
1.07169
1.22531
1.48255
1.04331
0.87077
1.35461
0.998073
1.40149
1.31019
375 319
79 278
462 119
166 402
126 422
464 207
397 236
312 140
402 35
338 248
85 481
190 142
404 312
49 477
119 11
239 257
25 130
212 245
470 319
13 169
0 341
120 398
52 88
33 498
430 58
439 372
386 336
274 463
64 208
487 144
223 35
437 145
354 88
212 436
7 28
11 127
56 268
273 183
26 196
436 484
494 180
307 426
299 368
127 140
58 301
396 284
407 331
400 317
117 203
427 273
355 152
446 156
121 99
230 423
35 146
2 163
342 190
346 227
146 327
58 105
248 426
27 355
409 191
422 364
269 66
5 61
243 400
401 483
377 105
345 91
6036.67
3
