70
3
0 0 0
27 80 89
87 67 21
99 91 98
91 90 28
49 66 89
89 43 63
48 76 31
14 99 96
89 93 22
50 73 59
37 34 44
97 27 40
59 71 23
49 32 86
89 82 72
66 68 67
56 10 54
72 68 66
68 38 80
12 18 25
15 42 76
26 34 22
67 80 56
77 62 53
21 17 92
27 67 53
83 62 41
22 88 45
11 28 24
75 15 15
14 35 13
48 44 12
94 66 39
86 90 100
64 26 52
31 95 27
53 33 69
27 26 80
96 13 90
65 57 68
36 24 95
88 19 15
44 36 80
20 29 82
13 90 94
91 50 56
38 94 53
13 15 94
20 33 46
92 52 66
67 25 73
51 77 14
89 64 16
64 35 71
86 53 82
39 78 88
41 81 33
17 92 25
90 10 81
26 84 12
97 56 48
72 35 57
57 28 33
31 22 94
25 45 91
27 17 71
14 43 94
23 55 39
94 32 60
0.376232
0.145917
0.160606
0.252021
0.32817
0.4316
0.411384
0.278767
0.472439
0.396907
0.448634
0.274539
0.300718
0.462934
0.26092
0.423194
0.472553
0.413018
0.290546
0.319902
0.340502
0.289804
0.446978
0.135052
0.36494
0.299591
0.46732
0.44837
0.122649
0.221256
0.343782
0.182135
0.156317
0.278065
0.164149
0.282019
0.455236
0.187218
0.25901
0.165463
0.237434
0.375634
0.327429
0.37022
0.497733
0.382568
0.311224
0.396902
0.296691
0.217653
0.1128
0.165062
0.365988
0.367913
0.130592
0.280374
0.409469
0.242286
0.40803
0.214897
0.118924
0.388807
0.432946
0.329719
0.14273
0.416348
0.482701
0.44692
0.325778
0.410564
213 299
311 491
383 316
110 231
260 77
379 335
476 497
172 50
8 28
278 156
466 402
285 405
126 296
384 301
140 44
78 226
457 110
120 66
49 22
394 272
491 34
348 299
323 461
12 5
77 320
11 58
481 53
428 116
312 51
297 175
32 183
485 375
489 72
399 309
234 372
452 164
124 51
370 410
80 447
437 259
246 213
352 245
404 425
239 214
224 181
118 270
238 145
427 142
281 73
72 484
24 265
472 411
375 351
50 439
433 490
373 150
56 6
455 208
468 117
355 204
373 39
406 222
116 12
248 199
309 71
278 143
328 241
433 343
364 60
296 462
18730
1
