70
7
0 0 0 0 0 0 0
99 100 81 31 34 56 53
65 34 75 12 85 50 42
49 67 24 98 67 62 37
28 89 91 87 71 73 78
96 41 66 88 10 50 15
41 18 81 52 46 31 94
81 62 62 11 79 26 14
90 75 34 19 65 78 20
11 79 18 46 24 98 19
18 77 52 36 48 66 66
66 35 64 33 16 14 74
81 96 68 75 34 14 34
53 10 67 14 42 81 65
64 13 65 18 60 11 12
21 69 28 34 87 94 98
24 24 45 44 12 72 91
64 70 93 19 84 47 80
15 96 53 67 60 47 90
88 57 29 46 47 71 67
12 70 87 57 26 50 21
56 71 96 22 94 41 87
48 65 49 30 31 64 46
87 85 58 63 90 13 97
38 91 59 53 60 38 90
74 28 57 96 64 26 53
71 12 46 69 21 46 100
17 51 64 67 61 14 68
49 11 90 33 20 58 17
28 11 52 48 47 11 70
11 71 100 72 97 58 84
12 82 100 24 84 29 26
55 53 50 39 86 63 29
29 22 31 24 88 42 98
22 57 72 40 35 92 47
46 88 20 61 16 73 36
94 49 11 95 66 68 98
90 95 27 16 82 21 30
80 47 94 10 83 12 74
88 50 58 77 60 65 70
94 89 22 98 93 12 53
37 15 28 17 43 59 82
41 36 76 52 41 92 45
74 18 84 25 96 53 59
33 95 57 38 24 55 50
65 85 27 51 46 44 51
86 18 11 30 31 86 70
43 57 86 12 49 10 50
81 73 34 98 54 53 84
84 17 39 71 75 92 95
48 45 40 83 18 89 52
81 78 14 93 95 97 75
38 57 26 13 49 84 20
93 34 47 35 17 84 42
32 33 43 32 33 76 66
15 80 88 89 55 18 13
87 45 62 30 65 12 47
29 84 37 15 23 98 23
37 39 68 67 43 96 55
71 77 66 64 70 45 46
80 65 46 24 21 28 91
69 38 32 61 79 98 16
43 92 16 89 22 41 41
64 78 99 98 28 32 67
97 52 61 60 93 35 96
67 23 63 61 85 56 39
100 55 69 74 65 13 70
12 17 26 89 45 99 65
71 99 37 92 42 34 70
74 86 35 81 34 65 31
1.09251
0.965617
0.955608
2.41186
2.05282
1.19999
1.01954
1.08768
1.73656
2.05113
2.27959
2.1972
1.44688
1.93619
1.91032
1.05269
0.800637
0.691483
0.941743
2.00006
2.33034
2.28974
1.74311
1.91829
2.14745
1.38483
1.85256
2.10321
1.57071
2.20495
0.807997
1.0111
0.984639
0.854891
2.3575
1.44616
1.76433
1.80816
1.69044
1.06131
0.594982
0.76672
1.69407
0.749846
1.22694
1.78257
1.99279
1.56419
0.71288
2.22891
0.659203
2.16345
0.529876
2.43373
2.12532
1.54917
1.051
0.50929
1.19952
2.07252
2.04479
1.79199
2.39408
0.92344
0.882074
0.848605
2.31854
2.14269
1.02804
1.22598
266 48
344 362
8 441
389 436
251 226
377 332
377 296
407 448
142 74
366 412
402 268
106 488
417 328
266 356
452 332
255 275
150 477
76 222
316 47
21 118
4 369
86 453
236 488
329 132
113 379
17 437
383 25
462 376
463 101
182 20
177 402
426 53
71 313
61 280
96 241
68 332
360 32
148 46
163 231
416 253
116 55
67 94
474 283
420 302
345 135
220 171
237 402
459 15
173 184
337 83
316 127
336 115
414 227
21 212
400 323
119 230
403 406
143 212
335 154
258 284
13 184
120 425
176 208
440 390
460 102
178 285
161 60
293 47
224 403
289 254
9457.5
2
