70
7
0 0 0 0 0 0 0
100 51 38 67 57 91 95
94 70 26 88 25 97 86
79 48 45 68 76 79 26
64 73 83 92 31 44 28
88 67 57 38 95 50 90
45 66 55 41 41 40 77
12 63 89 99 99 95 93
93 67 59 10 26 47 58
45 33 24 73 42 20 33
65 44 16 56 62 48 33
92 38 94 37 16 97 30
44 16 38 65 50 80 29
79 69 30 17 65 28 37
42 91 77 11 73 56 61
13 51 98 86 28 87 32
70 82 62 69 82 17 34
37 62 55 20 52 97 82
63 59 65 51 97 94 49
78 64 30 58 87 55 99
34 58 71 14 86 30 82
61 72 60 42 70 52 74
96 43 68 82 26 93 11
68 59 100 13 70 64 16
94 66 48 38 31 48 37
71 23 42 94 86 17 76
12 70 65 63 66 51 22
73 26 17 18 29 76 25
99 20 89 69 92 86 72
29 39 29 37 97 65 87
40 11 85 59 99 90 46
98 99 45 13 30 93 60
76 80 67 50 82 28 85
15 83 51 14 50 64 100
45 98 52 59 77 96 41
27 18 87 72 29 59 70
63 16 92 76 48 86 25
45 34 27 96 53 24 72
75 74 86 81 14 35 93
44 61 33 71 53 76 77
15 93 53 50 77 99 46
71 59 29 63 81 75 59
74 48 96 91 82 28 30
38 68 51 45 56 82 21
70 50 47 71 41 66 95
43 95 72 82 35 58 50
39 66 35 59 92 51 23
44 46 96 75 77 66 53
35 64 34 30 42 16 59
64 58 15 88 34 94 49
84 24 90 79 24 58 67
25 98 26 88 65 48 33
14 35 71 69 76 82 99
20 15 95 25 76 65 48
53 44 98 37 95 90 34
57 41 90 94 21 70 45
20 55 99 22 10 74 86
20 65 92 98 11 68 100
84 52 42 78 87 79 82
90 98 19 75 29 31 22
96 78 72 19 34 54 66
81 15 67 96 31 48 27
82 19 42 90 73 61 61
93 34 47 61 67 12 94
28 36 15 62 47 21 22
30 37 86 41 98 82 64
18 33 94 87 27 21 13
30 57 68 98 95 37 48
95 32 13 52 98 100 76
84 59 31 100 84 79 62
0.81481
1.96908
0.635047
1.05183
2.11131
1.09379
1.64159
1.51524
1.76697
0.823473
1.02667
1.47924
1.78219
1.89815
2.12135
1.91795
1.55925
1.53518
1.58243
1.41963
0.60857
1.86945
2.42628
2.0067
1.96142
1.69587
0.918159
0.920615
0.960357
1.5035
0.50966
1.14026
1.59739
1.5944
1.87944
1.50498
1.59726
2.25225
1.1698
0.920535
2.38858
1.97995
2.47336
2.49766
1.76757
2.0972
0.53293
1.86088
1.98022
2.45011
1.74626
1.43668
1.43257
0.835401
1.2715
1.22055
1.46976
1.77008
1.52183
1.92126
1.46212
1.80436
1.39683
1.79572
1.97708
0.57482
1.82749
1.7562
1.38692
1.81346
480 281
380 469
220 215
488 218
247 345
160 82
200 475
115 347
462 148
276 72
5 202
97 228
423 267
413 244
342 38
289 499
266 119
444 146
416 317
124 85
441 22
131 206
360 182
476 451
256 173
445 282
52 332
215 249
194 202
29 305
249 310
400 248
89 311
80 394
288 467
257 288
237 356
203 142
141 288
344 156
447 497
139 421
195 419
295 226
99 134
179 343
426 132
121 328
408 159
329 283
391 98
208 65
409 38
402 420
385 496
449 185
489 326
79 349
475 373
361 150
385 19
146 106
436 82
35 105
186 335
303 373
75 355
377 244
368 120
285 143
6685
3
