70
7
0 0 0 0 0 0 0
30 53 72 55 69 65 62
30 98 60 76 72 37 23
71 22 58 33 97 34 10
90 14 15 70 62 64 13
72 21 22 50 66 71 47
67 74 10 60 17 37 80
53 49 100 59 25 10 68
50 56 83 25 45 13 98
52 84 14 35 26 43 95
30 34 20 59 61 48 32
27 11 83 90 24 11 32
71 20 40 47 18 80 65
67 53 97 58 72 77 62
54 27 59 13 46 17 11
55 63 39 79 65 41 70
25 64 42 23 62 82 85
25 47 15 20 92 22 14
94 47 20 99 25 93 30
59 17 72 23 47 95 88
23 80 29 93 90 74 75
92 10 68 16 42 23 54
33 50 32 40 83 87 50
56 63 50 89 25 22 39
62 63 76 34 58 55 47
18 69 84 94 77 68 59
23 40 57 42 45 47 75
80 66 46 95 99 44 91
73 81 34 22 83 31 61
14 29 87 52 72 48 45
20 39 41 79 32 44 24
77 69 59 82 14 14 12
62 85 75 44 54 19 14
48 53 48 32 45 43 61
64 38 53 70 79 73 70
64 82 41 14 44 41 95
53 29 44 100 50 50 91
74 23 73 72 49 41 10
14 16 100 56 53 22 94
62 67 96 85 55 35 16
22 57 100 80 59 71 83
11 62 44 74 21 31 95
27 18 91 29 34 15 29
92 64 70 29 36 14 63
96 24 86 85 43 86 86
94 31 34 29 26 66 54
67 22 100 52 99 12 21
15 80 51 77 28 96 82
57 80 50 31 52 24 95
15 23 88 15 34 44 52
57 24 11 71 24 96 34
79 69 87 39 54 93 78
32 81 22 36 11 84 57
67 45 98 39 20 95 79
76 73 57 71 57 39 66
62 61 93 34 98 41 84
22 35 75 63 49 36 83
33 81 16 87 34 99 53
75 50 20 28 89 99 61
32 12 32 89 48 80 24
32 77 84 42 59 96 14
58 20 88 87 77 43 80
21 26 50 62 57 13 94
92 89 90 19 81 86 46
37 38 60 100 47 13 11
56 20 12 19 19 99 58
31 10 24 18 28 82 49
74 77 32 10 50 72 33
93 66 28 43 13 45 13
74 17 20 91 39 16 79
1.35597
0.956091
0.608794
1.21428
2.00501
1.21416
1.44002
2.47299
1.73709
1.3441
1.85752
1.43081
1.37975
1.31395
0.693681
0.524695
1.25117
1.12386
1.31411
0.524396
1.87316
0.516819
0.71036
1.87877
2.18479
1.57129
1.90928
0.785808
1.69274
1.04568
0.543519
2.28516
2.44366
2.49604
2.12464
1.66333
0.710057
1.90797
2.15411
2.0969
1.89084
0.790017
0.715533
2.09738
1.84398
0.618757
2.1554
1.58084
0.79902
1.69807
1.23756
1.04469
1.31168
0.868525
1.18207
0.564753
1.18952
2.30061
0.685032
0.704474
1.42209
1.84198
1.77129
1.59389
2.02555
0.985615
1.85876
0.783159
0.686643
2.04389
155 277
161 229
447 344
198 124
412 11
496 461
415 0
169 474
213 405
492 441
134 257
236 466
359 482
463 363
313 28
138 107
332 281
114 237
261 110
104 353
132 294
299 109
173 495
128 109
199 247
60 391
476 62
227 288
3 377
136 273
89 481
397 482
217 210
67 367
434 2
345 116
89 427
332 311
132 229
245 398
430 404
336 166
26 237
403 45
94 43
409 344
88 494
373 479
294 35
226 126
135 458
475 149
255 10
218 357
273 469
495 192
387 285
379 172
317 302
227 60
270 442
16 480
348 493
104 430
4 223
416 221
380 256
452 29
213 302
351 381
9102.5
2
