70
5
0 0 0 0 0
82 19 82 96 53
17 63 25 63 82
63 58 38 90 21
85 74 51 50 87
12 70 42 19 73
24 52 76 93 27
90 46 73 22 86
46 90 35 40 59
78 67 60 40 29
68 82 37 51 52
87 50 33 47 78
25 49 41 52 95
10 15 88 53 71
40 77 43 24 35
78 65 57 99 78
99 36 77 74 33
20 11 84 70 59
29 27 84 70 10
85 75 61 83 55
72 32 79 43 20
91 60 54 64 47
95 18 55 33 56
15 36 19 81 48
83 52 15 87 62
30 55 67 39 91
94 37 83 18 40
17 63 43 85 52
39 39 73 64 79
54 58 24 55 55
26 47 42 75 65
23 67 99 11 86
16 25 25 89 98
81 89 24 60 28
54 70 69 29 22
94 69 82 84 70
28 93 48 41 40
30 14 99 59 42
81 76 78 26 50
31 96 30 72 100
21 27 72 93 62
44 51 16 31 75
35 21 62 24 25
23 15 98 58 33
28 74 71 42 34
35 51 30 65 83
97 47 11 53 75
83 17 54 87 31
83 89 36 54 19
12 18 19 14 43
99 78 37 50 32
66 28 18 64 73
94 59 71 79 94
19 10 90 72 65
55 52 64 41 94
85 78 76 67 87
14 39 57 64 29
25 66 82 77 53
49 54 91 90 34
29 19 80 23 35
93 49 24 14 73
67 37 59 76 75
27 74 18 66 43
28 23 78 95 11
73 28 82 39 16
28 39 37 99 12
75 76 20 84 32
75 99 37 14 83
19 28 70 75 47
18 36 48 48 14
0.617837
0.650869
0.823818
0.513399
1.1776
0.668993
0.73576
0.649432
1.30683
1.33553
0.498188
0.986934
1.37036
1.37898
1.01426
1.22878
0.751688
1.27825
0.608993
0.918504
0.76556
1.31025
0.575159
0.750737
0.462119
1.1115
0.810003
1.20048
1.31147
0.514848
1.05082
0.446744
0.31435
1.24191
0.440537
1.2401
0.572426
0.736054
0.772489
0.851516
0.91664
0.493392
1.48435
0.98776
0.646721
0.58627
0.421257
1.48076
1.32502
0.659942
1.09163
0.469684
1.26673
0.690521
0.443348
1.05888
0.886136
0.66585
0.99457
1.29331
1.31677
1.08501
0.30179
1.44906
0.36123
0.706976
0.64455
0.792819
1.21168
1.08282
32 429
80 207
463 123
252 440
87 342
194 59
268 470
433 40
221 278
245 224
409 226
287 135
233 495
289 171
286 461
278 54
161 177
261 416
454 162
287 234
397 131
34 244
225 109
268 122
121 342
80 139
243 358
478 377
218 337
154 383
260 329
187 342
95 356
441 79
331 386
23 458
484 459
475 463
74 252
26 356
479 217
119 143
272 51
477 268
402 383
457 261
122 206
339 237
58 243
362 362
347 27
351 439
366 254
67 67
71 168
336 200
249 411
238 105
159 477
389 240
468 498
150 289
172 20
186 436
461 232
68 243
490 241
97 303
52 446
188 93
18620
1
