70
7
0 0 0 0 0 0 0
16 38 75 82 34 36 45
36 97 15 100 71 53 22
19 35 68 94 58 29 58
90 68 30 66 47 63 31
83 77 53 31 32 64 83
16 90 38 48 96 12 48
84 35 21 53 70 62 32
96 29 37 23 87 30 93
18 25 70 36 36 83 32
87 33 56 52 87 73 39
17 55 25 88 72 35 27
27 30 73 27 40 51 26
18 20 60 41 49 99 38
22 83 95 10 30 83 18
34 33 46 83 95 55 44
34 12 34 18 93 67 89
22 53 26 77 70 63 12
35 34 93 36 50 63 69
20 78 57 39 21 22 88
31 13 10 10 81 99 71
52 87 93 40 11 41 38
86 85 31 70 17 72 13
63 17 48 49 60 53 17
29 92 17 76 11 94 51
65 39 93 38 49 86 83
44 61 17 62 28 85 15
68 83 54 26 76 64 39
15 38 72 54 44 47 39
50 88 58 25 84 13 71
88 61 56 73 42 59 60
100 31 11 71 47 56 37
43 54 60 57 94 18 77
16 11 54 76 26 62 34
42 48 47 82 34 81 85
41 77 92 60 28 47 77
32 26 80 72 77 98 96
60 18 31 93 86 12 20
46 24 18 62 24 24 53
20 17 58 75 53 43 22
65 55 93 18 72 12 13
53 13 42 53 86 64 94
55 85 74 48 71 97 25
66 51 24 13 29 96 13
11 73 15 72 34 31 36
81 93 10 26 80 62 68
33 83 51 69 57 31 53
66 88 13 37 88 63 65
85 54 77 28 16 11 49
39 61 10 22 99 72 73
92 39 47 27 63 80 71
15 21 12 66 86 15 86
41 84 58 62 28 35 99
93 69 14 71 95 93 73
43 91 34 99 81 52 97
86 50 96 62 48 89 82
96 85 44 98 23 61 93
80 36 18 20 29 19 69
37 34 37 71 85 94 11
37 57 36 40 40 53 21
98 65 25 40 62 98 11
95 79 13 61 97 96 83
10 73 92 66 67 61 86
86 98 67 62 71 75 67
62 31 85 97 43 66 37
53 36 45 58 77 88 14
37 23 92 64 48 13 53
23 91 40 61 28 69 96
34 10 43 100 49 85 44
67 99 85 16 75 80 62
1.9769
0.673442
1.11697
1.77201
2.09251
1.47928
0.688288
2.34437
1.64287
1.46223
1.79268
0.900851
1.89735
1.51277
1.66812
1.82271
1.6904
1.70685
1.9922
1.09337
1.01942
1.28221
2.39547
1.31494
2.02478
2.29568
1.75015
1.68917
1.3887
2.24257
1.09871
0.776649
1.50073
0.645377
1.36196
2.03363
0.662941
2.03137
1.04766
1.78697
1.13525
0.963652
1.55632
1.973
2.08553
0.510763
0.838954
1.9447
2.442
2.29625
1.83139
1.46462
2.07775
2.41609
2.48645
1.04801
2.37982
1.87766
1.93608
1.39887
1.52771
2.0031
1.8749
2.26882
0.613831
2.3175
1.2477
0.624802
2.37336
2.20507
44 118
340 437
144 243
234 108
350 127
166 381
445 73
280 38
486 56
379 162
421 139
171 337
462 176
16 136
409 465
125 20
246 192
288 304
135 313
95 124
288 232
250 435
1 293
335 435
28 156
63 408
298 482
78 348
367 224
337 10
444 316
272 145
163 79
348 470
303 246
86 290
313 187
497 246
344 282
280 449
232 64
346 167
46 421
320 279
429 9
377 337
356 169
242 97
438 111
181 498
474 70
470 201
211 105
407 182
481 333
261 146
299 355
191 321
270 64
0 111
387 24
277 373
162 71
481 142
111 84
451 200
114 69
423 36
63 456
399 331
3717
5
