70
3
0 0 0
64 17 71
19 61 92
51 71 40
36 34 24
45 85 33
43 51 96
35 94 17
63 71 39
31 12 69
72 35 27
44 41 91
79 18 71
72 31 51
11 31 70
83 28 98
38 88 32
50 95 94
83 95 97
100 74 70
27 65 58
93 99 82
22 19 67
49 52 66
67 79 76
15 91 81
20 64 31
51 80 74
11 56 62
34 61 79
100 53 99
93 86 20
32 86 95
24 90 25
78 36 72
52 28 90
63 11 38
60 99 11
56 32 65
74 54 93
78 12 61
64 83 85
60 60 93
28 37 33
21 43 47
59 41 64
18 74 80
28 61 65
47 17 45
93 73 27
68 53 17
90 59 37
91 44 25
14 94 88
43 25 69
18 87 99
51 59 80
53 16 72
14 34 31
73 80 52
72 71 35
58 43 65
16 94 90
89 60 59
84 54 22
30 25 14
72 99 15
43 83 60
23 22 19
22 67 18
2.26347
1.28366
1.77582
2.2512
2.47112
1.4754
1.86852
1.58238
1.84557
1.38874
2.41071
1.7158
1.87257
2.37045
2.05932
1.87446
1.8814
2.49968
1.56405
1.69091
2.26658
1.70701
0.723071
1.8948
1.99195
1.0882
0.658944
1.65475
2.35888
1.45557
1.18255
2.09935
2.10395
1.2542
1.54168
2.24042
0.777117
0.90745
2.4262
1.4956
0.524912
1.46215
1.7949
1.58149
1.50539
2.31612
2.04159
1.9722
2.26259
0.79424
2.15374
1.40114
1.3262
2.34003
2.11014
2.19414
0.802928
2.03992
0.556495
1.23726
0.688985
1.8978
2.38056
2.04649
1.37109
1.97735
1.62015
1.21682
0.999942
0.519664
177 444
50 100
133 371
143 338
255 142
216 136
470 209
425 343
23 216
144 495
112 339
474 192
301 50
375 64
244 425
350 218
144 188
435 345
190 259
270 485
171 485
269 307
243 31
166 434
251 174
493 262
18 472
288 401
402 296
137 486
339 390
58 423
84 447
203 492
477 31
466 349
341 354
194 100
468 101
466 103
40 363
288 132
132 444
324 248
199 386
132 316
206 259
284 62
169 108
103 108
71 324
47 42
278 113
313 104
315 232
318 4
493 195
82 335
462 278
155 212
193 110
45 63
232 384
330 16
352 214
380 40
223 310
85 217
193 337
25 110
9612.5
2
