70
3
0 0 0
25 23 100
96 38 47
24 83 49
74 60 30
88 10 14
88 39 39
63 31 52
76 40 64
55 88 57
65 21 57
89 96 91
46 39 76
73 93 50
43 20 63
59 56 74
52 63 48
29 72 13
69 36 27
60 47 79
20 90 89
77 16 83
33 58 52
22 53 49
71 76 79
50 14 75
90 10 31
93 21 33
72 59 43
12 53 28
51 59 11
73 66 12
40 10 23
67 93 72
86 100 59
46 85 17
88 26 29
43 79 77
11 15 34
57 69 93
31 85 21
71 42 58
55 70 74
76 61 69
94 92 83
78 18 85
86 73 29
44 33 70
59 41 59
90 100 73
50 65 52
57 68 60
23 67 17
100 57 73
34 85 19
39 32 95
95 35 37
14 39 91
70 96 19
39 46 37
82 31 71
15 62 98
78 45 71
64 73 71
83 68 85
78 24 49
12 60 49
73 29 54
49 86 89
47 76 21
2.49211
1.65967
0.5933
0.696568
1.05488
1.88473
2.14906
1.4422
1.56928
1.74472
2.13853
1.39442
0.85741
1.00796
1.91109
1.71803
1.08499
0.869913
1.96892
2.36003
1.59175
0.719967
1.4429
0.574968
2.31051
1.36258
1.96482
1.64937
1.8163
2.49845
1.89887
1.415
0.645573
1.18968
1.96414
0.955796
1.8841
1.63926
0.678104
1.1798
2.43276
1.92313
2.17959
2.25887
1.39008
1.21826
1.56263
1.44685
2.28372
2.36373
2.44249
1.21924
0.680979
2.31957
1.92852
1.86997
0.582888
1.6361
2.3335
2.48355
0.886072
1.27297
1.79243
0.628405
0.681343
1.1521
0.820064
1.6978
0.782309
0.837932
253 472
71 123
460 278
325 342
131 456
429 223
143 247
214 171
291 71
1 110
208 263
158 232
412 64
84 69
280 44
151 340
137 104
62 201
474 49
319 411
396 70
189 205
104 172
400 340
154 255
481 1
419 258
411 0
457 487
366 210
2 206
334 181
330 186
307 469
63 468
361 376
125 280
97 416
14 479
423 299
328 22
361 193
187 213
28 455
248 166
482 148
321 330
103 25
224 207
215 314
106 251
85 240
196 136
152 181
236 493
240 462
258 431
183 60
242 71
336 378
418 417
18 419
483 427
411 159
115 405
86 278
117 78
308 89
62 367
15 117
3875
5
