70
9
0 0 0 0 0 0 0 0 0
36 53 80 96 44 30 56 29 85
86 68 29 49 59 54 25 19 77
42 43 54 28 12 27 27 39 32
35 68 53 44 47 43 82 51 26
22 23 39 80 46 92 100 56 55
12 55 82 100 38 98 61 69 13
31 34 71 29 64 53 40 66 44
90 99 92 67 12 14 47 18 11
24 17 44 35 37 47 13 55 32
65 94 14 97 34 39 63 91 32
31 91 69 52 14 22 36 17 41
87 16 60 58 13 93 60 84 28
73 55 34 80 46 60 41 41 95
11 25 67 58 69 40 43 98 70
61 52 95 54 62 72 31 60 91
28 78 69 67 93 36 21 19 61
10 37 86 23 44 50 100 61 14
85 50 39 58 18 48 97 78 61
94 11 41 99 52 86 88 93 44
27 43 54 44 93 72 36 17 52
92 32 65 81 21 48 23 28 37
90 49 73 23 26 41 59 63 48
100 50 18 37 71 29 99 97 31
68 100 72 79 14 62 12 75 71
93 37 74 25 31 25 17 54 76
96 89 98 81 98 44 87 34 13
73 73 26 16 51 93 59 72 31
34 47 65 40 67 66 15 94 13
73 12 62 18 54 97 63 51 36
37 19 15 100 73 28 99 38 81
35 22 76 11 21 31 54 74 18
29 91 36 44 12 24 51 30 92
100 20 10 56 72 70 58 90 72
59 64 98 11 25 98 30 21 54
82 36 73 35 74 75 92 15 60
46 99 99 37 23 47 73 74 87
31 94 22 76 90 22 24 11 48
23 31 90 14 40 76 48 37 12
73 20 36 57 45 63 23 33 88
60 59 67 10 28 26 64 26 53
51 63 46 73 84 77 88 54 43
71 30 98 34 13 40 48 46 83
21 50 39 26 19 41 23 15 44
84 19 18 48 34 13 10 72 55
31 13 69 74 54 30 41 99 54
21 86 11 40 50 97 55 95 64
57 97 65 53 55 20 49 79 27
16 76 38 59 97 97 25 67 13
28 96 42 30 100 77 67 74 59
57 91 64 13 56 90 46 39 19
68 78 27 24 51 13 89 88 35
62 88 13 11 89 28 27 99 18
85 10 88 91 80 52 32 81 37
82 94 66 11 63 59 39 60 97
87 75 46 20 51 87 21 70 71
100 32 80 99 22 97 23 25 72
46 89 51 55 11 46 93 85 45
16 23 95 93 94 18 77 82 94
73 23 16 35 58 27 64 14 40
86 78 32 48 86 24 89 25 76
18 12 57 91 33 86 88 66 83
32 47 50 87 90 23 86 98 81
78 88 37 18 44 99 58 48 85
53 98 82 58 82 59 79 35 31
49 39 11 36 61 84 10 27 100
65 51 10 47 64 75 12 78 88
21 66 65 64 43 91 94 91 94
64 25 12 21 85 60 83 97 51
42 18 53 71 10 13 86 13 76
1.26245
1.07723
0.972363
0.681402
1.13535
0.646982
1.0368
1.21223
0.52197
0.809704
0.775197
0.950884
0.692318
0.979975
0.754173
1.30211
0.759267
1.16073
0.936362
0.461606
1.38134
0.923298
0.487882
0.494666
0.301326
0.530123
1.42223
0.819409
1.18326
0.452668
0.623915
0.572858
0.32961
0.861555
0.44028
0.518432
0.665514
0.578976
1.07436
1.48765
0.321937
1.22893
1.19817
1.35544
1.49865
1.17348
1.3402
0.507688
0.9439
0.760449
0.827205
0.832561
0.961151
1.45382
0.568609
0.381903
0.610516
1.37494
0.727772
1.14409
0.785595
1.18092
0.338256
0.863033
0.48889
0.588594
0.654364
1.4295
0.444187
1.2343
54 134
119 359
44 313
72 81
325 374
22 142
323 140
343 42
382 223
375 140
369 231
303 59
173 375
177 93
29 358
396 58
80 109
57 357
141 455
300 2
343 390
18 59
88 456
57 21
297 267
222 289
274 55
476 464
132 112
171 330
177 98
36 358
458 183
238 190
318 363
158 26
461 261
273 193
80 20
429 435
367 350
156 429
225 202
407 330
15 196
407 36
372 148
182 390
490 86
302 281
43 452
173 111
465 107
187 463
470 421
32 79
64 452
457 386
95 152
316 313
458 396
148 462
363 219
18 320
181 444
161 424
69 102
209 0
190 321
156 73
18530
1
