70
3
0 0 0
43 85 94
93 58 39
11 47 56
95 76 94
61 25 41
51 52 41
91 29 84
47 91 27
37 13 34
57 49 89
22 60 80
89 54 15
21 14 90
81 54 15
57 73 87
55 81 85
29 63 44
86 85 87
76 95 73
80 39 100
63 16 88
28 89 63
31 87 16
50 85 78
26 94 49
14 71 85
72 85 27
43 68 100
96 70 78
88 27 17
18 93 51
43 100 64
14 99 57
28 18 73
65 57 42
35 48 62
61 71 45
34 43 79
67 34 35
45 95 66
38 76 11
71 71 100
53 43 82
22 32 71
99 77 11
96 58 98
23 93 61
86 54 61
24 78 74
87 97 37
79 65 84
48 40 17
12 96 16
68 53 57
73 86 87
42 66 89
76 59 70
36 42 19
94 77 75
25 33 91
66 36 97
77 84 37
68 30 37
28 87 66
77 98 83
33 79 83
64 70 53
94 64 45
39 90 41
0.353961
0.46375
0.303795
0.217814
0.37125
0.239201
0.351214
0.249868
0.11527
0.240126
0.188521
0.499699
0.206169
0.450024
0.201939
0.138271
0.362935
0.409634
0.238879
0.189544
0.484308
0.160332
0.111989
0.40723
0.312402
0.163155
0.414346
0.367383
0.247334
0.224623
0.12005
0.186414
0.438895
0.132768
0.250641
0.225475
0.168194
0.280298
0.309951
0.276519
0.205288
0.377941
0.49644
0.46962
0.16401
0.179582
0.346779
0.498812
0.403919
0.33253
0.309089
0.354073
0.262952
0.16856
0.341989
0.130934
0.327286
0.483001
0.289286
0.329607
0.278599
0.174747
0.267602
0.394694
0.168633
0.396483
0.444925
0.120894
0.178295
0.184934
328 462
257 372
486 275
427 484
236 217
110 73
138 420
288 23
459 480
466 344
94 60
355 423
398 189
84 375
360 15
202 199
362 136
191 352
225 455
221 131
401 38
394 141
268 149
285 393
39 349
281 311
465 430
447 216
173 105
437 498
451 256
189 260
456 411
378 500
52 78
320 398
225 330
370 470
74 489
130 300
254 165
8 385
317 142
45 242
232 119
101 207
483 200
215 169
374 296
75 124
416 229
196 223
466 177
475 13
468 407
399 487
25 17
421 486
10 217
245 399
149 483
226 280
32 65
376 107
2 491
446 93
5 436
339 86
48 481
168 186
4143
5
