70
5
0 0 0 0 0
26 23 67 46 20
36 89 92 71 41
87 57 65 37 27
11 43 15 73 10
47 60 48 73 83
48 92 96 89 49
53 29 48 47 11
65 49 35 59 99
34 98 10 52 97
14 24 86 31 18
96 56 24 25 15
23 94 40 36 11
58 24 43 34 24
14 49 92 40 93
47 23 42 48 44
95 71 42 63 86
97 31 36 18 51
49 17 98 15 64
32 58 35 61 47
91 29 73 11 11
67 47 52 52 74
30 74 56 70 51
55 14 72 79 81
87 47 82 29 10
53 28 86 75 83
79 64 91 69 57
55 58 90 65 41
17 18 71 83 28
22 50 60 32 54
70 96 45 54 90
61 25 13 15 25
44 10 77 35 77
70 85 18 84 49
44 21 34 43 17
14 47 31 64 47
21 66 63 87 58
61 67 59 51 46
51 53 20 92 39
95 28 29 19 40
12 85 38 48 28
38 70 11 10 24
17 28 66 73 25
55 10 94 41 28
96 33 20 100 24
40 20 57 57 91
44 24 57 27 88
29 27 34 22 35
99 69 15 44 72
61 29 67 49 17
28 96 96 18 74
24 49 90 87 85
36 69 96 55 97
89 51 36 66 46
14 29 58 22 83
64 82 83 11 58
39 95 50 32 90
29 90 75 69 99
65 94 10 29 27
26 81 92 22 32
70 65 92 35 35
61 27 76 21 76
73 46 51 93 31
96 66 72 12 84
25 23 12 77 21
36 20 66 37 93
25 88 59 13 39
79 11 11 90 50
64 28 55 46 41
24 75 61 79 84
0.717566
0.583591
0.522895
0.933749
1.49193
1.25958
1.11432
1.23402
0.725297
1.43936
1.12404
1.49785
1.34505
0.918598
0.763718
0.763704
0.805281
1.44226
1.45955
0.81504
1.22458
0.49172
1.12876
0.55194
1.24312
0.330014
1.30796
1.17479
1.17563
0.797231
0.704793
1.42139
0.685077
0.555976
1.1
0.532062
1.39896
0.314112
0.705387
0.877882
0.745642
0.903178
0.409703
1.12146
0.839036
1.07692
0.755465
1.30384
0.780676
1.28833
0.878748
1.37601
1.37498
1.43734
1.21157
0.978317
1.12224
1.10039
1.21915
1.08484
0.648396
1.17927
0.507043
0.688037
1.09496
0.615535
1.25671
0.948783
1.09638
0.655975
1 225
196 73
205 388
257 176
377 357
260 274
426 292
129 92
85 73
214 441
181 198
148 306
427 445
199 325
94 295
223 91
214 15
499 53
47 415
137 141
164 142
124 198
239 80
230 192
324 395
277 262
16 71
416 252
462 388
143 295
294 301
257 375
182 274
193 189
127 388
194 293
12 259
374 195
62 389
234 446
171 164
337 115
307 442
374 186
30 84
59 48
150 444
67 130
299 74
283 382
211 84
221 500
500 245
190 305
345 19
451 477
400 92
361 413
179 491
459 433
231 338
381 186
132 242
154 355
214 56
246 331
485 414
8 288
157 482
345 13
8880
2
