70
11
0 0 0 0 0 0 0 0 0 0 0
23 39 18 27 86 41 33 81 31 87 69
60 60 13 66 43 81 49 75 79 85 45
17 35 58 24 18 97 48 23 52 72 48
26 97 27 100 88 56 70 16 37 43 48
98 58 93 83 65 100 53 57 84 79 78
68 22 31 46 39 14 26 69 14 10 85
45 99 84 88 69 70 69 13 58 56 54
94 22 50 19 42 24 39 68 46 69 58
64 66 31 44 93 32 34 83 22 70 17
81 24 11 96 59 25 96 92 28 61 42
31 74 33 79 16 49 96 53 54 39 11
70 35 53 23 28 95 65 29 78 74 68
60 10 59 53 56 87 54 30 13 46 42
61 22 93 20 52 85 88 66 99 84 26
65 12 91 47 55 87 51 79 82 68 86
59 16 25 21 19 57 65 10 76 57 36
59 22 76 56 91 41 100 54 36 70 39
44 51 35 82 31 87 47 16 56 52 10
89 25 75 46 84 88 95 15 96 26 93
66 28 41 26 41 93 91 76 38 93 40
27 16 43 45 41 79 83 64 31 62 68
78 46 50 92 84 68 80 79 87 34 39
98 60 86 55 29 52 41 43 14 86 57
55 97 17 90 61 15 54 47 65 67 75
10 26 99 71 73 94 85 44 40 95 64
74 44 63 70 65 19 42 27 66 22 18
46 67 82 12 42 91 42 78 62 61 46
41 45 62 84 37 39 93 44 96 33 74
60 28 87 57 91 99 51 88 53 65 51
18 82 12 47 51 15 62 21 60 68 82
63 97 23 72 37 23 87 22 50 90 41
86 89 78 24 25 72 45 37 46 98 89
54 49 56 100 42 32 89 86 86 21 39
17 42 38 75 17 95 60 28 39 44 42
49 26 50 88 74 54 98 96 13 54 93
71 89 90 79 71 11 85 17 64 82 58
40 42 98 65 69 14 80 23 94 62 70
58 76 96 58 30 93 78 66 89 26 23
21 67 81 49 87 10 33 72 77 43 65
96 92 75 70 94 71 52 29 69 60 22
67 31 30 59 96 37 34 55 26 37 54
57 49 35 44 23 57 89 55 60 96 50
81 48 53 91 49 94 16 71 82 31 89
40 80 91 32 45 43 18 35 14 99 10
66 45 21 31 14 61 30 36 16 33 40
42 12 24 34 16 69 66 13 25 48 59
46 34 83 28 10 30 46 80 98 97 83
47 99 17 34 93 41 100 44 39 25 27
46 48 57 87 74 47 59 49 85 45 25
33 83 60 74 64 39 67 51 19 19 45
71 35 90 59 57 16 79 19 40 68 93
88 91 45 24 89 37 47 53 85 45 49
48 93 37 18 40 81 68 97 70 40 48
48 91 59 96 52 46 78 23 89 48 92
60 78 58 27 32 55 69 60 96 96 19
14 94 23 86 34 33 48 95 36 11 28
21 88 89 34 83 17 60 61 76 19 67
78 94 20 28 99 76 66 74 85 37 98
26 40 25 61 15 68 42 98 92 77 25
35 12 18 40 82 15 39 82 84 79 32
59 81 60 59 81 22 19 49 38 83 24
29 82 54 12 84 34 83 74 42 45 32
51 71 37 17 60 60 25 93 75 25 55
95 64 96 23 10 66 96 83 52 31 17
15 76 54 95 56 89 20 30 35 46 91
100 44 84 49 96 23 94 59 11 10 38
22 55 98 82 66 40 45 78 98 25 76
89 19 51 98 76 83 27 25 31 96 40
41 52 34 44 47 95 47 33 45 32 57
0.985504
0.411866
0.875504
0.769488
0.697356
0.720136
0.356178
0.493637
0.302769
0.353326
0.417671
0.493048
0.763706
0.918226
0.390421
0.942847
0.320888
0.5944
0.342237
0.994345
0.498392
0.992935
0.571551
0.627615
0.679136
0.54048
0.477335
0.32143
0.388126
0.974508
0.57118
0.67993
0.994153
0.95275
0.59579
0.502614
0.912062
0.7515
0.692165
0.33591
0.349326
0.308036
0.280866
0.373667
0.531586
0.842753
0.842957
0.276012
0.741155
0.479071
0.31939
0.228237
0.386871
0.769353
0.28592
0.990343
0.644456
0.666046
0.258543
0.872246
0.895667
0.385228
0.622209
0.286802
0.337915
0.415045
0.372009
0.422598
0.601018
0.264761
268 344
174 173
404 426
121 453
143 310
423 118
83 483
315 51
282 253
236 66
35 443
240 5
76 216
35 189
312 469
483 456
71 349
238 309
139 42
442 361
164 183
181 195
31 142
152 455
422 179
425 377
27 473
457 428
230 204
98 198
108 471
269 81
74 437
418 75
436 382
277 113
3 214
350 54
225 243
139 194
401 222
200 192
174 339
33 456
354 247
148 56
419 140
218 144
96 321
423 457
269 212
279 3
257 338
227 312
316 111
389 29
360 381
327 185
191 284
244 494
490 366
8 157
200 344
40 456
13 359
382 317
273 186
448 93
89 240
171 232
4777.5
4
