70
11
0 0 0 0 0 0 0 0 0 0 0
79 62 15 20 87 70 95 35 61 71 37
27 98 48 26 20 98 26 96 58 18 39
86 42 11 98 84 89 99 58 15 38 25
14 15 60 92 41 27 50 91 35 94 11
45 11 51 10 34 43 62 77 21 14 89
86 21 35 37 27 49 15 95 29 82 11
54 26 53 40 72 19 77 31 38 50 50
49 85 14 62 11 100 70 54 78 39 25
93 51 98 51 62 72 76 62 86 86 42
69 26 58 93 75 64 83 12 39 89 73
38 58 28 28 97 79 100 56 10 48 57
33 24 98 81 62 82 32 25 97 26 83
49 64 55 66 45 69 23 21 67 54 86
29 70 66 95 86 24 29 71 35 100 11
13 31 88 19 48 90 14 78 56 76 27
70 35 28 79 69 46 75 24 85 92 73
64 28 38 73 21 94 63 24 55 84 40
93 83 52 51 47 73 66 87 65 63 31
91 97 86 73 74 63 39 97 78 49 22
22 33 79 73 43 54 33 22 77 43 40
24 62 51 68 92 89 17 21 13 59 75
82 25 68 82 62 85 13 79 92 68 61
55 86 66 16 18 39 18 93 36 31 47
59 93 14 23 26 83 17 92 22 36 61
11 89 42 34 44 61 28 78 29 91 42
25 58 95 81 25 69 69 32 25 94 22
28 62 40 18 52 51 51 88 61 75 84
40 80 31 49 88 43 96 17 53 19 13
87 60 61 72 47 52 71 36 44 100 38
29 89 95 76 45 20 31 72 87 29 37
44 57 47 68 46 15 91 77 40 27 82
26 56 11 15 31 94 24 79 95 95 43
31 20 57 74 90 25 13 62 31 32 90
76 37 84 61 76 80 94 49 51 61 24
53 31 73 95 16 63 10 21 19 42 28
11 81 19 49 33 87 14 21 45 69 74
88 95 97 58 39 52 64 56 65 52 33
13 82 56 63 45 24 30 100 60 11 11
53 27 52 77 87 42 81 36 16 95 73
80 78 90 97 52 38 23 87 51 67 70
65 22 12 12 44 32 26 44 19 31 50
100 53 78 15 52 33 59 48 68 59 76
17 100 71 74 86 98 72 73 11 73 82
92 78 55 93 72 58 82 50 85 44 100
66 39 83 81 99 71 40 50 91 33 53
36 51 77 37 38 68 78 72 24 62 18
92 69 80 18 38 10 46 23 14 53 87
91 52 74 19 61 28 69 18 33 43 55
72 36 39 76 95 37 67 79 63 24 100
75 77 88 99 87 55 77 23 37 16 78
70 92 77 87 90 18 26 67 84 54 35
17 72 70 97 53 19 69 28 34 32 94
27 100 34 17 96 71 90 47 90 35 83
58 73 80 76 66 86 46 60 84 75 71
99 91 41 89 40 27 96 92 21 26 59
48 29 94 100 35 30 32 27 58 41 20
65 26 55 67 13 85 83 10 59 64 13
21 85 44 91 21 64 22 81 38 75 77
48 59 96 32 70 71 93 93 98 94 98
73 90 32 34 52 36 36 29 73 47 53
64 100 74 41 94 34 15 16 81 85 77
68 21 56 42 27 79 52 86 63 86 23
73 39 32 94 23 24 87 91 89 84 53
68 35 75 60 98 38 22 55 48 22 81
48 18 16 92 72 63 77 46 93 67 42
39 61 52 18 94 93 61 75 99 33 78
88 33 68 73 16 61 11 36 62 81 64
23 46 61 69 63 33 79 18 43 77 90
38 82 92 16 13 71 47 74 38 58 90
1.50536
1.45385
1.96447
1.18523
0.559189
0.949826
0.444937
1.60749
0.985726
1.87563
1.82939
0.72174
1.82382
0.464593
0.898646
0.844545
1.64647
0.961851
0.791719
1.60798
1.8734
0.8142
1.8733
1.60005
1.48311
1.68013
1.27234
0.553567
0.800532
1.53501
0.546913
1.69819
1.25828
1.72118
1.96831
0.609228
1.3891
1.33966
0.848871
1.38576
1.98411
0.815315
0.70873
0.691634
1.33824
0.499418
1.22691
0.694163
1.88002
0.642271
1.33565
1.60128
1.42433
1.29209
1.37019
1.4059
1.72451
1.56585
0.423908
0.999439
1.70925
0.657915
0.543499
0.83338
0.495178
1.66164
1.65825
1.32093
0.684393
0.839575
468 485
165 361
293 112
330 380
128 233
246 75
468 366
189 421
439 217
42 204
274 55
152 205
387 53
30 2
59 357
434 330
427 220
271 370
62 259
247 306
96 474
466 257
398 8
270 164
429 435
331 8
103 438
153 432
330 138
151 82
292 286
274 332
483 66
347 345
138 323
496 71
207 28
408 141
283 328
286 321
356 159
226 223
266 269
177 218
9 304
58 442
85 191
345 323
162 103
34 276
358 441
490 457
160 126
105 378
292 158
52 24
375 238
471 246
167 428
389 88
60 275
361 367
65 258
53 438
27 33
37 226
405 103
450 324
265 454
120 235
9645
2
