70
7
0 0 0 0 0 0 0
35 57 33 83 86 58 47
80 65 82 73 22 71 44
34 21 56 60 97 46 68
81 43 14 85 86 75 32
11 97 91 97 77 88 23
36 34 86 85 15 73 78
70 30 14 61 44 13 57
66 41 93 40 85 54 30
32 38 33 35 89 29 63
67 92 81 78 29 22 32
82 24 24 41 60 56 100
26 32 91 93 50 85 82
51 83 68 71 89 54 88
87 68 57 32 17 76 76
17 68 37 18 82 26 78
73 63 43 20 36 11 70
49 51 84 52 44 47 68
67 84 75 15 44 97 69
18 38 35 98 65 78 85
92 66 90 17 44 91 11
18 13 17 84 52 84 26
72 96 91 91 72 11 78
89 20 14 90 39 15 34
77 48 11 86 89 32 24
37 28 94 97 54 70 100
48 68 90 90 35 43 77
76 17 82 72 67 54 16
88 47 85 83 64 52 54
90 92 60 98 37 39 14
100 100 29 52 39 24 92
33 66 94 17 91 53 85
75 41 73 88 39 46 89
18 20 16 10 96 40 68
54 92 28 45 44 58 87
46 68 21 85 32 44 17
73 17 93 81 54 62 50
94 20 54 93 22 85 79
45 37 48 41 97 12 76
87 96 71 62 89 45 77
15 87 83 20 16 10 56
98 45 85 28 26 87 58
90 15 63 15 78 11 98
91 72 48 54 37 93 41
11 64 55 37 69 62 94
81 98 16 88 93 38 35
55 89 17 47 83 41 13
65 24 98 85 24 88 24
61 88 47 97 49 65 73
42 26 57 19 33 60 79
54 44 27 24 79 89 99
30 64 61 64 61 56 67
10 76 19 75 30 85 64
89 40 83 96 49 66 43
58 26 48 38 35 87 40
76 47 90 50 96 74 24
56 20 64 19 47 74 30
65 27 41 50 42 32 15
21 29 45 75 13 37 64
95 39 66 87 40 46 95
31 98 79 23 91 38 65
38 63 21 23 34 63 34
36 36 71 40 99 19 98
26 71 26 96 17 24 100
79 92 22 19 15 40 14
63 60 60 32 42 12 65
92 60 26 76 57 93 42
82 97 12 10 31 53 49
25 88 62 58 55 33 53
78 76 22 59 69 84 73
0.708866
0.950337
1.24755
0.991901
1.46883
0.697429
1.22496
0.33188
0.308126
0.921357
0.519661
1.19949
0.943723
0.893142
1.15014
0.769602
1.09132
0.807245
1.11667
1.27369
0.716828
0.620389
1.40278
1.45811
0.556704
1.01693
0.445975
0.904589
1.41638
1.07459
0.511417
1.1888
1.16315
1.07278
0.45195
0.346435
1.09598
1.40453
0.740269
0.915932
1.1465
0.690518
0.709699
0.391476
1.42792
1.47163
1.44757
0.588345
1.33679
1.17371
1.48156
1.2791
0.355661
0.868212
1.28198
0.945027
0.365872
1.28365
0.924035
0.564305
0.577699
0.301279
1.27406
1.1628
0.818838
0.356459
1.25062
0.547363
0.410155
0.48452
106 211
92 350
128 293
28 269
221 484
393 198
97 187
189 225
338 365
207 434
51 28
63 11
367 179
272 326
219 18
476 17
403 24
345 454
495 12
455 205
62 327
160 96
219 291
64 3
481 56
54 415
462 499
446 396
253 232
336 429
10 478
232 78
135 57
367 377
460 423
233 81
26 494
118 327
372 159
250 55
119 93
94 415
395 335
29 244
172 239
353 32
60 249
348 479
169 410
404 154
464 476
76 218
22 19
406 382
167 256
370 348
354 113
440 329
459 29
277 16
203 487
74 282
432 172
212 90
3 447
108 292
489 111
227 125
396 61
430 411
19395
1
