70
7
0 0 0 0 0 0 0
87 31 54 58 21 35 100
43 24 12 90 51 56 12
96 54 17 94 23 44 21
28 12 66 56 25 48 61
64 84 55 51 91 20 34
95 87 24 75 24 26 52
82 99 74 39 30 57 10
19 19 33 72 50 56 94
99 24 85 99 11 87 73
23 41 73 25 15 28 56
45 67 32 28 62 43 40
77 77 71 31 12 40 47
100 83 71 81 31 27 92
22 40 31 31 88 67 91
29 95 31 63 89 70 30
20 81 93 70 67 56 34
21 34 66 74 78 32 20
75 50 33 43 58 20 29
65 68 33 78 21 31 64
14 49 78 13 69 98 49
41 25 21 11 34 92 71
47 85 50 83 18 61 22
45 43 19 52 86 32 90
70 95 31 54 12 85 96
71 98 75 83 10 13 18
39 16 90 92 90 71 80
32 92 15 21 14 36 43
85 29 10 75 13 97 55
53 45 35 68 66 88 61
22 34 23 19 97 76 89
95 29 47 94 16 68 58
44 62 85 51 51 38 48
14 33 15 60 74 51 85
32 73 77 60 88 91 15
31 76 10 91 44 57 23
92 81 33 96 44 33 91
81 93 39 29 54 39 53
55 75 75 36 91 12 18
62 69 63 70 82 32 29
57 66 88 68 30 94 42
30 82 74 21 69 83 67
68 80 64 33 52 56 41
51 53 72 46 24 83 73
59 28 80 83 28 88 68
42 63 84 48 52 20 22
46 88 86 48 41 99 83
22 100 80 28 27 16 96
88 35 24 32 53 34 51
81 17 20 41 39 41 16
38 12 94 72 85 45 78
93 69 37 12 99 56 74
65 93 34 38 21 40 57
77 62 82 98 70 70 11
20 44 84 91 19 17 44
97 24 97 31 49 77 17
37 77 39 38 46 60 19
60 57 13 50 21 86 39
67 30 51 23 98 28 37
86 56 72 73 24 44 72
23 100 54 12 47 99 99
30 18 11 29 58 97 75
95 81 76 77 32 28 26
29 20 80 45 79 70 12
58 80 10 97 86 91 98
28 72 62 90 20 74 44
88 11 58 27 67 78 60
38 53 12 28 22 48 79
28 50 51 33 28 53 100
42 96 48 30 81 57 56
0.838632
0.647568
1.1997
1.57532
2.36956
0.889723
1.53607
1.6882
1.88055
1.76145
1.42213
1.74602
2.21214
0.588554
1.78013
1.76111
1.90548
0.637635
2.48038
2.40855
1.18056
2.49563
1.83895
0.590008
0.852559
1.29502
2.27855
2.34847
2.34203
2.30498
2.28549
0.983676
1.12593
1.51884
2.32549
0.57131
2.04939
1.68013
1.74014
1.38611
1.80404
1.24244
0.523542
2.20889
2.1345
0.88069
2.14447
2.20642
0.629755
2.28907
0.817804
2.29916
1.46965
1.40357
1.84385
0.605764
1.16102
1.56975
2.31672
0.887712
1.1118
1.31366
0.592958
1.79167
0.728787
0.885145
1.70043
1.33436
0.788055
0.81367
378 250
81 332
228 420
465 456
278 188
287 244
94 442
460 183
142 493
55 401
192 30
171 248
9 359
448 108
85 89
419 336
11 156
311 343
87 148
239 251
498 201
130 251
311 379
114 281
371 370
463 119
34 193
381 449
360 321
186 461
403 365
18 360
44 257
3 144
192 354
113 128
7 469
447 328
347 448
18 312
346 264
395 398
73 440
107 418
85 377
457 253
159 285
30 135
189 422
438 359
54 445
56 347
2 359
60 257
500 69
256 263
177 320
324 470
153 407
184 75
202 407
456 187
371 333
478 358
331 363
20 416
62 361
241 141
172 124
412 155
6191.67
3
