70
7
0 0 0 0 0 0 0
36 91 25 62 30 89 22
100 69 29 65 10 14 25
90 85 27 47 29 26 17
64 61 80 53 14 87 20
30 54 88 93 92 83 38
16 35 48 43 24 94 19
80 35 80 41 40 41 31
10 23 46 88 64 35 69
68 59 58 31 60 38 37
54 29 17 100 74 51 81
80 55 23 25 69 57 33
51 49 50 12 60 99 69
35 29 77 35 43 34 61
41 48 34 68 98 95 41
74 99 23 91 10 72 46
96 13 68 74 44 99 86
35 58 59 45 63 23 62
15 62 38 68 96 91 97
87 98 91 100 40 46 83
75 15 64 86 71 83 44
90 35 31 64 29 68 34
36 13 13 11 89 76 85
28 98 22 44 82 68 31
51 93 54 43 36 65 33
84 22 91 71 79 92 56
37 77 12 73 85 45 89
95 61 35 13 18 50 84
68 34 30 18 20 50 58
25 96 65 35 68 29 68
36 46 38 70 66 78 79
71 90 85 69 43 59 66
61 34 93 54 80 98 61
48 12 27 98 77 64 21
89 40 40 47 92 62 43
91 99 36 60 94 99 52
47 84 13 96 90 38 94
24 58 23 33 83 67 24
39 51 69 67 74 83 100
54 37 81 79 82 43 85
78 13 29 95 19 26 11
27 84 74 100 58 96 84
88 56 32 37 17 12 57
11 45 99 26 15 61 30
43 17 28 20 45 69 47
28 80 86 89 94 40 99
91 62 52 72 98 30 34
65 49 72 33 62 33 45
48 44 73 63 72 92 26
12 98 66 19 82 37 72
58 64 71 81 58 32 46
52 41 20 100 31 67 92
95 40 42 31 27 90 87
84 83 41 91 85 66 57
28 60 68 61 22 23 85
37 88 18 40 58 61 24
33 59 20 64 59 86 45
37 95 44 40 89 41 54
37 73 99 29 62 49 88
70 93 28 38 82 10 65
39 62 30 63 44 96 73
97 34 63 71 33 70 78
23 97 62 38 82 76 84
20 53 20 53 99 97 54
26 31 46 36 47 85 53
92 61 26 27 68 60 24
33 56 36 88 58 47 39
86 79 93 15 24 29 11
79 79 23 26 52 73 62
90 32 20 40 91 80 67
1.16495
0.813733
0.583884
1.48939
0.47212
0.986212
1.21951
0.517007
0.812903
1.0535
0.40527
0.969776
1.93815
1.52327
1.47671
1.0755
1.45861
1.85201
0.877988
1.93688
0.630908
1.97686
1.93259
0.916202
1.01961
1.89107
0.42283
1.85324
0.653321
1.05478
1.57442
0.819863
0.910783
1.78625
1.56378
0.805343
1.32754
1.48692
1.52075
1.89641
1.65966
1.86537
1.81282
0.765054
1.5318
0.976676
1.51785
0.822156
0.664789
1.8744
0.761535
1.06888
1.06691
1.04724
0.417119
0.846694
1.67699
1.30718
1.17236
0.908512
0.531049
1.23248
0.5904
0.895459
0.893866
1.54913
0.40647
1.41956
1.59127
0.913887
154 497
276 341
164 434
71 358
468 394
47 311
110 302
275 29
4 192
122 293
472 189
247 325
158 243
238 164
166 139
322 152
312 356
190 372
155 333
8 273
100 325
377 323
160 25
222 128
151 375
427 65
336 253
382 43
326 185
88 454
131 78
331 88
346 177
430 394
158 178
255 167
420 488
232 381
106 37
472 167
206 123
379 453
495 146
389 494
176 485
400 348
194 441
145 486
460 10
463 267
208 186
497 142
149 88
410 80
134 385
346 208
146 89
240 408
260 407
285 55
319 120
336 28
381 136
10 436
471 178
21 272
416 332
449 453
218 23
26 294
6458.33
3
