70
11
0 0 0 0 0 0 0 0 0 0 0
62 83 38 84 55 64 26 80 12 26 65
83 76 94 16 95 85 30 88 40 16 89
13 61 70 41 57 40 45 54 74 25 83
100 26 26 50 63 96 12 37 88 91 26
15 68 75 64 70 60 38 17 95 67 91
78 29 91 81 15 15 14 88 88 88 77
17 10 75 63 48 31 91 21 54 49 36
28 43 50 23 42 55 59 31 55 35 45
65 93 54 58 39 36 11 10 45 96 95
41 18 65 91 82 72 37 78 90 26 86
77 75 86 78 85 20 35 79 70 22 54
86 54 86 18 52 47 28 50 91 76 50
67 79 100 88 33 30 38 14 77 91 90
85 47 75 23 50 50 94 29 75 11 79
79 84 29 71 97 50 83 94 88 33 89
59 78 93 22 48 96 26 78 53 65 14
84 35 93 83 65 60 96 48 41 49 71
69 91 77 87 73 44 18 30 75 62 71
98 14 71 61 32 70 39 83 55 16 62
53 80 23 47 99 28 13 45 60 15 28
43 67 73 10 60 17 96 50 59 43 70
45 49 42 36 55 81 82 71 51 62 28
25 86 53 37 61 67 65 47 32 77 93
99 100 95 89 50 89 46 31 61 42 88
42 12 63 73 79 72 45 61 93 78 10
35 23 81 86 22 83 39 51 31 17 97
11 48 95 53 97 99 24 87 38 83 17
91 81 38 30 79 42 91 19 61 12 88
83 30 26 27 58 97 68 16 42 69 56
35 21 32 28 94 82 18 100 23 54 36
32 94 80 16 75 41 38 100 91 10 77
78 73 100 36 52 67 16 37 44 38 31
29 65 72 27 60 38 72 15 64 50 44
85 63 65 50 68 64 86 57 89 42 70
39 27 41 50 38 61 53 47 90 76 38
12 24 33 48 39 81 13 16 65 95 39
80 94 48 62 75 60 54 92 25 87 31
13 42 43 36 13 84 38 29 91 94 83
26 40 87 98 99 88 49 41 20 74 50
53 92 62 74 38 17 20 89 15 87 69
60 54 68 49 54 32 51 93 92 76 10
42 14 12 96 81 57 72 74 35 13 50
93 76 52 97 78 25 49 57 48 60 25
86 27 52 56 10 74 12 12 66 45 42
20 43 32 26 73 98 76 87 71 84 36
76 94 64 88 57 35 38 47 97 73 87
48 39 51 21 91 34 33 16 68 92 96
18 91 24 39 64 27 72 35 20 33 30
87 66 90 52 23 22 37 95 75 73 76
12 27 39 49 94 83 97 37 10 52 36
50 62 55 86 36 74 84 78 97 10 18
37 76 86 46 61 30 12 66 61 92 49
28 82 66 15 87 51 13 82 40 43 64
34 38 84 82 22 47 67 85 69 47 27
34 41 32 27 89 12 11 81 87 85 74
11 59 16 95 83 26 95 28 86 59 30
62 34 80 75 72 69 75 36 74 15 28
76 63 81 74 83 22 54 55 77 83 14
29 89 25 20 39 92 79 94 94 65 85
54 56 12 76 35 73 44 35 60 76 74
33 61 53 84 63 61 28 87 90 87 51
84 39 53 46 14 76 96 67 32 72 25
47 52 10 58 16 88 14 23 93 33 100
21 91 37 70 41 85 68 61 65 67 39
44 52 90 96 70 97 78 70 45 21 88
59 81 67 71 55 87 65 100 65 23 72
35 49 52 53 29 80 79 21 58 42 76
69 89 98 30 77 90 19 63 13 19 57
45 16 98 19 28 62 17 81 15 28 11
0.459416
0.154335
0.253
0.188304
0.158905
0.187566
0.317058
0.476881
0.199399
0.26821
0.197866
0.470549
0.402448
0.137522
0.458583
0.200126
0.354404
0.484898
0.395256
0.302404
0.433504
0.249703
0.261185
0.24822
0.489067
0.458769
0.490854
0.310923
0.368267
0.248273
0.311895
0.237981
0.312369
0.170735
0.333498
0.21847
0.210966
0.246025
0.236871
0.341918
0.495074
0.437003
0.460728
0.169086
0.291396
0.427646
0.352928
0.219783
0.238743
0.312141
0.395471
0.230071
0.123419
0.147912
0.141999
0.486576
0.424204
0.466894
0.218552
0.409798
0.320038
0.257725
0.104144
0.124581
0.131508
0.244631
0.166967
0.285054
0.369188
0.352179
298 445
197 141
273 282
388 371
363 129
465 305
176 481
19 408
40 76
154 63
193 475
135 456
417 164
207 428
217 46
63 439
384 242
25 394
288 228
276 189
379 328
90 423
364 259
198 487
133 439
342 373
186 38
480 256
90 479
291 447
59 287
390 357
296 364
282 98
256 451
412 353
291 20
13 116
239 395
434 164
490 149
129 241
375 99
313 296
453 113
37 267
427 307
85 216
282 473
15 395
349 383
414 322
150 457
245 190
381 193
388 204
267 45
227 170
65 52
79 181
493 346
411 391
164 101
186 95
188 284
429 330
45 329
172 153
2 332
485 73
19420
1
