70
11
0 0 0 0 0 0 0 0 0 0 0
17 76 34 55 81 34 49 58 93 77 26
84 77 72 71 43 44 88 81 21 64 51
64 66 95 12 84 56 41 13 72 88 28
14 79 30 30 55 67 55 80 11 38 14
83 87 16 17 25 13 77 45 70 44 38
17 62 25 96 92 51 23 17 81 83 71
80 61 38 44 56 93 16 51 30 15 46
76 32 95 65 85 62 97 84 49 53 95
32 87 97 91 98 82 60 20 53 75 59
81 52 55 14 32 19 57 63 23 60 71
49 23 88 71 70 21 91 28 31 33 86
19 72 82 59 91 15 29 29 60 90 73
17 35 33 56 40 54 19 80 90 77 91
26 57 25 99 93 79 66 70 96 66 36
46 13 34 22 47 87 54 77 79 74 58
21 70 62 99 74 99 53 54 11 64 74
11 92 88 63 48 64 89 48 78 27 25
52 56 93 41 76 94 84 46 33 21 85
19 96 41 66 86 92 53 81 33 42 96
94 91 55 30 63 71 16 11 40 17 82
21 94 52 51 12 86 64 72 82 32 11
48 81 74 50 71 42 100 100 44 76 95
19 36 39 65 93 95 79 93 46 18 14
13 80 32 12 34 12 77 55 15 88 27
90 31 79 96 59 32 66 17 97 99 77
24 80 87 33 64 61 17 49 86 48 31
10 59 83 71 11 37 70 72 55 81 45
26 95 50 20 97 84 79 50 41 80 57
96 85 33 86 69 58 65 36 22 13 37
42 69 72 15 94 91 35 62 93 28 94
17 83 100 31 15 71 10 86 12 84 94
99 89 49 90 37 76 17 18 51 84 82
26 98 94 19 84 51 59 16 88 35 69
40 100 69 99 30 35 49 78 67 36 11
98 33 83 52 98 60 30 88 20 78 91
61 75 40 66 46 85 87 56 15 91 60
93 13 73 41 44 49 67 92 20 92 30
36 65 96 83 35 71 16 70 84 87 92
45 37 67 74 23 53 43 64 21 62 17
41 83 10 72 20 51 12 100 53 11 58
48 23 72 50 23 46 86 84 59 83 65
93 50 78 35 94 54 70 81 53 51 42
83 83 49 26 96 56 29 16 86 40 69
11 74 70 82 89 83 87 14 46 22 11
37 36 35 100 32 72 57 10 71 98 21
17 28 92 81 49 78 72 84 61 11 29
39 16 88 19 93 70 88 14 46 69 64
58 71 10 43 92 13 64 42 38 77 88
27 28 76 37 24 87 19 65 25 54 99
56 13 75 29 14 52 31 70 51 76 65
18 62 82 92 47 92 62 67 48 28 25
46 46 88 59 58 76 67 25 20 72 84
85 24 65 31 12 94 17 22 84 82 37
26 26 44 58 91 64 28 94 74 11 50
30 88 80 17 46 79 49 75 82 76 50
51 22 11 81 45 58 53 72 15 40 65
86 18 49 27 68 76 66 93 54 94 95
42 74 62 26 58 83 35 55 31 40 76
91 17 13 32 20 91 14 71 53 88 67
23 11 65 47 30 47 31 20 72 94 48
95 12 27 83 36 20 99 49 28 100 38
89 32 65 10 69 69 50 37 55 34 71
63 82 64 65 39 42 11 91 74 37 63
76 68 90 15 65 42 86 75 58 82 32
74 66 27 30 40 88 74 60 36 64 38
72 73 49 55 95 96 90 79 13 66 25
17 26 31 82 70 61 46 76 21 46 68
79 87 50 99 22 33 78 55 57 52 100
37 10 88 93 41 83 82 81 82 71 15
0.757979
0.405706
0.862451
0.804806
1.47604
1.46914
0.677961
0.395015
0.766976
0.435526
0.361476
1.30601
0.825249
0.72012
1.356
0.908358
0.751656
0.431017
1.36911
1.27347
0.376124
1.16501
0.590981
1.27927
1.47422
1.49955
1.21927
1.22468
1.17261
1.11461
0.48276
0.698598
1.08022
1.329
1.12986
0.832003
0.305713
0.960893
0.645709
0.691142
1.25151
1.22394
1.02959
0.510074
1.48678
1.03643
1.26703
1.27573
1.36867
1.45927
1.2774
0.662554
0.332525
0.382465
0.73162
1.35251
1.44711
0.612586
1.00002
1.13254
0.360082
1.15175
1.20591
0.964998
0.791519
1.12343
0.754008
0.676566
0.527145
0.56733
109 56
313 311
418 421
68 191
276 369
294 443
404 169
42 54
348 350
169 174
58 364
267 280
444 123
340 101
251 273
457 10
90 338
143 418
93 90
22 426
171 448
104 421
90 451
400 140
485 193
429 213
232 230
302 451
383 444
258 36
69 359
493 478
430 38
244 434
154 144
190 105
56 124
399 375
2 293
407 364
356 171
344 429
147 336
308 420
296 285
423 498
437 94
395 125
146 153
83 72
282 207
110 342
400 185
11 328
65 2
63 458
437 26
182 261
184 176
299 94
380 268
129 126
279 72
336 144
30 349
159 76
237 271
156 27
212 464
288 458
6481.67
3
