70
3
0 0 0
79 94 54
75 20 58
29 30 75
77 92 46
88 83 43
49 31 39
35 44 100
34 34 40
31 84 96
84 96 52
14 13 46
28 19 43
51 74 74
66 39 56
94 27 41
70 85 54
25 97 20
34 12 40
58 92 12
58 75 30
50 77 69
26 36 47
51 15 33
24 30 11
44 15 29
24 92 70
88 85 68
35 56 12
28 53 30
52 56 36
80 99 61
49 24 69
18 23 63
50 74 53
83 59 51
31 100 58
31 76 40
49 34 43
80 57 36
14 76 97
33 24 15
65 44 78
74 91 64
97 57 93
33 33 75
100 41 69
73 91 76
99 23 94
59 26 24
87 90 42
51 62 58
11 88 12
93 26 28
88 24 64
39 44 77
55 78 89
48 21 92
41 70 39
93 13 55
18 10 16
70 75 66
58 80 29
30 58 76
80 89 91
94 98 98
15 91 45
26 88 65
80 17 19
14 100 31
0.929824
0.276714
0.891391
0.584696
0.965742
0.277143
0.518882
0.66477
0.868496
0.884344
0.451768
0.65307
0.325788
0.870778
0.645979
0.295407
0.596749
0.277814
0.953381
0.556121
0.285621
0.686845
0.755843
0.696246
0.326482
0.953194
0.461774
0.577836
0.381605
0.744304
0.692118
0.451366
0.600837
0.87835
0.368695
0.294377
0.811911
0.967003
0.706952
0.561038
0.488038
0.997233
0.92958
0.987292
0.724145
0.540661
0.588149
0.791995
0.430896
0.692437
0.631521
0.904188
0.633501
0.706502
0.516142
0.741004
0.284667
0.505758
0.856389
0.515103
0.856693
0.677842
0.287498
0.45697
0.88084
0.282538
0.912138
0.638329
0.395427
0.69543
167 125
96 419
36 201
284 432
441 142
380 240
189 307
499 451
343 467
416 380
6 110
230 13
299 270
38 476
148 478
278 354
147 410
158 447
6 144
487 364
254 327
95 426
32 185
384 77
289 264
279 156
448 185
78 12
348 31
326 73
51 174
24 372
165 187
263 329
396 273
303 98
469 404
60 360
464 101
409 347
262 484
262 463
85 383
143 397
84 467
444 283
159 97
223 432
391 44
117 373
73 485
118 433
223 169
212 493
205 288
247 140
75 100
434 459
244 152
300 36
304 228
164 435
358 173
365 70
34 363
222 118
79 170
419 382
232 114
231 7
3771
5
