70
5
0 0 0 0 0
43 37 98 32 74
41 55 27 54 26
41 49 78 81 88
85 85 85 53 60
10 87 38 14 37
41 21 84 46 100
22 53 34 82 42
77 81 89 43 87
70 100 20 38 12
18 98 65 23 60
23 37 54 15 58
85 33 69 52 79
25 24 29 30 66
100 61 53 45 69
52 66 71 45 22
58 39 32 61 16
27 26 85 91 15
97 54 70 57 46
40 12 37 42 17
25 83 90 99 25
94 24 23 89 91
69 94 82 68 50
70 90 39 36 19
56 79 68 18 63
45 57 86 60 31
23 99 42 49 91
66 26 41 91 96
79 54 81 78 72
88 67 60 93 47
23 100 34 13 94
39 55 56 68 17
61 56 14 71 90
93 28 79 47 51
59 27 23 85 54
13 56 32 65 60
39 38 84 24 30
56 54 83 86 59
26 88 55 35 11
70 64 36 90 18
64 26 25 40 12
49 10 50 54 40
81 50 70 12 89
83 81 24 32 36
32 84 54 100 48
98 14 71 91 80
55 87 27 35 89
60 66 33 73 70
59 78 94 80 31
87 12 58 20 35
20 30 53 54 81
17 72 57 13 15
66 10 12 27 77
84 22 39 18 11
88 11 84 59 59
60 23 85 29 69
78 52 79 83 70
20 32 24 33 35
11 12 71 100 36
17 31 37 16 26
46 69 72 76 69
28 18 83 81 91
54 89 62 24 54
44 70 81 22 79
20 35 85 73 50
17 85 17 53 57
89 69 38 28 76
70 88 86 79 63
48 78 99 60 94
35 20 60 85 95
1.16798
1.95563
0.500533
1.66612
0.994143
1.72358
1.67529
1.24272
0.64092
0.989593
1.91951
1.01316
0.748439
1.02401
0.924129
0.664547
1.06067
1.10271
1.12987
1.28154
0.916639
1.37502
1.66016
1.9881
1.58108
1.79656
1.01069
1.72348
0.962956
1.40697
1.04993
1.74592
1.20313
0.513932
0.476751
1.37836
1.1391
1.1077
1.756
1.80259
0.990799
1.8988
1.57323
1.9152
0.957987
1.05556
0.432006
1.43825
1.77329
1.63554
1.95702
1.87255
0.890568
0.757211
0.986992
0.440152
1.88878
0.660456
1.87646
1.643
1.52073
1.33791
1.64895
0.625608
1.74011
1.94365
0.999163
0.639493
1.03345
0.980113
467 46
167 16
428 417
163 23
389 419
452 20
366 256
4 272
372 150
267 299
295 390
219 83
356 432
231 308
440 400
217 187
218 44
453 335
361 77
177 454
3 63
440 273
190 348
17 343
434 351
157 239
350 285
166 258
319 218
291 135
324 130
260 497
273 295
19 348
489 117
279 407
105 233
490 422
155 376
328 435
77 109
137 69
58 221
373 268
154 486
60 461
139 146
157 382
192 237
160 106
449 261
85 212
246 69
246 397
367 244
302 322
101 142
266 264
32 361
403 426
202 97
406 306
323 392
6 487
49 232
301 23
450 191
352 321
338 221
51 447
3753
5
