70
9
0 0 0 0 0 0 0 0 0
82 40 43 31 69 98 45 79 60
96 77 35 50 61 78 70 30 17
74 49 46 69 97 50 63 99 29
10 22 10 46 91 98 80 26 48
86 79 67 23 89 49 59 97 53
60 87 12 17 76 62 54 92 27
21 24 42 86 16 48 72 67 50
37 57 93 10 75 100 11 88 82
98 22 89 48 97 16 59 17 94
55 77 21 31 64 45 38 27 17
54 78 22 90 52 71 74 87 94
79 67 42 96 77 33 13 35 58
56 73 53 93 23 13 42 75 50
86 19 17 63 50 73 18 48 66
82 96 88 74 92 97 84 49 77
13 91 54 98 28 34 67 26 90
97 92 52 69 58 51 98 10 55
49 85 75 18 24 86 21 24 67
37 50 51 14 15 10 42 11 58
17 14 27 30 50 96 80 45 41
41 68 75 28 11 15 24 26 12
36 65 20 39 18 63 44 20 71
34 30 52 57 10 80 84 42 72
88 100 100 72 88 60 24 95 41
24 51 34 73 23 42 45 57 62
34 29 100 59 90 21 65 64 70
10 15 10 15 19 22 16 80 49
99 46 70 100 76 23 40 45 45
51 18 89 32 64 48 56 98 66
26 58 16 32 65 49 100 41 14
16 66 48 66 62 72 32 14 56
24 79 37 63 22 23 74 72 89
45 10 53 50 44 28 54 14 98
85 72 95 13 51 16 21 58 78
61 46 77 69 11 16 58 79 15
64 76 13 40 37 36 51 38 60
64 80 13 32 13 36 69 14 24
34 64 20 10 69 80 87 98 20
49 86 87 93 70 69 56 63 59
35 33 53 31 32 56 35 67 90
17 29 69 37 18 94 60 99 35
33 26 44 85 85 42 81 56 55
18 52 95 61 98 47 25 79 55
57 23 93 74 66 46 48 78 46
28 48 12 63 94 85 78 71 59
45 97 95 23 35 17 90 35 49
95 88 95 85 33 71 69 20 24
57 12 22 26 94 27 75 60 79
81 61 39 54 14 25 82 78 83
28 88 46 54 52 11 10 82 40
98 81 44 77 97 34 47 12 36
86 40 56 55 54 66 50 80 43
74 99 33 39 100 30 88 85 21
61 15 43 14 99 49 60 43 33
62 20 16 26 54 79 80 76 23
17 83 60 77 71 68 64 92 65
62 50 21 29 96 47 77 51 71
24 64 59 47 51 89 42 38 49
63 29 61 63 74 88 11 87 96
84 36 17 85 89 54 79 22 60
39 27 48 89 76 49 81 52 64
97 23 74 69 91 75 49 15 50
41 21 63 45 80 92 31 82 49
42 84 95 84 72 81 59 100 86
12 45 76 18 65 50 28 49 45
36 76 64 55 45 64 23 37 84
75 81 92 10 91 87 13 74 99
67 58 12 87 91 14 45 56 35
75 46 54 88 83 40 64 88 99
0.900985
0.502908
0.218732
0.600195
0.878267
0.979055
0.519016
0.990802
0.790077
0.816856
0.395768
0.975179
0.854089
0.372331
0.599877
0.815591
0.551553
0.221199
0.720811
0.975543
0.435808
0.711695
0.737492
0.665287
0.973577
0.456187
0.773937
0.868491
0.315285
0.832041
0.80725
0.609086
0.842844
0.410285
0.366238
0.610446
0.560389
0.359349
0.484936
0.575221
0.931932
0.631044
0.259319
0.735582
0.742617
0.385951
0.239507
0.865869
0.588325
0.718946
0.864885
0.866942
0.706716
0.75798
0.343785
0.771146
0.677954
0.879092
0.628226
0.375374
0.34803
0.50546
0.671152
0.878391
0.866946
0.408054
0.5107
0.348874
0.544642
0.267028
494 406
330 66
4 227
325 460
259 357
463 32
492 192
410 296
80 275
357 232
392 302
367 229
83 183
234 20
61 397
373 388
10 205
477 149
139 251
224 414
288 56
338 389
135 233
228 186
280 236
312 420
59 351
464 376
115 66
31 300
244 92
341 294
221 406
287 231
280 45
108 461
54 498
220 257
52 384
60 302
76 22
166 402
176 440
434 315
69 194
44 460
289 427
313 119
371 355
442 155
485 326
432 306
461 16
316 152
128 401
364 47
493 459
250 234
436 186
440 334
343 418
215 469
244 46
188 253
394 261
401 54
138 58
471 40
196 27
113 270
6306.67
3
