70
3
0 0 0
18 71 50
96 22 90
18 89 92
45 26 39
88 89 16
88 37 73
64 75 19
76 79 49
57 38 44
61 25 11
12 89 83
31 75 95
44 53 57
58 95 28
89 94 70
38 73 94
63 90 21
48 62 60
61 63 95
73 67 87
84 44 84
97 38 66
76 10 49
62 76 48
73 76 50
21 64 48
26 41 26
29 10 23
48 39 86
78 77 81
30 25 21
90 48 81
82 41 20
11 58 47
48 67 87
78 46 55
76 58 86
97 85 51
43 46 41
65 98 70
84 86 49
26 61 34
51 11 57
49 70 60
42 77 50
35 21 48
87 36 30
90 74 62
67 73 88
40 18 79
36 53 37
23 91 85
93 95 26
62 25 63
12 60 11
32 98 96
11 59 10
16 61 45
39 10 66
39 10 17
30 51 59
56 79 72
89 78 84
39 58 83
40 81 63
49 16 64
78 58 41
31 72 25
83 77 64
0.544155
0.70494
1.19318
0.768496
0.316121
0.32777
0.318038
0.675587
0.550088
0.74434
1.49677
1.47886
0.935016
0.889812
1.26174
1.39409
1.05459
0.62917
1.13199
1.3033
0.513485
0.347059
1.25056
1.42147
0.344884
1.34101
0.705145
1.42165
1.3781
1.48794
0.985224
0.75043
0.659616
0.417456
1.15775
1.39827
0.737991
0.864043
0.541363
0.519948
1.074
0.631253
0.875699
0.921321
0.730534
0.671088
1.05558
0.768701
1.03321
1.08609
0.694745
0.745749
0.808128
1.14017
0.667872
0.879859
0.44083
0.609556
0.915446
1.49367
0.366261
0.578539
0.898496
0.330853
1.24196
0.38344
0.829078
0.379193
0.472865
1.06013
311 284
346 140
212 364
107 259
481 369
458 59
155 436
22 201
19 77
27 346
188 373
388 350
279 101
61 331
167 183
88 461
106 72
201 102
309 325
10 173
336 295
352 445
86 351
250 131
444 443
258 180
275 191
290 77
45 93
280 486
234 91
425 26
378 268
281 247
63 38
319 404
89 166
252 126
465 65
80 353
489 283
274 70
259 46
233 94
115 99
480 473
419 53
489 373
343 140
48 11
86 21
188 131
418 324
463 155
297 110
463 161
142 35
64 205
237 335
282 78
165 332
373 455
114 174
33 469
7 30
25 40
60 394
380 86
456 291
190 180
4853.75
4
