70
3
0 0 0
71 97 23
80 74 37
12 96 43
26 72 34
70 24 93
58 87 99
85 30 83
74 98 44
35 94 96
43 84 70
30 95 100
20 71 71
81 54 93
77 33 78
39 64 25
53 80 16
53 65 43
33 99 38
76 44 58
12 32 34
46 63 71
32 66 87
79 92 73
58 42 86
44 41 32
18 68 54
87 16 85
27 40 86
63 37 89
60 96 45
58 59 86
14 71 73
64 57 39
30 58 50
51 66 60
15 58 83
15 13 77
74 44 20
55 40 100
60 61 41
16 31 44
31 37 36
49 13 73
12 27 13
89 40 84
85 77 57
90 68 85
35 87 10
77 38 44
32 100 84
21 88 51
20 39 62
51 63 42
53 59 74
33 71 66
10 23 64
62 46 35
18 48 85
24 20 74
36 18 22
63 22 82
74 70 63
39 61 22
48 50 21
83 49 66
88 12 71
58 33 77
85 67 33
68 34 41
1.03382
1.26653
0.45161
0.834277
1.8039
0.87066
0.854038
0.553169
0.809089
1.72634
0.974174
1.81017
0.726434
1.1291
0.51428
1.86919
1.79253
1.08988
0.93025
1.62997
1.72543
1.96779
1.60765
1.92765
1.41868
0.813123
1.94358
0.902149
1.12016
1.67238
1.75119
0.667484
0.415903
1.92797
1.35949
1.25071
1.95301
1.37678
0.676095
0.593708
0.840122
1.38228
1.08409
0.669692
1.75435
1.05464
1.81912
1.94787
0.979953
0.715344
1.55678
1.10892
1.62189
0.449079
1.15363
1.92776
1.57267
0.557437
1.72088
1.14793
0.962443
0.890201
1.94691
1.54078
0.589246
0.555442
0.563146
1.67986
1.96743
1.74572
456 54
110 229
188 160
496 198
436 426
161 346
271 259
196 65
274 385
44 420
464 485
444 379
289 352
280 185
210 81
190 408
101 240
14 112
413 62
379 9
410 108
499 405
335 18
423 408
428 373
442 3
357 308
170 397
6 294
233 0
468 399
313 349
192 491
240 149
246 76
144 32
460 443
445 440
500 290
265 419
250 156
68 415
270 291
373 179
254 73
27 97
268 367
340 115
196 49
217 201
336 235
97 97
207 458
192 275
380 6
197 396
265 236
393 385
212 224
231 348
179 396
435 237
157 282
420 358
295 197
169 348
490 396
263 125
251 436
147 180
6330
3
