70
3
0 0 0
20 41 95
13 51 35
14 93 78
90 50 77
63 29 18
61 19 31
46 80 28
54 75 38
43 52 87
83 71 19
28 77 40
67 48 46
11 86 87
92 18 59
37 35 58
29 39 17
65 90 94
40 71 42
38 86 69
16 72 10
12 33 33
70 86 47
89 12 61
20 97 100
66 70 53
24 35 46
79 43 13
49 15 96
28 24 94
42 68 61
72 29 15
48 35 37
22 97 71
67 51 98
44 71 23
74 31 78
49 83 70
67 62 21
49 66 84
92 64 36
14 21 22
20 11 78
71 20 35
99 11 64
17 35 46
52 75 25
54 18 93
12 13 80
60 79 72
73 57 57
84 49 93
22 50 90
29 12 98
58 50 15
71 89 57
45 33 18
23 10 83
74 11 10
93 76 28
67 33 46
30 89 84
86 86 33
71 43 92
100 62 55
31 66 49
29 91 18
72 71 58
59 13 96
59 10 98
0.786978
1.41836
0.84393
1.98277
0.594813
1.83135
1.30882
0.971556
0.501452
0.741267
1.07688
1.64769
0.539327
0.797164
0.86611
1.31149
0.825854
1.81153
0.558596
0.802946
1.84759
1.93399
0.437681
1.34331
0.516695
1.05968
0.922227
0.903482
1.4726
1.25168
1.41523
1.88658
1.35928
0.755143
0.798687
0.55272
0.704937
1.89514
0.46066
1.88087
0.667546
0.620008
0.767834
0.532288
1.57622
0.673333
1.14785
1.31553
1.09132
0.592129
1.39429
0.78042
1.99474
1.1123
0.727799
0.403036
0.498859
0.459099
1.21202
1.97261
1.13506
0.410728
0.758856
1.05183
0.667062
0.464033
1.08653
1.30298
1.82092
1.0073
34 45
23 165
342 2
481 239
211 168
189 299
336 254
10 88
487 138
291 148
237 448
490 4
229 20
171 84
467 313
304 327
80 219
439 220
444 66
201 89
88 10
202 395
401 144
378 229
27 75
166 236
70 235
33 158
31 201
451 396
124 331
122 285
311 161
435 450
287 461
58 395
64 256
329 76
463 344
253 222
403 194
446 246
386 294
56 457
45 29
14 437
128 313
359 83
24 425
182 125
51 208
272 177
34 187
310 486
103 222
330 7
472 90
312 456
393 17
481 389
410 246
42 393
405 358
422 173
195 353
308 216
331 458
253 127
48 464
488 275
9120
2
