70
11
0 0 0 0 0 0 0 0 0 0 0
67 45 12 46 69 72 25 41 12 37 74
92 74 46 99 55 84 82 31 100 14 12
13 81 35 34 56 81 84 13 39 91 20
80 45 31 79 22 73 31 65 50 16 77
26 91 22 18 92 89 48 27 99 35 18
33 93 91 74 13 12 82 55 36 100 90
86 73 61 46 16 61 39 69 19 40 29
75 87 84 60 74 64 18 17 86 91 15
76 33 55 96 42 73 91 19 14 78 72
81 82 54 68 100 43 59 57 87 39 31
23 88 66 37 52 69 48 25 86 19 53
80 32 33 43 45 42 57 62 99 23 73
92 78 28 60 70 15 50 89 43 78 37
67 36 36 92 63 53 42 92 48 50 24
57 93 75 94 50 75 47 51 29 78 79
55 35 30 98 40 100 24 24 73 39 63
35 60 28 69 71 14 64 93 72 55 55
29 86 21 88 26 63 61 51 13 64 85
75 50 71 95 36 31 73 51 13 27 30
33 83 21 47 65 12 77 43 90 59 90
79 29 85 93 12 26 58 25 38 27 49
80 51 79 71 40 32 23 56 87 76 66
87 58 83 47 87 60 34 32 40 95 70
17 83 90 85 34 82 32 96 17 52 43
80 40 66 41 84 36 38 42 21 55 61
20 31 72 93 67 46 21 61 91 20 67
89 12 38 10 24 78 72 27 63 66 97
65 68 15 68 43 60 79 65 94 62 85
98 93 90 38 30 94 85 73 20 90 34
69 92 74 73 21 67 83 26 21 79 43
56 44 39 25 10 54 42 45 47 49 44
94 91 75 80 98 81 17 78 93 19 11
30 74 62 44 11 72 95 11 18 43 80
31 55 82 20 58 42 36 78 55 96 46
85 95 10 72 69 26 21 61 33 59 37
36 33 75 56 55 48 86 55 67 25 86
91 69 86 39 45 45 92 72 85 50 12
80 54 24 72 85 100 35 62 97 20 98
35 49 10 13 70 60 88 39 46 47 78
41 65 37 27 14 18 49 63 24 54 59
92 80 10 71 68 90 60 92 81 74 18
96 65 27 36 91 62 20 19 25 85 42
80 86 29 34 62 30 16 81 83 85 73
17 46 21 66 27 74 57 11 31 68 47
27 57 67 25 74 99 46 62 88 31 51
76 39 35 69 85 84 100 31 56 87 65
86 70 57 54 44 27 32 13 71 64 14
27 79 88 88 75 31 32 34 13 78 34
43 19 97 17 32 77 19 53 12 29 95
17 20 33 94 96 21 93 51 62 92 58
11 86 98 43 27 22 17 87 82 15 11
46 100 21 78 39 61 87 62 70 38 63
85 34 82 87 88 77 16 75 19 42 67
52 76 89 31 98 58 81 19 44 79 87
52 84 70 16 32 51 69 74 60 91 59
94 43 32 58 13 36 17 70 73 95 60
83 50 13 95 10 67 45 10 52 41 24
95 49 76 20 57 50 85 40 52 95 61
93 78 12 43 68 44 33 91 91 24 23
20 52 32 53 88 68 75 61 75 83 30
65 98 40 46 100 31 49 31 52 89 52
87 80 45 52 97 51 26 70 74 78 57
52 74 71 14 33 31 20 50 34 95 52
80 71 98 74 18 69 47 46 21 66 11
98 80 91 98 91 66 78 76 37 88 37
25 54 19 25 54 97 44 92 59 88 78
61 18 52 61 81 15 65 52 63 12 80
99 17 75 13 63 43 36 26 75 84 87
75 71 86 83 60 84 82 72 67 82 48
1.99596
1.48174
0.752025
1.51004
0.552349
1.34951
1.06133
1.63817
1.81832
1.65638
0.98024
1.26413
1.95222
0.937362
0.703662
1.00687
1.83018
0.436851
0.759413
1.81961
1.04354
1.85659
1.03251
1.62291
0.727204
1.33947
0.711347
0.944216
1.06935
1.21923
0.676313
0.625797
1.51948
1.03031
1.62097
1.62434
0.519979
1.66322
1.06806
1.45845
1.16778
1.27631
1.405
1.69512
1.6488
0.614206
1.35687
1.70761
0.954003
1.1649
1.77254
0.594465
0.647076
1.77425
0.704042
1.34443
1.65711
1.70201
1.84617
1.58082
1.77158
1.47613
1.39377
1.73652
1.93379
0.748268
1.90682
0.48363
0.64524
0.814179
255 213
332 472
177 379
51 2
71 219
363 357
120 93
358 258
61 450
314 109
92 301
257 430
0 70
18 114
352 500
273 280
400 367
223 70
346 129
298 440
426 219
60 22
472 12
109 305
218 159
422 393
158 67
292 205
122 424
461 462
279 14
188 255
452 152
7 251
429 138
477 428
299 31
465 472
360 347
461 128
475 239
369 468
217 180
417 16
16 228
91 224
264 115
347 11
440 221
160 306
267 238
314 30
472 227
367 160
155 465
40 183
487 45
286 149
417 87
314 330
281 485
6 428
445 180
417 349
407 432
198 14
6 279
118 209
234 350
190 112
3875
5
