70
7
0 0 0 0 0 0 0
91 46 55 87 77 87 95
53 19 32 89 38 41 90
12 75 90 98 93 44 97
96 90 18 30 93 36 37
23 48 83 53 12 37 13
86 67 68 30 58 86 93
20 58 85 49 97 49 66
77 55 87 95 41 65 48
53 73 54 54 97 46 62
92 72 74 29 96 12 20
74 44 64 37 23 18 45
34 42 35 71 50 80 51
57 26 33 30 88 94 23
63 30 99 71 79 25 50
76 27 98 27 36 11 19
77 53 74 24 44 53 84
47 41 71 42 27 98 17
58 41 12 78 96 99 43
55 44 88 69 31 82 98
62 42 62 14 91 56 24
30 58 54 71 46 15 47
28 22 10 11 72 63 60
99 71 30 47 58 66 49
30 68 38 22 49 33 80
71 87 57 50 36 90 69
90 67 95 23 54 83 82
99 28 27 33 64 77 33
44 30 76 81 39 70 29
60 99 58 36 36 63 27
46 58 40 44 27 56 14
32 72 37 18 42 51 96
50 93 61 66 100 60 76
89 89 87 53 76 21 11
13 92 37 20 47 98 51
61 38 93 18 92 95 36
91 67 72 79 95 10 75
85 17 100 75 91 15 52
55 86 15 65 71 80 66
38 26 21 70 61 100 19
36 83 33 89 61 85 70
51 99 67 73 93 86 96
83 38 69 40 38 40 52
26 39 74 48 44 31 75
11 49 88 54 99 47 56
22 37 65 97 51 72 80
25 55 84 40 57 40 58
65 84 60 57 23 39 47
65 21 43 69 52 19 27
73 59 43 32 82 19 61
21 64 66 46 10 26 53
49 10 62 63 33 96 83
52 99 57 16 95 14 74
15 99 40 54 94 67 30
42 95 61 79 76 33 35
17 96 61 70 11 67 21
35 11 29 50 66 18 14
58 59 99 52 20 78 83
39 28 20 49 84 26 83
68 22 65 85 34 20 44
52 10 90 70 10 37 27
86 57 95 11 88 27 70
48 20 28 26 68 32 88
10 44 59 67 55 65 42
90 42 13 53 100 47 62
41 76 54 75 15 13 78
27 82 22 19 71 23 13
20 65 64 51 91 83 77
88 67 50 56 60 29 73
96 70 61 22 66 39 65
2.39634
2.49077
0.797218
2.47179
1.48432
1.35564
1.59696
0.911625
1.76841
1.01899
2.4802
0.86671
1.62812
1.09684
1.16811
2.46261
2.47232
2.00849
1.44815
1.37381
1.12921
0.543198
0.502057
1.3264
0.589866
0.822512
2.2408
0.717386
1.86544
1.75259
1.73741
1.87395
0.816167
2.00659
2.45133
2.16404
1.74746
1.9466
1.60096
2.30602
1.82675
2.27466
0.898582
2.18243
2.45863
0.931551
2.3424
1.42776
2.45176
0.74928
1.76559
1.94054
1.16349
0.861935
1.00927
1.50935
1.81848
1.61595
1.4782
0.673611
1.30838
2.03235
0.533031
1.85032
2.26061
1.23841
2.4731
1.85861
1.08605
2.11182
214 66
472 102
168 282
327 95
383 427
209 359
164 143
262 109
422 457
58 208
17 402
143 236
162 332
448 455
298 52
138 63
145 83
392 388
465 421
120 419
133 112
167 194
464 129
182 166
256 427
451 469
13 326
65 266
213 306
383 370
113 454
184 431
219 193
264 473
233 82
345 408
271 174
65 466
368 242
485 411
42 151
222 497
311 411
84 375
231 269
295 206
251 464
417 156
495 292
413 20
79 395
422 137
187 279
303 219
70 138
307 6
199 5
439 164
474 338
150 231
130 335
174 174
19 161
229 142
465 49
220 45
125 170
296 398
380 433
268 179
19060
1
