70
3
0 0 0
32 69 44
47 20 81
42 76 42
58 66 95
76 66 59
100 19 31
50 69 65
80 18 37
16 88 14
49 39 15
24 53 70
72 45 100
23 71 38
34 29 51
26 96 85
54 76 51
87 47 81
82 53 23
31 14 10
10 73 38
23 43 82
47 39 19
61 39 41
40 61 67
62 89 51
69 97 20
38 41 45
53 72 49
45 31 53
70 85 88
67 28 15
95 54 50
58 56 27
34 52 84
71 53 58
15 22 99
82 12 93
87 36 90
51 10 50
77 47 33
15 92 89
32 18 95
25 26 99
60 12 48
27 79 47
29 30 13
29 16 54
61 30 87
13 19 58
91 74 23
67 88 23
93 65 24
79 53 97
50 66 71
32 84 72
93 96 45
93 38 75
69 47 10
74 89 65
28 92 28
53 17 38
49 39 84
38 42 71
17 86 39
30 72 70
89 48 12
74 88 80
73 94 11
60 42 17
1.54949
0.747273
0.704627
1.10237
1.07613
1.28587
1.51353
1.89636
0.736685
1.28191
0.81877
1.45962
0.979021
0.430169
1.78523
1.91781
0.507713
0.939834
1.12975
0.60728
1.39329
0.946476
1.37801
1.34335
0.93073
1.6251
1.14256
1.23119
0.653622
0.955707
1.41576
1.11685
1.82673
1.21371
0.604705
0.717411
1.44175
0.617036
1.44713
1.75458
0.674208
1.99904
0.852063
0.652
0.503613
1.96555
0.953576
0.937334
1.35346
1.26428
1.58739
0.979959
1.87527
1.11736
1.73431
1.77227
0.482691
0.969376
1.34154
1.57261
1.14166
0.476159
1.16561
1.4433
0.518373
0.635875
1.06719
1.33049
0.812588
1.73249
156 297
210 68
415 336
385 50
171 186
278 157
169 181
213 274
263 195
378 311
197 233
258 361
418 381
32 290
201 398
94 311
13 195
274 129
107 98
495 284
285 268
332 375
69 356
389 287
54 245
254 388
496 4
368 31
159 140
236 399
234 95
309 408
433 225
70 184
223 282
430 219
396 66
109 28
100 244
277 414
252 263
193 77
373 33
138 446
98 399
273 224
497 112
29 481
102 19
131 73
262 147
342 394
196 54
356 113
433 285
213 80
241 223
177 3
200 176
438 493
191 328
116 19
363 206
79 422
225 161
5 50
251 276
400 131
339 287
366 349
6146.67
3
