70
11
0 0 0 0 0 0 0 0 0 0 0
46 48 57 51 17 12 23 92 77 39 64
96 56 80 23 18 14 96 94 24 35 15
83 62 81 62 79 94 67 92 72 16 41
94 73 88 97 41 16 10 10 95 91 68
17 77 31 29 48 21 47 61 33 97 62
95 76 45 17 56 94 13 16 28 17 47
34 63 52 65 78 53 14 42 36 24 33
77 12 95 51 42 81 24 98 56 33 90
44 99 45 16 76 74 43 62 17 54 80
11 59 18 76 63 86 60 90 26 26 69
51 63 66 68 52 42 58 62 34 87 34
68 93 50 72 23 93 76 31 20 91 54
58 13 70 94 68 77 87 77 22 70 69
73 27 95 71 31 100 11 62 85 82 57
28 20 63 64 73 59 27 42 42 50 98
20 77 69 35 21 54 46 69 65 78 69
70 51 25 75 47 16 64 47 93 31 16
67 62 67 57 79 88 20 14 28 93 88
32 31 95 33 80 49 55 24 47 12 68
26 26 77 30 92 22 68 91 90 11 93
83 96 10 55 74 64 92 15 38 42 74
37 11 12 91 93 99 22 72 49 86 81
85 22 53 66 43 36 30 55 79 55 41
72 37 37 62 64 37 59 27 25 95 96
26 32 83 88 44 12 74 84 57 96 10
26 24 29 30 34 25 63 79 52 16 73
72 33 48 66 48 70 63 50 52 53 79
49 66 74 94 29 98 22 50 24 83 25
31 96 17 63 20 52 68 29 47 40 74
68 93 69 14 43 39 42 10 34 98 16
94 11 98 41 37 94 17 67 71 84 38
72 48 14 19 67 13 63 68 49 22 39
26 39 11 17 85 18 49 43 72 58 52
56 30 95 21 50 47 70 43 52 98 56
89 55 21 10 49 67 58 53 28 49 84
73 75 18 61 29 12 55 14 96 12 65
100 25 33 73 17 70 62 21 81 20 94
84 24 49 86 82 84 70 48 46 54 96
78 98 39 62 10 51 12 63 18 78 40
12 20 75 41 10 51 85 20 81 40 57
80 99 73 68 19 76 93 37 79 42 27
95 53 29 15 32 77 44 83 42 38 75
11 31 49 27 95 81 71 99 46 46 96
37 11 67 12 11 68 36 75 15 44 13
32 10 36 53 57 99 79 22 79 52 97
69 90 82 45 22 24 97 55 92 67 61
33 88 77 53 67 35 72 33 77 16 85
68 55 70 36 86 74 41 50 52 62 78
68 67 55 79 71 39 78 99 64 21 45
75 67 34 54 39 65 66 75 96 75 26
85 82 31 44 27 79 45 63 13 30 88
96 40 52 86 66 89 88 63 86 21 47
57 28 70 32 51 78 47 69 34 96 18
50 51 24 30 82 26 93 69 67 52 82
46 54 62 30 68 98 86 75 14 67 45
98 81 61 21 98 20 80 91 82 72 68
39 79 20 77 49 69 30 15 62 35 39
98 76 44 20 50 87 61 92 79 85 80
97 54 46 58 44 59 80 14 89 49 48
39 52 98 65 49 89 81 82 88 20 37
77 53 28 17 62 55 50 30 68 36 69
80 21 38 61 59 44 59 60 79 75 63
94 46 93 35 70 69 98 88 40 55 17
44 30 59 64 74 90 69 46 83 24 59
34 82 23 12 82 38 87 95 41 75 40
90 58 41 16 61 86 90 10 10 36 13
11 29 18 61 11 89 36 96 11 84 64
96 31 81 78 37 22 53 25 97 93 19
57 53 87 40 39 28 33 39 84 55 70
0.583521
2.38766
0.649253
0.837972
1.45379
1.01907
0.847251
1.2933
1.79519
1.73181
2.07814
2.11556
1.41356
0.770552
0.73164
1.70071
2.00357
2.37674
2.2694
2.12152
0.856189
0.993187
0.623812
2.36973
0.859148
2.10309
0.744565
1.42154
2.38366
0.81164
1.51429
2.36199
2.15136
2.38965
0.683643
2.2676
2.19872
2.25345
1.45101
2.30269
2.12311
0.582704
1.9632
0.948001
1.44184
1.13964
1.58537
1.40957
1.21687
1.50615
0.734713
1.8873
1.33299
2.03931
0.728364
1.80704
0.923805
1.30108
0.647604
2.04931
2.186
0.930205
1.72114
1.13578
2.41895
2.27105
2.21784
2.14217
1.80089
1.41756
438 3
15 487
115 191
151 21
257 397
166 121
55 13
95 148
342 349
468 198
85 51
398 363
320 431
421 112
178 215
282 241
241 237
456 190
157 138
351 339
339 113
381 428
118 84
277 374
470 61
90 159
221 398
300 254
63 335
215 244
443 369
336 241
76 440
78 467
7 219
23 212
297 295
200 11
264 168
384 428
320 70
315 132
14 386
334 154
295 183
353 481
214 174
116 50
469 174
255 0
70 414
311 238
18 16
88 311
178 292
451 479
95 406
416 28
230 123
263 493
129 438
113 177
472 65
186 182
113 176
29 54
425 179
471 474
178 283
115 385
19010
1
