70
7
0 0 0 0 0 0 0
76 27 17 37 41 51 67
99 20 61 76 49 25 70
53 73 34 94 20 37 37
34 35 48 55 83 42 53
20 56 36 58 85 88 94
37 75 48 44 96 32 71
96 64 56 38 31 28 62
44 31 27 69 22 23 88
29 20 56 90 14 82 29
47 21 26 20 15 56 32
18 59 39 61 58 63 59
21 13 99 80 72 80 59
81 39 47 60 47 34 99
24 76 42 33 30 98 67
84 39 74 91 33 42 98
36 59 13 41 25 45 95
60 68 90 19 93 23 91
92 35 35 67 29 41 90
16 79 51 69 12 36 92
79 25 69 24 91 65 68
95 75 72 47 27 34 29
23 23 52 72 83 21 91
20 73 34 36 52 90 82
46 34 81 57 97 31 100
82 17 75 12 81 52 94
43 91 53 51 55 85 72
12 86 69 29 35 44 15
10 34 85 83 29 61 13
22 21 97 57 51 25 42
81 69 31 16 68 34 43
14 36 80 18 63 90 17
90 24 63 77 70 84 84
26 36 69 48 93 18 69
13 28 28 31 94 53 25
11 11 51 52 29 38 96
98 63 83 34 45 42 82
86 96 16 50 25 76 20
65 94 14 16 41 99 49
52 40 87 24 26 88 67
87 69 93 38 22 48 86
43 86 67 39 83 73 85
59 86 68 47 73 79 40
42 79 69 56 64 50 61
74 39 38 52 12 97 100
27 86 12 50 43 37 88
36 42 76 16 83 74 79
31 39 23 49 20 30 41
89 78 48 18 22 78 69
96 98 44 62 76 64 42
53 48 18 18 19 80 60
26 21 78 34 23 49 61
78 65 67 32 31 26 22
25 30 92 18 40 37 84
16 13 79 17 81 52 20
76 78 50 50 55 33 83
17 89 58 90 84 81 67
35 83 83 61 25 18 38
91 66 30 45 75 29 84
29 24 33 27 73 27 98
51 76 93 84 77 62 91
73 18 10 99 10 86 75
54 97 94 22 88 70 46
45 40 26 91 72 13 26
88 15 37 51 25 29 49
30 55 43 67 13 17 37
28 15 28 48 50 22 24
16 53 97 11 92 99 37
60 16 13 86 63 33 34
94 37 32 87 92 60 68
0.449353
0.206374
0.780013
0.294633
0.55843
0.246521
0.915045
0.748918
0.791914
0.636947
0.276908
0.297309
0.21273
0.283305
0.343119
0.588457
0.537815
0.967032
0.514808
0.817567
0.524793
0.998004
0.873826
0.301809
0.621947
0.293299
0.71819
0.636863
0.802255
0.350634
0.789497
0.664842
0.455317
0.291367
0.931832
0.361091
0.647229
0.304998
0.288112
0.962745
0.817043
0.642087
0.359027
0.255664
0.770824
0.224734
0.998424
0.679888
0.725121
0.588331
0.575655
0.879317
0.342401
0.565157
0.91714
0.953818
0.620968
0.900409
0.713907
0.759514
0.837734
0.566732
0.882824
0.743455
0.513687
0.246753
0.539691
0.995514
0.768085
0.841692
253 165
241 43
377 172
36 243
481 242
242 430
354 149
417 99
191 399
159 179
111 423
77 183
42 2
490 423
273 239
380 301
183 474
161 29
145 198
212 366
158 100
179 172
290 178
202 111
59 49
39 297
138 72
110 384
15 78
309 455
198 268
493 10
351 151
134 422
500 88
191 342
500 244
498 162
302 268
459 94
482 244
354 317
416 436
227 349
177 120
40 403
213 105
248 29
440 293
493 183
287 319
248 380
300 244
90 435
293 283
375 461
160 243
384 296
370 21
293 406
386 146
324 413
440 430
61 264
357 475
24 100
448 93
376 293
113 87
454 441
18305
1
