70
3
0 0 0
81 66 41
91 98 14
61 53 67
97 16 62
14 81 50
84 52 71
23 76 97
88 94 40
85 74 20
48 95 51
77 41 54
70 22 55
32 67 55
92 16 54
17 99 82
66 42 34
14 42 77
41 81 81
23 10 58
28 65 79
29 29 100
30 29 69
16 88 48
90 81 39
22 27 25
72 74 46
94 39 90
95 52 23
48 23 32
71 21 14
58 46 19
66 30 25
77 22 37
96 91 86
65 91 66
48 58 29
13 87 96
73 34 83
36 22 62
39 11 47
54 100 18
63 81 26
91 92 65
77 88 95
79 81 83
35 27 82
20 21 99
82 57 84
41 60 56
86 73 68
75 88 99
76 33 93
44 69 87
64 26 66
20 91 67
64 99 41
36 60 93
74 84 76
83 17 98
52 58 34
59 41 91
13 37 30
48 82 40
44 50 75
17 28 54
41 72 75
92 21 30
62 29 45
28 76 31
0.660053
0.692167
1.46116
1.33667
0.627061
1.00697
0.54187
0.48635
1.15901
0.790454
0.957398
0.949728
1.32009
1.12542
0.98582
0.449773
1.20084
1.18998
1.19464
1.26237
1.25783
0.618153
0.813526
0.431273
1.17127
1.03428
1.27443
1.41519
0.863907
0.65739
1.04105
1.3935
1.27459
0.663302
1.28996
1.48683
0.611261
1.02359
0.496557
0.583265
0.439803
1.17282
1.28556
0.487647
1.11778
1.2755
1.44784
1.2787
0.637257
0.727181
0.35784
0.954219
1.21928
0.482474
0.49046
1.27743
0.398529
0.466142
0.597558
1.37558
0.552584
0.525061
0.921602
1.01023
1.09822
1.16094
1.33761
1.19762
0.477017
1.08598
475 357
498 313
359 440
62 475
189 221
366 81
403 123
439 138
161 2
125 310
360 177
282 396
311 237
272 256
368 364
21 404
354 117
12 277
45 277
190 341
113 90
277 165
491 306
204 81
434 19
454 429
460 208
276 364
471 334
219 306
136 216
195 399
352 292
218 79
30 89
263 110
456 391
38 284
146 396
164 290
0 18
362 384
40 145
255 142
203 40
245 32
94 40
408 228
362 5
308 184
236 242
281 457
463 489
449 178
41 63
392 475
143 308
311 313
465 211
159 193
150 10
66 311
279 3
212 333
16 455
409 30
94 327
484 454
244 192
14 230
9877.5
2
