70
3
0 0 0
90 19 88
82 82 89
70 69 33
40 34 92
92 51 79
46 56 39
34 68 78
13 95 65
76 29 49
57 73 54
42 52 93
78 86 59
62 18 84
99 39 40
16 89 72
51 53 53
12 63 32
61 18 70
73 37 91
83 77 61
82 14 34
13 38 11
79 67 76
72 27 33
98 91 98
15 84 68
73 74 75
69 90 17
17 78 64
79 51 29
29 72 95
18 65 47
14 27 25
92 47 75
73 18 19
63 77 61
86 28 75
27 10 79
29 63 84
22 91 41
86 91 12
24 58 26
37 70 15
44 38 76
49 81 44
99 48 23
39 36 26
98 100 99
81 40 34
76 69 94
24 81 30
39 85 80
60 38 53
76 73 95
32 81 30
78 19 24
38 86 42
21 51 22
35 63 59
73 53 14
11 20 81
10 71 85
20 23 16
58 25 10
28 70 72
72 64 73
68 72 55
85 68 63
53 74 91
1.72311
1.33262
1.80332
1.91914
1.67439
1.7516
1.48977
1.38315
0.654262
1.44572
1.23269
0.841365
2.48886
2.37508
2.2792
1.02786
1.72303
1.73219
1.10574
0.959093
1.89917
0.886616
0.695365
1.03365
2.46755
1.84389
1.84636
1.17506
1.60602
2.023
1.87945
1.67324
0.698399
1.15261
2.28496
0.901595
1.38608
1.87517
1.0597
1.55123
1.59777
0.601959
0.780073
2.46992
2.32612
2.26212
0.750408
1.57308
1.26946
1.00444
1.00619
2.44594
1.91427
1.11358
2.13828
1.19119
1.85435
1.65757
1.52308
1.6645
1.11332
1.3074
1.13221
1.36264
1.92801
1.08545
2.47037
1.32488
1.18724
2.4003
185 356
382 167
160 105
224 313
161 257
41 260
259 16
19 141
416 229
16 278
196 135
99 264
303 87
125 200
69 156
395 37
132 412
452 236
141 392
478 291
288 215
73 226
229 13
390 97
96 478
75 429
301 255
41 488
346 380
304 417
8 18
16 90
330 301
313 455
328 69
273 356
88 8
52 427
206 387
249 365
70 158
337 372
184 1
478 131
493 311
497 461
240 36
81 421
251 163
153 330
434 183
328 279
195 334
66 183
475 225
142 224
481 145
330 53
25 75
323 430
316 156
246 490
226 254
347 254
234 343
486 216
288 3
344 136
285 355
329 116
3860
5
