70
11
0 0 0 0 0 0 0 0 0 0 0
25 66 31 27 56 65 93 70 18 94 31
75 97 38 27 19 28 54 24 41 55 88
59 87 40 12 49 80 96 45 39 30 88
60 98 65 91 98 19 83 100 67 25 30
58 21 58 28 46 58 97 63 41 53 25
19 71 93 87 66 53 100 93 45 63 24
39 92 50 37 56 30 51 30 88 24 84
53 28 79 27 94 12 42 60 57 45 60
27 49 22 28 71 95 73 71 100 89 14
46 19 41 38 10 71 62 17 29 83 17
35 64 54 97 73 40 15 28 71 32 96
60 33 34 88 60 10 33 75 31 49 26
25 30 20 67 46 40 19 79 45 52 92
46 97 49 28 56 98 31 17 50 10 12
59 77 66 89 52 12 25 77 48 79 97
94 12 18 95 81 41 13 46 52 20 46
97 10 11 89 37 65 100 60 24 42 78
32 29 51 49 23 72 27 96 16 82 26
10 100 99 35 53 66 27 32 70 31 12
21 97 62 20 100 29 38 100 99 42 58
92 19 20 67 77 33 74 84 59 33 80
39 45 31 77 29 66 80 73 77 73 44
54 90 56 82 74 61 30 42 34 65 19
78 26 28 43 84 21 49 95 54 37 61
75 71 33 35 70 52 62 96 16 43 53
96 61 98 20 43 81 69 45 62 20 54
39 83 44 36 28 13 56 33 95 92 55
42 81 16 72 39 13 46 10 80 24 33
82 44 51 73 73 84 94 25 37 98 10
54 87 77 69 91 86 83 59 17 54 15
71 43 56 92 85 15 72 70 26 50 23
43 43 53 74 22 43 56 44 92 26 83
25 32 93 74 78 40 93 78 67 21 75
28 78 42 33 81 64 15 58 21 66 80
40 32 39 18 15 82 54 50 11 29 27
31 44 97 23 73 42 44 22 72 17 21
74 10 47 19 77 73 87 11 99 68 95
55 45 44 41 18 82 48 86 38 12 56
48 19 92 75 26 96 85 37 55 53 51
78 97 50 69 26 26 70 92 12 39 22
29 16 44 51 55 90 24 87 21 54 42
91 98 37 37 54 75 100 51 92 92 42
47 20 99 75 52 88 73 25 30 19 28
63 93 31 37 13 16 60 20 18 23 88
49 70 11 88 80 24 73 70 66 63 84
86 92 87 44 70 12 87 85 20 76 94
89 21 31 18 35 45 38 54 89 54 87
25 44 37 21 92 61 24 17 53 76 75
31 23 90 84 70 96 66 82 58 40 24
85 17 31 47 19 80 17 68 85 18 43
88 32 48 54 29 86 71 37 36 14 39
89 43 79 40 33 82 47 16 93 68 14
92 76 47 62 72 89 54 10 35 37 93
28 49 74 45 93 79 27 63 44 35 41
43 43 89 71 74 54 26 89 43 60 57
64 71 33 91 82 87 61 94 89 58 31
38 22 35 86 85 67 11 79 88 65 35
82 17 49 53 88 11 89 57 14 27 63
56 61 61 20 61 36 66 11 93 91 43
17 86 97 12 38 20 84 69 90 97 63
61 11 25 43 54 67 44 99 17 64 60
83 31 14 85 18 90 58 94 17 22 24
31 84 68 67 98 80 55 92 64 13 61
87 33 35 58 86 98 40 38 26 36 81
68 67 66 50 44 19 93 63 38 25 74
45 89 96 43 41 58 71 48 98 67 77
89 92 27 31 83 25 54 16 98 55 10
45 66 95 30 61 98 26 34 84 70 53
90 44 97 16 11 66 52 91 50 54 47
1.44552
1.53983
0.94175
1.78446
1.53465
1.18822
1.06255
1.9429
1.93987
0.87658
0.784035
0.887351
1.04417
0.602633
1.33013
0.481901
0.982296
1.86306
0.868239
0.430736
1.69934
1.51644
1.03529
0.943238
1.58207
0.954408
1.48571
1.79709
1.08632
1.30523
0.449842
1.87862
1.22216
0.924581
0.875459
1.01886
0.608899
0.514782
0.999754
0.42903
1.28175
0.964939
1.1389
1.94022
1.31721
1.81752
1.9123
1.11693
1.68536
1.0854
0.63625
0.594477
0.623934
1.43162
0.955671
1.25311
1.22774
0.41758
1.98119
0.46125
0.958861
1.72944
1.68869
1.48634
0.651461
0.619228
0.569996
0.499608
0.80168
1.95881
188 214
8 183
398 209
340 54
296 393
71 392
146 442
242 112
154 4
322 71
358 173
342 366
100 17
180 487
302 275
320 484
52 13
197 78
7 31
236 264
420 297
142 167
367 269
112 383
362 181
306 213
360 249
267 178
369 99
134 27
399 241
479 396
456 286
65 150
219 303
62 0
106 279
404 332
212 6
450 195
399 312
359 179
209 163
64 467
345 224
330 96
140 471
388 131
185 234
381 66
122 274
13 137
217 266
111 139
214 202
309 414
302 423
29 12
91 235
164 483
90 451
404 192
65 255
60 93
17 456
354 455
325 222
54 193
354 158
204 443
4683.75
4
