70
3
0 0 0
83 90 25
70 57 91
92 36 41
66 14 12
22 84 20
65 47 97
97 78 80
32 70 61
67 36 63
88 85 75
89 48 84
98 16 26
56 39 92
92 86 20
59 66 35
68 37 47
10 79 82
86 49 54
70 96 95
48 43 99
67 90 91
84 100 87
46 91 12
98 72 16
19 27 87
66 32 97
87 92 87
72 92 53
21 40 15
65 20 88
20 71 96
77 13 99
45 33 33
23 19 28
88 41 63
89 18 95
66 45 45
31 36 68
36 53 94
68 50 73
28 49 98
93 33 77
34 83 85
100 99 13
95 43 10
89 45 18
45 38 22
69 54 37
83 11 40
24 100 32
44 56 68
19 92 18
96 67 13
74 85 98
89 97 61
68 65 95
20 73 25
31 34 64
76 50 55
54 55 48
89 87 71
81 69 32
88 97 13
68 92 36
65 71 36
23 58 87
82 68 20
77 40 84
60 23 56
0.317639
0.607946
0.526096
0.728124
0.888916
0.425843
0.41337
0.963562
0.566864
0.728253
0.214752
0.255362
0.354751
0.487325
0.966218
0.601063
0.62443
0.50849
0.629766
0.263317
0.893594
0.602829
0.554932
0.735961
0.868281
0.571438
0.833929
0.820157
0.82404
0.416913
0.853741
0.438378
0.669005
0.862762
0.328515
0.452239
0.204042
0.572538
0.391093
0.842959
0.995634
0.983041
0.34295
0.66943
0.664717
0.286018
0.311538
0.456456
0.803669
0.309463
0.946491
0.440243
0.745097
0.606752
0.889126
0.931856
0.410386
0.814975
0.318508
0.829454
0.481243
0.287878
0.968841
0.858417
0.875691
0.376874
0.78717
0.635935
0.577396
0.608196
83 296
49 413
269 18
255 265
148 399
144 247
145 244
468 462
445 395
207 233
193 362
451 38
439 226
442 183
341 193
401 98
5 102
273 268
334 494
354 370
428 142
383 428
124 341
252 473
229 314
481 31
350 16
411 207
46 382
197 30
401 15
378 75
145 70
309 10
172 93
133 290
140 286
126 36
367 154
111 379
304 60
228 363
392 43
183 307
397 232
330 23
38 74
263 65
34 418
212 28
141 465
69 19
171 306
489 104
393 360
434 340
85 155
236 301
171 236
241 79
278 323
272 390
218 38
294 48
100 281
170 401
415 135
481 251
111 226
76 204
5146.25
4
