70
3
0 0 0
19 25 11
55 99 21
51 62 43
72 28 42
96 93 37
33 53 47
24 92 48
24 13 64
37 70 56
10 40 83
16 10 19
45 66 69
94 42 59
58 68 38
72 49 78
33 60 55
53 49 32
40 75 18
68 27 17
19 21 31
74 13 30
70 35 21
77 10 71
15 73 84
62 78 39
52 78 41
13 46 22
45 37 50
15 49 18
24 23 37
72 21 89
11 11 39
40 70 99
38 75 16
94 30 20
73 44 33
64 17 71
98 58 39
81 96 24
14 56 69
79 69 11
55 49 48
33 22 27
28 97 31
66 57 51
47 45 80
51 34 45
98 74 36
74 21 13
48 58 35
68 24 78
77 87 24
19 19 51
63 24 13
20 25 57
35 20 43
99 65 85
43 52 80
23 64 74
50 17 28
56 79 90
71 70 16
98 59 52
54 55 100
56 40 17
21 86 55
65 34 40
17 48 54
97 14 12
0.882302
0.611214
0.804058
0.604312
0.260968
0.492359
0.37849
0.712537
0.341034
0.573581
0.885644
0.587334
0.732618
0.907914
0.665156
0.307771
0.41563
0.275608
0.322287
0.912056
0.25769
0.708452
0.849526
0.607435
0.764579
0.205375
0.334362
0.498256
0.397623
0.336392
0.322422
0.640075
0.423185
0.821757
0.217061
0.645143
0.288081
0.780418
0.324445
0.317536
0.679717
0.567039
0.261198
0.475102
0.294333
0.838057
0.393292
0.947648
0.967709
0.785853
0.923596
0.213091
0.57512
0.283161
0.93257
0.77445
0.803016
0.425714
0.811041
0.933088
0.856992
0.232575
0.222636
0.282923
0.60872
0.719446
0.577869
0.926047
0.717411
0.311141
495 1
101 322
498 83
180 78
43 163
377 359
491 70
76 29
462 255
179 0
415 6
96 96
163 186
192 454
258 416
439 147
168 267
487 152
250 159
334 260
86 351
140 141
178 146
321 485
163 145
353 313
98 266
47 90
192 163
7 194
143 438
474 465
438 303
238 289
465 383
365 438
477 144
258 164
490 42
281 43
199 299
426 418
455 327
42 273
312 289
231 83
479 329
122 343
259 248
410 112
462 87
110 129
243 53
39 70
268 477
414 316
19 261
187 365
276 57
417 223
478 30
294 168
268 61
247 195
297 397
153 373
332 357
194 35
7 450
383 132
16760
1
