70
7
0 0 0 0 0 0 0
86 27 87 77 73 68 58
64 63 62 49 31 21 64
48 84 31 32 22 25 49
55 55 54 64 40 35 40
50 55 42 92 39 95 90
93 50 78 32 59 99 53
24 77 60 80 88 37 73
11 98 34 58 20 88 23
58 94 14 70 81 88 90
66 87 92 30 92 70 44
62 52 81 71 71 34 38
72 77 84 62 24 71 99
96 73 44 82 93 61 86
30 60 87 62 41 62 45
97 54 54 36 83 37 83
15 55 31 87 73 55 65
52 24 18 95 34 51 88
58 16 95 75 43 24 43
33 56 95 18 72 29 40
68 62 97 99 91 99 35
39 76 56 34 18 17 53
52 76 97 59 81 82 89
86 23 44 36 23 30 23
37 37 33 99 94 97 54
25 12 95 87 54 27 83
12 29 21 83 43 64 92
33 45 27 59 76 97 74
74 16 31 83 25 22 61
85 51 67 53 46 18 35
33 76 37 41 56 55 51
40 55 44 58 15 55 70
12 38 98 74 77 96 74
28 85 42 39 26 84 43
41 67 45 25 50 43 19
36 26 31 99 20 22 37
34 88 83 64 71 96 28
85 71 15 72 41 23 52
92 15 40 44 88 23 47
10 18 54 50 45 58 28
50 30 83 76 93 87 95
27 86 98 71 43 43 18
10 72 54 80 67 94 32
22 94 38 46 86 51 39
29 55 12 64 62 35 99
63 67 40 78 17 63 57
39 69 54 78 39 70 68
95 65 89 30 89 44 87
54 69 32 38 87 86 82
60 56 14 60 34 42 72
68 78 76 57 71 84 52
20 17 26 61 56 97 99
49 94 61 72 41 40 73
74 83 90 11 36 12 70
90 76 47 90 54 50 31
99 47 70 25 46 53 16
78 41 49 43 95 90 41
63 14 43 61 12 11 92
16 99 80 48 12 66 19
15 43 27 62 22 61 99
64 23 74 34 73 74 62
40 51 79 56 18 91 84
68 81 90 61 27 66 90
38 34 30 85 26 50 49
16 87 82 43 71 87 88
71 96 14 74 61 96 64
92 31 74 19 44 26 100
55 89 33 54 25 90 100
11 88 43 44 87 61 69
60 47 59 26 73 92 97
0.950335
0.429209
0.984781
0.686925
0.331337
0.235411
0.987487
0.819983
0.405624
0.753543
0.905935
0.248907
0.698105
0.58114
0.229112
0.74942
0.773233
0.815582
0.331294
0.837794
0.748562
0.552357
0.385906
0.316942
0.607504
0.622742
0.487312
0.761358
0.235533
0.7183
0.570168
0.674422
0.28558
0.832955
0.69188
0.389568
0.60438
0.414804
0.903271
0.451796
0.387508
0.313612
0.617042
0.363336
0.686536
0.246788
0.688842
0.367449
0.642217
0.39308
0.397662
0.662403
0.617735
0.655115
0.589752
0.837296
0.945664
0.959455
0.898237
0.247847
0.647752
0.954109
0.2451
0.924896
0.58123
0.315174
0.335307
0.946102
0.762903
0.299579
482 157
296 46
440 226
328 255
428 70
253 22
345 198
424 408
87 500
491 277
490 204
161 128
370 355
336 430
111 331
305 252
435 80
270 466
360 2
147 486
490 392
105 211
152 97
259 216
70 134
331 7
280 351
433 219
219 239
6 184
13 20
239 294
50 388
434 232
313 346
404 200
474 202
130 291
164 391
196 325
383 452
15 69
65 395
8 311
345 82
394 318
92 222
231 205
143 12
142 390
251 425
416 453
494 45
91 459
499 120
190 390
113 500
329 171
379 132
397 27
491 370
37 174
372 450
26 248
428 205
15 471
365 418
498 380
373 132
257 312
3927
5
