70
5
0 0 0 0 0
90 37 65 91 98
90 16 37 63 98
11 23 65 13 58
13 72 67 85 38
97 87 21 46 11
18 70 33 94 45
65 26 50 89 10
79 57 36 76 87
43 16 64 58 24
49 34 61 51 10
38 54 50 34 58
69 87 64 52 61
46 41 66 97 55
65 46 91 69 53
83 33 100 45 41
24 72 40 77 70
62 21 41 18 86
46 71 45 94 75
69 93 21 49 38
20 77 41 75 87
91 80 72 63 98
46 81 45 93 32
34 73 27 39 41
27 20 64 52 12
67 40 21 11 80
30 84 18 55 48
54 85 85 51 56
21 36 28 69 75
40 62 98 81 100
33 30 28 52 100
83 42 92 34 87
46 13 33 33 16
28 16 44 32 75
88 79 29 32 12
80 51 13 97 14
98 89 56 41 42
33 30 50 49 90
80 23 70 23 41
22 48 36 19 55
90 68 28 82 31
14 36 81 93 38
79 79 12 76 50
95 51 40 35 47
56 81 42 65 93
46 64 81 100 39
76 20 40 47 26
31 61 54 41 92
51 32 34 93 59
47 37 80 40 40
41 11 39 54 77
40 71 69 15 71
77 67 86 88 92
22 27 86 43 48
34 10 46 63 44
35 49 37 76 100
16 11 11 88 55
14 20 73 80 59
28 92 76 46 37
25 52 47 86 70
49 12 13 93 44
30 87 15 40 25
66 65 51 61 37
12 27 98 15 43
92 68 20 91 12
21 87 25 24 10
70 71 45 21 37
80 78 77 89 12
40 58 91 32 75
98 53 78 99 62
0.435273
0.231395
0.347297
0.357115
0.27979
0.446579
0.291767
0.188286
0.439727
0.36533
0.381501
0.293774
0.225502
0.443507
0.408297
0.363869
0.407935
0.380052
0.314163
0.16898
0.302222
0.225072
0.45748
0.214645
0.413368
0.45946
0.364675
0.230332
0.331181
0.306447
0.431551
0.298479
0.223885
0.262006
0.331473
0.349258
0.312697
0.260667
0.130444
0.381404
0.169953
0.329324
0.480955
0.179388
0.133076
0.24117
0.496878
0.374765
0.465675
0.310692
0.206274
0.115624
0.11076
0.139464
0.303183
0.411775
0.10881
0.174696
0.46079
0.312325
0.274338
0.222907
0.247144
0.276573
0.348182
0.268896
0.384147
0.350995
0.177433
0.366814
96 489
159 478
251 471
500 390
28 218
27 105
306 128
487 95
201 129
368 173
471 208
497 67
248 92
449 367
57 477
432 162
305 201
415 210
296 261
138 324
405 423
166 121
384 384
297 186
359 473
282 221
460 89
295 192
173 377
333 211
311 88
348 453
394 306
416 228
361 282
193 186
12 179
301 285
259 67
214 365
302 469
21 402
473 426
414 9
382 99
471 218
4 38
304 478
174 448
442 66
308 380
485 379
467 65
67 369
232 288
250 413
446 69
154 73
333 418
433 130
41 273
405 147
179 397
284 267
101 448
26 252
45 473
208 249
279 424
113 225
9217.5
2
