70
7
0 0 0 0 0 0 0
87 85 25 85 64 98 67
50 10 94 11 94 16 53
75 19 11 100 97 64 34
81 27 11 99 79 49 69
57 58 52 89 39 46 88
88 47 80 30 13 96 84
16 83 27 82 24 36 87
19 54 12 47 27 58 57
76 20 38 76 84 22 24
41 62 75 30 52 31 20
16 83 40 26 95 83 30
60 80 62 75 89 24 62
72 62 97 19 37 73 85
88 29 92 95 47 71 29
19 20 51 58 52 33 39
27 22 69 79 59 78 83
44 41 15 16 29 88 41
96 81 84 36 70 36 90
29 65 68 66 20 18 97
59 51 29 37 64 58 48
84 91 67 92 97 96 66
72 33 46 34 82 99 91
42 23 70 41 13 63 89
73 87 68 80 23 69 18
30 23 34 85 81 28 31
61 86 56 53 90 81 71
100 98 34 59 53 69 77
11 63 66 99 11 35 44
14 95 46 60 95 37 43
58 32 75 41 77 86 83
32 55 29 52 23 87 11
14 74 62 42 100 81 98
75 61 49 66 99 52 50
80 79 40 76 75 14 54
44 14 96 84 49 41 71
14 42 21 41 29 23 26
98 47 72 65 69 31 89
41 81 46 40 28 39 87
55 61 10 51 32 21 25
99 75 28 67 76 85 17
19 19 73 14 44 12 64
94 45 84 64 81 75 26
18 71 75 33 21 27 47
58 54 15 54 82 98 42
20 24 87 53 21 51 26
71 70 12 100 38 82 69
76 58 53 70 77 61 77
20 79 27 76 69 79 30
29 83 52 57 46 30 89
64 72 55 76 25 20 94
40 73 97 88 64 11 94
72 45 29 40 46 40 94
38 50 72 85 69 86 13
33 54 20 95 39 40 91
83 95 89 82 44 89 98
13 89 36 79 70 20 63
53 70 62 23 46 40 22
38 14 74 29 41 39 76
70 98 29 38 11 69 27
76 10 28 91 77 92 35
41 23 33 78 71 65 53
24 21 74 86 11 73 30
94 84 73 56 10 89 30
59 26 96 45 26 33 74
21 79 26 12 99 20 34
91 53 52 70 73 76 36
91 26 78 76 95 19 62
13 84 34 25 96 90 51
67 75 90 10 70 36 57
0.274287
0.476787
0.902214
0.308901
0.831454
0.900843
0.322332
0.344612
0.559872
0.954733
0.99614
0.269197
0.802667
0.701565
0.259263
0.454995
0.690078
0.76028
0.792035
0.896983
0.549928
0.290271
0.380738
0.698753
0.66041
0.284461
0.566394
0.334985
0.885779
0.474259
0.759432
0.22613
0.738447
0.260168
0.456235
0.714738
0.382687
0.67184
0.39862
0.922023
0.984276
0.980829
0.205705
0.656135
0.860697
0.889499
0.686002
0.306147
0.815081
0.621191
0.439766
0.952482
0.497398
0.202165
0.225111
0.366654
0.327649
0.497788
0.389301
0.386039
0.231583
0.379667
0.670439
0.68924
0.685367
0.759382
0.599498
0.833054
0.41345
0.774433
263 40
400 437
272 406
23 421
19 156
15 272
13 370
126 403
116 339
60 11
218 267
68 397
486 482
456 452
441 438
326 304
249 163
383 206
65 392
264 357
319 53
342 65
23 87
45 405
254 246
162 253
54 117
249 353
292 202
238 181
187 127
192 9
176 337
209 318
300 449
184 47
33 358
384 222
280 50
356 184
180 197
280 442
469 137
40 66
31 327
110 288
235 402
20 90
285 9
250 37
180 371
61 343
208 221
435 432
295 450
79 361
140 333
9 299
55 136
302 13
114 35
286 110
263 494
453 5
106 206
244 25
51 472
32 136
286 147
142 311
19225
1
