70
9
0 0 0 0 0 0 0 0 0
56 88 53 90 78 71 14 65 13
62 80 99 96 67 78 66 18 70
46 76 65 54 98 40 68 89 34
46 71 89 27 45 75 76 24 99
53 44 70 57 51 71 48 12 98
38 94 97 63 43 83 19 48 31
69 65 38 56 62 59 17 43 69
60 10 63 92 68 41 24 77 98
48 64 39 47 85 94 96 19 73
63 39 33 91 16 87 95 11 32
63 70 17 100 89 66 40 69 11
82 46 42 13 40 23 59 92 13
83 10 23 52 64 80 56 52 69
11 45 71 24 44 85 98 11 59
46 33 38 19 89 38 74 52 63
99 70 75 86 78 49 19 44 57
54 17 18 87 34 68 32 65 17
15 21 81 53 31 60 87 42 11
80 91 72 11 44 70 27 85 52
96 46 58 42 67 18 73 34 21
59 65 45 14 80 70 73 53 56
17 62 17 44 15 43 49 21 50
53 28 41 48 47 56 26 53 57
12 100 74 38 45 32 75 98 48
73 93 88 61 93 48 72 97 78
49 34 76 38 43 21 84 64 80
83 64 74 68 92 83 79 41 49
31 32 46 92 28 24 81 65 46
36 69 96 60 11 27 70 76 60
31 27 100 97 72 38 31 84 82
94 79 18 90 78 37 67 100 88
11 58 59 78 66 73 72 78 35
58 28 92 55 44 83 89 15 47
26 25 99 80 50 42 18 43 97
34 29 81 72 26 84 26 68 19
46 65 13 40 65 58 52 82 77
78 16 58 30 88 61 72 30 46
33 38 36 55 69 95 68 85 47
54 32 53 11 19 15 94 74 70
37 16 24 100 91 23 65 67 34
46 93 75 21 18 46 61 36 76
87 12 38 88 35 75 22 65 46
53 91 16 87 82 58 75 98 26
64 11 60 42 48 99 11 46 51
96 67 29 40 95 43 54 62 77
16 89 52 50 87 57 17 15 34
48 17 67 56 74 100 52 88 85
43 41 27 70 29 41 78 50 35
57 76 59 77 13 35 35 36 53
63 45 76 82 86 54 82 28 60
42 79 85 94 54 29 42 75 10
41 95 16 68 89 52 11 59 80
45 49 14 42 63 63 41 31 55
77 36 27 21 93 12 45 93 25
95 79 12 97 49 89 93 32 71
38 73 18 37 80 88 34 43 57
44 24 42 32 15 46 12 87 16
31 42 61 65 56 33 16 47 57
44 84 71 58 96 92 98 97 88
94 81 84 64 65 79 52 46 84
100 84 46 71 19 14 18 85 58
43 30 68 95 58 67 14 10 75
88 91 81 19 30 87 94 61 50
18 70 84 20 83 99 19 97 86
82 74 87 17 84 96 74 32 22
90 63 94 33 99 91 31 79 49
23 29 82 82 69 56 45 61 37
58 55 91 25 97 26 19 25 32
59 70 12 35 89 64 99 88 44
0.49083
0.554857
0.50217
0.249324
0.670335
0.481901
0.832239
0.721104
0.622361
0.481802
0.26085
0.535859
0.657996
0.38773
0.386371
0.408408
0.573744
0.850226
0.722143
0.762789
0.503868
0.528924
0.243834
0.387609
0.367633
0.627146
0.92973
0.244057
0.539818
0.318961
0.440554
0.727915
0.878884
0.578162
0.553388
0.288554
0.568474
0.889389
0.240269
0.316412
0.397007
0.658218
0.899056
0.650416
0.600305
0.396148
0.627922
0.939341
0.469971
0.814294
0.643562
0.666824
0.849684
0.292711
0.853589
0.527468
0.310704
0.757916
0.702128
0.732555
0.632646
0.974832
0.275603
0.851647
0.574518
0.739534
0.511892
0.727851
0.378135
0.558501
181 326
317 46
389 311
161 138
130 124
183 143
13 340
499 202
233 202
135 103
387 105
148 414
228 146
72 333
254 375
333 186
29 3
324 214
298 45
165 102
110 83
54 311
287 460
160 466
273 498
328 257
226 122
172 97
282 395
273 243
218 416
314 296
395 83
111 419
370 276
163 88
163 106
457 470
412 27
65 17
36 226
217 285
71 490
80 97
309 271
71 268
244 215
382 491
128 422
402 334
217 437
444 260
468 350
267 196
288 268
37 341
475 54
332 157
42 428
467 293
196 410
329 263
132 430
435 100
188 467
68 243
306 104
303 78
50 422
368 150
4850
4
