70
5
0 0 0 0 0
64 29 78 42 22
63 80 16 68 24
95 10 91 33 47
41 96 44 21 75
71 47 72 14 91
61 63 77 16 17
25 17 71 14 19
76 38 38 82 98
17 16 29 15 46
39 70 78 92 50
48 84 94 68 85
57 47 56 59 41
27 52 21 27 76
25 10 95 45 98
13 17 20 34 36
52 35 23 61 94
56 32 41 45 85
27 81 13 38 74
71 49 35 96 22
98 71 87 25 31
72 73 23 35 47
22 88 30 22 47
92 13 32 22 74
23 24 69 15 50
28 34 35 13 60
98 31 53 42 54
68 28 33 39 19
74 59 28 64 94
89 91 49 55 36
89 77 79 18 79
77 78 64 86 47
32 41 42 92 51
77 58 59 46 81
100 93 67 81 59
51 34 61 73 59
51 32 49 39 23
99 87 85 32 13
97 49 65 18 83
29 67 85 45 34
48 85 23 19 64
49 31 51 97 80
37 100 86 59 35
37 93 78 59 64
27 35 98 87 28
17 33 51 99 23
92 70 37 22 55
59 84 97 81 33
97 36 12 11 37
91 88 28 62 78
23 71 74 90 33
35 70 92 11 74
45 90 24 27 73
21 92 71 84 88
59 23 18 50 98
51 90 33 56 93
66 24 67 59 61
76 80 16 73 97
35 17 27 42 71
16 53 31 18 75
77 29 54 60 34
52 81 83 82 100
15 68 49 49 39
35 30 49 66 26
62 11 61 56 86
67 89 62 96 96
80 79 80 99 13
49 56 84 85 29
69 69 24 75 76
88 82 42 23 71
0.668457
0.911977
1.5151
0.966625
0.470024
0.598443
0.626323
1.6518
0.747531
1.70561
0.488026
0.518967
1.82173
1.30605
0.778066
0.979751
1.15864
0.502541
1.82016
0.858694
0.475455
0.792875
1.36638
1.72696
0.841848
0.98111
1.25862
1.52182
1.68443
1.37081
0.623378
1.89942
1.17849
1.92344
0.752413
1.07979
1.9872
0.523515
0.557921
0.777584
0.6517
1.11161
0.861528
1.80968
0.49632
0.953612
1.33989
0.975219
0.981313
1.47597
0.613095
1.19216
0.496102
1.97842
0.888902
1.25511
1.79219
0.538648
0.889881
1.61441
0.626092
0.501892
0.939583
1.60999
0.415555
1.64386
0.996546
1.38843
1.22419
1.09926
344 247
388 98
87 417
25 283
426 154
342 13
271 143
464 55
326 356
470 482
401 45
289 404
421 49
450 323
353 166
126 126
319 41
70 487
314 267
70 369
76 420
12 383
304 401
16 140
102 344
451 37
311 5
189 409
288 12
379 256
460 409
129 484
178 341
119 263
143 78
297 262
108 407
242 415
209 102
305 395
252 482
27 19
471 299
492 91
396 389
42 13
1 369
464 115
127 203
317 326
467 309
69 112
358 282
258 456
230 52
408 426
427 61
277 206
358 364
223 429
353 483
195 498
95 325
37 60
183 149
143 276
302 424
224 264
110 414
339 160
9457.5
2
