70
3
0 0 0
88 77 53
28 98 56
39 62 91
12 22 53
12 100 42
77 22 70
15 83 38
71 66 32
66 19 83
93 92 35
19 52 60
18 27 88
38 42 89
67 34 17
45 98 21
77 22 95
83 29 82
37 18 92
96 10 93
63 89 45
77 96 64
89 61 32
23 64 11
66 82 81
24 31 14
69 37 28
53 93 25
32 63 40
53 59 32
19 63 65
14 29 88
48 76 97
71 57 14
96 74 34
72 24 63
26 29 37
70 71 25
12 73 60
96 94 89
37 15 34
80 61 62
72 31 25
44 99 26
39 76 81
61 94 71
68 44 85
36 34 65
49 24 35
31 68 57
24 67 38
72 51 95
54 70 66
72 100 55
15 87 33
50 55 14
22 97 11
57 38 27
64 31 42
39 61 62
48 84 35
34 91 37
93 52 94
75 61 86
55 22 20
61 45 99
30 54 66
48 61 85
99 17 56
71 75 84
0.886576
0.856567
1.57052
1.4592
1.08381
1.76279
1.80205
1.54816
0.79259
1.77393
1.27304
0.434433
0.41337
1.93004
0.642667
1.7961
0.906627
1.24431
1.97672
1.86235
1.86879
1.28355
1.62081
1.40543
1.11068
1.81171
1.03266
1.39281
1.71904
1.94097
1.03051
1.02068
1.9687
0.566216
0.707679
1.02287
1.99385
1.09415
0.660106
1.58654
0.442942
0.969843
1.59954
1.39251
0.544586
1.06676
0.511493
1.00882
1.74463
1.36112
0.756169
0.576434
1.33987
1.48884
0.971924
1.3173
1.80846
1.74519
0.583088
1.34496
1.15837
1.25323
1.0647
1.08594
1.45502
0.564699
0.869191
0.569422
1.40448
1.70002
500 443
61 155
110 101
72 357
96 46
86 178
273 206
419 470
317 459
177 367
127 154
121 279
212 214
59 51
173 215
151 46
151 93
33 188
303 261
145 386
204 344
255 182
354 452
380 360
133 10
85 478
269 383
386 276
304 343
361 271
399 38
53 0
223 229
430 237
224 273
86 281
264 217
364 313
297 67
370 301
406 373
419 304
262 93
8 312
390 199
255 188
185 207
107 12
472 342
255 228
229 445
331 462
435 317
497 486
214 183
104 182
287 468
458 21
204 436
53 267
250 370
275 195
394 354
219 38
116 144
79 257
445 408
334 50
171 0
23 356
4765
4
