70
11
0 0 0 0 0 0 0 0 0 0 0
31 31 93 37 57 82 40 56 27 27 56
92 59 70 76 44 84 59 29 74 53 68
89 87 25 59 34 67 89 23 10 20 60
36 66 88 53 52 21 54 100 26 29 86
61 58 81 63 34 43 94 11 47 43 60
39 60 13 29 24 47 79 77 68 41 92
98 26 53 28 39 56 21 61 61 10 62
24 79 42 88 80 38 46 91 43 22 44
57 44 90 26 95 94 20 73 24 69 33
24 81 23 37 58 29 51 95 92 29 60
41 36 94 10 32 17 38 66 89 42 21
43 59 69 97 86 12 69 67 99 100 78
27 13 31 92 84 100 15 58 49 68 25
19 95 86 24 91 80 59 30 49 83 69
49 32 24 21 81 24 51 38 18 69 81
83 30 52 40 71 68 36 71 83 95 92
99 53 36 58 34 97 76 44 19 70 88
38 45 31 80 60 72 72 81 78 22 75
74 13 77 90 69 63 28 88 66 92 99
81 45 31 67 100 46 41 22 82 65 58
14 96 16 40 31 22 88 40 80 84 90
70 48 71 34 89 85 53 62 64 18 79
82 94 57 19 49 10 80 93 16 33 79
18 75 73 15 18 34 35 97 80 40 86
17 30 41 50 63 22 59 13 22 58 25
62 63 98 78 45 18 93 92 33 15 85
87 74 63 40 14 20 57 19 83 33 97
73 75 69 61 86 54 70 43 13 17 78
76 49 72 27 61 42 68 96 99 43 59
53 93 13 47 22 55 41 22 30 30 63
17 96 45 28 23 94 40 36 21 83 38
12 34 93 52 86 93 52 85 43 97 83
81 57 32 54 94 89 75 38 12 19 63
39 42 34 34 34 90 94 26 32 28 21
34 65 73 78 21 18 38 91 71 79 39
12 17 77 94 86 53 60 32 23 53 34
20 12 26 58 35 43 97 71 24 95 62
71 28 81 55 92 73 23 51 44 77 62
100 29 99 17 71 49 16 10 88 58 74
13 35 28 11 23 20 28 63 39 29 86
48 11 100 73 89 99 29 88 21 85 90
54 23 10 54 55 67 57 27 97 54 18
54 61 84 63 65 92 98 10 68 31 61
50 59 13 79 33 73 76 58 45 34 69
86 70 85 65 61 54 100 85 12 13 89
92 49 47 36 18 54 38 74 83 83 61
97 98 13 61 94 94 30 43 39 69 21
71 92 46 83 39 21 87 61 31 59 12
42 26 15 25 62 24 16 99 77 90 100
98 44 37 76 20 57 75 49 14 54 48
55 53 100 94 56 78 39 55 53 62 88
59 72 89 79 28 92 31 87 16 29 47
20 41 50 58 32 98 98 91 91 20 74
19 82 82 30 51 89 74 89 80 91 29
83 62 80 46 73 79 59 69 62 75 99
57 57 91 59 46 31 37 14 84 70 70
89 33 81 83 13 27 79 55 13 70 19
95 96 93 100 99 21 98 86 28 17 11
13 75 74 80 86 40 25 78 69 22 84
40 68 90 78 18 42 40 78 94 11 84
73 62 97 99 57 20 21 56 87 75 66
83 92 22 45 43 56 44 45 73 82 53
82 38 76 41 36 52 55 71 19 55 75
45 81 94 13 64 71 94 96 16 47 71
27 72 62 84 79 18 39 44 14 76 70
67 95 60 98 69 52 79 74 100 90 94
72 57 23 91 68 77 87 67 83 20 24
51 71 69 73 38 69 94 19 95 92 54
44 67 16 87 87 26 45 86 99 11 72
0.559399
0.529541
0.534939
0.89762
0.452787
0.345064
1.11708
0.421722
0.60835
1.10747
0.786646
1.1687
1.44305
0.396984
0.845892
0.501088
1.0276
1.03076
0.454517
0.435379
1.098
0.424504
0.727659
0.603451
0.745484
0.552115
1.06929
0.617085
0.515522
0.766337
1.25185
1.27858
0.609745
0.698603
0.561635
0.385785
1.42649
0.59599
1.16537
0.397934
1.43381
0.88286
1.44606
1.03604
0.896909
0.925201
0.575027
1.06611
0.56184
1.27417
0.434767
0.586196
0.667152
0.503757
0.680239
0.477696
0.635243
0.357523
0.767598
1.29815
0.33392
0.843477
0.734111
0.566525
0.402429
0.853664
0.320743
1.06748
1.3603
0.781046
313 78
62 263
474 87
405 74
158 159
39 380
433 195
47 318
474 249
392 220
143 98
363 416
191 369
408 91
128 207
416 471
17 403
26 185
191 339
7 284
268 49
416 9
110 51
430 177
27 388
12 176
402 301
255 431
117 119
136 17
150 421
109 425
160 37
423 428
366 15
6 92
430 377
496 160
154 451
495 75
294 129
191 413
293 464
393 451
248 296
464 55
472 8
3 80
39 295
279 292
360 322
170 307
146 243
21 156
269 459
438 19
429 245
415 471
35 150
299 489
209 181
7 149
488 433
80 90
149 297
98 252
226 389
170 308
194 85
321 105
4900
4
