70
7
0 0 0 0 0 0 0
11 92 55 59 45 46 65
55 91 76 27 10 30 43
56 19 68 92 76 96 70
57 28 57 57 35 81 30
24 79 14 38 76 76 28
75 35 47 34 47 77 24
82 78 44 35 81 28 27
61 83 36 61 71 29 76
41 26 88 60 56 62 14
40 30 13 44 48 17 25
56 49 32 22 45 15 90
83 28 27 11 43 55 40
84 95 16 54 83 13 45
57 50 73 60 18 62 76
97 98 12 73 36 97 80
100 83 23 26 70 94 88
41 77 90 70 19 68 77
68 73 71 87 41 75 34
76 36 45 47 10 89 79
13 73 79 97 34 96 90
52 33 65 98 33 57 36
19 53 31 64 58 93 79
62 93 68 92 53 52 79
11 52 20 72 84 58 10
27 93 20 86 73 66 97
89 14 68 76 76 44 18
69 100 94 57 58 48 37
36 87 16 82 47 21 64
75 86 40 78 23 83 84
43 71 23 47 81 63 36
92 51 93 69 78 39 95
31 71 36 27 65 60 22
72 50 13 68 52 73 44
24 82 85 45 90 20 98
84 50 92 27 72 44 73
13 17 52 87 96 89 17
75 93 11 70 97 27 68
63 32 99 23 62 100 92
30 96 66 96 94 34 73
53 64 82 51 37 12 77
43 48 38 88 56 24 19
42 75 16 68 29 15 51
45 42 56 11 63 45 30
49 41 85 43 10 74 51
85 16 63 31 11 98 34
69 46 59 34 15 28 88
50 84 25 44 83 75 14
30 75 36 44 40 52 13
30 24 25 96 59 62 31
78 81 96 37 50 68 44
36 97 54 54 48 49 28
94 41 45 64 36 98 47
33 84 73 42 20 76 90
46 67 100 23 60 61 13
12 10 33 54 16 25 20
38 91 42 58 85 49 44
16 99 89 80 66 53 70
31 11 58 16 39 32 64
56 62 53 87 13 83 91
67 66 57 17 33 93 76
89 83 71 99 19 20 30
15 96 77 55 61 10 26
29 19 29 32 32 19 47
99 29 20 16 27 92 84
89 83 31 85 39 82 27
34 81 100 76 53 55 53
56 73 98 60 63 93 93
25 99 70 20 92 25 19
14 89 19 60 33 70 83
1.21957
0.519753
0.688603
1.16932
1.33456
1.40928
1.33223
0.891094
0.303105
1.32452
1.17456
0.643356
1.19214
1.00512
0.423531
0.394935
1.41553
0.587622
1.36249
0.703589
1.27359
0.358608
1.39413
1.25695
0.842671
0.811928
1.37119
1.26714
1.2664
1.01469
1.24648
0.687452
0.62188
0.842245
1.49053
1.28867
1.32751
0.94825
1.36343
0.857032
1.46454
0.771625
0.645888
0.762265
0.914628
0.562989
0.971147
1.45884
0.845041
0.991359
0.676267
0.698938
1.11403
0.63582
1.29249
1.20663
1.32446
1.33433
0.929239
1.17769
1.45958
0.647173
1.08952
0.993305
1.45597
0.523338
0.334376
0.975566
0.621372
0.661114
110 491
456 302
295 375
454 342
255 424
202 258
115 317
22 272
52 412
129 105
339 486
266 94
138 475
188 212
380 24
329 56
284 47
323 131
56 429
115 275
195 106
241 200
344 87
462 288
226 37
122 115
364 379
399 14
141 239
92 489
473 210
377 386
435 193
63 402
355 3
441 307
304 59
367 152
313 321
292 315
236 377
448 85
81 252
445 14
18 101
122 480
498 229
429 315
471 422
104 300
126 496
202 484
0 169
356 458
417 126
373 420
129 59
333 9
78 249
145 488
163 178
38 265
254 226
235 197
39 407
465 125
466 217
126 467
2 436
267 125
9485
2
