70
11
0 0 0 0 0 0 0 0 0 0 0
35 82 37 31 88 69 38 62 82 86 28
20 69 34 50 20 84 71 75 54 68 32
30 84 62 39 18 73 88 57 24 70 60
26 93 16 74 44 10 87 97 70 88 10
32 37 61 79 83 48 99 34 79 36 50
20 14 97 42 85 99 22 69 92 39 12
99 67 56 58 77 13 94 94 60 47 29
65 18 66 67 21 98 17 61 69 77 43
89 74 90 16 61 11 35 96 57 33 42
17 65 12 80 77 55 79 99 67 57 95
92 80 64 15 54 93 17 46 78 67 67
21 76 73 89 82 61 81 93 83 59 84
43 70 26 94 84 60 83 25 41 73 72
48 73 90 36 92 74 54 50 19 24 21
91 50 34 39 63 79 38 22 26 96 34
24 96 86 71 75 87 91 22 40 29 62
94 26 28 18 73 87 97 21 97 11 39
92 52 23 75 48 30 35 83 24 84 69
36 18 88 65 19 77 15 56 20 82 42
29 41 50 56 10 58 99 77 40 53 19
11 63 63 41 83 35 48 32 54 77 61
58 69 87 63 84 10 47 11 53 64 58
87 56 48 57 58 38 17 87 23 17 80
26 15 58 99 74 46 19 73 74 49 80
22 96 40 58 74 11 59 14 56 45 40
80 76 90 82 86 98 43 52 62 91 57
26 39 38 35 21 73 63 96 59 54 95
51 41 42 53 26 31 35 66 80 69 100
96 23 78 73 59 86 59 87 60 91 73
88 61 55 39 41 32 41 64 10 24 61
76 74 33 38 11 45 11 38 92 29 41
32 73 50 34 12 18 54 43 62 27 83
55 31 28 26 36 25 52 60 35 70 89
79 16 62 52 68 56 90 58 20 29 31
45 85 78 70 17 83 74 27 92 98 92
47 45 64 28 43 23 87 23 19 23 27
32 50 45 58 69 59 34 75 80 49 90
13 85 52 34 45 66 54 19 35 95 39
66 35 48 38 57 61 88 31 29 49 70
21 18 85 80 23 21 33 92 41 50 69
51 72 86 33 37 89 83 67 83 41 13
39 82 83 10 66 37 64 77 46 16 66
11 39 73 80 63 60 13 74 30 98 86
59 88 42 28 79 43 73 72 12 17 88
56 90 15 72 48 26 11 84 85 87 81
33 61 68 30 70 96 61 96 32 33 29
91 23 76 18 68 76 73 51 15 61 14
19 60 15 96 55 56 22 63 25 100 42
44 86 92 92 69 95 39 55 27 80 83
39 74 29 76 71 23 13 78 43 54 85
27 24 77 74 63 14 74 22 71 90 72
18 57 19 94 31 89 78 69 39 12 75
53 24 98 15 75 15 89 64 94 91 51
24 51 80 64 93 24 60 16 10 50 29
78 34 29 95 55 69 73 88 71 77 82
13 39 49 46 46 75 55 85 71 71 57
89 32 32 95 79 29 18 14 89 45 84
65 20 40 28 33 96 43 74 100 64 59
97 70 66 41 36 35 50 94 23 16 39
10 78 90 32 36 14 77 66 73 48 44
64 15 78 36 78 25 92 70 58 17 48
57 44 93 74 91 77 36 82 83 78 59
40 25 86 93 81 48 70 64 66 97 71
12 39 85 62 11 54 35 88 76 53 89
59 37 83 87 43 18 28 24 25 57 21
35 51 14 52 100 94 13 87 84 49 43
52 51 49 21 23 41 14 58 79 22 27
19 70 22 63 55 39 48 49 71 86 19
88 83 86 91 20 61 66 18 66 55 35
1.55393
2.02434
2.36153
1.34483
0.917464
1.81429
0.846133
0.914791
2.11327
1.81002
1.44254
1.00002
2.3718
0.742846
0.554921
1.3426
1.49939
1.88333
1.31512
1.88139
1.26526
1.69458
2.18071
2.11904
0.550222
2.03152
0.696585
1.45771
1.80845
2.29748
1.92052
2.28833
0.647665
1.72086
0.606123
2.19707
1.85814
1.87847
0.955176
1.47108
1.73785
0.745901
1.2994
2.11676
0.662796
1.40636
1.3036
1.83526
2.2325
1.76238
0.634209
1.04436
1.30481
1.92655
2.20454
1.41282
0.72116
0.531603
1.5076
0.867483
1.80569
1.49268
0.890432
1.15896
2.31757
0.537887
1.4368
0.546556
1.37486
1.56439
69 293
405 240
194 458
421 493
422 486
320 223
279 84
95 113
253 372
195 36
441 300
481 13
58 445
113 108
221 54
330 443
84 404
197 484
290 450
236 189
15 304
228 258
128 466
458 18
37 348
397 44
328 58
139 375
215 63
9 38
162 41
301 318
359 312
405 337
63 423
77 407
416 283
16 382
342 392
198 289
233 495
449 435
31 408
117 205
451 277
186 316
338 361
286 120
445 409
54 347
265 9
461 178
402 67
172 52
311 243
381 271
243 71
14 235
317 458
69 442
31 167
399 355
51 83
257 479
477 204
490 296
318 333
37 205
398 129
363 189
9527.5
2
