70
9
0 0 0 0 0 0 0 0 0
96 55 39 80 20 16 96 97 13
50 89 100 71 52 36 46 72 27
39 12 77 41 42 28 83 68 39
62 31 27 68 39 41 36 68 47
82 64 22 95 62 15 49 65 75
43 42 66 97 35 58 43 60 41
20 37 18 72 52 26 79 49 77
57 61 18 24 35 91 14 76 91
83 85 96 10 89 53 95 67 57
28 40 73 68 93 89 91 40 11
30 78 71 16 78 95 39 67 66
90 35 95 97 29 60 45 83 88
52 73 91 91 66 52 22 95 10
54 73 40 39 70 65 50 34 14
37 29 90 44 39 16 58 89 88
89 68 18 23 56 85 22 44 95
97 87 94 54 42 32 38 58 84
59 23 14 56 46 56 96 32 87
51 13 11 65 74 63 69 28 86
67 54 93 89 38 73 68 10 84
53 22 82 95 90 24 78 85 12
44 100 62 13 23 91 57 78 45
68 52 64 12 75 49 84 37 71
95 75 86 26 63 32 75 85 73
49 12 62 10 20 64 82 42 80
22 47 52 45 43 39 49 64 14
34 32 97 87 25 68 78 13 39
10 65 15 29 79 39 77 67 57
30 67 55 66 24 60 34 75 35
50 33 18 33 53 24 63 46 53
65 68 11 84 74 53 85 24 43
37 89 80 100 55 35 16 45 55
37 28 35 32 55 78 25 80 77
35 36 48 67 34 28 80 96 100
47 77 72 98 99 23 72 92 27
51 10 61 69 36 64 47 28 75
15 96 69 99 81 40 53 38 14
35 36 91 55 42 62 59 63 88
47 66 56 82 29 31 38 57 81
91 28 21 61 45 62 85 96 71
55 75 16 64 98 36 29 80 66
94 36 99 93 80 23 49 61 23
63 59 72 70 36 27 47 68 98
92 81 75 47 15 56 89 57 94
95 76 34 27 24 52 96 39 67
20 91 97 37 79 46 90 56 33
97 48 71 39 18 83 84 96 33
46 23 36 50 51 24 57 65 12
97 61 76 72 95 70 43 37 91
36 38 44 61 72 19 19 13 17
29 35 100 24 76 13 43 90 53
65 94 48 22 89 12 87 85 34
94 60 58 89 28 57 98 15 97
12 80 41 15 19 96 30 30 10
25 64 33 16 93 48 35 40 30
22 10 14 48 17 29 72 72 99
97 62 19 74 77 21 42 75 91
38 31 44 22 32 94 46 67 81
62 88 52 40 26 41 74 93 96
45 42 92 44 45 21 91 11 63
21 21 12 32 57 91 69 89 11
48 26 92 33 48 18 42 49 95
73 70 16 43 20 60 33 40 90
37 14 61 11 94 21 66 63 65
76 23 100 23 27 68 65 22 76
90 62 15 10 45 24 57 61 19
11 92 13 75 75 52 57 78 91
58 88 11 45 43 27 38 89 15
41 17 30 64 20 87 83 97 51
0.577576
0.651275
0.54212
0.268091
0.631913
0.951348
0.892906
0.906196
0.342078
0.458547
0.990127
0.507396
0.679084
0.876904
0.662646
0.377508
0.44497
0.452142
0.887176
0.70384
0.632221
0.901816
0.945437
0.579936
0.201633
0.472745
0.97644
0.742311
0.326265
0.239514
0.550476
0.494959
0.40615
0.585804
0.564056
0.977966
0.678561
0.606596
0.55747
0.864794
0.641327
0.635099
0.889329
0.44638
0.610099
0.52984
0.478534
0.315882
0.411372
0.551684
0.41332
0.778608
0.650148
0.238968
0.653582
0.514411
0.370837
0.768573
0.221859
0.372513
0.659986
0.931459
0.666763
0.957758
0.783033
0.647034
0.275988
0.540609
0.622647
0.646724
286 174
77 50
342 63
380 211
331 458
400 218
40 81
58 38
406 296
324 472
46 321
158 495
12 476
297 286
75 77
400 266
252 396
86 248
218 102
420 26
183 0
369 22
304 471
449 414
165 284
271 401
436 474
159 469
432 421
351 423
475 475
238 454
243 286
14 334
473 455
332 496
388 465
182 287
253 258
479 246
301 491
45 321
358 416
233 258
168 87
229 71
424 31
424 244
293 197
249 35
253 440
112 122
189 6
371 446
75 446
227 397
19 469
477 67
62 17
122 30
256 284
238 472
50 293
500 291
30 447
349 281
489 278
209 84
130 306
21 110
18880
1
