70
3
0 0 0
74 31 26
21 92 43
80 44 41
100 46 50
85 49 41
40 44 18
89 40 77
19 57 60
53 73 71
95 88 44
80 37 57
84 62 98
61 64 48
42 35 47
100 65 39
31 15 42
10 83 46
86 41 75
83 44 31
32 16 21
77 85 93
70 51 66
30 54 12
41 91 33
13 10 53
80 31 68
78 78 68
78 90 17
29 70 22
17 27 97
26 47 51
31 40 16
74 24 24
86 44 78
15 99 40
65 12 26
72 20 71
43 15 42
21 50 49
49 95 54
99 47 78
42 16 54
94 30 27
22 83 59
66 62 92
11 21 69
74 27 100
21 78 10
80 100 77
25 37 10
78 47 31
83 11 35
99 35 99
86 51 81
18 47 61
16 77 97
71 21 18
89 83 56
68 65 73
93 21 55
75 81 91
64 24 45
84 57 60
58 70 90
30 96 45
28 82 47
27 32 57
92 87 63
18 42 13
1.50785
0.847218
0.878865
1.74815
1.98033
1.71551
0.419737
1.72184
0.606104
1.68887
1.67941
1.53101
0.421986
1.51533
1.13479
0.429862
1.06618
1.01135
1.34418
1.72315
0.994636
1.90425
0.645243
1.85544
0.51627
0.986935
1.13539
1.79618
0.840429
1.39905
1.08175
0.574127
1.72742
1.82674
1.47907
1.09829
1.98213
0.882562
0.935881
1.69615
1.29097
1.03555
0.547695
1.9838
0.474819
1.67451
1.7517
1.5396
1.90958
1.78855
1.86298
1.3602
0.907663
1.09421
1.21835
1.97725
1.67059
0.956553
0.845586
1.70085
0.692217
1.48215
1.43714
1.10842
1.97768
0.902702
1.21941
1.97296
1.40513
1.75163
416 500
436 473
439 324
499 253
291 296
485 418
396 107
340 255
475 128
283 418
239 231
134 364
87 493
448 360
221 456
416 484
495 54
92 105
0 438
260 303
304 403
418 386
228 30
132 349
68 184
395 455
354 140
288 399
442 326
497 9
358 358
142 189
379 433
136 449
72 146
31 269
263 131
431 104
83 303
340 299
470 171
198 281
285 497
11 91
388 406
144 491
169 73
263 431
4 120
120 241
21 349
266 446
285 14
144 10
199 451
320 315
227 183
178 281
158 32
352 3
110 199
53 137
320 187
167 190
131 22
225 108
84 354
120 399
384 349
453 500
6226.67
3
