70
7
0 0 0 0 0 0 0
67 89 86 39 61 19 46
55 92 83 21 35 66 44
60 74 34 100 31 75 55
58 93 58 67 87 22 80
61 86 55 71 49 15 74
48 83 85 59 44 81 93
62 51 91 80 76 32 79
58 20 29 35 61 85 20
18 82 29 96 92 60 60
19 90 100 53 13 80 41
87 42 28 63 62 60 16
71 23 67 45 10 77 94
49 53 66 19 70 78 43
92 10 50 48 19 28 100
40 85 27 54 60 47 41
74 40 62 74 100 93 56
93 87 99 83 83 21 88
38 81 50 88 51 37 65
72 92 40 95 83 32 13
46 24 89 41 14 74 42
79 64 33 20 13 68 69
40 72 39 45 23 62 18
76 22 62 61 38 24 87
90 54 22 37 52 77 51
36 42 38 74 98 62 15
68 27 74 95 41 30 97
44 74 17 34 18 60 18
17 17 76 69 98 85 40
87 85 62 48 43 23 86
12 14 45 66 61 70 89
98 21 97 77 24 97 14
76 31 91 18 11 82 16
17 88 60 75 58 44 82
63 12 38 56 11 15 40
78 16 92 58 100 38 22
70 92 26 100 59 10 79
59 51 10 60 54 17 57
50 71 77 23 26 80 34
72 45 85 55 59 81 38
86 50 48 51 10 85 73
60 54 73 69 66 27 42
25 96 27 25 69 23 29
66 97 81 26 38 66 95
88 79 42 30 61 29 74
51 77 66 34 56 23 87
50 51 41 71 42 77 35
94 14 100 41 76 57 39
24 89 96 72 25 67 85
57 24 20 72 44 42 32
22 62 15 26 71 23 75
63 60 12 99 77 65 77
59 34 78 32 16 48 21
57 12 16 70 30 26 86
71 56 93 14 19 11 67
36 85 62 54 28 85 99
97 68 56 33 99 17 75
28 98 41 26 15 61 13
24 82 19 21 85 88 43
56 37 53 51 79 19 61
81 78 100 83 82 20 59
21 97 52 84 43 70 78
76 86 78 34 50 98 18
15 60 81 31 43 59 69
31 86 65 61 20 97 18
92 46 81 71 62 10 62
40 99 82 17 56 36 52
36 85 86 17 57 53 36
35 92 95 23 89 93 77
54 36 56 50 87 82 29
0.447045
0.903077
0.220876
0.554657
0.647013
0.45702
0.63766
0.670143
0.339287
0.637171
0.252085
0.229205
0.200928
0.554973
0.510544
0.63109
0.5522
0.435329
0.818041
0.271294
0.349625
0.207849
0.514067
0.772345
0.652752
0.928416
0.715116
0.9348
0.740451
0.403605
0.910387
0.632333
0.892244
0.969835
0.314042
0.752456
0.980727
0.451849
0.721199
0.533786
0.428402
0.893115
0.380621
0.730362
0.945082
0.516805
0.839914
0.849951
0.62479
0.260933
0.858822
0.81795
0.406184
0.319224
0.406083
0.30536
0.764033
0.62218
0.795967
0.704587
0.850788
0.392335
0.908452
0.487612
0.82276
0.661905
0.552377
0.574846
0.257796
0.607913
1 369
373 422
406 30
308 494
286 44
461 466
356 384
437 419
109 39
332 162
237 175
405 60
468 263
111 25
345 79
41 26
264 57
458 198
235 451
452 103
47 196
183 182
361 104
242 467
75 348
401 316
87 61
23 233
16 235
371 72
487 269
56 497
439 332
174 491
301 382
153 125
287 393
225 123
413 346
270 138
8 4
4 5
75 238
282 360
372 155
239 307
378 424
196 209
124 19
336 219
371 232
416 7
435 72
167 211
39 241
493 114
433 280
401 59
103 327
332 219
216 357
361 320
78 433
375 197
2 249
425 246
132 413
77 71
201 428
212 215
3844
5
