70
3
0 0 0
51 96 72
30 59 33
69 70 61
13 98 28
49 78 97
18 30 47
15 32 54
65 87 61
11 94 52
35 90 34
30 41 77
27 33 77
28 56 33
52 12 12
64 24 59
53 12 28
28 13 30
79 28 96
64 13 67
94 10 73
88 96 49
10 45 31
38 70 41
78 59 28
56 53 19
37 94 100
76 75 72
85 58 91
43 22 48
20 45 36
73 24 18
71 26 97
79 27 97
96 55 65
54 71 96
97 53 93
85 37 25
100 20 81
45 58 80
19 70 30
54 47 50
42 80 97
95 88 79
24 49 48
72 50 43
71 17 67
11 81 86
96 63 17
55 28 79
45 65 56
68 22 33
39 96 40
96 10 98
24 14 33
13 97 61
86 48 11
88 40 18
38 80 40
33 95 30
38 34 85
24 41 40
92 24 14
40 14 99
33 82 51
89 65 63
40 61 15
75 67 100
68 21 69
87 82 68
2.09746
0.887144
0.577191
0.627251
2.33766
1.20264
1.17454
1.82577
1.11334
1.30262
0.607499
0.890383
1.51028
1.92213
1.48245
1.63236
0.659323
0.594413
1.21121
2.05174
1.70806
1.54671
2.4827
2.42729
2.26812
1.76651
2.32307
0.86322
1.49055
1.3986
1.64598
1.26288
1.80285
1.39715
2.31915
1.11934
0.66777
2.23618
0.672801
1.66343
1.34328
1.36021
0.685152
1.04973
2.19659
1.58013
1.396
0.923147
1.52507
2.1112
1.17575
2.30707
1.51829
1.29177
1.89565
1.28332
1.20023
1.93874
0.60273
1.29871
1.44575
0.735005
1.99308
2.34385
2.36675
2.44841
0.935511
2.34422
2.40777
0.85097
94 387
378 211
230 283
177 325
190 90
137 151
470 260
496 235
301 254
197 139
416 99
284 243
24 230
244 303
43 190
446 228
42 479
52 338
398 189
68 435
56 180
102 468
156 229
439 449
0 189
68 61
346 226
112 217
44 427
76 367
29 281
182 258
248 492
271 253
425 231
473 326
42 100
140 38
57 121
445 108
488 356
262 83
411 370
186 285
17 336
422 330
471 118
97 201
153 477
95 33
345 18
154 289
379 93
462 455
162 468
99 3
305 498
348 230
303 203
456 315
498 196
361 261
36 42
483 197
42 58
96 166
23 138
354 239
435 279
484 156
18720
1
