70
5
0 0 0 0 0
30 47 63 100 37
28 67 92 92 50
32 38 11 79 47
66 36 25 62 74
84 41 19 92 31
95 22 27 99 28
10 91 99 62 34
99 86 64 90 61
12 86 48 97 45
72 30 55 13 59
94 74 35 68 55
19 13 39 54 52
34 66 12 64 51
65 70 54 28 16
58 72 58 62 20
95 45 95 21 50
75 78 98 60 14
41 78 28 57 58
48 46 45 76 41
61 83 35 31 45
50 43 20 66 48
81 17 22 12 13
36 34 11 68 37
29 67 35 69 29
75 58 11 34 23
42 62 88 72 56
17 12 19 13 67
87 63 25 52 56
97 88 67 67 72
81 93 76 65 45
48 39 76 45 87
40 100 72 84 27
100 88 73 83 100
37 19 12 24 95
44 42 57 54 36
36 75 45 86 34
18 47 25 79 88
99 75 96 93 89
73 43 59 54 59
67 42 30 70 90
81 96 36 51 59
17 33 19 78 95
53 56 92 80 24
85 33 37 96 94
52 69 67 13 55
15 25 42 26 70
85 32 87 31 39
31 16 55 71 56
15 21 13 35 90
90 58 26 34 87
80 76 22 21 89
93 30 50 77 67
24 31 85 68 78
100 15 51 97 52
59 57 14 100 60
37 87 25 87 28
18 26 79 12 56
14 58 88 21 82
68 44 41 29 63
95 20 82 41 32
25 58 89 79 98
66 61 91 24 40
71 35 41 57 96
98 51 56 97 27
46 65 18 13 16
15 40 62 20 20
14 82 10 12 38
98 79 44 13 26
66 32 67 43 35
0.805529
0.484196
0.271839
0.79318
0.48541
0.779496
0.640941
0.214302
0.755625
0.876889
0.244438
0.986544
0.602759
0.308122
0.73118
0.787347
0.837406
0.404845
0.488585
0.368065
0.274674
0.245108
0.662047
0.476743
0.852555
0.328307
0.219363
0.652455
0.65113
0.482286
0.705723
0.864081
0.400209
0.60423
0.497006
0.216877
0.940474
0.29939
0.458044
0.342161
0.845038
0.878113
0.380774
0.749837
0.743379
0.693009
0.949231
0.411748
0.668579
0.650264
0.347658
0.640385
0.680993
0.623837
0.615466
0.621913
0.223658
0.500139
0.533571
0.619087
0.558445
0.450104
0.244745
0.237842
0.217045
0.595699
0.309494
0.739112
0.772282
0.987483
343 200
405 87
49 343
238 393
58 423
483 466
403 349
413 25
192 95
18 385
430 51
450 22
330 363
399 384
338 113
207 0
282 175
270 250
280 283
495 377
302 362
363 211
190 213
152 337
296 401
477 246
18 309
153 474
92 116
102 144
425 218
466 169
310 0
399 276
65 77
266 93
147 298
82 403
390 495
75 384
378 83
489 409
179 268
231 268
73 102
279 306
266 201
459 333
138 72
39 250
376 81
94 32
338 135
81 155
297 491
465 244
200 87
261 265
388 271
263 418
75 16
388 423
32 396
369 17
69 312
241 165
129 239
46 101
205 383
323 26
6190
3
