70
3
0 0 0
88 47 47
28 10 85
49 94 28
31 71 51
79 64 57
44 64 69
79 56 28
72 55 19
93 68 21
22 57 36
17 34 72
49 14 93
63 75 34
41 99 52
70 64 100
60 17 26
100 85 76
33 35 55
77 59 29
32 65 11
41 57 13
50 33 78
57 32 26
20 52 75
53 48 78
74 18 42
99 37 34
63 71 22
76 50 69
18 15 96
28 19 10
41 73 69
96 56 94
55 11 89
55 80 25
53 92 12
54 93 97
21 21 97
32 41 81
84 84 75
61 45 36
42 43 83
49 57 92
21 91 69
46 66 98
80 66 59
19 17 14
42 49 82
14 28 44
41 43 90
59 13 19
15 79 59
96 81 67
45 45 14
100 27 19
15 77 23
85 14 20
33 30 93
72 89 56
98 15 16
31 41 33
62 14 52
94 56 96
28 63 52
18 55 90
54 67 79
69 18 28
49 98 48
98 55 47
0.274352
0.598865
0.331288
0.99194
0.745644
0.956743
0.772206
0.757002
0.295872
0.284212
0.92672
0.283397
0.99607
0.609204
0.75155
0.657865
0.262169
0.376924
0.62602
0.342409
0.976554
0.480403
0.70965
0.840458
0.405702
0.966135
0.410012
0.636798
0.773732
0.667265
0.625695
0.455395
0.954715
0.654049
0.934815
0.299276
0.246479
0.29401
0.906548
0.828627
0.843841
0.214339
0.323648
0.878342
0.736061
0.229233
0.397134
0.574376
0.578126
0.706068
0.53039
0.890677
0.653414
0.590076
0.780926
0.50545
0.710645
0.808929
0.681108
0.477597
0.714566
0.726383
0.880723
0.43598
0.552392
0.557924
0.801174
0.308354
0.959409
0.435593
146 300
412 145
355 333
62 238
179 230
317 31
70 209
339 10
389 473
395 484
431 141
145 215
216 480
360 62
168 271
349 302
271 225
237 429
32 488
384 302
96 188
49 22
117 338
330 174
51 176
493 99
316 38
466 260
177 212
362 407
339 126
381 355
454 125
11 82
307 23
183 148
115 397
224 14
221 0
409 482
264 275
315 392
415 78
80 162
106 219
372 36
361 247
314 421
434 34
37 345
29 335
428 373
445 264
491 474
16 89
173 338
486 135
202 495
0 334
269 63
355 2
357 101
287 368
44 148
372 421
189 4
21 242
374 442
160 118
138 90
6133.33
3
