70
5
0 0 0 0 0
46 29 53 86 95
55 82 54 36 61
59 54 11 54 33
75 62 46 36 47
36 58 83 38 80
28 42 13 12 23
12 42 62 22 26
45 55 83 53 14
58 24 67 32 14
97 76 68 56 44
87 73 87 60 83
10 30 28 94 83
59 40 38 81 82
32 97 52 59 14
59 60 50 39 53
84 63 91 94 44
85 29 11 52 64
77 63 50 34 22
30 96 23 66 11
84 56 61 43 20
29 41 33 57 84
79 15 92 59 88
45 26 98 92 65
43 35 10 96 44
55 64 31 33 40
35 23 83 71 36
35 73 25 68 67
41 86 33 81 44
10 41 25 96 71
45 87 25 94 55
65 94 92 64 44
90 93 51 10 66
80 93 41 96 42
76 99 34 41 60
97 69 98 64 99
87 97 79 47 42
31 13 35 68 46
69 38 95 16 78
46 69 51 44 13
32 59 63 69 31
10 23 81 95 41
40 43 96 23 28
45 12 35 60 58
64 94 19 57 75
30 45 48 79 82
15 64 51 19 96
15 43 26 69 43
75 62 32 54 70
18 93 57 58 20
64 27 94 55 100
54 83 82 10 27
16 57 32 92 89
17 32 12 57 61
14 35 33 41 18
51 54 71 15 35
24 99 59 12 30
21 38 48 14 37
49 57 36 90 69
28 86 55 61 92
30 48 74 58 61
98 63 89 45 98
94 14 32 57 91
50 94 83 59 40
75 75 32 93 14
74 61 10 56 88
80 71 10 19 32
51 32 49 99 16
24 73 86 48 30
13 26 44 44 63
1.38067
0.965058
0.303261
0.642228
0.972676
0.444373
0.584564
0.500974
0.47272
0.732488
0.835893
0.300789
0.444046
0.666914
1.28011
0.314986
1.04577
0.448743
0.42034
1.34736
1.20834
0.408225
1.25094
1.46311
1.1854
0.433139
1.1976
1.11436
0.358581
0.681579
0.426589
0.758525
1.36612
0.552212
1.02544
0.604232
0.654518
0.540012
1.01309
0.474522
1.33898
1.06821
0.844821
0.851683
0.711895
0.390963
0.617452
1.30265
0.645536
0.329735
0.453442
1.33427
0.334021
1.11827
0.307828
1.08452
1.11481
0.775361
0.90997
0.789579
0.579794
0.397998
0.739564
0.843193
0.619993
1.13359
0.316176
0.46812
0.529301
0.973478
487 411
7 164
312 91
7 444
202 198
413 185
1 374
257 256
269 445
349 21
275 87
261 342
51 51
425 14
314 486
40 73
29 314
44 396
70 431
483 17
258 244
307 498
372 144
219 16
44 60
354 130
295 487
43 250
434 278
5 235
173 483
270 343
397 242
216 220
486 255
391 77
441 35
188 218
87 423
8 450
248 346
462 326
337 494
422 127
291 1
449 14
311 223
9 348
17 53
352 483
211 442
329 169
395 78
443 102
340 463
133 468
229 87
373 164
162 204
444 87
277 412
486 365
216 74
123 319
252 302
319 465
321 340
487 297
335 105
167 5
4620
4
