70
9
0 0 0 0 0 0 0 0 0
42 34 80 44 86 67 49 26 69
76 12 12 61 17 97 30 52 92
73 60 47 44 29 97 30 79 43
45 37 93 47 18 22 91 37 40
47 80 48 91 71 97 92 36 34
68 27 94 12 69 60 33 30 41
19 24 78 62 30 21 31 37 72
93 15 61 28 13 63 34 42 43
73 24 49 97 26 92 34 47 15
25 67 60 16 68 51 65 44 51
47 84 38 65 83 69 80 52 97
85 57 27 26 68 41 46 23 96
27 94 13 71 39 77 91 30 18
32 30 31 20 46 22 21 35 71
56 38 28 15 50 65 35 75 85
50 96 25 38 40 71 53 80 65
22 48 73 49 23 44 36 43 35
12 41 16 56 97 22 51 26 48
50 15 60 53 23 31 55 32 43
86 64 90 23 30 55 68 40 71
48 76 30 25 13 75 56 59 77
10 94 81 10 50 74 47 36 38
42 17 14 24 77 30 52 87 65
84 75 72 37 80 31 30 17 30
60 90 72 40 48 76 73 89 68
66 18 42 34 70 43 82 66 66
50 35 88 15 24 64 67 38 68
55 41 38 67 86 91 24 76 49
81 92 81 60 93 63 77 98 46
26 96 62 63 83 63 34 11 57
89 100 28 47 49 59 93 18 27
54 78 70 82 24 98 66 71 28
24 14 27 50 60 82 39 67 43
100 27 51 39 81 47 70 80 88
47 56 91 96 33 17 100 24 70
94 61 96 39 90 99 94 70 14
87 58 41 63 76 60 15 47 47
32 79 100 25 82 12 17 12 53
91 98 80 16 28 58 92 97 96
11 99 12 20 55 10 55 36 94
75 23 30 36 54 77 44 60 67
100 96 71 66 50 60 41 83 64
12 74 64 24 13 19 20 88 38
48 61 12 48 82 98 59 78 76
81 57 24 14 77 99 22 28 81
58 71 96 40 37 32 17 93 60
56 69 19 87 81 78 53 78 55
51 17 19 59 34 31 11 36 22
84 37 51 90 67 56 73 79 78
96 79 63 77 86 11 84 48 24
58 95 70 93 34 65 78 38 55
27 62 55 72 92 31 29 62 100
68 35 21 26 34 58 82 52 16
59 10 59 75 69 21 75 28 17
76 19 11 77 70 62 100 93 87
55 80 61 68 49 49 46 37 34
57 53 83 100 16 35 19 18 30
87 91 67 55 59 13 76 52 85
16 26 40 62 13 79 42 79 71
37 27 61 29 71 86 38 50 76
39 48 29 33 26 16 90 30 94
12 95 11 57 22 61 21 77 21
86 35 36 48 73 60 16 58 23
90 46 60 61 30 99 18 75 29
90 57 80 47 16 88 81 55 34
41 60 71 67 41 52 82 71 30
63 69 14 89 79 26 33 44 77
28 45 56 11 50 87 17 69 50
95 12 95 50 89 82 77 20 70
0.809124
1.54433
0.878815
1.26573
0.444833
1.30689
0.55759
1.00345
1.90754
1.47237
0.883908
1.33598
0.402658
1.85026
0.412277
1.34359
1.61792
1.41378
1.57253
1.28107
1.00612
1.38777
1.25655
1.78955
0.604668
1.52604
1.32639
1.74606
0.501638
1.75824
1.98539
1.26196
0.468724
1.60171
0.970158
0.870869
0.65339
1.19971
1.10066
1.12989
0.826896
0.69924
1.93677
1.48644
0.925463
1.95776
0.787314
0.940052
1.76436
0.495195
1.58936
0.854211
1.93423
1.9693
0.863101
1.76437
1.26443
1.78668
0.764701
0.780401
0.594008
1.09609
0.529342
0.57115
1.88849
0.483241
1.71362
1.20327
0.76781
0.993134
126 105
450 409
394 159
397 429
324 407
100 363
213 307
490 319
500 296
456 362
117 40
186 108
167 198
329 289
281 279
23 410
32 278
270 45
2 210
388 123
322 441
449 496
257 290
483 117
192 309
148 317
108 260
164 440
394 157
130 166
420 260
374 212
285 22
413 183
231 403
408 367
462 111
60 284
454 467
247 156
136 477
401 407
20 51
49 122
196 327
1 6
376 397
230 232
484 299
195 188
283 433
414 31
242 341
447 200
446 298
343 402
359 34
67 13
412 314
333 415
324 427
246 500
162 176
272 333
330 22
406 187
317 424
95 126
311 372
163 128
18600
1
