70
3
0 0 0
25 38 11
88 87 40
43 73 100
99 94 55
75 94 16
39 69 73
70 51 35
100 88 13
52 45 53
34 50 34
10 63 19
79 17 94
23 52 53
70 75 67
75 97 29
86 27 52
10 32 40
32 27 60
99 93 28
37 78 63
74 30 86
60 20 56
11 79 57
42 81 43
60 39 99
94 55 78
13 50 27
35 58 93
76 62 24
96 87 74
40 63 67
86 47 42
48 88 40
63 77 18
78 47 70
100 61 65
80 86 70
80 58 81
89 25 45
76 32 17
15 15 86
91 76 24
65 91 48
24 72 11
83 67 44
99 92 92
94 72 30
16 23 46
70 11 55
35 19 72
56 50 21
79 83 12
12 65 45
98 60 95
10 91 29
51 35 63
57 39 36
83 35 76
29 45 45
57 100 66
69 20 85
52 17 74
85 45 86
19 26 14
84 26 74
82 92 50
92 81 34
80 42 60
56 58 26
0.543527
0.629225
0.7669
0.607526
0.790853
0.347105
0.301463
0.717467
0.342013
0.483158
0.665532
0.990651
0.827734
0.6598
0.252126
0.786908
0.583057
0.303514
0.263806
0.329808
0.526539
0.322301
0.282391
0.395912
0.653535
0.443533
0.670455
0.954733
0.973535
0.829504
0.81112
0.617594
0.845395
0.957813
0.281418
0.276816
0.688678
0.607718
0.249531
0.745276
0.260944
0.200717
0.3722
0.676827
0.974288
0.670552
0.364372
0.840303
0.901558
0.571594
0.796782
0.222263
0.263541
0.354481
0.541641
0.9917
0.766675
0.860755
0.657721
0.809592
0.656778
0.207082
0.362427
0.322572
0.336924
0.632474
0.798327
0.952422
0.943578
0.617037
240 224
218 233
101 454
337 273
222 54
194 91
29 306
367 97
233 143
289 221
325 84
57 289
160 69
339 1
116 83
407 97
93 245
48 465
305 39
287 470
403 24
358 467
201 167
359 200
425 226
24 181
218 396
179 193
331 484
93 464
52 327
108 122
486 258
305 287
98 137
490 139
477 71
105 327
498 269
336 495
18 463
386 16
13 290
303 123
162 81
173 190
136 20
97 196
414 305
335 366
378 254
13 133
99 234
378 341
282 37
370 475
364 386
487 485
263 401
89 367
333 105
309 208
399 470
166 218
490 71
214 323
277 313
316 169
308 187
254 11
19530
1
