70
11
0 0 0 0 0 0 0 0 0 0 0
26 48 10 13 87 64 48 86 52 39 68
35 71 50 95 53 91 78 25 32 64 20
76 71 97 28 92 88 63 99 69 50 38
19 67 46 45 32 56 26 96 83 67 78
19 10 45 24 98 90 99 77 89 39 51
86 38 81 67 87 75 74 65 46 47 86
14 29 76 51 29 20 36 92 39 45 16
34 10 95 51 38 82 67 76 84 88 16
64 72 69 65 89 16 46 89 36 42 93
99 12 22 90 93 79 56 53 74 72 65
47 59 70 63 38 82 78 85 91 20 66
28 14 21 35 24 13 90 61 94 76 94
88 59 61 97 21 94 61 90 73 50 87
60 29 55 92 35 71 12 39 16 52 31
66 72 25 44 93 70 79 60 30 75 93
64 95 13 85 67 70 24 14 27 25 38
87 42 77 18 73 59 51 42 15 53 48
60 40 47 34 79 21 84 72 47 96 39
88 40 73 78 76 95 66 78 57 75 58
67 24 33 77 68 69 63 83 56 73 91
92 30 38 19 98 40 11 98 82 94 85
96 48 18 23 33 98 29 37 78 24 44
100 50 16 22 75 79 50 15 48 37 28
19 98 77 38 73 52 35 33 73 35 66
47 34 17 36 78 62 87 14 23 91 58
56 45 68 99 83 68 29 44 50 47 75
29 82 47 26 86 11 100 13 76 56 16
95 35 67 89 37 89 48 100 67 45 62
72 90 89 90 13 43 15 37 100 22 99
79 10 45 34 41 54 38 50 90 63 31
25 47 17 11 65 61 73 81 54 49 94
11 72 13 46 50 29 34 27 94 29 75
30 60 20 42 87 84 62 63 100 94 69
78 53 56 29 98 60 36 73 23 63 74
68 27 13 66 73 12 44 34 88 89 51
61 18 73 71 63 99 94 73 23 64 100
95 99 79 58 62 75 21 54 40 15 90
72 28 34 37 41 24 76 19 60 85 45
85 96 37 87 69 48 52 27 76 37 66
46 44 79 42 58 35 75 12 38 27 36
91 21 57 10 64 65 29 40 21 98 88
57 92 76 51 38 14 63 100 97 46 36
77 92 58 97 27 90 37 93 93 19 35
27 23 52 92 92 13 99 16 64 41 19
16 29 93 76 70 80 43 46 61 55 11
79 54 64 16 69 36 28 99 52 57 59
82 78 65 83 26 64 57 85 42 71 12
28 44 18 32 31 89 23 37 69 49 63
98 68 10 30 84 26 47 58 38 63 14
97 88 27 62 65 14 76 43 83 92 32
38 13 27 48 92 26 40 99 55 55 47
75 21 57 95 91 34 94 53 15 18 19
68 95 63 15 71 29 33 25 83 51 90
54 27 82 33 89 62 18 74 83 27 29
18 24 94 72 30 14 31 63 17 36 82
30 30 42 77 39 28 64 69 99 69 43
41 35 27 22 36 74 19 21 35 40 15
15 89 97 94 37 73 70 65 39 86 63
73 18 83 37 70 30 85 99 91 60 72
13 58 50 33 76 92 29 29 49 87 90
45 83 51 64 51 80 82 62 18 18 44
10 54 28 21 59 55 80 13 46 24 15
17 45 67 33 14 68 39 71 75 45 66
35 76 89 13 60 46 35 85 88 76 52
84 35 22 99 14 57 55 70 40 10 24
54 54 78 69 72 78 19 100 11 56 10
79 65 36 98 36 92 76 42 56 81 33
65 28 34 37 40 46 64 78 51 88 98
65 22 49 38 79 94 94 37 58 59 62
0.97198
1.80123
0.773813
0.517935
1.92948
1.79066
2.31549
1.44469
0.659362
1.4886
2.47846
2.37022
1.74792
1.51218
1.9572
2.41964
2.32371
1.41375
0.727772
1.87013
2.14873
2.12312
2.47349
1.91782
1.90488
1.44568
0.885651
1.41957
1.50622
0.733214
2.23642
2.41583
2.18335
1.31174
1.14975
1.89338
2.48634
0.823851
2.13733
0.870214
0.763404
2.35922
1.40194
1.96426
1.19596
0.708326
1.28538
0.877408
1.91803
0.766023
1.42274
2.14665
2.09499
1.93324
1.33247
2.46619
2.12024
1.47053
1.56423
2.36247
0.544809
0.560904
2.10135
0.5316
2.11604
1.86739
1.54592
0.807248
2.13106
1.5323
173 358
328 268
4 45
459 58
470 38
275 299
481 44
50 216
13 330
26 343
497 250
353 475
304 2
18 426
487 364
307 475
149 282
266 395
475 226
485 415
340 190
479 435
390 342
150 74
121 155
192 131
8 29
73 169
25 142
139 23
70 358
234 230
194 244
14 299
74 78
382 144
426 280
138 307
8 202
284 464
180 238
24 12
323 102
250 253
133 373
334 265
317 428
302 176
246 280
188 27
247 77
158 312
131 321
298 415
438 194
121 399
77 338
455 50
163 29
132 159
235 113
44 474
331 50
441 156
470 154
291 6
7 91
467 72
376 350
443 360
3829
5
