70
11
0 0 0 0 0 0 0 0 0 0 0
20 88 40 44 90 12 39 88 11 41 51
20 58 72 81 90 70 39 24 73 65 37
58 58 14 70 28 96 73 73 61 88 100
91 99 39 41 46 39 100 59 95 11 18
82 45 68 96 75 42 59 46 30 15 56
50 12 17 31 47 23 14 62 94 98 98
11 35 16 40 59 36 39 93 83 84 30
34 50 77 45 89 29 90 63 72 29 98
33 35 45 96 81 29 67 64 95 33 85
27 45 98 85 95 23 87 51 45 84 66
50 56 54 85 79 33 96 89 61 63 59
14 18 40 68 29 17 78 16 81 52 43
77 81 76 21 94 83 68 72 75 25 50
20 32 35 35 84 39 21 84 28 45 16
20 36 94 58 37 73 38 74 52 67 89
36 91 87 89 24 20 64 31 69 23 65
71 85 99 19 49 47 47 81 33 92 98
79 70 55 97 85 60 59 10 85 71 67
33 80 25 19 60 43 39 73 33 47 62
77 21 20 33 46 69 79 17 13 98 72
91 96 77 29 72 10 67 87 48 35 57
73 13 64 69 54 46 11 89 95 63 12
66 28 24 47 93 21 73 35 23 98 67
99 67 64 89 27 92 36 49 32 82 66
11 51 63 22 94 86 17 39 95 75 66
81 99 56 46 13 48 58 17 96 74 98
58 69 15 28 99 49 11 41 13 31 23
45 19 31 92 47 100 74 79 13 94 100
18 41 38 21 100 48 47 89 71 33 65
82 59 68 37 33 63 78 18 21 85 83
58 75 52 74 23 16 21 33 90 95 23
87 87 60 95 23 23 31 88 84 13 12
16 63 63 98 26 93 23 42 61 21 73
40 62 88 55 32 35 76 26 84 36 100
24 24 28 71 85 96 62 89 50 63 18
19 45 73 18 95 16 12 69 37 85 50
87 38 21 75 72 73 90 75 28 89 34
45 65 51 32 47 92 20 91 99 90 97
63 48 61 85 81 98 84 32 71 17 41
93 16 57 34 11 56 77 63 21 45 93
67 26 43 64 97 89 48 70 94 21 100
26 28 71 38 49 85 86 82 68 57 48
89 92 83 54 46 92 92 66 95 30 39
80 65 11 89 93 43 13 95 31 40 79
13 62 58 16 81 84 43 95 29 14 28
79 19 72 10 86 90 70 76 29 85 89
57 95 74 20 71 54 79 25 19 30 11
38 53 99 78 88 96 31 57 35 53 25
80 25 34 71 29 47 14 14 95 11 31
36 47 55 34 94 43 94 16 17 69 79
100 58 88 87 35 38 97 39 89 47 91
18 95 51 83 81 43 16 64 83 43 23
99 43 46 78 49 47 54 51 33 64 76
44 16 28 79 20 95 73 89 48 99 27
86 15 26 58 37 14 70 62 89 50 54
38 47 26 31 28 94 77 45 30 83 14
86 90 15 14 79 92 40 12 75 41 91
27 82 19 80 46 46 65 52 43 34 12
83 84 26 78 91 29 78 96 55 10 12
18 44 94 57 86 90 40 76 68 59 34
23 76 83 52 21 44 33 53 100 58 42
98 25 14 22 22 84 79 65 48 83 29
46 93 32 36 59 65 30 98 76 53 76
64 73 64 54 37 86 51 73 38 54 100
40 61 67 43 71 88 99 65 95 24 44
49 56 48 86 15 98 99 32 46 100 77
34 30 79 36 36 100 67 15 80 49 53
51 29 46 76 92 82 50 32 11 20 89
42 43 40 27 98 20 41 77 43 35 35
0.13507
0.384537
0.354848
0.149022
0.317014
0.449037
0.160019
0.142131
0.128498
0.437028
0.266465
0.471397
0.123942
0.462107
0.24597
0.131828
0.100429
0.434936
0.425589
0.38381
0.362945
0.162001
0.327688
0.392898
0.194678
0.409323
0.294419
0.348145
0.289062
0.359263
0.155329
0.405296
0.243865
0.324309
0.162838
0.191174
0.467076
0.40107
0.158684
0.440932
0.332052
0.426633
0.393225
0.197398
0.395552
0.373448
0.153625
0.392543
0.128052
0.449618
0.225954
0.310972
0.147215
0.2998
0.284358
0.307439
0.202176
0.149771
0.322419
0.321592
0.107156
0.224169
0.31839
0.337853
0.349664
0.364039
0.290308
0.308094
0.285469
0.385466
402 164
469 140
132 486
469 45
416 73
250 10
91 363
440 147
406 83
211 246
436 205
338 39
313 93
220 358
42 438
288 466
11 415
207 123
99 331
276 485
171 339
451 297
447 68
97 292
102 373
87 255
318 380
455 187
304 250
317 124
488 75
101 59
117 398
349 472
495 143
216 438
366 425
385 82
79 112
75 307
255 483
317 378
378 337
272 154
458 251
155 351
96 82
386 410
262 418
311 175
138 488
266 101
174 417
260 114
214 347
366 324
63 479
12 471
483 215
117 102
154 300
495 238
377 385
251 196
411 48
182 118
22 217
291 174
490 447
200 348
3874
5
