70
7
0 0 0 0 0 0 0
34 94 100 46 93 35 35
99 28 98 63 92 52 21
66 28 47 68 47 70 28
83 10 54 63 86 95 83
71 27 73 78 26 40 76
81 81 63 77 52 21 64
40 10 24 52 36 19 43
89 48 80 80 55 25 15
74 12 60 82 51 19 74
73 85 57 37 58 41 98
86 74 73 72 19 79 61
56 41 93 52 37 30 94
78 29 47 83 79 28 98
68 50 13 41 36 29 62
23 98 31 17 39 29 100
83 60 30 46 28 73 56
37 78 88 65 67 89 48
78 80 19 11 10 62 32
59 16 63 10 42 32 37
51 11 14 60 63 83 18
90 47 18 81 95 73 88
88 80 64 50 40 30 22
65 68 69 94 51 21 98
46 98 64 30 12 23 51
86 92 63 24 36 78 77
69 24 32 54 73 35 72
90 90 44 23 26 28 26
97 22 38 38 89 92 67
26 48 46 73 52 97 57
36 39 13 56 95 39 83
85 13 67 69 64 70 80
73 59 90 54 99 94 27
43 96 55 70 49 34 93
91 94 32 95 27 54 62
52 97 86 70 25 65 61
24 22 29 55 20 16 58
19 66 63 39 30 85 59
84 20 84 35 56 23 75
55 74 30 25 88 93 26
54 52 49 99 33 31 87
14 19 93 78 92 47 99
58 62 50 69 66 30 49
77 32 74 42 48 40 36
59 58 53 42 93 33 85
14 40 18 37 31 22 96
10 54 61 18 30 49 19
88 14 35 96 49 90 94
52 18 33 51 32 15 74
23 28 73 33 63 69 73
36 29 60 60 42 44 34
48 42 88 23 64 81 38
86 90 72 71 13 48 57
72 26 47 38 86 35 49
65 80 64 77 66 90 26
41 24 86 50 23 80 16
89 81 16 56 14 28 40
96 97 27 96 72 77 95
97 91 12 11 48 31 14
51 83 76 11 33 15 42
69 37 65 99 18 60 67
25 75 49 37 18 77 10
15 69 77 52 28 81 59
12 39 39 74 63 63 26
11 15 57 74 83 16 93
29 95 70 67 83 82 59
99 91 49 14 91 72 72
81 16 65 40 12 60 78
69 34 50 18 31 95 69
78 79 36 100 76 21 72
0.69827
0.584045
0.371266
0.806539
0.608933
0.704951
0.91371
0.452528
0.808936
0.541919
0.405364
0.54224
0.919013
0.548193
0.596162
0.504091
0.731832
0.897536
0.699819
0.929164
0.678116
0.376931
0.360512
0.953088
0.683631
0.310638
0.368773
0.973472
0.312213
0.406445
0.871923
0.73886
0.847125
0.531992
0.388797
0.360618
0.36627
0.443649
0.981207
0.853067
0.711085
0.419977
0.45618
0.285317
0.440055
0.522259
0.985714
0.200622
0.314462
0.672216
0.86427
0.264589
0.596548
0.229773
0.365183
0.786144
0.983471
0.558912
0.97714
0.235715
0.835544
0.725863
0.959054
0.260792
0.361888
0.325855
0.628884
0.83262
0.201767
0.799394
462 349
222 488
14 432
359 478
430 300
434 229
68 277
496 422
359 481
180 49
308 99
447 232
368 185
348 344
495 0
143 390
273 235
257 161
157 436
22 196
263 187
203 210
19 449
219 77
471 280
263 247
194 476
31 200
117 30
438 44
27 231
486 133
388 272
185 198
240 443
230 405
195 339
265 247
160 17
284 161
133 337
24 454
225 50
333 5
345 99
215 318
34 431
185 444
82 28
222 445
136 304
438 463
384 304
307 291
441 490
219 141
465 324
308 28
305 166
95 336
420 391
11 82
401 198
292 123
99 321
493 373
366 28
474 67
302 397
19 221
9482.5
2
