70
5
0 0 0 0 0
48 30 82 71 11
57 54 73 49 63
54 86 80 23 22
68 83 83 68 20
42 69 99 44 18
59 47 35 13 21
58 10 74 12 44
53 75 62 20 92
86 62 100 42 79
89 76 11 85 65
47 11 47 20 35
16 63 71 56 96
50 74 61 45 22
40 22 39 78 91
64 98 11 89 86
18 24 30 10 69
99 14 91 86 24
99 33 60 75 90
93 30 59 80 10
89 52 77 56 21
23 79 31 35 30
69 97 60 51 47
99 97 31 44 16
57 60 60 46 45
92 95 30 87 61
37 57 100 49 71
62 66 77 42 91
51 21 97 70 36
13 29 15 27 88
57 48 11 73 56
51 36 60 63 66
51 84 29 37 55
21 26 11 77 66
34 80 38 93 41
35 85 31 72 53
20 79 45 44 63
62 49 52 99 61
10 43 47 22 90
13 21 23 67 44
64 90 39 86 18
95 94 94 68 80
77 14 23 50 38
13 46 25 66 31
36 21 11 94 85
15 83 65 31 12
36 45 88 50 65
64 52 12 40 23
72 97 89 82 93
22 47 22 33 80
29 50 96 42 16
19 11 91 35 79
32 77 75 92 72
58 97 31 14 14
35 31 62 32 13
44 47 38 82 51
85 17 82 84 22
86 81 10 30 28
15 48 63 57 34
98 26 63 67 11
84 11 100 56 87
16 57 84 11 10
20 70 57 35 20
15 57 83 51 52
80 42 48 58 64
32 32 68 47 76
55 30 78 18 73
61 44 11 73 27
14 63 37 97 23
48 66 82 16 89
0.235148
0.993099
0.756129
0.829722
0.648549
0.227011
0.522898
0.515327
0.45716
0.278349
0.990553
0.365777
0.31043
0.363923
0.201931
0.554645
0.900497
0.691657
0.677
0.227934
0.90292
0.61834
0.504487
0.456441
0.331126
0.453039
0.234109
0.557764
0.327524
0.336591
0.605732
0.317599
0.685403
0.65533
0.817553
0.808548
0.462272
0.354341
0.866409
0.534464
0.999103
0.241926
0.611831
0.448673
0.783736
0.483762
0.260439
0.809946
0.543695
0.8474
0.200848
0.414725
0.559194
0.390065
0.566546
0.686263
0.818544
0.934902
0.997518
0.467996
0.606312
0.451069
0.35708
0.731443
0.810417
0.383992
0.694057
0.37695
0.813323
0.897412
73 17
80 307
365 434
392 412
221 397
359 85
32 157
58 389
326 403
286 324
318 384
443 412
257 405
493 350
448 207
18 159
55 327
74 439
352 185
450 104
424 18
159 446
322 359
54 313
107 216
387 236
336 458
343 197
8 115
259 69
289 151
308 348
33 221
80 371
283 101
124 245
172 468
187 206
396 415
142 22
96 458
284 393
366 293
224 431
276 133
13 349
9 364
281 105
420 3
231 322
494 82
233 212
326 74
15 135
24 114
23 148
374 354
23 341
105 98
35 9
174 307
344 255
465 32
107 253
146 245
55 475
275 469
403 244
274 195
187 84
4548.75
4
