70
9
0 0 0 0 0 0 0 0 0
32 100 70 83 35 81 13 58 88
83 66 28 73 36 97 91 85 33
22 28 78 53 82 88 53 37 81
16 95 50 97 61 89 47 17 12
40 50 42 35 14 69 87 40 61
51 95 61 83 12 62 12 100 78
78 46 36 83 61 72 65 64 73
15 30 66 21 55 35 15 65 69
43 35 45 83 75 22 40 74 94
51 86 58 55 65 73 40 71 27
94 60 97 29 63 95 89 18 16
32 76 26 77 19 75 47 74 44
39 66 50 56 59 74 16 23 19
33 56 40 14 25 56 66 88 33
36 48 26 38 93 10 83 88 91
36 82 24 69 93 18 13 14 34
41 38 80 33 74 15 61 33 73
22 28 59 27 80 16 25 38 81
26 81 39 47 90 56 31 58 45
65 33 36 78 87 82 94 66 35
87 71 75 64 86 96 98 65 92
76 47 98 71 16 55 71 31 93
69 98 68 20 68 52 56 18 28
100 68 52 48 76 21 94 27 14
85 67 30 24 54 71 55 50 67
71 86 48 79 84 96 41 52 28
28 86 53 73 57 13 83 83 81
60 73 12 35 39 21 42 56 52
91 86 13 65 72 72 100 59 85
44 40 97 31 39 74 62 31 78
19 38 22 99 50 100 93 18 86
87 79 93 12 43 15 41 93 91
61 21 77 66 85 14 11 25 29
27 61 57 29 95 56 26 69 83
38 80 46 47 51 85 46 83 86
15 45 43 99 76 27 82 70 78
40 63 52 81 14 55 16 68 72
77 86 25 95 29 30 25 30 64
16 76 93 49 27 12 63 38 17
76 83 40 94 93 59 47 20 26
43 98 44 30 99 52 90 24 58
95 93 81 42 47 70 35 50 84
49 25 79 90 82 20 71 43 65
74 12 78 96 96 56 75 40 17
21 88 59 40 38 74 37 61 23
71 98 11 44 100 73 40 87 55
77 44 41 100 43 97 91 13 95
82 64 15 76 13 28 91 51 89
36 13 87 15 86 30 73 62 80
26 83 18 56 100 54 43 42 45
98 13 28 95 43 41 95 15 68
40 28 49 74 93 91 70 39 29
36 82 25 53 26 62 38 24 89
71 61 81 48 76 82 42 66 24
17 51 78 62 47 78 38 78 17
55 37 40 26 74 43 68 76 28
98 76 30 12 99 29 24 55 77
82 54 49 43 81 34 19 24 66
91 57 93 89 68 66 69 35 53
86 83 19 77 84 39 17 92 29
23 76 13 26 72 88 91 53 32
93 17 74 33 57 61 100 59 77
81 34 95 98 92 39 89 54 79
39 56 45 78 89 29 51 61 12
69 85 19 85 30 33 20 62 11
42 69 97 92 45 96 12 56 50
43 28 82 58 32 55 48 97 21
41 15 81 40 19 96 38 93 45
93 42 38 34 82 29 77 32 39
0.220706
0.102716
0.313185
0.111152
0.220167
0.199106
0.439997
0.466809
0.398108
0.31444
0.333993
0.327084
0.383497
0.331672
0.207288
0.486776
0.467499
0.445533
0.125171
0.429501
0.158571
0.149046
0.173986
0.268548
0.159997
0.322413
0.110075
0.191448
0.449021
0.225159
0.497501
0.478134
0.428628
0.445807
0.402283
0.276031
0.161423
0.123339
0.440795
0.17772
0.492811
0.490865
0.283022
0.27009
0.383541
0.371524
0.103676
0.269149
0.13427
0.254638
0.314159
0.358921
0.411107
0.113089
0.1905
0.459343
0.324876
0.159557
0.137473
0.170564
0.187769
0.442168
0.232446
0.12153
0.358716
0.155895
0.31088
0.139654
0.379676
0.422578
396 51
456 367
37 129
330 158
342 84
35 212
430 178
18 479
341 463
258 46
95 65
35 408
5 346
366 238
365 437
370 238
301 49
181 445
166 354
422 178
75 207
189 494
251 180
404 92
127 355
275 118
284 139
401 122
134 308
7 46
408 1
341 483
169 69
246 27
223 466
466 205
340 198
59 74
345 469
350 443
164 373
170 429
353 421
15 177
113 336
290 182
364 268
379 45
128 215
327 30
30 175
88 32
344 416
220 140
431 265
140 79
142 328
417 338
373 14
262 485
5 451
367 259
65 316
383 304
42 80
49 180
392 131
0 304
385 163
58 47
4851.25
4
