70
7
0 0 0 0 0 0 0
12 60 19 33 49 50 88
47 76 83 49 92 36 31
93 64 86 74 41 42 39
73 47 38 75 78 15 89
17 17 60 35 85 55 16
100 61 81 78 79 17 81
60 58 66 47 25 57 25
26 69 35 58 52 85 94
54 46 46 35 82 75 17
62 47 90 68 44 50 38
30 45 63 100 55 77 47
62 63 41 51 41 63 43
16 88 83 33 88 91 26
89 68 48 50 83 79 84
37 87 52 89 45 66 41
61 45 28 50 20 56 32
80 24 19 20 68 59 51
21 46 29 35 66 44 21
23 61 38 50 62 12 85
63 62 49 20 34 72 29
70 59 72 67 64 30 63
83 86 92 84 59 65 15
33 52 90 91 60 99 69
84 16 46 42 67 52 67
78 92 80 88 43 30 47
37 100 78 12 10 64 17
53 88 31 74 79 46 58
85 56 94 67 51 27 87
28 19 70 45 39 69 27
79 47 19 93 66 99 19
96 17 58 69 62 41 51
58 71 14 58 86 20 14
90 59 51 89 29 64 83
54 38 84 38 43 59 81
49 19 26 98 75 10 18
78 50 58 37 67 46 13
94 42 81 77 19 76 45
50 26 81 71 53 88 51
71 72 22 39 84 10 58
37 83 88 15 66 11 36
31 38 28 29 22 79 82
49 39 77 80 83 17 29
83 63 14 59 75 56 17
35 60 31 88 62 73 28
92 96 14 91 14 54 54
38 31 30 49 47 14 45
29 64 36 42 99 59 15
65 22 19 42 28 21 92
30 74 97 30 83 93 89
12 67 93 18 60 85 72
100 74 96 66 13 51 87
15 25 81 25 61 28 17
10 41 81 80 91 48 60
84 56 96 17 21 61 34
45 35 79 99 31 22 76
88 100 70 48 68 62 100
25 71 71 94 11 34 11
68 22 78 14 95 43 35
13 94 14 35 79 95 16
39 34 26 83 37 59 98
25 73 88 66 16 39 16
45 34 49 72 75 46 12
61 100 81 78 28 78 64
99 37 43 43 37 38 93
79 54 19 60 52 13 88
68 50 56 51 83 61 42
99 81 21 25 38 47 49
60 82 63 90 35 72 91
11 58 93 47 32 52 33
1.08468
1.64704
0.962145
1.81614
1.94106
1.31144
1.55567
0.566433
1.94008
1.6271
1.98351
1.02014
0.972229
1.85262
1.50374
1.25737
1.22909
2.34235
1.75886
0.708532
2.24429
1.0544
1.47595
0.722586
1.29522
0.816122
1.57074
0.663175
1.64758
2.13994
1.38718
2.26306
2.07172
1.52482
0.864074
1.42675
1.11403
0.772479
0.734327
1.23715
1.87454
1.94092
0.98611
2.08452
1.48617
1.61263
2.46812
1.68557
1.57865
1.36295
1.54065
0.918616
1.10264
1.85865
2.02147
0.868416
1.15651
0.932129
0.62567
1.90851
0.72533
1.31278
0.962547
0.927229
1.96448
1.66018
1.81272
0.697323
1.64524
1.07029
150 16
174 246
370 264
142 412
293 156
280 434
339 370
443 436
413 181
461 122
200 226
363 367
379 475
128 211
120 466
350 464
270 247
233 78
50 362
291 455
397 161
157 377
372 364
16 321
31 272
175 367
235 175
104 479
77 47
170 305
309 241
460 339
33 43
332 381
35 336
429 175
481 240
172 103
128 488
138 51
114 315
3 2
98 460
256 161
454 438
26 18
320 305
240 320
72 478
184 372
60 71
161 45
314 330
476 289
273 71
181 30
374 287
107 9
339 94
253 355
22 476
388 313
396 225
44 183
292 24
318 0
49 46
491 325
82 124
110 450
3775
5
