70
5
0 0 0 0 0
94 44 56 80 55
48 48 95 90 34
18 73 58 68 25
65 15 69 22 79
76 21 19 93 71
11 52 37 53 13
73 17 33 70 15
67 98 67 28 52
55 49 100 14 98
22 88 99 90 40
37 91 63 87 38
91 86 45 46 97
78 48 61 56 81
80 68 16 69 79
77 12 23 62 71
92 92 21 75 16
23 57 80 37 85
24 48 38 42 47
85 37 72 39 35
57 47 53 55 43
51 42 42 43 12
24 84 95 92 81
93 31 60 56 63
10 85 70 33 31
70 48 98 71 80
66 87 72 59 15
62 90 84 74 17
36 87 87 30 90
19 96 48 27 16
61 72 62 19 88
64 65 11 33 12
82 37 20 32 18
41 27 97 13 96
86 73 98 76 50
83 69 86 84 26
45 54 87 36 22
18 100 81 72 43
34 58 17 24 20
85 23 10 41 52
99 23 86 42 93
53 96 73 57 50
61 84 60 27 67
49 10 60 86 67
32 100 42 93 72
78 17 73 55 72
17 11 41 94 57
82 59 82 88 11
45 33 91 14 56
14 49 20 94 75
97 91 10 40 73
14 81 74 47 72
11 45 75 67 47
94 43 88 59 19
84 80 38 62 45
23 44 87 81 35
73 39 74 59 21
68 90 80 28 90
92 58 47 32 70
61 45 59 74 32
63 91 24 77 11
12 69 48 45 76
74 25 44 22 99
62 73 85 13 77
36 72 77 19 66
90 85 75 11 77
33 40 43 82 16
64 53 30 59 80
40 34 52 63 18
96 82 11 15 68
1.8205
1.47479
0.890342
1.58168
1.89565
1.60935
1.49671
1.21426
0.61695
0.44756
1.90163
0.727975
1.45494
0.575075
1.30353
1.24746
0.754113
1.27764
1.34444
1.52073
0.636918
0.897561
0.846031
0.585561
1.40339
0.501217
1.84853
1.59494
0.486987
1.37919
0.478939
1.20142
0.426113
0.592818
1.48616
1.18355
1.12138
0.40264
1.08219
1.60287
0.417117
1.86484
1.41053
1.55129
0.763382
0.441202
0.719695
0.786972
1.65189
0.751321
1.37013
1.82775
0.422533
1.61781
1.82917
1.2761
1.21201
0.940612
0.960407
1.62825
0.590476
1.47845
0.594532
1.63442
1.72764
1.33916
0.791645
1.60704
0.698231
1.50315
22 470
11 319
318 264
365 58
40 200
202 420
63 200
480 419
313 4
267 206
102 224
267 245
145 199
387 479
472 89
201 136
10 29
251 314
162 102
284 372
379 392
208 499
228 349
214 472
426 428
12 34
319 362
205 307
366 280
329 2
289 319
280 341
466 177
27 447
54 348
325 391
490 191
9 380
341 317
285 48
191 85
259 66
239 340
487 216
253 85
233 471
327 497
448 441
135 280
111 49
372 2
383 379
62 337
444 254
98 454
476 74
12 471
342 222
451 445
46 67
451 72
115 106
301 299
112 60
484 120
7 256
302 220
214 403
33 364
154 0
3870
5
