70
9
0 0 0 0 0 0 0 0 0
51 76 62 97 72 61 79 73 76
37 36 78 56 54 34 13 70 61
86 17 93 15 91 23 68 64 51
30 20 78 74 93 10 46 14 40
24 50 79 25 81 25 39 98 61
48 38 20 98 52 90 42 59 48
77 67 33 56 19 78 41 95 59
73 100 14 29 78 37 17 36 20
51 13 34 83 44 46 71 55 85
48 41 92 78 25 81 62 91 41
67 93 62 71 40 94 90 41 38
15 53 81 94 55 19 51 56 100
31 18 49 35 25 77 26 24 79
75 21 65 19 40 95 72 77 46
90 29 68 83 60 70 27 86 77
92 83 44 55 68 76 90 22 72
43 90 39 59 72 76 16 43 56
98 72 14 86 21 47 63 53 53
13 81 72 73 32 63 74 16 30
55 33 25 40 92 63 70 26 68
32 22 56 35 34 20 79 64 80
42 61 89 93 86 62 61 71 64
70 20 64 78 62 97 84 92 80
54 66 85 97 39 58 51 49 25
66 32 91 22 11 67 74 77 81
68 80 75 33 65 74 66 45 92
91 98 88 82 76 17 49 35 42
68 41 11 56 41 15 71 74 38
93 22 90 28 62 24 60 83 85
64 20 95 56 77 60 60 99 65
29 25 20 59 64 50 72 96 61
51 83 84 51 20 94 68 71 47
95 60 99 94 94 27 71 35 58
99 60 33 49 35 100 20 93 20
59 25 28 91 82 26 18 42 37
31 87 23 49 88 19 85 39 36
68 20 58 84 66 35 37 73 99
73 64 54 67 68 88 89 84 14
76 92 45 21 64 28 27 56 70
32 89 91 76 65 77 51 80 43
24 15 54 60 80 95 79 98 55
61 37 81 38 89 47 22 52 45
18 37 71 18 41 66 79 15 21
58 45 51 41 64 85 51 61 51
15 98 43 97 71 71 51 33 56
69 38 27 60 87 53 51 62 67
51 37 74 55 83 63 27 30 42
55 68 90 76 73 34 21 60 47
89 48 74 72 54 57 59 100 31
48 16 47 24 69 64 53 98 12
52 19 31 46 58 42 80 19 11
26 42 57 59 24 12 17 90 67
87 25 31 67 74 100 14 79 36
54 33 76 92 68 75 56 70 79
79 65 57 74 76 90 10 51 42
73 45 93 45 94 75 53 93 52
99 99 46 59 52 19 73 97 48
19 83 65 26 89 96 44 13 68
89 74 75 43 27 81 54 34 61
52 64 52 33 12 27 95 50 73
14 52 97 52 16 50 50 13 23
39 38 70 85 89 56 89 71 36
73 78 70 93 88 18 84 70 81
98 69 57 11 64 69 77 88 28
55 44 91 58 35 85 88 56 31
22 95 72 27 49 80 78 52 32
27 49 28 24 78 54 34 72 67
59 16 51 90 79 99 48 72 58
28 10 31 55 48 20 23 87 80
0.531152
0.973233
1.35345
0.538934
1.0281
0.9911
1.03301
0.457119
0.501909
0.812734
0.514157
1.43548
1.2035
1.47584
1.29767
1.41198
1.49762
1.38864
0.435715
0.770251
0.724615
0.408957
0.81939
0.469728
1.15978
1.35765
1.16002
1.18098
1.46804
0.624761
0.828459
0.804525
1.16111
1.3628
0.983201
1.39876
0.388678
1.15083
0.496034
1.12911
1.49017
0.903597
0.737228
1.09603
1.1588
1.19751
1.17336
0.650097
0.875042
0.972045
1.0452
1.08927
0.823569
0.763568
0.452013
0.983474
1.19124
1.22628
0.664979
1.17743
0.305038
1.31831
0.457038
1.15636
0.947531
1.0068
1.4591
0.765499
0.470997
0.314644
165 395
452 238
230 40
52 454
348 295
55 63
164 95
74 441
464 289
438 449
138 41
326 326
201 263
25 186
18 119
151 163
385 92
341 58
110 166
1 61
285 463
212 162
24 257
452 159
6 292
495 16
99 262
139 319
407 154
137 325
468 293
337 286
220 268
397 342
245 258
466 334
412 233
459 259
148 369
226 200
187 244
490 249
115 101
329 225
174 168
313 391
334 47
110 307
186 109
211 194
449 294
389 172
17 347
341 54
425 87
132 480
202 237
188 4
200 265
307 275
339 455
423 239
210 143
340 342
423 32
312 364
460 32
15 105
106 469
443 230
3942
5
