70
3
0 0 0
76 53 35
51 57 62
30 89 62
12 57 17
69 63 18
16 77 26
71 13 38
70 77 33
85 25 17
77 83 11
72 72 20
84 36 91
25 99 75
47 67 54
64 94 50
42 98 41
89 83 31
98 71 88
36 31 87
51 95 11
82 92 90
46 73 37
95 52 81
29 15 47
54 71 24
41 77 30
51 55 18
47 67 83
98 54 50
46 92 94
81 97 84
82 46 84
54 30 41
18 12 50
84 52 49
92 61 79
36 66 34
95 85 35
67 59 24
63 29 15
96 74 12
59 84 68
13 54 32
59 67 30
10 10 69
45 38 20
35 78 78
80 96 69
66 95 29
11 83 64
46 18 83
69 24 36
47 65 92
16 83 74
56 55 59
66 62 85
65 98 92
71 70 91
26 50 78
16 56 17
77 50 16
90 88 53
29 26 64
10 60 47
100 53 16
36 42 13
13 98 59
99 23 47
37 18 98
0.805512
0.933517
0.443948
0.324805
0.704429
0.561085
0.494021
0.882956
0.375561
0.348937
0.656399
0.592867
0.281249
0.474382
0.543926
0.541838
0.900583
0.369292
0.302136
0.269292
0.994912
0.955272
0.708436
0.329987
0.909636
0.337076
0.247294
0.542363
0.698158
0.642939
0.44949
0.308569
0.29065
0.665546
0.952353
0.488466
0.597254
0.582329
0.952564
0.643352
0.617095
0.479675
0.644795
0.353787
0.367344
0.23302
0.912844
0.701085
0.704653
0.935889
0.610365
0.511231
0.442465
0.546824
0.964498
0.856527
0.397403
0.460959
0.951999
0.274191
0.676392
0.713564
0.256987
0.251552
0.555187
0.465658
0.323274
0.266507
0.56706
0.492671
200 46
272 430
379 160
435 451
414 167
347 414
335 26
385 323
201 450
145 39
124 230
168 495
110 1
16 305
355 158
338 343
225 459
116 14
311 255
244 177
7 210
170 351
186 288
298 464
186 299
226 66
267 461
157 450
154 374
493 68
186 367
192 228
442 192
271 142
500 12
318 190
64 147
169 48
225 98
400 436
107 488
204 125
91 299
126 282
117 345
497 222
269 180
319 359
395 304
282 95
50 107
219 44
373 152
469 159
15 157
455 52
303 269
354 65
244 78
56 491
56 249
139 480
16 69
225 318
138 284
364 485
329 233
458 278
215 455
37 198
6455
3
