70
7
0 0 0 0 0 0 0
79 66 65 83 94 65 44
61 14 65 80 26 47 93
24 41 81 69 87 15 50
89 82 26 41 92 38 73
38 58 30 79 21 72 46
40 95 99 81 94 97 15
32 73 41 62 51 32 36
53 41 49 94 75 85 18
86 79 53 76 82 99 78
70 26 61 59 50 37 67
63 29 22 34 44 100 61
63 98 80 82 18 21 40
13 35 20 65 69 54 74
10 59 56 91 49 27 34
84 13 34 14 59 91 86
23 31 36 70 27 28 89
86 66 42 83 56 56 17
100 18 51 63 50 69 93
84 13 14 91 56 87 37
69 59 84 73 39 85 46
78 21 48 20 47 60 13
17 54 19 15 35 81 16
94 58 95 49 88 100 78
21 30 79 86 98 87 76
62 34 54 33 74 30 12
46 28 32 82 85 11 88
82 18 62 38 48 76 45
20 73 44 32 41 46 38
72 47 10 39 47 31 24
39 38 98 77 88 86 57
48 68 61 16 68 13 46
12 93 81 72 30 54 46
18 91 39 11 64 26 96
55 90 45 32 47 96 74
54 87 14 99 70 62 23
99 56 15 78 35 78 87
45 59 51 38 75 31 65
98 15 90 70 36 29 65
88 29 53 92 19 77 86
33 14 69 98 60 70 49
35 67 60 92 91 41 53
62 55 46 20 70 93 63
32 25 93 52 52 63 38
60 36 10 48 28 100 72
68 27 99 24 96 40 46
65 55 68 71 79 69 18
67 81 31 68 96 29 66
14 24 96 40 79 43 79
75 80 34 62 97 91 81
63 72 51 49 24 85 56
17 90 25 49 90 69 28
57 92 66 82 12 82 35
34 72 53 86 81 79 38
78 39 76 64 69 59 13
73 86 25 74 90 50 62
33 70 15 99 39 86 22
96 67 49 34 100 62 65
16 50 53 54 56 49 76
59 41 28 65 11 15 16
69 66 24 83 94 69 52
61 77 85 10 55 45 47
50 97 73 45 80 14 32
42 69 12 26 19 75 23
83 47 29 73 82 14 42
61 86 89 96 29 46 41
88 42 67 62 43 53 42
91 86 66 16 67 21 72
35 62 54 15 73 76 77
61 99 13 81 73 64 36
1.36638
0.682427
1.16453
0.353389
1.12576
1.0233
0.698154
1.47268
0.349082
0.351105
0.694751
1.22969
1.02631
1.07637
0.535067
0.798638
0.900202
1.03011
0.550947
0.323218
1.31114
1.00554
0.619354
0.372214
0.312361
0.688678
1.42355
0.954752
1.08465
0.902391
1.106
0.322477
1.27806
0.599934
0.516499
0.713016
0.313072
0.323102
0.672351
0.686465
1.23911
1.21525
0.639854
0.61397
1.43319
1.39813
0.324006
1.31038
0.644521
0.959766
0.441436
0.417437
0.649989
0.987746
0.705401
0.614402
0.819599
0.594234
1.39463
0.872201
1.21391
1.27987
0.415348
0.370201
0.443656
0.704019
1.34676
0.857605
0.375334
1.04055
133 423
24 489
220 475
175 459
324 247
141 210
42 123
257 341
487 378
273 209
474 239
91 253
359 500
394 476
476 8
273 121
217 367
377 402
32 268
308 467
269 204
56 150
126 383
71 368
283 14
330 348
412 423
458 498
21 103
227 116
95 378
200 417
493 27
484 496
53 492
144 56
328 80
168 350
416 104
430 159
496 494
346 430
84 116
334 393
81 189
226 44
308 77
234 334
307 312
312 87
471 134
88 227
442 74
289 56
229 484
300 289
31 112
376 349
198 350
69 98
38 110
300 417
23 463
418 298
445 145
274 8
76 261
351 423
149 368
262 271
3884
5
