70
5
0 0 0 0 0
27 25 98 82 35
73 64 24 23 32
33 59 31 49 35
23 70 80 50 36
88 24 94 74 83
12 79 32 34 29
23 44 45 14 18
87 41 34 25 100
39 85 21 64 22
72 60 27 51 54
70 83 56 40 37
68 70 24 76 44
14 85 26 78 91
78 50 35 53 83
85 63 11 95 22
100 79 73 89 52
99 31 14 35 72
61 20 85 24 28
73 33 22 85 30
49 26 40 64 18
94 56 60 22 29
17 75 64 17 19
60 20 99 62 86
40 59 19 73 17
26 60 67 71 25
67 91 49 60 39
74 65 61 90 27
92 94 47 93 66
24 94 84 14 93
21 83 90 49 34
76 72 78 46 49
81 41 35 20 58
17 39 33 95 94
82 69 15 36 29
82 23 53 36 57
13 22 78 26 99
31 85 26 62 61
78 85 79 13 30
76 29 96 67 26
70 20 18 77 91
11 41 84 21 80
52 96 86 28 36
24 38 50 61 58
84 12 48 83 56
26 74 100 16 48
37 90 73 29 39
23 19 23 100 10
42 67 27 48 57
64 43 34 72 57
90 56 15 57 32
89 13 81 12 94
34 93 97 68 75
24 92 86 10 87
88 24 36 55 71
73 91 33 51 68
65 72 98 18 15
47 59 53 14 86
92 59 55 21 72
13 24 66 68 45
42 44 82 64 85
75 39 83 41 59
26 33 99 74 59
12 51 55 30 51
91 87 20 12 76
65 39 27 19 30
84 63 40 55 17
23 29 29 98 47
88 82 10 75 29
57 80 76 59 35
0.59277
0.737846
2.10199
0.667242
1.06889
2.22491
1.72653
0.682403
2.15266
1.0239
1.73866
1.85049
1.64958
2.08396
1.98704
1.07607
1.38193
1.44564
1.97444
1.95017
1.87661
1.17277
2.06772
1.61278
1.38195
1.63865
2.08302
1.78933
2.25107
1.31613
1.75411
2.18493
1.09675
1.27535
0.998204
2.00361
2.38026
1.20784
1.52897
0.72461
1.87495
1.78179
2.05362
2.27025
1.50129
2.09788
1.83765
2.14107
1.82495
2.45264
0.612793
1.09806
1.81245
1.8945
0.818175
1.60235
0.616823
1.85121
2.2782
0.99639
1.89753
1.97554
1.44072
1.2319
0.732753
0.935363
2.10235
1.74806
1.08121
1.50908
97 398
241 95
476 441
365 219
337 249
418 76
126 303
83 317
222 441
190 40
308 26
199 490
450 68
478 47
424 136
265 55
446 133
352 457
48 237
144 175
141 470
55 171
232 81
469 361
427 286
17 165
263 490
435 45
39 76
64 456
331 108
291 290
152 333
130 142
430 34
182 490
456 223
343 290
161 104
106 176
59 318
228 251
452 267
255 468
170 443
270 461
368 424
262 325
315 220
458 36
452 311
325 36
275 486
265 136
217 431
202 145
62 336
400 317
110 363
127 470
182 404
118 114
176 166
227 451
189 419
67 213
462 403
168 424
144 150
298 202
9212.5
2
