70
11
0 0 0 0 0 0 0 0 0 0 0
57 13 85 44 89 49 86 86 56 76 15
88 39 66 22 48 35 57 29 60 16 65
10 10 92 32 85 34 17 31 71 79 81
59 91 87 25 96 96 30 60 84 100 68
45 75 74 44 70 46 19 10 98 23 67
74 11 56 71 77 74 63 42 58 41 58
29 58 39 73 29 45 43 30 35 62 62
81 97 18 82 81 63 95 28 76 23 78
39 62 85 69 84 90 77 15 85 65 65
36 15 88 48 58 51 16 12 30 23 63
23 51 19 41 34 53 67 11 29 60 26
29 59 43 50 81 67 60 52 37 92 40
47 75 15 100 37 49 40 96 41 44 44
18 61 75 67 47 84 92 92 79 14 90
43 90 43 52 82 88 64 74 59 76 65
63 20 86 34 77 57 47 61 74 58 39
65 11 14 33 40 40 16 67 82 18 32
68 69 31 67 93 95 72 20 57 72 19
98 40 55 15 91 22 31 31 57 12 68
24 29 91 83 28 16 89 29 52 19 44
79 32 91 88 30 97 35 63 21 95 100
28 42 87 89 56 14 14 59 63 60 95
20 42 36 66 49 57 91 18 79 60 83
59 80 13 25 39 96 24 100 95 74 75
93 37 84 55 38 57 62 93 70 82 64
52 33 15 77 90 55 63 39 35 41 92
48 15 83 33 49 90 73 85 46 18 94
65 95 71 14 26 53 63 33 18 85 41
98 100 65 64 25 79 56 82 85 62 96
41 76 100 92 81 11 56 57 79 12 19
62 37 25 50 54 100 38 44 73 89 95
31 92 35 41 86 81 35 53 95 34 68
94 68 71 32 49 64 45 54 38 19 28
58 61 25 80 36 99 16 72 11 31 86
21 67 26 26 19 72 96 47 87 74 35
46 81 18 82 92 83 62 51 100 32 99
30 34 43 67 23 35 68 79 69 29 27
77 34 11 14 27 77 55 19 69 92 19
55 56 44 46 100 22 66 32 32 78 95
89 25 15 29 78 99 83 92 11 17 79
48 44 73 18 31 73 39 18 36 10 75
75 59 71 51 87 85 13 75 23 48 66
86 79 17 67 71 58 81 64 50 97 87
66 80 68 43 44 95 14 78 90 40 61
29 42 31 33 41 36 17 35 82 75 65
75 46 67 82 66 40 42 60 13 26 41
42 10 90 84 77 78 26 72 84 92 98
66 14 51 15 93 62 57 30 60 57 65
41 59 85 98 86 59 41 46 23 86 36
41 61 26 17 98 46 62 89 21 61 23
58 68 92 83 40 100 58 72 79 46 78
39 40 45 54 47 37 45 99 89 55 86
14 13 36 41 30 58 94 58 18 17 28
46 58 49 54 23 82 59 45 23 62 88
82 95 67 96 13 74 48 48 39 99 59
68 11 96 86 96 89 32 46 61 86 67
90 36 92 35 22 77 95 99 76 91 97
75 82 69 50 43 44 33 44 13 10 98
95 56 90 40 22 39 68 94 76 28 99
88 59 30 53 96 96 74 42 23 51 25
47 88 86 39 77 57 64 77 25 56 55
41 94 43 71 86 57 31 52 56 63 95
68 60 46 61 64 63 88 53 51 23 74
35 20 89 40 22 40 84 30 52 81 91
96 65 11 58 55 19 15 42 69 46 15
83 43 17 44 20 75 35 43 85 70 49
70 16 64 89 39 37 47 83 77 37 32
30 13 66 50 55 78 57 10 17 54 85
71 62 37 51 31 16 18 41 39 50 55
1.91435
1.78562
1.42517
1.76941
1.50065
0.415928
0.957529
1.58681
0.736944
1.26014
1.47437
1.16793
1.42091
1.13185
1.62128
1.1788
1.03846
0.55811
1.29916
1.71522
1.43241
0.95419
1.68014
0.53225
1.94226
1.79226
1.35163
1.05767
1.33994
0.859329
1.24164
1.2071
1.29397
1.22553
1.96327
0.526624
1.48638
1.2418
0.660819
1.75075
0.521895
0.458421
0.737182
1.31786
1.61703
1.41882
1.34528
1.23677
0.713227
0.522349
0.487427
1.58532
0.89736
1.87494
1.80699
1.63699
1.45611
1.58472
0.43231
1.92926
1.8865
0.716048
1.88499
0.882927
0.621854
0.769777
0.447085
1.50929
1.93058
1.4989
209 145
166 78
276 395
104 174
111 375
219 65
377 202
195 154
36 123
222 214
47 11
54 21
170 204
287 26
303 20
248 11
215 422
384 261
49 306
235 93
68 345
396 120
386 109
386 45
64 242
402 451
238 169
279 469
466 43
410 339
105 300
48 207
47 72
444 137
274 34
208 364
445 349
289 246
80 244
81 187
419 473
80 52
134 261
131 443
224 187
115 294
270 82
49 96
56 161
121 248
238 259
455 36
291 345
198 21
322 68
445 357
161 492
427 322
255 225
226 420
466 290
183 274
327 480
28 374
399 306
128 324
65 55
99 290
390 33
337 42
9642.5
2
