70
9
0 0 0 0 0 0 0 0 0
61 77 47 12 79 43 49 51 29
53 76 56 33 44 62 41 43 45
100 98 25 65 85 25 71 52 18
76 67 64 21 100 16 29 94 25
87 43 49 41 30 12 24 55 19
25 32 91 93 51 62 56 99 81
70 48 12 16 80 19 85 70 29
94 14 15 87 45 77 81 16 87
57 24 94 12 79 28 70 80 96
21 87 53 54 22 34 19 19 34
69 40 100 90 33 30 64 19 55
72 82 38 81 62 44 45 65 71
72 62 17 89 15 74 61 48 40
68 15 86 46 52 13 31 64 68
45 51 84 10 99 36 84 20 15
56 50 95 64 40 57 69 12 24
39 43 29 90 40 91 51 92 53
35 71 60 52 68 24 28 47 30
38 64 73 100 50 80 25 19 79
98 42 57 42 81 47 62 66 61
12 28 63 34 28 54 26 13 68
10 97 91 100 42 60 13 64 12
79 17 89 40 92 83 28 70 42
57 57 77 95 95 58 28 77 75
99 24 19 23 69 55 11 68 79
36 77 58 40 14 100 95 59 33
15 68 52 37 12 12 51 84 84
49 29 42 80 47 27 69 12 22
56 39 80 34 82 95 41 53 16
94 58 63 20 54 43 55 19 79
48 40 40 90 100 28 44 21 46
97 39 47 97 22 97 71 72 12
10 48 67 90 96 83 10 73 65
65 97 78 69 75 72 28 27 91
82 60 56 94 76 56 18 54 45
55 80 91 54 56 46 85 43 97
10 25 10 32 13 93 85 14 58
93 94 48 84 38 61 10 24 28
58 90 78 69 95 65 69 48 75
63 65 21 75 43 25 16 81 54
61 63 27 82 63 89 65 86 87
69 39 66 23 36 24 34 85 46
85 45 95 28 70 53 75 44 17
65 29 32 96 28 74 53 51 54
75 89 53 17 25 50 93 38 73
57 62 13 85 88 64 77 29 66
61 23 77 48 21 15 89 78 35
32 34 99 67 92 89 76 16 72
86 62 52 41 52 80 43 39 82
44 90 23 53 32 75 17 61 50
46 72 72 61 34 68 61 74 86
74 84 12 87 97 32 87 50 17
23 99 46 54 84 48 60 87 93
94 74 38 85 96 45 13 60 82
26 21 48 78 58 16 33 17 43
23 29 44 74 35 18 29 99 90
75 56 25 64 21 88 31 61 66
35 59 33 27 73 53 66 94 12
30 86 56 92 57 30 24 14 16
14 49 70 100 43 63 77 34 19
44 31 95 90 38 60 41 68 44
72 34 24 14 30 26 11 86 95
56 70 81 62 94 31 17 47 93
71 74 66 72 93 79 68 24 42
92 54 46 41 49 89 66 80 34
34 29 45 94 57 55 80 99 17
59 93 89 49 98 97 80 82 63
72 49 63 96 66 18 93 34 97
73 63 21 26 38 18 98 44 33
1.49892
0.432837
1.01386
1.98325
0.590867
1.13701
0.887258
1.02605
0.681043
1.18152
0.746547
0.98029
1.85106
0.806397
1.40121
1.62118
1.58336
1.58147
1.5624
0.561323
0.790181
1.46285
0.833212
1.76817
1.03864
0.648452
1.7906
1.29844
1.63462
0.570007
1.3128
1.08516
1.97962
0.780228
1.23874
1.60226
1.2513
0.830136
1.11522
0.642543
0.861083
1.44378
1.09837
0.707629
0.898547
1.19485
1.84167
1.01646
1.40628
0.683879
0.757113
1.61953
1.15039
1.71169
0.543115
1.38387
1.12393
1.57292
1.41166
1.08101
0.638471
1.96521
0.995073
1.03494
1.17401
1.64164
1.97245
1.48715
1.70915
1.56981
5 11
72 392
268 82
442 297
421 460
115 285
196 14
488 474
287 279
141 495
336 296
366 365
174 58
25 130
488 244
239 357
340 466
62 315
74 275
236 56
178 378
348 259
312 179
68 30
197 126
346 237
242 55
299 416
291 421
49 266
404 429
374 234
323 257
81 24
36 221
40 205
500 186
195 370
55 53
441 40
237 188
405 427
15 309
349 82
478 413
426 336
174 455
241 477
354 468
310 455
336 160
316 45
336 10
211 488
446 126
328 60
449 297
209 348
348 498
395 61
231 358
134 374
393 73
222 16
321 291
311 25
176 83
363 437
322 411
309 92
6360
3
