70
5
0 0 0 0 0
60 68 93 76 65
18 48 71 40 92
35 30 96 52 40
97 86 72 86 35
51 21 99 65 94
61 26 66 68 82
78 94 39 74 11
42 17 10 56 12
35 23 71 39 67
31 54 66 58 75
73 35 74 72 40
41 49 61 44 91
87 62 45 53 40
23 94 68 84 73
81 52 24 92 98
60 45 70 13 89
86 31 46 19 73
44 80 67 67 39
34 53 74 64 26
15 71 29 44 84
80 89 84 41 66
63 33 67 60 95
41 60 82 27 94
34 71 68 55 61
54 66 80 82 15
59 19 44 34 55
24 31 69 85 48
63 53 66 49 89
12 56 78 91 84
67 24 73 76 54
93 43 78 38 37
51 86 28 12 27
88 45 68 91 80
37 15 97 92 69
41 61 94 52 64
100 31 16 94 51
63 30 11 98 84
14 71 56 64 39
79 46 75 92 83
72 42 75 53 44
74 85 36 11 92
95 80 86 52 13
77 84 30 24 96
27 29 26 100 20
20 75 71 34 32
85 94 53 12 90
42 91 73 37 29
58 98 62 48 62
73 88 22 84 66
71 100 53 86 37
16 55 25 84 96
99 96 86 60 61
42 91 44 14 88
17 23 89 95 53
35 19 97 93 98
84 58 63 23 80
100 27 57 81 22
65 86 39 98 34
71 65 38 79 57
77 32 25 100 31
52 33 78 23 19
85 10 26 29 32
14 58 65 87 14
92 63 58 51 75
78 28 81 31 79
62 26 92 17 17
73 67 19 55 81
42 76 13 49 98
37 34 50 33 41
1.21109
1.39039
0.643095
1.19117
1.95344
1.3192
0.447774
1.30649
0.636657
1.30383
0.79423
1.87642
1.96418
0.469368
0.766631
0.608074
0.487987
1.02272
1.743
0.981431
1.94688
1.11259
1.17182
0.442654
0.790548
1.31381
0.589378
0.677607
0.52515
1.12522
1.64541
1.85832
1.07607
1.84461
1.79925
1.61368
1.58524
1.44812
1.32858
0.889209
1.98639
0.514246
0.88802
1.80981
1.42051
1.3485
1.70955
0.538258
1.10557
1.44144
0.693623
1.19243
0.99091
1.1724
1.39858
1.50978
0.618682
0.435798
0.988227
0.776018
1.71684
1.10913
0.884917
0.702269
0.771511
1.53531
1.46475
1.10383
1.3613
1.4839
403 284
36 364
116 120
497 193
401 295
254 41
452 4
222 312
134 248
79 397
68 427
235 447
485 269
443 299
437 120
363 411
491 282
13 410
264 370
285 353
285 307
422 83
335 297
209 394
279 335
295 164
219 24
350 115
205 402
256 403
289 376
22 149
197 163
174 457
399 228
355 407
473 95
235 309
312 280
492 449
25 434
205 348
239 458
446 237
238 404
61 209
405 269
187 248
244 403
56 40
262 492
492 409
57 279
346 288
270 454
120 274
361 431
390 13
396 279
382 363
180 32
389 374
407 351
284 273
140 19
328 2
406 411
240 379
241 449
241 48
4988.75
4
