70
7
0 0 0 0 0 0 0
29 29 61 59 69 79 93
72 95 75 24 61 34 56
18 81 18 92 70 88 87
50 80 64 70 71 91 49
52 11 100 45 19 97 59
26 49 28 69 31 68 52
74 66 49 80 35 65 37
46 39 87 36 40 36 44
65 74 96 19 66 76 65
73 93 54 72 78 75 55
48 24 72 99 50 33 67
85 21 55 99 72 67 56
58 94 69 73 46 24 33
59 17 64 39 96 13 57
76 64 63 70 38 54 48
73 39 93 86 95 44 14
65 98 30 90 70 53 26
15 60 26 59 17 17 38
55 74 16 48 95 74 66
96 74 85 72 92 30 18
75 11 20 90 97 51 83
67 16 49 83 64 83 95
65 11 18 16 73 30 29
38 43 60 27 87 83 28
50 94 33 44 43 92 36
75 90 18 81 54 57 40
46 15 59 64 100 51 15
31 12 26 60 100 51 62
21 58 50 77 35 57 36
81 28 81 39 15 87 43
65 90 54 43 39 30 33
27 79 41 57 81 57 32
64 26 14 68 27 50 80
60 34 39 89 70 65 45
29 68 22 58 28 33 55
16 66 92 83 95 41 46
37 43 32 55 49 82 17
57 96 32 49 60 20 52
44 67 10 69 21 13 81
91 87 46 96 32 40 67
66 93 74 48 55 86 35
10 47 50 96 56 27 48
42 40 55 56 31 20 83
22 41 59 54 29 34 100
85 93 17 62 16 48 46
66 38 26 82 43 12 51
22 54 30 62 63 57 35
98 78 70 53 56 89 82
28 93 13 83 54 80 89
55 57 89 50 63 36 92
70 79 52 60 54 23 98
72 55 24 65 23 27 26
46 91 48 51 94 66 69
61 20 39 81 84 12 38
86 66 68 40 56 94 82
75 72 18 52 23 43 64
49 46 19 82 98 31 71
43 91 10 33 74 96 42
11 45 37 90 59 76 83
88 28 26 61 68 41 63
88 58 100 44 27 61 77
79 89 12 18 24 71 68
97 75 54 46 48 94 78
71 74 15 51 57 99 14
81 58 50 23 48 40 71
18 10 77 74 44 31 10
20 97 20 61 49 94 21
25 89 45 84 10 90 30
100 90 25 100 26 76 83
0.412202
0.772136
1.26819
1.45256
1.41219
1.06124
0.425725
0.519692
0.631369
0.849751
1.4743
1.06859
1.05706
0.983963
0.573186
1.00816
1.15023
1.15556
1.33709
0.507396
1.31526
0.591778
1.28265
1.47164
0.764325
0.694283
1.1411
0.699181
1.21662
1.15723
0.429749
0.910081
0.774611
1.25557
0.61035
1.34864
0.728397
1.26326
0.457023
0.844243
0.58959
0.797508
1.05843
0.598401
1.19706
0.353235
0.565812
0.476569
1.08193
1.49655
0.438744
0.38739
0.425712
1.04223
1.37542
0.560237
0.604104
0.700612
0.502909
1.41718
0.578688
0.61355
0.704917
1.29024
1.29354
0.500681
0.476805
0.479954
1.37546
1.21041
147 498
284 422
314 188
319 305
462 324
480 383
436 273
234 141
291 147
337 410
470 499
438 31
294 223
377 14
177 165
141 476
488 333
211 390
262 81
31 158
222 16
37 334
459 152
176 291
315 389
423 419
133 160
360 465
346 323
285 53
237 70
499 66
314 421
108 236
414 339
52 248
341 64
382 59
392 355
416 180
372 57
32 408
5 258
436 165
400 421
312 328
105 103
22 98
396 428
363 42
210 24
384 451
249 88
282 25
379 298
21 256
430 333
241 221
241 304
404 302
423 362
448 140
10 86
228 315
463 413
129 72
195 465
54 477
170 153
195 479
3838
5
