70
11
0 0 0 0 0 0 0 0 0 0 0
92 35 97 37 71 60 48 98 75 75 89
30 59 38 27 63 42 74 16 66 100 82
19 25 15 27 85 100 61 72 37 79 69
10 98 57 26 17 30 73 26 50 52 59
65 49 60 53 96 21 38 70 30 44 45
99 48 18 11 63 35 60 49 77 35 58
19 46 77 78 88 47 25 63 58 17 20
98 11 25 10 19 33 12 32 25 17 42
46 67 61 92 25 50 31 54 96 92 12
67 66 38 62 47 90 14 87 51 57 78
88 31 27 34 22 57 55 94 100 24 72
27 21 65 47 27 11 65 35 12 67 81
19 34 65 97 25 24 84 24 42 88 72
55 20 36 15 37 69 38 75 83 53 22
29 16 13 59 15 20 94 99 53 76 22
27 88 48 92 92 81 57 95 53 60 85
57 86 40 31 99 72 100 89 84 92 14
36 48 85 37 77 44 86 31 74 87 38
53 41 75 56 16 33 59 64 34 76 17
16 53 56 17 42 13 24 72 47 70 71
97 26 30 27 41 14 48 10 93 43 68
22 14 91 16 92 30 97 100 99 81 21
20 57 74 35 80 30 54 77 44 38 86
27 20 77 67 62 92 74 67 75 27 70
38 57 97 41 61 73 70 43 16 19 83
88 73 57 51 30 90 38 99 41 12 61
60 86 96 69 27 77 37 36 37 70 15
31 77 47 97 28 59 30 42 78 35 84
60 20 16 77 86 96 28 39 41 45 55
45 100 46 29 73 30 22 15 34 23 82
92 43 44 73 30 49 87 51 68 32 73
24 44 12 89 97 48 13 89 79 12 10
59 46 43 31 26 33 14 94 68 63 32
19 27 74 82 56 68 49 83 17 100 70
79 100 13 27 80 24 19 55 55 17 12
73 51 60 100 77 13 95 18 82 38 10
95 82 96 55 23 17 35 23 18 73 21
54 71 80 78 82 96 48 97 69 36 13
43 50 20 77 62 45 14 45 92 16 76
33 23 76 42 34 83 100 69 34 66 42
32 40 23 67 91 82 87 77 46 95 97
16 67 42 17 65 84 50 38 80 20 28
32 45 60 23 42 70 59 45 35 60 68
17 30 20 82 52 26 31 20 41 31 100
35 20 18 55 26 97 38 84 97 20 79
45 35 22 79 13 54 87 19 44 69 59
79 36 49 17 99 88 62 23 50 29 45
78 62 85 49 66 86 94 89 25 60 50
68 87 86 70 66 45 35 83 82 79 79
29 29 48 18 90 30 94 81 39 25 38
68 43 18 38 39 96 46 11 86 91 46
45 60 14 37 40 31 11 24 27 62 63
46 55 22 47 90 40 44 37 52 86 22
74 20 41 55 79 92 91 30 56 10 72
32 77 77 90 34 79 52 100 72 100 78
35 84 51 23 44 28 99 55 84 58 62
38 84 29 13 45 100 91 23 53 38 91
49 40 41 11 50 29 23 16 69 36 26
78 24 62 52 25 100 64 44 74 42 53
49 75 10 90 55 87 81 60 94 31 10
48 23 13 42 69 74 71 43 52 42 47
69 73 43 20 80 84 59 17 72 82 97
53 51 26 74 21 85 18 84 28 47 40
64 20 70 54 56 32 49 55 47 90 56
41 17 16 72 64 29 38 91 55 91 60
19 31 79 67 51 23 92 67 19 62 67
76 31 99 53 18 47 63 49 33 91 78
38 10 32 29 41 32 12 25 13 100 29
34 83 12 15 85 37 57 44 39 75 86
0.805268
0.889133
0.700469
0.313435
0.33145
0.936346
0.917116
0.210695
0.971421
0.5131
0.800509
0.346079
0.935426
0.277752
0.966188
0.250452
0.288188
0.944213
0.874372
0.27741
0.656203
0.818364
0.863054
0.835694
0.810873
0.682475
0.778938
0.563465
0.413803
0.25357
0.77415
0.778892
0.508706
0.265694
0.693325
0.208413
0.812791
0.865024
0.409673
0.998595
0.440102
0.579231
0.796721
0.328002
0.7241
0.70227
0.968162
0.670483
0.912352
0.793071
0.821512
0.987507
0.532414
0.270082
0.570714
0.785207
0.614559
0.92085
0.325337
0.75335
0.80102
0.864768
0.26301
0.782727
0.495115
0.75867
0.578614
0.767148
0.81684
0.767091
74 385
330 233
270 360
117 265
323 470
204 47
367 369
183 346
93 376
312 348
467 249
210 75
402 183
429 50
231 263
94 133
224 398
101 216
366 50
81 433
164 199
414 485
476 97
146 43
486 173
212 83
262 403
157 402
325 74
339 322
363 493
2 13
384 229
456 240
463 288
5 253
256 356
74 176
47 122
106 191
141 208
190 97
182 493
477 427
186 169
292 89
35 169
298 213
57 114
289 380
378 272
374 443
192 230
366 165
485 204
471 482
146 17
374 136
235 115
278 149
132 225
61 51
285 161
51 309
275 51
357 182
168 24
380 95
169 193
149 352
18240
1
