70
9
0 0 0 0 0 0 0 0 0
51 82 97 85 30 63 75 22 43
10 60 32 56 63 97 90 94 79
27 28 77 99 66 92 56 76 80
60 86 53 20 82 64 66 94 85
14 51 31 74 95 100 44 85 24
26 100 83 58 28 92 69 65 72
34 41 63 11 83 64 95 51 82
15 34 63 98 25 44 91 99 100
98 35 97 97 30 28 25 30 31
37 31 86 93 22 49 83 66 90
17 26 80 90 95 51 54 84 68
27 39 75 32 31 30 70 38 43
82 50 24 68 95 48 42 17 33
58 99 56 44 63 38 19 92 75
35 78 83 13 48 27 37 62 23
51 72 95 24 20 65 94 26 68
38 40 51 58 38 49 100 55 25
30 34 27 66 47 29 21 97 30
40 68 56 76 31 54 99 70 16
65 34 30 67 74 78 84 57 73
19 72 69 48 79 21 92 56 70
13 38 73 89 61 68 21 42 99
39 49 91 16 45 87 81 52 35
58 55 10 54 62 32 11 94 74
43 40 95 82 68 42 77 99 34
48 11 66 19 44 45 89 58 21
36 35 58 89 65 40 91 33 48
13 95 60 80 61 85 20 12 18
79 25 43 78 90 83 73 52 78
76 100 12 68 26 41 66 85 94
17 94 39 12 65 84 81 52 72
49 94 19 98 62 21 69 66 21
39 85 88 46 62 96 67 38 65
78 41 10 61 19 21 84 63 79
99 33 27 98 23 87 33 21 38
94 70 62 68 64 80 35 40 41
31 94 32 56 88 28 77 16 97
24 74 55 12 33 24 60 22 91
71 62 26 85 23 35 82 20 99
76 11 12 33 90 35 66 27 93
91 49 80 61 43 81 89 89 16
55 21 26 13 43 85 98 52 56
53 17 88 46 81 33 31 63 39
83 90 92 47 66 17 37 30 70
47 74 71 98 56 74 23 49 89
33 50 32 62 92 66 56 83 91
91 81 80 91 40 91 65 11 40
39 32 35 70 34 91 11 16 36
36 17 69 99 43 29 36 64 71
62 26 94 100 91 84 68 80 94
45 92 78 54 13 46 40 35 83
97 60 80 71 11 10 43 18 29
48 37 43 40 25 67 62 78 41
98 84 87 61 54 67 14 73 25
99 51 94 20 98 81 16 40 82
92 17 27 94 41 21 37 89 55
87 90 97 62 94 84 54 65 75
69 32 89 92 85 59 53 63 14
96 23 48 94 23 94 90 11 64
83 36 92 88 54 98 23 29 46
86 79 46 35 69 35 53 71 75
65 74 61 84 94 94 37 25 74
66 40 68 19 58 33 89 69 37
81 31 55 27 86 54 22 34 12
27 47 57 55 94 89 83 69 87
37 40 55 36 74 49 37 12 79
42 98 77 96 17 23 52 98 87
14 64 25 48 69 30 27 67 41
54 51 24 79 82 93 56 37 94
0.834931
0.286189
0.531307
0.82724
0.437255
0.477941
0.713056
0.379702
0.664145
0.487536
0.724098
0.200923
0.628303
0.897972
0.656822
0.609476
0.986333
0.244079
0.367834
0.843346
0.608291
0.904642
0.28581
0.915207
0.559803
0.737239
0.500232
0.636202
0.682237
0.462513
0.329932
0.931134
0.776586
0.946583
0.446752
0.380045
0.349816
0.23032
0.759497
0.452208
0.95712
0.929173
0.708629
0.440091
0.645171
0.340788
0.750455
0.873806
0.571507
0.556829
0.299419
0.860259
0.612244
0.499332
0.734006
0.710756
0.452554
0.801891
0.465899
0.632259
0.361928
0.388603
0.38921
0.231898
0.499184
0.668715
0.331243
0.234563
0.719874
0.652118
463 326
191 87
309 416
498 495
196 431
202 296
13 299
93 267
273 262
262 68
326 15
208 421
446 485
497 302
87 391
308 65
387 110
99 169
6 150
308 421
324 54
96 11
451 141
413 416
27 277
435 201
363 49
385 27
232 416
267 131
102 481
275 232
383 304
449 368
166 159
239 162
352 300
413 303
158 185
292 142
436 12
360 260
22 385
21 433
102 58
287 92
459 321
445 429
331 248
392 191
426 112
282 442
251 309
6 74
195 109
438 242
405 44
236 361
61 116
468 279
350 187
195 161
410 47
333 345
166 306
246 308
359 212
439 148
247 394
64 59
19760
1
