70
3
0 0 0
14 26 51
28 31 12
55 28 79
55 61 74
16 44 43
21 73 71
96 52 66
88 62 87
17 17 66
77 96 31
30 37 44
20 64 30
45 37 97
50 28 75
71 48 82
71 43 16
79 27 50
62 32 95
18 41 25
69 66 43
89 67 36
43 37 98
24 49 57
75 96 34
87 73 47
51 92 94
29 85 32
61 52 68
95 33 86
17 46 39
55 91 21
49 21 81
75 77 48
93 70 79
23 32 25
30 70 73
96 36 86
69 15 56
72 53 26
44 93 46
92 58 70
35 34 97
48 34 16
59 39 94
68 42 92
49 25 11
32 17 78
75 56 77
14 92 41
98 29 83
10 86 28
45 31 33
33 74 49
73 16 10
85 43 27
85 100 85
73 44 12
39 81 97
14 14 81
85 36 81
51 63 76
18 67 10
31 35 76
19 57 21
68 44 57
67 91 68
26 57 89
15 31 30
96 19 21
1.02431
0.644143
1.31141
0.451736
0.721191
0.832534
0.423533
1.28583
0.37591
0.902153
1.34783
0.938882
0.592974
1.31749
0.788108
0.842473
0.580018
0.374667
0.900289
1.49638
1.08502
0.938934
0.790474
0.3717
1.02337
1.29967
1.44125
0.911999
1.22668
1.24685
1.47154
0.347565
0.882883
0.512839
0.411521
1.09135
0.719986
0.729438
1.49619
0.453922
1.38169
1.43948
0.798292
0.65506
1.11278
1.20434
1.48268
1.16552
0.901343
0.339377
1.35225
1.391
1.23263
1.44109
0.380909
0.515015
1.44089
0.401974
0.429565
0.983862
0.693283
0.582692
1.13043
1.35536
1.28675
1.28696
1.07036
0.424684
1.26121
0.924461
434 60
299 307
328 40
176 174
454 442
6 409
258 454
24 367
187 59
246 77
294 261
29 37
376 425
417 236
181 219
119 452
101 186
37 110
451 163
488 53
361 61
0 482
12 262
487 77
98 50
167 23
128 412
147 462
182 273
362 416
499 346
80 155
78 240
463 303
182 415
138 72
306 481
466 436
25 244
201 245
251 281
457 214
237 84
500 449
55 98
192 393
390 301
93 358
463 1
55 454
8 35
444 161
31 416
406 6
311 245
124 8
354 132
484 14
99 267
208 54
269 134
472 334
397 9
144 298
0 111
22 476
164 170
280 171
267 235
416 255
6141.67
3
