70
9
0 0 0 0 0 0 0 0 0
54 62 62 52 59 62 73 41 15
73 85 29 69 26 96 48 51 49
14 71 30 55 34 25 89 28 78
27 18 27 34 81 90 12 44 49
10 82 38 35 28 87 10 90 27
63 66 35 53 75 21 53 18 65
44 12 89 57 13 93 98 40 31
68 63 72 49 68 22 100 10 96
65 73 85 42 78 42 52 65 16
25 48 44 51 90 36 15 85 91
76 23 47 29 54 52 32 15 87
63 46 38 68 73 81 18 38 79
59 40 67 64 48 63 79 38 71
37 48 63 94 50 27 16 22 17
35 86 76 58 65 86 52 40 69
68 21 57 25 71 44 99 58 35
41 50 37 97 45 65 62 83 12
87 14 13 15 78 71 13 20 41
18 77 57 44 89 43 75 100 68
41 68 50 63 43 16 43 21 89
35 52 31 17 49 53 41 93 15
63 39 70 14 95 59 34 67 35
36 14 95 24 73 29 53 53 40
73 20 40 37 33 23 33 44 67
91 83 33 29 39 11 98 70 80
76 60 63 77 41 43 14 81 52
95 23 100 79 82 80 86 49 11
98 32 84 43 19 13 26 32 91
70 46 49 37 36 53 67 44 27
20 38 92 88 100 99 35 73 65
70 53 37 55 64 65 97 39 100
18 34 21 78 72 79 62 84 34
10 23 82 23 45 13 13 61 94
60 97 92 36 19 33 48 56 42
20 68 44 35 46 37 33 82 92
42 96 29 97 95 91 95 95 37
67 77 59 79 75 89 23 23 100
31 77 23 35 47 90 60 67 88
58 94 72 52 88 91 85 93 12
83 39 56 40 77 67 100 70 20
78 52 99 33 63 39 37 91 88
68 77 57 90 72 49 93 69 25
91 99 56 75 30 64 47 81 45
40 67 83 98 40 41 35 65 35
46 48 21 50 45 91 34 76 77
48 29 79 100 78 96 93 77 57
68 43 46 86 62 45 52 45 61
87 49 57 19 74 91 27 37 58
18 35 70 24 77 39 98 47 10
35 84 58 18 59 53 40 46 81
42 89 37 66 78 87 80 61 20
35 69 69 94 64 82 82 47 15
42 88 68 28 24 36 21 41 50
51 25 83 60 64 23 71 58 50
39 85 29 27 93 91 18 67 94
39 88 21 70 19 65 55 48 95
63 58 61 74 15 28 96 50 44
51 89 17 48 42 70 24 26 26
71 65 32 26 20 100 84 90 13
64 94 68 21 66 78 23 54 53
99 51 78 22 17 85 22 66 67
12 14 98 22 26 57 99 35 66
94 56 57 36 98 87 23 72 92
57 81 33 21 69 24 53 46 32
57 96 96 48 29 13 83 85 33
80 42 69 59 73 18 25 29 25
82 60 48 73 86 14 85 88 53
92 73 80 52 67 63 50 96 52
51 60 95 55 99 39 75 45 80
0.901831
1.39072
0.923254
1.01061
0.746113
0.873721
1.17957
1.40168
0.304637
1.29371
0.66112
0.826674
1.04583
0.337728
1.3201
0.50068
1.28768
0.378791
0.511202
1.42018
1.10317
0.310901
0.476157
0.860723
0.815398
0.916013
0.356603
1.25558
0.94809
0.782042
0.627197
1.48309
0.951291
1.45026
0.401777
0.813469
0.490347
1.10843
0.767067
0.76952
1.1967
1.08869
0.818836
1.43518
0.852564
1.2702
1.17847
0.42973
0.529076
0.542164
0.313987
0.671121
0.364252
0.620297
1.11734
0.606259
0.976064
0.708449
0.365496
1.04632
1.29135
1.20829
0.362974
0.342393
0.309141
0.802191
0.957829
0.717165
1.15917
1.43945
30 141
360 279
496 448
224 441
366 485
430 275
450 476
447 49
474 408
152 368
362 313
50 105
298 283
351 44
112 155
320 223
394 444
31 262
391 193
96 421
36 478
471 488
437 30
439 414
250 449
148 215
381 303
471 457
341 417
455 225
495 80
359 177
267 316
151 170
417 256
474 489
120 256
390 349
258 83
267 88
178 302
108 50
132 305
336 280
63 26
243 359
463 213
186 243
477 492
404 178
305 2
39 203
32 396
228 476
18 434
70 378
330 299
61 195
313 340
390 251
440 417
43 372
223 199
366 240
478 35
306 73
186 119
119 283
268 375
85 141
4796.25
4
