70
3
0 0 0
49 88 68
92 63 28
65 94 54
73 20 53
39 56 84
58 56 83
36 38 85
39 27 53
49 65 51
23 25 66
31 79 70
77 53 75
34 53 57
82 14 17
36 25 100
76 53 96
96 58 62
88 48 24
47 90 27
61 10 30
87 37 73
66 65 78
98 58 56
41 36 94
27 72 37
91 75 89
98 28 66
10 65 19
46 20 65
68 25 61
35 43 80
76 50 65
83 10 10
22 38 65
77 27 87
54 24 63
44 66 66
51 23 74
33 96 86
74 78 53
83 18 21
55 57 56
89 35 72
55 38 83
81 70 83
33 80 53
45 61 25
49 54 64
25 28 23
23 87 41
76 95 84
59 68 82
77 71 46
98 91 45
76 11 55
24 96 49
20 49 25
68 52 26
46 20 54
48 30 11
74 67 25
74 71 98
56 73 14
52 65 98
56 17 99
31 74 14
46 46 67
46 86 47
16 88 19
0.90503
2.45328
2.44228
1.19105
1.65761
1.36521
0.52827
0.687047
1.43185
1.15399
1.12556
1.19808
0.81037
0.865559
2.22219
2.34689
1.50336
2.10254
2.33321
1.26411
2.34852
2.27466
0.714495
0.800764
2.2905
2.07875
2.38666
2.19416
1.44015
1.91124
1.2831
1.05771
1.8556
1.79498
1.27983
1.8272
1.92263
0.673008
1.48074
0.88295
0.857077
1.34825
1.37227
1.67101
2.45979
2.07837
1.7455
2.2552
1.99657
1.31232
0.58389
0.984078
0.761481
1.12019
1.46786
0.515586
2.31135
0.688826
1.33207
2.00077
1.31938
1.1756
0.895001
1.94523
1.10131
1.02896
2.03328
0.777639
1.89971
2.33837
273 148
476 286
496 85
254 304
187 85
486 274
0 360
246 466
234 377
52 342
119 389
69 246
7 364
469 475
54 138
151 67
177 473
95 185
288 485
426 44
424 200
176 395
69 421
162 242
435 228
473 103
322 427
21 212
465 102
297 367
322 421
126 379
176 420
66 499
480 231
235 15
248 495
83 304
83 134
366 9
345 324
206 499
48 297
216 380
126 58
295 33
56 367
210 344
180 219
485 296
232 242
317 247
231 449
16 166
213 348
326 110
413 11
476 321
33 83
485 290
385 116
247 393
335 241
427 337
344 431
112 396
485 388
430 446
160 420
254 75
6395
3
