70
9
0 0 0 0 0 0 0 0 0
65 91 12 86 36 30 31 68 60
29 68 97 54 75 89 61 24 34
62 41 18 76 44 89 19 95 87
32 43 92 28 88 46 70 71 14
58 56 100 10 89 38 55 40 11
48 86 95 67 70 33 27 80 32
24 59 59 24 42 49 82 68 86
18 10 37 72 46 69 17 82 40
65 84 59 63 97 57 10 11 90
76 13 96 97 38 19 85 60 99
23 35 10 79 88 40 61 40 73
48 67 93 100 96 34 90 42 56
95 10 82 47 66 20 40 64 30
17 63 31 81 49 32 45 11 21
92 44 11 83 20 57 47 83 24
88 48 64 42 35 20 100 38 45
24 19 70 92 21 64 30 78 100
49 33 63 41 95 19 28 78 75
75 47 39 16 83 25 97 65 87
51 31 92 54 95 16 63 97 29
16 55 14 64 16 29 91 14 77
86 18 18 33 89 46 46 10 100
35 90 18 27 90 81 80 63 71
10 17 38 63 73 70 54 11 66
89 39 83 78 34 63 69 82 31
71 64 95 85 41 43 99 90 60
30 66 50 29 53 76 89 74 71
14 13 63 68 33 53 10 40 76
82 98 57 60 83 62 25 85 80
73 85 60 39 98 92 50 37 40
31 75 89 30 74 43 73 11 38
79 69 73 99 11 57 74 82 55
10 46 55 68 96 25 91 27 21
59 50 73 79 10 77 62 74 27
71 34 67 16 21 99 99 12 54
99 48 29 23 59 54 64 96 15
32 17 14 93 79 30 71 34 89
36 43 19 73 90 68 13 66 16
84 32 86 75 10 26 70 20 49
85 98 49 19 87 83 75 66 57
27 47 47 48 87 20 18 97 70
14 97 80 66 85 21 55 97 68
83 33 96 32 95 44 44 32 38
13 80 28 75 10 73 17 56 34
77 59 23 100 63 11 48 19 58
32 11 90 61 35 28 92 66 66
10 92 28 99 42 53 79 28 81
23 83 26 92 36 71 60 68 56
81 27 74 93 43 12 85 11 61
54 82 50 11 15 12 73 74 62
30 59 60 55 78 89 45 66 71
85 15 51 19 19 74 86 79 23
48 56 15 29 35 46 79 39 98
91 27 18 97 26 99 85 12 55
86 51 50 77 48 20 13 86 72
96 58 62 32 41 20 69 61 72
56 21 18 84 87 46 22 57 51
16 16 28 67 80 98 26 45 97
27 53 95 62 14 60 15 69 28
29 27 65 37 79 51 20 34 94
38 33 63 82 99 72 91 23 19
55 24 68 32 30 80 99 42 88
68 61 59 80 51 80 14 63 21
51 37 27 79 70 64 31 87 60
26 35 10 84 93 67 59 57 45
85 72 51 40 33 25 98 75 72
77 46 41 43 33 74 25 60 32
92 62 34 46 96 63 64 17 100
79 64 22 14 99 91 68 53 48
0.870342
1.62937
1.16453
1.76723
1.5144
1.43109
0.582136
0.963144
1.24333
1.73332
0.817826
1.62096
0.563399
0.854181
1.89782
1.2588
0.489782
0.808282
1.79697
0.573482
0.550542
1.4485
1.73055
1.3062
0.970412
0.439906
1.55311
0.770916
1.08206
1.96498
0.807533
1.76095
0.798761
0.429183
1.45574
0.81242
1.05921
1.1684
0.932792
0.962527
0.447195
1.36124
1.67082
0.855771
1.82519
1.10508
0.629068
1.51598
1.3754
1.55839
0.782293
1.954
1.52853
1.74799
1.09463
1.13526
1.20127
0.412516
1.70865
1.31023
1.64449
1.38425
1.99902
0.694648
1.23891
0.415429
0.583162
1.79326
1.06942
1.57422
355 444
300 198
336 218
488 299
440 498
497 265
138 109
353 478
185 200
241 205
428 25
8 116
349 175
454 88
446 252
486 250
284 300
264 395
399 140
288 62
217 379
18 153
226 374
126 387
182 137
178 388
211 357
46 17
351 2
79 389
48 11
88 9
153 10
48 75
229 2
234 6
475 203
426 177
119 276
136 439
196 436
93 257
383 103
444 106
209 55
362 46
449 336
385 461
460 130
119 340
238 180
30 99
385 493
308 106
283 217
153 397
435 170
328 426
126 163
22 242
189 452
334 185
92 341
340 276
185 402
208 442
209 196
89 122
200 399
374 209
3787
5
