70
11
0 0 0 0 0 0 0 0 0 0 0
37 93 98 74 95 95 73 35 46 87 80
82 62 88 27 79 52 91 24 71 28 51
39 92 24 99 67 67 88 11 60 73 85
19 34 64 69 49 35 17 11 100 56 66
98 14 42 97 71 94 43 43 40 11 70
66 92 71 46 85 85 26 51 32 15 90
18 87 82 56 98 69 60 51 96 37 44
100 34 67 82 51 60 34 37 20 38 75
57 84 42 27 53 22 59 28 18 39 57
90 91 60 41 68 15 46 13 28 71 73
85 86 90 59 35 26 61 99 34 38 56
58 76 96 89 54 66 11 15 32 12 65
11 38 31 48 30 54 94 41 64 47 50
21 19 78 42 62 76 61 52 54 96 35
92 66 30 19 42 53 28 74 88 38 80
22 75 90 53 67 64 22 24 35 59 66
50 40 99 31 34 86 100 75 66 35 21
67 96 59 41 56 90 27 65 63 57 86
62 66 71 76 79 65 69 54 78 32 96
74 18 64 84 68 77 56 81 49 55 15
71 28 34 67 81 49 34 11 79 35 28
16 26 29 15 87 90 45 21 94 22 39
68 27 44 49 10 19 55 33 46 37 58
71 29 41 40 54 28 59 79 50 49 97
20 19 25 69 43 76 91 48 26 29 55
94 16 53 56 60 76 88 56 50 98 98
58 49 88 73 93 76 84 50 16 40 65
14 41 17 93 34 41 78 13 86 23 33
84 85 65 99 30 87 55 41 84 22 78
94 36 70 14 12 23 25 76 84 56 77
99 44 16 59 39 21 82 29 71 41 68
94 48 100 60 73 35 92 65 50 10 90
36 54 13 38 68 40 52 46 88 17 16
42 95 62 61 23 90 80 73 16 28 73
51 99 65 46 31 76 70 35 55 64 48
32 99 40 10 79 18 85 93 74 49 90
34 11 79 67 49 66 56 12 79 70 13
44 97 84 48 27 22 51 65 20 61 80
47 31 33 40 80 27 98 30 91 90 58
88 52 51 43 99 86 83 27 66 97 79
86 61 21 65 57 11 99 96 58 17 68
73 18 92 28 37 89 99 63 91 67 74
32 50 94 62 31 62 88 87 74 71 80
52 18 71 14 78 47 75 18 74 23 53
88 12 58 21 79 32 36 100 29 19 25
65 97 92 62 11 86 49 84 13 68 47
62 98 60 45 67 54 31 85 97 69 15
92 80 24 18 64 27 79 51 72 95 100
54 66 87 21 56 31 88 79 47 24 90
34 39 96 87 79 53 27 72 17 52 77
24 89 86 21 43 91 75 43 99 92 41
42 33 72 59 100 94 28 65 99 56 61
51 52 28 77 67 29 81 81 77 87 51
25 92 65 43 24 46 31 60 28 18 96
65 51 45 91 73 47 52 18 58 63 40
64 36 18 10 44 16 24 82 69 56 87
64 40 61 25 26 41 33 77 58 10 87
63 64 22 29 83 34 44 47 27 34 77
14 37 52 68 44 98 48 93 67 44 11
89 67 44 44 89 43 13 57 61 36 70
46 19 59 83 83 53 16 86 28 96 52
19 61 54 90 87 78 36 28 92 81 62
61 13 44 74 65 63 93 44 40 60 24
49 68 55 99 17 19 73 17 67 97 81
70 76 74 26 76 78 10 76 66 43 68
22 81 60 70 88 34 92 83 46 19 90
68 70 47 25 59 53 42 90 14 56 75
42 15 16 18 16 62 73 15 96 79 29
58 17 65 94 87 51 31 73 90 66 12
1.84264
2.2626
0.744368
1.96365
2.06925
1.27403
1.46723
0.765349
0.712004
1.68941
1.55435
1.03345
1.23966
1.35836
0.943182
2.18561
2.02971
1.19339
2.34748
1.86319
2.40129
1.23517
1.74305
1.98691
1.84402
0.694952
1.06177
0.788198
2.23365
2.32612
0.857464
2.28056
1.68923
0.945057
2.1427
1.64342
1.45813
2.42787
0.901689
1.29636
1.41111
0.674336
0.539705
0.79613
1.72288
0.786977
0.513198
0.906629
1.67292
2.23861
0.507352
2.2661
1.94066
0.687606
1.23514
2.25404
1.57651
0.713063
1.8331
1.72023
1.33458
1.90219
1.96505
1.32283
2.10203
1.58407
2.18957
1.11376
1.71488
0.945174
227 223
254 146
427 269
473 133
81 271
442 170
104 237
275 424
397 333
482 461
361 5
21 134
209 348
337 432
422 294
494 413
74 461
57 216
163 395
47 374
140 440
5 35
140 338
70 24
500 52
219 284
158 121
405 117
184 135
259 121
416 423
72 366
397 117
391 75
362 331
66 496
278 392
95 112
424 308
81 239
275 358
103 41
493 312
431 205
291 376
7 296
131 11
242 369
212 438
470 404
62 234
77 431
317 314
116 333
179 41
107 70
346 300
173 133
190 385
25 493
10 5
6 189
49 116
160 260
124 298
359 44
366 50
147 431
33 173
491 236
9685
2
