70
9
0 0 0 0 0 0 0 0 0
62 47 31 94 65 32 89 86 65
76 64 20 53 59 86 26 86 54
61 67 75 50 76 28 82 48 81
44 87 11 64 52 11 18 29 37
71 48 15 55 68 60 26 29 75
52 67 27 45 43 21 96 22 71
99 80 43 94 56 14 24 96 63
31 69 94 92 22 57 65 91 78
56 27 68 36 30 93 70 20 78
67 36 26 81 82 76 88 69 43
48 66 95 75 100 33 37 13 74
67 14 15 61 94 96 19 38 64
26 80 69 52 40 61 54 100 14
58 97 73 38 59 38 52 84 86
71 69 38 68 50 38 29 27 38
45 80 12 54 86 41 19 94 64
80 37 14 44 48 71 28 58 87
61 27 41 44 94 58 46 58 45
74 81 45 84 100 48 45 18 46
73 81 78 16 40 61 58 79 100
68 81 94 23 93 39 66 20 59
63 11 74 53 48 59 77 40 68
93 46 97 11 10 62 87 19 16
49 28 57 32 20 77 65 46 43
47 13 25 90 47 82 67 63 60
59 88 33 27 19 72 67 66 70
15 20 18 45 20 88 76 82 78
88 88 79 62 43 13 61 20 27
54 27 15 42 31 96 77 17 10
76 63 64 68 37 79 54 99 37
66 96 75 33 61 73 91 80 82
71 55 80 37 21 17 43 90 17
22 22 78 17 96 90 88 16 51
62 73 77 59 20 28 88 17 56
29 70 12 37 30 41 62 45 22
41 67 47 65 17 71 56 99 32
43 64 67 64 52 47 80 93 99
75 54 41 61 40 98 82 100 95
84 72 60 58 22 55 55 62 53
80 95 93 87 12 20 49 29 15
39 74 70 88 42 83 61 78 59
41 40 10 68 98 42 41 10 79
86 70 26 21 73 69 54 70 76
88 18 19 35 82 71 69 17 84
15 44 85 100 100 15 61 46 88
35 60 93 53 12 58 92 46 74
18 31 20 34 53 55 59 29 40
40 13 67 16 43 67 10 24 87
52 99 42 25 71 91 55 55 45
66 16 76 97 54 22 31 74 18
52 51 71 55 87 37 88 97 34
98 57 61 71 53 42 86 54 58
26 68 79 92 39 67 29 31 20
24 49 27 89 55 30 44 50 45
85 76 99 91 54 82 78 76 79
52 48 18 41 27 63 72 39 59
92 53 38 21 36 91 48 57 12
34 19 68 71 80 18 17 98 55
18 84 60 41 72 14 63 68 64
54 73 22 100 29 85 26 65 48
12 18 16 11 32 30 43 37 12
84 24 20 45 97 14 48 53 28
49 73 70 47 17 27 72 73 14
98 18 83 81 58 28 82 76 37
90 70 62 67 19 84 35 96 68
64 13 83 33 92 86 79 54 57
47 83 44 77 72 18 39 62 46
31 70 86 78 42 74 68 46 88
30 52 63 94 76 82 82 11 85
1.39942
1.07458
0.528801
1.45579
1.22496
0.490951
1.48935
0.556687
0.505377
1.40199
1.29482
0.68068
0.761372
0.866507
1.39379
1.11503
0.504583
0.369425
1.30314
0.364271
1.31404
0.701112
1.20961
1.33182
1.32589
0.583998
0.60134
0.990622
0.764613
0.450228
1.00237
1.05666
0.758691
0.526028
0.470839
0.49204
1.4686
0.652101
0.820725
0.778629
1.04273
0.951124
1.28166
0.893882
1.31525
0.352246
0.669549
0.352618
0.461001
1.01393
0.727413
0.919882
0.908612
1.38673
1.34871
1.37757
1.34097
1.21901
1.09288
0.590528
0.753617
0.831664
0.918344
1.16577
1.09327
1.4345
0.454004
1.35079
0.337976
0.754031
493 493
178 43
262 442
468 375
382 194
373 500
185 363
184 374
218 191
148 257
428 455
403 457
162 201
157 361
36 108
376 436
91 32
454 106
40 174
277 203
369 444
139 251
398 236
252 103
342 325
319 41
490 423
423 429
277 431
69 458
11 268
43 42
82 110
376 401
84 193
182 425
143 25
50 3
228 108
306 365
5 305
165 66
70 15
204 430
332 48
132 279
220 145
290 94
37 63
66 428
340 176
288 258
427 395
128 286
440 354
121 67
479 28
205 377
258 450
178 492
327 480
15 143
226 196
471 428
272 494
163 466
346 349
298 50
68 257
328 492
4777.5
4
