70
5
0 0 0 0 0
20 32 94 64 30
46 10 19 91 24
95 67 57 20 15
16 26 54 100 59
36 23 92 53 79
27 63 44 81 38
41 69 95 24 36
26 96 84 93 38
30 67 100 44 66
81 45 11 92 57
55 57 11 46 80
22 14 24 57 37
34 46 38 15 42
35 21 61 23 16
22 96 64 100 66
38 100 64 60 48
78 45 25 36 41
59 18 17 79 38
46 29 24 52 64
97 96 98 11 77
14 59 60 24 30
23 98 82 55 90
90 79 86 40 15
71 29 64 38 16
60 88 76 19 13
55 14 64 50 10
73 100 79 34 33
61 42 19 47 68
12 65 72 83 23
78 93 88 48 23
94 58 74 93 45
38 81 97 90 89
65 58 19 77 10
60 89 48 52 50
74 100 77 33 48
20 31 29 94 54
70 59 87 16 53
92 99 26 46 67
59 34 25 20 99
64 78 82 39 81
27 18 75 81 21
19 50 23 32 95
98 31 89 84 50
14 50 90 75 42
88 55 35 32 85
38 43 90 24 63
42 56 79 81 48
68 60 96 19 87
55 38 18 38 14
94 98 70 62 99
62 64 75 30 28
65 64 69 99 28
76 40 27 63 95
41 82 52 78 41
18 91 14 96 75
92 45 57 10 21
32 68 32 40 88
26 95 46 72 49
17 98 78 45 44
95 71 96 21 31
51 21 36 67 74
87 68 53 28 57
97 30 50 54 51
44 57 16 62 87
85 15 38 48 99
83 97 21 59 69
83 94 33 72 75
59 68 72 49 49
30 70 43 66 42
1.1285
0.609702
1.35583
1.06653
0.571795
1.18774
0.367861
1.22323
1.12698
1.18597
0.814171
0.808793
1.14704
0.351706
1.39545
0.845607
0.493172
0.415469
0.403142
1.13177
0.84936
1.28733
1.1991
0.637115
0.782763
1.17106
1.2114
0.347004
1.38713
1.06102
0.712226
0.524874
1.34745
0.91834
1.10198
0.816469
1.09549
0.817106
1.11667
0.787161
0.465342
0.402214
0.362459
0.786597
1.34407
0.55484
1.06784
1.20856
0.420101
1.26265
0.41652
0.548974
1.33396
1.04289
1.04249
1.05074
0.315053
1.44668
1.45187
1.48678
1.38737
1.03075
1.25089
0.963177
0.374521
0.688579
0.498118
0.542364
0.333387
0.34701
61 322
353 458
273 196
29 417
454 90
398 203
350 314
381 4
249 311
270 320
370 139
452 132
281 133
67 123
339 344
226 17
345 128
476 484
499 36
181 120
13 151
131 35
47 163
44 54
444 440
6 497
440 243
368 39
437 478
337 155
152 411
414 71
25 108
396 81
152 151
498 318
180 442
324 272
112 378
59 364
492 384
487 149
109 473
293 143
345 157
287 126
315 278
73 5
354 410
439 13
475 195
115 441
193 342
442 226
183 406
427 167
131 258
195 60
214 457
186 486
425 359
145 84
128 150
23 45
475 346
318 388
180 13
329 242
5 145
208 119
4768.75
4
