70
5
0 0 0 0 0
21 60 45 72 74
65 85 34 61 78
34 100 44 51 98
15 94 87 36 63
23 99 33 14 27
48 18 40 26 20
62 59 21 16 28
26 67 19 53 54
42 18 50 52 42
61 18 37 78 84
11 47 16 30 77
13 92 14 47 55
94 98 84 58 33
30 54 42 59 89
18 90 27 81 79
47 81 90 95 64
81 61 62 18 19
35 23 95 73 85
18 55 20 12 51
92 47 94 26 73
18 56 44 55 84
85 63 12 41 36
72 28 100 37 35
25 31 90 73 66
30 99 46 49 59
57 90 30 10 18
93 27 11 30 19
43 10 89 23 97
72 47 30 78 79
61 40 56 64 10
93 84 46 91 75
39 10 28 41 12
61 68 76 41 44
95 36 90 68 32
80 78 47 50 47
76 53 55 68 99
87 66 90 28 23
29 84 47 33 57
13 18 46 12 63
76 21 95 84 79
56 70 68 10 31
89 65 42 79 63
100 11 21 26 90
83 75 50 40 97
80 37 22 56 46
75 50 58 55 28
19 98 64 78 35
19 38 100 50 34
69 97 54 42 13
55 30 30 56 82
62 74 64 96 12
29 20 84 31 50
78 97 97 49 62
21 54 84 46 33
88 87 18 28 77
11 53 25 50 44
41 93 97 94 97
53 100 26 23 63
57 34 12 59 23
27 94 65 18 76
44 70 89 11 50
91 53 59 10 14
25 30 73 67 67
60 20 69 80 49
90 75 78 11 81
12 81 82 44 42
75 40 20 10 20
53 97 71 26 83
67 39 44 16 44
1.49385
0.750258
1.86002
1.37907
1.49501
0.421287
1.89759
1.69894
1.96954
0.814228
0.422396
0.986907
0.751626
0.64005
1.03311
1.76512
1.16263
1.85767
1.54907
1.9306
1.67436
0.420664
0.528723
1.16404
1.08219
1.15208
1.37594
1.10524
1.40033
0.437096
1.61146
1.47773
1.34562
0.657827
1.09611
1.14028
0.545307
0.570165
1.36371
1.85522
0.716976
1.3967
1.0174
1.6582
0.409942
0.415089
0.763898
0.833084
1.1376
0.895224
1.6558
1.27583
1.39418
0.928805
1.20376
0.788511
1.23861
1.95525
1.65061
0.418473
0.525198
0.863302
1.49064
1.17022
1.63419
0.53284
1.27962
0.895844
1.55752
1.02677
488 212
285 212
244 118
485 269
480 246
145 118
357 66
301 213
409 111
480 395
396 359
432 254
377 309
82 36
186 158
424 491
140 391
189 374
145 221
295 142
253 15
163 456
339 175
119 71
318 20
156 103
463 139
397 289
461 268
267 154
268 56
342 138
99 17
151 42
110 356
35 356
49 331
305 239
153 331
140 199
387 280
107 296
467 14
375 206
251 233
229 403
62 370
126 398
51 363
56 36
148 185
460 207
60 303
464 291
184 184
426 137
279 154
404 48
483 162
218 31
493 151
425 263
432 460
346 373
274 152
437 185
359 409
223 115
496 246
126 294
3680
5
