70
9
0 0 0 0 0 0 0 0 0
78 81 90 40 36 40 79 85 48
83 94 60 87 10 31 77 90 100
100 51 53 22 44 99 84 56 32
58 93 49 71 63 32 51 13 63
18 74 49 16 29 45 46 52 67
66 94 22 62 73 78 30 41 66
80 91 16 17 41 22 32 39 62
56 41 100 77 45 100 30 94 55
23 22 38 20 44 83 44 31 85
84 41 50 76 28 88 85 37 75
43 29 32 60 46 69 26 75 47
89 97 56 75 12 36 76 14 65
55 12 90 85 61 87 90 13 93
64 54 61 10 60 46 65 94 63
64 62 44 25 33 30 73 86 19
65 42 60 96 75 90 32 35 28
79 34 89 42 39 22 71 93 20
88 74 61 46 44 26 77 96 79
49 92 91 83 28 39 73 54 52
88 37 30 88 52 24 65 71 31
58 74 82 14 76 88 58 38 93
52 57 34 41 10 91 19 37 67
82 100 78 71 59 69 58 86 94
10 31 97 86 77 80 92 97 44
83 13 91 46 57 10 100 64 55
83 29 96 53 15 33 52 72 24
54 80 56 32 46 29 19 80 19
46 34 49 48 88 82 29 27 28
18 90 29 36 86 81 42 75 34
14 36 78 28 42 28 55 88 51
25 76 18 79 46 32 64 25 64
94 25 88 51 17 81 60 94 20
80 79 25 14 63 49 62 44 44
56 31 46 84 54 42 81 48 12
41 56 79 78 52 24 39 12 84
75 24 90 89 48 87 32 43 74
95 24 38 53 16 99 13 26 56
74 46 85 17 18 45 56 73 66
65 94 65 42 47 40 79 100 35
22 53 18 73 92 100 16 93 90
20 81 60 15 94 45 71 79 40
92 53 26 37 89 85 71 76 42
79 14 82 79 36 100 83 88 62
49 11 64 93 10 26 17 63 30
31 74 92 93 30 48 69 70 94
61 30 51 89 37 19 53 49 88
62 20 67 86 82 31 82 45 12
48 91 80 17 76 93 21 81 71
93 81 82 48 75 51 15 15 61
73 61 38 19 64 69 77 55 71
81 14 13 100 99 74 53 75 77
22 22 73 30 75 48 10 88 55
54 17 89 55 87 43 17 77 79
22 45 82 36 16 78 29 47 88
36 75 98 34 24 26 95 68 30
46 39 50 15 84 59 84 57 50
85 85 37 53 71 47 53 65 26
35 94 95 22 80 37 96 44 44
88 44 100 13 20 25 63 41 77
49 59 40 41 91 94 75 72 56
91 21 92 37 70 46 77 32 83
55 90 12 44 45 39 77 25 37
94 81 53 22 31 29 10 23 46
18 69 34 26 40 48 83 17 72
59 11 41 64 50 46 51 63 46
85 95 54 97 19 29 29 77 51
25 83 63 18 89 69 88 37 51
51 26 62 30 73 61 96 21 94
60 69 99 73 99 53 17 65 37
0.208344
0.880183
0.810186
0.95323
0.50208
0.679464
0.37447
0.471172
0.867265
0.989567
0.520996
0.470765
0.471404
0.966609
0.616951
0.502282
0.449475
0.465899
0.236803
0.365449
0.704124
0.784249
0.715859
0.793079
0.875307
0.810778
0.492096
0.800994
0.777533
0.957676
0.657657
0.581439
0.956764
0.605472
0.997525
0.204787
0.368373
0.841648
0.299465
0.503713
0.594996
0.249951
0.621591
0.895417
0.6498
0.213112
0.795574
0.877148
0.410259
0.584161
0.561882
0.548882
0.628734
0.241611
0.715225
0.585052
0.732182
0.408414
0.543028
0.566097
0.547267
0.399496
0.455223
0.812502
0.952331
0.846097
0.28728
0.910428
0.757547
0.985947
335 170
83 373
340 329
89 341
247 194
266 244
53 313
58 111
356 43
261 364
159 268
142 58
69 287
264 149
190 370
233 460
107 375
263 480
222 180
484 121
173 408
450 19
197 210
244 242
339 75
285 442
265 135
7 122
25 129
252 471
499 446
436 467
408 230
188 429
315 298
212 177
384 174
32 218
105 482
51 432
17 499
262 329
360 106
490 129
242 406
462 118
159 498
427 166
133 58
497 472
468 353
40 177
229 447
100 277
56 326
35 246
475 14
458 472
17 134
109 315
31 178
117 4
258 93
95 359
190 118
498 375
133 226
322 180
360 230
437 228
9685
2
