70
7
0 0 0 0 0 0 0
82 36 98 79 66 15 61
91 27 39 38 98 100 19
20 50 67 79 87 30 78
88 19 87 60 38 45 69
10 26 30 66 88 81 94
61 50 17 85 57 58 90
63 59 54 21 19 38 76
46 21 92 86 82 38 49
43 93 78 85 78 29 16
25 62 92 41 39 46 91
34 34 61 48 58 34 11
80 79 92 63 71 99 39
22 54 54 25 99 77 100
76 58 46 44 55 80 43
15 60 34 54 37 62 38
23 78 25 31 59 33 66
36 20 80 24 55 94 14
55 57 36 71 49 80 43
64 57 54 69 11 50 22
36 65 94 33 11 35 56
46 35 29 46 27 50 58
15 100 15 67 46 61 44
69 30 61 40 91 69 26
61 55 98 48 40 52 33
54 82 94 33 47 12 31
61 68 30 69 17 37 31
57 35 60 96 55 72 16
25 36 44 27 15 86 41
92 22 56 53 60 47 78
35 46 52 76 10 18 40
81 29 63 41 38 62 62
35 83 28 81 87 39 19
26 92 98 97 47 94 90
18 66 45 61 84 41 87
82 74 34 15 78 60 44
13 19 24 86 34 45 30
12 52 90 60 31 62 78
49 67 95 75 84 84 54
96 36 57 60 60 20 87
21 35 20 18 10 97 67
73 70 67 86 28 34 23
33 93 80 49 16 93 97
51 19 99 70 18 54 31
56 27 29 84 29 31 51
45 38 95 13 51 51 59
19 97 28 76 67 49 88
12 59 21 23 33 30 34
37 71 37 95 89 67 31
52 59 17 59 62 93 59
65 72 29 89 37 45 47
31 40 72 39 65 10 78
84 26 50 21 47 80 98
22 69 30 36 42 88 43
30 12 42 31 52 96 62
74 42 94 11 13 73 58
21 67 36 86 46 67 27
13 31 41 70 60 66 13
84 21 90 98 10 83 50
35 34 37 52 11 78 89
66 15 100 32 62 39 96
20 53 74 64 29 23 91
93 28 13 22 16 82 65
44 88 51 56 47 94 46
17 67 90 82 41 48 45
82 53 40 16 13 21 27
39 37 72 42 90 24 68
58 11 13 15 70 71 59
100 84 61 53 99 89 35
12 68 50 83 26 15 75
0.792657
1.24614
1.29904
0.903194
0.47271
1.1471
1.07123
0.957289
0.790771
0.861002
1.1082
0.629555
1.46212
0.841501
1.44028
1.12043
1.0608
0.530665
1.43112
0.570945
0.783894
1.30585
0.923341
0.682396
0.701652
0.678504
1.11408
1.23311
0.720279
0.939642
1.23849
1.32201
1.32924
0.660194
0.873915
1.40638
0.473752
1.39074
1.1257
0.531836
0.555639
1.00419
0.567558
0.509695
1.14246
1.34384
0.960048
1.07181
1.04454
1.26272
0.993541
0.383693
1.0295
0.581024
0.675033
1.46584
0.322493
0.653898
1.47517
1.00878
0.440937
1.14035
0.818559
1.06442
0.837665
0.467954
0.518148
1.30859
0.448909
0.530292
315 83
467 75
283 298
307 162
83 310
290 277
498 403
261 437
385 39
401 385
469 483
326 54
75 350
14 183
310 451
305 16
132 226
210 165
206 406
238 298
402 163
244 264
37 144
255 374
193 427
342 245
86 234
139 342
174 244
11 439
288 343
155 156
62 429
331 262
186 481
381 32
333 422
369 179
106 411
325 394
267 424
455 437
82 184
5 484
279 274
132 92
406 357
12 95
315 51
302 107
302 386
95 363
49 233
205 245
146 230
273 99
480 136
494 420
122 159
46 299
205 343
327 104
231 443
159 293
211 453
264 29
391 177
421 457
260 341
500 165
4560
4
