70
7
0 0 0 0 0 0 0
94 14 32 22 65 76 75
95 25 98 23 64 51 77
74 91 28 99 41 90 27
17 21 66 78 91 60 67
30 71 16 32 46 51 23
74 75 68 81 48 32 37
69 11 11 10 57 91 18
16 40 26 60 74 39 88
18 19 97 87 94 78 56
78 95 13 22 80 84 67
23 76 29 91 80 87 43
94 89 42 71 15 75 38
86 29 63 100 41 59 37
82 64 68 24 53 38 16
43 20 93 51 68 40 50
38 90 19 32 74 30 62
90 94 34 39 59 74 62
95 46 27 41 37 99 66
25 20 40 79 96 29 29
56 76 97 90 55 52 95
57 16 16 50 15 82 34
68 100 21 52 65 87 71
74 90 14 45 76 27 20
98 93 51 68 76 29 34
70 77 41 57 38 60 42
46 79 72 25 69 66 34
25 84 95 76 50 89 47
32 38 18 59 24 68 45
76 90 76 23 74 36 41
56 20 57 58 56 31 15
67 31 71 23 44 56 99
14 32 72 96 43 59 94
94 23 71 31 31 81 90
57 98 14 11 94 68 25
17 39 20 54 78 75 21
52 44 24 42 80 84 22
92 83 34 34 74 46 17
91 29 59 35 56 88 46
47 92 69 23 79 85 65
28 65 55 58 63 46 65
61 27 72 78 61 99 61
65 61 92 82 74 81 55
64 73 76 18 64 34 38
10 52 88 93 36 66 50
88 58 13 19 27 56 37
94 26 74 25 96 31 28
41 30 92 43 51 78 43
100 86 48 17 88 40 42
29 39 77 76 59 35 26
69 50 82 58 64 43 18
91 77 81 49 90 58 79
22 25 98 22 59 66 25
42 30 72 87 76 34 42
88 20 49 78 55 43 42
41 80 45 84 54 89 83
55 33 38 64 41 34 98
35 58 65 91 100 81 54
49 35 76 33 31 93 39
67 99 63 60 60 10 16
70 16 18 72 64 86 63
95 82 94 76 60 44 10
67 90 46 91 94 34 55
93 52 96 76 40 38 22
82 93 27 12 74 74 68
14 85 85 98 37 78 87
10 81 27 53 98 84 83
16 16 33 34 76 33 23
39 92 83 12 87 41 41
83 90 53 75 75 25 52
1.92073
1.42255
1.53914
1.7498
2.02021
2.18676
0.789529
2.26917
1.44354
0.981065
0.855881
2.10004
1.86721
0.76855
1.96871
1.54309
0.730876
2.18232
0.770886
1.12791
1.21074
2.12282
1.4762
1.08452
1.47058
0.540245
1.55427
1.14771
2.25046
1.7215
0.517557
2.0722
0.993315
1.64834
0.977196
2.05404
2.18254
1.11497
1.85592
2.06376
1.26492
0.754861
1.59315
0.771569
0.921661
0.960786
2.34096
1.55865
1.88128
2.12236
0.816933
1.14789
0.535434
1.96027
0.829925
1.45422
1.92418
1.56406
1.23323
1.31348
0.624315
0.579242
1.81922
0.767181
0.700011
0.598181
0.995244
1.17835
1.4196
1.38999
446 356
490 368
114 494
156 184
36 88
333 242
284 287
100 108
355 121
497 208
36 141
134 328
192 204
205 47
307 469
433 432
315 9
170 16
421 307
343 291
76 281
414 431
260 156
28 156
363 189
25 61
200 485
17 339
80 136
358 212
12 474
216 427
432 136
330 228
25 2
193 339
358 421
241 319
239 96
397 89
230 428
465 139
438 491
44 418
44 277
421 363
375 216
21 302
402 127
55 23
301 46
102 294
500 28
4 89
202 184
227 349
231 60
438 479
80 423
223 401
347 89
150 346
145 340
101 7
131 380
279 490
128 6
155 24
22 417
213 428
4866.25
4
