70
3
0 0 0
52 82 15
62 63 42
40 30 56
46 74 10
67 89 31
94 29 44
47 44 66
26 62 46
83 12 38
86 10 95
97 69 73
10 50 20
61 26 15
33 83 63
91 34 60
84 45 22
53 35 64
63 36 99
75 28 99
33 70 16
20 35 80
76 54 98
79 94 44
11 22 70
89 49 85
53 42 78
49 43 19
44 97 43
12 74 57
70 99 60
100 26 36
23 88 70
38 31 55
66 63 43
75 55 41
25 66 41
24 93 34
19 52 19
66 70 17
11 38 63
17 75 56
50 54 34
24 35 24
98 39 98
79 23 87
20 68 89
33 15 64
34 66 31
69 27 12
98 16 37
89 63 58
70 33 40
46 94 45
54 57 100
58 92 95
74 39 27
79 59 64
35 91 20
97 85 50
84 48 20
18 77 40
62 71 12
84 85 21
67 93 76
62 95 89
39 85 27
45 59 30
66 55 28
25 22 63
0.427392
1.2283
1.13981
1.27118
1.1829
1.15223
1.38177
0.909217
0.939357
0.573389
0.409021
1.35218
1.24268
0.87668
0.596213
0.425879
0.304361
1.19409
1.24162
0.98478
0.341656
0.364831
0.538453
0.707642
1.41266
0.664998
1.05785
1.17091
1.0817
1.30936
1.26763
0.473159
0.877053
1.47566
0.880774
1.42426
0.460468
0.872444
1.35827
1.13127
0.56749
0.513102
0.817909
1.30262
1.10348
0.437832
1.28966
0.638664
0.710251
1.48852
1.03825
1.00881
0.762566
0.862693
0.722476
0.740994
1.48259
0.398478
0.979313
1.43214
0.997442
0.497613
0.368838
0.330842
1.19559
1.4106
1.39852
0.460886
0.508694
0.950639
68 169
380 493
106 30
306 15
371 349
403 291
309 87
173 395
100 237
463 252
298 104
229 161
165 83
100 358
99 344
336 317
95 460
36 444
71 249
418 89
129 341
436 130
127 299
40 305
61 337
173 141
108 103
40 307
179 478
364 377
265 441
305 123
229 385
294 354
36 93
410 31
293 237
328 190
38 136
198 357
486 440
236 316
188 327
208 447
155 189
115 473
464 97
233 157
148 37
443 31
6 306
117 160
149 198
170 63
342 488
203 227
116 10
6 343
99 116
240 399
388 69
180 131
207 207
441 4
379 123
132 430
291 209
410 194
458 369
335 44
9312.5
2
