70
7
0 0 0 0 0 0 0
18 42 27 23 10 99 80
93 47 22 63 14 30 99
29 27 70 58 82 59 89
41 80 12 67 96 81 54
37 84 25 17 31 58 11
30 60 34 52 74 83 100
21 71 49 36 13 93 46
84 98 36 42 49 11 58
100 78 99 95 21 74 39
37 51 86 32 92 61 99
28 33 60 77 45 21 61
86 99 75 68 73 98 15
52 48 83 69 40 96 79
26 64 12 26 13 81 32
75 11 97 72 38 91 76
87 14 36 61 20 41 29
50 93 45 90 67 86 26
52 83 31 41 44 14 14
35 23 90 72 13 77 28
29 86 96 30 76 22 88
30 52 48 70 64 79 73
75 32 45 42 91 44 55
20 18 14 24 77 70 39
10 44 95 45 74 90 97
93 57 63 58 36 99 17
41 47 33 94 19 73 26
51 34 77 12 36 99 36
63 56 72 27 47 66 42
29 46 55 74 66 50 78
17 24 79 62 51 68 47
94 71 41 28 69 40 39
97 36 93 63 75 58 96
45 97 46 20 56 99 65
80 72 56 70 54 39 76
29 18 87 53 47 72 96
38 64 91 35 32 91 58
92 52 95 66 15 62 90
52 33 57 10 43 44 98
79 26 21 88 16 42 67
23 78 15 49 60 22 75
17 22 81 96 15 41 45
84 97 21 71 20 63 19
98 59 62 47 30 92 34
86 67 64 39 55 68 63
69 44 58 81 21 38 82
36 70 73 64 61 69 25
76 58 13 85 16 80 100
80 17 85 30 27 90 90
72 67 88 86 86 55 22
18 44 15 71 48 87 13
34 33 17 47 100 26 87
88 37 53 10 98 46 15
100 99 32 21 81 21 89
11 20 77 92 28 23 35
28 10 32 25 76 31 57
58 42 63 54 97 14 31
55 80 43 63 42 20 74
33 84 73 27 73 75 78
68 63 36 40 25 99 92
80 41 32 75 80 25 12
65 63 32 100 86 52 13
21 47 89 32 35 13 36
62 62 54 50 12 69 45
71 49 24 93 35 80 64
95 56 20 94 72 88 28
85 41 41 49 20 14 42
58 77 18 61 30 20 67
88 88 30 28 19 39 96
38 26 57 97 38 28 15
0.695259
0.817842
0.721941
0.616536
0.211212
0.977222
0.522112
0.84381
0.809804
0.235713
0.464908
0.916803
0.538923
0.901624
0.443687
0.299103
0.822576
0.535526
0.239677
0.292052
0.621185
0.504613
0.907486
0.326994
0.941436
0.689863
0.254079
0.542229
0.261015
0.693302
0.249793
0.337474
0.334859
0.608033
0.529453
0.237647
0.245281
0.903066
0.675207
0.3549
0.604679
0.307397
0.330232
0.915232
0.959467
0.252601
0.911101
0.676447
0.612821
0.563776
0.40693
0.932066
0.622676
0.381414
0.204669
0.420151
0.21277
0.280247
0.876982
0.291897
0.652957
0.80313
0.631034
0.453485
0.924564
0.308467
0.611231
0.497601
0.867529
0.650112
146 141
291 341
242 369
186 356
221 444
258 343
371 425
71 214
252 282
220 361
87 28
431 228
257 4
251 489
197 18
480 160
142 483
489 454
240 474
214 400
243 392
465 217
18 267
438 311
274 310
144 79
477 419
13 160
324 305
360 207
65 485
185 104
254 214
420 218
398 465
222 487
258 259
222 385
40 46
268 384
460 267
115 299
305 93
134 389
296 370
358 412
423 304
240 164
339 432
428 283
181 471
150 391
195 278
105 79
270 297
198 316
129 290
134 347
76 251
1 489
206 176
368 93
257 3
214 488
242 264
221 407
173 298
154 0
56 255
73 108
18775
1
