70
11
0 0 0 0 0 0 0 0 0 0 0
94 65 13 70 34 23 26 86 81 77 34
88 72 11 19 29 20 90 84 34 73 10
44 44 27 88 22 57 55 36 93 36 69
19 33 16 14 82 50 93 78 49 61 16
79 73 81 52 21 11 80 88 97 97 71
32 84 69 32 42 70 62 52 74 100 30
99 77 23 31 86 27 44 84 100 10 89
19 48 41 18 29 31 46 68 48 78 65
34 36 40 94 30 17 70 99 39 74 46
29 85 60 53 48 44 90 94 42 94 51
83 96 35 18 75 88 77 97 60 70 63
15 36 65 37 62 68 24 95 43 25 24
43 10 74 43 62 30 48 44 71 33 10
82 74 96 87 73 56 30 87 54 82 37
45 18 11 55 83 18 97 58 94 47 83
51 23 62 80 78 90 73 30 22 66 31
62 27 17 17 85 95 73 81 63 62 100
45 50 39 55 80 14 25 31 32 75 66
82 72 86 36 10 13 64 56 77 58 16
48 35 82 68 65 23 83 84 18 52 32
59 24 49 16 46 25 71 44 55 72 90
79 28 51 46 21 53 38 26 16 76 39
26 96 43 15 36 100 20 60 44 100 44
43 69 11 62 78 33 85 47 12 77 73
66 37 12 69 95 58 17 86 86 14 56
36 79 44 56 31 20 40 33 77 98 70
61 58 95 45 53 69 27 82 31 38 62
14 75 53 69 83 74 64 72 61 27 56
30 34 41 89 93 31 21 10 87 35 61
43 84 45 35 27 97 46 52 49 79 30
88 45 76 96 84 28 81 20 68 64 87
62 57 90 95 24 70 44 52 33 86 62
94 88 22 20 59 79 25 49 42 62 63
100 91 36 83 70 66 10 62 72 62 50
63 95 85 93 43 84 88 41 44 16 94
58 48 13 61 75 63 93 51 75 46 35
81 57 38 42 15 79 91 92 15 99 86
82 46 67 81 46 32 81 42 24 67 19
78 61 65 37 88 59 60 85 51 69 65
76 37 88 18 19 44 44 31 13 84 90
51 74 24 89 67 54 64 78 20 35 40
73 49 76 76 31 58 91 76 55 19 77
39 11 45 91 88 90 25 70 62 52 24
73 20 17 48 91 79 72 11 82 79 67
88 27 13 12 83 31 83 92 45 65 18
72 60 88 23 91 49 52 34 71 17 61
11 75 25 37 77 17 97 27 63 22 70
37 96 36 32 79 10 74 89 63 68 69
55 18 82 98 20 45 94 26 52 54 22
59 19 66 99 85 43 24 84 91 11 21
12 42 37 90 100 67 77 100 56 43 55
51 37 90 82 85 43 42 36 12 26 17
94 93 45 83 88 39 78 50 44 14 79
100 95 32 12 21 76 29 35 69 36 52
67 74 45 42 62 74 70 59 38 58 40
66 86 36 45 67 11 60 57 72 48 57
94 42 98 37 82 30 58 63 52 73 75
20 60 24 33 53 94 64 28 28 18 59
14 17 23 92 26 17 57 36 21 52 67
94 40 98 41 96 87 37 73 100 51 51
16 15 99 15 77 89 37 86 58 70 35
17 32 96 17 41 77 38 35 48 44 100
44 27 49 19 19 94 80 74 21 97 14
45 48 79 59 95 97 83 91 90 76 98
22 68 52 40 53 16 26 78 69 66 17
71 84 93 100 38 100 29 80 41 47 88
80 84 66 17 44 62 84 64 64 22 64
42 42 91 73 16 84 19 45 17 66 67
72 27 80 10 76 38 45 80 87 13 45
0.76366
0.845703
1.10107
0.503163
1.30374
1.3714
1.7073
1.25996
1.34773
0.817642
0.579715
1.12091
1.04724
1.41312
1.60317
1.34469
1.58965
1.12804
1.45845
0.879303
1.39117
0.773075
1.02132
0.517746
1.16494
0.631914
0.474964
0.852572
0.78745
0.762264
1.68324
0.743119
0.511096
1.39525
1.3442
1.51617
1.70112
1.47739
0.533609
1.89086
0.685072
0.571622
1.22464
1.39335
0.618185
0.841901
0.534295
1.78145
1.23649
1.30291
1.52365
1.31286
1.90054
1.4226
0.740741
1.48342
1.93707
0.901552
1.26084
0.91284
1.63533
1.48497
0.447191
1.49436
0.496548
0.771636
1.54928
1.63021
1.04596
1.82619
160 50
342 214
155 469
88 363
284 398
137 247
214 296
35 272
226 394
342 298
136 322
50 473
134 255
456 318
447 437
91 43
112 452
17 354
49 96
89 464
157 242
11 14
319 17
74 362
51 345
44 239
456 402
188 238
283 48
89 75
38 139
155 388
420 481
329 251
72 322
313 478
34 340
267 11
96 43
485 403
447 377
144 153
380 493
59 435
34 143
309 355
499 264
472 298
45 293
373 33
245 297
345 200
454 399
104 39
457 218
58 146
84 261
145 353
484 135
155 124
479 118
299 433
41 401
280 345
231 105
87 263
226 197
190 359
326 252
324 326
4793.75
4
