70
11
0 0 0 0 0 0 0 0 0 0 0
67 68 49 17 50 93 21 11 83 79 86
69 45 49 59 74 15 13 95 41 53 87
80 81 38 89 69 70 54 95 52 100 94
26 41 49 28 77 45 16 18 31 96 19
81 80 98 39 15 70 82 38 49 81 88
40 92 95 68 49 33 52 91 69 58 60
90 16 33 80 90 64 65 33 37 93 47
88 64 73 99 39 30 43 65 98 41 91
72 96 23 10 37 99 79 53 97 45 59
16 15 33 93 27 90 43 39 39 78 52
62 39 98 39 64 38 45 30 37 39 33
52 24 12 65 27 42 81 27 68 86 73
31 46 12 98 77 22 51 22 26 37 91
17 86 64 91 70 49 89 20 80 49 50
37 46 100 69 21 97 51 65 83 52 41
42 72 20 49 29 12 91 92 28 40 64
51 16 52 53 13 24 22 36 81 90 88
90 35 57 79 57 80 32 68 61 15 66
18 11 24 29 99 80 66 68 94 88 77
17 38 53 86 53 13 50 18 68 59 40
22 85 25 10 93 73 76 74 33 78 91
91 94 72 52 98 22 42 56 24 85 42
35 34 73 66 12 51 24 100 38 31 85
22 73 83 31 90 52 54 53 49 47 29
58 95 92 69 89 54 78 59 87 42 16
41 13 81 80 37 68 14 78 52 38 22
79 29 19 52 23 55 72 83 31 76 55
63 42 41 95 16 100 43 68 88 68 73
75 94 73 80 12 98 28 12 10 46 35
96 12 73 64 18 31 80 29 10 92 46
20 47 57 37 94 78 68 72 42 35 26
38 21 73 95 89 50 54 34 28 28 63
37 84 63 14 20 91 64 99 94 50 74
83 75 45 15 63 73 17 21 40 35 42
34 36 59 50 73 56 18 48 17 91 68
83 59 87 29 95 94 14 86 94 81 14
27 51 10 89 67 55 29 19 28 96 17
13 14 67 68 34 67 34 90 78 30 32
38 66 61 77 94 88 73 84 47 84 74
97 31 52 40 33 27 98 38 62 54 18
35 56 43 23 90 17 17 32 60 51 96
69 11 88 89 93 64 81 43 17 45 60
37 37 65 71 80 67 55 43 58 66 88
53 40 41 47 65 69 54 48 18 26 16
77 91 91 49 35 100 61 33 37 44 100
63 75 30 84 52 20 80 85 100 27 21
34 55 58 99 18 96 24 54 11 42 53
64 43 22 58 85 60 29 11 37 79 78
47 93 94 23 56 95 62 21 75 69 34
74 10 96 14 78 98 80 23 10 39 57
37 78 15 93 87 21 95 59 75 43 67
40 36 87 38 67 29 79 25 52 25 94
68 55 36 29 31 99 85 70 29 70 75
55 92 21 44 65 46 92 96 65 51 29
16 25 63 59 40 37 94 54 93 68 10
43 84 24 56 46 20 85 31 28 30 74
49 84 45 11 31 89 30 64 81 55 42
39 46 29 37 45 90 54 85 76 45 34
59 73 45 31 32 68 81 31 26 33 15
48 17 99 41 98 36 21 45 50 47 23
42 29 91 75 31 68 67 52 33 69 79
35 40 79 93 79 95 11 100 97 36 89
58 87 11 41 43 85 16 84 91 87 87
57 37 43 13 20 66 20 30 29 37 78
79 86 63 88 74 74 87 92 79 36 62
15 43 97 67 87 33 88 15 37 100 99
89 92 33 48 57 27 48 73 26 20 17
26 62 48 76 83 29 67 100 21 80 45
79 42 19 73 69 27 38 44 69 16 91
1.0793
0.845054
0.548233
1.04263
1.02417
0.463487
0.732944
0.557756
1.43596
0.497025
0.635567
0.90278
1.44345
1.34529
0.812489
0.673298
0.69503
1.04513
0.813148
1.33102
1.46399
0.451371
1.18462
0.446933
1.26649
0.426599
0.566192
1.02697
0.788512
0.928344
1.44276
1.42945
1.30735
0.643693
0.846356
0.47634
1.13573
0.952208
0.492213
0.336966
0.494484
1.28688
1.17014
1.4894
0.79647
0.857308
1.41565
1.40658
1.05667
0.831119
1.25902
0.381094
0.488082
0.932544
0.870242
0.403174
0.498694
1.13345
1.44492
0.514564
1.46221
1.2484
0.447394
0.675791
0.795184
0.909333
1.35679
1.28163
0.421186
1.25885
136 65
445 137
469 1
406 227
285 452
98 431
436 107
463 291
300 341
367 17
238 178
496 276
198 274
78 425
479 213
59 452
453 252
214 254
372 221
186 241
58 395
291 199
176 91
190 22
362 204
445 209
226 179
242 481
195 88
243 463
187 166
356 264
36 439
311 374
498 34
401 314
257 214
451 246
136 124
96 430
110 326
439 227
211 358
296 494
195 340
272 164
400 228
173 68
50 254
277 328
191 488
45 402
408 450
73 132
310 41
197 458
149 388
297 436
411 225
353 47
479 123
348 97
195 155
445 101
311 131
90 67
341 57
491 479
394 468
209 100
19070
1
