70
3
0 0 0
94 65 51
49 93 19
58 52 47
65 59 66
52 71 95
77 11 69
53 16 100
46 17 28
67 80 27
82 60 26
83 94 91
81 85 14
22 29 51
37 33 42
90 55 12
38 83 96
76 100 37
18 16 33
32 96 21
61 15 26
85 75 32
35 54 97
74 98 68
83 65 52
38 40 33
75 30 19
21 36 66
71 89 28
29 39 69
34 45 35
66 67 14
92 90 74
86 16 33
40 68 83
70 83 18
27 16 66
77 30 76
90 19 86
55 37 30
73 34 77
10 21 97
81 79 79
95 37 24
100 89 84
84 90 100
30 20 15
92 18 34
91 58 99
88 96 70
15 64 25
39 93 98
66 56 29
96 94 69
78 87 32
51 57 13
14 40 51
78 91 99
56 51 44
23 68 99
83 40 14
56 76 60
19 20 92
83 52 82
20 70 14
57 69 62
48 40 35
66 72 80
23 96 57
26 39 77
0.620268
0.478422
0.409829
0.263648
0.226734
0.766731
0.382924
0.398579
0.333757
0.522993
0.553748
0.34603
0.607632
0.286629
0.954091
0.389507
0.974713
0.261368
0.841903
0.978824
0.4148
0.469265
0.787653
0.887708
0.570624
0.237678
0.477744
0.601017
0.344982
0.932816
0.448459
0.452906
0.328453
0.753921
0.382962
0.817978
0.441711
0.207899
0.210103
0.520575
0.312695
0.513454
0.201081
0.419844
0.397869
0.371383
0.385458
0.415598
0.987419
0.216791
0.25655
0.979132
0.997583
0.929642
0.347645
0.720526
0.373513
0.572912
0.296939
0.699144
0.221085
0.374472
0.831115
0.501177
0.486473
0.556299
0.434937
0.560869
0.858196
0.484241
500 79
415 317
315 217
47 59
125 397
241 328
250 359
347 156
25 1
110 53
61 357
378 417
300 113
290 57
277 172
285 324
363 209
162 450
491 467
327 312
367 356
213 469
38 237
97 131
342 131
428 84
287 395
198 96
232 366
482 181
265 10
328 208
301 337
142 312
10 468
302 231
137 339
54 404
398 101
232 341
36 187
101 40
163 284
217 281
306 418
197 211
248 394
405 72
303 347
2 230
381 36
422 40
130 34
452 33
11 194
351 56
348 415
156 231
285 353
479 344
493 198
404 305
322 381
326 7
242 439
108 168
348 292
76 481
293 80
289 353
19590
1
