70
11
0 0 0 0 0 0 0 0 0 0 0
26 90 19 30 38 61 43 78 58 98 42
33 42 87 70 76 96 99 68 26 40 53
79 54 60 58 42 27 10 78 18 11 33
59 44 80 11 99 30 46 21 17 23 68
25 10 42 32 30 34 96 53 57 30 89
93 11 16 68 18 56 43 17 31 96 36
74 11 28 22 40 37 71 42 37 19 91
35 92 40 75 12 85 49 22 74 87 15
97 24 65 75 22 10 29 30 44 60 95
61 64 73 66 95 45 26 78 73 93 78
57 34 35 53 16 92 91 34 22 79 66
37 36 51 26 75 56 71 42 83 92 79
85 34 82 20 63 61 70 74 14 98 77
70 15 97 40 61 95 79 22 40 89 70
58 13 25 80 60 92 34 19 30 89 42
90 67 16 98 11 97 56 93 84 54 95
69 76 39 75 67 80 47 89 83 66 60
22 48 99 37 47 64 22 72 24 42 74
82 46 11 92 37 69 69 27 79 76 19
33 52 57 82 29 33 18 10 28 28 66
85 75 99 64 37 44 84 59 55 14 96
77 86 73 51 21 44 38 21 66 26 74
50 65 29 19 54 29 38 88 58 57 13
61 47 65 23 77 17 78 71 47 23 68
94 27 95 65 80 50 93 80 20 35 74
29 68 57 51 28 12 61 11 23 16 17
43 99 77 49 52 23 55 40 52 33 100
16 24 83 56 13 24 32 90 16 21 13
31 95 26 28 80 13 31 83 76 27 86
72 30 11 10 77 13 99 49 90 57 79
20 49 76 67 28 20 45 42 34 84 54
77 65 89 82 82 12 90 21 81 88 100
15 82 89 71 98 80 69 72 90 60 31
99 28 37 55 10 36 21 64 93 72 58
45 51 50 80 14 33 36 38 61 78 89
17 73 27 27 27 59 46 11 28 77 76
79 13 84 58 84 88 65 97 59 60 17
54 16 88 33 33 47 28 19 26 91 51
59 12 61 11 97 95 20 55 12 87 82
35 26 53 93 19 89 44 68 28 33 35
54 65 22 88 75 54 69 20 17 35 42
88 69 44 37 22 48 37 36 88 59 45
94 81 70 55 88 50 87 44 64 78 84
88 98 66 25 60 46 76 14 73 43 89
41 72 15 96 24 76 56 35 51 54 77
38 88 37 27 48 30 85 15 57 13 90
78 13 23 24 44 59 11 62 27 65 53
77 71 48 87 11 50 80 83 100 41 78
67 15 85 84 78 31 54 11 33 70 82
22 57 89 54 75 48 19 26 81 98 25
62 42 96 66 96 11 61 66 99 22 96
84 65 76 42 58 75 61 99 36 48 45
80 29 51 63 18 25 58 50 84 38 78
87 15 84 47 56 24 77 55 27 65 51
75 89 33 47 10 34 96 77 68 46 58
55 78 78 62 81 14 95 65 29 94 22
76 53 37 54 49 41 20 40 24 63 100
96 35 55 83 74 43 88 96 10 78 46
81 20 10 14 83 15 89 40 12 99 47
15 34 54 59 47 19 42 10 62 54 42
24 63 90 25 76 43 85 24 24 70 97
89 91 72 73 45 80 10 19 94 12 66
31 36 49 32 89 59 86 95 76 93 40
88 61 68 36 49 97 40 26 46 10 30
25 84 41 56 36 17 46 98 70 64 66
81 66 26 73 65 17 26 27 24 80 24
73 45 93 100 83 67 20 15 68 72 52
25 25 88 33 31 78 66 73 14 88 69
23 33 30 17 47 42 91 97 20 97 69
1.38758
0.692545
0.330754
1.0347
0.773829
0.687244
1.34345
1.06748
0.427719
0.993271
1.23506
0.694556
1.03556
0.728462
0.425878
0.74414
0.45478
1.38169
0.548547
0.481827
1.0832
1.32097
0.3175
0.546317
1.31533
1.29268
1.12344
1.40434
1.09561
0.531787
0.481881
0.481091
1.33358
1.38771
0.539836
1.35584
1.12025
1.48946
0.695886
0.961155
1.27934
1.43539
1.27084
1.33267
1.31924
0.762726
1.14976
1.37092
0.796503
1.05723
0.731333
0.396519
1.34584
1.34289
0.393708
1.03133
1.44981
0.849122
0.916879
0.858523
0.936326
0.300305
0.976671
1.31673
0.355585
1.38673
1.4408
0.657614
1.25945
0.754474
369 169
435 307
468 231
495 346
306 11
453 367
234 62
408 26
76 295
36 261
428 308
214 430
185 234
371 138
255 96
140 364
71 198
333 301
440 487
114 420
62 433
350 412
236 364
324 58
36 366
266 474
97 339
422 259
357 192
85 306
406 341
97 458
137 371
102 484
359 442
474 360
37 13
146 359
327 119
35 238
122 56
174 285
241 195
411 159
339 446
315 26
379 32
46 252
282 57
460 149
143 351
437 179
220 211
199 253
98 380
486 16
394 148
378 227
40 242
114 391
239 410
40 218
125 424
378 47
26 222
362 177
169 473
378 352
104 211
323 51
6223.33
3
