70
5
0 0 0 0 0
26 31 60 85 10
97 18 54 46 37
29 79 36 40 43
43 94 84 20 98
74 26 53 13 27
69 36 16 76 41
17 36 48 50 16
93 71 10 39 63
42 31 26 99 17
10 69 93 67 36
92 67 71 25 11
68 25 35 75 11
33 86 44 97 72
76 14 33 54 77
23 37 29 34 59
69 46 62 29 30
92 18 43 58 82
22 64 78 100 68
100 90 49 95 14
76 46 80 29 27
84 89 35 10 52
81 90 37 38 31
18 67 73 92 85
18 66 27 54 43
75 24 21 36 54
22 89 11 75 12
64 89 97 70 13
86 20 14 48 27
24 93 75 41 74
77 81 16 80 40
64 27 24 94 92
61 43 57 45 95
24 95 79 24 49
79 47 17 37 49
89 86 59 81 38
85 60 80 96 34
19 62 18 15 39
89 97 71 93 51
91 76 47 55 73
36 84 77 22 29
20 65 59 78 17
47 42 36 26 82
80 50 13 36 95
84 83 48 52 78
38 33 79 34 40
10 43 34 46 70
95 43 13 34 76
54 94 42 51 81
73 77 68 84 27
97 73 33 82 55
83 69 58 99 12
99 88 21 13 54
100 81 69 98 12
80 96 54 12 75
10 75 14 37 50
20 18 90 22 71
47 20 25 81 17
47 23 64 69 19
26 97 88 36 64
29 76 50 72 79
71 11 39 28 74
75 60 48 51 18
58 12 34 80 45
99 86 50 25 93
50 48 25 64 26
18 64 44 75 44
82 82 45 84 50
14 96 24 10 41
96 24 49 39 90
0.615602
0.643825
1.38075
2.00613
2.16749
2.42769
0.682895
2.4688
0.819547
2.11072
0.813371
1.72183
1.09444
2.40115
0.725439
0.507821
1.94603
0.741284
1.93329
0.948143
1.05207
1.04138
1.60117
2.35178
0.873
1.56213
0.840156
1.56878
1.23808
1.18285
2.17235
1.9489
1.5534
0.788977
1.95877
0.780152
1.55203
2.14667
1.41145
1.46941
1.42783
1.58312
0.64963
2.21896
0.73579
1.55681
0.565523
0.524162
2.38779
1.68579
2.18097
1.35359
2.41822
1.09837
1.67584
1.68752
1.26096
2.20954
1.8679
1.57609
1.41644
2.41728
1.85737
0.774547
0.670167
1.29093
1.8062
0.790096
0.7111
0.694651
107 385
257 389
68 270
415 497
55 292
347 73
420 187
275 201
85 92
203 272
466 82
7 149
63 124
208 274
198 151
1 271
386 125
187 216
290 55
135 312
37 94
32 169
392 218
63 151
150 81
118 67
482 107
192 483
200 268
279 265
118 123
337 331
301 175
191 378
342 190
173 355
67 439
146 424
29 428
132 75
193 60
92 191
292 140
420 223
131 494
447 400
482 328
301 205
394 471
391 33
477 280
234 407
452 500
261 50
415 88
447 215
1 461
117 323
109 267
335 119
294 192
461 315
9 269
113 310
296 324
180 361
301 20
188 174
323 411
289 349
6173.33
3
