70
9
0 0 0 0 0 0 0 0 0
68 66 93 71 62 55 20 48 28
72 84 88 99 26 83 76 48 56
22 10 61 90 35 78 87 61 69
32 75 90 86 11 64 61 99 17
30 55 58 31 33 48 88 99 82
14 89 70 17 83 17 83 84 79
53 84 53 10 62 15 60 22 81
88 63 23 32 30 20 88 54 64
42 51 74 39 42 68 100 21 88
83 21 48 19 89 91 64 61 55
23 41 20 70 82 89 28 80 77
80 42 31 86 82 46 88 37 34
46 77 78 64 60 77 69 77 14
15 96 89 46 95 63 53 58 98
97 16 26 75 13 62 83 43 30
73 13 28 64 24 16 17 51 54
100 44 57 42 98 33 70 97 18
77 61 98 45 70 41 40 74 40
23 14 43 81 59 86 76 33 33
40 26 29 67 89 25 14 61 47
97 71 99 49 71 91 70 23 88
75 44 36 66 59 61 65 82 42
67 25 45 35 87 71 95 56 33
32 68 49 53 83 68 75 91 92
89 42 28 83 100 78 48 33 45
12 88 77 98 49 44 35 94 53
21 88 61 63 73 12 55 78 82
98 58 80 76 22 31 29 92 42
26 24 97 71 37 47 67 35 83
83 33 54 44 88 23 67 23 43
53 29 79 67 77 72 96 17 53
73 14 79 11 83 49 30 76 89
90 70 24 28 21 20 17 92 86
99 16 95 32 26 89 13 62 91
65 66 60 12 80 56 26 70 44
48 85 56 33 40 13 100 58 97
83 56 94 100 70 78 82 43 29
58 46 81 62 79 50 63 77 74
22 74 58 83 48 62 39 56 68
59 99 72 18 41 63 21 11 63
65 85 15 83 22 49 67 99 52
20 68 39 87 86 73 79 73 47
81 67 11 94 25 76 23 63 93
92 43 87 10 73 75 28 49 66
16 86 46 16 10 98 12 36 50
14 88 81 13 79 60 39 38 89
91 79 27 85 55 69 21 45 73
93 35 37 95 18 12 64 94 27
87 28 18 44 47 53 25 67 70
29 88 39 56 89 14 75 37 89
28 44 16 76 52 65 83 23 64
47 98 83 43 18 57 82 15 25
11 82 96 82 38 11 61 21 31
26 29 17 91 52 76 69 24 72
67 29 91 45 33 81 44 96 12
26 96 90 33 53 31 65 30 43
25 84 16 38 38 22 35 25 63
79 33 92 98 77 14 80 100 10
28 24 43 41 36 64 29 79 34
61 17 81 87 28 14 14 77 82
23 43 12 81 79 36 49 92 68
20 100 67 69 96 76 100 28 47
51 68 91 90 17 65 27 91 33
80 21 90 96 68 75 63 74 22
52 46 71 83 85 73 39 13 54
48 91 51 30 30 58 21 65 60
27 26 81 21 64 58 44 12 69
62 47 17 28 30 21 39 63 38
84 56 39 23 68 11 26 62 28
0.160747
0.325558
0.113838
0.415418
0.166048
0.41491
0.141338
0.498992
0.168905
0.289118
0.2233
0.21995
0.325919
0.498768
0.451044
0.140251
0.405936
0.112918
0.225941
0.316358
0.125638
0.138699
0.310671
0.465695
0.115572
0.194861
0.2771
0.367555
0.141836
0.359967
0.11229
0.195228
0.297587
0.428517
0.346758
0.269226
0.100354
0.49456
0.451021
0.382674
0.130847
0.180699
0.111228
0.407552
0.476574
0.369866
0.194384
0.155922
0.279693
0.475212
0.238234
0.333354
0.135565
0.123593
0.463411
0.104299
0.227179
0.486273
0.205802
0.356244
0.43317
0.270382
0.135227
0.188904
0.164686
0.221166
0.29822
0.166247
0.340219
0.229397
413 485
234 134
68 288
227 440
223 305
414 165
196 246
77 481
312 89
198 103
228 342
290 46
341 70
243 198
89 297
475 188
442 255
267 428
491 294
235 68
19 162
108 59
85 419
299 296
35 126
0 230
465 136
76 68
294 183
187 484
61 167
274 359
269 51
417 302
236 270
410 46
198 398
212 57
109 5
62 454
419 377
253 28
328 25
140 0
36 464
295 89
128 243
396 472
348 425
3 492
476 437
261 34
4 400
127 382
235 262
327 443
235 62
399 91
306 0
327 169
108 35
449 361
130 7
398 306
96 438
365 59
170 339
170 5
428 441
28 490
19250
1
