70
5
0 0 0 0 0
47 82 99 40 71
75 55 61 35 36
87 74 14 19 91
45 73 94 74 61
45 98 19 83 45
10 28 57 22 27
88 28 96 83 86
76 18 39 53 29
59 44 39 79 84
97 23 55 42 86
44 12 48 58 31
96 32 88 38 74
81 71 75 76 46
16 33 56 46 62
41 11 55 81 52
28 36 48 57 29
54 22 69 27 99
94 15 18 14 44
70 41 66 26 16
48 30 20 93 30
94 72 30 49 22
77 14 83 37 93
70 90 78 82 38
46 67 15 88 70
81 23 99 79 10
64 13 96 30 21
35 98 89 10 39
15 77 18 39 56
55 40 49 22 64
16 15 92 70 88
69 96 48 12 33
54 21 64 54 95
85 70 69 12 49
44 96 92 17 58
70 63 60 75 80
40 71 88 71 17
32 68 56 95 26
25 11 54 76 82
16 90 79 79 80
40 81 93 88 94
20 28 86 32 18
38 55 71 23 87
20 79 58 69 31
64 56 19 17 27
30 29 33 31 32
14 92 25 79 19
22 41 44 71 92
35 24 34 30 100
74 36 100 97 93
56 60 50 64 26
47 45 70 54 74
59 99 12 86 74
29 84 11 26 19
48 40 37 46 86
99 18 90 56 50
40 56 71 11 53
21 13 99 26 78
81 56 78 31 30
54 38 90 63 31
30 33 15 20 12
68 35 74 28 55
48 16 63 49 76
65 24 87 46 23
52 85 56 17 30
62 24 35 15 65
29 92 71 38 47
15 16 80 97 19
95 80 57 95 70
71 85 78 51 94
0.762847
0.46022
0.59123
0.923721
0.677816
0.293567
0.561762
0.976772
0.603383
0.604758
0.667075
0.566691
0.510888
0.827807
0.601104
0.288016
0.583972
0.824169
0.799366
0.778511
0.214545
0.711596
0.555505
0.568667
0.934689
0.36668
0.489306
0.916902
0.669753
0.470078
0.39208
0.463532
0.239421
0.630237
0.524279
0.74504
0.462736
0.23376
0.841748
0.258671
0.246227
0.57088
0.285464
0.728544
0.403184
0.450521
0.891357
0.80083
0.985816
0.887833
0.318376
0.211141
0.570945
0.824852
0.962033
0.680326
0.647022
0.705696
0.859376
0.72713
0.832699
0.297916
0.44834
0.82929
0.802623
0.556937
0.961806
0.680489
0.689597
0.352005
385 174
81 298
415 363
59 121
237 407
359 176
198 298
102 112
475 491
142 386
144 499
51 55
467 108
240 342
51 147
34 112
459 386
120 474
225 13
142 284
206 318
116 482
117 366
67 445
299 325
65 220
152 365
273 266
338 376
183 133
411 105
311 387
99 69
237 339
499 208
24 123
171 385
477 196
331 99
375 193
65 146
496 387
436 370
154 51
392 450
332 3
302 454
479 307
358 165
242 452
281 130
260 55
1 329
478 96
296 173
429 209
296 195
402 461
358 320
63 196
333 424
64 122
371 430
150 200
137 390
132 197
440 430
39 131
251 485
48 256
18440
1
