70
9
0 0 0 0 0 0 0 0 0
99 100 80 17 30 13 44 17 55
100 35 43 25 32 83 27 73 60
47 44 38 61 51 66 47 55 78
16 78 75 16 29 69 88 66 43
25 10 72 60 32 65 11 27 53
93 63 79 53 68 47 60 62 30
11 60 19 44 95 61 56 75 40
35 58 97 57 60 25 67 73 52
81 63 76 20 77 34 82 21 95
74 30 16 93 10 49 65 69 49
78 87 89 17 31 40 90 88 43
77 99 38 56 67 22 38 98 18
20 71 43 46 88 18 89 14 62
40 59 43 79 82 85 84 55 18
22 90 76 48 81 20 36 72 23
93 41 87 53 20 73 15 93 26
75 97 22 100 90 75 27 80 99
61 42 50 83 23 48 29 51 38
37 60 85 64 68 46 66 61 95
57 15 41 99 17 97 14 13 22
91 61 99 96 18 32 53 26 47
42 94 39 56 55 92 55 29 19
20 85 64 79 59 87 85 15 32
88 86 46 32 92 93 97 80 95
81 87 82 19 56 78 18 58 47
21 21 95 60 65 41 78 99 23
79 73 19 21 76 86 27 33 84
25 82 42 24 22 58 17 84 78
76 55 48 80 60 20 55 42 63
57 40 19 23 74 19 26 76 40
22 69 68 78 71 84 53 45 88
76 42 96 29 32 41 13 18 49
10 30 73 76 54 53 38 85 97
67 54 16 15 86 64 31 14 35
54 18 13 61 51 38 24 21 10
15 54 38 10 100 24 84 83 95
90 90 60 37 98 18 40 59 82
42 95 16 53 19 91 50 79 26
13 56 34 51 46 49 30 37 35
55 54 72 73 61 96 54 54 52
76 64 97 34 62 71 63 41 93
36 41 86 84 86 81 24 33 50
62 62 78 69 31 87 49 58 97
88 74 23 49 96 60 20 10 38
28 32 56 18 84 34 25 59 87
15 67 87 96 69 62 75 51 19
50 37 12 48 95 64 68 48 75
47 62 91 59 28 64 50 68 24
55 57 64 37 44 52 47 28 76
32 15 99 70 33 58 62 65 62
23 50 25 95 65 26 39 14 96
18 64 12 100 40 10 47 50 84
93 95 16 98 96 30 48 74 34
69 70 75 84 80 80 58 89 65
18 84 15 38 54 36 46 32 17
52 91 77 30 72 10 13 91 42
96 28 92 63 61 19 77 72 32
32 24 80 79 28 62 96 26 80
67 96 30 74 41 81 52 74 73
78 16 41 40 82 76 97 62 90
34 68 38 89 95 95 55 68 27
76 70 49 83 54 22 26 35 90
83 31 88 68 69 60 52 40 54
45 52 34 96 54 84 64 83 44
40 10 96 65 35 18 14 80 80
31 34 24 63 16 55 27 100 45
18 37 40 19 13 35 42 31 78
19 16 45 96 11 88 61 66 42
72 75 45 31 96 85 54 63 49
0.490154
0.66448
0.728571
0.959155
0.94192
0.292523
0.718644
0.24504
0.616967
0.684395
0.610934
0.774155
0.358691
0.861046
0.437523
0.903108
0.89754
0.566643
0.892118
0.590665
0.408283
0.39141
0.525485
0.865457
0.91585
0.603682
0.751747
0.36986
0.655041
0.35623
0.36838
0.898847
0.408686
0.935268
0.878633
0.716557
0.759462
0.991617
0.831757
0.241002
0.628711
0.375738
0.59399
0.437794
0.560758
0.480564
0.680369
0.712455
0.98332
0.379753
0.733249
0.722434
0.426734
0.63674
0.552278
0.305174
0.229764
0.921406
0.577867
0.631008
0.650469
0.671814
0.869198
0.206366
0.31658
0.674533
0.313453
0.630178
0.354352
0.928482
270 212
23 333
117 302
495 324
324 411
475 326
345 283
481 54
231 270
403 334
106 443
411 318
129 21
84 230
251 94
184 140
256 294
178 9
162 397
332 92
477 379
429 148
385 181
75 248
38 306
87 106
240 0
4 77
93 114
464 474
196 98
301 274
321 342
217 473
296 57
71 244
15 28
39 430
58 91
403 409
391 217
50 408
415 317
12 424
460 194
329 325
426 312
483 342
10 304
454 53
154 186
331 323
376 89
298 173
1 448
482 194
23 464
464 60
470 290
293 68
51 167
466 41
44 132
264 98
466 433
201 100
315 466
357 438
56 436
473 342
3795
5
