70
9
0 0 0 0 0 0 0 0 0
69 36 55 59 52 87 61 76 30
95 26 71 68 53 41 75 32 26
80 44 41 49 54 27 30 84 34
32 86 50 77 29 31 99 26 44
77 28 41 49 74 98 32 92 96
70 82 97 51 61 20 28 62 88
45 54 25 19 65 72 86 68 13
59 68 50 89 61 63 88 52 68
96 14 49 93 26 51 20 11 88
93 65 54 62 28 50 16 56 11
64 96 10 94 67 69 80 45 67
46 92 99 75 59 23 45 97 94
97 34 10 50 69 18 67 100 34
98 28 26 18 17 63 95 93 93
56 95 75 63 33 97 51 40 90
83 93 69 85 44 53 39 98 15
45 53 19 52 33 20 78 84 86
55 97 97 54 76 40 79 18 18
86 58 37 31 43 69 67 22 38
77 13 98 13 40 81 17 81 70
74 62 36 92 14 14 50 43 35
38 22 83 32 52 24 12 72 42
64 64 21 93 79 66 10 97 36
17 62 39 44 13 58 41 59 67
77 25 99 91 65 40 61 26 96
91 42 51 11 88 12 70 31 58
16 22 62 52 82 13 35 64 82
25 83 82 54 44 97 26 27 42
25 100 53 80 38 78 85 55 77
97 73 58 36 95 25 65 70 97
76 96 18 70 15 35 48 55 21
15 20 49 45 42 82 56 63 83
35 55 71 22 69 16 30 19 98
55 46 42 79 55 74 34 38 84
20 25 45 39 42 54 75 45 99
99 12 85 90 94 67 15 11 17
53 78 42 57 61 44 46 80 83
63 38 87 48 40 74 32 43 91
29 67 68 81 71 24 94 58 34
82 89 54 19 39 61 38 30 30
100 66 80 41 34 93 25 33 16
81 11 93 42 21 96 24 91 27
25 75 33 93 94 100 78 74 16
17 76 31 48 52 48 13 34 38
55 70 89 94 25 60 55 66 59
64 83 39 41 57 94 75 29 87
53 50 20 32 76 21 72 30 21
30 12 94 22 22 13 21 87 64
62 46 14 87 73 89 68 31 58
52 21 23 64 23 15 52 96 60
13 11 70 16 52 73 82 23 41
96 23 62 39 96 39 89 33 79
41 88 35 61 20 70 63 16 77
37 74 94 62 66 33 78 96 69
54 41 29 51 59 81 20 35 84
62 48 80 40 67 56 10 62 70
55 83 80 71 71 43 41 75 16
33 89 15 64 29 27 72 25 46
17 34 65 21 78 21 51 13 24
17 77 34 86 64 39 23 82 53
20 41 38 59 17 99 65 66 26
35 14 56 35 98 42 97 27 97
53 17 63 22 85 76 77 74 79
80 26 72 25 39 85 84 65 15
49 18 51 50 24 74 52 68 74
55 10 20 73 31 29 54 50 54
69 84 71 98 76 100 48 46 24
11 59 31 48 56 21 52 64 64
44 40 15 56 33 73 78 74 84
0.340577
0.149995
0.427315
0.146512
0.244064
0.450797
0.237052
0.184854
0.493542
0.411178
0.267132
0.202251
0.406461
0.319207
0.367528
0.225459
0.267199
0.162141
0.324322
0.339605
0.166701
0.422369
0.276878
0.134855
0.388206
0.259638
0.426844
0.127357
0.46816
0.113393
0.347564
0.209435
0.148038
0.336344
0.311817
0.28771
0.345882
0.252852
0.227954
0.339982
0.397618
0.271765
0.224431
0.304436
0.496808
0.252397
0.28377
0.499513
0.208017
0.253431
0.2374
0.204964
0.224743
0.422693
0.435854
0.238409
0.110466
0.400261
0.23828
0.351792
0.160581
0.181728
0.310134
0.422643
0.364697
0.139773
0.209063
0.133
0.136685
0.303109
261 226
425 3
206 62
173 46
345 357
297 450
101 140
84 336
73 174
123 464
135 86
218 10
76 12
385 163
286 300
299 415
310 390
301 457
142 14
430 360
30 199
405 473
292 200
466 447
311 361
286 404
387 123
329 206
21 292
87 448
210 88
323 57
343 302
61 110
323 356
132 284
393 278
159 305
450 292
439 416
384 443
75 164
195 27
323 256
272 471
235 455
30 367
226 360
236 47
451 474
55 408
484 116
403 191
404 481
217 83
59 313
405 246
482 332
240 76
77 375
54 10
24 492
9 160
469 360
346 60
221 498
143 473
249 255
142 463
170 480
18755
1
