70
11
0 0 0 0 0 0 0 0 0 0 0
76 15 54 100 73 13 30 17 78 58 43
24 31 13 50 54 64 29 90 62 49 14
70 59 88 92 23 59 62 39 49 83 29
82 46 73 51 70 28 36 65 65 28 18
43 38 50 86 44 57 96 82 52 80 86
85 71 39 12 87 77 59 95 61 57 44
59 72 45 14 54 72 79 41 23 96 52
59 40 56 55 70 29 95 19 34 24 63
11 29 12 83 65 47 84 12 84 16 39
15 48 59 19 58 92 20 53 23 70 68
65 26 28 22 92 100 38 97 88 62 54
45 80 84 29 25 98 14 58 74 29 47
99 11 36 98 29 97 14 66 64 72 93
49 19 49 94 26 53 96 26 99 49 43
91 39 11 30 13 25 76 35 42 67 31
83 69 72 82 55 73 19 67 40 91 19
92 17 51 11 22 98 62 56 27 15 85
98 77 47 22 48 95 47 23 33 49 15
36 86 13 63 100 51 46 95 56 31 58
41 22 87 33 94 34 50 51 71 44 59
78 37 84 11 80 97 18 17 52 63 62
35 72 52 16 23 39 84 14 98 48 74
66 76 66 50 61 25 41 62 29 76 88
36 67 63 60 39 20 64 21 24 37 35
83 43 32 65 16 20 40 97 31 99 47
68 60 34 46 94 77 38 48 64 79 23
97 15 84 27 98 73 69 52 35 92 47
64 73 21 53 29 16 35 27 39 45 40
32 87 12 12 57 62 78 52 28 97 61
41 77 35 33 98 36 60 52 16 70 85
17 47 12 32 42 59 16 29 32 99 88
98 61 16 94 84 82 10 58 81 88 100
96 83 12 27 51 61 20 75 32 11 66
65 54 63 24 82 19 53 13 39 46 42
49 23 81 61 80 54 72 91 20 90 93
15 22 87 22 84 22 44 63 66 59 94
95 59 23 79 29 94 11 54 59 80 76
86 34 30 85 76 80 49 72 11 86 20
54 56 13 33 55 38 45 79 51 90 31
26 28 27 67 67 29 91 41 11 36 92
44 41 69 12 39 63 30 28 93 100 75
78 23 93 63 30 78 68 24 56 41 65
66 34 49 16 10 40 53 52 91 51 58
50 28 25 51 15 23 37 23 56 96 53
74 50 18 56 58 50 23 89 52 74 49
32 95 15 78 46 55 11 13 19 72 61
32 42 78 29 72 22 72 96 48 75 62
51 97 26 78 51 56 12 67 18 12 11
81 13 19 53 58 76 74 10 14 66 44
79 85 70 91 54 41 84 34 96 27 71
49 41 89 87 20 23 72 96 65 81 24
54 71 55 35 44 44 80 84 12 59 67
68 77 97 95 93 92 80 27 62 94 54
21 72 15 46 75 42 17 17 59 90 18
37 50 83 73 79 19 99 54 41 54 15
73 10 23 32 41 91 64 27 56 31 41
87 59 54 28 83 63 99 91 38 67 27
29 27 90 66 42 88 53 55 91 63 17
43 73 75 17 61 96 41 67 48 50 39
83 10 30 14 97 84 76 96 23 59 40
38 73 84 69 41 53 21 14 64 21 43
63 27 74 45 35 33 45 22 57 21 97
10 43 59 73 26 39 13 90 80 50 51
42 61 67 93 11 65 40 56 75 45 28
65 47 74 76 17 17 52 13 23 28 46
63 66 15 52 65 21 49 70 89 77 87
64 47 89 76 85 79 77 47 23 21 54
11 50 25 10 85 33 90 82 71 100 83
44 65 91 78 68 40 20 39 67 88 98
0.333234
0.452155
0.3922
0.256825
0.150454
0.103114
0.171179
0.235823
0.408073
0.418167
0.193732
0.288846
0.354914
0.454771
0.407596
0.243152
0.248567
0.357028
0.478172
0.493018
0.214836
0.34363
0.364322
0.158291
0.359823
0.282775
0.290955
0.431761
0.228364
0.326742
0.460407
0.493361
0.438109
0.458645
0.381144
0.484526
0.287465
0.20476
0.110506
0.391416
0.171247
0.471678
0.419271
0.167644
0.363891
0.104375
0.338426
0.237458
0.371627
0.416458
0.389856
0.164291
0.350186
0.274754
0.352253
0.275974
0.10697
0.164044
0.281104
0.388713
0.172759
0.450957
0.255151
0.336022
0.19684
0.270236
0.474845
0.162618
0.374047
0.121837
96 254
466 431
360 54
193 202
4 333
459 262
160 497
242 50
224 129
281 482
259 40
376 41
14 103
83 160
429 345
425 136
433 157
270 408
29 10
270 38
448 38
353 0
270 399
320 92
297 54
316 153
326 281
106 138
349 440
394 292
76 191
343 415
475 196
307 369
216 452
37 368
189 326
160 114
475 164
200 410
153 387
125 265
459 189
238 176
446 49
192 454
18 352
86 321
18 96
315 373
379 358
423 172
335 423
247 419
195 344
23 213
308 0
215 240
86 202
79 141
438 34
368 143
369 1
499 341
198 222
349 20
362 185
232 257
99 335
203 165
6146.67
3
